{
  "avatarAssetsPossible": 5,
  "maleAvatarAssetsPossible": 2,
  "femaleAvatarAssetsPossible": 2,
  "avatarAssets": [
    {
      "id": "00000008-0001-c1c1-c24f-74f258480836",
      "imageId": 50,
      "subcategory": 0,
      "unknown": 0,
      "isMale": true,
      "isFemale": false,
      "isUnisex": false,
      "label": "Curiosity Mars Rover Shirt",
      "description": "Achieved touchdown safely ten times",
      "howto": "Touchdown safely ten times"
    },
    {
      "id": "00000008-0001-7112-c595-68e258480836",
      "imageId": 26,
      "subcategory": 0,
      "unknown": 2015221016,
      "isMale": false,
      "isFemale": true,
      "isUnisex": false,
      "label": "Curiosity Mars Rover Shirt",
      "description": "Achieved touchdown safely ten times",
      "howto": "Touchdown safely ten times"
    },
    {
      "id": "00000010-0004-5121-c537-528258480836",
      "imageId": 52,
      "subcategory": 0,
      "unknown": 2015221016,
      "isMale": true,
      "isFemale": false,
      "isUnisex": false,
      "label": "Mars Surface Pants",
      "description": "Achieved five stars during the Entry phase five times",
      "howto": "Achieve five stars during the Entry phase five times"
    },
    {
      "id": "00000010-0004-71f2-ca64-440258480836",
      "imageId": 37,
      "subcategory": 0,
      "unknown": 2015221016,
      "isMale": false,
      "isFemale": true,
      "isUnisex": false,
      "label": "Mars Surface Pants",
      "description": "Achieved five stars during the Entry phase five times",
      "howto": "Achieve five stars during the Entry phase five times"
    },
    {
      "id": "00000544-0005-6133-c12b-76f758480836",
      "imageId": 55,
      "subcategory": 0,
      "unknown": 2015221016,
      "isMale": false,
      "isFemale": false,
      "isUnisex": true,
      "label": "Curiosity Mars Rover Hat",
      "description": "Achieved a five star Landing rating five times",
      "howto": "Achieve a five star Landing rating five times"
    }
  ]
}