{
  "achievementsPossible": 50,
  "credPossible": 1000,
  "achievements": [
    {
      "id": 1,
      "imageId": 11,
      "cred": 10,
      "flags": 4,
      "label": "The first one's free!",
      "description": "Got off your well-toned bottom",
      "howto": "Get off your well-toned bottom"
    },
    {
      "id": 2,
      "imageId": 12,
      "cred": 10,
      "flags": 4,
      "label": "I'm expecting company",
      "description": "Made a thousand pancakes",
      "howto": "Make a thousand pancakes"
    },
    {
      "id": 3,
      "imageId": 13,
      "cred": 20,
      "flags": 4,
      "label": "The second one is also free...",
      "description": "Was pretty",
      "howto": "Be pretty"
    },
    {
      "id": 4,
      "imageId": 14,
      "cred": 20,
      "flags": 6,
      "label": "Makin’ a game!",
      "description": "Played with Deadpool's junk",
      "howto": "Play with Deadpool's junk"
    },
    {
      "id": 5,
      "imageId": 15,
      "cred": 10,
      "flags": 4,
      "label": "In the lobby comboin' your dudes",
      "description": "Scored a combo higher than 40 before they locked the elevators",
      "howto": "Score a combo higher than 40 before they lock the elevators"
    },
    {
      "id": 6,
      "imageId": 16,
      "cred": 10,
      "flags": 4,
      "label": "49 in 5",
      "description": "Got from the studio lobby to the boardroom without dying in 5 minutes",
      "howto": "Get from the studio lobby to the boardroom without dying in 5 minutes"
    },
    {
      "id": 7,
      "imageId": 17,
      "cred": 20,
      "flags": 6,
      "label": "The house that bounces",
      "description": "Completed \"Job One\"",
      "howto": "Complete \"Job One\""
    },
    {
      "id": 8,
      "imageId": 18,
      "cred": 10,
      "flags": 4,
      "label": "HEEEEY  YOOOOO GUYYYYYSSSS!",
      "description": "Took no damage on the waterslide",
      "howto": "Take no damage on the waterslide"
    },
    {
      "id": 9,
      "imageId": 19,
      "cred": 10,
      "flags": 4,
      "label": "Catch me if you can",
      "description": "Defeated Arclight while taking no damage from her slam attacks",
      "howto": "Defeat Arclight while taking no damage from her slam attacks"
    },
    {
      "id": 10,
      "imageId": 20,
      "cred": 20,
      "flags": 4,
      "label": "Beer goggles",
      "description": "Used all three switches, defeated the two phasers, and chased after Vertigo within 60 seconds",
      "howto": "Use all three switches, defeat the two phasers, and chase after Vertigo within 60 seconds"
    },
    {
      "id": 11,
      "imageId": 21,
      "cred": 20,
      "flags": 6,
      "label": "No Chance in heaven",
      "description": "Completed \"Taking A Chance\"",
      "howto": "Complete \"Taking A Chance\""
    },
    {
      "id": 12,
      "imageId": 22,
      "cred": 10,
      "flags": 4,
      "label": "Let's try one more time...",
      "description": "Slapped Wolverine a bunch of times",
      "howto": "Slap Wolverine a bunch of times"
    },
    {
      "id": 13,
      "imageId": 23,
      "cred": 10,
      "flags": 4,
      "label": "This game is rigged!",
      "description": "Shot everything from the Wheel of Insanity (Balloons and the Cow)",
      "howto": "Shoot everything from the Wheel of Insanity (Balloons and the Cow)"
    },
    {
      "id": 14,
      "imageId": 24,
      "cred": 10,
      "flags": 4,
      "label": "Curious about Cable",
      "description": "Played WTF is Cable",
      "howto": "Play WTF is Cable"
    },
    {
      "id": 15,
      "imageId": 25,
      "cred": 10,
      "flags": 4,
      "label": "Remarkably quiet",
      "description": "Killed 4 enemies in the Tower Plaza with stealth kills",
      "howto": "Kill 4 enemies in the Tower Plaza with stealth kills"
    },
    {
      "id": 16,
      "imageId": 26,
      "cred": 20,
      "flags": 6,
      "label": "Caribou’s Shoe",
      "description": "Completed \"Genosha\"",
      "howto": "Complete \"Genosha\""
    },
    {
      "id": 17,
      "imageId": 27,
      "cred": 10,
      "flags": 4,
      "label": "Fish out of water",
      "description": "Got through Toxic River without falling into or touching the water and taking damage",
      "howto": "Get through Toxic River without falling into or touching the water and taking damage"
    },
    {
      "id": 18,
      "imageId": 28,
      "cred": 10,
      "flags": 4,
      "label": "Social butterfly",
      "description": "Interacted with all the ladies at the Shower Surprise Party room.",
      "howto": "Interact with all the ladies at the Shower Surprise Party room"
    },
    {
      "id": 19,
      "imageId": 29,
      "cred": 10,
      "flags": 4,
      "label": "Game On!",
      "description": "Heh heh, good times",
      "howto": "Heh heh, good times"
    },
    {
      "id": 20,
      "imageId": 30,
      "cred": 20,
      "flags": 4,
      "label": "Silent and deadly",
      "description": "Got a stealth kill with every melee weapon in Sinister’s Lair without being detected",
      "howto": "Get a stealth kill with every melee weapon in Sinister’s Lair without being detected"
    },
    {
      "id": 21,
      "imageId": 31,
      "cred": 20,
      "flags": 4,
      "label": "Game Over!",
      "description": "Stealth Killed Sinister, in the Prison, with the Sword!",
      "howto": "Stealth Kill Sinister, in the Prison, with the Sword!"
    },
    {
      "id": 22,
      "imageId": 32,
      "cred": 20,
      "flags": 6,
      "label": "Lady Deadpool-like",
      "description": "Completed \"Landed in Prison\"",
      "howto": "Complete \"Landed in Prison\""
    },
    {
      "id": 23,
      "imageId": 33,
      "cred": 10,
      "flags": 4,
      "label": "Officially a Carny",
      "description": "Got a high score at the Carnival",
      "howto": "Get a high score at the Carnival"
    },
    {
      "id": 24,
      "imageId": 34,
      "cred": 10,
      "flags": 4,
      "label": "Diggin' in the crates",
      "description": "Found 11 treasure chests in the darkness of the Tombs",
      "howto": "Find 11 treasure chests in the darkness of the Tombs"
    },
    {
      "id": 25,
      "imageId": 35,
      "cred": 10,
      "flags": 4,
      "label": "ARRR-Rated",
      "description": "Beat \"Death, Baby\" while wearing the pirate hat",
      "howto": "Beat \"Death, Baby\" while wearing the pirate hat"
    },
    {
      "id": 26,
      "imageId": 36,
      "cred": 20,
      "flags": 4,
      "label": "Patience is not a virtue",
      "description": "Chose the patience option all the way through the line in the Carnival",
      "howto": "Choose the patience option all the way through the line in the Carnival"
    },
    {
      "id": 27,
      "imageId": 37,
      "cred": 20,
      "flags": 6,
      "label": "Poulos-Vision",
      "description": "Completed \"Death, Baby\"",
      "howto": "Complete \"Death, Baby\""
    },
    {
      "id": 28,
      "imageId": 38,
      "cred": 10,
      "flags": 4,
      "label": "Spawn more Deadpool-lords",
      "description": "Collected all DP points and ammo in the bathroom",
      "howto": "Collect all DP points and ammo in the bathroom"
    },
    {
      "id": 29,
      "imageId": 39,
      "cred": 10,
      "flags": 4,
      "label": "PC LOAD LEAD-ER",
      "description": "Shot up the copier in the bridge offices",
      "howto": "Shoot up the copier in the bridge offices"
    },
    {
      "id": 30,
      "imageId": 40,
      "cred": 10,
      "flags": 4,
      "label": "I can open doors!",
      "description": "Completed the Breach in 10 seconds",
      "howto": "Complete the Breach in 10 seconds"
    },
    {
      "id": 31,
      "imageId": 41,
      "cred": 20,
      "flags": 6,
      "label": "JR’s Big Adventure",
      "description": "Completed \"The Road to Victory\"",
      "howto": "Complete \"The Road to Victory\""
    },
    {
      "id": 32,
      "imageId": 42,
      "cred": 10,
      "flags": 4,
      "label": "Let's-a-Go!",
      "description": "Made it across the floating debris without falling",
      "howto": "Make it across the floating debris without falling"
    },
    {
      "id": 33,
      "imageId": 43,
      "cred": 10,
      "flags": 4,
      "label": "Suck it, Wolverine!",
      "description": "Completed \"Front Gates of EEEEEEEVIL!\" from start to finish without dying",
      "howto": "Complete \"Front Gates of EEEEEEEVIL!\" from start to finish without dying"
    },
    {
      "id": 34,
      "imageId": 44,
      "cred": 10,
      "flags": 4,
      "label": "It's a trap!",
      "description": "Scored a combo of 75 or more while fighting up the stairs at the \"Front Gates of EEEEEEEVIL!\"",
      "howto": "Score a combo of 75 or more while fighting up the stairs at the \"Front Gates of EEEEEEEVIL!\""
    },
    {
      "id": 35,
      "imageId": 45,
      "cred": 20,
      "flags": 4,
      "label": "You've been Cole-slaw-tered!",
      "description": "Died 10 times in a row through the floating stairs",
      "howto": "Die 10 times in a row through the floating stairs"
    },
    {
      "id": 36,
      "imageId": 46,
      "cred": 20,
      "flags": 6,
      "label": "A Sinister smush",
      "description": "Completed \"Front Gates of EEEEEEEVIL!\"",
      "howto": "Complete \"Front Gates of EEEEEEEVIL!\""
    },
    {
      "id": 37,
      "imageId": 47,
      "cred": 30,
      "flags": 4,
      "label": "I am Deadpool",
      "description": "Completed \"Front Gates of EEEEEEEVIL!\" from start to finish using only swords and pistols",
      "howto": "Complete \"Front Gates of EEEEEEEVIL!\" from start to finish using only swords and pistols"
    },
    {
      "id": 38,
      "imageId": 48,
      "cred": 30,
      "flags": 1,
      "label": "No DP?  No madness",
      "description": "Completed the game on Veteran difficulty",
      "howto": "Complete the game on Veteran difficulty"
    },
    {
      "id": 39,
      "imageId": 49,
      "cred": 30,
      "flags": 1,
      "label": "Know DP?  Know madness",
      "description": "Completed the game on Ultra-Violence! difficulty",
      "howto": "Complete the game on Ultra-Violence! difficulty"
    },
    {
      "id": 40,
      "imageId": 50,
      "cred": 50,
      "flags": 1,
      "label": "So you've got some free time?",
      "description": "Completed \"Landed in Prison\" without countering any attacks",
      "howto": "Complete \"Landed in Prison\" without countering any attacks"
    },
    {
      "id": 41,
      "imageId": 51,
      "cred": 50,
      "flags": 1,
      "label": "Shall I?  I Shanti!",
      "description": "In \"Genosha,\" reached the fan girl using only Hammers and Pulse Rifles",
      "howto": "In \"Genosha,\" reach the fan girl using only Hammers and Pulse Rifles"
    },
    {
      "id": 42,
      "imageId": 52,
      "cred": 10,
      "flags": 7,
      "label": "Only when he stops breathing",
      "description": "Set the Dialog Volume slider to zero",
      "howto": "Set the Dialog Volume slider to zero"
    },
    {
      "id": 43,
      "imageId": 53,
      "cred": 10,
      "flags": 4,
      "label": "Taco Savior",
      "description": "Collected 100 tacos",
      "howto": "Collect 100 tacos"
    },
    {
      "id": 44,
      "imageId": 54,
      "cred": 30,
      "flags": 2,
      "label": "Unbalanced",
      "description": "Purchased all Player Upgrades",
      "howto": "Purchase all Player Upgrades"
    },
    {
      "id": 45,
      "imageId": 55,
      "cred": 30,
      "flags": 4,
      "label": "Gold rush",
      "description": "Completed five Gold Challenges",
      "howto": "Complete five Gold Challenges"
    },
    {
      "id": 46,
      "imageId": 56,
      "cred": 30,
      "flags": 4,
      "label": "Shields up",
      "description": "Completed a Gold- or Silver-tier Challenge while countering at least 25 times",
      "howto": "Complete a Gold- or Silver-tier Challenge while countering at least 25 times"
    },
    {
      "id": 47,
      "imageId": 57,
      "cred": 50,
      "flags": 4,
      "label": "Cole'd Blooded",
      "description": "Combo-ed an entire wave on any Gold-tier Challenge map",
      "howto": "Combo an entire wave on any Gold-tier Challenge map"
    },
    {
      "id": 48,
      "imageId": 58,
      "cred": 50,
      "flags": 4,
      "label": "Pull the grenade, throw the pin",
      "description": "Killed a total of 15 enemies by holding cooked grenades",
      "howto": "Kill a total of 15 enemies by holding cooked grenades"
    },
    {
      "id": 49,
      "imageId": 59,
      "cred": 50,
      "flags": 2,
      "label": "Drunk on power",
      "description": "Upgraded all weapons to max",
      "howto": "Upgrade all weapons to max"
    },
    {
      "id": 50,
      "imageId": 60,
      "cred": 50,
      "flags": 4,
      "label": "Be like Joe",
      "description": "Banked a 300-hit combo",
      "howto": "Bank a 300-hit combo"
    }
  ]
}