{
  "achievementsPossible": 80,
  "credPossible": 1750,
  "achievements": [
    {
      "id": 1,
      "imageId": 2,
      "cred": 5,
      "flags": 1,
      "label": "Paid in Fyrestone",
      "description": "Completed 5 missions in the Arid Badlands",
      "howto": "Complete 5 missions in the Arid Badlands"
    },
    {
      "id": 2,
      "imageId": 3,
      "cred": 15,
      "flags": 1,
      "label": "Made in Fyrestone",
      "description": "Completed all missions in the Arid Badlands",
      "howto": "Complete all missions in the Arid Badlands"
    },
    {
      "id": 3,
      "imageId": 4,
      "cred": 10,
      "flags": 1,
      "label": "Paid in New Haven",
      "description": "Completed 5 missions in the Rust Commons",
      "howto": "Complete 5 missions in the Rust Commons"
    },
    {
      "id": 4,
      "imageId": 5,
      "cred": 20,
      "flags": 1,
      "label": "Made in New Haven",
      "description": "Completed all missions in the Rust Commons",
      "howto": "Complete all missions in the Rust Commons"
    },
    {
      "id": 5,
      "imageId": 6,
      "cred": 15,
      "flags": 1,
      "label": "My Brother is an Italian Plumber",
      "description": "Killed an enemy plumber-style",
      "howto": "Kill an enemy by stomping on its head"
    },
    {
      "id": 6,
      "imageId": 7,
      "cred": 30,
      "flags": 1,
      "label": "12 Days of Pandora",
      "description": "Mastered the technology of Pandora",
      "howto": "Master the technology of Pandora"
    },
    {
      "id": 7,
      "imageId": 8,
      "cred": 10,
      "flags": 1,
      "label": "Wanted: Sledge",
      "description": "Killed Sledge",
      "howto": "<String text>"
    },
    {
      "id": 8,
      "imageId": 9,
      "cred": 20,
      "flags": 1,
      "label": "Wanted: Krom",
      "description": "Killed Krom",
      "howto": "<String text>"
    },
    {
      "id": 9,
      "imageId": 10,
      "cred": 30,
      "flags": 1,
      "label": "Wanted: Flynt",
      "description": "Killed Flynt",
      "howto": "<String text>"
    },
    {
      "id": 10,
      "imageId": 11,
      "cred": 40,
      "flags": 1,
      "label": "Destroyed the Hive",
      "description": "Killed the Rakk Hive",
      "howto": "<String text>"
    },
    {
      "id": 11,
      "imageId": 12,
      "cred": 50,
      "flags": 1,
      "label": "Destroyed the Destroyer",
      "description": "Killed the Vault Boss",
      "howto": "<String text>"
    },
    {
      "id": 12,
      "imageId": 13,
      "cred": 10,
      "flags": 1,
      "label": "Speedy McSpeederton",
      "description": "Raced around the Ludicrous Speedway in record time",
      "howto": "Race around the Ludicrous Speedway in under 31 seconds"
    },
    {
      "id": 13,
      "imageId": 14,
      "cred": 20,
      "flags": 1,
      "label": "You call this archaeology?",
      "description": "Applied an elemental artifact",
      "howto": "Apply an elemental artifact"
    },
    {
      "id": 14,
      "imageId": 15,
      "cred": 5,
      "flags": 1,
      "label": "Ding! Newbie",
      "description": "Earned level 5",
      "howto": "Earn level 5"
    },
    {
      "id": 15,
      "imageId": 81,
      "cred": 10,
      "flags": 1,
      "label": "Ding! Novice",
      "description": "Earned level 10",
      "howto": "Earn level 10"
    },
    {
      "id": 16,
      "imageId": 16,
      "cred": 20,
      "flags": 1,
      "label": "Ding! Expert",
      "description": "Earned level 20",
      "howto": "Earn level 20"
    },
    {
      "id": 17,
      "imageId": 17,
      "cred": 30,
      "flags": 1,
      "label": "Ding! Hardcore",
      "description": "Earned level 30",
      "howto": "Earn level 30"
    },
    {
      "id": 18,
      "imageId": 18,
      "cred": 40,
      "flags": 1,
      "label": "Ding! Sleepless",
      "description": "Earned level 40",
      "howto": "Earn level 40"
    },
    {
      "id": 19,
      "imageId": 20,
      "cred": 5,
      "flags": 1,
      "label": "Discovered Skag Gully",
      "description": "Discovered Skag Gully",
      "howto": "Discover Skag Gully"
    },
    {
      "id": 20,
      "imageId": 21,
      "cred": 5,
      "flags": 1,
      "label": "Discovered Sledge's Safe House",
      "description": "Discovered Sledge's Safe House",
      "howto": "Discover Sledge's Safe House"
    },
    {
      "id": 21,
      "imageId": 22,
      "cred": 5,
      "flags": 1,
      "label": "Discovered Headstone Mine",
      "description": "Discovered Headstone Mine",
      "howto": "Discover Headstone Mine"
    },
    {
      "id": 22,
      "imageId": 23,
      "cred": 5,
      "flags": 1,
      "label": "Discovered Trash Coast",
      "description": "Discovered Trash Coast",
      "howto": "Discover Trash Coast"
    },
    {
      "id": 23,
      "imageId": 24,
      "cred": 10,
      "flags": 1,
      "label": "Discovered The Scrapyard",
      "description": "Discovered The Scrapyard",
      "howto": "Discover The Scrapyard"
    },
    {
      "id": 24,
      "imageId": 25,
      "cred": 10,
      "flags": 1,
      "label": "Discovered Krom's Canyon",
      "description": "Discovered Krom's Canyon",
      "howto": "Discover Krom's Canyon"
    },
    {
      "id": 25,
      "imageId": 26,
      "cred": 15,
      "flags": 1,
      "label": "Discovered Crimson Lance Enclave",
      "description": "Discovered Crimson Lance Enclave",
      "howto": "Discover Crimson Lance Enclave"
    },
    {
      "id": 26,
      "imageId": 27,
      "cred": 15,
      "flags": 1,
      "label": "Discovered Eridian Promontory",
      "description": "Discovered Eridian Promontory",
      "howto": "Discover Eridian Promontory"
    },
    {
      "id": 27,
      "imageId": 19,
      "cred": 50,
      "flags": 1,
      "label": "Ding! Champion",
      "description": "Earned level 50",
      "howto": "Earn level 50"
    },
    {
      "id": 28,
      "imageId": 29,
      "cred": 20,
      "flags": 1,
      "label": "Get A Little Blood on the Tires",
      "description": "Killed 25 enemies by ramming them with any vehicle",
      "howto": "Kill 25 enemies by ramming them with any vehicle"
    },
    {
      "id": 29,
      "imageId": 30,
      "cred": 10,
      "flags": 1,
      "label": "Rootinest, Tootinest, Shootinest",
      "description": "Killed 5 Rakk in under 10 seconds",
      "howto": "Kill 5 Rakk in under 10 seconds"
    },
    {
      "id": 30,
      "imageId": 31,
      "cred": 50,
      "flags": 1,
      "label": "Pandora-dog Millionaire",
      "description": "Earned $1,000,000",
      "howto": "Earn $1,000,000"
    },
    {
      "id": 31,
      "imageId": 32,
      "cred": 25,
      "flags": 1,
      "label": "Fence",
      "description": "Sold 50 guns to a shop",
      "howto": "Sell 50 guns to a shop"
    },
    {
      "id": 32,
      "imageId": 33,
      "cred": 25,
      "flags": 1,
      "label": "Can't We Get BEYOND Thunderdome?",
      "description": "Emerged victorious from an arena match",
      "howto": "Win an arena match"
    },
    {
      "id": 33,
      "imageId": 34,
      "cred": 15,
      "flags": 1,
      "label": "Duel-icious",
      "description": "Won a duel against another player",
      "howto": "Win a duel against another player"
    },
    {
      "id": 34,
      "imageId": 35,
      "cred": 25,
      "flags": 1,
      "label": "Group LF Healer",
      "description": "Rescued a groupmate from death in a co-op game",
      "howto": "Rescue a groupmate from death in a co-op game"
    },
    {
      "id": 35,
      "imageId": 36,
      "cred": 30,
      "flags": 1,
      "label": "There's No \"I\" In \"Team\"",
      "description": "Completed 15 missions in co-op",
      "howto": "Complete 15 missions in co-op"
    },
    {
      "id": 36,
      "imageId": 37,
      "cred": 35,
      "flags": 1,
      "label": "United We Stand",
      "description": "Defeated the Rakk Hive, the Vault Boss, Sledge, Krom, or Flynt in a co-op game",
      "howto": "Defeat the Rakk Hive, the Vault Boss, Sledge, Krom, or Flynt in a co-op game"
    },
    {
      "id": 37,
      "imageId": 38,
      "cred": 10,
      "flags": 1,
      "label": "And They'll Tell Two Friends",
      "description": "Gamed with fame",
      "howto": "Play in a co-op game with either an employee of Gearbox or someone who has this achievement"
    },
    {
      "id": 38,
      "imageId": 39,
      "cred": 20,
      "flags": 1,
      "label": "Weapon Aficionado",
      "description": "Reached proficiency level 10 with any weapon type",
      "howto": "Reach proficiency level 10 with any weapon type"
    },
    {
      "id": 39,
      "imageId": 40,
      "cred": 15,
      "flags": 1,
      "label": "You're on a boat!",
      "description": "I bet you never thought you'd be here.",
      "howto": "<String text>"
    },
    {
      "id": 40,
      "imageId": 41,
      "cred": 35,
      "flags": 1,
      "label": "Duelinator",
      "description": "Won a duel without taking damage",
      "howto": "Win a duel without taking damage"
    },
    {
      "id": 41,
      "imageId": 42,
      "cred": 25,
      "flags": 1,
      "label": "Facemelter",
      "description": "Killed 25 enemies with corrosive weapons",
      "howto": "Kill 25 enemies with corrosive weapons"
    },
    {
      "id": 42,
      "imageId": 43,
      "cred": 25,
      "flags": 1,
      "label": "1.21 Gigawatts",
      "description": "Killed 25 enemies with shock weapons",
      "howto": "Kill 25 enemies with shock weapons"
    },
    {
      "id": 43,
      "imageId": 44,
      "cred": 25,
      "flags": 1,
      "label": "Pyro",
      "description": "Killed 25 enemies with incendiary weapons",
      "howto": "Kill 25 enemies with incendiary weapons"
    },
    {
      "id": 44,
      "imageId": 45,
      "cred": 15,
      "flags": 1,
      "label": "Master Exploder",
      "description": "Killed 25 enemies with explosive weapons",
      "howto": "Kill 25 enemies with explosive weapons"
    },
    {
      "id": 45,
      "imageId": 46,
      "cred": 25,
      "flags": 1,
      "label": "There are some who call me...Tim",
      "description": "Equipped a class mod for your character",
      "howto": "Equip a class mod for your character"
    },
    {
      "id": 46,
      "imageId": 47,
      "cred": 10,
      "flags": 1,
      "label": "Fully Loaded",
      "description": "Rescued enough Claptraps to earn 42 inventory slots",
      "howto": "Rescue enough Claptraps to earn 42 inventory slots"
    },
    {
      "id": 47,
      "imageId": 48,
      "cred": 15,
      "flags": 1,
      "label": "Truly Outrageous",
      "description": "Killed an enemy with the Siren's action skill",
      "howto": "Kill an enemy with the Siren's action skill"
    },
    {
      "id": 48,
      "imageId": 49,
      "cred": 15,
      "flags": 1,
      "label": "Careful, He Bites",
      "description": "Killed 15 enemies with the Hunter's action skill",
      "howto": "Kill 15 enemies with the Hunter's action skill"
    },
    {
      "id": 49,
      "imageId": 50,
      "cred": 15,
      "flags": 1,
      "label": "Reckless Abandon",
      "description": "Killed 15 enemies with the Berserker's action skill",
      "howto": "Kill 15 enemies with the Berserker's action skill"
    },
    {
      "id": 50,
      "imageId": 51,
      "cred": 15,
      "flags": 1,
      "label": "Down in Front!",
      "description": "Killed 15 enemies with the Soldier's action skill",
      "howto": "Kill 15 enemies with the Soldier's action skill"
    },
    {
      "id": 51,
      "imageId": 28,
      "cred": 25,
      "flags": 1,
      "label": "House of the Ned",
      "description": "Completed the \"House of the Ned\" mission",
      "howto": "Complete the \"House of the Ned\" mission"
    },
    {
      "id": 52,
      "imageId": 52,
      "cred": 25,
      "flags": 1,
      "label": "Jakobs Fodder",
      "description": "Completed the \"Jakobs Fodder\" mission",
      "howto": "Complete the \"Jakobs Fodder\" mission"
    },
    {
      "id": 53,
      "imageId": 53,
      "cred": 1,
      "flags": 1,
      "label": "Night of the Living Ned",
      "description": "Killed Ned...sort of",
      "howto": "Kill Ned"
    },
    {
      "id": 54,
      "imageId": 54,
      "cred": 49,
      "flags": 1,
      "label": "Ned's Undead, Baby",
      "description": "Killed Ned. Again.",
      "howto": "Actually kill Ned"
    },
    {
      "id": 55,
      "imageId": 55,
      "cred": 25,
      "flags": 1,
      "label": "Braaaaaaaaaaaaains!",
      "description": "Completed the \"Braaaaaaaaaaaaains!\" mission",
      "howto": "Complete the \"Braaaaaaaaaaaaains!\" mission"
    },
    {
      "id": 56,
      "imageId": 56,
      "cred": 10,
      "flags": 1,
      "label": "Small Tournament",
      "description": "Completed the Prove Yourself mission",
      "howto": "Complete the Prove Yourself mission"
    },
    {
      "id": 57,
      "imageId": 57,
      "cred": 25,
      "flags": 1,
      "label": "Hell-Burbia",
      "description": "Reached the end of the larger challenge in the Hell-Burbia coliseum",
      "howto": "Reach the end of the larger challenge in the Hell-Burbia coliseum"
    },
    {
      "id": 58,
      "imageId": 58,
      "cred": 25,
      "flags": 1,
      "label": "The Angelic Ruins",
      "description": "Reached the end of the larger challenge in The Angelic Ruins coliseum",
      "howto": "Reach the end of the larger challenge in The Angelic Ruins coliseum"
    },
    {
      "id": 59,
      "imageId": 59,
      "cred": 25,
      "flags": 1,
      "label": "The Gully",
      "description": "Reached the end of the larger challenge in The Gully coliseum",
      "howto": "Reach the end of the larger challenge in The Gully coliseum"
    },
    {
      "id": 60,
      "imageId": 60,
      "cred": 40,
      "flags": 1,
      "label": "Big Tournament",
      "description": "Reached the end of each of the 3 larger challenges with one character",
      "howto": "Reach the end of each of the 3 larger challenges with one character"
    },
    {
      "id": 61,
      "imageId": 61,
      "cred": 10,
      "flags": 1,
      "label": "Making a Monster",
      "description": "Built the New Car: Monster",
      "howto": "Build the New Car: Monster"
    },
    {
      "id": 62,
      "imageId": 62,
      "cred": 25,
      "flags": 1,
      "label": "Athena, Out",
      "description": "Rescued Athena",
      "howto": "Rescue Athena"
    },
    {
      "id": 63,
      "imageId": 63,
      "cred": 25,
      "flags": 1,
      "label": "Depot Demolition",
      "description": "Destroyed the Lance Depot",
      "howto": "Destroy the Lance Depot"
    },
    {
      "id": 64,
      "imageId": 64,
      "cred": 50,
      "flags": 1,
      "label": "Vincible",
      "description": "Killed Crawmerax the Invincible",
      "howto": "Kill Crawmerax the Invincible"
    },
    {
      "id": 65,
      "imageId": 65,
      "cred": 25,
      "flags": 1,
      "label": "Sneaky Little Buggers",
      "description": "Killed each of the loot midgets",
      "howto": "Kill each of the loot midgets"
    },
    {
      "id": 66,
      "imageId": 66,
      "cred": 25,
      "flags": 1,
      "label": "Speed Kills",
      "description": "Destroyed a Lancer while in a Racer",
      "howto": "Destroy a Lancer while in a Racer"
    },
    {
      "id": 67,
      "imageId": 67,
      "cred": 15,
      "flags": 1,
      "label": "Ding! Overleveled",
      "description": "Reached Level 51",
      "howto": "Reach Level 51"
    },
    {
      "id": 68,
      "imageId": 68,
      "cred": 40,
      "flags": 1,
      "label": "Ding! Overleveled to 11",
      "description": "Reached Level 61",
      "howto": "Reach Level 61"
    },
    {
      "id": 69,
      "imageId": 69,
      "cred": 25,
      "flags": 1,
      "label": "Completionist",
      "description": "Completed all missions in Secret Armory",
      "howto": "Complete all missions in Secret Armory"
    },
    {
      "id": 70,
      "imageId": 70,
      "cred": 10,
      "flags": 1,
      "label": "Sucker born every minute",
      "description": "Paid for a worthless tour of the world's largest bullet",
      "howto": "Pay for a worthless tour of the world's largest bullet"
    },
    {
      "id": 71,
      "imageId": 71,
      "cred": 10,
      "flags": 4,
      "label": "Tourist",
      "description": "Read all 6 Claptrap statue placards",
      "howto": "Find all 6 Claptrap Statues"
    },
    {
      "id": 72,
      "imageId": 72,
      "cred": 20,
      "flags": 6,
      "label": "Knoxx-Trap",
      "description": "Knoxx is at rest...finally",
      "howto": "Kill General Knoxx-Trap"
    },
    {
      "id": 73,
      "imageId": 73,
      "cred": 20,
      "flags": 6,
      "label": "Steele-Trap",
      "description": "The Commandant is dead-trap",
      "howto": "Kill Commandant Steele-Trap"
    },
    {
      "id": 74,
      "imageId": 74,
      "cred": 20,
      "flags": 6,
      "label": "Ned-Trap",
      "description": "Killed Ned...again and again and again",
      "howto": "Kill Dr. Ned-Trap"
    },
    {
      "id": 75,
      "imageId": 75,
      "cred": 70,
      "flags": 1,
      "label": "Muerte la robo-lución",
      "description": "Defeated the Interplanetary Ninja Assassin Claptrap",
      "howto": "Kill the INAC"
    },
    {
      "id": 76,
      "imageId": 76,
      "cred": 50,
      "flags": 4,
      "label": "The Collector",
      "description": "Completed Tannis' crazy request",
      "howto": "Complete a crazy request for Tannis"
    },
    {
      "id": 77,
      "imageId": 77,
      "cred": 10,
      "flags": 4,
      "label": "The Lubricator",
      "description": "Found 25 Claptrap oil cans",
      "howto": "Find 25 oil cans"
    },
    {
      "id": 78,
      "imageId": 78,
      "cred": 10,
      "flags": 4,
      "label": "Bobble-Trap",
      "description": "Collected 15 Claptrap bobbleheads",
      "howto": "Collect 15 claptrap bobbleheads"
    },
    {
      "id": 79,
      "imageId": 79,
      "cred": 10,
      "flags": 4,
      "label": "It's so realistic!",
      "description": "Collected 5 3D glasses",
      "howto": "Collect 5 3D glasses"
    },
    {
      "id": 80,
      "imageId": 80,
      "cred": 30,
      "flags": 4,
      "label": "What a party!",
      "description": "Collected 3 panties, 5 fish in a bag, and 15 pizzas",
      "howto": "Collect 3 panties, 5 fish in a bag, and 15 pizzas"
    }
  ]
}