{
  "achievementsPossible": 12,
  "credPossible": 200,
  "achievements": [
    {
      "id": 1,
      "imageId": 1,
      "cred": 5,
      "flags": 4,
      "label": "n00b",
      "description": "Win 1 quick match! Welcome to the winning team!",
      "howto": "Win 1 quick match! Welcome to the winning team!"
    },
    {
      "id": 2,
      "imageId": 4,
      "cred": 10,
      "flags": 4,
      "label": "Opportunist",
      "description": "Kill 10 opponents in a quick match while they are affected by a Digi Grenade.",
      "howto": "Kill 10 opponents in a quick match while they are affected by a Digi Grenade."
    },
    {
      "id": 3,
      "imageId": 2,
      "cred": 5,
      "flags": 4,
      "label": "Tour of the City",
      "description": "Achieve a win in any game mode on every map in quick match games!",
      "howto": "Achieve a win in any game mode on every map in quick match games!"
    },
    {
      "id": 4,
      "imageId": 3,
      "cred": 5,
      "flags": 2,
      "label": "Field Officer",
      "description": "Reach the rank of Sergeant.",
      "howto": "Reach the rank of Sergeant."
    },
    {
      "id": 5,
      "imageId": 5,
      "cred": 20,
      "flags": 4,
      "label": "Dodge This",
      "description": "Headshot 25 opponents while they are using HRV in quick match games.",
      "howto": "Headshot 25 opponents while they are using HRV in quick match games."
    },
    {
      "id": 6,
      "imageId": 7,
      "cred": 20,
      "flags": 4,
      "label": "Way of the Gun",
      "description": "Kill an opponent with their own weapon in a quick match. Ouch!",
      "howto": "Kill an opponent with their own weapon in a quick match. Ouch!"
    },
    {
      "id": 7,
      "imageId": 8,
      "cred": 20,
      "flags": 4,
      "label": "Flatten and Reinstall",
      "description": "Kill 25 opponents in quick match games while they are EMPed!",
      "howto": "Kill 25 opponents in quick match games while they are EMPed!"
    },
    {
      "id": 8,
      "imageId": 10,
      "cred": 20,
      "flags": 2,
      "label": "Commissioned Officer",
      "description": "Reach the rank of Second Lieutenant.",
      "howto": "Reach the rank of Second Lieutenant."
    },
    {
      "id": 9,
      "imageId": 9,
      "cred": 20,
      "flags": 2,
      "label": "Command Officer",
      "description": "Reach the rank of Major.",
      "howto": "Reach the rank of Major."
    },
    {
      "id": 10,
      "imageId": 12,
      "cred": 30,
      "flags": 3,
      "label": "Gearhead",
      "description": "Unlock all gear and weapons!",
      "howto": "Unlock all gear and weapons!"
    },
    {
      "id": 11,
      "imageId": 11,
      "cred": 25,
      "flags": 2,
      "label": "General",
      "description": "Achieve the rank of Brigadier General.  Hats off to you!",
      "howto": "Achieve the rank of Brigadier General.  Hats off to you!"
    },
    {
      "id": 12,
      "imageId": 6,
      "cred": 20,
      "flags": 4,
      "label": "Hack the Gibson",
      "description": "Hack every control point on every multiplayer map in quick match games.",
      "howto": "Hack every control point on every multiplayer map in quick match games."
    }
  ]
}