{
  "achievementsPossible": 10,
  "credPossible": 1000,
  "achievements": [
    {
      "id": 1,
      "imageId": 32768,
      "cred": 100,
      "flags": 1,
      "label": "Gunslinger",
      "description": "300 yards passing in a game",
      "howto": "Throw for 300 yds with one player in a game"
    },
    {
      "id": 2,
      "imageId": 32768,
      "cred": 100,
      "flags": 1,
      "label": "Big Time QB",
      "description": "3 TD passes in a game",
      "howto": "Throw 3 TD passes with one player in a game "
    },
    {
      "id": 3,
      "imageId": 32768,
      "cred": 100,
      "flags": 1,
      "label": "Rusher",
      "description": "100 yards rushing in a game",
      "howto": "Run for 100 yards with one player in a game"
    },
    {
      "id": 4,
      "imageId": 32768,
      "cred": 100,
      "flags": 1,
      "label": "Bulldozer",
      "description": "200 yards rushing in a game",
      "howto": "Run for 200 yards with one player in a game"
    },
    {
      "id": 5,
      "imageId": 32768,
      "cred": 100,
      "flags": 1,
      "label": "Fantasy Man",
      "description": "3 TD rushes in a game",
      "howto": "Run for 3 TDs with one player in a game"
    },
    {
      "id": 6,
      "imageId": 32768,
      "cred": 100,
      "flags": 1,
      "label": "Hands",
      "description": "100 yards receiving in a game",
      "howto": "Catch the ball for 100 yards with one player in a game"
    },
    {
      "id": 7,
      "imageId": 32768,
      "cred": 100,
      "flags": 1,
      "label": "GoTo Guy",
      "description": "200 yards receiving in a game",
      "howto": "Catch the ball for 200 yards with one player in a game\r\n"
    },
    {
      "id": 8,
      "imageId": 32768,
      "cred": 100,
      "flags": 1,
      "label": "Showtime",
      "description": "3 TD catches in a game",
      "howto": "Catch 3 TDs with one player in a game"
    },
    {
      "id": 9,
      "imageId": 32768,
      "cred": 100,
      "flags": 1,
      "label": "Tackler",
      "description": "8 tackles in a game",
      "howto": "Record 8 tackles with one player in a game"
    },
    {
      "id": 10,
      "imageId": 32768,
      "cred": 100,
      "flags": 1,
      "label": "Sacker",
      "description": "3 sacks in a game",
      "howto": "Sack the opposing QB 3 times with one player in a game"
    }
  ]
}