{
  "achievementsPossible": 46,
  "credPossible": 1000,
  "achievements": [
    {
      "id": 2,
      "imageId": 34,
      "cred": 15,
      "flags": 1,
      "label": "Initiation",
      "description": "Complete the Prologue.",
      "howto": "Complete the Prologue."
    },
    {
      "id": 3,
      "imageId": 2,
      "cred": 25,
      "flags": 1,
      "label": "Touchdown",
      "description": "Complete the mission Touchdown in the single player campaign.",
      "howto": "Complete the mission Touchdown in the single player campaign."
    },
    {
      "id": 4,
      "imageId": 3,
      "cred": 25,
      "flags": 1,
      "label": "Village Cleared",
      "description": "Complete the mission Village Attack in the single player campaign.",
      "howto": "Complete the mission Village Attack in the single player campaign."
    },
    {
      "id": 5,
      "imageId": 4,
      "cred": 25,
      "flags": 1,
      "label": "No Way Back",
      "description": "Complete the mission Shattered Hopes in the single player campaign.",
      "howto": "Complete the mission Shattered Hopes in the single player campaign."
    },
    {
      "id": 6,
      "imageId": 5,
      "cred": 25,
      "flags": 1,
      "label": "Coffee Break",
      "description": "Complete the mission Morning Coffee in the single player campaign.",
      "howto": "Complete the mission Morning Coffee in the single player campaign."
    },
    {
      "id": 7,
      "imageId": 6,
      "cred": 25,
      "flags": 1,
      "label": "Prison Break",
      "description": "Complete the mission Alliances in the single player campaign.",
      "howto": "Complete the mission Alliances in the single player campaign."
    },
    {
      "id": 8,
      "imageId": 7,
      "cred": 25,
      "flags": 1,
      "label": "Clay Jungle",
      "description": "Complete the mission Urban Nightmare in the single player campaign.",
      "howto": "Complete the mission Urban Nightmare in the single player campaign."
    },
    {
      "id": 9,
      "imageId": 8,
      "cred": 25,
      "flags": 1,
      "label": "Urban Liberty",
      "description": "Complete the mission Ferry of Styx in the single player campaign.",
      "howto": "Complete the mission Ferry of Styx in the single player campaign."
    },
    {
      "id": 10,
      "imageId": 9,
      "cred": 25,
      "flags": 1,
      "label": "Trapped",
      "description": "Complete the mission Wet Dusk in the single player campaign.",
      "howto": "Complete the mission Wet Dusk in the single player campaign."
    },
    {
      "id": 11,
      "imageId": 10,
      "cred": 25,
      "flags": 1,
      "label": "Joint Venture",
      "description": "Complete the mission Revenge in the single player campaign.",
      "howto": "Complete the mission Revenge in the single player campaign."
    },
    {
      "id": 12,
      "imageId": 11,
      "cred": 25,
      "flags": 1,
      "label": "Trojan Horse",
      "description": "Complete the mission Ruins of Amazonia in the single player campaign.",
      "howto": "Complete the mission Ruins of Amazonia in the single player campaign."
    },
    {
      "id": 13,
      "imageId": 1,
      "cred": 60,
      "flags": 1,
      "label": "We're Outta Here!",
      "description": "Complete the single player campaign on any difficulty.",
      "howto": "Complete the single player campaign on any difficulty."
    },
    {
      "id": 14,
      "imageId": 21,
      "cred": 100,
      "flags": 1,
      "label": "Faithful Companion",
      "description": "Successfully complete all missions in the cooperative multi-player campaign on any difficulty.",
      "howto": "Successfully complete all missions in the cooperative multi-player campaign on any difficulty."
    },
    {
      "id": 15,
      "imageId": 22,
      "cred": 20,
      "flags": 1,
      "label": "Buddy Tag",
      "description": "Successfully complete a mission in cooperative mode.",
      "howto": "Successfully complete a mission in cooperative mode."
    },
    {
      "id": 16,
      "imageId": 24,
      "cred": 30,
      "flags": 1,
      "label": "Exotic Parts",
      "description": "Kill 20 enemy soldiers by explosions.",
      "howto": "Kill 20 enemy soldiers by explosions."
    },
    {
      "id": 17,
      "imageId": 31,
      "cred": 15,
      "flags": 1,
      "label": "Living Thunderbolt",
      "description": "Successfully use the Flash grenade skill 10 times.",
      "howto": "Successfully use the Flash grenade skill 10 times."
    },
    {
      "id": 18,
      "imageId": 19,
      "cred": 40,
      "flags": 1,
      "label": "Clean Sweep",
      "description": "Complete any of the missions without using any skill ammo.",
      "howto": "Complete any of the missions without using any skill ammo."
    },
    {
      "id": 19,
      "imageId": 17,
      "cred": 0,
      "flags": 1,
      "label": "Bullet Magnet",
      "description": "One of your squad members has been incapacitated more than 11 times.",
      "howto": "One of your squad members has been incapacitated more than 11 times."
    },
    {
      "id": 20,
      "imageId": 41,
      "cred": 10,
      "flags": 1,
      "label": "Superior Marksman",
      "description": "Deliver a headshot in FPS mode from over 75 meters.",
      "howto": "Deliver a headshot in FPS mode from over 75 meters."
    },
    {
      "id": 21,
      "imageId": 16,
      "cred": 10,
      "flags": 1,
      "label": "Bounty Hunter",
      "description": "Deliver 50 lethal headshots.",
      "howto": "Deliver 50 lethal headshots."
    },
    {
      "id": 22,
      "imageId": 25,
      "cred": 45,
      "flags": 1,
      "label": "Experienced Commander",
      "description": "Complete 5 missions in veteran difficulty.",
      "howto": "Complete 5 missions in veteran difficulty."
    },
    {
      "id": 23,
      "imageId": 35,
      "cred": 20,
      "flags": 1,
      "label": "Protector",
      "description": "No one got incapacitated at the clearing defense in Village Attack. Veteran difficulty required.",
      "howto": "No one got incapacitated at the clearing defense in Village Attack. Veteran difficulty required."
    },
    {
      "id": 24,
      "imageId": 39,
      "cred": 10,
      "flags": 1,
      "label": "Skilled Tactician",
      "description": "Acquire the machinegun nest in mission Shattered Hopes and kill 5 enemy soldiers with it.",
      "howto": "Acquire the machinegun nest in mission Shattered Hopes and kill 5 enemy soldiers with it."
    },
    {
      "id": 25,
      "imageId": 30,
      "cred": 10,
      "flags": 1,
      "label": "King of the Labyrinth",
      "description": "Kill Rodriguez in mission Morning Coffee. ",
      "howto": "Kill Rodriguez in mission Morning Coffee. "
    },
    {
      "id": 26,
      "imageId": 18,
      "cred": 25,
      "flags": 1,
      "label": "Cannon Fodder",
      "description": "No one got incapacitated at the grenade trap in Morning Coffee. Regular difficulty required.",
      "howto": "No one got incapacitated at the grenade trap in Morning Coffee. Regular difficulty required."
    },
    {
      "id": 27,
      "imageId": 40,
      "cred": 30,
      "flags": 1,
      "label": "Stealth Approach",
      "description": "Get to the gates without being detected in mission Alliances.",
      "howto": "Get to the gates without being detected in mission Alliances."
    },
    {
      "id": 28,
      "imageId": 14,
      "cred": 15,
      "flags": 1,
      "label": "Anti-sniper",
      "description": "Kill the sniper in mission Urban Nightmare before he notices you. Veteran difficulty required.",
      "howto": "Kill the sniper in mission Urban Nightmare before he notices you. Veteran difficulty required."
    },
    {
      "id": 29,
      "imageId": 12,
      "cred": 10,
      "flags": 1,
      "label": "Alliance",
      "description": "None of the escorting Brazilian soldiers die in mission Urban Nightmare.",
      "howto": "None of the escorting Brazilian soldiers die in mission Urban Nightmare."
    },
    {
      "id": 30,
      "imageId": 28,
      "cred": 5,
      "flags": 1,
      "label": "Kill the Source",
      "description": "Destroy all 3 enemy troop carriers in mission Ferry of Styx. ",
      "howto": "Destroy all 3 enemy troop carriers in mission Ferry of Styx. "
    },
    {
      "id": 31,
      "imageId": 44,
      "cred": 15,
      "flags": 1,
      "label": "Tank Top",
      "description": "You used the tanker truck to eliminate the defenders at the square in mission Ferry of Styx. ",
      "howto": "You used the tanker truck to eliminate the defenders at the square in mission Ferry of Styx. "
    },
    {
      "id": 32,
      "imageId": 23,
      "cred": 10,
      "flags": 1,
      "label": "Elite Hunter",
      "description": "Kill 5 of the base’s elite defender soldiers in mission Revenge.",
      "howto": "Kill 5 of the base’s elite defender soldiers in mission Revenge."
    },
    {
      "id": 33,
      "imageId": 43,
      "cred": 35,
      "flags": 1,
      "label": "Survivor",
      "description": "Complete mission Revenge without letting any of your squad members become incapacitated.",
      "howto": "Complete mission Revenge without letting any of your squad members become incapacitated."
    },
    {
      "id": 34,
      "imageId": 13,
      "cred": 25,
      "flags": 1,
      "label": "Amateur Archeologist",
      "description": "Complete mission Ruins of Amazonia without damaging the dig site.",
      "howto": "Complete mission Ruins of Amazonia without damaging the dig site."
    },
    {
      "id": 35,
      "imageId": 15,
      "cred": 10,
      "flags": 1,
      "label": "Bombastic",
      "description": "Blow up at least 5 vehicles in mission Wet Dusk. ",
      "howto": "Blow up at least 5 vehicles in mission Wet Dusk. "
    },
    {
      "id": 36,
      "imageId": 42,
      "cred": 40,
      "flags": 1,
      "label": "Supervisor",
      "description": "No enemy soldiers get to the workers in mission Ruins of Amazonia. Veteran difficulty required.",
      "howto": "No enemy soldiers get to the workers in mission Ruins of Amazonia. Veteran difficulty required."
    },
    {
      "id": 37,
      "imageId": 33,
      "cred": 35,
      "flags": 1,
      "label": "Perfect Soldier",
      "description": "The elite guards of Juarez can’t incapacitate any of your squad members in mission Boys Meet Girl. ",
      "howto": "The elite guards of Juarez can’t incapacitate any of your squad members in mission Boys Meet Girl. "
    },
    {
      "id": 38,
      "imageId": 36,
      "cred": 5,
      "flags": 1,
      "label": "Reunion",
      "description": "Reunite the squads in mission Touchdown. ",
      "howto": "Reunite the squads in mission Touchdown. "
    },
    {
      "id": 39,
      "imageId": 32,
      "cred": 5,
      "flags": 1,
      "label": "Merciless",
      "description": "Kill all fleeing enemies after you defended the village in the Prologue.",
      "howto": "Kill all fleeing enemies after you defended the village in the Prologue."
    },
    {
      "id": 40,
      "imageId": 20,
      "cred": 10,
      "flags": 1,
      "label": "Cleaner",
      "description": "Kill all enemies at the plantation in mission Morning Coffee. ",
      "howto": "Kill all enemies at the plantation in mission Morning Coffee. "
    },
    {
      "id": 41,
      "imageId": 26,
      "cred": 10,
      "flags": 1,
      "label": "Expert Charger",
      "description": "Get through the ruins in Shattered Hopes before the militia catches up. Veteran difficulty required.",
      "howto": "Get through the ruins in Shattered Hopes before the militia catches up. Veteran difficulty required."
    },
    {
      "id": 42,
      "imageId": 27,
      "cred": 5,
      "flags": 1,
      "label": "Jeep Killer",
      "description": "Use your first rocket to kill the jeep in mission Touchdown. Regular difficulty required.",
      "howto": "Use your first rocket to kill the jeep in mission Touchdown. Regular difficulty required."
    },
    {
      "id": 43,
      "imageId": 38,
      "cred": 20,
      "flags": 1,
      "label": "Safe SAM Stroll",
      "description": "Get to the SAM site without getting incapacitated after Point Alpha in mission Touchdown.",
      "howto": "Get to the SAM site without getting incapacitated after Point Alpha in mission Touchdown."
    },
    {
      "id": 44,
      "imageId": 45,
      "cred": 10,
      "flags": 1,
      "label": "Tough Kid",
      "description": "No Infiltrator member went down while at the camp in Village Attack. Regular difficulty required.",
      "howto": "No Infiltrator member went down while at the camp in Village Attack. Regular difficulty required."
    },
    {
      "id": 45,
      "imageId": 29,
      "cred": 5,
      "flags": 1,
      "label": "King of the Hill",
      "description": "Complete the village defense objective without leaving the village square in the Prologue.",
      "howto": "Complete the village defense objective without leaving the village square in the Prologue."
    },
    {
      "id": 46,
      "imageId": 37,
      "cred": 20,
      "flags": 1,
      "label": "Rock Solid",
      "description": "Keep the enemy away from the civilians in mission Alliances. Veteran difficulty required.",
      "howto": "Keep the enemy away from the civilians in mission Alliances. Veteran difficulty required."
    },
    {
      "id": 47,
      "imageId": 46,
      "cred": 20,
      "flags": 1,
      "label": "Woodsman",
      "description": "Complete Wet Dusk without any of your squads becoming incapacitated. Regular difficulty required.",
      "howto": "Complete Wet Dusk without any of your squads becoming incapacitated. Regular difficulty required."
    }
  ]
}