{
  "achievementsPossible": 30,
  "credPossible": 1000,
  "achievements": [
    {
      "id": 2,
      "imageId": 40,
      "cred": 15,
      "flags": 1,
      "label": "Specialist",
      "description": "Upgrade any Drone to its maximum level",
      "howto": "Upgrade any Drone to its maximum level"
    },
    {
      "id": 3,
      "imageId": 41,
      "cred": 40,
      "flags": 1,
      "label": "Maximise",
      "description": "Upgrade 5 Drones to their maximum level",
      "howto": "Upgrade 5 Drones to their maximum level"
    },
    {
      "id": 7,
      "imageId": 46,
      "cred": 20,
      "flags": 1,
      "label": "Boom",
      "description": "Kill 100 enemies with a single Smart Bomb",
      "howto": "Kill 100 enemies with a single Smart Bomb"
    },
    {
      "id": 8,
      "imageId": 47,
      "cred": 20,
      "flags": 1,
      "label": "First Step",
      "description": "Earn 3 Stars on any level in Adventure Mode",
      "howto": "Earn 3 Stars on any level in Adventure Mode"
    },
    {
      "id": 9,
      "imageId": 48,
      "cred": 100,
      "flags": 1,
      "label": "Geometry Warrior",
      "description": "Earn 3 Stars on all 50 levels of Adventure Mode",
      "howto": "Earn 3 Stars on all 50 levels of Adventure Mode"
    },
    {
      "id": 11,
      "imageId": 49,
      "cred": 80,
      "flags": 1,
      "label": "Keen Adventurer",
      "description": "Beat the Topaz boss in Adventure Mode",
      "howto": "Beat the Topaz boss in Adventure Mode"
    },
    {
      "id": 12,
      "imageId": 50,
      "cred": 15,
      "flags": 1,
      "label": "Millionaire",
      "description": "Score at least 1 million points on any level in Adventure Mode",
      "howto": "Score at least 1 million points on any level in Adventure Mode"
    },
    {
      "id": 14,
      "imageId": 51,
      "cred": 40,
      "flags": 1,
      "label": "Multi Millionaire",
      "description": "Score at least 100 million points on any level in Adventure Mode",
      "howto": "Score at least 100 million points on any level in Adventure Mode"
    },
    {
      "id": 15,
      "imageId": 52,
      "cred": 50,
      "flags": 1,
      "label": "Geomtastic",
      "description": "Earn a multiplier of at least 1000 on any level in Adventure Mode",
      "howto": "Earn a multiplier of at least 1000 on any level in Adventure Mode"
    },
    {
      "id": 17,
      "imageId": 53,
      "cred": 35,
      "flags": 1,
      "label": "Kill Them All",
      "description": "Kill every enemy type found in Adventure Mode at least once",
      "howto": "Kill every enemy type found in Adventure Mode at least once"
    },
    {
      "id": 18,
      "imageId": 54,
      "cred": 35,
      "flags": 1,
      "label": "Dying Time",
      "description": "Be killed by every enemy type found in Adventure Mode at least once",
      "howto": "Be killed by every enemy type found in Adventure Mode at least once"
    },
    {
      "id": 19,
      "imageId": 55,
      "cred": 15,
      "flags": 1,
      "label": "Powered Up",
      "description": "Activate each Super State at least once",
      "howto": "Activate each Super State at least once"
    },
    {
      "id": 25,
      "imageId": 61,
      "cred": 30,
      "flags": 1,
      "label": "Best Friends",
      "description": "Beat the Garnet boss in Co-op Mode",
      "howto": "Beat the Garnet boss in Co-op Mode"
    },
    {
      "id": 26,
      "imageId": 62,
      "cred": 60,
      "flags": 1,
      "label": "BFF",
      "description": "Achieve 3 Stars on all 10 levels in Co-op Mode",
      "howto": "Achieve 3 Stars on all 10 levels in Co-op Mode"
    },
    {
      "id": 27,
      "imageId": 63,
      "cred": 35,
      "flags": 1,
      "label": "Gatherer",
      "description": "Collect 1 million Geoms in Adventure, Ultimate or Hardcore",
      "howto": "Collect 1 million Geoms in Adventure, Ultimate or Hardcore"
    },
    {
      "id": 28,
      "imageId": 74,
      "cred": 30,
      "flags": 1,
      "label": "Beat Craig",
      "description": "Beat the Developer high score of 11,261,635 on Peanut Dreams in Adventure Mode",
      "howto": "Beat the Developer high score of 11,261,635 on Peanut Dreams in Adventure Mode"
    },
    {
      "id": 29,
      "imageId": 72,
      "cred": 30,
      "flags": 1,
      "label": "Beat Col",
      "description": "Beat the Developer high score of 4,769,150 on Gate Dash in Adventure Mode",
      "howto": "Beat the Developer high score of 4,769,150 on Gate Dash in Adventure Mode"
    },
    {
      "id": 30,
      "imageId": 73,
      "cred": 30,
      "flags": 1,
      "label": "Beat Phil",
      "description": "Beat the Developer high score of 21,478,525 on Nufo Flow in Adventure Mode",
      "howto": "Beat the Developer high score of 21,478,525 on Nufo Flow in Adventure Mode"
    },
    {
      "id": 31,
      "imageId": 67,
      "cred": 10,
      "flags": 1,
      "label": "Rocket Destroyer",
      "description": "Destroy 10,000 Rocket enemies in total",
      "howto": "Destroy 10,000 Rocket enemies in total"
    },
    {
      "id": 32,
      "imageId": 68,
      "cred": 50,
      "flags": 1,
      "label": "Deadliest",
      "description": "Complete Deadline Classic without losing a life",
      "howto": "Complete Deadline Classic without losing a life"
    },
    {
      "id": 33,
      "imageId": 69,
      "cred": 20,
      "flags": 1,
      "label": "Bossman",
      "description": "Defeat any boss in Adventure Mode without using a Drone Super or a Smart Bomb",
      "howto": "Defeat any boss in Adventure Mode without using a Drone Super or a Smart Bomb"
    },
    {
      "id": 34,
      "imageId": 70,
      "cred": 50,
      "flags": 1,
      "label": "Retro",
      "description": "Score over 10 million on Evolved Classic Level before losing a life",
      "howto": "Score over 10 million on Evolved Classic Level before losing a life"
    },
    {
      "id": 41,
      "imageId": 77,
      "cred": 30,
      "flags": 1,
      "label": "Beat Andy",
      "description": "Beat the Developer high score of 21,468,350 on Pacifism Classic",
      "howto": "Beat the Developer high score of 21,468,350 on Pacifism Classic"
    },
    {
      "id": 42,
      "imageId": 78,
      "cred": 30,
      "flags": 1,
      "label": "Sharp Shooter",
      "description": "Score over 500,000 on Twisted Blister in Adventure Mode without moving",
      "howto": "Score over 500,000 on Twisted Blister in Adventure Mode without moving"
    },
    {
      "id": 43,
      "imageId": 79,
      "cred": 25,
      "flags": 1,
      "label": "Survivalist",
      "description": "Survive for 30 seconds on Pacifism Classic without going through a gate",
      "howto": "Survive for 30 seconds on Pacifism Classic without going through a gate"
    },
    {
      "id": 44,
      "imageId": 80,
      "cred": 25,
      "flags": 1,
      "label": "Stationary",
      "description": "Score over 500,000 points on Waves Classic without moving",
      "howto": "Score over 500,000 points on Waves Classic without moving"
    },
    {
      "id": 45,
      "imageId": 81,
      "cred": 25,
      "flags": 1,
      "label": "Bullet Proof",
      "description": "Score over 2 million on Maze in Adventure Mode without dying",
      "howto": "Score over 2 million on Maze in Adventure Mode without dying"
    },
    {
      "id": 46,
      "imageId": 82,
      "cred": 25,
      "flags": 1,
      "label": "King Killer",
      "description": "Spend 60 seconds outside of the safety King Zones in King Classic",
      "howto": "Spend 60 seconds outside of the safety King Zones in King Classic"
    },
    {
      "id": 47,
      "imageId": 83,
      "cred": 20,
      "flags": 1,
      "label": "Peacekeeper",
      "description": "Survive for 60 seconds on Deflector in Adventure Mode without shooting and pass the level",
      "howto": "Survive for 60 seconds on Deflector in Adventure Mode without shooting and pass the level"
    },
    {
      "id": 48,
      "imageId": 84,
      "cred": 10,
      "flags": 1,
      "label": "Cleaning Up",
      "description": "Destroy the cleaner",
      "howto": "Destroy the cleaner"
    }
  ]
}