{
  "achievementsPossible": 33,
  "credPossible": 1000,
  "achievements": [
    {
      "id": 80,
      "imageId": 121,
      "cred": 50,
      "flags": 4,
      "label": "True Duckman",
      "description": "Shot each duck species",
      "howto": "Shoot each duck species"
    },
    {
      "id": 81,
      "imageId": 122,
      "cred": 50,
      "flags": 4,
      "label": "Bragging Rights",
      "description": "Caught a fish over 8 lbs. without reeling out",
      "howto": "Catch a fish over 8 lbs. without reeling out"
    },
    {
      "id": 82,
      "imageId": 123,
      "cred": 50,
      "flags": 3,
      "label": "Hoarder",
      "description": "Unlocked all rewards in the Story Mode",
      "howto": "Unlock all rewards in the Story Mode"
    },
    {
      "id": 83,
      "imageId": 124,
      "cred": 50,
      "flags": 5,
      "label": "Showboat!",
      "description": "Won every race in the Tournament",
      "howto": "Win every race in the Tournament"
    },
    {
      "id": 84,
      "imageId": 125,
      "cred": 50,
      "flags": 7,
      "label": "Overpowered",
      "description": "Unlocked all power-ups in the Galleries mode",
      "howto": "Unlock all power-ups in the Galleries mode"
    },
    {
      "id": 85,
      "imageId": 126,
      "cred": 50,
      "flags": 4,
      "label": "Wrong Way!",
      "description": "Won a race while crossing the finish line driving backwards",
      "howto": "Win a race while crossing the finish line driving backwards"
    },
    {
      "id": 86,
      "imageId": 127,
      "cred": 50,
      "flags": 4,
      "label": "Group Hug",
      "description": "Took down 3 ducks with a single shot in the Story Mode",
      "howto": "Take down 3 ducks with a single shot in the Story Mode"
    },
    {
      "id": 87,
      "imageId": 128,
      "cred": 50,
      "flags": 4,
      "label": "Can't Touch This... Boat",
      "description": "Won a race without bumping into another opponent",
      "howto": "Win a race without bumping into another opponent"
    },
    {
      "id": 88,
      "imageId": 129,
      "cred": 50,
      "flags": 4,
      "label": "No One Will Believe You",
      "description": "Caught 4 fish over 9 lbs.",
      "howto": "Catch 4 fish over 9 lbs."
    },
    {
      "id": 89,
      "imageId": 130,
      "cred": 50,
      "flags": 4,
      "label": "True Robertson",
      "description": "Completed all blinds in the Galleries at least once without using any power-up",
      "howto": "Complete all blinds in the Galleries at least once without using any power-up"
    },
    {
      "id": 90,
      "imageId": 131,
      "cred": 30,
      "flags": 4,
      "label": "No One Left Behind",
      "description": "Shot all targets in the Galleries levels",
      "howto": "Shoot all targets in the Galleries levels"
    },
    {
      "id": 91,
      "imageId": 132,
      "cred": 30,
      "flags": 5,
      "label": "Way Better Than Si",
      "description": "Won the Tournament",
      "howto": "Win the Tournament"
    },
    {
      "id": 92,
      "imageId": 133,
      "cred": 30,
      "flags": 4,
      "label": "Take Your Time",
      "description": "Completed one duck hunt without missing any shots",
      "howto": "Complete one duck hunt without missing any shots"
    },
    {
      "id": 93,
      "imageId": 134,
      "cred": 30,
      "flags": 4,
      "label": "Fly Bye!",
      "description": "Overpassed an opponent during a jump with the air boat",
      "howto": "Overpass an opponent during a jump with the air boat"
    },
    {
      "id": 94,
      "imageId": 135,
      "cred": 30,
      "flags": 4,
      "label": "They All Stink",
      "description": "Fished all the species of fish",
      "howto": "Fish all the species of fish"
    },
    {
      "id": 95,
      "imageId": 136,
      "cred": 30,
      "flags": 4,
      "label": "Set On Silent Mode",
      "description": "Shot 5 ducks without calling them",
      "howto": "Shoot 5 ducks without calling them"
    },
    {
      "id": 96,
      "imageId": 137,
      "cred": 30,
      "flags": 4,
      "label": "Duck Whisperer",
      "description": "Successfully called each duck species",
      "howto": "Successfully call each duck species"
    },
    {
      "id": 97,
      "imageId": 138,
      "cred": 30,
      "flags": 4,
      "label": "No One Left To Tell The Tale",
      "description": "Shot down all the ducks from a flock",
      "howto": "Shoot down all the ducks from a flock"
    },
    {
      "id": 98,
      "imageId": 139,
      "cred": 30,
      "flags": 4,
      "label": "Stars and Strikes",
      "description": "Earned three stars in a Galleries blind",
      "howto": "Earn three stars in a Galleries blind"
    },
    {
      "id": 99,
      "imageId": 140,
      "cred": 30,
      "flags": 4,
      "label": "Like Grandfather, Like Grandson",
      "description": "Hunted ducks, fished, hunted varmints, caught frogs",
      "howto": "Hunt ducks, fish, hunt varmints, catch frogs"
    },
    {
      "id": 100,
      "imageId": 141,
      "cred": 30,
      "flags": 4,
      "label": "T Minus 15",
      "description": "Found one of Si's treasures in less than 15 seconds",
      "howto": "Find one of Si's treasures in less than 15 seconds"
    },
    {
      "id": 101,
      "imageId": 142,
      "cred": 30,
      "flags": 4,
      "label": "Bouncing Back",
      "description": "Got from the last to the first position during a race",
      "howto": "Get from the last to the first position during a race"
    },
    {
      "id": 102,
      "imageId": 143,
      "cred": 30,
      "flags": 4,
      "label": "Siren Call",
      "description": "Called 30 ducks to blinds",
      "howto": "Call 30 ducks to blinds"
    },
    {
      "id": 103,
      "imageId": 144,
      "cred": 30,
      "flags": 4,
      "label": "On Tune",
      "description": "Didn't miss any note of a Hail call",
      "howto": "Don't miss any note of a Hail call"
    },
    {
      "id": 104,
      "imageId": 145,
      "cred": 10,
      "flags": 4,
      "label": "Master Caster",
      "description": "Performed 5 casts in a row without missing",
      "howto": "Perform 5 casts in a row without missing"
    },
    {
      "id": 105,
      "imageId": 146,
      "cred": 10,
      "flags": 4,
      "label": "Surprise Me!",
      "description": "Shot a Surprise duck in the Galleries",
      "howto": "Shoot a Surprise duck in the Galleries"
    },
    {
      "id": 106,
      "imageId": 147,
      "cred": 10,
      "flags": 4,
      "label": "Better Than Si",
      "description": "Finished a race without ever falling into last place",
      "howto": "Finish a race without ever falling into last place"
    },
    {
      "id": 107,
      "imageId": 148,
      "cred": 10,
      "flags": 5,
      "label": "Even Si Can Win A Race",
      "description": "Won a race in Tournament mode",
      "howto": "Win a race in Tournament mode"
    },
    {
      "id": 108,
      "imageId": 149,
      "cred": 10,
      "flags": 4,
      "label": "Oh, No Snap!",
      "description": "Completed a fishing quest without breaking the line",
      "howto": "Complete a fishing quest without breaking the line"
    },
    {
      "id": 109,
      "imageId": 150,
      "cred": 10,
      "flags": 4,
      "label": "Record Setter",
      "description": "Improved your high score in one blind in the Galleries",
      "howto": "Improve your high score in one blind in the Galleries"
    },
    {
      "id": 110,
      "imageId": 151,
      "cred": 10,
      "flags": 4,
      "label": "Lieutenant Hook",
      "description": "Didn't miss the hooking on 3 consecutive fish in the same hotpot",
      "howto": "Don't miss the hooking on 3 consecutive fish in the same hotspot"
    },
    {
      "id": 111,
      "imageId": 152,
      "cred": 5,
      "flags": 4,
      "label": "Six Pack",
      "description": "Shot 6 consecutive bottles without missing",
      "howto": "Shoot 6 consecutive bottles without missing"
    },
    {
      "id": 112,
      "imageId": 153,
      "cred": 5,
      "flags": 3,
      "label": "Empowered",
      "description": "Unlocked the first power-up in the Galleries",
      "howto": "Unlock the first power-up in the Galleries"
    }
  ]
}