{
  "achievementsPossible": 38,
  "credPossible": 1000,
  "achievements": [
    {
      "id": 6,
      "imageId": 2,
      "cred": 10,
      "flags": 2,
      "label": "Anger Management",
      "description": "You've expressed a wide range of emotions",
      "howto": "Get emotional!"
    },
    {
      "id": 7,
      "imageId": 4,
      "cred": 10,
      "flags": 1,
      "label": "Beat Cop",
      "description": "You've taken on a mission and survived",
      "howto": "Beat your way through a mission"
    },
    {
      "id": 8,
      "imageId": 5,
      "cred": 10,
      "flags": 1,
      "label": "Big Game Hunter",
      "description": "The antler was used with success",
      "howto": "Get up close and personal with the antler"
    },
    {
      "id": 9,
      "imageId": 3,
      "cred": 25,
      "flags": 2,
      "label": "Self Medicated",
      "description": "You've bandaged your wounds",
      "howto": "Heal thyself, physician"
    },
    {
      "id": 10,
      "imageId": 6,
      "cred": 10,
      "flags": 1,
      "label": "Brick Wall",
      "description": "You've blocked incoming attacks 5 times.",
      "howto": "MP - Block it away!"
    },
    {
      "id": 11,
      "imageId": 7,
      "cred": 30,
      "flags": 1,
      "label": "Bum King",
      "description": "You survived 5 Bum Rush rounds as SCU without firing a shot",
      "howto": "No guns, no problem"
    },
    {
      "id": 12,
      "imageId": 8,
      "cred": 30,
      "flags": 1,
      "label": "Can You Hear Me Now?",
      "description": "You've removed all emitters",
      "howto": "Emitter Removal Service"
    },
    {
      "id": 13,
      "imageId": 9,
      "cred": 30,
      "flags": 2,
      "label": "Chain Gang",
      "description": "Each level of chain attack has been executed a number of times",
      "howto": "Use all chain attacks a few times"
    },
    {
      "id": 14,
      "imageId": 10,
      "cred": 50,
      "flags": 1,
      "label": "Chief Investigator",
      "description": "You mastered it all on the hardest setting",
      "howto": "Complete all missions in Hard mode"
    },
    {
      "id": 15,
      "imageId": 11,
      "cred": 10,
      "flags": 1,
      "label": "Collector",
      "description": "You've collected the evidence 5 times",
      "howto": "Scan the MP goodies once, twice, thrice - and more!"
    },
    {
      "id": 16,
      "imageId": 13,
      "cred": 25,
      "flags": 1,
      "label": "Decisive Restraint",
      "description": "No guards were killed in the City Museum.",
      "howto": "Restraint is a virtue."
    },
    {
      "id": 17,
      "imageId": 14,
      "cred": 25,
      "flags": 1,
      "label": "Defender",
      "description": "You've defended the goodies ten times over",
      "howto": "MP Defense 10 times over on the evidence"
    },
    {
      "id": 18,
      "imageId": 15,
      "cred": 30,
      "flags": 1,
      "label": "Detective",
      "description": "Unlimited ammo is your friend for a mission",
      "howto": "Get through a mission in FPS"
    },
    {
      "id": 19,
      "imageId": 16,
      "cred": 50,
      "flags": 1,
      "label": "Detective - First Grade",
      "description": "Unlimited ammo is your friend thoughout the game",
      "howto": "Shoot your way through it all in FPS"
    },
    {
      "id": 20,
      "imageId": 17,
      "cred": 25,
      "flags": 1,
      "label": "Bloodshot",
      "description": "You unlocked all Bloodshot Fight Club Arenas",
      "howto": "Unlock all Bloodshot Fight Clubs"
    },
    {
      "id": 21,
      "imageId": 18,
      "cred": 25,
      "flags": 1,
      "label": "EPA (Environmental Pwnage Area)",
      "description": "You've half-nelsoned your way to success",
      "howto": "Grab your foes by the neck and do what's necessary"
    },
    {
      "id": 22,
      "imageId": 19,
      "cred": 25,
      "flags": 1,
      "label": "Flambe",
      "description": "Earned with the liquor burn method",
      "howto": "Splash, Shock and Fry"
    },
    {
      "id": 23,
      "imageId": 20,
      "cred": 50,
      "flags": 1,
      "label": "Gold-Plated",
      "description": "Gold times Eleven",
      "howto": "Go gold in all missions"
    },
    {
      "id": 24,
      "imageId": 21,
      "cred": 10,
      "flags": 1,
      "label": "GOOOAAALLLL!",
      "description": "The foosball piece was used successfully - again and again",
      "howto": "Use the foosball table piece to your advantage"
    },
    {
      "id": 25,
      "imageId": 1,
      "cred": 25,
      "flags": 1,
      "label": "Investigator",
      "description": "You took on the hardest and beat them at their game",
      "howto": "You took on the hardest and beat them at their game"
    },
    {
      "id": 26,
      "imageId": 23,
      "cred": 25,
      "flags": 1,
      "label": "Just The Facts",
      "description": "You've collected the evidence 10 times",
      "howto": "MP Crime Scene Goodness"
    },
    {
      "id": 27,
      "imageId": 24,
      "cred": 30,
      "flags": 1,
      "label": "Master Investigator",
      "description": "You earned every point possible in Evidence Mode",
      "howto": "PERFECTION as a sleuth all the way through"
    },
    {
      "id": 29,
      "imageId": 25,
      "cred": 25,
      "flags": 2,
      "label": "Magellan",
      "description": "You've played each map several times over",
      "howto": "Explore all maps more than once!"
    },
    {
      "id": 30,
      "imageId": 26,
      "cred": 25,
      "flags": 2,
      "label": "A La Mode",
      "description": "You've tasted each Multiplayer mode 5 times.",
      "howto": "5 scoops of everything"
    },
    {
      "id": 31,
      "imageId": 27,
      "cred": 50,
      "flags": 1,
      "label": "MP Overachiever",
      "description": "You've won a Deathmatch game with 15 kills without dying.",
      "howto": "Win a Deathmatch game with 15 kills without dying."
    },
    {
      "id": 32,
      "imageId": 28,
      "cred": 25,
      "flags": 1,
      "label": "The Plumber",
      "description": "Your pipe is your friend",
      "howto": "Find a pipe and use it frequently"
    },
    {
      "id": 33,
      "imageId": 29,
      "cred": 10,
      "flags": 1,
      "label": "Punch Drunk",
      "description": "Fist Fight! Fist Fight!",
      "howto": "MP - Duke of Queensbury Rules Only"
    },
    {
      "id": 34,
      "imageId": 30,
      "cred": 30,
      "flags": 1,
      "label": "Restraint... Not",
      "description": "You've won 10 Crime Scene games as SCU without firing a shot.",
      "howto": "Win Crime Scene games as SCU without firing a shot."
    },
    {
      "id": 35,
      "imageId": 31,
      "cred": 25,
      "flags": 1,
      "label": "Rush Champ",
      "description": "You've defeated the SCU 5 times in Bum Rush",
      "howto": "Take SCU out with the trash 5 times"
    },
    {
      "id": 36,
      "imageId": 37,
      "cred": 50,
      "flags": 1,
      "label": "Serial Killer",
      "description": "You've killed 1000 players in MP",
      "howto": "Go kill, kill, kill in MP"
    },
    {
      "id": 37,
      "imageId": 38,
      "cred": 50,
      "flags": 1,
      "label": "SKX",
      "description": "Just like SKX, you've killed 9 serial killers. (Other players with the serial killer achievement)",
      "howto": "Kill the killers."
    },
    {
      "id": 38,
      "imageId": 33,
      "cred": 10,
      "flags": 1,
      "label": "Sleuth",
      "description": "You earned a PERFECT with your investigative skills",
      "howto": "Be the PERFECT sleuth"
    },
    {
      "id": 39,
      "imageId": 34,
      "cred": 30,
      "flags": 1,
      "label": "Survivor King",
      "description": "Bum Rush Survivor 5 times",
      "howto": "Bum Rush Survivor multiple times"
    },
    {
      "id": 40,
      "imageId": 35,
      "cred": 30,
      "flags": 1,
      "label": "Trooper",
      "description": "You've been through all missions",
      "howto": "Complete the single-player game"
    },
    {
      "id": 41,
      "imageId": 36,
      "cred": 30,
      "flags": 1,
      "label": "Tune In Tokyo",
      "description": "You've tuned in all TVs through all missions",
      "howto": "Tune in all those TVs"
    },
    {
      "id": 42,
      "imageId": 32,
      "cred": 10,
      "flags": 1,
      "label": "Sidekick",
      "description": "You've assisted in scanning evidence in MP",
      "howto": "Assist in scanning evidence in Crime Scene mode"
    },
    {
      "id": 43,
      "imageId": 22,
      "cred": 10,
      "flags": 1,
      "label": "The Final Word",
      "description": "You completed your first environmental finishing move.",
      "howto": "You never forget your first time."
    },
    {
      "id": 44,
      "imageId": 12,
      "cred": 30,
      "flags": 1,
      "label": "Cut Throat",
      "description": "You've performed 25 finishing moves to take out your opponents.",
      "howto": "Finish it!"
    }
  ]
}