{
  "achievementsPossible": 50,
  "credPossible": 1000,
  "achievements": [
    {
      "id": 14,
      "imageId": 1,
      "cred": 15,
      "flags": 1,
      "label": "Mission 1",
      "description": "Complete mission 1 of the campaign.",
      "howto": "Complete mission 1 of the campaign."
    },
    {
      "id": 15,
      "imageId": 2,
      "cred": 15,
      "flags": 1,
      "label": "Mission 2",
      "description": "Complete mission 2 of the campaign.",
      "howto": "Complete mission 2 of the campaign."
    },
    {
      "id": 16,
      "imageId": 3,
      "cred": 15,
      "flags": 1,
      "label": "Mission 3",
      "description": "Complete mission 3 of the campaign.",
      "howto": "Complete mission 3 of the campaign."
    },
    {
      "id": 17,
      "imageId": 4,
      "cred": 15,
      "flags": 1,
      "label": "Mission 4",
      "description": "Complete mission 4 of the campaign.",
      "howto": "Complete mission 4 of the campaign."
    },
    {
      "id": 18,
      "imageId": 5,
      "cred": 15,
      "flags": 1,
      "label": "Mission 5",
      "description": "Complete mission 5 of the campaign.",
      "howto": "Complete mission 5 of the campaign."
    },
    {
      "id": 19,
      "imageId": 6,
      "cred": 15,
      "flags": 1,
      "label": "Mission 6",
      "description": "Complete mission 6 of the campaign.",
      "howto": "Complete mission 6 of the campaign."
    },
    {
      "id": 20,
      "imageId": 7,
      "cred": 15,
      "flags": 1,
      "label": "Mission 7",
      "description": "Complete mission 7 of the campaign.",
      "howto": "Complete mission 7 of the campaign."
    },
    {
      "id": 21,
      "imageId": 8,
      "cred": 15,
      "flags": 1,
      "label": "Mission 8",
      "description": "Complete mission 8 of the campaign.",
      "howto": "Complete mission 8 of the campaign."
    },
    {
      "id": 22,
      "imageId": 9,
      "cred": 15,
      "flags": 1,
      "label": "Mission 9",
      "description": "Complete mission 9 of the campaign.",
      "howto": "Complete mission 9 of the campaign."
    },
    {
      "id": 23,
      "imageId": 10,
      "cred": 15,
      "flags": 1,
      "label": "Mission 10",
      "description": "Complete mission 10 of the campaign.",
      "howto": "Complete mission 10 of the campaign."
    },
    {
      "id": 24,
      "imageId": 11,
      "cred": 15,
      "flags": 1,
      "label": "Mission 11",
      "description": "Complete mission 11 of the campaign.",
      "howto": "Complete mission 11 of the campaign."
    },
    {
      "id": 25,
      "imageId": 12,
      "cred": 15,
      "flags": 1,
      "label": "Mission 12",
      "description": "Complete mission 12 of the campaign.",
      "howto": "Complete mission 12 of the campaign."
    },
    {
      "id": 26,
      "imageId": 13,
      "cred": 15,
      "flags": 1,
      "label": "Mission 13",
      "description": "Complete mission 13 of the campaign.",
      "howto": "Complete mission 13 of the campaign."
    },
    {
      "id": 27,
      "imageId": 14,
      "cred": 15,
      "flags": 1,
      "label": "Mission 14",
      "description": "Complete mission 14 of the campaign.",
      "howto": "Complete mission 14 of the campaign."
    },
    {
      "id": 28,
      "imageId": 15,
      "cred": 15,
      "flags": 1,
      "label": "Mission 15",
      "description": "Complete mission 15 of the campaign.",
      "howto": "Complete mission 15 of the campaign."
    },
    {
      "id": 29,
      "imageId": 16,
      "cred": 15,
      "flags": 1,
      "label": "Mission 16",
      "description": "Complete mission 16 of the campaign.",
      "howto": "Complete mission 16 of the campaign."
    },
    {
      "id": 30,
      "imageId": 17,
      "cred": 15,
      "flags": 1,
      "label": "Mission 17",
      "description": "Complete mission 17 of the campaign.",
      "howto": "Complete mission 17 of the campaign."
    },
    {
      "id": 31,
      "imageId": 18,
      "cred": 15,
      "flags": 1,
      "label": "Mission 18",
      "description": "Complete mission 18 of the campaign.",
      "howto": "Complete mission 18 of the campaign."
    },
    {
      "id": 32,
      "imageId": 19,
      "cred": 25,
      "flags": 1,
      "label": "War Hero",
      "description": "All missions of the single player campaign completed.",
      "howto": "All missions of the single player campaign completed."
    },
    {
      "id": 33,
      "imageId": 20,
      "cred": 15,
      "flags": 1,
      "label": "Nice Collection",
      "description": "Unlock 65% of the planes in the single player campaign.",
      "howto": "Unlock 65% of the planes in the single player campaign."
    },
    {
      "id": 34,
      "imageId": 21,
      "cred": 15,
      "flags": 1,
      "label": "Complete Collection",
      "description": "Unlock all the planes in the single player campaign.",
      "howto": "Unlock all the planes in the single player campaign."
    },
    {
      "id": 35,
      "imageId": 22,
      "cred": 20,
      "flags": 1,
      "label": "Great Streak",
      "description": "Make a killing streak of at least 12 kills.\r\n",
      "howto": "Make a killing streak of at least 12 kills.\r\n"
    },
    {
      "id": 36,
      "imageId": 23,
      "cred": 15,
      "flags": 1,
      "label": "Eye in the Back",
      "description": "Successfully use defensive weapons 50 times over the course of the campaign.",
      "howto": "Successfully use defensive weapons 50 times over the course of the campaign."
    },
    {
      "id": 37,
      "imageId": 24,
      "cred": 10,
      "flags": 1,
      "label": "Strategist",
      "description": "Your wingmen score at least 50 kills over the course of the single player campaign.",
      "howto": "Your wingmen score at least 50 kills over the course of the single player campaign."
    },
    {
      "id": 38,
      "imageId": 25,
      "cred": 30,
      "flags": 1,
      "label": "Completist",
      "description": "Accomplish all secondary objectives in all the single player campaign missions.",
      "howto": "Accomplish all secondary objectives in all the single player campaign missions."
    },
    {
      "id": 39,
      "imageId": 26,
      "cred": 35,
      "flags": 1,
      "label": "Ace",
      "description": "Obtain the Ace rating in at least 5 missions of the single player campaign.",
      "howto": "Obtain the Ace rating in at least 5 missions of the single player campaign."
    },
    {
      "id": 40,
      "imageId": 27,
      "cred": 10,
      "flags": 1,
      "label": "Ace for a Day",
      "description": "Obtain the Ace rating in at least one mission of the single player campaign.",
      "howto": "Obtain the Ace rating in at least one mission of the single player campaign."
    },
    {
      "id": 41,
      "imageId": 28,
      "cred": 15,
      "flags": 1,
      "label": "Well Covered",
      "description": "Your turret gunners score 15 kills in the single player campaign.",
      "howto": "Your turret gunners score 15 kills in the single player campaign."
    },
    {
      "id": 42,
      "imageId": 29,
      "cred": 10,
      "flags": 1,
      "label": "Tech Savvy",
      "description": "Acquire at least two technological advancements in the single player campaign.",
      "howto": "Acquire at least two technological advancements in the single player campaign."
    },
    {
      "id": 43,
      "imageId": 30,
      "cred": 20,
      "flags": 1,
      "label": "Tech Expert",
      "description": "Acquire all technological advancements in the single player campaign.",
      "howto": "Acquire all technological advancements in the single player campaign."
    },
    {
      "id": 44,
      "imageId": 31,
      "cred": 10,
      "flags": 1,
      "label": "Showoff",
      "description": "Perform at least 25 stunts in the single player campaign.",
      "howto": "Perform at least 25 stunts in the single player campaign."
    },
    {
      "id": 45,
      "imageId": 32,
      "cred": 15,
      "flags": 1,
      "label": "Skirmish Explored",
      "description": "Reach 25% in all skirmish missions in the coop mode.",
      "howto": "Reach 25% in all skirmish missions in the coop mode."
    },
    {
      "id": 46,
      "imageId": 33,
      "cred": 15,
      "flags": 1,
      "label": "Skirmish Advanced",
      "description": "Reach 50% in at least three skirmish missions in the coop mode.",
      "howto": "Reach 50% in at least three skirmish missions in the coop mode."
    },
    {
      "id": 47,
      "imageId": 34,
      "cred": 20,
      "flags": 1,
      "label": "Skirmish Perfected",
      "description": "Reach 100% in at least two skirmish missions in the coop mode.",
      "howto": "Reach 100% in at least two skirmish missions in the coop mode."
    },
    {
      "id": 48,
      "imageId": 35,
      "cred": 10,
      "flags": 1,
      "label": "Healthy Finish",
      "description": "Finish a solo multiplayer match without being last on the table.",
      "howto": "Finish a solo multiplayer match without being last on the table."
    },
    {
      "id": 49,
      "imageId": 36,
      "cred": 15,
      "flags": 1,
      "label": "Good Finish",
      "description": "Finish a solo multiplayer match above mid-table.",
      "howto": "Finish a solo multiplayer match above mid-table."
    },
    {
      "id": 50,
      "imageId": 37,
      "cred": 30,
      "flags": 1,
      "label": "Top Finish",
      "description": "Finish a solo multiplayer match on the top of the table.",
      "howto": "Finish a solo multiplayer match on the top of the table."
    },
    {
      "id": 51,
      "imageId": 38,
      "cred": 25,
      "flags": 1,
      "label": "Team Player",
      "description": "Respond to at least 25 requests from teammates in multiplayer.",
      "howto": "Respond to at least 25 requests from teammates in multiplayer."
    },
    {
      "id": 52,
      "imageId": 39,
      "cred": 50,
      "flags": 1,
      "label": "Streak Master",
      "description": "Make three killing streaks of at least 15 kills.",
      "howto": "Make three killing streaks of at least 15 kills."
    },
    {
      "id": 53,
      "imageId": 40,
      "cred": 15,
      "flags": 1,
      "label": "Curiosity Satisfied",
      "description": "Play at least one match in every multiplayer mode.",
      "howto": "Play at least one match in every multiplayer mode."
    },
    {
      "id": 54,
      "imageId": 41,
      "cred": 20,
      "flags": 1,
      "label": "Versatile Pilot",
      "description": "Achieve multiplayer kills with at least 15 types of different aircraft.",
      "howto": "Achieve multiplayer kills with at least 15 types of different aircraft."
    },
    {
      "id": 55,
      "imageId": 42,
      "cred": 30,
      "flags": 1,
      "label": "Dominator",
      "description": "Make 15 kills in a row without dying, in a multiplayer match.",
      "howto": "Make 15 kills in a row without dying, in a multiplayer match."
    },
    {
      "id": 56,
      "imageId": 43,
      "cred": 15,
      "flags": 1,
      "label": "Good Team Play",
      "description": "Be part of the winning team in 3 squad matches.",
      "howto": "Be part of the winning team in 3 squad matches."
    },
    {
      "id": 57,
      "imageId": 44,
      "cred": 30,
      "flags": 1,
      "label": "Excellent Team Play",
      "description": "Be part of the winning team in 25 squad matches.",
      "howto": "Be part of the winning team in 25 squad matches."
    },
    {
      "id": 58,
      "imageId": 45,
      "cred": 50,
      "flags": 1,
      "label": "Superb Team Play",
      "description": "Be part of the winning team in 50 squad matches.",
      "howto": "Be part of the winning team in 50 squad matches."
    },
    {
      "id": 59,
      "imageId": 46,
      "cred": 30,
      "flags": 1,
      "label": "Proven Pilot",
      "description": "Make 50 kills in adversarial multiplayer matches.",
      "howto": "Make 50 kills in adversarial multiplayer matches."
    },
    {
      "id": 60,
      "imageId": 47,
      "cred": 40,
      "flags": 1,
      "label": "Skilled Dogfighter",
      "description": "Make 150 kills in adversarial multiplayer matches.",
      "howto": "Make 150 kills in adversarial multiplayer matches."
    },
    {
      "id": 61,
      "imageId": 48,
      "cred": 50,
      "flags": 1,
      "label": "Ace of Aces",
      "description": "Make 300 kills in adversarial multiplayer matches.",
      "howto": "Make 300 kills in adversarial multiplayer matches."
    },
    {
      "id": 62,
      "imageId": 49,
      "cred": 10,
      "flags": 1,
      "label": "Veteran",
      "description": "Play 25 hours online, in any multiplayer mode.",
      "howto": "Play 25 hours online, in any multiplayer mode."
    },
    {
      "id": 63,
      "imageId": 50,
      "cred": 30,
      "flags": 1,
      "label": "Hardened Veteran",
      "description": "Play 50 hours online, in any multiplayer mode.",
      "howto": "Play 50 hours online, in any multiplayer mode."
    }
  ]
}