{
  "achievementsPossible": 10,
  "credPossible": 50,
  "achievements": [
    {
      "id": 1,
      "imageId": 194,
      "cred": 5,
      "flags": 2,
      "label": "New Signing",
      "description": "Good start! You reached level 1 (or observed another player doing so) to become a New Signing.",
      "howto": "Reach level 1 (or observe another player doing so) to gain the rank of New Signing."
    },
    {
      "id": 2,
      "imageId": 195,
      "cred": 5,
      "flags": 2,
      "label": "Bench Warmer",
      "description": "Yeah! You reached level 2 (or observed another player doing so), rising to Bench Warmer.",
      "howto": "Reach level 2 (or observe another player doing so) to gain the rank of Benchwarmer."
    },
    {
      "id": 3,
      "imageId": 196,
      "cred": 5,
      "flags": 2,
      "label": "Shot Stopper",
      "description": "Wicked! You reached level 3 (or observed another player doing so) to advance to Shot Stopper.",
      "howto": "Reach level 3 (or observe another player doing so) to gain the rank of Shot Stopper."
    },
    {
      "id": 4,
      "imageId": 197,
      "cred": 5,
      "flags": 2,
      "label": "Safe Hands",
      "description": "Cool! You reached level 4 (or observed another player doing so) to rank as Safe Hands.",
      "howto": "Reach level 4 (or observe another player doing so) to gain the rank of Safe Hands."
    },
    {
      "id": 5,
      "imageId": 198,
      "cred": 5,
      "flags": 2,
      "label": "Team Savior",
      "description": "Yes! You reached level 5 (or observed another player doing so) for a promotion to Team Savior.",
      "howto": "Reach level 5 (or observe another player doing so) to gain the rank of Team Savior."
    },
    {
      "id": 6,
      "imageId": 199,
      "cred": 5,
      "flags": 2,
      "label": "Ball Magnet",
      "description": "Never miss! You reached level 6 (or observed another player doing so) to climb to Ball Magnet.",
      "howto": "Reach level 6 (or observe another player doing so) to gain the rank of Ball Magnet."
    },
    {
      "id": 7,
      "imageId": 200,
      "cred": 5,
      "flags": 2,
      "label": "Spot Kick Nemesis",
      "description": "Super! You reached level 7 (or observed another player doing so) to rank as Spot Kick Nemesis.",
      "howto": "Reach level 7 (or observe another player doing so) to gain the rank of Spot Kick Nemesis."
    },
    {
      "id": 8,
      "imageId": 201,
      "cred": 5,
      "flags": 2,
      "label": "The Wall",
      "description": "Tough! You reached level 8 (or observed another player doing so) to qualify as Wall.",
      "howto": "Reach level 8 (or observe another player doing so) to gain the rank of The Wall."
    },
    {
      "id": 9,
      "imageId": 202,
      "cred": 5,
      "flags": 2,
      "label": "Championship Defender",
      "description": "Hey! You reached level 9 (or observed another player doing so) to move up to Championship Defender.",
      "howto": "Reach level 9 (or observe another player doing so) to gain the rank of Championship Defender."
    },
    {
      "id": 10,
      "imageId": 203,
      "cred": 5,
      "flags": 2,
      "label": "World Cup Winner",
      "description": "Wow! You reached level 10 (or observed another player doing so) to rule all as World Cup Winner.",
      "howto": "Reach level 10 (or observe another player doing so) to gain the rank of World Cup Winner."
    }
  ]
}