{
  "achievementsPossible": 50,
  "credPossible": 1000,
  "achievements": [
    {
      "id": 1,
      "imageId": 1,
      "cred": 50,
      "flags": 1,
      "label": "Secret Agent",
      "description": "Complete all levels on ‘Agent’ difficulty or higher.",
      "howto": "Complete all levels on 'Agent' difficulty or higher."
    },
    {
      "id": 2,
      "imageId": 2,
      "cred": 50,
      "flags": 1,
      "label": "007",
      "description": "Complete all levels on a 'Classic' difficulty.",
      "howto": "Complete all levels on a 'Classic' difficulty."
    },
    {
      "id": 3,
      "imageId": 3,
      "cred": 15,
      "flags": 1,
      "label": "Goldfinger",
      "description": "Complete the 'Goldfinger' mission.",
      "howto": "Complete the 'Goldfinger' mission."
    },
    {
      "id": 4,
      "imageId": 4,
      "cred": 15,
      "flags": 1,
      "label": "O.H.M.S.S.",
      "description": "Complete the 'O.H.M.S.S.' mission.",
      "howto": "Complete the 'O.H.M.S.S.' mission."
    },
    {
      "id": 5,
      "imageId": 5,
      "cred": 15,
      "flags": 1,
      "label": "Licence To Kill",
      "description": "Complete the 'Licence To Kill' mission.",
      "howto": "Complete the 'Licence To Kill' mission."
    },
    {
      "id": 6,
      "imageId": 6,
      "cred": 15,
      "flags": 1,
      "label": "Die Another Day",
      "description": "Complete the 'Die Another Day' mission.",
      "howto": "Complete the 'Die Another Day' mission."
    },
    {
      "id": 7,
      "imageId": 7,
      "cred": 15,
      "flags": 1,
      "label": "Moonraker",
      "description": "Complete the 'Moonraker' mission.",
      "howto": "Complete the 'Moonraker' mission."
    },
    {
      "id": 8,
      "imageId": 8,
      "cred": 10,
      "flags": 1,
      "label": "People Power",
      "description": "Campaign: Collect 30% of all character bio intel.",
      "howto": "Campaign: Collect 30% of all character bio intel."
    },
    {
      "id": 9,
      "imageId": 9,
      "cred": 10,
      "flags": 1,
      "label": "Making it Personal",
      "description": "Campaign: Collect 100% of all character bio intel.",
      "howto": "Campaign: Collect 100% of all character bio intel."
    },
    {
      "id": 10,
      "imageId": 10,
      "cred": 10,
      "flags": 1,
      "label": "Web of Intrigue",
      "description": "Campaign: Collect 30% of all organization intel.",
      "howto": "Campaign: Collect 30% of all organization intel."
    },
    {
      "id": 11,
      "imageId": 11,
      "cred": 10,
      "flags": 1,
      "label": "Clandestine",
      "description": "Campaign: Collect 100% of all organization intel.",
      "howto": "Campaign: Collect 100% of all organization intel."
    },
    {
      "id": 12,
      "imageId": 12,
      "cred": 10,
      "flags": 1,
      "label": "Happy Snapper",
      "description": "Campaign: Take a photograph of the crocodile.",
      "howto": "Campaign: Take a photograph of the crocodile."
    },
    {
      "id": 13,
      "imageId": 13,
      "cred": 10,
      "flags": 1,
      "label": "Scream if you want to go faster",
      "description": "Campaign: Give someone an exciting training experience.",
      "howto": "Campaign: Overload the gyroscopic training machine in the Space Port."
    },
    {
      "id": 14,
      "imageId": 14,
      "cred": 20,
      "flags": 1,
      "label": "Vodka martini, plenty of ice...",
      "description": "Get 100% collection rating for 'Die Another Day'.",
      "howto": "Get 100% collection rating for 'Die Another Day'."
    },
    {
      "id": 15,
      "imageId": 15,
      "cred": 20,
      "flags": 1,
      "label": "I expect you to die",
      "description": "Get 100% collection rating for 'Goldfinger'.",
      "howto": "Get 100% collection rating for 'Goldfinger'."
    },
    {
      "id": 16,
      "imageId": 16,
      "cred": 20,
      "flags": 1,
      "label": "Never happened to the other guy",
      "description": "Get 100% collection rating for 'O.H.M.S.S.'",
      "howto": "Get 100% collection rating for 'O.H.M.S.S.'"
    },
    {
      "id": 17,
      "imageId": 17,
      "cred": 20,
      "flags": 1,
      "label": "You prepare for the unexpected",
      "description": "Get 100% collection rating for 'Licence To Kill'.",
      "howto": "Get 100% collection rating for 'Licence To Kill'."
    },
    {
      "id": 18,
      "imageId": 18,
      "cred": 20,
      "flags": 1,
      "label": "Around the world one more time",
      "description": "Get 100% collection rating for 'Moonraker'.",
      "howto": "Get 100% collection rating for 'Moonraker'."
    },
    {
      "id": 19,
      "imageId": 19,
      "cred": 10,
      "flags": 1,
      "label": "Boys with Toys",
      "description": "Campaign: Buy all of the attachments for one weapon class.",
      "howto": "Campaign: Buy all of the attachments for one weapon class."
    },
    {
      "id": 20,
      "imageId": 20,
      "cred": 10,
      "flags": 1,
      "label": "Very novel Q",
      "description": "Campaign: Upgrade a gadget to its highest level.",
      "howto": "Campaign: Upgrade a gadget to its highest level."
    },
    {
      "id": 21,
      "imageId": 21,
      "cred": 30,
      "flags": 1,
      "label": "Standards of Physical Perfection",
      "description": "Campaign: Acquire all of the MI6 training modules.",
      "howto": "Campaign: Acquire all of the MI6 training modules."
    },
    {
      "id": 22,
      "imageId": 22,
      "cred": 5,
      "flags": 1,
      "label": "Everything or Nothing",
      "description": "Complete all of the trials on any one level.",
      "howto": "Complete all of the trials on any one level."
    },
    {
      "id": 23,
      "imageId": 23,
      "cred": 20,
      "flags": 1,
      "label": "Extended Operative",
      "description": "Complete eight of the 'Operative' level trials.",
      "howto": "Complete eight of the 'Operative' level trials."
    },
    {
      "id": 24,
      "imageId": 24,
      "cred": 25,
      "flags": 1,
      "label": "More Than an Agent",
      "description": "Complete six of the 'Agent' level trials.",
      "howto": "Complete six of the 'Agent' level trials."
    },
    {
      "id": 25,
      "imageId": 25,
      "cred": 30,
      "flags": 1,
      "label": "Above and Beyond a 00",
      "description": "Complete three of the '007' level trials.",
      "howto": "Complete three of the '007' level trials."
    },
    {
      "id": 26,
      "imageId": 26,
      "cred": 7,
      "flags": 1,
      "label": "Signature",
      "description": "Campaign: Reach level three weapon proficiency with the P99.",
      "howto": "Campaign: Reach level three weapon proficiency with the P99."
    },
    {
      "id": 27,
      "imageId": 27,
      "cred": 16,
      "flags": 1,
      "label": "With or Without Q",
      "description": "Reach Grave’s plane without using any in-car gadgets.",
      "howto": "Reach Grave’s plane without using any in-car gadgets."
    },
    {
      "id": 28,
      "imageId": 28,
      "cred": 0,
      "flags": 1,
      "label": "One small step for a man",
      "description": "Experience zero-g.",
      "howto": "Experience zero-g."
    },
    {
      "id": 29,
      "imageId": 29,
      "cred": 20,
      "flags": 1,
      "label": "Spend the money quickly Mr. Bond",
      "description": "Campaign: Be awarded a total of 10,000 XP.",
      "howto": "Campaign: Be awarded a total of 10,000 XP."
    },
    {
      "id": 30,
      "imageId": 30,
      "cred": 10,
      "flags": 1,
      "label": "Distracting",
      "description": "Distract an enemy.",
      "howto": "Distract an enemy."
    },
    {
      "id": 31,
      "imageId": 31,
      "cred": 12,
      "flags": 1,
      "label": "Positively shocking!",
      "description": "Take out two enemies with one shock dart.",
      "howto": "Take out two enemies with one shock dart."
    },
    {
      "id": 32,
      "imageId": 32,
      "cred": 20,
      "flags": 1,
      "label": "Master at Arms",
      "description": "Make an elimination with every weapon class.",
      "howto": "Make an elimination with every weapon class."
    },
    {
      "id": 33,
      "imageId": 33,
      "cred": 20,
      "flags": 1,
      "label": "Challenger",
      "description": "Earn a 1 star rating in each mission of the Challenges mode.",
      "howto": "Earn a 1 star rating in each mission of the Challenges mode."
    },
    {
      "id": 34,
      "imageId": 34,
      "cred": 10,
      "flags": 1,
      "label": "All That Glitters",
      "description": "Earn a 3 star rating in any mission of the Challenges mode.",
      "howto": "Earn a 3 star rating in any mission of the Challenges mode."
    },
    {
      "id": 35,
      "imageId": 35,
      "cred": 20,
      "flags": 1,
      "label": "Shooting Star",
      "description": "Get 30% of all available stars in the Challenges mode.",
      "howto": "Get 30% of all available stars in the Challenges mode."
    },
    {
      "id": 36,
      "imageId": 36,
      "cred": 40,
      "flags": 1,
      "label": "Star Struck",
      "description": "Get 60% of all available stars in the Challenges mode.",
      "howto": "Get 60% of all available stars in the Challenges mode."
    },
    {
      "id": 37,
      "imageId": 37,
      "cred": 60,
      "flags": 1,
      "label": "Fascination with all things gold",
      "description": "Get 100% of all available stars in the Challenges mode.",
      "howto": "Get 100% of all available stars in the Challenges mode."
    },
    {
      "id": 38,
      "imageId": 38,
      "cred": 5,
      "flags": 1,
      "label": "Unlocked and Loaded",
      "description": "Public Match: Reach level 6 (Midshipman).",
      "howto": "Public Match: Reach level 6 (Midshipman)."
    },
    {
      "id": 39,
      "imageId": 39,
      "cred": 30,
      "flags": 1,
      "label": "00 Agent",
      "description": "Public Match: Reach level 50 (00 Agent Grade 0).",
      "howto": "Public Match: Reach level 50 (00 Agent Grade 0)."
    },
    {
      "id": 40,
      "imageId": 40,
      "cred": 50,
      "flags": 1,
      "label": "A Farewell to Arms",
      "description": "Multiplayer: Enter 00 Specialization.",
      "howto": "Multiplayer: Enter 00 Specialization."
    },
    {
      "id": 41,
      "imageId": 41,
      "cred": 15,
      "flags": 1,
      "label": "Laser Eraser",
      "description": "Public Match: Win a match using only laser-based weapons.",
      "howto": "Public Match: Win a match using only laser-based weapons."
    },
    {
      "id": 42,
      "imageId": 42,
      "cred": 15,
      "flags": 1,
      "label": "Midas Touch",
      "description": "Public Match: Win a match on Main Vault, Smelting Room and Loading Bay.",
      "howto": "Public Match: Win a match on Main Vault, Smelting Room and Loading Bay."
    },
    {
      "id": 43,
      "imageId": 43,
      "cred": 10,
      "flags": 1,
      "label": "Danger! High Voltage",
      "description": "Public Match: Get 25 electrocution kills as Zao or Gustav Graves.",
      "howto": "Public Match: Get 25 electrocution kills as Zao or Gustav Graves."
    },
    {
      "id": 44,
      "imageId": 44,
      "cred": 25,
      "flags": 1,
      "label": "Counter-Sniper",
      "description": "Public Match: Kill 50 players while they are aiming down the scope of a sniper rifle.",
      "howto": "Public Match: Kill 50 players while they are aiming down the scope of a sniper rifle."
    },
    {
      "id": 45,
      "imageId": 45,
      "cred": 35,
      "flags": 1,
      "label": "Return to Sender",
      "description": "Public Match: In Bomb Defuse disarm the bomb and plant it at enemy base without getting killed.",
      "howto": "Public Match: In Bomb Defuse disarm the bomb and plant it at enemy base without getting killed."
    },
    {
      "id": 46,
      "imageId": 46,
      "cred": 10,
      "flags": 1,
      "label": "Shaken, but not Stirred",
      "description": "Public Match: Survive 50 explosions while using Reactive Armor.",
      "howto": "Public Match: Survive 50 explosions while using Reactive Armor."
    },
    {
      "id": 47,
      "imageId": 47,
      "cred": 20,
      "flags": 1,
      "label": "Disarmed and Dangerous",
      "description": "Public Match: In Escalation demote an enemy who is armed with the RPG.",
      "howto": "Public Match: In Escalation demote an enemy who is armed with the RPG."
    },
    {
      "id": 48,
      "imageId": 48,
      "cred": 30,
      "flags": 1,
      "label": "Hold the Line",
      "description": "Public Match: Win a Data Miner match without being killed.",
      "howto": "Public Match: Win a Data Miner match without being killed."
    },
    {
      "id": 49,
      "imageId": 49,
      "cred": 40,
      "flags": 1,
      "label": "All the Time in the World",
      "description": "Public Match: Play for more than 24 hours.",
      "howto": "Public Match: Play for more than 24 hours."
    },
    {
      "id": 50,
      "imageId": 50,
      "cred": 15,
      "flags": 1,
      "label": "Omega Virus",
      "description": "Public Match: Kill an enemy who has completed the campaign or who already has this Achievement.",
      "howto": "Public Match: Kill an enemy who has completed the campaign or who already has this Achievement."
    }
  ]
}