{
  "achievementsPossible": 25,
  "credPossible": 1000,
  "achievements": [
    {
      "id": 9,
      "imageId": 2,
      "cred": 15,
      "flags": 1,
      "label": "Amateur Drafter",
      "description": "Complete an entire Amateur Draft.",
      "howto": "Complete an entire Amateur Draft."
    },
    {
      "id": 10,
      "imageId": 26,
      "cred": 15,
      "flags": 1,
      "label": "Rule 5 Drafter",
      "description": "Draft a player in the Rule 5 Draft.",
      "howto": "Draft a player in the Rule 5 Draft."
    },
    {
      "id": 12,
      "imageId": 9,
      "cred": 30,
      "flags": 1,
      "label": "Field Manager",
      "description": "Manage a game from beginning to end.",
      "howto": "Manage a game from beginning to end."
    },
    {
      "id": 13,
      "imageId": 18,
      "cred": 30,
      "flags": 1,
      "label": "Minor Manager",
      "description": "Manage a minor league game from beginning to end.",
      "howto": "Manage a minor league game from beginning to end."
    },
    {
      "id": 15,
      "imageId": 29,
      "cred": 125,
      "flags": 1,
      "label": "World Series Victor",
      "description": "Have your team win the World Series in Career mode.",
      "howto": "Have your team win the World Series in Career mode."
    },
    {
      "id": 17,
      "imageId": 17,
      "cred": 50,
      "flags": 1,
      "label": "Max a Stat",
      "description": "Max out one of your manager's stat categories in Career mode.",
      "howto": "Max out one of your manager's stat categories in Career mode."
    },
    {
      "id": 19,
      "imageId": 15,
      "cred": 10,
      "flags": 1,
      "label": "Make a Deal",
      "description": "Successfully propose and close a trade offer in Career mode.",
      "howto": "Successfully propose and close a trade offer in Career mode."
    },
    {
      "id": 20,
      "imageId": 28,
      "cred": 50,
      "flags": 1,
      "label": "The Art of the Deal",
      "description": "Successfully make a total of 100 trades in Career mode.",
      "howto": "Successfully make a total of 100 trades in Career mode."
    },
    {
      "id": 22,
      "imageId": 27,
      "cred": 10,
      "flags": 1,
      "label": "Sign a Free Agent",
      "description": "Successfully sign a free agent to your team in Career mode.",
      "howto": "Successfully sign a free agent to your team in Career mode."
    },
    {
      "id": 23,
      "imageId": 10,
      "cred": 50,
      "flags": 1,
      "label": "Free Agent Fan",
      "description": "Successfully sign 50 free agents to your team in Career mode.",
      "howto": "Successfully sign 50 free agents to your team in Career mode."
    },
    {
      "id": 24,
      "imageId": 5,
      "cred": 30,
      "flags": 1,
      "label": "Bidding War",
      "description": "Bid on and sign a player from Japan in Career mode.",
      "howto": "Bid on and sign a player from Japan in Career mode."
    },
    {
      "id": 25,
      "imageId": 4,
      "cred": 35,
      "flags": 1,
      "label": "Bidding Veteran",
      "description": "Bid on and sign 20 players from Japan in Career mode.",
      "howto": "Bid on and sign 20 players from Japan in Career mode."
    },
    {
      "id": 30,
      "imageId": 8,
      "cred": 15,
      "flags": 1,
      "label": "Fantasy Drafter",
      "description": "Complete an entire Fantasy Draft.",
      "howto": "Complete an entire Fantasy Draft."
    },
    {
      "id": 32,
      "imageId": 6,
      "cred": 35,
      "flags": 1,
      "label": "Break the Curse",
      "description": "Win the World Series with the Chicago Cubs in Career Mode.",
      "howto": "Win the World Series with the Chicago Cubs in Career Mode."
    },
    {
      "id": 33,
      "imageId": 23,
      "cred": 25,
      "flags": 1,
      "label": "Rockies' First Title",
      "description": "Win the Rockies their first World Series in Career Mode.",
      "howto": "Win the Rockies their first World Series in Career Mode."
    },
    {
      "id": 34,
      "imageId": 3,
      "cred": 25,
      "flags": 1,
      "label": "Astros' First Title",
      "description": "Win the Astros their first World Series in Career Mode.",
      "howto": "Win the Astros their first World Series in Career Mode."
    },
    {
      "id": 35,
      "imageId": 7,
      "cred": 25,
      "flags": 1,
      "label": "Brewers' First Title",
      "description": "Win the Brewers their first World Series in Career Mode.",
      "howto": "Win the Brewers their first World Series in Career Mode."
    },
    {
      "id": 36,
      "imageId": 20,
      "cred": 25,
      "flags": 1,
      "label": "Padres' First Title",
      "description": "Win the Padres their first World Series in Career Mode.",
      "howto": "Win the Padres their first World Series in Career Mode."
    },
    {
      "id": 37,
      "imageId": 11,
      "cred": 25,
      "flags": 1,
      "label": "Giants' First Title",
      "description": "Win the Giants their first World Series in Career Mode.",
      "howto": "Win the Giants their first World Series in Career Mode."
    },
    {
      "id": 38,
      "imageId": 16,
      "cred": 25,
      "flags": 1,
      "label": "Mariners' First Title",
      "description": "Win the Mariners their first World Series in Career Mode.",
      "howto": "Win the Mariners their first World Series in Career Mode."
    },
    {
      "id": 39,
      "imageId": 22,
      "cred": 25,
      "flags": 1,
      "label": "Rays' First Title",
      "description": "Win the Rays their first World Series in Career Mode.",
      "howto": "Win the Rays their first World Series in Career Mode."
    },
    {
      "id": 40,
      "imageId": 21,
      "cred": 25,
      "flags": 1,
      "label": "Rangers' First Title",
      "description": "Win the Rangers their first World Series in Career Mode.",
      "howto": "Win the Rangers their first World Series in Career Mode."
    },
    {
      "id": 41,
      "imageId": 19,
      "cred": 25,
      "flags": 1,
      "label": "Nationals' First Title",
      "description": "Win the Nationals their first World Series in Career Mode.",
      "howto": "Win the Nationals their first World Series in Career Mode."
    },
    {
      "id": 42,
      "imageId": 30,
      "cred": 125,
      "flags": 1,
      "label": "Master GM",
      "description": "Reach level 30 in Career mode.",
      "howto": "Reach level 30 in Career mode."
    },
    {
      "id": 43,
      "imageId": 1,
      "cred": 150,
      "flags": 1,
      "label": "Historic Career",
      "description": "Successfully complete a 30 year career, becoming an all-time great GM!",
      "howto": "Successfully complete a 30 year career, becoming an all-time great GM!"
    }
  ]
}