{
  "achievementsPossible": 33,
  "credPossible": 1000,
  "achievements": [
    {
      "id": 45,
      "imageId": 120,
      "cred": 50,
      "flags": 1,
      "label": "Achiever",
      "description": "Had 100% completion in all regions",
      "howto": "Have 100% completion in all regions"
    },
    {
      "id": 46,
      "imageId": 121,
      "cred": 50,
      "flags": 1,
      "label": "Gunsmith",
      "description": "Unlocked all upgrades for all firearms",
      "howto": "Unlock all upgrades for all firearms"
    },
    {
      "id": 47,
      "imageId": 122,
      "cred": 50,
      "flags": 1,
      "label": "Dangerous 7",
      "description": "Hunted the Dangerous 7 (Leopard, Lion, Rhino, Elephant, Buffalo, Crocodile, Hippo) in Story Mode",
      "howto": "Hunt the Dangerous 7 (Leopard, Lion, Rhino, Elephant, Buffalo, Crocodile, Hippo) in Story Mode"
    },
    {
      "id": 49,
      "imageId": 123,
      "cred": 50,
      "flags": 1,
      "label": "No Scratch",
      "description": "Completed one region without dying",
      "howto": "Complete one region without dying"
    },
    {
      "id": 50,
      "imageId": 124,
      "cred": 50,
      "flags": 1,
      "label": "King's Statue",
      "description": "Gathered all the pieces of the statue",
      "howto": "Gather all the pieces of the statue"
    },
    {
      "id": 51,
      "imageId": 125,
      "cred": 50,
      "flags": 1,
      "label": "Controlled Fire",
      "description": "Finished a Shooting Gallery Map without downing animals with the wrong firearm",
      "howto": "Finish a Shooting Gallery Map without downing animals with the wrong firearm"
    },
    {
      "id": 52,
      "imageId": 126,
      "cred": 50,
      "flags": 1,
      "label": "In Mid Air",
      "description": "Took down 15 predators as they jumped on you in Story Mode",
      "howto": "Take down 15 predators as they jump on you in Story Mode"
    },
    {
      "id": 53,
      "imageId": 127,
      "cred": 50,
      "flags": 1,
      "label": "Random Encounters",
      "description": "Took down 20 Hyena groups during the game in Story Mode",
      "howto": "Take down 20 Hyena groups during the game in Story Mode"
    },
    {
      "id": 54,
      "imageId": 128,
      "cred": 50,
      "flags": 1,
      "label": "No More Darkness",
      "description": "Explored one region to remove all the fog covering the map",
      "howto": "Explore one region to remove all the fog covering the map"
    },
    {
      "id": 55,
      "imageId": 129,
      "cred": 50,
      "flags": 1,
      "label": "Arsenal",
      "description": "Unlocked all rifles and shotguns",
      "howto": "Unlock all rifles and shotguns"
    },
    {
      "id": 56,
      "imageId": 130,
      "cred": 30,
      "flags": 1,
      "label": "Justice Keeper",
      "description": "Took down 5 Hyenas that were chasing herbivores in Story Mode",
      "howto": "Take down 5 Hyenas that are chasing herbivores in Story Mode"
    },
    {
      "id": 57,
      "imageId": 131,
      "cred": 30,
      "flags": 1,
      "label": "Efficiency to the Max",
      "description": "Took down all the animals between 2 gates in a Shooting Gallery Map",
      "howto": "Take down all the animals between 2 gates in a Shooting Gallery Map"
    },
    {
      "id": 58,
      "imageId": 132,
      "cred": 30,
      "flags": 1,
      "label": "Not a Single Leaf Moved",
      "description": "Completed at least 6 hunts without being detected",
      "howto": "Complete at least 6 hunts without being detected"
    },
    {
      "id": 59,
      "imageId": 133,
      "cred": 30,
      "flags": 1,
      "label": "Leg Grabber",
      "description": "Took down 5 animals after they've grabbed your leg",
      "howto": "Take down 5 animals after they've grabbed your leg"
    },
    {
      "id": 60,
      "imageId": 134,
      "cred": 30,
      "flags": 1,
      "label": "The Wrong Order",
      "description": "Took down 10 animals called by the same animal in Story Mode",
      "howto": "Take down 10 animals called by the same animal in Story Mode"
    },
    {
      "id": 61,
      "imageId": 135,
      "cred": 30,
      "flags": 1,
      "label": "Real Mix",
      "description": "Took down 4 animals from different species in a row in a Shooting Gallery Map",
      "howto": "Take down 4 animals from different species in a row in a Shooting Gallery Map"
    },
    {
      "id": 62,
      "imageId": 136,
      "cred": 30,
      "flags": 1,
      "label": "Something to See",
      "description": "Visited all the Vista Points in one region",
      "howto": "Visit all the Vista Points in one region"
    },
    {
      "id": 63,
      "imageId": 137,
      "cred": 30,
      "flags": 1,
      "label": "Africa's Big Boys",
      "description": "Hunted the Big 5 (Leopard, Lion, Rhino, Elephant, Buffalo) in Story Mode",
      "howto": "Hunt the Big 5 (Leopard, Lion, Rhino, Elephant, Buffalo) in Story Mode"
    },
    {
      "id": 64,
      "imageId": 138,
      "cred": 30,
      "flags": 1,
      "label": "Fast Hands",
      "description": "While shooting from the hip, took down 20 animals",
      "howto": "While shooting from the hip, take down 20 animals"
    },
    {
      "id": 65,
      "imageId": 139,
      "cred": 30,
      "flags": 1,
      "label": "Feline Grace",
      "description": "Completed at least 3 hunts without being detected",
      "howto": "Complete at least 3 hunts without being detected"
    },
    {
      "id": 66,
      "imageId": 140,
      "cred": 30,
      "flags": 1,
      "label": "Full Options",
      "description": "Unlocked all the abilities",
      "howto": "Unlock all the abilities"
    },
    {
      "id": 67,
      "imageId": 141,
      "cred": 30,
      "flags": 1,
      "label": "Lucky Guess",
      "description": "Gathered at least 20 Fossils",
      "howto": "Gather at least 20 Fossils"
    },
    {
      "id": 68,
      "imageId": 142,
      "cred": 30,
      "flags": 1,
      "label": "The Perfect Match",
      "description": "Created 4 unique ability combinations and used them in hunts and/or combat",
      "howto": "Create 4 unique ability combinations and use them in hunts and/or combat"
    },
    {
      "id": 69,
      "imageId": 143,
      "cred": 30,
      "flags": 1,
      "label": "No One Leaves the Room",
      "description": "Took down 10 scared Hyenas in Story Mode",
      "howto": "Take down 10 scared Hyenas in Story Mode"
    },
    {
      "id": 70,
      "imageId": 144,
      "cred": 10,
      "flags": 1,
      "label": "Dancing in the Ring",
      "description": "Dodged at least one Lion, Leopard, and Cheetah during Story Mode",
      "howto": "Dodge at least one Lion, Leopard, and Cheetah during Story Mode"
    },
    {
      "id": 71,
      "imageId": 145,
      "cred": 10,
      "flags": 1,
      "label": "Dodge This!",
      "description": "Dodged an Elephant, Hippo, Rhino, and Buffalo at least once during Story Mode",
      "howto": "Dodge an Elephant, Hippo, Rhino, and Buffalo at least once during Story Mode"
    },
    {
      "id": 72,
      "imageId": 146,
      "cred": 10,
      "flags": 1,
      "label": "My Style",
      "description": "Created your first deck of 3 abilities",
      "howto": "Create your first deck of 3 abilities"
    },
    {
      "id": 73,
      "imageId": 147,
      "cred": 10,
      "flags": 1,
      "label": "Back-up Firearm",
      "description": "Completed a hunt against a dangerous animal species using only a shotgun",
      "howto": "Complete a hunt against a dangerous animal species using only a shotgun"
    },
    {
      "id": 74,
      "imageId": 148,
      "cred": 10,
      "flags": 1,
      "label": "Time is Standing Still",
      "description": "Took down 5 animals while in Adrenaline Mode in Story Mode",
      "howto": "Take down 5 animals while in Adrenaline Mode in Story Mode"
    },
    {
      "id": 75,
      "imageId": 149,
      "cred": 10,
      "flags": 1,
      "label": "One is Enough",
      "description": "Took down 5 Hyenas in combat using a single shot for each one in Story Mode",
      "howto": "Take down 5 Hyenas in combat using a single shot for each one in Story Mode"
    },
    {
      "id": 76,
      "imageId": 150,
      "cred": 10,
      "flags": 1,
      "label": "Show Off",
      "description": "Made all the animals in a stealth hunt cautious",
      "howto": "Make all the animals in a stealth hunt cautious"
    },
    {
      "id": 77,
      "imageId": 151,
      "cred": 5,
      "flags": 1,
      "label": "Fast Approach",
      "description": "Rolled 5 times without being detected in a stealth hunt",
      "howto": "Roll 5 times without being detected in a stealth hunt"
    },
    {
      "id": 78,
      "imageId": 152,
      "cred": 5,
      "flags": 1,
      "label": "African Hunter",
      "description": "Took down one animal in Story Mode",
      "howto": "Take down one animal in Story Mode"
    }
  ]
}