{
  "achievementsPossible": 12,
  "credPossible": 200,
  "achievements": [
    {
      "id": 18,
      "imageId": 39,
      "cred": 30,
      "flags": 1,
      "label": "Shoot Many Robots",
      "description": "Killed 10000 robots!",
      "howto": "Kill 10000 robots!"
    },
    {
      "id": 19,
      "imageId": 52,
      "cred": 10,
      "flags": 1,
      "label": "Shoot Some Robots",
      "description": "Killed 100 robots!",
      "howto": "Kill 100 robots!"
    },
    {
      "id": 20,
      "imageId": 42,
      "cred": 20,
      "flags": 1,
      "label": "Happy 50th, Walter",
      "description": "Reached level 50!",
      "howto": "Reach level 50!"
    },
    {
      "id": 21,
      "imageId": 53,
      "cred": 15,
      "flags": 1,
      "label": "Greetings, Earth Citizens ",
      "description": "Beat a mission as an astronaut!",
      "howto": "Beat a mission wearing the astronaut helmet and backpack!"
    },
    {
      "id": 22,
      "imageId": 43,
      "cred": 20,
      "flags": 1,
      "label": "Lookie, Many Stars",
      "description": "Got 75 stars!",
      "howto": "Get 75 stars!"
    },
    {
      "id": 23,
      "imageId": 41,
      "cred": 15,
      "flags": 1,
      "label": "Dominate at Fatherhood",
      "description": "Beat a mission wearing the baby carrier!",
      "howto": "Beat a mission wearing the baby carrier!"
    },
    {
      "id": 24,
      "imageId": 49,
      "cred": 15,
      "flags": 1,
      "label": "Slotally Tober Saughter",
      "description": "Beat a tough mission without the aid of beer or resurrection!",
      "howto": "Complete a mission on hard or insane without dying or drinking a beer!"
    },
    {
      "id": 25,
      "imageId": 48,
      "cred": 15,
      "flags": 1,
      "label": "Punch Many Bullets",
      "description": "Punched two bullets, killed two robots with one punch! ",
      "howto": "Punch two bullets, killing two robots, with one melee swing!"
    },
    {
      "id": 26,
      "imageId": 40,
      "cred": 20,
      "flags": 1,
      "label": "Lower Carbon Footprints",
      "description": "Destroyed a robot overlord in multiplayer! ",
      "howto": "Destroy a robot overlord in multiplayer! "
    },
    {
      "id": 27,
      "imageId": 50,
      "cred": 15,
      "flags": 1,
      "label": "Get Over It",
      "description": "Revived other players 8 times!",
      "howto": "Revive other players 8 times!"
    },
    {
      "id": 28,
      "imageId": 44,
      "cred": 10,
      "flags": 1,
      "label": "Make Many Friends",
      "description": "People like you!",
      "howto": "Have someone you invite join you in an online game!"
    },
    {
      "id": 29,
      "imageId": 46,
      "cred": 15,
      "flags": 1,
      "label": "Number One Tugnut",
      "description": "Got first place in a four player mission!",
      "howto": "Come in 1st in a four player mission!"
    }
  ]
}