{
  "achievementsPossible": 36,
  "credPossible": 1000,
  "achievements": [
    {
      "id": 147,
      "imageId": 42,
      "cred": 50,
      "flags": 1,
      "label": "Put Da Team On My Back",
      "description": "Catch a 99 yard TD pass with Greg Jennings (No OTP or co-op)",
      "howto": "Catch a 99 yard TD pass with Greg Jennings (No OTP or co-op)"
    },
    {
      "id": 148,
      "imageId": 30,
      "cred": 25,
      "flags": 1,
      "label": "Mario Manningham Award",
      "description": "Catch a 92+ yard TD pass (No OTP or co-op)",
      "howto": "Catch a 92+ yard TD pass (No OTP or co-op)"
    },
    {
      "id": 151,
      "imageId": 9,
      "cred": 25,
      "flags": 1,
      "label": "Adrian Peterson Award",
      "description": "Score on an 80+ yard TD run (No OTP or co-op)",
      "howto": "Score on an 80+ yard TD run (No OTP or co-op)"
    },
    {
      "id": 152,
      "imageId": 40,
      "cred": 30,
      "flags": 1,
      "label": "Oakland Raiders Award",
      "description": "Win by 45 points or more (No OTP or co-op)",
      "howto": "Win by 45 points or more (No OTP or co-op)"
    },
    {
      "id": 154,
      "imageId": 14,
      "cred": 30,
      "flags": 1,
      "label": "Bryan McCann Award",
      "description": "Return an interception 100+ yards (No OTP or co-op)",
      "howto": "Return an interception 100+ yards (No OTP or co-op)"
    },
    {
      "id": 155,
      "imageId": 28,
      "cred": 50,
      "flags": 1,
      "label": "Leon Washington Award",
      "description": "Return 2+ kicks for touchdowns in one game with one player (No OTP or co-op)",
      "howto": "Return 2+ kicks for touchdowns in one game with one player (No OTP or co-op)"
    },
    {
      "id": 157,
      "imageId": 38,
      "cred": 30,
      "flags": 1,
      "label": "New York Giants Award",
      "description": "Record 10+ sacks as a team in one game (No OTP or co-op)",
      "howto": "Record 10+ sacks as a team in one game (No OTP or co-op)"
    },
    {
      "id": 158,
      "imageId": 16,
      "cred": 50,
      "flags": 1,
      "label": "Dan Carpenter Award",
      "description": "Kick a 60+ yard FG (No OTP or co-op)",
      "howto": "Kick a 60+ yard FG (No OTP or co-op)"
    },
    {
      "id": 160,
      "imageId": 44,
      "cred": 25,
      "flags": 1,
      "label": "Rob Gronkowski Award",
      "description": "Catch 3+ TD passes with a TE in a game (No OTP or co-op)",
      "howto": "Catch 3+ TD passes with a TE in a game (No OTP or co-op)"
    },
    {
      "id": 162,
      "imageId": 13,
      "cred": 25,
      "flags": 1,
      "label": "Arian Foster Award",
      "description": "Rush for 231+ yards in a game with one player (No OTP or co-op)",
      "howto": "Rush for 231+ yards in a game with one player (No OTP or co-op)"
    },
    {
      "id": 164,
      "imageId": 15,
      "cred": 25,
      "flags": 1,
      "label": "Darren McFadden Award",
      "description": "Score 4+ rushing TDs in a single game (No OTP or co-op)",
      "howto": "Score 4+ rushing TDs in a single game (No OTP or co-op)"
    },
    {
      "id": 166,
      "imageId": 26,
      "cred": 25,
      "flags": 1,
      "label": "Kenny Britt Award",
      "description": "Gain 225+ yards receiving with one player (No OTP or co-op)",
      "howto": "Gain 225+ yards receiving with one player (No OTP or co-op)"
    },
    {
      "id": 169,
      "imageId": 51,
      "cred": 30,
      "flags": 1,
      "label": "Tim Tebow Award",
      "description": "Score a 40+ yard TD run with a QB (No OTP or co-op)",
      "howto": "Score a 40+ yard TD run with a QB (No OTP or co-op)"
    },
    {
      "id": 172,
      "imageId": 33,
      "cred": 30,
      "flags": 1,
      "label": "Michael Vick Award",
      "description": "Rush for 130+ yards with your QB (No OTP or co-op)",
      "howto": "Rush for 130+ yards with your QB (No OTP or co-op)"
    },
    {
      "id": 173,
      "imageId": 43,
      "cred": 25,
      "flags": 1,
      "label": "Reggie Wayne Award",
      "description": "Catch 14+ passes in one game with one player (No OTP or co-op)",
      "howto": "Catch 14+ passes in one game with one player (No OTP or co-op)"
    },
    {
      "id": 174,
      "imageId": 45,
      "cred": 30,
      "flags": 1,
      "label": "San Diego Chargers Award",
      "description": "Hold your opponent to under 67 yds of total offense (minimum 5 min. qtr., no OTP or co-op)",
      "howto": "Hold your opponent to under 67 yds of total offense (minimum 5 min. qtr., no OTP or co-op)"
    },
    {
      "id": 176,
      "imageId": 46,
      "cred": 25,
      "flags": 1,
      "label": "Santonio Holmes Award",
      "description": "Catch a game winning TD pass in OT (No OTP or co-op)",
      "howto": "Catch a game winning TD pass in OT (No OTP or co-op)"
    },
    {
      "id": 177,
      "imageId": 32,
      "cred": 25,
      "flags": 1,
      "label": "Matt Schaub Award",
      "description": "Pass for 497+ yards in one game with one player (No OTP or co-op)",
      "howto": "Pass for 497+ yards in one game with one player (No OTP or co-op)"
    },
    {
      "id": 178,
      "imageId": 20,
      "cred": 25,
      "flags": 1,
      "label": "DeSean Jackson Award",
      "description": "Return a punt for a TD (No OTP or co-op)",
      "howto": "Return a punt for a TD (No OTP or co-op)"
    },
    {
      "id": 180,
      "imageId": 18,
      "cred": 50,
      "flags": 1,
      "label": "DeAngelo Hall Award",
      "description": "Intercept 4+ passes in one game (No OTP or co-op)",
      "howto": "Intercept 4+ passes in one game (No OTP or co-op)"
    },
    {
      "id": 181,
      "imageId": 21,
      "cred": 20,
      "flags": 1,
      "label": "Happy 20th EA SPORTS!",
      "description": "Score 20 points in a game and celebrate 20 years of EA Sports! (No OTP or co-op)",
      "howto": "Score 20 points in a game and celebrate 20 years of EA Sports! (No OTP or co-op)"
    },
    {
      "id": 182,
      "imageId": 41,
      "cred": 25,
      "flags": 1,
      "label": "Peyton Hillis Award",
      "description": "Rush for 184+ yards in one game with Peyton Hillis (No OTP or co-op)",
      "howto": "Rush for 184+ yards in one game with Peyton Hillis (No OTP or co-op)"
    },
    {
      "id": 183,
      "imageId": 17,
      "cred": 50,
      "flags": 1,
      "label": "David Bowens Award",
      "description": "Have 2 pick 6's in the same game (No OTP or co-op)",
      "howto": "Have 2 pick 6's in the same game (No OTP or co-op)"
    },
    {
      "id": 184,
      "imageId": 52,
      "cred": 25,
      "flags": 1,
      "label": "Tom Brady Award",
      "description": "Have a passer rating of 149+ in a game (No OTP or co-op)",
      "howto": "Have a passer rating of 149+ in a game (No OTP or co-op)"
    },
    {
      "id": 185,
      "imageId": 24,
      "cred": 25,
      "flags": 1,
      "label": "Jahvid Best Award",
      "description": "Gain 154+ yards receiving with Jahvid Best (No OTP or co-op)",
      "howto": "Gain 154+ yards receiving with Jahvid Best (No OTP or co-op)"
    },
    {
      "id": 186,
      "imageId": 39,
      "cred": 25,
      "flags": 1,
      "label": "New York Jets Award",
      "description": "Gain over 100+ yards rushing with 2 RBs in the same game (No OTP or co-op)",
      "howto": "Gain over 100+ yards rushing with 2 RBs in the same game (No OTP or co-op)"
    },
    {
      "id": 188,
      "imageId": 22,
      "cred": 10,
      "flags": 1,
      "label": "Hey, Can I Talk to You?",
      "description": "User complete one season's final cut day in Franchise Mode",
      "howto": "User complete one season's final cut day in Franchise Mode"
    },
    {
      "id": 189,
      "imageId": 55,
      "cred": 10,
      "flags": 1,
      "label": "Winning",
      "description": "Win a FA bidding in Franchise Mode",
      "howto": "Win a FA bidding in Franchise Mode"
    },
    {
      "id": 191,
      "imageId": 48,
      "cred": 5,
      "flags": 1,
      "label": "The Next Big Thing",
      "description": "Create an NFL Superstar",
      "howto": "Create an NFL Superstar"
    },
    {
      "id": 192,
      "imageId": 47,
      "cred": 10,
      "flags": 1,
      "label": "We're Talking About Practice",
      "description": "Complete a practice in Superstar mode",
      "howto": "Complete a practice in Superstar mode"
    },
    {
      "id": 193,
      "imageId": 49,
      "cred": 5,
      "flags": 1,
      "label": "This One is Easy",
      "description": "Create a MUT team",
      "howto": "Create a MUT team"
    },
    {
      "id": 194,
      "imageId": 50,
      "cred": 50,
      "flags": 1,
      "label": "This One is Hard",
      "description": "Build an 80 rated MUT team",
      "howto": "Build an 80 rated MUT team"
    },
    {
      "id": 195,
      "imageId": 54,
      "cred": 10,
      "flags": 1,
      "label": "Wheel and Deal",
      "description": "Make a MUT Trade",
      "howto": "Make a MUT Trade"
    },
    {
      "id": 196,
      "imageId": 53,
      "cred": 20,
      "flags": 1,
      "label": "Ultimate Veteran",
      "description": "Complete 10 MUT Games",
      "howto": "Complete 10 MUT Games"
    },
    {
      "id": 197,
      "imageId": 34,
      "cred": 40,
      "flags": 1,
      "label": "MUT Maniac",
      "description": "Complete 20 MUT Games",
      "howto": "Complete 20 MUT Games"
    },
    {
      "id": 198,
      "imageId": 56,
      "cred": 40,
      "flags": 1,
      "label": "Verizon Scoreboard Overload",
      "description": "Score 50 points in one game (No OTP or co-op)",
      "howto": "Score 50 points in one game (No OTP or co-op)"
    }
  ]
}