{
  "achievementsPossible": 12,
  "credPossible": 200,
  "achievements": [
    {
      "id": 1,
      "imageId": 1,
      "cred": 5,
      "flags": 2,
      "label": "Deflector",
      "description": "Deflect 7 discs or chasers.",
      "howto": "Deflect 7 discs or chasers."
    },
    {
      "id": 2,
      "imageId": 2,
      "cred": 5,
      "flags": 2,
      "label": "High Score",
      "description": "Get first place on in-game score board using default settings.",
      "howto": "Get first place on in-game score board using default settings."
    },
    {
      "id": 3,
      "imageId": 3,
      "cred": 10,
      "flags": 2,
      "label": "Fearless",
      "description": "Derezz Sark 4 times without using your deflector.",
      "howto": "Derezz Sark 4 times without using your deflector."
    },
    {
      "id": 4,
      "imageId": 4,
      "cred": 10,
      "flags": 2,
      "label": "Rock Steady",
      "description": "Derezz Sark once without moving.",
      "howto": "Derezz Sark once without moving."
    },
    {
      "id": 5,
      "imageId": 5,
      "cred": 10,
      "flags": 4,
      "label": "One Shot",
      "description": "Derezz Sark 3 times by only throwing one disc at a time.",
      "howto": "Derezz Sark 3 times by only throwing one disc at a time."
    },
    {
      "id": 6,
      "imageId": 6,
      "cred": 10,
      "flags": 4,
      "label": "Sharp Shooter",
      "description": "Destroy 5 enemy discs in the air in a row.",
      "howto": "Destroy 5 enemy discs in the air in a row."
    },
    {
      "id": 7,
      "imageId": 7,
      "cred": 10,
      "flags": 4,
      "label": "On the Run",
      "description": "Stay alive for one minute without getting hit or throwing a disc.",
      "howto": "Stay alive for one minute without getting hit or throwing a disc."
    },
    {
      "id": 8,
      "imageId": 8,
      "cred": 15,
      "flags": 4,
      "label": "Chaser Shooter",
      "description": "Destroy 5 Chasers or Super Chasers.",
      "howto": "Destroy 5 Chasers or Super Chasers."
    },
    {
      "id": 9,
      "imageId": 9,
      "cred": 20,
      "flags": 7,
      "label": "Speed Master",
      "description": "Win 5 Speed Versus games over Xbox Live.",
      "howto": "Win 5 Speed Versus games over Xbox Live."
    },
    {
      "id": 10,
      "imageId": 10,
      "cred": 25,
      "flags": 7,
      "label": "Teamwork!",
      "description": "Achieve a score of 50,000 or more playing an Xbox Live Co-op game.",
      "howto": "Achieve a score of 50,000 or more playing an Xbox Live Co-op game."
    },
    {
      "id": 11,
      "imageId": 11,
      "cred": 35,
      "flags": 6,
      "label": "50k",
      "description": "Rack up 50,000 points using default settings.",
      "howto": "Rack up 50,000 points using default settings."
    },
    {
      "id": 12,
      "imageId": 12,
      "cred": 45,
      "flags": 7,
      "label": "Immortal",
      "description": "Rack up 60,000 points without dying.",
      "howto": "Rack up 60,000 points without dying."
    }
  ]
}