{
  "achievementsPossible": 50,
  "credPossible": 1000,
  "achievements": [
    {
      "id": 1,
      "imageId": 10,
      "cred": 10,
      "flags": 3,
      "label": "Fore!",
      "description": "Hit a line judge",
      "howto": "Hit a line judge"
    },
    {
      "id": 2,
      "imageId": 10,
      "cred": 10,
      "flags": 5,
      "label": "To be this good takes AGES",
      "description": "Score an Ace with an Underhand Serve",
      "howto": "Score an Ace with an Underhand Serve"
    },
    {
      "id": 3,
      "imageId": 10,
      "cred": 10,
      "flags": 5,
      "label": "One Small Step...",
      "description": "Win your first match in the World Tour",
      "howto": "Win your first match in the World Tour"
    },
    {
      "id": 4,
      "imageId": 10,
      "cred": 15,
      "flags": 5,
      "label": "...One Giant Leap!",
      "description": "Win your first tournament in the World Tour",
      "howto": "Win your first tournament in the World Tour"
    },
    {
      "id": 5,
      "imageId": 10,
      "cred": 15,
      "flags": 2,
      "label": "Make Friends & Influence People",
      "description": "Make friends with 8 characters in World Tour",
      "howto": "Make friends with 8 characters in World Tour"
    },
    {
      "id": 13,
      "imageId": 10,
      "cred": 15,
      "flags": 2,
      "label": "Quick and Easy",
      "description": "Play and complete 25 events in Play mode",
      "howto": "Play and complete 25 events in Play mode"
    },
    {
      "id": 14,
      "imageId": 10,
      "cred": 15,
      "flags": 2,
      "label": "Loving It",
      "description": "Achieve 25 Love Games",
      "howto": "Achieve 25 Love Games"
    },
    {
      "id": 15,
      "imageId": 10,
      "cred": 15,
      "flags": 1,
      "label": "Breaking the Speed Limit",
      "description": "Hit a serve over 200kph/124.28miles",
      "howto": "Hit a serve over 200kph/124.28miles"
    },
    {
      "id": 16,
      "imageId": 10,
      "cred": 15,
      "flags": 1,
      "label": "Big Hitter",
      "description": "Achieve 250 MAX Serves",
      "howto": "Achieve 250 MAX Serves"
    },
    {
      "id": 17,
      "imageId": 10,
      "cred": 15,
      "flags": 1,
      "label": "Pushing it to the MAX!",
      "description": "Achieve 3 Consecutive MAX Serves in a match",
      "howto": "Achieve 3 Consecutive MAX Serves in a match"
    },
    {
      "id": 18,
      "imageId": 10,
      "cred": 15,
      "flags": 1,
      "label": "Different Strokes",
      "description": "Win 400 stroke points",
      "howto": "Win 400 stroke points"
    },
    {
      "id": 19,
      "imageId": 10,
      "cred": 15,
      "flags": 3,
      "label": "Volleyball",
      "description": "Win 300 volley points\r\n",
      "howto": "Win 300 volley points\r\n"
    },
    {
      "id": 20,
      "imageId": 10,
      "cred": 15,
      "flags": 4,
      "label": "Super, Smashing, Great!",
      "description": "Win 200 smash points",
      "howto": "Win 200 smash points"
    },
    {
      "id": 21,
      "imageId": 10,
      "cred": 15,
      "flags": 1,
      "label": "Aces High",
      "description": "Score 100 Aces",
      "howto": "Score 100 Aces"
    },
    {
      "id": 22,
      "imageId": 10,
      "cred": 15,
      "flags": 3,
      "label": "Over the Top",
      "description": "Win 50 lob shot points",
      "howto": "Win 50 lob shot points"
    },
    {
      "id": 23,
      "imageId": 10,
      "cred": 15,
      "flags": 1,
      "label": "Drop and give me 50!",
      "description": "Win 50 drop shot points",
      "howto": "Win 50 drop shot points"
    },
    {
      "id": 25,
      "imageId": 10,
      "cred": 15,
      "flags": 1,
      "label": "Your Country Needs You!",
      "description": "Be selected for the Davis Cup team or Fed cup in world tour.",
      "howto": "Be selected for the Davis Cup team or Fed cup in world tour."
    },
    {
      "id": 26,
      "imageId": 10,
      "cred": 15,
      "flags": 4,
      "label": "Practise Makes Perfect",
      "description": "Win 10 Practice Matches in world tour",
      "howto": "Win 10 Practice Matches in world tour"
    },
    {
      "id": 27,
      "imageId": 2,
      "cred": 20,
      "flags": 1,
      "label": "Training to win",
      "description": "Clear a level 8 training game in the World Tour",
      "howto": "Clear a level 8 training game in the World Tour"
    },
    {
      "id": 29,
      "imageId": 2,
      "cred": 20,
      "flags": 1,
      "label": "Schools Out",
      "description": "Clear each academy mission in the World Tour",
      "howto": "Clear each academy mission in the World Tour"
    },
    {
      "id": 30,
      "imageId": 2,
      "cred": 20,
      "flags": 3,
      "label": "Shopaholic",
      "description": "Purchase 100 different items from the shop in world tour",
      "howto": "Purchase 100 different items from the shop in world tour"
    },
    {
      "id": 32,
      "imageId": 2,
      "cred": 20,
      "flags": 3,
      "label": "Versatile Male",
      "description": "Win a match with all Male Pro Players on default settings",
      "howto": "Win a match with all Male Pro Players on default settings"
    },
    {
      "id": 36,
      "imageId": 2,
      "cred": 20,
      "flags": 1,
      "label": "Versatile Female",
      "description": "Win a match with all Female Pro Players on default settings",
      "howto": "Win a match with all Female Pro Players on default settings"
    },
    {
      "id": 38,
      "imageId": 2,
      "cred": 20,
      "flags": 4,
      "label": "Block and Roll",
      "description": "Clear a 15 block combo in Blockbuster",
      "howto": "Clear a 15 block combo in Blockbuster"
    },
    {
      "id": 39,
      "imageId": 2,
      "cred": 20,
      "flags": 4,
      "label": "Dr Doolittle",
      "description": "Feed all types of animal in a single game of Zoo feeder",
      "howto": "Feed all types of animal in a single game of Zoo feeder"
    },
    {
      "id": 40,
      "imageId": 2,
      "cred": 20,
      "flags": 4,
      "label": "Arrrrrrr!",
      "description": "Sink 3 galleons in a single game of Pirate Wars",
      "howto": "Sink 3 galleons in a single game of Pirate Wars"
    },
    {
      "id": 41,
      "imageId": 2,
      "cred": 20,
      "flags": 4,
      "label": "Cherry Picker",
      "description": "Collect 10 cherries in a single game of Avalanche",
      "howto": "Collect 10 cherries in a single game of Avalanche"
    },
    {
      "id": 42,
      "imageId": 2,
      "cred": 20,
      "flags": 4,
      "label": "Perfect Frame",
      "description": "Clear the table of balls in order without missing in Pot Shot",
      "howto": "Clear the table of balls in order without missing in Pot Shot"
    },
    {
      "id": 43,
      "imageId": 2,
      "cred": 20,
      "flags": 4,
      "label": "Ham and Eggs",
      "description": "Bowl a Turkey on level 6 or above of Pin Crusher",
      "howto": "Bowl a Turkey on level 6 or above of Pin Crusher"
    },
    {
      "id": 44,
      "imageId": 2,
      "cred": 20,
      "flags": 4,
      "label": "Marathon Man",
      "description": "Run a total of 10km",
      "howto": "Run a total of 10km"
    },
    {
      "id": 45,
      "imageId": 1,
      "cred": 20,
      "flags": 4,
      "label": "Grass Stains",
      "description": "Play 100 matches on a Grass Court",
      "howto": "Play 100 matches on a Grass Court"
    },
    {
      "id": 46,
      "imageId": 2,
      "cred": 20,
      "flags": 4,
      "label": "Play with Clay",
      "description": "Play 100 matches on a Clay Court",
      "howto": "Play 100 matches on a Clay Court"
    },
    {
      "id": 47,
      "imageId": 2,
      "cred": 20,
      "flags": 4,
      "label": "Astro Carpet King",
      "description": "Play 100 matches on an Artificial Court",
      "howto": "Play 100 matches on an Artificial Court"
    },
    {
      "id": 48,
      "imageId": 2,
      "cred": 20,
      "flags": 4,
      "label": "To Look this good takes SEGA",
      "description": "Play a game in the complete SEGA outfit",
      "howto": "Play a game in the complete SEGA outfit"
    },
    {
      "id": 49,
      "imageId": 1,
      "cred": 25,
      "flags": 4,
      "label": "King for a Day",
      "description": "Unlock the secret player King",
      "howto": "Unlock the secret player King"
    },
    {
      "id": 50,
      "imageId": 1,
      "cred": 25,
      "flags": 1,
      "label": "That Dukes a hazard!",
      "description": "Unlock secret player Duke",
      "howto": "Unlock secret player Duke"
    },
    {
      "id": 51,
      "imageId": 1,
      "cred": 25,
      "flags": 4,
      "label": "Gold Medallist",
      "description": "Unlock every gold medal in the game.",
      "howto": "Unlock every gold medal in the game."
    },
    {
      "id": 52,
      "imageId": 1,
      "cred": 25,
      "flags": 4,
      "label": "Access all Areas",
      "description": "Purchase every Court Pass in World Tour",
      "howto": "Purchase every Court Pass in World Tour"
    },
    {
      "id": 53,
      "imageId": 1,
      "cred": 25,
      "flags": 4,
      "label": "Style Guru",
      "description": "Unlock every basic play style in World Tour",
      "howto": "Unlock every basic play style in World Tour"
    },
    {
      "id": 54,
      "imageId": 1,
      "cred": 30,
      "flags": 1,
      "label": "Go Pro!",
      "description": "Turn professional in World Tour",
      "howto": "Turn professional in World Tour"
    },
    {
      "id": 55,
      "imageId": 1,
      "cred": 30,
      "flags": 4,
      "label": "Leader of the Pack",
      "description": "Number 1 Amateur in the world",
      "howto": "Number 1 Amateur in the world"
    },
    {
      "id": 56,
      "imageId": 1,
      "cred": 30,
      "flags": 5,
      "label": "Them Bones",
      "description": "Play the Meat Defender training game wearing the full Skeleton costume\r\n",
      "howto": "Play the Meat Defender training game wearing the full Skeleton costume\r\n"
    },
    {
      "id": 57,
      "imageId": 1,
      "cred": 30,
      "flags": 4,
      "label": "National Treasure",
      "description": "Win the Davis or Fed Cup in World Tour",
      "howto": "Win the Davis or Fed Cup in World Tour"
    },
    {
      "id": 59,
      "imageId": 1,
      "cred": 40,
      "flags": 1,
      "label": "First Amongst Equals",
      "description": "Rank #1 in the world in World Tour",
      "howto": "Rank #1 in the world in World Tour"
    },
    {
      "id": 60,
      "imageId": 1,
      "cred": 30,
      "flags": 1,
      "label": "You are Gold!",
      "description": "Complete every academy mission with a gold medal in World Tour.\r\n",
      "howto": "Complete every academy mission with a gold medal in World Tour.\r\n"
    },
    {
      "id": 62,
      "imageId": 2,
      "cred": 20,
      "flags": 1,
      "label": "Last Man Standing",
      "description": "Beat all default Male Pro Players",
      "howto": "Beat all default Male Pro Players"
    },
    {
      "id": 63,
      "imageId": 2,
      "cred": 20,
      "flags": 1,
      "label": "Last Woman Standing",
      "description": "Beat all Female Pro Players",
      "howto": "Beat all Female Pro Players"
    },
    {
      "id": 64,
      "imageId": 2,
      "cred": 20,
      "flags": 1,
      "label": "Competitive Streak",
      "description": "Complete 10 ranked matches in world tour",
      "howto": "Complete 10 ranked matches in world tour"
    },
    {
      "id": 65,
      "imageId": 2,
      "cred": 20,
      "flags": 1,
      "label": "Social Animal",
      "description": "Complete 10 player matches",
      "howto": "Complete 10 player matches"
    },
    {
      "id": 66,
      "imageId": 1,
      "cred": 30,
      "flags": 4,
      "label": "Coronation",
      "description": "Win King of Players tournament in World Tour",
      "howto": "Win King of Players tournament in World Tour"
    }
  ]
}