{
  "achievementsPossible": 40,
  "credPossible": 1000,
  "achievements": [
    {
      "id": 60,
      "imageId": 123,
      "cred": 100,
      "flags": 1,
      "label": "Eon's Elite",
      "description": "Completed Story Mode on Nightmare difficulty",
      "howto": "Complete Story Mode on Nightmare difficulty"
    },
    {
      "id": 64,
      "imageId": 131,
      "cred": 20,
      "flags": 1,
      "label": "Jail Break",
      "description": "Beat The Rift to Skylands",
      "howto": "Beat The Rift to Skylands on any difficulty"
    },
    {
      "id": 71,
      "imageId": 148,
      "cred": 20,
      "flags": 1,
      "label": "Sock Sniffer",
      "description": "Beat The Cloudbreather's Crag",
      "howto": "Beat The Cloudbreather's Crag on any difficulty"
    },
    {
      "id": 74,
      "imageId": 119,
      "cred": 20,
      "flags": 1,
      "label": "Cloud Kingdom Clearer",
      "description": "Beat The Cloud Kingdom",
      "howto": "Beat The Cloud Kingdom on any difficulty"
    },
    {
      "id": 75,
      "imageId": 114,
      "cred": 20,
      "flags": 1,
      "label": "Back Where You Belong",
      "description": "Beat Land of the Undead",
      "howto": "Beat Land of the Undead on any difficulty"
    },
    {
      "id": 76,
      "imageId": 125,
      "cred": 20,
      "flags": 1,
      "label": "Brawl to the Wall",
      "description": "Beat Battlebrawl Island",
      "howto": "Beat Battlebrawl Island on any difficulty"
    },
    {
      "id": 77,
      "imageId": 132,
      "cred": 20,
      "flags": 1,
      "label": "Knowledge Is Power",
      "description": "Beat The Spell Punk Library",
      "howto": "Beat The Spell Punk Library on any difficulty"
    },
    {
      "id": 78,
      "imageId": 126,
      "cred": 20,
      "flags": 1,
      "label": "Yard Work",
      "description": "Beat Gadfly Glades",
      "howto": "Beat Gadfly Glades on any difficulty"
    },
    {
      "id": 79,
      "imageId": 118,
      "cred": 20,
      "flags": 1,
      "label": "Chicken Bites",
      "description": "Beat Cap'n Cluck's Chicken HQ",
      "howto": "Beat Cap'n Cluck's Chicken HQ on any difficulty"
    },
    {
      "id": 80,
      "imageId": 152,
      "cred": 20,
      "flags": 1,
      "label": "Vacation Getaway",
      "description": "Beat Monstrous Isles",
      "howto": "Beat Monstrous Isles on any difficulty"
    },
    {
      "id": 81,
      "imageId": 120,
      "cred": 20,
      "flags": 1,
      "label": "Demolition Derby",
      "description": "Beat Ridepocalypse Demo Derby",
      "howto": "Beat Ridepocalypse Demo Derby on any difficulty"
    },
    {
      "id": 82,
      "imageId": 135,
      "cred": 20,
      "flags": 1,
      "label": "Power of Attraction",
      "description": "Beat Vault of the Ancients",
      "howto": "Beat Vault of the Ancients on any difficulty"
    },
    {
      "id": 83,
      "imageId": 144,
      "cred": 20,
      "flags": 1,
      "label": "Raiding the Raiders",
      "description": "Beat The Bandit Train",
      "howto": "Beat The Bandit Train on any difficulty"
    },
    {
      "id": 85,
      "imageId": 115,
      "cred": 90,
      "flags": 1,
      "label": "Best Driver in Skylands",
      "description": "Earned all Land vehicle stars",
      "howto": "Earn all Land vehicle stars"
    },
    {
      "id": 86,
      "imageId": 133,
      "cred": 90,
      "flags": 1,
      "label": "Light Giver",
      "description": "Defeated The Darkness on any difficulty",
      "howto": "Defeat The Darkness on any difficulty"
    },
    {
      "id": 87,
      "imageId": 121,
      "cred": 10,
      "flags": 1,
      "label": "Dime",
      "description": "Reached Portal Master Rank 10",
      "howto": "Reach Portal Master Rank 10"
    },
    {
      "id": 88,
      "imageId": 142,
      "cred": 10,
      "flags": 1,
      "label": "Quarter",
      "description": "Reached Portal Master Rank 25",
      "howto": "Reach Portal Master Rank 25"
    },
    {
      "id": 89,
      "imageId": 143,
      "cred": 10,
      "flags": 1,
      "label": "Quarter, Nickel, Dime",
      "description": "Reached Portal Master Rank 40",
      "howto": "Reach Portal Master Rank 40"
    },
    {
      "id": 90,
      "imageId": 138,
      "cred": 40,
      "flags": 1,
      "label": "Pair of Quarters and a Nickel",
      "description": "Reached Portal Master Rank 55",
      "howto": "Reach Portal Master Rank 55"
    },
    {
      "id": 91,
      "imageId": 139,
      "cred": 40,
      "flags": 1,
      "label": "Pair of Quarters, Pair of Dimes",
      "description": "Reached Portal Master Rank 70",
      "howto": "Reach Portal Master Rank 70"
    },
    {
      "id": 92,
      "imageId": 140,
      "cred": 40,
      "flags": 1,
      "label": "Perfect Pair",
      "description": "Defeated an enemy while SuperCharged",
      "howto": "Defeat an enemy while SuperCharged"
    },
    {
      "id": 93,
      "imageId": 145,
      "cred": 10,
      "flags": 1,
      "label": "Ready to Roll",
      "description": "Equipped your first Mod",
      "howto": "Equip your first Mod"
    },
    {
      "id": 94,
      "imageId": 117,
      "cred": 10,
      "flags": 1,
      "label": "Check Out My Ride",
      "description": "Equipped 3 different Mods on one vehicle",
      "howto": "Equip 3 different Mods on one vehicle"
    },
    {
      "id": 95,
      "imageId": 136,
      "cred": 10,
      "flags": 1,
      "label": "Mod Master",
      "description": "Collected 4 vehicle Mods",
      "howto": "Collect 4 vehicle Mods"
    },
    {
      "id": 96,
      "imageId": 128,
      "cred": 10,
      "flags": 1,
      "label": "Grease Monkey",
      "description": "Fully upgraded a vehicle",
      "howto": "Fully upgrade a vehicle"
    },
    {
      "id": 97,
      "imageId": 129,
      "cred": 10,
      "flags": 1,
      "label": "Horn Honker",
      "description": "Honked your first vehicle horn",
      "howto": "Honk your first vehicle horn"
    },
    {
      "id": 98,
      "imageId": 153,
      "cred": 10,
      "flags": 1,
      "label": "Wanna Race?",
      "description": "Completed a Race level",
      "howto": "Complete a Race level"
    },
    {
      "id": 99,
      "imageId": 116,
      "cred": 10,
      "flags": 1,
      "label": "Catch Me If You Can",
      "description": "Came in 1st place in any Race level on any difficulty",
      "howto": "Come in 1st place in any Race level on any difficulty"
    },
    {
      "id": 100,
      "imageId": 141,
      "cred": 40,
      "flags": 1,
      "label": "Pole Position",
      "description": "Came in 1st place in any Race level on each difficulty",
      "howto": "Come in 1st place in any Race level on each difficulty"
    },
    {
      "id": 101,
      "imageId": 146,
      "cred": 10,
      "flags": 1,
      "label": "Road Trip",
      "description": "Entered a vehicle in Co-Op mode",
      "howto": "Enter a vehicle in Co-Op mode"
    },
    {
      "id": 102,
      "imageId": 151,
      "cred": 10,
      "flags": 1,
      "label": "The Real Collector",
      "description": "Collected 43 Skystones",
      "howto": "Collect 43 Skystones"
    },
    {
      "id": 103,
      "imageId": 147,
      "cred": 10,
      "flags": 1,
      "label": "Skystones Savant",
      "description": "Won 15 Games of Skystones: Overdrive",
      "howto": "Win 15 Games of Skystones: Overdrive"
    },
    {
      "id": 104,
      "imageId": 124,
      "cred": 10,
      "flags": 1,
      "label": "Feng Shui",
      "description": "Had at least 5 active Legendary Treasures in the Academy at once",
      "howto": "Have at least 5 active Legendary Treasures in the Academy at once"
    },
    {
      "id": 105,
      "imageId": 113,
      "cred": 10,
      "flags": 1,
      "label": "Archaeologist",
      "description": "Collected 10 Legendary Treasures",
      "howto": "Collect 10 Legendary Treasures"
    },
    {
      "id": 106,
      "imageId": 134,
      "cred": 10,
      "flags": 1,
      "label": "Live Wire Locksmith",
      "description": "Solved 15 Live Wire Lock puzzles",
      "howto": "Solve 15 Live Wire Lock puzzles"
    },
    {
      "id": 107,
      "imageId": 127,
      "cred": 10,
      "flags": 1,
      "label": "Gold Standard",
      "description": "Earned 6 gold Emblems",
      "howto": "Earn 6 gold Emblems"
    },
    {
      "id": 108,
      "imageId": 137,
      "cred": 90,
      "flags": 1,
      "label": "Ooh, Shiny",
      "description": "Achieved gold on 12 Emblems",
      "howto": "Achieve gold on 12 Emblems"
    },
    {
      "id": 109,
      "imageId": 130,
      "cred": 10,
      "flags": 1,
      "label": "Hugo's Hero",
      "description": "Completed 10 quests given by Hugo",
      "howto": "Complete 10 quests given by Hugo"
    },
    {
      "id": 110,
      "imageId": 150,
      "cred": 10,
      "flags": 1,
      "label": "Tessa's Traveler",
      "description": "Completed 10 quests given by Tessa",
      "howto": "Complete 10 quests given by Tessa"
    },
    {
      "id": 111,
      "imageId": 122,
      "cred": 40,
      "flags": 1,
      "label": "Driver's Ed",
      "description": "Fully completed a Driver quest from Buzz",
      "howto": "Fully complete a Driver quest from Buzz"
    }
  ]
}