{
  "achievementsPossible": 7,
  "credPossible": 50,
  "achievements": [
    {
      "id": 1,
      "imageId": 6,
      "cred": 5,
      "flags": 1,
      "label": "Origins",
      "description": "Created a Hero",
      "howto": "Create a Hero"
    },
    {
      "id": 2,
      "imageId": 18,
      "cred": 5,
      "flags": 1,
      "label": "Secret Identity",
      "description": "Renamed a Hero",
      "howto": "Rename a Hero"
    },
    {
      "id": 3,
      "imageId": 8,
      "cred": 5,
      "flags": 1,
      "label": "The Secret's Out!",
      "description": "Shared with friends",
      "howto": "Share with friends"
    },
    {
      "id": 4,
      "imageId": 9,
      "cred": 5,
      "flags": 1,
      "label": "Global Hero",
      "description": "Shared with KinectShare.com",
      "howto": "Share with KinectShare.com"
    },
    {
      "id": 5,
      "imageId": 10,
      "cred": 10,
      "flags": 1,
      "label": "Alter Egos",
      "description": "Used all 4 power themes",
      "howto": "Use all 4 power themes"
    },
    {
      "id": 6,
      "imageId": 19,
      "cred": 10,
      "flags": 1,
      "label": "The Underdog",
      "description": "Disrupted all 4 main powers during multiplayer (primary player rewarded)",
      "howto": "Disrupt all 4 main powers during multiplayer (primary player rewarded)"
    },
    {
      "id": 7,
      "imageId": 22,
      "cred": 10,
      "flags": 1,
      "label": "Great Responsibility",
      "description": "Used your powers on an object in the play space",
      "howto": "Use your powers on an object in the play space"
    }
  ]
}