{
  "achievementsPossible": 10,
  "credPossible": 1000,
  "achievements": [
    {
      "id": 8,
      "imageId": 3,
      "cred": 100,
      "flags": 6,
      "label": "１０アイドル",
      "description": "１０人の女の子全員をプレイしました。\r\nどの女の子がお気に入りですか？ ",
      "howto": "１０人の女の子全員をプレイしたら達成です。"
    },
    {
      "id": 9,
      "imageId": 4,
      "cred": 100,
      "flags": 6,
      "label": "１６ソング",
      "description": "１６曲を全部選曲しました。\r\nどの曲がお好みでしたか？",
      "howto": "１６曲全部をひと通り選曲したら達成です。"
    },
    {
      "id": 10,
      "imageId": 5,
      "cred": 100,
      "flags": 6,
      "label": "４シーズン",
      "description": "４つの祭典イベントの合格、おめでとうございます！",
      "howto": "季節ごとにある４つの祭典オーディションに全て合格し、\r\n営業で祭典イベント４つを全て成功させたら達成です。"
    },
    {
      "id": 11,
      "imageId": 6,
      "cred": 100,
      "flags": 6,
      "label": "スーパーアイドル",
      "description": "オーディション「スーパーアイドル」に合格しました。\r\nおめでとうございます！",
      "howto": "オーディション中、もっとも難しいとされている\r\n「スーパーアイドル」に合格したら達成です。"
    },
    {
      "id": 12,
      "imageId": 7,
      "cred": 100,
      "flags": 6,
      "label": "ベストエンディング",
      "description": "ドームコンサートの成功、おめでとうございます！",
      "howto": "ランクＡ以上でドームコンサートを成功させてエンディングを\r\n迎えたら達成です。"
    },
    {
      "id": 13,
      "imageId": 8,
      "cred": 100,
      "flags": 6,
      "label": "オーディション１００",
      "description": "オーディション通算１００回合格、おめでとうございます！",
      "howto": "オーディションに通算１００回合格したら達成です。"
    },
    {
      "id": 14,
      "imageId": 9,
      "cred": 100,
      "flags": 6,
      "label": "コミュニケーション１００",
      "description": "グッド以上のコミュニケーションが通算１００回になりました。\r\nおめでとうございます！",
      "howto": "営業の時にグッド以上のコミュニケーションが\r\n通算１００回になったら達成です。"
    },
    {
      "id": 15,
      "imageId": 10,
      "cred": 100,
      "flags": 6,
      "label": "レッスン１００",
      "description": "グッド以上のレッスンが通算１００回になりました。\r\nおめでとうございます！",
      "howto": "レッスンでグッド以上のレッスンを通算１００回できたら達成です。"
    },
    {
      "id": 16,
      "imageId": 11,
      "cred": 100,
      "flags": 6,
      "label": "メモリー１００",
      "description": "集めた思い出の数が通算１００個になりました。\r\nおめでとうございます！",
      "howto": "営業の時にコミュニケーションで集めた思い出の数が、\r\n通算１００個になったら達成です。"
    },
    {
      "id": 17,
      "imageId": 12,
      "cred": 100,
      "flags": 6,
      "label": "真アイドルマスター",
      "description": "プロデューサーランク「アイドルマスター」のさらに上の、\r\n「真アイドルマスター」に到達しました。おめでとうございます！",
      "howto": "秘密の実績です。詳しくは、ロックを解除する必要があります。"
    }
  ]
}