{
  "achievementsPossible": 3,
  "credPossible": 0,
  "achievements": [
    {
      "id": 1,
      "imageId": 15,
      "cred": 0,
      "flags": 1,
      "label": "Lab Technician",
      "description": "Ran Xbox LIVE Labs continuously for 30 minutes",
      "howto": "Continuously use Xbox LIVE Labs for 30 minutes"
    },
    {
      "id": 2,
      "imageId": 16,
      "cred": 0,
      "flags": 1,
      "label": "Senior Research Analyst",
      "description": "Ran Xbox LIVE Labs for a total of one hour",
      "howto": "Use the Xbox LIVE Labs for a total of an hour"
    },
    {
      "id": 3,
      "imageId": 17,
      "cred": 0,
      "flags": 1,
      "label": "Mad \"360\" Scientist",
      "description": "Ran Xbox LIVE Labs for a total of six hours",
      "howto": "Use the Xbox LIVE Labs for a total of six hours"
    }
  ]
}