{
  "achievementsPossible": 50,
  "credPossible": 1000,
  "achievements": [
    {
      "id": 1,
      "imageId": 1,
      "cred": 10,
      "flags": 1,
      "label": "Welcome to Area 246 Tokyo",
      "description": "Clear any song at Area 246 Tokyo on Human difficulty",
      "howto": "Clear any song at Area 246 Tokyo on Human difficulty"
    },
    {
      "id": 2,
      "imageId": 2,
      "cred": 10,
      "flags": 1,
      "label": "Welcome to The Yard",
      "description": "Clear any song at The Yard on Human difficulty",
      "howto": "Clear any song at The Yard on Human difficulty"
    },
    {
      "id": 3,
      "imageId": 3,
      "cred": 10,
      "flags": 1,
      "label": "Welcome to Zero-G",
      "description": "Clear any song at Zero-G on Human difficulty",
      "howto": "Clear any song at Zero-G on Human difficulty"
    },
    {
      "id": 4,
      "imageId": 4,
      "cred": 10,
      "flags": 1,
      "label": "Welcome to Climax",
      "description": "Clear any song at Climax on Human difficulty",
      "howto": "Clear any song at Climax on Human difficulty"
    },
    {
      "id": 5,
      "imageId": 5,
      "cred": 15,
      "flags": 1,
      "label": "Regular at Area 246 Tokyo",
      "description": "Clear any song at Area 246 Tokyo on Machine difficulty",
      "howto": "Clear any song at Area 246 Tokyo on Machine difficulty"
    },
    {
      "id": 6,
      "imageId": 6,
      "cred": 15,
      "flags": 1,
      "label": "Regular at The Yard",
      "description": "Clear any song at The Yard on Machine difficulty",
      "howto": "Clear any song at The Yard on Machine difficulty"
    },
    {
      "id": 7,
      "imageId": 7,
      "cred": 15,
      "flags": 1,
      "label": "Regular at Zero-G",
      "description": "Clear any song at Zero-G on Machine difficulty",
      "howto": "Clear any song at Zero-G on Machine difficulty"
    },
    {
      "id": 8,
      "imageId": 8,
      "cred": 15,
      "flags": 1,
      "label": "Regular at Climax",
      "description": "Clear any song at Climax on Machine difficulty",
      "howto": "Clear any song at Climax on Machine difficulty"
    },
    {
      "id": 9,
      "imageId": 9,
      "cred": 20,
      "flags": 1,
      "label": "Hero of Area 246 Tokyo",
      "description": "Clear any song at Area 246 Tokyo on Alien difficulty",
      "howto": "Clear any song at Area 246 Tokyo on Alien difficulty"
    },
    {
      "id": 10,
      "imageId": 10,
      "cred": 20,
      "flags": 1,
      "label": "Hero of The Yard",
      "description": "Clear any song at The Yard on Alien difficulty",
      "howto": "Clear any song at The Yard on Alien difficulty"
    },
    {
      "id": 11,
      "imageId": 11,
      "cred": 20,
      "flags": 1,
      "label": "Hero of Zero-G",
      "description": "Clear any song at Zero-G on Alien difficulty",
      "howto": "Clear any song at Zero-G on Alien difficulty"
    },
    {
      "id": 12,
      "imageId": 12,
      "cred": 20,
      "flags": 1,
      "label": "Hero of Climax",
      "description": "Clear any song at Climax on Alien difficulty",
      "howto": "Clear any song at Climax on Alien difficulty"
    },
    {
      "id": 13,
      "imageId": 13,
      "cred": 10,
      "flags": 1,
      "label": "Test This Drill",
      "description": "Clear a Dance Challenge for the first time",
      "howto": "Clear a Dance Challenge for the first time"
    },
    {
      "id": 14,
      "imageId": 14,
      "cred": 20,
      "flags": 1,
      "label": "Tight with Taboo",
      "description": "Clear all of Taboo's Dance Challenges",
      "howto": "Clear all of Taboo's Dance Challenges"
    },
    {
      "id": 15,
      "imageId": 15,
      "cred": 20,
      "flags": 1,
      "label": "Tight with will.i.am",
      "description": "Clear all of will.i.am's Dance Challenges",
      "howto": "Clear all of will.i.am's Dance Challenges"
    },
    {
      "id": 16,
      "imageId": 16,
      "cred": 20,
      "flags": 1,
      "label": "Tight with Fergie",
      "description": "Clear all of Fergie's Dance Challenges",
      "howto": "Clear all of Fergie's Dance Challenges"
    },
    {
      "id": 17,
      "imageId": 17,
      "cred": 20,
      "flags": 1,
      "label": "Tight with apl.de.ap",
      "description": "Clear all of apl.de.ap's Dance Challenges",
      "howto": "Clear all of apl.de.ap's Dance Challenges"
    },
    {
      "id": 18,
      "imageId": 18,
      "cred": 10,
      "flags": 1,
      "label": "Tomorrow Leader",
      "description": "Register a score on the Leaderboards for the first time",
      "howto": "Register a score on the Leaderboards for the first time"
    },
    {
      "id": 19,
      "imageId": 19,
      "cred": 10,
      "flags": 1,
      "label": "How It's 'Posed to Be",
      "description": "Successfully strike a final pose in Deluxe Experience",
      "howto": "Successfully strike a final pose in Deluxe Experience"
    },
    {
      "id": 20,
      "imageId": 20,
      "cred": 30,
      "flags": 1,
      "label": "Fashion Beats",
      "description": "Unlock all accessories",
      "howto": "Unlock all accessories"
    },
    {
      "id": 21,
      "imageId": 21,
      "cred": 10,
      "flags": 1,
      "label": "Meet Me Halfway",
      "description": "Play in co-op mode in Deluxe Experience",
      "howto": "Play in co-op mode in Deluxe Experience"
    },
    {
      "id": 22,
      "imageId": 22,
      "cred": 10,
      "flags": 1,
      "label": "Pump It Louder",
      "description": "Play with a vocalist in Deluxe Experience",
      "howto": "Play with a vocalist in Deluxe Experience"
    },
    {
      "id": 23,
      "imageId": 23,
      "cred": 40,
      "flags": 1,
      "label": "Make Them Hear You",
      "description": "Play a song with vocalist earning only \"great!\" or \"incredible!!\" vocal ratings in Deluxe Experience",
      "howto": "Play a song with vocalist earning only \"great!\" or \"incredible!!\" vocal ratings in Deluxe Experience"
    },
    {
      "id": 24,
      "imageId": 24,
      "cred": 30,
      "flags": 1,
      "label": "Don't Stop The Party",
      "description": "Play with two dancers and two vocalists in Deluxe Experience",
      "howto": "Play with two dancers and two vocalists in Deluxe Experience"
    },
    {
      "id": 25,
      "imageId": 25,
      "cred": 10,
      "flags": 1,
      "label": "(Not the) Same Old Routine",
      "description": "Create a dance routine in \"choreo-maker\" mode",
      "howto": "Create a dance routine in \"choreo-maker\" mode"
    },
    {
      "id": 26,
      "imageId": 26,
      "cred": 10,
      "flags": 1,
      "label": "Showdown",
      "description": "Earn rank C or higher on a custom dance routine",
      "howto": "Earn rank C or higher on a custom dance routine"
    },
    {
      "id": 27,
      "imageId": 27,
      "cred": 20,
      "flags": 1,
      "label": "Makin Alla Y'all Aware",
      "description": "Watch all the tutorials",
      "howto": "Watch all the tutorials"
    },
    {
      "id": 28,
      "imageId": 28,
      "cred": 10,
      "flags": 1,
      "label": "Yourself in the Mirror",
      "description": "Customize an avatar for the first time",
      "howto": "Customize an avatar for the first time"
    },
    {
      "id": 29,
      "imageId": 29,
      "cred": 10,
      "flags": 1,
      "label": "Let's Get It Started",
      "description": "Take a lesson from the dance coach",
      "howto": "Take a lesson from the dance coach"
    },
    {
      "id": 30,
      "imageId": 30,
      "cred": 10,
      "flags": 1,
      "label": "My Style",
      "description": "Apply a fashion accessory to all available avatar customization slots",
      "howto": "Apply a fashion accessory to all available avatar customization slots"
    },
    {
      "id": 31,
      "imageId": 31,
      "cred": 10,
      "flags": 1,
      "label": "Just Can't Get Enough",
      "description": "Dance every song in Deluxe Experience",
      "howto": "Dance every song in Deluxe Experience"
    },
    {
      "id": 32,
      "imageId": 32,
      "cred": 20,
      "flags": 1,
      "label": "The Best One Yet",
      "description": "Dance to the same song at every venue at any difficulty",
      "howto": "Dance to the same song at every venue at any difficulty"
    },
    {
      "id": 33,
      "imageId": 33,
      "cred": 40,
      "flags": 1,
      "label": "Master of Ceremony",
      "description": "Dance to a legendary song on Alien difficulty and earn rank S",
      "howto": "Dance to a legendary song on Alien difficulty and earn rank S"
    },
    {
      "id": 34,
      "imageId": 34,
      "cred": 10,
      "flags": 1,
      "label": "Calling Every Human",
      "description": "Earn rank A or higher on Human difficulty",
      "howto": "Earn rank A or higher on Human difficulty"
    },
    {
      "id": 35,
      "imageId": 35,
      "cred": 15,
      "flags": 1,
      "label": "Like a Machine",
      "description": "Earn rank A or higher on Machine difficulty",
      "howto": "Earn rank A or higher on Machine difficulty"
    },
    {
      "id": 36,
      "imageId": 36,
      "cred": 20,
      "flags": 1,
      "label": "Planet Rock",
      "description": "Earn rank A or higher on Alien difficulty",
      "howto": "Earn rank A or higher on Alien difficulty"
    },
    {
      "id": 37,
      "imageId": 37,
      "cred": 25,
      "flags": 1,
      "label": "Supreme Human Dancer",
      "description": "Earn rank S on Human difficulty",
      "howto": "Earn rank S on Human difficulty"
    },
    {
      "id": 38,
      "imageId": 38,
      "cred": 25,
      "flags": 1,
      "label": "Supreme Machine Dancer",
      "description": "Earn rank S on Machine difficulty",
      "howto": "Earn rank S on Machine difficulty"
    },
    {
      "id": 39,
      "imageId": 39,
      "cred": 25,
      "flags": 1,
      "label": "Supreme Alien Dancer",
      "description": "Earn rank S on Alien difficulty",
      "howto": "Earn rank S on Alien difficulty"
    },
    {
      "id": 40,
      "imageId": 40,
      "cred": 20,
      "flags": 1,
      "label": "Bridging The Gap",
      "description": "Get 1,000 smooth transitions in Deluxe Experience",
      "howto": "Get 1,000 smooth transitions in Deluxe Experience"
    },
    {
      "id": 41,
      "imageId": 41,
      "cred": 10,
      "flags": 1,
      "label": "From Roots to Fruits",
      "description": "Watch the credits to the end",
      "howto": "Watch the credits to the end"
    },
    {
      "id": 42,
      "imageId": 42,
      "cred": 40,
      "flags": 1,
      "label": "Lined Up When We Team Up",
      "description": "Clear co-op mode with both dancers earning rank S in Deluxe Experience",
      "howto": "Clear co-op mode with both dancers earning rank S in Deluxe Experience"
    },
    {
      "id": 43,
      "imageId": 43,
      "cred": 30,
      "flags": 1,
      "label": "Get Original",
      "description": "Create 10 dance routines in \"choreo-maker\" mode",
      "howto": "Create 10 dance routines in \"choreo-maker\" mode"
    },
    {
      "id": 44,
      "imageId": 44,
      "cred": 30,
      "flags": 1,
      "label": "Triple A",
      "description": "Earn rank A or higher 3 times in a row in Deluxe Experience",
      "howto": "Earn rank A or higher 3 times in a row in Deluxe Experience"
    },
    {
      "id": 45,
      "imageId": 45,
      "cred": 30,
      "flags": 1,
      "label": "It's the Incredible",
      "description": "Get 1,000 \"incredible!!\" dance ratings in Deluxe Experience",
      "howto": "Get 1,000 \"incredible!!\" dance ratings in Deluxe Experience"
    },
    {
      "id": 46,
      "imageId": 46,
      "cred": 40,
      "flags": 1,
      "label": "Rock That Body",
      "description": "Dance 323 times in Deluxe Experience",
      "howto": "Dance 323 times in Deluxe Experience"
    },
    {
      "id": 47,
      "imageId": 47,
      "cred": 25,
      "flags": 1,
      "label": "Party All the Time",
      "description": "Rack up 25,000 Followers",
      "howto": "Rack up 25,000 Followers"
    },
    {
      "id": 48,
      "imageId": 48,
      "cred": 40,
      "flags": 1,
      "label": "Here Is The Love",
      "description": "Rack up 50,000 Followers",
      "howto": "Rack up 50,000 Followers"
    },
    {
      "id": 49,
      "imageId": 49,
      "cred": 25,
      "flags": 1,
      "label": "Imma Be",
      "description": "Get a combined high score of 5,000,000 points",
      "howto": "Get a combined high score of 5,000,000 points"
    },
    {
      "id": 50,
      "imageId": 50,
      "cred": 40,
      "flags": 1,
      "label": "Boom Boom Pow",
      "description": "Get a combined high score of 10,000,000 points",
      "howto": "Get a combined high score of 10,000,000 points"
    }
  ]
}