{
  "achievementsPossible": 24,
  "credPossible": 1000,
  "achievements": [
    {
      "id": 1,
      "imageId": 1,
      "cred": 40,
      "flags": 6,
      "label": "Good Sport",
      "description": "Complete 25 online matches",
      "howto": "Complete 25 online matches"
    },
    {
      "id": 2,
      "imageId": 2,
      "cred": 125,
      "flags": 6,
      "label": "Online Captain",
      "description": "Complete 50 online matches",
      "howto": "Complete 50 online matches"
    },
    {
      "id": 3,
      "imageId": 3,
      "cred": 15,
      "flags": 6,
      "label": "Tall as Metcalfe",
      "description": "Win 60% of lineouts in a match that aren't thrown by your team",
      "howto": "Win 60% of lineouts in a match that aren't thrown by your team"
    },
    {
      "id": 4,
      "imageId": 4,
      "cred": 20,
      "flags": 6,
      "label": "Oh The Memories!",
      "description": "Score 4 consecutive tries with Jonah Lomu vs England",
      "howto": "Score 4 consecutive tries with Jonah Lomu vs England"
    },
    {
      "id": 5,
      "imageId": 5,
      "cred": 60,
      "flags": 6,
      "label": "World Champ Domination",
      "description": "Win the World Championship Competition without losing or drawing a match",
      "howto": "Win the World Championship Competition without losing or drawing a match"
    },
    {
      "id": 6,
      "imageId": 6,
      "cred": 10,
      "flags": 6,
      "label": "Possessed",
      "description": "Maintain Over 60% possession in a match",
      "howto": "Maintain Over 60% possession in a match"
    },
    {
      "id": 7,
      "imageId": 7,
      "cred": 10,
      "flags": 6,
      "label": "This is My House",
      "description": "Maintain over 60% territory in a match",
      "howto": "Maintain over 60% territory in a match"
    },
    {
      "id": 8,
      "imageId": 8,
      "cred": 10,
      "flags": 6,
      "label": "Lack of Discipline",
      "description": "The ref calls one red card against you",
      "howto": "The ref calls one red card against you"
    },
    {
      "id": 9,
      "imageId": 9,
      "cred": 15,
      "flags": 6,
      "label": "A Gentleman's Game",
      "description": "Do not concede more than 2 penalties in a single match",
      "howto": "Do not concede more than 2 penalties in a single match"
    },
    {
      "id": 10,
      "imageId": 10,
      "cred": 40,
      "flags": 6,
      "label": "End-To-End",
      "description": "Make a try-scoring run which starts within your own in-goal area",
      "howto": "Make a try-scoring run which starts within your own in-goal area"
    },
    {
      "id": 11,
      "imageId": 11,
      "cred": 35,
      "flags": 6,
      "label": "Conversion Point Pro",
      "description": "Score a conversion on pro difficulty",
      "howto": "Score a conversion on pro difficulty"
    },
    {
      "id": 12,
      "imageId": 12,
      "cred": 40,
      "flags": 6,
      "label": "Team Player",
      "description": "Win 10 matches, each as a different team",
      "howto": "Win 10 matches, each as a different team"
    },
    {
      "id": 13,
      "imageId": 13,
      "cred": 35,
      "flags": 6,
      "label": "Played for Our Sins",
      "description": "Win a match with 2 players sent off",
      "howto": "Win a match with 2 players sent off"
    },
    {
      "id": 14,
      "imageId": 14,
      "cred": 20,
      "flags": 6,
      "label": "The Catt Memorial Service",
      "description": "Break through a full back with Jonah Lomu",
      "howto": "Break through a full back with Jonah Lomu"
    },
    {
      "id": 15,
      "imageId": 15,
      "cred": 50,
      "flags": 6,
      "label": "Where is Tim Timber?",
      "description": "Win the ITM Cup Competition",
      "howto": "Win the ITM Cup Competition"
    },
    {
      "id": 16,
      "imageId": 16,
      "cred": 50,
      "flags": 6,
      "label": "Super, Thanks For Asking",
      "description": "Win the Rugby 15 Competition",
      "howto": "Win the Rugby 15 Competition"
    },
    {
      "id": 17,
      "imageId": 17,
      "cred": 50,
      "flags": 6,
      "label": "There's No Forfeiting This One",
      "description": "Win the Top 14 Competition",
      "howto": "Win the Top 14 Competition"
    },
    {
      "id": 18,
      "imageId": 18,
      "cred": 50,
      "flags": 6,
      "label": "Working On My Quads",
      "description": "Win the Quad Nations Competition",
      "howto": "Win the Quad Nations Competition"
    },
    {
      "id": 19,
      "imageId": 19,
      "cred": 100,
      "flags": 6,
      "label": "Hardcore Fan",
      "description": "Complete Career Mode",
      "howto": "Complete Career Mode"
    },
    {
      "id": 20,
      "imageId": 20,
      "cred": 10,
      "flags": 6,
      "label": "Thanks Team",
      "description": "Watch through the credits",
      "howto": "Watch through the credits"
    },
    {
      "id": 21,
      "imageId": 21,
      "cred": 75,
      "flags": 6,
      "label": "Tribute",
      "description": "Unlock 'Team Lomu'",
      "howto": "Unlock 'Team Lomu'"
    },
    {
      "id": 22,
      "imageId": 22,
      "cred": 100,
      "flags": 6,
      "label": "Bank of Toulon",
      "description": "Collect $100,000 Rugby Dollars",
      "howto": "Collect $100,000 Rugby Dollars"
    },
    {
      "id": 23,
      "imageId": 23,
      "cred": 30,
      "flags": 6,
      "label": "No School Boy Difficulty Here",
      "description": "Get gold medals in every tutorial",
      "howto": "Get gold medals in every tutorial"
    },
    {
      "id": 24,
      "imageId": 24,
      "cred": 10,
      "flags": 6,
      "label": "That's No Oil Painting, But OK",
      "description": "Create and save a custom player",
      "howto": "Create and save a custom player"
    }
  ]
}