{
  "achievementsPossible": 20,
  "credPossible": 400,
  "achievements": [
    {
      "id": 1,
      "imageId": 1,
      "cred": 20,
      "flags": 6,
      "label": "The Nicaraguan Getaway",
      "description": "Finished Prologue.",
      "howto": "Get out of Nicaragua."
    },
    {
      "id": 2,
      "imageId": 2,
      "cred": 30,
      "flags": 6,
      "label": "Adios, Mexico",
      "description": "Finished El Highway.",
      "howto": "Confront your mortal enemy."
    },
    {
      "id": 3,
      "imageId": 3,
      "cred": 30,
      "flags": 6,
      "label": "Conquered Canyons",
      "description": "Finished Hidden Canyons.",
      "howto": "Put Nevada in your rear-view mirror."
    },
    {
      "id": 4,
      "imageId": 4,
      "cred": 30,
      "flags": 6,
      "label": "The Retirees Are Safe",
      "description": "Finished Cruisin' Keys.",
      "howto": "Take out a helicopter with an unusual pilot."
    },
    {
      "id": 5,
      "imageId": 5,
      "cred": 30,
      "flags": 6,
      "label": "No More Snow Patrol",
      "description": "Finished Bi-Polar Offroads.",
      "howto": "Bring down a giant mech in ski country."
    },
    {
      "id": 6,
      "imageId": 6,
      "cred": 30,
      "flags": 6,
      "label": "Scottsburg Defender",
      "description": "Finished Neighborly Farmlands.",
      "howto": "Learn about the real Holt Ryebach."
    },
    {
      "id": 7,
      "imageId": 7,
      "cred": 50,
      "flags": 1,
      "label": "Free To Do What We Wanna Do",
      "description": "Finished Final Level.",
      "howto": "Save Janesville from mass destruction."
    },
    {
      "id": 8,
      "imageId": 8,
      "cred": 10,
      "flags": 4,
      "label": "Back In Yo Face",
      "description": "Countered 50 total enemies.",
      "howto": "Find the way of the counter."
    },
    {
      "id": 9,
      "imageId": 9,
      "cred": 20,
      "flags": 4,
      "label": "Tables Have Turned",
      "description": "Countered 150 total enemies.",
      "howto": "Master the way of the counter and do it many times."
    },
    {
      "id": 10,
      "imageId": 10,
      "cred": 10,
      "flags": 4,
      "label": "Streaky Goodness",
      "description": "Combo streak reached 250.",
      "howto": "String together a monster combo streak."
    },
    {
      "id": 11,
      "imageId": 11,
      "cred": 25,
      "flags": 4,
      "label": "Champion Streaker",
      "description": "Combo streak reached 1,000.",
      "howto": "Reach an insanely high combo streak."
    },
    {
      "id": 12,
      "imageId": 12,
      "cred": 10,
      "flags": 4,
      "label": "Why So Hostile?",
      "description": "Blew up 200 civilian cars.",
      "howto": "Get a bunch of innocents off the road and out of the way."
    },
    {
      "id": 13,
      "imageId": 21,
      "cred": 5,
      "flags": 4,
      "label": "Rubbin', Son, Is Racin'",
      "description": "Took out a Big Arms car using only melee.",
      "howto": "Find that guns aren't the only way to wreck a car."
    },
    {
      "id": 14,
      "imageId": 22,
      "cred": 15,
      "flags": 4,
      "label": "Car Go 'Splode, Just In Time",
      "description": "Blew up Leaper Agent's car before he reached you.",
      "howto": "Keep the guns going while a man attacks you from above."
    },
    {
      "id": 15,
      "imageId": 23,
      "cred": 10,
      "flags": 4,
      "label": "Big Oil Never Had a Chance",
      "description": "Beat a tanker truck sequence in less than 60 seconds.",
      "howto": "Waste no time 'sploding the black gold hauler."
    },
    {
      "id": 16,
      "imageId": 24,
      "cred": 25,
      "flags": 4,
      "label": "Pablo Thanks You",
      "description": "Took no damage during a whole level.",
      "howto": "Help I.R.I.S. and Pablo make it without a scratch."
    },
    {
      "id": 17,
      "imageId": 25,
      "cred": 15,
      "flags": 4,
      "label": "All Tricked Out",
      "description": "Maxed level up on all weapons and abilities.",
      "howto": "Turn I.R.I.S. into the ultimate weapon of destruction."
    },
    {
      "id": 18,
      "imageId": 27,
      "cred": 10,
      "flags": 4,
      "label": "Big Movie Watchings",
      "description": "Unlocked all film bonus content.",
      "howto": "Learn about all the secrets of Hollywood."
    },
    {
      "id": 19,
      "imageId": 26,
      "cred": 10,
      "flags": 4,
      "label": "All Game Secrets Revealed",
      "description": "Unlocked all game bonus content.",
      "howto": "See how things are made."
    },
    {
      "id": 20,
      "imageId": 28,
      "cred": 15,
      "flags": 4,
      "label": "Behind the Scenes Bonus DVD",
      "description": "Unlocked all bonus content.",
      "howto": "Purchase everything ever made."
    }
  ]
}