{
  "avatarAssetsPossible": 3,
  "maleAvatarAssetsPossible": 1,
  "femaleAvatarAssetsPossible": 1,
  "avatarAssets": [
    {
      "id": "00000544-0001-7173-c900-a4b958411283",
      "imageId": 52,
      "subcategory": 0,
      "unknown": 0,
      "isMale": false,
      "isFemale": false,
      "isUnisex": true,
      "label": "Dollar Dash Beanie",
      "description": "Transform your Avatar into a Dollar Dash Thief!",
      "howto": "Buy a shop item."
    },
    {
      "id": "00000008-0002-c141-c25c-339258411283",
      "imageId": 56,
      "subcategory": 0,
      "unknown": 2015221016,
      "isMale": true,
      "isFemale": false,
      "isUnisex": false,
      "label": "Dollar Dash Shirt",
      "description": "Dress your Avatar in Dollar Dash style!",
      "howto": "Win online 10 games in Dollar Dash mode."
    },
    {
      "id": "00000008-0002-6122-c5af-f62158411283",
      "imageId": 57,
      "subcategory": 0,
      "unknown": 2015221016,
      "isMale": false,
      "isFemale": true,
      "isUnisex": false,
      "label": "Dollar Dash Shirt",
      "description": "Dress your Avatar in Dollar Dash style!",
      "howto": "Win online 10 games in Dollar Dash mode."
    }
  ]
}