{
  "achievementsPossible": 30,
  "credPossible": 400,
  "achievements": [
    {
      "id": 1,
      "imageId": 31,
      "cred": 15,
      "flags": 1,
      "label": "Primary Directive",
      "description": "Finish the game with Ares",
      "howto": "Finish the game with Ares"
    },
    {
      "id": 2,
      "imageId": 21,
      "cred": 15,
      "flags": 1,
      "label": "But That's Another Story",
      "description": "Finish the game with Tarus",
      "howto": "Finish the game with Tarus"
    },
    {
      "id": 3,
      "imageId": 32,
      "cred": 20,
      "flags": 1,
      "label": "Unlimited Power!",
      "description": "Finish every chapter without using repair",
      "howto": "Finish every chapter without using repair"
    },
    {
      "id": 4,
      "imageId": 51,
      "cred": 10,
      "flags": 1,
      "label": "I AM the Destroyer!",
      "description": "Achieve character level '4'",
      "howto": "Achieve character level '4'"
    },
    {
      "id": 5,
      "imageId": 52,
      "cred": 15,
      "flags": 1,
      "label": "Behold! My True Strength!",
      "description": "Achieve character level '5'",
      "howto": "Achieve character level '5'"
    },
    {
      "id": 6,
      "imageId": 53,
      "cred": 20,
      "flags": 1,
      "label": "Universal Soldier",
      "description": "Achieve character level '6'",
      "howto": "Achieve character level '6'"
    },
    {
      "id": 7,
      "imageId": 36,
      "cred": 10,
      "flags": 1,
      "label": "The First of Many...",
      "description": "Beat Goliath",
      "howto": "Beat Goliath"
    },
    {
      "id": 8,
      "imageId": 37,
      "cred": 15,
      "flags": 1,
      "label": "...Should've Brought a Friend!",
      "description": "Beat Carrion with both Ares and Tarus",
      "howto": "Beat Carrion with both Ares and Tarus"
    },
    {
      "id": 9,
      "imageId": 38,
      "cred": 10,
      "flags": 1,
      "label": "Break the shell",
      "description": "Beat Zypher Pod with Ares",
      "howto": "Beat Zypher Pod with Ares"
    },
    {
      "id": 10,
      "imageId": 39,
      "cred": 5,
      "flags": 1,
      "label": "Armored Saint",
      "description": "Find the drone repair bay",
      "howto": "Find the drone repair bay"
    },
    {
      "id": 11,
      "imageId": 55,
      "cred": 15,
      "flags": 1,
      "label": "Secondary Directive ",
      "description": "Beat the boss in chapter 5 with Ares",
      "howto": "Beat the boss in chapter 5 with Ares"
    },
    {
      "id": 12,
      "imageId": 41,
      "cred": 10,
      "flags": 1,
      "label": "Not-So-Mighty Zytron Rangers",
      "description": "Beat Zytron Walker, Zytron Trooper and Zytron Booster with Tarus",
      "howto": "Beat Zytron Walker, Zytron Trooper and Zytron Booster with Tarus"
    },
    {
      "id": 13,
      "imageId": 57,
      "cred": 5,
      "flags": 1,
      "label": "I Feel Mighty, Oh So Mighty!",
      "description": "Get stronger!",
      "howto": "Get stronger!"
    },
    {
      "id": 14,
      "imageId": 46,
      "cred": 15,
      "flags": 1,
      "label": "It's the Only Way",
      "description": "Beat the boss in chapter 5 with Tarus",
      "howto": "Beat the boss in chapter 5 with Tarus"
    },
    {
      "id": 15,
      "imageId": 48,
      "cred": 15,
      "flags": 1,
      "label": "And Don't Come Back!",
      "description": "Perfect the Goliath boss fight",
      "howto": "Perfect the Goliath boss fight"
    },
    {
      "id": 16,
      "imageId": 49,
      "cred": 15,
      "flags": 1,
      "label": "...Not Nearly Long Enough",
      "description": "Perfect the Carrion boss fight",
      "howto": "Perfect the Carrion boss fight"
    },
    {
      "id": 17,
      "imageId": 50,
      "cred": 15,
      "flags": 1,
      "label": "It was a Freakin' Bug Hunt!",
      "description": "Perfect the Zypher Pod boss fight",
      "howto": "Perfect the Zypher Pod boss fight"
    },
    {
      "id": 18,
      "imageId": 22,
      "cred": 15,
      "flags": 1,
      "label": "It's Just My Size",
      "description": "Perfect the Sentinel boss fight",
      "howto": "Perfect the Sentinel boss fight"
    },
    {
      "id": 19,
      "imageId": 58,
      "cred": 20,
      "flags": 1,
      "label": "So Much Fail...",
      "description": "Perfect the boss fight in chapter 5 with Tarus",
      "howto": "Perfect the boss fight in chapter 5 with Tarus"
    },
    {
      "id": 20,
      "imageId": 59,
      "cred": 20,
      "flags": 1,
      "label": "Embrace the Dark Side",
      "description": "Perfect the boss fight in chapter 5 with Ares",
      "howto": "Perfect the boss fight in chapter 5 with Ares"
    },
    {
      "id": 21,
      "imageId": 23,
      "cred": 15,
      "flags": 1,
      "label": "...Not Nearly Big Enough",
      "description": "Perfect the Prime Guardian boss fight",
      "howto": "Perfect the Prime Guardian boss fight"
    },
    {
      "id": 22,
      "imageId": 56,
      "cred": 20,
      "flags": 1,
      "label": "Oh, the Humanity!",
      "description": "Perfect the Minos Cannon boss fight",
      "howto": "Perfect the Minos Cannon boss fight"
    },
    {
      "id": 23,
      "imageId": 24,
      "cred": 15,
      "flags": 1,
      "label": "Ready for Action",
      "description": "Acquire all abilities and weapons",
      "howto": "Acquire all abilities and weapons"
    },
    {
      "id": 24,
      "imageId": 25,
      "cred": 15,
      "flags": 1,
      "label": "Bookworm",
      "description": "Collect all the Data cubes",
      "howto": "Collect all the Data cubes"
    },
    {
      "id": 25,
      "imageId": 26,
      "cred": 15,
      "flags": 1,
      "label": "I Have the Power!",
      "description": "Collect all Upgrade chips",
      "howto": "Collect all Upgrade chips"
    },
    {
      "id": 26,
      "imageId": 27,
      "cred": 5,
      "flags": 1,
      "label": "Shield Breaker",
      "description": "Break the enemy’s shield with Plasma Shock or Lockdown",
      "howto": "Break the enemy’s shield with Plasma Shock or Lockdown"
    },
    {
      "id": 27,
      "imageId": 28,
      "cred": 5,
      "flags": 1,
      "label": "99 Problems but a Hit Ain't One",
      "description": "Achieve 99 attack combo",
      "howto": "Achieve 99 attack combo"
    },
    {
      "id": 28,
      "imageId": 29,
      "cred": 10,
      "flags": 1,
      "label": "Set Phaser to KILL!",
      "description": "Upgrade one of your weapons to its maximum level",
      "howto": "Upgrade one of your weapons to its maximum level"
    },
    {
      "id": 29,
      "imageId": 60,
      "cred": 15,
      "flags": 1,
      "label": "Vulgar Display of Power",
      "description": "Upgrade every weapon and ability to its maximum level",
      "howto": "Upgrade every weapon and ability to its maximum level"
    },
    {
      "id": 30,
      "imageId": 54,
      "cred": 5,
      "flags": 1,
      "label": "Bursting with Energy",
      "description": "Destroy 5 or more enemies, at once with Solar Strike",
      "howto": "Destroy 5 or more enemies, at once with Solar Strike"
    }
  ]
}