{
  "achievementsPossible": 27,
  "credPossible": 400,
  "achievements": [
    {
      "id": 1,
      "imageId": 1,
      "cred": 10,
      "flags": 6,
      "label": "Starcatcher",
      "description": "Recover the stars.",
      "howto": "Recover the stars."
    },
    {
      "id": 2,
      "imageId": 2,
      "cred": 20,
      "flags": 6,
      "label": "Over the Moon",
      "description": "Recover the moon.",
      "howto": "Recover the moon."
    },
    {
      "id": 3,
      "imageId": 3,
      "cred": 20,
      "flags": 6,
      "label": "Sunrise",
      "description": "Recover the sun.",
      "howto": "Recover the sun."
    },
    {
      "id": 4,
      "imageId": 4,
      "cred": 50,
      "flags": 1,
      "label": "Coronation",
      "description": "Dethrone the Queen of the Night.",
      "howto": "Dethrone the Queen of the Night."
    },
    {
      "id": 5,
      "imageId": 5,
      "cred": 10,
      "flags": 6,
      "label": "The Girl and the Firefly",
      "description": "Meet Igniculus.",
      "howto": "Meet Igniculus."
    },
    {
      "id": 6,
      "imageId": 6,
      "cred": 10,
      "flags": 3,
      "label": "Comedy",
      "description": "Rubella joins Aurora's Party.",
      "howto": "Rubella joins Aurora's Party."
    },
    {
      "id": 7,
      "imageId": 7,
      "cred": 10,
      "flags": 3,
      "label": "Capilli Catch",
      "description": "Finn joins Aurora's Party.",
      "howto": "Finn joins Aurora's Party."
    },
    {
      "id": 8,
      "imageId": 8,
      "cred": 10,
      "flags": 3,
      "label": "Sweet Sister",
      "description": "Norah joins Aurora's Party.",
      "howto": "Norah joins Aurora's Party."
    },
    {
      "id": 9,
      "imageId": 9,
      "cred": 10,
      "flags": 3,
      "label": "Bolmus Bond",
      "description": "Robert joins Aurora's Party.",
      "howto": "Robert joins Aurora's Party."
    },
    {
      "id": 10,
      "imageId": 10,
      "cred": 10,
      "flags": 3,
      "label": "Kategida Kindred",
      "description": "Óengus joins Aurora's Party.",
      "howto": "Óengus joins Aurora's Party."
    },
    {
      "id": 11,
      "imageId": 11,
      "cred": 10,
      "flags": 3,
      "label": "Piscean Promise",
      "description": "Gen joins Aurora's Party.",
      "howto": "Gen joins Aurora's Party."
    },
    {
      "id": 12,
      "imageId": 12,
      "cred": 10,
      "flags": 3,
      "label": "Tragedy",
      "description": "Tristis joins Aurora's Party.",
      "howto": "Tristis joins Aurora's Party."
    },
    {
      "id": 13,
      "imageId": 13,
      "cred": 10,
      "flags": 2,
      "label": "Tenth Birthday",
      "description": "Achieve level 10 with Aurora.",
      "howto": "Achieve level 10 with Aurora."
    },
    {
      "id": 14,
      "imageId": 14,
      "cred": 15,
      "flags": 2,
      "label": "Perfectionist",
      "description": "Upgrade a skill to its highest level.",
      "howto": "Upgrade a skill to its highest level."
    },
    {
      "id": 15,
      "imageId": 15,
      "cred": 10,
      "flags": 2,
      "label": "Master Oculist",
      "description": "Craft Oculi.",
      "howto": "Craft Oculi."
    },
    {
      "id": 16,
      "imageId": 16,
      "cred": 10,
      "flags": 7,
      "label": "Through the Looking Glass",
      "description": "Send Oculi to a friend.",
      "howto": "Send Oculi to a friend."
    },
    {
      "id": 17,
      "imageId": 17,
      "cred": 15,
      "flags": 7,
      "label": "Scene Stealer",
      "description": "Execute 3 Surprise Strikes.",
      "howto": "Execute 3 Surprise Strikes."
    },
    {
      "id": 18,
      "imageId": 18,
      "cred": 25,
      "flags": 7,
      "label": "Showstopper",
      "description": "Interrupt 3 foes at the same time.",
      "howto": "Interrupt 3 foes at the same time."
    },
    {
      "id": 19,
      "imageId": 19,
      "cred": 15,
      "flags": 7,
      "label": "Winged Fury",
      "description": "Devastate 5 foes.",
      "howto": "Devastate 5 foes."
    },
    {
      "id": 20,
      "imageId": 20,
      "cred": 20,
      "flags": 7,
      "label": "General of Light",
      "description": "Win a battle against 3 dark creatures without losing any HP.",
      "howto": "Win a battle against 3 dark creatures without losing any HP."
    },
    {
      "id": 21,
      "imageId": 21,
      "cred": 10,
      "flags": 7,
      "label": "Guardians of Lemuria",
      "description": "Win a battle without Aurora.",
      "howto": "Win a battle without Aurora."
    },
    {
      "id": 22,
      "imageId": 22,
      "cred": 10,
      "flags": 2,
      "label": "Explorer",
      "description": "Find and open 30 coffers.",
      "howto": "Find and open 30 coffers."
    },
    {
      "id": 23,
      "imageId": 23,
      "cred": 15,
      "flags": 2,
      "label": "Aurora Borealis",
      "description": "Collect 5 deposits of Stardust.",
      "howto": "Collect 5 deposits of Stardust."
    },
    {
      "id": 24,
      "imageId": 24,
      "cred": 20,
      "flags": 1,
      "label": "Perfect Sonnet",
      "description": "Collect all Confessions.",
      "howto": "Collect all Confessions."
    },
    {
      "id": 25,
      "imageId": 25,
      "cred": 10,
      "flags": 6,
      "label": "When Pigs Fly",
      "description": "Finish the Lemurian Request: Achilles's Odyssey.",
      "howto": "Finish the Lemurian Request: Achilles's Odyssey."
    },
    {
      "id": 26,
      "imageId": 26,
      "cred": 10,
      "flags": 6,
      "label": "Golden Apple",
      "description": "Finish the Lemurian Request: Free Trade.",
      "howto": "Finish the Lemurian Request: Free Trade."
    },
    {
      "id": 27,
      "imageId": 27,
      "cred": 25,
      "flags": 6,
      "label": "Grassroots",
      "description": "Finish 3 Lemurian Requests.",
      "howto": "Finish 3 Lemurian Requests."
    }
  ]
}