{
  "achievementsPossible": 25,
  "credPossible": 1000,
  "achievements": [
    {
      "id": 1,
      "imageId": 83,
      "cred": 10,
      "flags": 3,
      "label": "See the Masters",
      "description": "Unlock masterclasses by working out with your favourite athletes.",
      "howto": "Unlock masterclasses by working out with your favourite athletes."
    },
    {
      "id": 2,
      "imageId": 84,
      "cred": 25,
      "flags": 1,
      "label": "50 Exercises",
      "description": "Do 50 exercises",
      "howto": "Do 50 exercises"
    },
    {
      "id": 3,
      "imageId": 50,
      "cred": 10,
      "flags": 4,
      "label": "Activity Logged",
      "description": "Logged an activity",
      "howto": "Logged an activity"
    },
    {
      "id": 4,
      "imageId": 51,
      "cred": 20,
      "flags": 4,
      "label": "Overtime",
      "description": "Logged 5 different Activities",
      "howto": "Logged 5 different Activities"
    },
    {
      "id": 5,
      "imageId": 56,
      "cred": 10,
      "flags": 4,
      "label": "Fresh Air",
      "description": "Completed the outdoor section of a workout",
      "howto": "Completed the outdoor section of a workout"
    },
    {
      "id": 6,
      "imageId": 57,
      "cred": 30,
      "flags": 4,
      "label": "Everybody do the Dinosaur",
      "description": "Lifted a triceratops (10000 kg) total",
      "howto": "Lifted a triceratops (10000 kg) total"
    },
    {
      "id": 7,
      "imageId": 61,
      "cred": 10,
      "flags": 6,
      "label": "First of the Day",
      "description": "Completed a workout",
      "howto": "Completed a workout"
    },
    {
      "id": 8,
      "imageId": 66,
      "cred": 30,
      "flags": 4,
      "label": "72 Hours",
      "description": "Trained every day for 3 days straight",
      "howto": "Trained every day for 3 days straight"
    },
    {
      "id": 9,
      "imageId": 85,
      "cred": 50,
      "flags": 1,
      "label": "First Phase!",
      "description": "Completed one phase of a training plan within one year",
      "howto": "Completed one phase of a training plan within one year"
    },
    {
      "id": 10,
      "imageId": 86,
      "cred": 75,
      "flags": 1,
      "label": "Master",
      "description": "Completed all phases of a training plan within one year",
      "howto": "Completed all phases of a training plan within one year"
    },
    {
      "id": 11,
      "imageId": 87,
      "cred": 200,
      "flags": 1,
      "label": "Dual Sport",
      "description": "Completed all phases of two training plans within one year",
      "howto": "Completed all phases of two training plans within one year"
    },
    {
      "id": 12,
      "imageId": 88,
      "cred": 200,
      "flags": 1,
      "label": "Dual Categories",
      "description": "Completed a training plan in each of two different categories within one year",
      "howto": "Completed a training plan in each of two different categories within one year"
    },
    {
      "id": 13,
      "imageId": 89,
      "cred": 20,
      "flags": 4,
      "label": "500 Bicep Reps",
      "description": "Did 500 reps that work your biceps",
      "howto": "Did 500 reps that work your biceps"
    },
    {
      "id": 14,
      "imageId": 90,
      "cred": 20,
      "flags": 4,
      "label": "500 Chest Reps",
      "description": "Did 500 reps that work your chest",
      "howto": "Did 500 reps that work your chest"
    },
    {
      "id": 15,
      "imageId": 91,
      "cred": 20,
      "flags": 4,
      "label": "500 Glute Reps",
      "description": "Did 500 reps that work your glutes",
      "howto": "Did 500 reps that work your glutes"
    },
    {
      "id": 16,
      "imageId": 92,
      "cred": 20,
      "flags": 4,
      "label": "500 Core Reps",
      "description": "Did 500 reps that work your core",
      "howto": "Did 500 reps that work your core"
    },
    {
      "id": 17,
      "imageId": 94,
      "cred": 30,
      "flags": 4,
      "label": "Full Body Training",
      "description": "Done 10 reps with each muscle group",
      "howto": "Done 10 reps with each muscle group"
    },
    {
      "id": 18,
      "imageId": 95,
      "cred": 30,
      "flags": 1,
      "label": "Serious Athlete",
      "description": "Worked out at least twice a week for three weeks in a row",
      "howto": "Worked out at least twice a week for three weeks in a row"
    },
    {
      "id": 19,
      "imageId": 96,
      "cred": 40,
      "flags": 1,
      "label": "Dedicated Athlete",
      "description": "Worked out at least twice a week for six weeks in a row",
      "howto": "Worked out at least twice a week for six weeks in a row"
    },
    {
      "id": 20,
      "imageId": 109,
      "cred": 10,
      "flags": 6,
      "label": "In Condition",
      "description": "Did a conditioning workout",
      "howto": "Did a conditioning workout"
    },
    {
      "id": 21,
      "imageId": 99,
      "cred": 10,
      "flags": 6,
      "label": "Cherry Picking",
      "description": "Add a single workout to your schedule",
      "howto": "Add a single workout to your schedule"
    },
    {
      "id": 22,
      "imageId": 111,
      "cred": 40,
      "flags": 4,
      "label": "Sinking",
      "description": "Basketball Training Game: sunk 15 consecutive baskets",
      "howto": "Basketball Training Game: sunk 15 consecutive baskets"
    },
    {
      "id": 23,
      "imageId": 112,
      "cred": 40,
      "flags": 4,
      "label": "Straight Sets",
      "description": "Tennis Training Game: hit 5 red blocks in a row",
      "howto": "Tennis Training Game: hit 5 red blocks in a row"
    },
    {
      "id": 24,
      "imageId": 41,
      "cred": 10,
      "flags": 6,
      "label": "Multi-Talented",
      "description": "Played all the training games",
      "howto": "Played all the training games"
    },
    {
      "id": 25,
      "imageId": 113,
      "cred": 40,
      "flags": 4,
      "label": "Pwn Goals",
      "description": "Soccer Training Game: scored 20 times in a row",
      "howto": "Soccer Training Game: scored 20 times in a row"
    }
  ]
}