{
  "achievementsPossible": 31,
  "credPossible": 1000,
  "achievements": [
    {
      "id": 1,
      "imageId": 1,
      "cred": 20,
      "flags": 6,
      "label": "Completed Act One in Thane",
      "description": "Act One completed in Thane Difficulty",
      "howto": "Complete Act One in Thane Difficulty"
    },
    {
      "id": 2,
      "imageId": 2,
      "cred": 20,
      "flags": 6,
      "label": "Completed Act Two in Thane",
      "description": "Act Two completed in Thane Difficulty",
      "howto": "Complete Act Two in Thane Difficulty"
    },
    {
      "id": 3,
      "imageId": 3,
      "cred": 50,
      "flags": 1,
      "label": "Game Completed in Thane",
      "description": "Entire game completed in Thane Difficulty",
      "howto": "Complete the game in Thane Difficulty"
    },
    {
      "id": 4,
      "imageId": 4,
      "cred": 60,
      "flags": 6,
      "label": "Completed Act One in Legend",
      "description": "Act One completed in Legend Difficulty",
      "howto": "Complete Act One in Legend Difficulty"
    },
    {
      "id": 5,
      "imageId": 5,
      "cred": 60,
      "flags": 6,
      "label": "Completed Act Two in Legend",
      "description": "Act Two completed in Legend Difficulty",
      "howto": "Complete Act Two in Legend Difficulty"
    },
    {
      "id": 6,
      "imageId": 6,
      "cred": 80,
      "flags": 1,
      "label": "Game Completed in Legend",
      "description": "Entire game completed in Legend Difficulty",
      "howto": "Complete the game in Legend Difficulty"
    },
    {
      "id": 7,
      "imageId": 13,
      "cred": 50,
      "flags": 4,
      "label": "Legendary Collector",
      "description": "All Legendary Weapons found",
      "howto": "Find all the Legendary Weapons"
    },
    {
      "id": 8,
      "imageId": 15,
      "cred": 30,
      "flags": 4,
      "label": "The Untouchable",
      "description": "Successfully blocked 58 Attacks",
      "howto": "Block at least 58 Attacks"
    },
    {
      "id": 9,
      "imageId": 16,
      "cred": 30,
      "flags": 4,
      "label": "Collateral Damage",
      "description": "Successfully broke 58 Objects",
      "howto": "Break 58 different objects"
    },
    {
      "id": 10,
      "imageId": 20,
      "cred": 20,
      "flags": 4,
      "label": "The Dodger",
      "description": "Successfully dodged 88 times",
      "howto": "Dodge at least 88 times"
    },
    {
      "id": 12,
      "imageId": 24,
      "cred": 20,
      "flags": 4,
      "label": "Prison Break",
      "description": "All of the Thane Prisoners have been saved",
      "howto": "Find and save all Thane Prisoners"
    },
    {
      "id": 13,
      "imageId": 27,
      "cred": 20,
      "flags": 4,
      "label": "Carnal Collector",
      "description": "Successfully collected all Carnal Runes",
      "howto": "Find and collect all Carnal Rune Pieces"
    },
    {
      "id": 14,
      "imageId": 28,
      "cred": 20,
      "flags": 4,
      "label": "Heroic Collector",
      "description": "Successfully collected all Heroic Runes",
      "howto": "Find and collect all Heroic Runes Pieces"
    },
    {
      "id": 15,
      "imageId": 32,
      "cred": 20,
      "flags": 4,
      "label": "Morale Gasser",
      "description": "Successfully performed the Heroic Storm 38 times",
      "howto": "Activate the Heroic Storm 38 times"
    },
    {
      "id": 17,
      "imageId": 34,
      "cred": 30,
      "flags": 4,
      "label": "Weapon Theft",
      "description": "28 weapons stolen",
      "howto": "Steal a weapon from 28 different enemies"
    },
    {
      "id": 18,
      "imageId": 36,
      "cred": 20,
      "flags": 4,
      "label": "The Slayer",
      "description": "Multiple enemies were killed with a single attack 28 times",
      "howto": "Kill multiple enemies with a single attack on 28 different occasions"
    },
    {
      "id": 19,
      "imageId": 38,
      "cred": 30,
      "flags": 2,
      "label": "Weapons of Choice",
      "description": "Enemies were killed with each available Weapon Type",
      "howto": "Kill at least 1 enemy with each of the available weapon types"
    },
    {
      "id": 20,
      "imageId": 39,
      "cred": 30,
      "flags": 2,
      "label": "Reign'in Blood",
      "description": "All Carnal Upgrades have been obtained",
      "howto": "Obtain all of the Carnal Upgrades"
    },
    {
      "id": 21,
      "imageId": 40,
      "cred": 30,
      "flags": 4,
      "label": "Rise of the King",
      "description": "All Heroic Upgrades have been obtained",
      "howto": "Obtain all of the Heroic Upgrades"
    },
    {
      "id": 22,
      "imageId": 41,
      "cred": 30,
      "flags": 4,
      "label": "Brass Knuckles",
      "description": "58 enemies were killed using bare hands",
      "howto": "Kill 58 enemies with your bare hands"
    },
    {
      "id": 23,
      "imageId": 42,
      "cred": 20,
      "flags": 4,
      "label": "Towering Strength",
      "description": "8 enemies were killed using a Pillar",
      "howto": "Use Pillars to kill 8 enemies"
    },
    {
      "id": 24,
      "imageId": 43,
      "cred": 20,
      "flags": 4,
      "label": "Memento of Carnage",
      "description": "8 people were killed within 1 Carnal Fury",
      "howto": "Kill 8 people within 1 Carnal Fury"
    },
    {
      "id": 25,
      "imageId": 44,
      "cred": 20,
      "flags": 4,
      "label": "Memento of Glory",
      "description": "8 enemies were killed during a single Heroic Storm",
      "howto": "Kill 8 enemies within 1 Heroic Storm"
    },
    {
      "id": 26,
      "imageId": 45,
      "cred": 30,
      "flags": 2,
      "label": "Mythical Monster Slayer",
      "description": "Max carnal index reached",
      "howto": "Max carnal index reached"
    },
    {
      "id": 27,
      "imageId": 46,
      "cred": 30,
      "flags": 2,
      "label": "Legendary King",
      "description": "Max heroic index reached",
      "howto": "Reach max heroic index"
    },
    {
      "id": 28,
      "imageId": 47,
      "cred": 60,
      "flags": 4,
      "label": "The Perfect Song",
      "description": "Perfect Grendel Song performed",
      "howto": "Perform the Grendel Song perfectly"
    },
    {
      "id": 29,
      "imageId": 49,
      "cred": 30,
      "flags": 4,
      "label": "Eye Gouger",
      "description": "Sea Serpent defeated",
      "howto": "Defeat the Sea Serpent"
    },
    {
      "id": 30,
      "imageId": 50,
      "cred": 30,
      "flags": 4,
      "label": "Arm Ripper",
      "description": "Grendel defeated",
      "howto": "Defeat Grendel"
    },
    {
      "id": 31,
      "imageId": 51,
      "cred": 30,
      "flags": 4,
      "label": "Heart Crusher",
      "description": "Wolf defeated",
      "howto": "Defeat the Wolf"
    },
    {
      "id": 32,
      "imageId": 52,
      "cred": 30,
      "flags": 4,
      "label": "Ice Breaker",
      "description": "Hela defeated",
      "howto": "Defeat Hela"
    },
    {
      "id": 33,
      "imageId": 53,
      "cred": 30,
      "flags": 4,
      "label": "Dragonheart",
      "description": "Dragon defeated",
      "howto": "Defeat the Dragon"
    }
  ]
}