{
  "achievementsPossible": 17,
  "credPossible": 500,
  "achievements": [
    {
      "id": 1,
      "imageId": 18,
      "cred": 20,
      "flags": 6,
      "label": "Humble Beginnings",
      "description": "Complete your first map.",
      "howto": "Complete your first map."
    },
    {
      "id": 2,
      "imageId": 30,
      "cred": 20,
      "flags": 4,
      "label": "The Bas(e)ics",
      "description": "Build 20 tower bases.",
      "howto": "Build 20 tower bases."
    },
    {
      "id": 3,
      "imageId": 31,
      "cred": 20,
      "flags": 4,
      "label": "The Best Defense is Offense",
      "description": "Upgrade a tower to the max.",
      "howto": "Upgrade a tower to the max."
    },
    {
      "id": 4,
      "imageId": 32,
      "cred": 20,
      "flags": 6,
      "label": "Growing Stronger",
      "description": "Complete a map with a Feat of Strength enabled.",
      "howto": "Complete a map with a Feat of Strength enabled."
    },
    {
      "id": 5,
      "imageId": 33,
      "cred": 50,
      "flags": 2,
      "label": "Halfway Awesome",
      "description": "Reach Rank 10.",
      "howto": "Reach Rank 10."
    },
    {
      "id": 6,
      "imageId": 34,
      "cred": 50,
      "flags": 1,
      "label": "Hope Rides Alone",
      "description": "Complete Facility, Rocky Fields, Giant Trees and Swamp.",
      "howto": "Complete Facility, Rocky Fields, Giant Trees and Swamp."
    },
    {
      "id": 7,
      "imageId": 25,
      "cred": 50,
      "flags": 2,
      "label": "Full-time Ass-kicker",
      "description": "Reach rank 20.",
      "howto": "Reach rank 20."
    },
    {
      "id": 8,
      "imageId": 26,
      "cred": 25,
      "flags": 6,
      "label": "Hercules",
      "description": "Complete a map with 5 Feats of Strength enabled.",
      "howto": "Complete a map with 5 Feats of Strength enabled."
    },
    {
      "id": 9,
      "imageId": 35,
      "cred": 75,
      "flags": 1,
      "label": "Total Badass",
      "description": "Complete Facility, Rocky Fields, Giant Trees and Swamp with 5 Feats of Strength enabled.",
      "howto": "Complete Facility, Rocky Fields, Giant Trees and Swamp with 5 Feats of Strength enabled."
    },
    {
      "id": 10,
      "imageId": 27,
      "cred": 25,
      "flags": 6,
      "label": "Final Destination",
      "description": "Complete The End in a party of four.",
      "howto": "Complete The End in a party of four."
    },
    {
      "id": 11,
      "imageId": 36,
      "cred": 25,
      "flags": 6,
      "label": "Team Player",
      "description": "Complete one level with 5 Feats of Strength enabled in Co-op.",
      "howto": "Complete one level with 5 Feats of Strength enabled in Co-op."
    },
    {
      "id": 12,
      "imageId": 37,
      "cred": 20,
      "flags": 4,
      "label": "Game In A Game",
      "description": "Beat a Game In A Game.",
      "howto": "Beat a Game In A Game."
    },
    {
      "id": 14,
      "imageId": 38,
      "cred": 20,
      "flags": 6,
      "label": "Fiskeplaske",
      "description": "Complete Coastline.",
      "howto": "Complete Coastline."
    },
    {
      "id": 15,
      "imageId": 39,
      "cred": 20,
      "flags": 6,
      "label": "Pliskeblaske",
      "description": "Complete Coastline with 5 Feats of Strength enabled.",
      "howto": "Complete Coastline with 5 Feats of Strength enabled."
    },
    {
      "id": 16,
      "imageId": 44,
      "cred": 20,
      "flags": 6,
      "label": "Slumdog Medicine",
      "description": "Complete Brightholme.",
      "howto": "Complete Brightholme."
    },
    {
      "id": 17,
      "imageId": 43,
      "cred": 20,
      "flags": 6,
      "label": "We don't go to Brightholme",
      "description": "Complete Brightholme with 5 Feats of Strength enabled.",
      "howto": "Complete Brightholme with 5 Feats of Strength enabled."
    },
    {
      "id": 18,
      "imageId": 42,
      "cred": 20,
      "flags": 2,
      "label": "Above and Beyond",
      "description": "Reach rank 30.",
      "howto": "Reach rank 30."
    }
  ]
}