{
  "achievementsPossible": 21,
  "credPossible": 1000,
  "achievements": [
    {
      "id": 2,
      "imageId": 28,
      "cred": 30,
      "flags": 3,
      "label": "Scouts Form Up",
      "description": "Unlocked the Beagle Scout Costume",
      "howto": "Unlock the Beagle Scout Costume"
    },
    {
      "id": 3,
      "imageId": 29,
      "cred": 30,
      "flags": 3,
      "label": "To The Moon",
      "description": "Unlocked the Astronaut Costume",
      "howto": "Unlock the Astronaut Costume"
    },
    {
      "id": 4,
      "imageId": 30,
      "cred": 30,
      "flags": 3,
      "label": "Contact",
      "description": "Unlocked the Flying Ace Costume",
      "howto": "Unlock the Flying Ace Costume"
    },
    {
      "id": 5,
      "imageId": 31,
      "cred": 30,
      "flags": 3,
      "label": "Arm Wrestler",
      "description": "Unlocked the Masked Marvel Costume",
      "howto": "Unlock the Masked Marvel Costume"
    },
    {
      "id": 6,
      "imageId": 32,
      "cred": 30,
      "flags": 6,
      "label": "Home Again",
      "description": "Level finished",
      "howto": "Finish a level"
    },
    {
      "id": 7,
      "imageId": 33,
      "cred": 50,
      "flags": 6,
      "label": "Deep Dark Jungle",
      "description": "Completed all Peppermint Jungle levels",
      "howto": "Complete all Peppermint Jungle levels"
    },
    {
      "id": 8,
      "imageId": 34,
      "cred": 50,
      "flags": 6,
      "label": "Do Bunny Dance",
      "description": "Completed all Temple of Bunnies levels",
      "howto": "Complete all Temple of Bunnies levels"
    },
    {
      "id": 9,
      "imageId": 35,
      "cred": 50,
      "flags": 6,
      "label": "One Small Step",
      "description": "Completed all Lunar Surface levels",
      "howto": "Complete all Lunar Surface levels"
    },
    {
      "id": 11,
      "imageId": 36,
      "cred": 50,
      "flags": 6,
      "label": "Au revoir Red Baron",
      "description": "Completed all Skies of Paris levels",
      "howto": "Complete all Skies of Paris levels"
    },
    {
      "id": 12,
      "imageId": 37,
      "cred": 50,
      "flags": 6,
      "label": "Staggers Imagination",
      "description": "Completed all Parisian Underground levels",
      "howto": "Complete all Parisian Underground levels"
    },
    {
      "id": 13,
      "imageId": 38,
      "cred": 50,
      "flags": 6,
      "label": "Snoopy Come Home",
      "description": "Completed all Melody Chateau levels",
      "howto": "Complete all Melody Chateau levels"
    },
    {
      "id": 14,
      "imageId": 39,
      "cred": 35,
      "flags": 4,
      "label": "Jelly Beans",
      "description": "Collected all Jelly Beans in a single level",
      "howto": "Collect all Jelly Beans in a single level"
    },
    {
      "id": 16,
      "imageId": 40,
      "cred": 100,
      "flags": 4,
      "label": "Root Beer",
      "description": "Collected all kids objects",
      "howto": "Collect all kids objects"
    },
    {
      "id": 17,
      "imageId": 41,
      "cred": 35,
      "flags": 3,
      "label": "Joe Cool",
      "description": "Unlocked the Joe Cool Costume",
      "howto": "Unlock the Joe Cool Costume"
    },
    {
      "id": 18,
      "imageId": 42,
      "cred": 35,
      "flags": 3,
      "label": "World Famous Detective",
      "description": "Unlocked the Detective Costume",
      "howto": "Unlock the Detective Costume"
    },
    {
      "id": 19,
      "imageId": 43,
      "cred": 100,
      "flags": 4,
      "label": "Master of Disguise",
      "description": "Unlocked all Costumes",
      "howto": "Unlock all Costumes"
    },
    {
      "id": 20,
      "imageId": 44,
      "cred": 100,
      "flags": 1,
      "label": "Together Again",
      "description": "Found all the kids",
      "howto": "Complete the game"
    },
    {
      "id": 21,
      "imageId": 45,
      "cred": 35,
      "flags": 4,
      "label": "Chop Chop Chop",
      "description": "As normal Snoopy hovered for more than 5 seconds",
      "howto": "Hover as normal Snoopy for more than 5 seconds"
    },
    {
      "id": 22,
      "imageId": 46,
      "cred": 35,
      "flags": 4,
      "label": "Arf Arf Arf",
      "description": "Jumped on three enemies without touching the ground",
      "howto": "Jump on three enemies without touching the ground"
    },
    {
      "id": 23,
      "imageId": 47,
      "cred": 35,
      "flags": 4,
      "label": "Crash!",
      "description": "Broke through a wall as the Masked Marvel",
      "howto": "Break through a wall as the Masked Marvel"
    },
    {
      "id": 24,
      "imageId": 48,
      "cred": 40,
      "flags": 4,
      "label": "Dodge Balls",
      "description": "Defeated The Mask Boss without being hit",
      "howto": "Defeat The Mask Boss without being hit"
    }
  ]
}