{
  "achievementsPossible": 50,
  "credPossible": 1000,
  "achievements": [
    {
      "id": 141,
      "imageId": 7,
      "cred": 10,
      "flags": 6,
      "label": "Daddy's Home",
      "description": "Found your way back into the ruins of Rapture.",
      "howto": ""
    },
    {
      "id": 142,
      "imageId": 48,
      "cred": 20,
      "flags": 6,
      "label": "Protector",
      "description": "Defended yourself against Lamb's assault in the train station.",
      "howto": ""
    },
    {
      "id": 143,
      "imageId": 15,
      "cred": 20,
      "flags": 6,
      "label": "Sinclair’s Solution",
      "description": "Joined forces with Sinclair in Ryan Amusements.",
      "howto": ""
    },
    {
      "id": 144,
      "imageId": 14,
      "cred": 10,
      "flags": 6,
      "label": "Confronted Grace",
      "description": "Confronted Lamb’s lieutenant in Pauper’s Drop.",
      "howto": ""
    },
    {
      "id": 145,
      "imageId": 10,
      "cred": 20,
      "flags": 6,
      "label": "Defeated the Preacher",
      "description": "Defeated the Preacher.",
      "howto": ""
    },
    {
      "id": 146,
      "imageId": 44,
      "cred": 20,
      "flags": 6,
      "label": "Nose for News",
      "description": "Uncovered the secret of Dionysus Park.",
      "howto": ""
    },
    {
      "id": 147,
      "imageId": 45,
      "cred": 20,
      "flags": 6,
      "label": "Found Lamb's Hideout",
      "description": "Gained access to Lamb’s stronghold.",
      "howto": ""
    },
    {
      "id": 148,
      "imageId": 42,
      "cred": 50,
      "flags": 1,
      "label": "Reunion",
      "description": "Reunited with your original Little Sister.",
      "howto": ""
    },
    {
      "id": 149,
      "imageId": 19,
      "cred": 25,
      "flags": 1,
      "label": "Heading to the Surface",
      "description": "Headed to the surface on the side of Sinclair's escape pod.",
      "howto": ""
    },
    {
      "id": 150,
      "imageId": 13,
      "cred": 100,
      "flags": 1,
      "label": "Escape",
      "description": "Escaped Rapture.",
      "howto": ""
    },
    {
      "id": 151,
      "imageId": 50,
      "cred": 5,
      "flags": 2,
      "label": "Bought a Slot",
      "description": "Bought one Plasmid or Tonic Slot at a Gatherer's Garden.",
      "howto": "Buy one Plasmid or Tonic Slot at a Gatherer's Garden."
    },
    {
      "id": 152,
      "imageId": 25,
      "cred": 10,
      "flags": 2,
      "label": "Max Plasmid Slots",
      "description": "Fully upgraded to the maximum number of Plasmid Slots.",
      "howto": "Fully upgrade to the maximum number of Plasmid Slots."
    },
    {
      "id": 154,
      "imageId": 47,
      "cred": 10,
      "flags": 2,
      "label": "Upgraded a Weapon",
      "description": "Upgraded a weapon at a Power to the People Station.",
      "howto": "Upgrade any weapon at a Power to the People Station."
    },
    {
      "id": 155,
      "imageId": 24,
      "cred": 10,
      "flags": 2,
      "label": "Fully Upgraded a Weapon",
      "description": "Installed the third upgrade to a weapon.",
      "howto": "Install the third and final upgrade to any of your weapons."
    },
    {
      "id": 156,
      "imageId": 49,
      "cred": 20,
      "flags": 2,
      "label": "All Weapon Upgrades",
      "description": "Found every Power to the People weapon upgrade in the game.",
      "howto": "Find all 14 Power to the People weapon upgrades in the game."
    },
    {
      "id": 157,
      "imageId": 12,
      "cred": 5,
      "flags": 3,
      "label": "Distance Hacker",
      "description": "Used the Hack Tool to hack an object at a distance.",
      "howto": "Use the Hack Tool to hack an object at a distance."
    },
    {
      "id": 158,
      "imageId": 39,
      "cred": 20,
      "flags": 4,
      "label": "Prolific Hacker",
      "description": "Hacked one of each kind of machine.",
      "howto": "Successfully hack at least one of every type of machine."
    },
    {
      "id": 159,
      "imageId": 51,
      "cred": 20,
      "flags": 4,
      "label": "Master Hacker",
      "description": "Hacked 30 machines at a distance with the Hack Tool.",
      "howto": "Hack 30 machines at a distance with the Hack Tool."
    },
    {
      "id": 160,
      "imageId": 40,
      "cred": 5,
      "flags": 1,
      "label": "First Research",
      "description": "Researched a Splicer with the Research Camera.",
      "howto": "Research a Splicer with the Research Camera."
    },
    {
      "id": 161,
      "imageId": 38,
      "cred": 20,
      "flags": 4,
      "label": "One Research Track",
      "description": "Maxed out one Research Track.",
      "howto": "Max out one Research Track."
    },
    {
      "id": 162,
      "imageId": 4,
      "cred": 20,
      "flags": 4,
      "label": "Research Master",
      "description": "Completed all research on every subject in Rapture.",
      "howto": "Max out research on all 9 research subjects."
    },
    {
      "id": 163,
      "imageId": 16,
      "cred": 25,
      "flags": 4,
      "label": "Grand Daddy",
      "description": "Defeated 3 Big Daddies without dying during the fight.",
      "howto": "Defeat 3 Big Daddies without dying during the fight."
    },
    {
      "id": 164,
      "imageId": 1,
      "cred": 5,
      "flags": 3,
      "label": "Adopted a Little Sister",
      "description": "Adopted a new Little Sister for the first time.",
      "howto": "Adopt a new Little Sister for the first time."
    },
    {
      "id": 165,
      "imageId": 21,
      "cred": 30,
      "flags": 4,
      "label": "Master Gatherer",
      "description": "Gathered 600 ADAM with Little Sisters.",
      "howto": "Gather 600 ADAM with Little Sisters."
    },
    {
      "id": 166,
      "imageId": 22,
      "cred": 10,
      "flags": 2,
      "label": "Fully Upgraded a Plasmid",
      "description": "Fully upgraded one Plasmid to the Level 3 version.",
      "howto": "Fully upgrade one of your Plasmids to the level 3 version at a Gatherer's Garden."
    },
    {
      "id": 167,
      "imageId": 2,
      "cred": 20,
      "flags": 3,
      "label": "All Plasmids",
      "description": "Found or purchased all 11 basic Plasmid types.",
      "howto": "Find or purchase all 11 basic Plasmid types."
    },
    {
      "id": 168,
      "imageId": 11,
      "cred": 20,
      "flags": 4,
      "label": "Unbreakable",
      "description": "Defended yourself against the Big Sister without dying.",
      "howto": "Defend yourself against the Big Sister without dying."
    },
    {
      "id": 170,
      "imageId": 20,
      "cred": 15,
      "flags": 1,
      "label": "Look at You, Hacker",
      "description": "Killed 50 enemies using only hacked Security.",
      "howto": "Kill 50 enemies using only hacked Security."
    },
    {
      "id": 171,
      "imageId": 46,
      "cred": 15,
      "flags": 4,
      "label": "Trap Master",
      "description": "Killed 30 enemies using only Traps.",
      "howto": "Kill 30 enemies using only Traps."
    },
    {
      "id": 172,
      "imageId": 17,
      "cred": 5,
      "flags": 4,
      "label": "Counterattack",
      "description": "Killed an enemy with its own projectile.",
      "howto": "Kill an enemy with its own projectile"
    },
    {
      "id": 173,
      "imageId": 23,
      "cred": 15,
      "flags": 4,
      "label": "Master Protector",
      "description": "Got through a Gather with no damage and no one getting to the Little Sister.",
      "howto": "Get through a Gather with no damage and no one getting to the Little Sister."
    },
    {
      "id": 174,
      "imageId": 6,
      "cred": 15,
      "flags": 4,
      "label": "Big Spender",
      "description": "Spent 2000 dollars at Vending Machines.",
      "howto": "Spend 2000 dollars at Vending Machines."
    },
    {
      "id": 175,
      "imageId": 8,
      "cred": 50,
      "flags": 7,
      "label": "Dealt with Every Little Sister",
      "description": "Dealt with every Little Sister.",
      "howto": "Either Harvest or Save every Little Sister in the game."
    },
    {
      "id": 176,
      "imageId": 9,
      "cred": 30,
      "flags": 1,
      "label": "Against All Odds",
      "description": "Finished the game on the hardest difficulty level.",
      "howto": "Finish the game on the hardest difficulty level."
    },
    {
      "id": 177,
      "imageId": 43,
      "cred": 25,
      "flags": 1,
      "label": "Savior",
      "description": "Saved every Little Sister and spared Grace, Stanley and Gil.",
      "howto": "Save every Little Sister and choice character."
    },
    {
      "id": 178,
      "imageId": 5,
      "cred": 25,
      "flags": 1,
      "label": "Big Brass Balls",
      "description": "Finished the game without using Vita-Chambers.",
      "howto": "Finish the game without using Vita-Chambers."
    },
    {
      "id": 181,
      "imageId": 41,
      "cred": 40,
      "flags": 1,
      "label": "Rapture Historian",
      "description": "Found 100 audio diaries.",
      "howto": "Find 100 audio diaries."
    },
    {
      "id": 182,
      "imageId": 36,
      "cred": 10,
      "flags": 4,
      "label": "Unnatural Selection",
      "description": "Scored your first kill in a non-private match.",
      "howto": "Score your first kill in a non-private match.\r\n"
    },
    {
      "id": 183,
      "imageId": 37,
      "cred": 10,
      "flags": 4,
      "label": "Welcome to Rapture",
      "description": "Completed your first non-private match.",
      "howto": "Complete your first non-private match."
    },
    {
      "id": 184,
      "imageId": 26,
      "cred": 10,
      "flags": 4,
      "label": "Disgusting Frankenstein",
      "description": "Became a Big Daddy for the first time in a non-private match.",
      "howto": "Become a Big Daddy for the first time in a non-private match.\r\n"
    },
    {
      "id": 185,
      "imageId": 29,
      "cred": 20,
      "flags": 1,
      "label": "\"Mr. Bubbles-- No!\"",
      "description": "Took down your first Big Daddy in a non-private match.",
      "howto": "Take down your first Big Daddy in a non-private match."
    },
    {
      "id": 186,
      "imageId": 28,
      "cred": 20,
      "flags": 4,
      "label": "Mother Goose",
      "description": "Saved your first Little Sister in a non-private match.",
      "howto": "Save your first Little Sister in a non-private match."
    },
    {
      "id": 188,
      "imageId": 34,
      "cred": 10,
      "flags": 4,
      "label": "Two-Bit Heroics",
      "description": "Completed your first trial in a non-private match.",
      "howto": "Complete your first trial in a non-private match."
    },
    {
      "id": 189,
      "imageId": 30,
      "cred": 10,
      "flags": 2,
      "label": "Parasite",
      "description": "Achieved Rank 10.",
      "howto": "Achieve Rank 10."
    },
    {
      "id": 190,
      "imageId": 27,
      "cred": 20,
      "flags": 2,
      "label": "Little Moth",
      "description": "Achieved Rank 20.",
      "howto": "Achieve Rank 20."
    },
    {
      "id": 191,
      "imageId": 33,
      "cred": 20,
      "flags": 2,
      "label": "Skin Job",
      "description": "Achieved Rank 30.",
      "howto": "Achieve Rank 30."
    },
    {
      "id": 192,
      "imageId": 52,
      "cred": 50,
      "flags": 4,
      "label": "Choose the Impossible",
      "description": "Achieved Rank 40.",
      "howto": "Achieve Rank 40."
    },
    {
      "id": 193,
      "imageId": 35,
      "cred": 5,
      "flags": 7,
      "label": "9-Irony",
      "description": "Paid your respects to the founder of Rapture.",
      "howto": ""
    },
    {
      "id": 194,
      "imageId": 32,
      "cred": 20,
      "flags": 4,
      "label": "Proving Grounds",
      "description": "Won your first non-private match.",
      "howto": "Win your first non-private match."
    },
    {
      "id": 196,
      "imageId": 3,
      "cred": 10,
      "flags": 1,
      "label": "Man About Town",
      "description": "Played at least one non-private match on each multiplayer map.",
      "howto": "Play at least one non-private match on each multiplayer map."
    }
  ]
}