{
  "avatarAssetsPossible": 4,
  "maleAvatarAssetsPossible": 2,
  "femaleAvatarAssetsPossible": 2,
  "avatarAssets": [
    {
      "id": "00000008-0001-e1d1-c81d-9ab558410822",
      "imageId": 15,
      "subcategory": 0,
      "unknown": 0,
      "isMale": true,
      "isFemale": false,
      "isUnisex": false,
      "label": "Red Darwinian T-Shirt",
      "description": "Red is better than Green anyway!",
      "howto": "Win a game of Multiwinia"
    },
    {
      "id": "00000008-0001-b142-c131-d46858410822",
      "imageId": 16,
      "subcategory": 0,
      "unknown": 2015221016,
      "isMale": false,
      "isFemale": true,
      "isUnisex": false,
      "label": "Red Darwinian T-Shirt",
      "description": "Red is better than Green anyway!",
      "howto": "Win a game of Multiwinia"
    },
    {
      "id": "00000008-0002-b141-c131-d46858410822",
      "imageId": 17,
      "subcategory": 0,
      "unknown": 2015221016,
      "isMale": true,
      "isFemale": false,
      "isUnisex": false,
      "label": "Squadie T-Shirt",
      "description": "Show your Squadie pride!",
      "howto": "Complete the Launchpad level"
    },
    {
      "id": "00000008-0002-4112-c358-28cf58410822",
      "imageId": 18,
      "subcategory": 0,
      "unknown": 2015221016,
      "isMale": false,
      "isFemale": true,
      "isUnisex": false,
      "label": "Squadie T-Shirt",
      "description": "Show your Squadie pride!",
      "howto": "Complete the Launchpad level"
    }
  ]
}