{
  "achievementsPossible": 44,
  "credPossible": 1000,
  "achievements": [
    {
      "id": 2,
      "imageId": 54,
      "cred": 50,
      "flags": 1,
      "label": "Marathon Man",
      "description": "Run 42,195 meters",
      "howto": "Run 42,195 meters"
    },
    {
      "id": 3,
      "imageId": 55,
      "cred": 10,
      "flags": 1,
      "label": "Breakout",
      "description": "Smash 25 Breakable Walls",
      "howto": "Smash 25 Breakable Walls"
    },
    {
      "id": 4,
      "imageId": 56,
      "cred": 20,
      "flags": 1,
      "label": "Wrecking Crew",
      "description": "Smash 75 Breakable Walls",
      "howto": "Smash 75 Breakable Walls"
    },
    {
      "id": 5,
      "imageId": 57,
      "cred": 30,
      "flags": 1,
      "label": "Smash & Grab",
      "description": "Smash 150 Breakable Walls",
      "howto": "Smash 150 Breakable Walls"
    },
    {
      "id": 7,
      "imageId": 58,
      "cred": 10,
      "flags": 1,
      "label": "Leapfrog",
      "description": "Leap over 25 Jumpable Walls",
      "howto": "Leap over 25 Jumpable Walls"
    },
    {
      "id": 8,
      "imageId": 59,
      "cred": 20,
      "flags": 1,
      "label": "Jump! Jump!",
      "description": "Leap over 75 Jumpable Walls",
      "howto": "Leap over 75 Jumpable Walls"
    },
    {
      "id": 9,
      "imageId": 60,
      "cred": 30,
      "flags": 1,
      "label": "Spring Shoes",
      "description": "Leap over 150 Jumpable Walls",
      "howto": "Leap over 150 Jumpable Walls"
    },
    {
      "id": 10,
      "imageId": 61,
      "cred": 10,
      "flags": 1,
      "label": "Fastball Special",
      "description": "Detonate 25 Explosive Walls with a projectile",
      "howto": "Detonate 25 Explosive Walls with a projectile"
    },
    {
      "id": 11,
      "imageId": 62,
      "cred": 20,
      "flags": 1,
      "label": "Sharpshooter",
      "description": "Detonate 75 Explosive Walls with a projectile",
      "howto": "Detonate 75 Explosive Walls with a projectile"
    },
    {
      "id": 12,
      "imageId": 63,
      "cred": 30,
      "flags": 1,
      "label": "Bullseye!",
      "description": "Detonate 150 Explosive Walls with a projectile",
      "howto": "Detonate 150 Explosive Walls with a projectile"
    },
    {
      "id": 13,
      "imageId": 64,
      "cred": 10,
      "flags": 1,
      "label": "Long Jump",
      "description": "Jump over 20 pits",
      "howto": "Jump over 20 pits"
    },
    {
      "id": 14,
      "imageId": 65,
      "cred": 30,
      "flags": 3,
      "label": "More Power!",
      "description": "Collect 1,000 Omnitrix Energy Orbs",
      "howto": "Collect 1,000 Omnitrix Energy Orbs"
    },
    {
      "id": 15,
      "imageId": 66,
      "cred": 30,
      "flags": 3,
      "label": "You Break it, You Bought it!",
      "description": "Break 100 Floating Energy Containers",
      "howto": "Break 100 Floating Energy Containers"
    },
    {
      "id": 16,
      "imageId": 67,
      "cred": 10,
      "flags": 3,
      "label": "Learned Scholar",
      "description": "Complete the Tutorial Level",
      "howto": "Complete the Tutorial Level"
    },
    {
      "id": 17,
      "imageId": 68,
      "cred": 30,
      "flags": 3,
      "label": "Lack of Communication",
      "description": "Complete Level 1",
      "howto": "Complete Level 1"
    },
    {
      "id": 18,
      "imageId": 69,
      "cred": 30,
      "flags": 3,
      "label": "Incursean Incursion",
      "description": "Complete Level 2",
      "howto": "Complete Level 2"
    },
    {
      "id": 19,
      "imageId": 70,
      "cred": 30,
      "flags": 3,
      "label": "New Kid on the Block",
      "description": "Complete Level 3",
      "howto": "Complete Level 3"
    },
    {
      "id": 20,
      "imageId": 71,
      "cred": 30,
      "flags": 2,
      "label": "Underground Scene",
      "description": "Complete Level 4",
      "howto": "Complete Level 4"
    },
    {
      "id": 21,
      "imageId": 72,
      "cred": 30,
      "flags": 2,
      "label": "Infiltrate Exterminate",
      "description": "Complete Level 5",
      "howto": "Complete Level 5"
    },
    {
      "id": 24,
      "imageId": 73,
      "cred": 30,
      "flags": 2,
      "label": "Outta There!",
      "description": "Complete Level 6",
      "howto": "Complete Level 6"
    },
    {
      "id": 25,
      "imageId": 74,
      "cred": 50,
      "flags": 2,
      "label": "All In a Day's Work",
      "description": "Complete the game",
      "howto": "Complete the game"
    },
    {
      "id": 26,
      "imageId": 75,
      "cred": 25,
      "flags": 4,
      "label": "Check Out These Pythons",
      "description": "Collect both of Four Arm's Upgrade Tokens in Single Player",
      "howto": "Collect both of Four Arm's Upgrade Tokens in Single Player"
    },
    {
      "id": 27,
      "imageId": 76,
      "cred": 25,
      "flags": 4,
      "label": "You're On Fire!",
      "description": "Collect both of Swampfire's Upgrade Tokens in Single Player",
      "howto": "Collect both of Swampfire's Upgrade Tokens in Single Player"
    },
    {
      "id": 28,
      "imageId": 77,
      "cred": 25,
      "flags": 4,
      "label": "How I Roll",
      "description": "Collect both of Cannonbolt's Upgrade Tokens in Single Player",
      "howto": "Collect both of Cannonbolt's Upgrade Tokens in Single Player"
    },
    {
      "id": 29,
      "imageId": 78,
      "cred": 25,
      "flags": 4,
      "label": "Super-Chirp",
      "description": "Collect both of Crashhopper's Upgrade Tokens in Single Player",
      "howto": "Collect both of Crashhopper's Upgrade Tokens in Single Player"
    },
    {
      "id": 30,
      "imageId": 79,
      "cred": 25,
      "flags": 4,
      "label": "Speedy Recovery",
      "description": "Collect both of XLR8's Upgrade Tokens in Single Player",
      "howto": "Collect both of XLR8's Upgrade Tokens in Single Player"
    },
    {
      "id": 31,
      "imageId": 80,
      "cred": 25,
      "flags": 4,
      "label": "I'm Cool Like That",
      "description": "Collect both of Big Chill's Upgrade Tokens in Single Player",
      "howto": "Collect both of Big Chill's Upgrade Tokens in Single Player"
    },
    {
      "id": 32,
      "imageId": 81,
      "cred": 25,
      "flags": 4,
      "label": "Tastes Like Chicken",
      "description": "Collect both of Bullfrag's Upgrade Tokens in Single Player",
      "howto": "Collect both of Bullfrag's Upgrade Tokens in Single Player"
    },
    {
      "id": 33,
      "imageId": 82,
      "cred": 25,
      "flags": 4,
      "label": "Block Party",
      "description": "Collect both of Bloxx's Upgrade Tokens in Single Player",
      "howto": "Collect both of Bloxx's Upgrade Tokens in Single Player"
    },
    {
      "id": 34,
      "imageId": 83,
      "cred": 25,
      "flags": 4,
      "label": "Wing and a Prayer",
      "description": "Collect both of Astrodactyl's Upgrade Tokens in Single Player",
      "howto": "Collect both of Astrodactyl's Upgrade Tokens in Single Player"
    },
    {
      "id": 35,
      "imageId": 84,
      "cred": 25,
      "flags": 4,
      "label": "Newtonian Alien",
      "description": "Collect both of Gravattack's Upgrade Tokens in Single Player",
      "howto": "Collect both of Gravattack's Upgrade Tokens in Single Player"
    },
    {
      "id": 36,
      "imageId": 85,
      "cred": 15,
      "flags": 4,
      "label": "Not Just Another Toadie",
      "description": "Defeat 25 Toad Battlers",
      "howto": "Defeat 25 Toad Battlers"
    },
    {
      "id": 37,
      "imageId": 86,
      "cred": 15,
      "flags": 4,
      "label": "Flame Retardant",
      "description": "Defeat 25 Fire Infantry",
      "howto": "Defeat 25 Fire Infantry"
    },
    {
      "id": 38,
      "imageId": 87,
      "cred": 15,
      "flags": 4,
      "label": "Lillypad Shootout",
      "description": "Defeat 25 Toad Assault Mercs",
      "howto": "Defeat 25 Toad Assault Mercs"
    },
    {
      "id": 39,
      "imageId": 88,
      "cred": 15,
      "flags": 4,
      "label": "Kill You Last",
      "description": "Defeat 25 Commandos",
      "howto": "Defeat 25 Commandos"
    },
    {
      "id": 40,
      "imageId": 89,
      "cred": 15,
      "flags": 4,
      "label": "Frozen Assets",
      "description": "Defeat 25 Ice Infantry",
      "howto": "Defeat 25 Ice Infantry"
    },
    {
      "id": 41,
      "imageId": 90,
      "cred": 15,
      "flags": 4,
      "label": "Do You Even Lift?",
      "description": "Defeat 25 Powerlifters",
      "howto": "Defeat 25 Powerlifters"
    },
    {
      "id": 42,
      "imageId": 91,
      "cred": 15,
      "flags": 4,
      "label": "Tank Spanker",
      "description": "Defeat 25 Toad Tank Mechs",
      "howto": "Defeat 25 Toad Tank Mechs"
    },
    {
      "id": 43,
      "imageId": 92,
      "cred": 15,
      "flags": 4,
      "label": "Bad Case of Gas",
      "description": "Defeat 25 Gas Infantry",
      "howto": "Defeat 25 Gas Infantry"
    },
    {
      "id": 44,
      "imageId": 93,
      "cred": 20,
      "flags": 4,
      "label": "Challenge Accepted",
      "description": "Collect all the Arena Challenge Tokens",
      "howto": "Collect all the Arena Challenge Tokens"
    },
    {
      "id": 45,
      "imageId": 94,
      "cred": 30,
      "flags": 4,
      "label": "Can't We All Just Get Along?",
      "description": "Defeat all Arena Challenges",
      "howto": "Defeat all Arena Challenges"
    },
    {
      "id": 46,
      "imageId": 95,
      "cred": 5,
      "flags": 4,
      "label": "Return To Sender",
      "description": "Use the \"Return to Azmuth\" option in the Pause Menu",
      "howto": "Use the \"Return to Azmuth\" option in the Pause Menu"
    },
    {
      "id": 47,
      "imageId": 96,
      "cred": 15,
      "flags": 4,
      "label": "I'm Not Dead Yet!",
      "description": "Change from Ben back into an Alien Form without dying",
      "howto": "Change from Ben back into an Alien Form without dying"
    },
    {
      "id": 48,
      "imageId": 97,
      "cred": 20,
      "flags": 4,
      "label": "Hero",
      "description": "Complete the game on Hero Difficulty",
      "howto": "Complete the game on Hero Difficulty"
    }
  ]
}