{
  "achievementsPossible": 46,
  "credPossible": 1000,
  "achievements": [
    {
      "id": 1,
      "imageId": 70,
      "cred": 10,
      "flags": 1,
      "label": "Minute Man",
      "description": "End the 1st Game Show mode on Easy difficulty",
      "howto": "End the 1st Game Show mode on Easy difficulty"
    },
    {
      "id": 2,
      "imageId": 71,
      "cred": 20,
      "flags": 1,
      "label": "Returning Champion",
      "description": "End the 2nd Show mode on Easy difficulty",
      "howto": "End the 2nd Show mode on Easy difficulty"
    },
    {
      "id": 3,
      "imageId": 72,
      "cred": 30,
      "flags": 1,
      "label": "Two-Time Returning Champion",
      "description": "End the 3rd Show mode on Easy difficulty",
      "howto": "End the 3rd Show mode on Easy difficulty"
    },
    {
      "id": 4,
      "imageId": 73,
      "cred": 40,
      "flags": 1,
      "label": "It's a Three-peat!",
      "description": "End the 4th Show mode on Easy difficulty",
      "howto": "End the 4th Show mode on Easy difficulty"
    },
    {
      "id": 5,
      "imageId": 74,
      "cred": 15,
      "flags": 1,
      "label": "1 Hard Minute",
      "description": "End the 1st Show mode on Hard difficulty",
      "howto": "End the 1st Show mode on Hard difficulty"
    },
    {
      "id": 6,
      "imageId": 75,
      "cred": 30,
      "flags": 1,
      "label": "Time On My Side",
      "description": "End the 2nd Show mode on Hard difficulty",
      "howto": "End the 2nd Show mode on Hard difficulty"
    },
    {
      "id": 7,
      "imageId": 76,
      "cred": 45,
      "flags": 1,
      "label": "Fortune Favors The Bold",
      "description": "End the 3rd Show mode on Hard difficulty",
      "howto": "End the 3rd Show mode on Hard difficulty"
    },
    {
      "id": 8,
      "imageId": 78,
      "cred": 60,
      "flags": 1,
      "label": "Total Domination",
      "description": "End the 4th Show mode on Hard difficulty",
      "howto": "End the 4th Show mode on Hard difficulty"
    },
    {
      "id": 9,
      "imageId": 31,
      "cred": 30,
      "flags": 1,
      "label": "Ulti-minute",
      "description": "End a Show without losing a single life",
      "howto": "End a Show without losing a single life"
    },
    {
      "id": 10,
      "imageId": 102,
      "cred": 30,
      "flags": 1,
      "label": "Survive It To Win It",
      "description": "Finish all 20 challenges in Survival mode",
      "howto": "Finish all 20 challenges in Survival mode"
    },
    {
      "id": 11,
      "imageId": 33,
      "cred": 10,
      "flags": 1,
      "label": "Golden Child",
      "description": "Earn 1 gold medal in Time Trial mode",
      "howto": "Earn 1 gold medal in Time Trial mode"
    },
    {
      "id": 12,
      "imageId": 34,
      "cred": 20,
      "flags": 1,
      "label": "Gold Medal Amateur",
      "description": "Earn 5 gold medals in Time Trial mode",
      "howto": "Earn 5 gold medals in Time Trial mode"
    },
    {
      "id": 13,
      "imageId": 35,
      "cred": 40,
      "flags": 1,
      "label": "Gold Medal Apprentice",
      "description": "Earn 10 gold medals in Time Trial mode",
      "howto": "Earn 10 gold medals in Time Trial mode"
    },
    {
      "id": 14,
      "imageId": 69,
      "cred": 50,
      "flags": 1,
      "label": "Gold Medal Master",
      "description": "Earn 15 gold medals in Time Trial mode",
      "howto": "Earn 15 gold medals in Time Trial mode"
    },
    {
      "id": 15,
      "imageId": 37,
      "cred": 60,
      "flags": 1,
      "label": "Gold Medal Wizard",
      "description": "Earn 20 gold medals in Time Trial mode",
      "howto": "Earn 20 gold medals in Time Trial mode"
    },
    {
      "id": 16,
      "imageId": 38,
      "cred": 25,
      "flags": 1,
      "label": "Wheels on Fire!",
      "description": "Finish a Cart Race in time with all Items",
      "howto": "Finish a Cart Race in time with all Items"
    },
    {
      "id": 17,
      "imageId": 104,
      "cred": 10,
      "flags": 1,
      "label": "My First Win",
      "description": "Successfully beat a challenge in Show mode",
      "howto": "Successfully beat a challenge in Show mode"
    },
    {
      "id": 18,
      "imageId": 40,
      "cred": 10,
      "flags": 1,
      "label": "Physical Trainer",
      "description": "Play all challenges in Training mode",
      "howto": "Play all challenges in Training mode"
    },
    {
      "id": 19,
      "imageId": 41,
      "cred": 10,
      "flags": 1,
      "label": "Fire in the Hole!",
      "description": "During an event, throw an object into the audience",
      "howto": "During an event, throw an object into the audience"
    },
    {
      "id": 20,
      "imageId": 42,
      "cred": 10,
      "flags": 1,
      "label": "Million Dollar Man",
      "description": "Win $ 1,000,000",
      "howto": "Win $ 1,000,000"
    },
    {
      "id": 21,
      "imageId": 79,
      "cred": 20,
      "flags": 1,
      "label": "Another Million Richer!",
      "description": "Win $ 2,000,000",
      "howto": "Win $ 2,000,000"
    },
    {
      "id": 22,
      "imageId": 44,
      "cred": 30,
      "flags": 1,
      "label": "I Can Quit My Job!",
      "description": "Win $ 4,000,000",
      "howto": "Win $ 4,000,000"
    },
    {
      "id": 23,
      "imageId": 45,
      "cred": 15,
      "flags": 1,
      "label": "Hawk It To Win It",
      "description": "Win all advertisement challenges in Show mode",
      "howto": "Win all advertisement challenges in Show mode"
    },
    {
      "id": 25,
      "imageId": 47,
      "cred": 10,
      "flags": 1,
      "label": "Mile It to Win It",
      "description": "Run for 1 mile",
      "howto": "Run for 1 mile"
    },
    {
      "id": 26,
      "imageId": 101,
      "cred": 60,
      "flags": 1,
      "label": "All-Time Champion",
      "description": "Won every show on Easy & Hard modes",
      "howto": "Won every show on Easy & Hard modes"
    },
    {
      "id": 27,
      "imageId": 81,
      "cred": 15,
      "flags": 1,
      "label": "What A Catch!",
      "description": "Accumulate over 100 points in \"Bucket Head\"",
      "howto": "Accumulate over 100 points in \"Bucket Head\""
    },
    {
      "id": 28,
      "imageId": 82,
      "cred": 15,
      "flags": 1,
      "label": "Better Than A Dry Ball!",
      "description": "Accumulate over 200 points in \"Wet Ball\"",
      "howto": "Accumulate over 200 points in \"Wet Ball\""
    },
    {
      "id": 29,
      "imageId": 83,
      "cred": 15,
      "flags": 1,
      "label": "Super Coin Dunker",
      "description": "Accumulate over 50 points in \"Super Coin\"",
      "howto": "Accumulate over 50 points in \"Super Coin\""
    },
    {
      "id": 30,
      "imageId": 84,
      "cred": 15,
      "flags": 1,
      "label": "I'm Hangin' Pretty Well",
      "description": "Accumulate over 100 points in \"How's It Hanging\"",
      "howto": "Accumulate over 100 points in \"How's It Hanging\""
    },
    {
      "id": 31,
      "imageId": 85,
      "cred": 15,
      "flags": 1,
      "label": "Egg Roller",
      "description": "Accumulate over 100 points in \"Egg Roll\"",
      "howto": "Accumulate over 100 points in \"Egg Roll\""
    },
    {
      "id": 32,
      "imageId": 86,
      "cred": 15,
      "flags": 1,
      "label": "Rubber Bandit",
      "description": "Accumulate over 200 points in \"Rapid Fire\"",
      "howto": "Accumulate over 200 points in \"Rapid Fire\""
    },
    {
      "id": 33,
      "imageId": 87,
      "cred": 15,
      "flags": 1,
      "label": "Card Ninja Master",
      "description": "Accumulate over 100 points in \"Card Ninja\"",
      "howto": "Accumulate over 100 points in \"Card Ninja\""
    },
    {
      "id": 34,
      "imageId": 88,
      "cred": 15,
      "flags": 1,
      "label": "Full of Hot Air",
      "description": "Accumulate over 100 points in \"This Blows\"",
      "howto": "Accumulate over 100 points in \"This Blows\""
    },
    {
      "id": 35,
      "imageId": 89,
      "cred": 15,
      "flags": 1,
      "label": "Racquet-eer",
      "description": "Accumulate over 100 points in \"What a Racquet\"",
      "howto": "Accumulate over 100 points in \"What a Racquet\""
    },
    {
      "id": 36,
      "imageId": 90,
      "cred": 15,
      "flags": 1,
      "label": "I Cry At the Movies",
      "description": "Accumulate over 100 points in \"Hanky Panky\"",
      "howto": "Accumulate over 100 points in \"Hanky Panky\""
    },
    {
      "id": 37,
      "imageId": 91,
      "cred": 15,
      "flags": 1,
      "label": "Nervous Doesn't Describe It",
      "description": "Accumulate over 2000 points in \"Nervous Nelly\"",
      "howto": "Accumulate over 2000 points in \"Nervous Nelly\""
    },
    {
      "id": 38,
      "imageId": 92,
      "cred": 15,
      "flags": 1,
      "label": "Went The Distance",
      "description": "Accumulate over 100 points in \"Go The Distance\"",
      "howto": "Accumulate over 100 points in \"Go The Distance\""
    },
    {
      "id": 39,
      "imageId": 93,
      "cred": 15,
      "flags": 1,
      "label": "Marshmallow Tosser",
      "description": "Accumulate over 100 points in \"Ka-Broom\"",
      "howto": "Accumulate over 100 points in \"Ka-Broom\""
    },
    {
      "id": 40,
      "imageId": 94,
      "cred": 15,
      "flags": 1,
      "label": "Broom-ski Baller",
      "description": "Accumulate over 100 points in \"Broom-ski Ball\"",
      "howto": "Accumulate over 100 points in \"Broom-ski Ball\""
    },
    {
      "id": 41,
      "imageId": 95,
      "cred": 15,
      "flags": 1,
      "label": "Lone Wolf",
      "description": "Accumulate over 100 points in \"Loner\"",
      "howto": "Accumulate over 100 points in \"Loner\""
    },
    {
      "id": 42,
      "imageId": 96,
      "cred": 15,
      "flags": 1,
      "label": "Mad For Marbles",
      "description": "Accumulate over 100 points in \"Sticky Ball\"",
      "howto": "Accumulate over 100 points in \"Sticky Ball\""
    },
    {
      "id": 43,
      "imageId": 97,
      "cred": 15,
      "flags": 1,
      "label": "Schoolyard Master",
      "description": "Accumulate over 50 points in \"Ping Tac Toe\"",
      "howto": "Accumulate over 50 points in \"Ping Tac Toe\""
    },
    {
      "id": 44,
      "imageId": 98,
      "cred": 15,
      "flags": 1,
      "label": "Foot Missile",
      "description": "Accumulate over 100 points in \"Shoe Fly Shoe\"",
      "howto": "Accumulate over 100 points in \"Shoe Fly Shoe\""
    },
    {
      "id": 45,
      "imageId": 99,
      "cred": 15,
      "flags": 1,
      "label": "That Was Tense",
      "description": "Accumulate over 100 points in \"High Strung\"",
      "howto": "Accumulate over 100 points in \"High Strung\""
    },
    {
      "id": 46,
      "imageId": 100,
      "cred": 15,
      "flags": 1,
      "label": "Knock Out!",
      "description": "Accumulate over 100 points in \"Punch Your Lights Out\"",
      "howto": "Accumulate over 100 points in \"Punch Your Lights Out\""
    },
    {
      "id": 47,
      "imageId": 103,
      "cred": 10,
      "flags": 1,
      "label": "Attention Shoppers!",
      "description": "Finish a Cart Race with 2 customers in your cart",
      "howto": "Finish a Cart Race with 2 customers in your cart"
    }
  ]
}