{
  "achievementsPossible": 50,
  "credPossible": 1000,
  "achievements": [
    {
      "id": 1,
      "imageId": 1,
      "cred": 50,
      "flags": 1,
      "label": "愛と正義の完璧主義者",
      "description": "ROBOTICS;NOTESをやりつくした",
      "howto": "ROBOTICS;NOTESをやりつくす"
    },
    {
      "id": 2,
      "imageId": 2,
      "cred": 5,
      "flags": 6,
      "label": "おじゃりもうせ！",
      "description": "ROBOTICS;NOTESを開始した",
      "howto": "ROBOTICS;NOTESを開始する"
    },
    {
      "id": 3,
      "imageId": 3,
      "cred": 10,
      "flags": 6,
      "label": "夢と希望とロマンがあってこそ",
      "description": "PHASE01を開始した",
      "howto": "PHASE01を開始する"
    },
    {
      "id": 4,
      "imageId": 4,
      "cred": 10,
      "flags": 6,
      "label": "一緒に、正義の巨大ロボを造ろう",
      "description": "PHASE02を開始した",
      "howto": "PHASE02を開始する"
    },
    {
      "id": 5,
      "imageId": 5,
      "cred": 10,
      "flags": 6,
      "label": "夢が終わっちゃったら、寂しい",
      "description": "PHASE03を開始した",
      "howto": "PHASE03を開始する"
    },
    {
      "id": 6,
      "imageId": 6,
      "cred": 10,
      "flags": 6,
      "label": "血と汗と涙の結晶ですから",
      "description": "PHASE04を開始した",
      "howto": "PHASE04を開始する"
    },
    {
      "id": 7,
      "imageId": 7,
      "cred": 10,
      "flags": 6,
      "label": "うちらだからこそ造れるロボを",
      "description": "PHASE05を開始した",
      "howto": "PHASE05を開始する"
    },
    {
      "id": 8,
      "imageId": 8,
      "cred": 10,
      "flags": 6,
      "label": "どこかひとつでも好きになってくれるまで",
      "description": "PHASE06を開始した",
      "howto": "PHASE06を開始する"
    },
    {
      "id": 9,
      "imageId": 9,
      "cred": 10,
      "flags": 6,
      "label": "なんという狂った世界",
      "description": "PHASE07を開始した",
      "howto": "PHASE07を開始する"
    },
    {
      "id": 10,
      "imageId": 10,
      "cred": 10,
      "flags": 6,
      "label": "君に夢を見せてあげよう",
      "description": "PHASE08を開始した",
      "howto": "PHASE08を開始する"
    },
    {
      "id": 11,
      "imageId": 11,
      "cred": 10,
      "flags": 6,
      "label": "巨大ロボットが、大好きです",
      "description": "PHASE09を開始した",
      "howto": "PHASE09を開始する"
    },
    {
      "id": 12,
      "imageId": 12,
      "cred": 10,
      "flags": 6,
      "label": "胸を張って、この子を動かしてあげなくちゃ",
      "description": "PHASE10を開始した",
      "howto": "PHASE10を開始する"
    },
    {
      "id": 13,
      "imageId": 13,
      "cred": 10,
      "flags": 6,
      "label": "夢なんて、持たなければよかった",
      "description": "PHASE11を開始した",
      "howto": "PHASE11を開始する"
    },
    {
      "id": 14,
      "imageId": 14,
      "cred": 10,
      "flags": 6,
      "label": "ここからは、俺たちのゲームだ",
      "description": "PHASE12を開始した",
      "howto": "PHASE12を開始する"
    },
    {
      "id": 15,
      "imageId": 15,
      "cred": 50,
      "flags": 6,
      "label": "これからも、よろしくね",
      "description": "淳和のエンディングを見た",
      "howto": "淳和のエンディングを見る"
    },
    {
      "id": 16,
      "imageId": 16,
      "cred": 50,
      "flags": 6,
      "label": "私にできることを、やっていこう",
      "description": "フラウのエンディングを見た",
      "howto": "フラウのエンディングを見る"
    },
    {
      "id": 17,
      "imageId": 17,
      "cred": 50,
      "flags": 6,
      "label": "メリークリスマス",
      "description": "愛理のエンディングを見た",
      "howto": "愛理のエンディングを見る"
    },
    {
      "id": 18,
      "imageId": 18,
      "cred": 50,
      "flags": 6,
      "label": "今日で、夏も、終わりか",
      "description": "綯のエンディングを見た",
      "howto": "綯のエンディングを見る"
    },
    {
      "id": 19,
      "imageId": 19,
      "cred": 100,
      "flags": 6,
      "label": "みんなの笑顔を守れたよ",
      "description": "あき穂のエンディングを見た",
      "howto": "あき穂のエンディングを見る"
    },
    {
      "id": 20,
      "imageId": 20,
      "cred": 10,
      "flags": 1,
      "label": "『見えざる支配者』をここに告発する",
      "description": "君島レポートを３つ発見した",
      "howto": "君島レポートを３つ発見する"
    },
    {
      "id": 21,
      "imageId": 21,
      "cred": 30,
      "flags": 1,
      "label": "すべてを集めてくれた君に感謝を",
      "description": "君島レポートを全て発見した",
      "howto": "君島レポートを全て発見する"
    },
    {
      "id": 22,
      "imageId": 22,
      "cred": 10,
      "flags": 1,
      "label": "これであなたもジオタグビギナー",
      "description": "初めてジオタグを開いた",
      "howto": "初めてジオタグを開く"
    },
    {
      "id": 23,
      "imageId": 23,
      "cred": 10,
      "flags": 1,
      "label": "これであなたもジオタグマニア",
      "description": "ジオタグを３０個集めた",
      "howto": "ジオタグを３０個集める"
    },
    {
      "id": 24,
      "imageId": 24,
      "cred": 10,
      "flags": 1,
      "label": "これであなたもジオタグエキスパート",
      "description": "ジオタグを５０個集めた",
      "howto": "ジオタグを５０個集める"
    },
    {
      "id": 25,
      "imageId": 25,
      "cred": 10,
      "flags": 1,
      "label": "これであなたもジオタグマスター",
      "description": "ジオタグを７０個集めた",
      "howto": "ジオタグを７０個集める"
    },
    {
      "id": 26,
      "imageId": 26,
      "cred": 10,
      "flags": 1,
      "label": "これであなたもツイぽ界デビュー",
      "description": "初めてツイぽに返信した",
      "howto": "初めてツイぽに返信する"
    },
    {
      "id": 27,
      "imageId": 27,
      "cred": 10,
      "flags": 1,
      "label": "これであなたもツイぽ界ルーキー",
      "description": "２５回ツイぽに返信した",
      "howto": "２５回ツイぽに返信する"
    },
    {
      "id": 28,
      "imageId": 28,
      "cred": 10,
      "flags": 1,
      "label": "これであなたもツイぽ界ベテラン",
      "description": "５０回ツイぽに返信した",
      "howto": "５０回ツイぽに返信する"
    },
    {
      "id": 29,
      "imageId": 29,
      "cred": 20,
      "flags": 1,
      "label": "これであなたもツイぽ界エリート",
      "description": "１００回ツイぽに返信した",
      "howto": "１００回ツイぽに返信する"
    },
    {
      "id": 30,
      "imageId": 30,
      "cred": 10,
      "flags": 4,
      "label": "あなたはここにいるよ",
      "description": "deluoode mapを開いて現在の居場所を確認した",
      "howto": "deluoode mapを開いて現在の居場所を確認する"
    },
    {
      "id": 31,
      "imageId": 31,
      "cred": 10,
      "flags": 4,
      "label": "ぜんぜん見つかりませんねー♪",
      "description": "君島レポート探し中に１０ヶ所以上さまよった",
      "howto": "君島レポート探し中に１０ヶ所以上さまよう"
    },
    {
      "id": 32,
      "imageId": 32,
      "cred": 30,
      "flags": 4,
      "label": "もう敵はいない",
      "description": "全てのキルバラ対戦で勝利した（累計）",
      "howto": "全てのキルバラ対戦で勝利する（累計）"
    },
    {
      "id": 33,
      "imageId": 33,
      "cred": 10,
      "flags": 4,
      "label": "今のはまだウォーミングアップだ",
      "description": "キルバラ対戦で敗北した",
      "howto": "キルバラ対戦で敗北する"
    },
    {
      "id": 34,
      "imageId": 35,
      "cred": 30,
      "flags": 4,
      "label": "UMISHOがぁ！決めたぁぁーっ！！",
      "description": "ランカー戦で１回もミスせずキルバラのコマンド入力を成功した",
      "howto": "ランカー戦で１回もミスせずキルバラのコマンド入力を成功する"
    },
    {
      "id": 35,
      "imageId": 36,
      "cred": 20,
      "flags": 4,
      "label": "あり得るんだよ",
      "description": "ROBO-ONE予選１回戦で１回もミスせずコマンド入力を成功した",
      "howto": "ROBO-ONE予選１回戦で１回もミスせずコマンド入力を成功する"
    },
    {
      "id": 36,
      "imageId": 37,
      "cred": 30,
      "flags": 4,
      "label": "やっぱりヌルゲーだったよ",
      "description": "ROBO-ONE決勝で１回もミスせずコマンド入力を成功した",
      "howto": "ROBO-ONE決勝で１回もミスせずコマンド入力を成功する"
    },
    {
      "id": 37,
      "imageId": 38,
      "cred": 30,
      "flags": 4,
      "label": "俺が全一だ",
      "description": "最終決戦で入力ミスをしないで勝利した",
      "howto": "最終決戦で入力ミスをしないで勝利する"
    },
    {
      "id": 38,
      "imageId": 39,
      "cred": 10,
      "flags": 1,
      "label": "ロボ部活動日誌その１",
      "description": "CGコンプリート25%",
      "howto": "CGコンプリート25%"
    },
    {
      "id": 39,
      "imageId": 40,
      "cred": 10,
      "flags": 1,
      "label": "ロボ部活動日誌その２",
      "description": "CGコンプリート50%",
      "howto": "CGコンプリート50%"
    },
    {
      "id": 40,
      "imageId": 41,
      "cred": 10,
      "flags": 1,
      "label": "ロボ部活動日誌その３",
      "description": "CGコンプリート75%",
      "howto": "CGコンプリート75%"
    },
    {
      "id": 41,
      "imageId": 42,
      "cred": 50,
      "flags": 1,
      "label": "ロボ部活動日誌その４",
      "description": "CGコンプリート100%",
      "howto": "CGコンプリート100%"
    },
    {
      "id": 42,
      "imageId": 43,
      "cred": 10,
      "flags": 1,
      "label": "勉強するのって、やになるよねっ",
      "description": "初めてTIPSを開いた",
      "howto": "初めてTIPSを開く"
    },
    {
      "id": 43,
      "imageId": 44,
      "cred": 50,
      "flags": 1,
      "label": "これでテストもバッチリだねっ",
      "description": "TIPSを全て開いた",
      "howto": "TIPSを全て開く"
    },
    {
      "id": 44,
      "imageId": 45,
      "cred": 10,
      "flags": 4,
      "label": "ハカーじゃなくてハッカーだろ、常考",
      "description": "ＤａＳＨと友達になった",
      "howto": "ＤａＳＨと友達になる"
    },
    {
      "id": 45,
      "imageId": 46,
      "cred": 10,
      "flags": 4,
      "label": "さ、三次元に、興味はないんだ……ふひひ",
      "description": "疾風迅雷のナイトハルトと友達になった",
      "howto": "疾風迅雷のナイトハルトと友達になる"
    },
    {
      "id": 46,
      "imageId": 47,
      "cred": 10,
      "flags": 4,
      "label": "助手ではないと言っとろーが",
      "description": "栗悟飯とカメハメ波と友達になった",
      "howto": "栗悟飯とカメハメ波と友達になる"
    },
    {
      "id": 47,
      "imageId": 48,
      "cred": 10,
      "flags": 3,
      "label": "お、押忍……！",
      "description": "PHASE06への道が開いた",
      "howto": "PHASE06への道が開く"
    },
    {
      "id": 48,
      "imageId": 49,
      "cred": 10,
      "flags": 3,
      "label": "デュフフ",
      "description": "PHASE07への道が開いた",
      "howto": "PHASE07への道が開く"
    },
    {
      "id": 49,
      "imageId": 50,
      "cred": 10,
      "flags": 3,
      "label": "ぴぴ〜ぶ〜",
      "description": "PHASE08への道が開いた",
      "howto": "PHASE08への道が開く"
    },
    {
      "id": 50,
      "imageId": 51,
      "cred": 25,
      "flags": 3,
      "label": "ジャキーン！",
      "description": "PHASE09への道が開いた",
      "howto": "PHASE09への道が開く"
    }
  ]
}