{
  "achievementsPossible": 13,
  "credPossible": 1000,
  "achievements": [
    {
      "id": 6,
      "imageId": 6,
      "cred": 150,
      "flags": 1,
      "label": "Amateur Paintballer",
      "description": "Finished the Career on Amateur difficulty level",
      "howto": "Finish the Career on Amateur difficulty level"
    },
    {
      "id": 7,
      "imageId": 2,
      "cred": 150,
      "flags": 1,
      "label": "Semi-Pro Paintballer",
      "description": "Finished the Career on Semi-Pro difficulty level",
      "howto": "Finish the Career on Semi-Pro difficulty level"
    },
    {
      "id": 8,
      "imageId": 8,
      "cred": 200,
      "flags": 1,
      "label": "Pro Paintballer",
      "description": "Finished the Career on Pro difficulty level",
      "howto": "Finish the Career on Pro difficulty level"
    },
    {
      "id": 9,
      "imageId": 14,
      "cred": 80,
      "flags": 1,
      "label": "World Tour",
      "description": "Played a game of paintball in all the Career and Woodsball locations",
      "howto": "Play a game of paintball in all the Career and Woodsball locations"
    },
    {
      "id": 12,
      "imageId": 12,
      "cred": 30,
      "flags": 1,
      "label": "Training Buff",
      "description": "Completed all training stages",
      "howto": "Complete all training stages"
    },
    {
      "id": 13,
      "imageId": 3,
      "cred": 50,
      "flags": 1,
      "label": "Communication Skill Proficency",
      "description": "Maxed out the main character's Communication Skill",
      "howto": "Max out the main character's Communication Skill"
    },
    {
      "id": 14,
      "imageId": 4,
      "cred": 40,
      "flags": 1,
      "label": "Handling Skill Proficency",
      "description": "Maxed out the main character's Marker Skill",
      "howto": "Max out the main character's Marker Skill"
    },
    {
      "id": 15,
      "imageId": 9,
      "cred": 40,
      "flags": 1,
      "label": "Reload Skill Proficency",
      "description": "Maxed out the main character's Reload Skill",
      "howto": "Max out the main character's Reload Skill"
    },
    {
      "id": 16,
      "imageId": 11,
      "cred": 40,
      "flags": 1,
      "label": "Speed Skill Proficency",
      "description": "Maxed out the main character's Speed Skill",
      "howto": "Max out the main character's Speed Skill"
    },
    {
      "id": 17,
      "imageId": 1,
      "cred": 40,
      "flags": 1,
      "label": "Accuracy Skill Proficency",
      "description": "Maxed out the main character's Accuracy Skill",
      "howto": "Max out the main character's Accuracy Skill"
    },
    {
      "id": 18,
      "imageId": 13,
      "cred": 50,
      "flags": 1,
      "label": "Woodsball Chief",
      "description": "Won at least 50 Woodsball Ranked Matches over Xbox LIVE",
      "howto": "Win at least 50 Woodsball Ranked Matches over Xbox LIVE"
    },
    {
      "id": 19,
      "imageId": 10,
      "cred": 50,
      "flags": 1,
      "label": "Speedball Chief",
      "description": "Won at least 50 Speedball Ranked Matches over Xbox LIVE",
      "howto": "Win at least 50 Speedball Ranked Matches over Xbox LIVE"
    },
    {
      "id": 20,
      "imageId": 7,
      "cred": 80,
      "flags": 1,
      "label": "Predator",
      "description": "Made at least 200 eliminations in multiplayer matches",
      "howto": "Make at least 200 eliminations in multiplayer matches"
    }
  ]
}