{
  "achievementsPossible": 47,
  "credPossible": 1010,
  "achievements": [
    {
      "id": 1,
      "imageId": 2,
      "cred": 5,
      "flags": 4,
      "label": "Let's Get It Started",
      "description": "You've completed the Fitness Test.",
      "howto": "Complete the Fitness Test."
    },
    {
      "id": 2,
      "imageId": 3,
      "cred": 5,
      "flags": 4,
      "label": "Average Joe",
      "description": "You performed a workout at least 3 times in a week!",
      "howto": "Perform a workout at least 3 times in a week."
    },
    {
      "id": 3,
      "imageId": 4,
      "cred": 10,
      "flags": 4,
      "label": "Gym Rat",
      "description": "You performed a workout every day this week!",
      "howto": "Perform a workout every day in the week."
    },
    {
      "id": 4,
      "imageId": 5,
      "cred": 20,
      "flags": 4,
      "label": "Dialed In",
      "description": "You performed a workout every day for 30 days straight!",
      "howto": "Perform a workout every day for 30 days."
    },
    {
      "id": 5,
      "imageId": 6,
      "cred": 50,
      "flags": 4,
      "label": "Training Devotee",
      "description": "You performed a workout every day for 100 days straight!",
      "howto": "Perform a workout every day for 100 days."
    },
    {
      "id": 6,
      "imageId": 7,
      "cred": 10,
      "flags": 4,
      "label": "Fitness Guru",
      "description": "You've completed all Standard exercises.",
      "howto": "Successfully complete all Standard exercises."
    },
    {
      "id": 7,
      "imageId": 8,
      "cred": 10,
      "flags": 4,
      "label": "Sityodtong Disciple",
      "description": "You've completed all Mark DellaGrotte-specific exercises.",
      "howto": "Successfully complete all 12 Mark DellaGrotte-specific exercises."
    },
    {
      "id": 8,
      "imageId": 9,
      "cred": 10,
      "flags": 4,
      "label": "\"Thunder\" Kickboxer",
      "description": "You've completed all Javier Mendez-specific exercises.",
      "howto": "Successfully complete all 12 Javier Mendez-specific exercises."
    },
    {
      "id": 9,
      "imageId": 10,
      "cred": 10,
      "flags": 4,
      "label": "Submission Fighter",
      "description": "You've completed all Greg Jackson-specific exercises.",
      "howto": "Successfully complete all 12 Greg Jackson-specific exercises."
    },
    {
      "id": 10,
      "imageId": 11,
      "cred": 50,
      "flags": 4,
      "label": "Head of the Class",
      "description": "You've scored A's or higher in all Standard exercises!",
      "howto": "Get a score of A or higher in all Standard exercises."
    },
    {
      "id": 11,
      "imageId": 12,
      "cred": 20,
      "flags": 4,
      "label": "Century Mark",
      "description": "You have completed 100 exercises or activities!",
      "howto": "Successfully complete 100 exercises or activities."
    },
    {
      "id": 12,
      "imageId": 13,
      "cred": 30,
      "flags": 4,
      "label": "Shaping Up",
      "description": "You have completed 300 exercises or activities!",
      "howto": "Successfully complete 300 exercises or activities."
    },
    {
      "id": 13,
      "imageId": 14,
      "cred": 50,
      "flags": 4,
      "label": "As Real As It Gets",
      "description": "You have completed 500 exercises or activities!",
      "howto": "Successfully complete 500 exercises or activities."
    },
    {
      "id": 14,
      "imageId": 15,
      "cred": 10,
      "flags": 4,
      "label": "Opening Bell",
      "description": "You've completed 1 exercise at all fitness levels.",
      "howto": "Successfully complete 1 exercise at all three fitness levels."
    },
    {
      "id": 15,
      "imageId": 16,
      "cred": 20,
      "flags": 4,
      "label": "Rare Intensity",
      "description": "You have completed all exercises at all fitness levels.",
      "howto": "Complete all exercises at all three fitness levels."
    },
    {
      "id": 16,
      "imageId": 17,
      "cred": 10,
      "flags": 4,
      "label": "Film Study",
      "description": "You have unlocked all Videos.",
      "howto": "Unlock all Videos."
    },
    {
      "id": 17,
      "imageId": 18,
      "cred": 20,
      "flags": 4,
      "label": "Streaky",
      "description": "You have performed 100 gesture streaks.",
      "howto": "Perform 100 gesture streaks in the game."
    },
    {
      "id": 18,
      "imageId": 19,
      "cred": 50,
      "flags": 4,
      "label": "Crowd Pleaser",
      "description": "You have performed 1000 gesture streaks.",
      "howto": "Perform 1000 gesture streaks in the game."
    },
    {
      "id": 19,
      "imageId": 20,
      "cred": 10,
      "flags": 4,
      "label": "Flawless Fighter",
      "description": "You've completed 1 Hit the Mitts routine without missing any strikes!",
      "howto": "Complete 1 Hit the Mitts routine without missing any strikes."
    },
    {
      "id": 20,
      "imageId": 21,
      "cred": 20,
      "flags": 4,
      "label": "Unequaled Brawler",
      "description": "You've completed 3 Hit the Mitts routines without missing any strikes!",
      "howto": "Complete 3 Hit the Mitts routines without missing any strikes."
    },
    {
      "id": 21,
      "imageId": 22,
      "cred": 30,
      "flags": 4,
      "label": "Experienced Competitor",
      "description": "You've completed 6 Hit the Mitts routines without missing any strikes!",
      "howto": "Complete 6 Hit the Mitts routines without missing any strikes."
    },
    {
      "id": 22,
      "imageId": 23,
      "cred": 40,
      "flags": 4,
      "label": "Expert Warrior",
      "description": "You've completed 10 Hit the Mitts routines without missing any strikes!",
      "howto": "Complete 10 Hit the Mitts routines without missing any strikes."
    },
    {
      "id": 23,
      "imageId": 24,
      "cred": 50,
      "flags": 4,
      "label": "Hit the Mitts Machine",
      "description": "You've completed all Hit the Mitts routines without missing any strikes!",
      "howto": "Complete all Hit the Mitts routines without missing any strikes."
    },
    {
      "id": 24,
      "imageId": 25,
      "cred": 20,
      "flags": 4,
      "label": "Versatile Combatant",
      "description": "You've completed a Pre-made Workout with each trainer.",
      "howto": "Complete a Pre-made Workout with each trainer."
    },
    {
      "id": 25,
      "imageId": 32,
      "cred": 15,
      "flags": 4,
      "label": "10 Hour Power",
      "description": "You've worked out in the game for 10 hours.",
      "howto": "Work out in the game for 10 hours."
    },
    {
      "id": 26,
      "imageId": 26,
      "cred": 25,
      "flags": 4,
      "label": "Motivated",
      "description": "You've completed a 30-day program.",
      "howto": "Complete one 30-day program of any goal type."
    },
    {
      "id": 27,
      "imageId": 36,
      "cred": 10,
      "flags": 4,
      "label": "Medal Detector",
      "description": "You've earned 20 medals in the game!",
      "howto": "Earn 20 medals in the game."
    },
    {
      "id": 28,
      "imageId": 31,
      "cred": 10,
      "flags": 4,
      "label": "5 Hours of Energy",
      "description": "You've worked out in the game for 5 hours.",
      "howto": "Work out in the game for 5 hours."
    },
    {
      "id": 29,
      "imageId": 27,
      "cred": 30,
      "flags": 4,
      "label": "All Business",
      "description": "You've completed a 60-day program.",
      "howto": "Complete one 60-day program of any goal type."
    },
    {
      "id": 30,
      "imageId": 41,
      "cred": 30,
      "flags": 4,
      "label": "The Gold Standard",
      "description": "You've earned all Gold Medals in every exercise!",
      "howto": "Earn a Gold Medal in every exercise."
    },
    {
      "id": 31,
      "imageId": 42,
      "cred": 10,
      "flags": 4,
      "label": "Up the Challenge",
      "description": "You've completed an Xbox LIVE Challenge.",
      "howto": "Successfully complete any Xbox LIVE Challenge."
    },
    {
      "id": 32,
      "imageId": 43,
      "cred": 20,
      "flags": 4,
      "label": "Won't Back Down",
      "description": "You've completed 10 Xbox LIVE Challenges.",
      "howto": "Successfully complete 10 Xbox LIVE Challenges."
    },
    {
      "id": 33,
      "imageId": 44,
      "cred": 15,
      "flags": 4,
      "label": "Heating Up",
      "description": "You've completed 5 Hot Seat Multiplayer Challenges!",
      "howto": "Successfully complete 5 Hot Seat Multiplayer Challenges."
    },
    {
      "id": 34,
      "imageId": 33,
      "cred": 20,
      "flags": 4,
      "label": "Unstoppable",
      "description": "You've worked out in the game for 15 hours.",
      "howto": "Work out in the game for 15 hours."
    },
    {
      "id": 35,
      "imageId": 29,
      "cred": 20,
      "flags": 1,
      "label": "Fully Pledged",
      "description": "You've completed all three 60-day programs.",
      "howto": "Complete all three 60-day programs."
    },
    {
      "id": 36,
      "imageId": 34,
      "cred": 30,
      "flags": 4,
      "label": "Epic Milestone",
      "description": "You've worked out in the game for 30 hours.",
      "howto": "Work out in the game for 30 hours."
    },
    {
      "id": 37,
      "imageId": 35,
      "cred": 20,
      "flags": 4,
      "label": "Full Plate",
      "description": "You've created and completed a custom workout session with all exercise slots filled.",
      "howto": "Create and successfully complete a custom workout with the maximum number of exercise slots filled."
    },
    {
      "id": 38,
      "imageId": 28,
      "cred": 50,
      "flags": 4,
      "label": "No Nonsense",
      "description": "You've completed all three 30-day programs.",
      "howto": "Complete all three 30-day programs."
    },
    {
      "id": 39,
      "imageId": 38,
      "cred": 20,
      "flags": 4,
      "label": "Medal of the Road",
      "description": "You've earned 40 medals in the game!",
      "howto": "Earn 40 medals in the game."
    },
    {
      "id": 40,
      "imageId": 40,
      "cred": 25,
      "flags": 4,
      "label": "Silver Star",
      "description": "You've earned all Silver Medals in every exercise!",
      "howto": "Earn a Silver Medal in every exercise."
    },
    {
      "id": 41,
      "imageId": 30,
      "cred": 5,
      "flags": 4,
      "label": "1 Hour Photo Finish",
      "description": "You've worked out in the game for an hour.",
      "howto": "Work out in the game for an hour."
    },
    {
      "id": 42,
      "imageId": 37,
      "cred": 30,
      "flags": 4,
      "label": "Heavy Medal",
      "description": "You've earned 60 medals in the game!",
      "howto": "Earn 60 medals in the game."
    },
    {
      "id": 43,
      "imageId": 39,
      "cred": 15,
      "flags": 4,
      "label": "Bronze Bomber",
      "description": "You've earned all Bronze Medals in every exercise!",
      "howto": "Earn a Bronze Medal in every exercise."
    },
    {
      "id": 47,
      "imageId": 52,
      "cred": 30,
      "flags": 1,
      "label": "Quite Accomplished",
      "description": "You've completed all the Accomplishments in the game!",
      "howto": "Successfully complete all the Accomplishments."
    },
    {
      "id": 48,
      "imageId": 53,
      "cred": 5,
      "flags": 1,
      "label": "Speed Bag Pro",
      "description": "You got 3 wins in Side by Side Multiplayer Speed Bag!",
      "howto": "Get 3 wins in the Side by Side Multiplayer Speed Bag activity."
    },
    {
      "id": 49,
      "imageId": 54,
      "cred": 5,
      "flags": 1,
      "label": "Flipped Out",
      "description": "You got 3 wins in Side by Side Multiplayer Tire Flip!",
      "howto": "Get 3 wins in the Side by Side Multiplayer Tire Flip activity."
    },
    {
      "id": 53,
      "imageId": 176,
      "cred": 10,
      "flags": 1,
      "label": "Undisputed Trainee",
      "description": "You completed all of Urijah Fabers workouts!",
      "howto": "Complete all of Urijah Fabers workouts."
    }
  ]
}