{
  "avatarAssetsPossible": 3,
  "maleAvatarAssetsPossible": 1,
  "femaleAvatarAssetsPossible": 1,
  "avatarAssets": [
    {
      "id": "00000008-0001-91a1-c55f-03d05841096a",
      "imageId": 1,
      "subcategory": 0,
      "unknown": 0,
      "isMale": true,
      "isFemale": false,
      "isUnisex": false,
      "label": "Hydro Thunder Hurricane T-Shirt",
      "description": "This T-shirt is water resistant and fashion forward.",
      "howto": "Earn 800 credits in Hydro Thunder Hurricane to unlock the Hydro Thunder T-Shirt."
    },
    {
      "id": "00000008-0001-01e2-cbb5-969d5841096a",
      "imageId": 6,
      "subcategory": 0,
      "unknown": 2015221016,
      "isMale": false,
      "isFemale": true,
      "isUnisex": false,
      "label": "Hydro Thunder Hurricane T-Shirt",
      "description": "This T-shirt is water resistant and fashion forward.",
      "howto": "Earn 800 credits in Hydro Thunder Hurricane to unlock the Hydro Thunder T-Shirt."
    },
    {
      "id": "00001000-0004-e1c3-c96f-4f5a5841096a",
      "imageId": 7,
      "subcategory": 0,
      "unknown": 2015221016,
      "isMale": false,
      "isFemale": false,
      "isUnisex": true,
      "label": "Razorback Toy Boat",
      "description": "Get the toy every Avatar is talking about: The Amazing Razorback Transforming Toy Boat!",
      "howto": "Earn 18,500 credits in Hydro Thunder Hurricane to unlock the Razorback Toy Boat."
    }
  ]
}