{
  "achievementsPossible": 22,
  "credPossible": 1000,
  "achievements": [
    {
      "id": 1,
      "imageId": 1,
      "cred": 100,
      "flags": 1,
      "label": "Win the English Premiership",
      "description": "You have won the English Premiership",
      "howto": "Win the English Premiership"
    },
    {
      "id": 2,
      "imageId": 2,
      "cred": 50,
      "flags": 1,
      "label": "Win the Scottish Premiership",
      "description": "You have won the Scottish Premiership",
      "howto": "Win the Scottish Premiership"
    },
    {
      "id": 3,
      "imageId": 3,
      "cred": 100,
      "flags": 1,
      "label": "Win Italian Serie A",
      "description": "You have won the Italian Serie A",
      "howto": "Win Italian Serie A"
    },
    {
      "id": 4,
      "imageId": 4,
      "cred": 100,
      "flags": 1,
      "label": "Win Spanish Liga 1",
      "description": "You have won the Spanish Liga 1",
      "howto": "Win Spanish Liga 1"
    },
    {
      "id": 5,
      "imageId": 5,
      "cred": 75,
      "flags": 1,
      "label": "Win German Liga 1",
      "description": "You have won German Liga 1",
      "howto": "Win German Liga 1"
    },
    {
      "id": 6,
      "imageId": 6,
      "cred": 75,
      "flags": 1,
      "label": "Win French Division 1",
      "description": "You have won the French Division 1",
      "howto": "Win French Division 1"
    },
    {
      "id": 7,
      "imageId": 7,
      "cred": 50,
      "flags": 1,
      "label": "Win the Dutch Eredivisie",
      "description": "You have won the Dutch Eredivisie",
      "howto": "Win the Dutch Eredivisie"
    },
    {
      "id": 8,
      "imageId": 8,
      "cred": 50,
      "flags": 1,
      "label": "Win the Portuguese Super Liga",
      "description": "You have won the Portuguese Super Liga",
      "howto": "You have won the Scottish League Cup"
    },
    {
      "id": 9,
      "imageId": 9,
      "cred": 125,
      "flags": 1,
      "label": "Win the European Cup",
      "description": "You have won the European Cup",
      "howto": "Win the European Cup"
    },
    {
      "id": 10,
      "imageId": 10,
      "cred": 75,
      "flags": 1,
      "label": "Win the C.E.F.A. Cup",
      "description": "You have won the C.E.F.A. Cup",
      "howto": "Win the C.E.F.A. Cup"
    },
    {
      "id": 11,
      "imageId": 11,
      "cred": 25,
      "flags": 1,
      "label": "Win the English National Cup",
      "description": "You have won the English National Cup",
      "howto": "Win the English National Cup"
    },
    {
      "id": 12,
      "imageId": 12,
      "cred": 15,
      "flags": 1,
      "label": "Win the Scottish National Cup",
      "description": "You have won the Scottish National Cup",
      "howto": "Win the Scottish National Cup"
    },
    {
      "id": 14,
      "imageId": 13,
      "cred": 25,
      "flags": 1,
      "label": "Win the Coppa Italia",
      "description": "You have won the Coppa Italia",
      "howto": "Win the Coppa Italia"
    },
    {
      "id": 15,
      "imageId": 14,
      "cred": 25,
      "flags": 1,
      "label": "Win the Spanish Copa del Rey",
      "description": "You have won the Spanish Copa del Rey",
      "howto": "Win the Spanish Copa del Rey"
    },
    {
      "id": 16,
      "imageId": 15,
      "cred": 20,
      "flags": 1,
      "label": "Win the German National Pokal",
      "description": "You have won the German National Pokal",
      "howto": "Win the German National Pokal"
    },
    {
      "id": 17,
      "imageId": 16,
      "cred": 20,
      "flags": 1,
      "label": "Win the Coupe de France",
      "description": "You have won the Coupe de France",
      "howto": "Win the Coupe de France"
    },
    {
      "id": 18,
      "imageId": 17,
      "cred": 15,
      "flags": 1,
      "label": "Win the Dutch National Cup",
      "description": "You have won the Dutch National Cup",
      "howto": "Win the Dutch National Cup"
    },
    {
      "id": 19,
      "imageId": 18,
      "cred": 15,
      "flags": 1,
      "label": "Win the Taça de Portugal",
      "description": "You have won the Taça de Portugal",
      "howto": "Win the Taça de Portugal"
    },
    {
      "id": 20,
      "imageId": 19,
      "cred": 15,
      "flags": 1,
      "label": "Win the English League Cup",
      "description": "You have won the English League Cup",
      "howto": "Win the English League Cup"
    },
    {
      "id": 21,
      "imageId": 20,
      "cred": 5,
      "flags": 1,
      "label": "Win the Scottish League Cup",
      "description": "You have won the Scottish League Cup",
      "howto": "Win the Scottish League Cup"
    },
    {
      "id": 22,
      "imageId": 21,
      "cred": 10,
      "flags": 1,
      "label": "Win the German Liga Pokal",
      "description": "You have won the German Liga Pokal",
      "howto": "Win the German Liga Pokal"
    },
    {
      "id": 23,
      "imageId": 22,
      "cred": 10,
      "flags": 1,
      "label": "Win the French Coupe De Ligue",
      "description": "You have won the French Coupe De Ligue",
      "howto": "Win the French Coupe De Ligue"
    }
  ]
}