{
  "avatarAssetsPossible": 6,
  "maleAvatarAssetsPossible": 1,
  "femaleAvatarAssetsPossible": 1,
  "avatarAssets": [
    {
      "id": "00001000-0002-4123-c080-b7ca584113dd",
      "imageId": 31,
      "subcategory": 0,
      "unknown": 0,
      "isMale": false,
      "isFemale": false,
      "isUnisex": true,
      "label": "The Orb",
      "description": "The secretly non-functional Orb is now yours to display!  You're still pretty powerless though.",
      "howto": "Unlock The Orb by winning Brock's bounty item."
    },
    {
      "id": "00001000-0003-5103-c03b-b3ae584113dd",
      "imageId": 36,
      "subcategory": 0,
      "unknown": 2015221016,
      "isMale": false,
      "isFemale": false,
      "isUnisex": true,
      "label": "Necronomicon",
      "description": "You now own the scariest book in history!",
      "howto": "Unlock a flying Necronomicon pet by winning Ash's bounty item."
    },
    {
      "id": "00001000-0004-51d3-c0f7-de92584113dd",
      "imageId": 37,
      "subcategory": 0,
      "unknown": 2015221016,
      "isMale": false,
      "isFemale": false,
      "isUnisex": true,
      "label": "GLaDOS",
      "description": "Congratulations, you are now a test candidate!  Activate GlaDOS to see the results.",
      "howto": "Unlock GlaDOS by winning GLaDOS's bounty item."
    },
    {
      "id": "00001000-0005-61b3-c0b2-fa76584113dd",
      "imageId": 41,
      "subcategory": 0,
      "unknown": 2015221016,
      "isMale": false,
      "isFemale": false,
      "isUnisex": true,
      "label": "Bloodwing",
      "description": "Oh boy, your very own Bloodwing! Warning: You may lose an eye or two.",
      "howto": "Unlock Bloodwing by winning Claptrap's bounty item."
    },
    {
      "id": "00000258-0006-11a1-cd89-33cd584113dd",
      "imageId": 45,
      "subcategory": 0,
      "unknown": 2015221016,
      "isMale": true,
      "isFemale": false,
      "isUnisex": false,
      "label": "Sam's Suit",
      "description": "Make a fashion statement with your exclusive Sam and Max gear!",
      "howto": "Unlock Sam and Max gear by winning Sam's bounty item."
    },
    {
      "id": "00000208-0006-c1d2-c95e-4aa6584113dd",
      "imageId": 49,
      "subcategory": 0,
      "unknown": 2015221016,
      "isMale": false,
      "isFemale": true,
      "isUnisex": false,
      "label": "Max Hoodie",
      "description": "Make a fashion statement with your exclusive Sam and Max gear!",
      "howto": "Unlock Sam and Max gear by winning Sam's bounty item."
    }
  ]
}