{
  "achievementsPossible": 40,
  "credPossible": 1000,
  "achievements": [
    {
      "id": 44,
      "imageId": 2,
      "cred": 20,
      "flags": 1,
      "label": "Winner",
      "description": "Win your first game of MONOPOLY® Streets",
      "howto": "Win your first game of MONOPOLY® Streets"
    },
    {
      "id": 45,
      "imageId": 3,
      "cred": 15,
      "flags": 1,
      "label": "Lucky Threes",
      "description": "Rolled Triples",
      "howto": "Rolled Triples"
    },
    {
      "id": 46,
      "imageId": 4,
      "cred": 25,
      "flags": 1,
      "label": "Building the Empire",
      "description": "Won 10 offline games",
      "howto": "Won 10 offline games"
    },
    {
      "id": 48,
      "imageId": 5,
      "cred": 15,
      "flags": 1,
      "label": "No Ground Untouched",
      "description": "Player has built 100 houses",
      "howto": "Player has built 100 houses"
    },
    {
      "id": 49,
      "imageId": 6,
      "cred": 35,
      "flags": 1,
      "label": "Subdivision",
      "description": "Player has built 500 houses",
      "howto": "Player has built 500 houses"
    },
    {
      "id": 50,
      "imageId": 7,
      "cred": 15,
      "flags": 1,
      "label": "Expensive Property",
      "description": "Acquire the most expensive property in the game",
      "howto": "Acquire the most expensive property in the game"
    },
    {
      "id": 51,
      "imageId": 8,
      "cred": 20,
      "flags": 1,
      "label": "Eviction Notice",
      "description": "Replaced your houses with a hotel",
      "howto": "Replaced your houses with a hotel"
    },
    {
      "id": 52,
      "imageId": 9,
      "cred": 5,
      "flags": 1,
      "label": "Bypass Bail",
      "description": "Rolled doubles to get out of Jail for free",
      "howto": "Rolled doubles to get out of Jail for free"
    },
    {
      "id": 53,
      "imageId": 10,
      "cred": 20,
      "flags": 1,
      "label": "Needs a New Challenge",
      "description": "Successfully won against 3 hard AI",
      "howto": "Successfully won against 3 hard AI"
    },
    {
      "id": 54,
      "imageId": 11,
      "cred": 35,
      "flags": 1,
      "label": "Mega-Tycoon",
      "description": "Finished a game with total worth greater than 9000",
      "howto": "Finished a game with total worth greater than 9000"
    },
    {
      "id": 55,
      "imageId": 12,
      "cred": 20,
      "flags": 1,
      "label": "Philanthropist",
      "description": "Completed a trade that gave another player a color group",
      "howto": "Completed a trade that gave another player a color group"
    },
    {
      "id": 56,
      "imageId": 13,
      "cred": 20,
      "flags": 1,
      "label": "Flea Market",
      "description": "Bought a property cheaply",
      "howto": "Bought a property cheaply"
    },
    {
      "id": 57,
      "imageId": 14,
      "cred": 10,
      "flags": 1,
      "label": "Celebrating 75",
      "description": "Acquired your 75th property",
      "howto": "Acquired your 75th property"
    },
    {
      "id": 58,
      "imageId": 15,
      "cred": 35,
      "flags": 1,
      "label": "Quick Win",
      "description": "Won a game in under 20 minutes",
      "howto": "Won a game in under 20 minutes"
    },
    {
      "id": 59,
      "imageId": 16,
      "cred": 10,
      "flags": 1,
      "label": "Repeat Offender",
      "description": "Went to jail for the 3rd time in one game",
      "howto": "Went to jail for the 3rd time in one game"
    },
    {
      "id": 60,
      "imageId": 17,
      "cred": 50,
      "flags": 1,
      "label": "So Big and Shiny",
      "description": "Get the largest upgrade to your corporate HQ",
      "howto": "Get the largest upgrade to your corporate HQ"
    },
    {
      "id": 61,
      "imageId": 18,
      "cred": 35,
      "flags": 1,
      "label": "Property Magnate",
      "description": "Own 3 color groups at once",
      "howto": "Own 3 color groups at once"
    },
    {
      "id": 62,
      "imageId": 19,
      "cred": 25,
      "flags": 1,
      "label": "Glad it's not my Bill",
      "description": "Received 120 on a utility rent",
      "howto": "Received 120 on a utility rent"
    },
    {
      "id": 63,
      "imageId": 41,
      "cred": 35,
      "flags": 1,
      "label": "This Plan is Better",
      "description": "Completed a trade that gave you a color group",
      "howto": "Completed a trade that gave you a color group"
    },
    {
      "id": 64,
      "imageId": 40,
      "cred": 15,
      "flags": 1,
      "label": "Rolled a 15",
      "description": "Player rolled a 15",
      "howto": "Player rolled a 15"
    },
    {
      "id": 65,
      "imageId": 20,
      "cred": 20,
      "flags": 1,
      "label": "Better Than Free",
      "description": "Received more than 200 when landing on Free Parking",
      "howto": "Received more than 200 when landing on Free Parking"
    },
    {
      "id": 66,
      "imageId": 21,
      "cred": 20,
      "flags": 1,
      "label": "I Like Trains",
      "description": "Own all the railroads",
      "howto": "Own all the railroads"
    },
    {
      "id": 67,
      "imageId": 22,
      "cred": 50,
      "flags": 1,
      "label": "Rainbow",
      "description": "Own one of each color group at the same time",
      "howto": "Own one of each color group at the same time"
    },
    {
      "id": 68,
      "imageId": 23,
      "cred": 20,
      "flags": 1,
      "label": "Great Start",
      "description": "Someone pays you rent before your second turn",
      "howto": "Someone pays you rent before your second turn"
    },
    {
      "id": 69,
      "imageId": 24,
      "cred": 50,
      "flags": 1,
      "label": "Concierge Service",
      "description": "Provide the best Hotel Service on the most expensive property without a player going bankrupt",
      "howto": "Provide the best Hotel Service on the most expensive property without a player going bankrupt"
    },
    {
      "id": 70,
      "imageId": 25,
      "cred": 35,
      "flags": 1,
      "label": "Hotels Maximus",
      "description": "See the bank run out of hotels in a game with Official MONOPOLY rules",
      "howto": "See the bank run out of hotels in a game with Official MONOPOLY rules"
    },
    {
      "id": 71,
      "imageId": 26,
      "cred": 25,
      "flags": 1,
      "label": "Market Inflator",
      "description": "Get an opponent to pay double the price during an auction",
      "howto": "Get an opponent to pay double the price during an auction"
    },
    {
      "id": 72,
      "imageId": 27,
      "cred": 25,
      "flags": 1,
      "label": "Now that is ROI",
      "description": "Collect more than a 1000 in rent",
      "howto": "Collect more than a 1000 in rent"
    },
    {
      "id": 73,
      "imageId": 28,
      "cred": 10,
      "flags": 1,
      "label": "I'm Keeping this Card",
      "description": "Player paid to get out of Jail when they had a Get out of Jail Free Card",
      "howto": "Player paid to get out of Jail when they had a Get out of Jail Free Card"
    },
    {
      "id": 74,
      "imageId": 29,
      "cred": 20,
      "flags": 1,
      "label": "Tax Audit Nightmare!",
      "description": "Paid 1200 in Taxes in one game",
      "howto": "Paid 1200 in Taxes in one game"
    },
    {
      "id": 75,
      "imageId": 30,
      "cred": 20,
      "flags": 1,
      "label": "All Your Eggs in One Basket",
      "description": "The only properties owned are part of a single color group",
      "howto": "The only properties owned are part of a single color group"
    },
    {
      "id": 76,
      "imageId": 31,
      "cred": 25,
      "flags": 1,
      "label": "Doesn't Hurt Much",
      "description": "Paid the smallest rent in an online game",
      "howto": "Paid the smallest rent in an online game"
    },
    {
      "id": 77,
      "imageId": 32,
      "cred": 25,
      "flags": 1,
      "label": "Plays Nicely with Others",
      "description": "Finished an online game",
      "howto": "Finished an online game"
    },
    {
      "id": 78,
      "imageId": 33,
      "cred": 25,
      "flags": 1,
      "label": "Better Luck Next Time",
      "description": "Bankrupted another player online",
      "howto": "Bankrupted another player online"
    },
    {
      "id": 79,
      "imageId": 34,
      "cred": 25,
      "flags": 1,
      "label": "I Want a Rematch",
      "description": "Lost to another player online",
      "howto": "Lost to another player online"
    },
    {
      "id": 80,
      "imageId": 35,
      "cred": 25,
      "flags": 1,
      "label": "How We Played Back in my Day",
      "description": "Finished an online game using custom house rules",
      "howto": "Finished an online game using custom house rules"
    },
    {
      "id": 81,
      "imageId": 36,
      "cred": 40,
      "flags": 1,
      "label": "Auctioneer",
      "description": "Player has won 50 online auctions",
      "howto": "Player has won 50 online auctions"
    },
    {
      "id": 82,
      "imageId": 37,
      "cred": 20,
      "flags": 1,
      "label": "I Can Do This Without Houses",
      "description": "In an online game, own all the railroads and utilities",
      "howto": "In an online game, own all the railroads and utilities"
    },
    {
      "id": 83,
      "imageId": 38,
      "cred": 35,
      "flags": 1,
      "label": "Taking Over the World",
      "description": "10 online game wins",
      "howto": "10 online game wins"
    },
    {
      "id": 84,
      "imageId": 39,
      "cred": 25,
      "flags": 1,
      "label": "Next Rung on the Ladder",
      "description": "Bankrupted a higher ranked player",
      "howto": "Bankrupted a higher ranked player"
    }
  ]
}