{
  "achievementsPossible": 12,
  "credPossible": 200,
  "achievements": [
    {
      "id": 1,
      "imageId": 1,
      "cred": 10,
      "flags": 6,
      "label": "First Termer",
      "description": "Complete Training.",
      "howto": "Complete Training."
    },
    {
      "id": 5,
      "imageId": 4,
      "cred": 20,
      "flags": 6,
      "label": "Old Glory",
      "description": "Complete the American missions.",
      "howto": "Complete the American missions."
    },
    {
      "id": 6,
      "imageId": 8,
      "cred": 20,
      "flags": 6,
      "label": "Union Jack",
      "description": "Complete the British missions.",
      "howto": "Complete the British missions."
    },
    {
      "id": 7,
      "imageId": 9,
      "cred": 20,
      "flags": 6,
      "label": "Victory Banner",
      "description": "Complete the Russian missions.",
      "howto": "Complete the Russian missions."
    },
    {
      "id": 8,
      "imageId": 7,
      "cred": 15,
      "flags": 6,
      "label": "Tank Breaker",
      "description": "Finish Hurtgen.",
      "howto": "Finish Hurtgen."
    },
    {
      "id": 9,
      "imageId": 6,
      "cred": 15,
      "flags": 6,
      "label": "Rocket's Red Glare",
      "description": "Finish Rocket.",
      "howto": "Finish Rocket."
    },
    {
      "id": 10,
      "imageId": 3,
      "cred": 15,
      "flags": 6,
      "label": "Flag over the Reichstag",
      "description": "Finish Berlin.",
      "howto": "Finish Berlin."
    },
    {
      "id": 11,
      "imageId": 10,
      "cred": 30,
      "flags": 1,
      "label": "War Hero",
      "description": "Complete the game on the hardest difficulty.",
      "howto": "Complete the game on the hardest difficulty."
    },
    {
      "id": 12,
      "imageId": 2,
      "cred": 10,
      "flags": 4,
      "label": "Gunslinger",
      "description": "Get kills using a pistol, rifle, submachine gun, and grenade in a mission without dying.",
      "howto": "Get kills using a pistol, rifle, submachine gun, and grenade in a mission without dying."
    },
    {
      "id": 13,
      "imageId": 5,
      "cred": 20,
      "flags": 4,
      "label": "Pea Shooter",
      "description": "Complete a mission using only a pistol and no melee attacks.",
      "howto": "Complete a mission using only a pistol and no melee attacks."
    },
    {
      "id": 14,
      "imageId": 11,
      "cred": 15,
      "flags": 4,
      "label": "Survivor",
      "description": "Complete a mission without dying or loading a checkpoint.",
      "howto": "Complete a mission without dying or loading a checkpoint."
    },
    {
      "id": 15,
      "imageId": 12,
      "cred": 10,
      "flags": 1,
      "label": "Won The War",
      "description": "Complete the game.",
      "howto": "Complete the game."
    }
  ]
}