{
  "achievementsPossible": 12,
  "credPossible": 200,
  "achievements": [
    {
      "id": 1,
      "imageId": 6,
      "cred": 10,
      "flags": 4,
      "label": "Falling Stone",
      "description": "Crushed 20 workers with one giant boulder.",
      "howto": "Crush 20 workers with one giant boulder. (Campaign, Survival)"
    },
    {
      "id": 2,
      "imageId": 7,
      "cred": 10,
      "flags": 4,
      "label": "Great balls of fire",
      "description": "Destroyed a section of the tower with a meteor shower.",
      "howto": "Damage 5 tower blocks with one meteor shower. (Campaign, Survival)"
    },
    {
      "id": 3,
      "imageId": 8,
      "cred": 10,
      "flags": 4,
      "label": "Holy wave",
      "description": "Use a tidal wave that spares cursed jar bearers.",
      "howto": "Use a tidal wave that spares cursed jar bearers. (Campaign, Survival)"
    },
    {
      "id": 4,
      "imageId": 9,
      "cred": 10,
      "flags": 4,
      "label": "Blown away",
      "description": "Send a worker flying 50 meters away in a sand storm.",
      "howto": "Use a sand storm to send a worker flying far away. (Campaign, Survival)"
    },
    {
      "id": 5,
      "imageId": 10,
      "cred": 10,
      "flags": 4,
      "label": "Full house",
      "description": "Kill a total of 10000 workers.",
      "howto": "Kill 10000 workers over multiple sessions. (Campaign, Survival)"
    },
    {
      "id": 6,
      "imageId": 15,
      "cred": 25,
      "flags": 4,
      "label": "Apocalypse",
      "description": "Master the combo system.",
      "howto": "Earn the highest distinction by performing power combos. (Campaign, Survival)"
    },
    {
      "id": 7,
      "imageId": 11,
      "cred": 5,
      "flags": 4,
      "label": "Deity",
      "description": "Kill 50 workers in a single game.",
      "howto": "Kill 50 workers. (Campaign, Survival)"
    },
    {
      "id": 8,
      "imageId": 12,
      "cred": 25,
      "flags": 1,
      "label": "Babel Falling",
      "description": "Defeat Nabu's ambition.",
      "howto": "Complete the campaign."
    },
    {
      "id": 9,
      "imageId": 13,
      "cred": 25,
      "flags": 4,
      "label": "Cruel god",
      "description": "Pressure your opponent in a multiplayer versus match.",
      "howto": "Send 10 maximum difficulty waves to your opponent in a versus multiplayer match."
    },
    {
      "id": 10,
      "imageId": 14,
      "cred": 10,
      "flags": 4,
      "label": "Break the ice",
      "description": "Finish what your partner begins in a coop game.",
      "howto": "Play a coop game and have one player kill 30 workers frozen by the other one."
    },
    {
      "id": 11,
      "imageId": 16,
      "cred": 10,
      "flags": 4,
      "label": "Cursed!",
      "description": "Show no fear when destroying the cursed jars.",
      "howto": "Destroy 15 cursed jars in a single game. (Campaign, Survival)"
    },
    {
      "id": 12,
      "imageId": 17,
      "cred": 50,
      "flags": 4,
      "label": "Survivor",
      "description": "Stop the construction of the tower when everything seems lost.",
      "howto": "Survive 5 minutes when the tower is almost complete. (Campaign, Survival)"
    }
  ]
}