{
  "achievementsPossible": 41,
  "credPossible": 1000,
  "achievements": [
    {
      "id": 1,
      "imageId": 1,
      "cred": 10,
      "flags": 6,
      "label": "Late night shopping",
      "description": "Level Awakening is complete.",
      "howto": "Level Awakening is complete."
    },
    {
      "id": 2,
      "imageId": 2,
      "cred": 10,
      "flags": 6,
      "label": "Jogging",
      "description": "Level Run from Beast is complete.",
      "howto": "Level Run from Beast is complete."
    },
    {
      "id": 3,
      "imageId": 3,
      "cred": 10,
      "flags": 6,
      "label": "Subway",
      "description": "Level Kurskaya station is complete.",
      "howto": "Level Kurskaya station is complete."
    },
    {
      "id": 4,
      "imageId": 4,
      "cred": 10,
      "flags": 6,
      "label": "Ruins",
      "description": "Level Inside the Perimeter is complete.",
      "howto": "Level Inside the Perimeter is complete."
    },
    {
      "id": 5,
      "imageId": 5,
      "cred": 10,
      "flags": 6,
      "label": "Back to back",
      "description": "Level Field hospital is complete.",
      "howto": "Level Field hospital is complete."
    },
    {
      "id": 6,
      "imageId": 6,
      "cred": 10,
      "flags": 6,
      "label": "Ominous silence",
      "description": "Level Way to the Base is complete.",
      "howto": "Level Way to the Base is complete."
    },
    {
      "id": 7,
      "imageId": 7,
      "cred": 10,
      "flags": 6,
      "label": "Heart of evil",
      "description": "Level The Mound is complete.",
      "howto": "Level The Mound is complete."
    },
    {
      "id": 8,
      "imageId": 8,
      "cred": 10,
      "flags": 6,
      "label": "Home sweet home",
      "description": "Level The Base is complete.",
      "howto": "Level The Base is complete."
    },
    {
      "id": 9,
      "imageId": 9,
      "cred": 50,
      "flags": 1,
      "label": "Showdown",
      "description": "Level Final battle is complete.",
      "howto": "Level Final battle is complete."
    },
    {
      "id": 10,
      "imageId": 10,
      "cred": 25,
      "flags": 4,
      "label": "X-files",
      "description": "All secret cocoons have been collected.",
      "howto": "All secret cocoons have been collected."
    },
    {
      "id": 11,
      "imageId": 11,
      "cred": 25,
      "flags": 4,
      "label": "Snoop",
      "description": "All gene cocoons have been collected. ",
      "howto": "All gene cocoons have been collected. "
    },
    {
      "id": 12,
      "imageId": 12,
      "cred": 15,
      "flags": 4,
      "label": "Collector",
      "description": "All close combat weapon has been collected.",
      "howto": "All close combat weapon has been collected."
    },
    {
      "id": 13,
      "imageId": 13,
      "cred": 25,
      "flags": 4,
      "label": "Humanitarian",
      "description": "You did not kill a single soldier when you were running away from the Beast.",
      "howto": "You did not kill a single soldier when you were running away from the Beast."
    },
    {
      "id": 14,
      "imageId": 14,
      "cred": 25,
      "flags": 4,
      "label": "Energy blast",
      "description": "The Annihilator has been killed by a grenade explosion.",
      "howto": "The Annihilator has been killed by a grenade explosion."
    },
    {
      "id": 15,
      "imageId": 15,
      "cred": 25,
      "flags": 4,
      "label": "Deadly metal",
      "description": "The Beast has been killed by a grenade explosion.",
      "howto": "The Beast has been killed by a grenade explosion."
    },
    {
      "id": 16,
      "imageId": 16,
      "cred": 25,
      "flags": 4,
      "label": "Suicide",
      "description": "The Beast has been killed by its own shot, reflected from the shield.",
      "howto": "The Beast has been killed by its own shot, reflected from the shield."
    },
    {
      "id": 17,
      "imageId": 17,
      "cred": 25,
      "flags": 4,
      "label": "Alien DNA",
      "description": "You disconnected a monster from the Swarm and it killed the Beast.",
      "howto": "You disconnected a monster from the Swarm and it killed the Beast."
    },
    {
      "id": 18,
      "imageId": 18,
      "cred": 50,
      "flags": 4,
      "label": "Immortal",
      "description": "You have completed all levels without a single death.",
      "howto": "You have completed all levels without a single death."
    },
    {
      "id": 19,
      "imageId": 19,
      "cred": 25,
      "flags": 4,
      "label": "Anonymous Alcoholic",
      "description": "You have broken 50 bottles.",
      "howto": "You have broken 50 bottles."
    },
    {
      "id": 20,
      "imageId": 20,
      "cred": 15,
      "flags": 4,
      "label": "Explosives expert",
      "description": "You have blown up 20 barrels.",
      "howto": "You have blown up 20 barrels."
    },
    {
      "id": 21,
      "imageId": 21,
      "cred": 25,
      "flags": 4,
      "label": "Sportsman",
      "description": "You have jumped 100 times.",
      "howto": "You have jumped 100 times."
    },
    {
      "id": 22,
      "imageId": 22,
      "cred": 25,
      "flags": 4,
      "label": "Master of reflection",
      "description": "You have reflected 200 shots with your shield.",
      "howto": "You have reflected 200 shots with your shield."
    },
    {
      "id": 23,
      "imageId": 23,
      "cred": 25,
      "flags": 4,
      "label": "Butcher",
      "description": "You have killed 5 enemies in one 'rage' spell.",
      "howto": "You have killed 5 enemies in one 'rage' spell."
    },
    {
      "id": 24,
      "imageId": 24,
      "cred": 50,
      "flags": 4,
      "label": "Blood bath",
      "description": "You have killed 8 enemies in one 'rage' spell.",
      "howto": "You have killed 8 enemies in one 'rage' spell."
    },
    {
      "id": 25,
      "imageId": 25,
      "cred": 25,
      "flags": 4,
      "label": "Overmind",
      "description": "You have taken 30 aliens under control.",
      "howto": "You have taken 30 aliens under control."
    },
    {
      "id": 26,
      "imageId": 26,
      "cred": 20,
      "flags": 4,
      "label": "Cat's eye",
      "description": "You have spent 15 minutes in Alien-view mode.",
      "howto": "You have spent 15 minutes in Alien-view mode."
    },
    {
      "id": 27,
      "imageId": 27,
      "cred": 15,
      "flags": 4,
      "label": "Illusionist ",
      "description": "You have killed an enemy with shots reflected from the shield.",
      "howto": "You have killed an enemy with shots reflected from the shield."
    },
    {
      "id": 28,
      "imageId": 28,
      "cred": 20,
      "flags": 4,
      "label": "Biologist",
      "description": "You have collected gene material of every alien type.",
      "howto": "You have collected gene material of every alien type."
    },
    {
      "id": 29,
      "imageId": 29,
      "cred": 25,
      "flags": 4,
      "label": "Kick-boxer",
      "description": "You have kicked to death 20 kamikaze.",
      "howto": "You have kicked to death 20 kamikaze."
    },
    {
      "id": 30,
      "imageId": 30,
      "cred": 15,
      "flags": 4,
      "label": "Grendier",
      "description": "You have killed 2 enemies with one grenade.",
      "howto": "You have killed 2 enemies with one grenade."
    },
    {
      "id": 31,
      "imageId": 31,
      "cred": 25,
      "flags": 4,
      "label": "Senior Grenadier",
      "description": "You have killed 3 enemies with one grenade.",
      "howto": "You have killed 3 enemies with one grenade."
    },
    {
      "id": 32,
      "imageId": 32,
      "cred": 25,
      "flags": 4,
      "label": "Ripper",
      "description": "You have killed the Terminator with a grenade.",
      "howto": "You have killed the Terminator with a grenade."
    },
    {
      "id": 33,
      "imageId": 33,
      "cred": 25,
      "flags": 4,
      "label": "Prybar master",
      "description": "You have killed 100 enemies with close combat weapon.",
      "howto": "You have killed 100 enemies with close combat weapon."
    },
    {
      "id": 34,
      "imageId": 34,
      "cred": 50,
      "flags": 4,
      "label": "Sharp-shooter",
      "description": "You have killed 100 enemies with distant combat weapon.",
      "howto": "You have killed 100 enemies with distant combat weapon."
    },
    {
      "id": 35,
      "imageId": 35,
      "cred": 10,
      "flags": 4,
      "label": "Moscow saviour",
      "description": "You have killed 100 enemies.",
      "howto": "You have killed 100 enemies."
    },
    {
      "id": 36,
      "imageId": 36,
      "cred": 25,
      "flags": 4,
      "label": "Planet saviour",
      "description": "You have killed 250 enemies.",
      "howto": "You have killed 250 enemies."
    },
    {
      "id": 37,
      "imageId": 37,
      "cred": 50,
      "flags": 4,
      "label": "Galaxy saviour",
      "description": "You have killed 500 enemies.",
      "howto": "You have killed 500 enemies."
    },
    {
      "id": 38,
      "imageId": 38,
      "cred": 25,
      "flags": 4,
      "label": "Vivisectionist",
      "description": "You have dealt fatality to 10 aliens.",
      "howto": "You have dealt fatality to 10 aliens."
    },
    {
      "id": 39,
      "imageId": 39,
      "cred": 50,
      "flags": 4,
      "label": "Fatalist",
      "description": "You have dealt fatality to 25 aliens.",
      "howto": "You have dealt fatality to 25 aliens."
    },
    {
      "id": 40,
      "imageId": 40,
      "cred": 10,
      "flags": 2,
      "label": "Post graduate",
      "description": "You have achieved maximum level in one of the skills.",
      "howto": "You have achieved maximum level in one of the skills."
    },
    {
      "id": 41,
      "imageId": 41,
      "cred": 50,
      "flags": 2,
      "label": "Bachelor",
      "description": "You have reached maximum level in all of your skills.",
      "howto": "You have reached maximum level in all of your skills."
    }
  ]
}