{
  "achievementsPossible": 49,
  "credPossible": 1000,
  "achievements": [
    {
      "id": 1,
      "imageId": 2,
      "cred": 10,
      "flags": 1,
      "label": "Meet Gino",
      "description": "Win the challenge \"Meet Gino\".",
      "howto": "Win the challenge \"Meet Gino\"."
    },
    {
      "id": 2,
      "imageId": 17,
      "cred": 10,
      "flags": 1,
      "label": "Greedy",
      "description": "Win the challenge \"Greedy\".",
      "howto": "Win the challenge \"Greedy\"."
    },
    {
      "id": 3,
      "imageId": 4,
      "cred": 20,
      "flags": 1,
      "label": "In shape without training",
      "description": "Win the challenge \"In shape without training\".",
      "howto": "Win the challenge \"In shape without training\"."
    },
    {
      "id": 4,
      "imageId": 13,
      "cred": 10,
      "flags": 1,
      "label": "Pocket money",
      "description": "Win the challenge \"Pocket money\".",
      "howto": "Win the challenge \"Pocket money\"."
    },
    {
      "id": 5,
      "imageId": 14,
      "cred": 20,
      "flags": 1,
      "label": "Seed capital",
      "description": "Win the challenge \"Seed capital\".",
      "howto": "Win the challenge \"Seed capital\"."
    },
    {
      "id": 6,
      "imageId": 15,
      "cred": 30,
      "flags": 1,
      "label": "Prosperity",
      "description": "Win the challenge \"Prosperity\".",
      "howto": "Win the challenge \"Prosperity\"."
    },
    {
      "id": 7,
      "imageId": 16,
      "cred": 40,
      "flags": 1,
      "label": "Fabulous wealth",
      "description": "Win the challenge \"Fabulous wealth\".",
      "howto": "Win the challenge \"Fabulous wealth\"."
    },
    {
      "id": 8,
      "imageId": 6,
      "cred": 15,
      "flags": 1,
      "label": "Impress Nikolai",
      "description": "Win the challenge \"Impress Nikolai\".",
      "howto": "Win the challenge \"Impress Nikolai\"."
    },
    {
      "id": 9,
      "imageId": 11,
      "cred": 25,
      "flags": 1,
      "label": "Impress Stacy",
      "description": "Win the challenge \"Impress Stacy\".",
      "howto": "Win the challenge \"Impress Stacy\"."
    },
    {
      "id": 10,
      "imageId": 18,
      "cred": 35,
      "flags": 1,
      "label": "I've got the power",
      "description": "Win the challenge \"I've got the power\".",
      "howto": "Win the challenge \"I've got the power\"."
    },
    {
      "id": 11,
      "imageId": 7,
      "cred": 15,
      "flags": 1,
      "label": "One half of the treasure",
      "description": "Win the challenge \"One half of the treasure\".",
      "howto": "Win the challenge \"One half of the treasure\"."
    },
    {
      "id": 12,
      "imageId": 3,
      "cred": 50,
      "flags": 1,
      "label": "Gold obsession",
      "description": "Win the challenge \"Gold obsession\".",
      "howto": "Win the challenge \"Gold obsession\"."
    },
    {
      "id": 13,
      "imageId": 1,
      "cred": 15,
      "flags": 1,
      "label": "Rookie Cup",
      "description": "Win the challenge \"Rookie Cup\".",
      "howto": "Win the challenge \"Rookie Cup\"."
    },
    {
      "id": 14,
      "imageId": 9,
      "cred": 20,
      "flags": 1,
      "label": "Motion Cup",
      "description": "Win the challenge \"Motion Cup\".",
      "howto": "Win the challenge \"Motion Cup\"."
    },
    {
      "id": 15,
      "imageId": 10,
      "cred": 25,
      "flags": 1,
      "label": "Cosmos Cup",
      "description": "Win the challenge \"Cosmos Cup\".",
      "howto": "Win the challenge \"Cosmos Cup\"."
    },
    {
      "id": 16,
      "imageId": 12,
      "cred": 30,
      "flags": 1,
      "label": "Destiny Cup",
      "description": "Win the challenge \"Destiny Cup\".",
      "howto": "Win the challenge \"Destiny Cup\"."
    },
    {
      "id": 17,
      "imageId": 19,
      "cred": 20,
      "flags": 1,
      "label": "Good company",
      "description": "Win the challenge \"Good company\".",
      "howto": "Win the challenge \"Good company\"."
    },
    {
      "id": 18,
      "imageId": 20,
      "cred": 20,
      "flags": 1,
      "label": "Access all areas",
      "description": "Win the challenge \"Access all areas\".",
      "howto": "Win the challenge \"Access all areas\"."
    },
    {
      "id": 19,
      "imageId": 8,
      "cred": 40,
      "flags": 1,
      "label": "One on One",
      "description": "Win the challenge \"One on One\".",
      "howto": "Win the challenge \"One on One\"."
    },
    {
      "id": 20,
      "imageId": 5,
      "cred": 50,
      "flags": 1,
      "label": "Couldn't care less about Marc",
      "description": "Win the challenge \"Couldn't care less about Marc\".",
      "howto": "Win the challenge \"Couldn't care less about Marc\"."
    },
    {
      "id": 21,
      "imageId": 47,
      "cred": 10,
      "flags": 1,
      "label": "Record breaker",
      "description": "Win the challenge \"Record breaker\".",
      "howto": "Win the challenge \"Record breaker\"."
    },
    {
      "id": 22,
      "imageId": 48,
      "cred": 20,
      "flags": 1,
      "label": "Perfect 10",
      "description": "Win the challenge \"Perfect 10\".",
      "howto": "Win the challenge \"Perfect 10\"."
    },
    {
      "id": 23,
      "imageId": 49,
      "cred": 30,
      "flags": 1,
      "label": "World domination",
      "description": "Win the challenge \"World domination\".",
      "howto": "Win the challenge \"World domination\"."
    },
    {
      "id": 24,
      "imageId": 26,
      "cred": 15,
      "flags": 1,
      "label": "In a hurry",
      "description": "Win the challenge \"In a hurry\".",
      "howto": "Win the challenge \"In a hurry\"."
    },
    {
      "id": 25,
      "imageId": 27,
      "cred": 20,
      "flags": 1,
      "label": "Dislike of prime numbers",
      "description": "Win the challenge \"Dislike of prime numbers\".",
      "howto": "Win the challenge \"Dislike of prime numbers\"."
    },
    {
      "id": 26,
      "imageId": 23,
      "cred": 15,
      "flags": 1,
      "label": "Narrow path",
      "description": "Win the challenge \"Narrow path\".",
      "howto": "Win the challenge \"Narrow path\"."
    },
    {
      "id": 27,
      "imageId": 24,
      "cred": 20,
      "flags": 1,
      "label": "Two's company, three's a crowd",
      "description": "Win the challenge \"Two's company, three's a crowd\".",
      "howto": "Win the challenge \"Two's company, three's a crowd\"."
    },
    {
      "id": 28,
      "imageId": 25,
      "cred": 20,
      "flags": 1,
      "label": "Roadblock",
      "description": "Win the challenge \"Roadblock\".",
      "howto": "Win the challenge \"Roadblock\"."
    },
    {
      "id": 29,
      "imageId": 28,
      "cred": 20,
      "flags": 1,
      "label": "Last chance",
      "description": "Win the challenge \"Last chance\".",
      "howto": "Win the challenge \"Last chance\"."
    },
    {
      "id": 30,
      "imageId": 29,
      "cred": 20,
      "flags": 1,
      "label": "First try",
      "description": "Win the challenge \"First try\".",
      "howto": "Win the challenge \"First try\"."
    },
    {
      "id": 31,
      "imageId": 39,
      "cred": 20,
      "flags": 1,
      "label": "Choose wisely",
      "description": "Win the challenge \"Choose wisely\".",
      "howto": "Win the challenge \"Choose wisely\"."
    },
    {
      "id": 32,
      "imageId": 40,
      "cred": 20,
      "flags": 1,
      "label": "Bad posture",
      "description": "Win the challenge \"Bad posture\".",
      "howto": "Win the challenge \"Bad posture\"."
    },
    {
      "id": 33,
      "imageId": 41,
      "cred": 20,
      "flags": 1,
      "label": "Stumble and win",
      "description": "Win the challenge \"Stumble and win\".",
      "howto": "Win the challenge \"Stumble and win\"."
    },
    {
      "id": 34,
      "imageId": 38,
      "cred": 10,
      "flags": 1,
      "label": "Reserved",
      "description": "Win the challenge \"Reserved\".",
      "howto": "Win the challenge \"Reserved\"."
    },
    {
      "id": 35,
      "imageId": 37,
      "cred": 15,
      "flags": 1,
      "label": "Torpedo",
      "description": "Win the challenge \"Torpedo\".",
      "howto": "Win the challenge \"Torpedo\"."
    },
    {
      "id": 36,
      "imageId": 21,
      "cred": 15,
      "flags": 1,
      "label": "Belly flopper",
      "description": "Win the challenge \"Belly flopper\".",
      "howto": "Win the challenge \"Belly flopper\"."
    },
    {
      "id": 37,
      "imageId": 22,
      "cred": 10,
      "flags": 1,
      "label": "Flawless flight",
      "description": "Win the challenge \"Flawless flight\".",
      "howto": "Win the challenge \"Flawless flight\"."
    },
    {
      "id": 38,
      "imageId": 34,
      "cred": 15,
      "flags": 1,
      "label": "International emergency call",
      "description": "Win the challenge \"International emergency call\".",
      "howto": "Win the challenge \"International emergency call\"."
    },
    {
      "id": 39,
      "imageId": 35,
      "cred": 15,
      "flags": 1,
      "label": "Counting up",
      "description": "Win the challenge \"Counting up\".",
      "howto": "Win the challenge \"Counting up\"."
    },
    {
      "id": 40,
      "imageId": 36,
      "cred": 15,
      "flags": 1,
      "label": "Counting down",
      "description": "Win the challenge \"Counting down\".",
      "howto": "Win the challenge \"Counting down\"."
    },
    {
      "id": 41,
      "imageId": 42,
      "cred": 10,
      "flags": 1,
      "label": "Maximum airtime",
      "description": "Win the challenge \"Maximum airtime\".",
      "howto": "Win the challenge \"Maximum airtime\"."
    },
    {
      "id": 42,
      "imageId": 43,
      "cred": 10,
      "flags": 1,
      "label": "Jolly jumping 1",
      "description": "Win the challenge \"Jolly jumping 1\".",
      "howto": "Win the challenge \"Jolly jumping 1\"."
    },
    {
      "id": 43,
      "imageId": 44,
      "cred": 15,
      "flags": 1,
      "label": "Jolly jumping 2",
      "description": "Win the challenge \"Jolly jumping 2\".",
      "howto": "Win the challenge \"Jolly jumping 2\"."
    },
    {
      "id": 44,
      "imageId": 45,
      "cred": 20,
      "flags": 1,
      "label": "Jolly jumping 3",
      "description": "Win the challenge \"Jolly jumping 3\".",
      "howto": "Win the challenge \"Jolly jumping 3\"."
    },
    {
      "id": 45,
      "imageId": 46,
      "cred": 25,
      "flags": 1,
      "label": "Ultimate body control",
      "description": "Win the challenge \"Ultimate body control\".",
      "howto": "Win the challenge \"Ultimate body control\"."
    },
    {
      "id": 46,
      "imageId": 31,
      "cred": 15,
      "flags": 1,
      "label": "Almost untouchable",
      "description": "Win the challenge \"Almost untouchable\".",
      "howto": "Win the challenge \"Almost untouchable\"."
    },
    {
      "id": 47,
      "imageId": 33,
      "cred": 15,
      "flags": 1,
      "label": "Lucky strikes",
      "description": "Win the challenge \"Lucky strikes\".",
      "howto": "Win the challenge \"Lucky strikes\"."
    },
    {
      "id": 48,
      "imageId": 32,
      "cred": 15,
      "flags": 1,
      "label": "Counter strike",
      "description": "Win the challenge \"Counter strike\".",
      "howto": "Win the challenge \"Counter strike\"."
    },
    {
      "id": 49,
      "imageId": 30,
      "cred": 30,
      "flags": 1,
      "label": "Flawless victory",
      "description": "Win the challenge \"Flawless victory\".",
      "howto": "Win the challenge \"Flawless victory\"."
    }
  ]
}