{
  "achievementsPossible": 43,
  "credPossible": 1000,
  "achievements": [
    {
      "id": 1,
      "imageId": 32768,
      "cred": 10,
      "flags": 1,
      "label": "Hands-On",
      "description": "5 Grapple Kills",
      "howto": "5 Grapple Kills"
    },
    {
      "id": 2,
      "imageId": 32768,
      "cred": 15,
      "flags": 4,
      "label": "Man Handle",
      "description": "50 Grapple Kills",
      "howto": "50 Grapple Kills"
    },
    {
      "id": 3,
      "imageId": 32768,
      "cred": 20,
      "flags": 4,
      "label": "Death Grip",
      "description": "250 grapple kills",
      "howto": "250 grapple kills"
    },
    {
      "id": 4,
      "imageId": 32768,
      "cred": 30,
      "flags": 4,
      "label": "Fatal Touch",
      "description": "500 grapple kills",
      "howto": "500 grapple kills"
    },
    {
      "id": 7,
      "imageId": 32768,
      "cred": 10,
      "flags": 4,
      "label": "Now You See It, Now You Don't",
      "description": "Disarm an enemy",
      "howto": "Disarm an enemy"
    },
    {
      "id": 8,
      "imageId": 32768,
      "cred": 30,
      "flags": 4,
      "label": "Master Looter",
      "description": "Disarm 100 enemies",
      "howto": "Disarm 100 enemies"
    },
    {
      "id": 9,
      "imageId": 32768,
      "cred": 30,
      "flags": 4,
      "label": "Rock of Ages",
      "description": "Kill 100 enemies by boulder throw",
      "howto": "Kill 100 enemies by boulder throw"
    },
    {
      "id": 10,
      "imageId": 32768,
      "cred": 10,
      "flags": 4,
      "label": "Free Fall",
      "description": "Kill an enemy by death fall",
      "howto": "Kill an enemy by death fall"
    },
    {
      "id": 11,
      "imageId": 32768,
      "cred": 30,
      "flags": 4,
      "label": "Death Rain",
      "description": "Kill 100 enemies by death fall",
      "howto": "Kill 100 enemies by death fall"
    },
    {
      "id": 15,
      "imageId": 32768,
      "cred": 10,
      "flags": 4,
      "label": "Parry Farm",
      "description": "Perform every parry kill move",
      "howto": "Perform every parry kill move"
    },
    {
      "id": 16,
      "imageId": 32768,
      "cred": 20,
      "flags": 4,
      "label": "Parry Assassin",
      "description": "100 parry kills",
      "howto": "100 parry kills"
    },
    {
      "id": 17,
      "imageId": 32768,
      "cred": 30,
      "flags": 4,
      "label": "Parry King",
      "description": "200 parry kills",
      "howto": "200 parry kills"
    },
    {
      "id": 18,
      "imageId": 32768,
      "cred": 10,
      "flags": 4,
      "label": "Chained Attacker",
      "description": "Combo Counter reaches 100",
      "howto": "Combo Counter reaches 100"
    },
    {
      "id": 19,
      "imageId": 32768,
      "cred": 30,
      "flags": 4,
      "label": "Chain of Fools",
      "description": "Combo Counter reaches 325",
      "howto": "Combo Counter reaches 325"
    },
    {
      "id": 20,
      "imageId": 32768,
      "cred": 20,
      "flags": 4,
      "label": "Mob Massacre",
      "description": "Kill 5 or more enemies simultaneously",
      "howto": "Kill 5 or more enemies simultaneously"
    },
    {
      "id": 21,
      "imageId": 32768,
      "cred": 40,
      "flags": 4,
      "label": "Strength of 10 men",
      "description": "Kill 10 or more enemies simultaneously",
      "howto": "Kill 10 or more enemies simultaneously"
    },
    {
      "id": 22,
      "imageId": 32768,
      "cred": 10,
      "flags": 4,
      "label": "Treasure Seeker",
      "description": "Find 5 treasure chests",
      "howto": "Find 5 treasure chests"
    },
    {
      "id": 23,
      "imageId": 32768,
      "cred": 20,
      "flags": 4,
      "label": "Treasure Hunter",
      "description": "Find 50 treasure chests",
      "howto": "Find 50 treasure chests"
    },
    {
      "id": 24,
      "imageId": 32768,
      "cred": 30,
      "flags": 4,
      "label": "Filthy Rich",
      "description": "Find all treasure chests",
      "howto": "Find all treasure chests"
    },
    {
      "id": 25,
      "imageId": 32768,
      "cred": 10,
      "flags": 4,
      "label": "Noble Conan",
      "description": "Save a Maiden",
      "howto": "Save a Maiden"
    },
    {
      "id": 26,
      "imageId": 32768,
      "cred": 20,
      "flags": 4,
      "label": "My Hero",
      "description": "Save all maidens",
      "howto": "Save all maidens"
    },
    {
      "id": 27,
      "imageId": 32768,
      "cred": 10,
      "flags": 4,
      "label": "Triumvirate Seeker",
      "description": "Activate 5 rune triumvirates",
      "howto": "Activate 5 rune triumvirates"
    },
    {
      "id": 28,
      "imageId": 32768,
      "cred": 20,
      "flags": 4,
      "label": "Triumvirates United",
      "description": "Activate all rune triumvirates",
      "howto": "Activate all rune triumvirates"
    },
    {
      "id": 29,
      "imageId": 32768,
      "cred": 10,
      "flags": 4,
      "label": "Defeat Cleaver's Army",
      "description": "Defeat the Bone Cleaver and his army in Barachan Isles and obtain The Ward of Fire",
      "howto": "Defeat the Bone Cleaver and his army in Barachan Isles and obtain The Ward of Fire"
    },
    {
      "id": 30,
      "imageId": 32768,
      "cred": 10,
      "flags": 4,
      "label": "Dragon Slayer",
      "description": "Defeat the Sand Dragon in the lost city of Shem and obtain The Ward of the Earth",
      "howto": "Defeat the Sand Dragon in the lost city of Shem and obtain The Ward of the Earth"
    },
    {
      "id": 31,
      "imageId": 32768,
      "cred": 20,
      "flags": 4,
      "label": "Demon Slayer",
      "description": "Defeat the Elephant Demon in the Kush caves and obtain The Ward of the Abyss",
      "howto": "Defeat the Elephant Demon in the Kush caves and obtain The Ward of the Abyss"
    },
    {
      "id": 32,
      "imageId": 32768,
      "cred": 20,
      "flags": 4,
      "label": "Snake Charmer",
      "description": "Defeat the Sorceress Queen in Stygia and obtain The Ward of Souls",
      "howto": "Defeat the Sorceress Queen in Stygia and obtain The Ward of Souls"
    },
    {
      "id": 33,
      "imageId": 32768,
      "cred": 30,
      "flags": 4,
      "label": "Who's your Daddy?",
      "description": "Defeat the Bone Cleaver in Argos and obtain The Ward of the Departed",
      "howto": "Defeat the Bone Cleaver in Argos and obtain The Ward of the Departed"
    },
    {
      "id": 34,
      "imageId": 32768,
      "cred": 30,
      "flags": 4,
      "label": "Sink the Squid",
      "description": "Defend the ship and defeat the Giant Squid",
      "howto": "Defend the ship and defeat the Giant Squid"
    },
    {
      "id": 35,
      "imageId": 32768,
      "cred": 40,
      "flags": 4,
      "label": "Rest In Peace",
      "description": "Send Graven into the Netherworld in the Ocean Ruins and complete the game",
      "howto": "Send Graven into the Netherworld in the Ocean Ruins and complete the game"
    },
    {
      "id": 36,
      "imageId": 32768,
      "cred": 20,
      "flags": 4,
      "label": "The Legendary Set",
      "description": "Collect all armor pieces",
      "howto": "Collect all armor pieces"
    },
    {
      "id": 38,
      "imageId": 32768,
      "cred": 50,
      "flags": 1,
      "label": "Mighty Conan",
      "description": "Complete the game on Hard mode",
      "howto": "Complete the game on Hard mode"
    },
    {
      "id": 39,
      "imageId": 32768,
      "cred": 70,
      "flags": 1,
      "label": "Master Conan",
      "description": "Complete the game on King mode",
      "howto": "Complete the game on King mode"
    },
    {
      "id": 40,
      "imageId": 32768,
      "cred": 20,
      "flags": 4,
      "label": "Bill of Health",
      "description": "Find all Health Meter powerups",
      "howto": "Find all Health Meter powerups"
    },
    {
      "id": 41,
      "imageId": 32768,
      "cred": 20,
      "flags": 4,
      "label": "Armored Up",
      "description": "Find all Power Meter powerups",
      "howto": "Find all Power Meter powerups"
    },
    {
      "id": 42,
      "imageId": 32768,
      "cred": 20,
      "flags": 4,
      "label": "Adrenaline Rush",
      "description": "Find all Song of Death meter powerups",
      "howto": "Find all Song of Death meter powerups"
    },
    {
      "id": 43,
      "imageId": 32768,
      "cred": 20,
      "flags": 4,
      "label": "Master Swordsman",
      "description": "All one-handed blade attacks mastered",
      "howto": "All one-handed blade attacks mastered"
    },
    {
      "id": 44,
      "imageId": 32768,
      "cred": 20,
      "flags": 4,
      "label": "Master Dual Wielder",
      "description": "All dual wield attacks mastered",
      "howto": "All dual wield attacks mastered"
    },
    {
      "id": 45,
      "imageId": 32768,
      "cred": 20,
      "flags": 4,
      "label": "Master Two-Handed Swordsman",
      "description": "All two-handed blade attacks mastered",
      "howto": "All two-handed blade attacks mastered"
    },
    {
      "id": 46,
      "imageId": 32768,
      "cred": 15,
      "flags": 4,
      "label": "Bring out the Gimp",
      "description": "Kill at least 25 enemies during the Giant Squid boss battle",
      "howto": "Kill at least 25 enemies during the Giant Squid boss battle"
    },
    {
      "id": 48,
      "imageId": 32768,
      "cred": 30,
      "flags": 4,
      "label": "Untouchable",
      "description": "Complete a mission without taking any damage",
      "howto": "Complete a mission without taking any damage"
    },
    {
      "id": 50,
      "imageId": 32768,
      "cred": 20,
      "flags": 4,
      "label": "High and Mighty",
      "description": "Score 20000 points in a level",
      "howto": "Score 20000 points in a level"
    },
    {
      "id": 51,
      "imageId": 32768,
      "cred": 50,
      "flags": 4,
      "label": "The Bloody Crown",
      "description": "Score 100000 total points",
      "howto": "Score 100000 total points"
    }
  ]
}