{
  "achievementsPossible": 29,
  "credPossible": 1000,
  "achievements": [
    {
      "id": 1,
      "imageId": 1,
      "cred": 10,
      "flags": 1,
      "label": "Quick Learner",
      "description": "Complete the tutorial.",
      "howto": "Complete all the lessons in the tutorial."
    },
    {
      "id": 2,
      "imageId": 2,
      "cred": 10,
      "flags": 1,
      "label": "Beginner’s Luck",
      "description": "Get 1 Trophy in Shiverpool.",
      "howto": "Get 1 Trophy in Shiverpool area."
    },
    {
      "id": 3,
      "imageId": 3,
      "cred": 20,
      "flags": 1,
      "label": "Leaving Shiverpool",
      "description": "Get 2 Trophies in Shiverpool.",
      "howto": "Get 2 Trophies in Shiverpool area."
    },
    {
      "id": 4,
      "imageId": 4,
      "cred": 10,
      "flags": 1,
      "label": "Welcome to Pen Gu South",
      "description": "Get 1 Trophy in Pen-Gu South.",
      "howto": "Get 1 Trophy in Pen-Gu South area."
    },
    {
      "id": 5,
      "imageId": 5,
      "cred": 20,
      "flags": 1,
      "label": "Leaving Pen Gu South",
      "description": "Get 4 Trophies in Pen-Gu South.",
      "howto": "Get 4 Trophies in Pen-Gu South area."
    },
    {
      "id": 6,
      "imageId": 6,
      "cred": 10,
      "flags": 1,
      "label": "Welcome to the Volcano",
      "description": "Get 1 Trophy in Volcano.",
      "howto": "Get 1 Trophy in Volcano area."
    },
    {
      "id": 7,
      "imageId": 7,
      "cred": 20,
      "flags": 1,
      "label": "Leaving Volcano",
      "description": "Get 2 Trophies in Volcano.",
      "howto": "Get 2 Trophies in Volcano area."
    },
    {
      "id": 8,
      "imageId": 8,
      "cred": 10,
      "flags": 1,
      "label": "Welcome to Pen Gu North",
      "description": "Get 1 Trophy in Pen-Gu North.",
      "howto": "Get 1 Trophy in Pen-Gu North area."
    },
    {
      "id": 9,
      "imageId": 9,
      "cred": 20,
      "flags": 1,
      "label": "Leaving Pen Gu North",
      "description": "Get 3 Trophies in Pen-Gu North.",
      "howto": "Get 3 Trophies in Pen-Gu North area."
    },
    {
      "id": 10,
      "imageId": 10,
      "cred": 40,
      "flags": 1,
      "label": "Fashion Freak",
      "description": "Get all accessories.",
      "howto": "Unlock every accessory."
    },
    {
      "id": 11,
      "imageId": 11,
      "cred": 40,
      "flags": 1,
      "label": "Board Collector",
      "description": "Get all surf boards.",
      "howto": "Unlock all the boards in the game."
    },
    {
      "id": 15,
      "imageId": 33,
      "cred": 10,
      "flags": 1,
      "label": "Shiny Stuff 1",
      "description": "Get 25 Surf Idols.",
      "howto": "Collect 25 Surf Idols in surf and leaf slide levels."
    },
    {
      "id": 16,
      "imageId": 34,
      "cred": 20,
      "flags": 1,
      "label": "Shiny Stuff 2",
      "description": "Get 50 Surf Idols.",
      "howto": "Collect 50 Surf Idols in surf and leaf slide levels."
    },
    {
      "id": 17,
      "imageId": 35,
      "cred": 50,
      "flags": 1,
      "label": "Shiny Stuff 3",
      "description": "Get 100 Surf Idols.",
      "howto": "Collect 100 Surf Idols in surf and leaf slide levels.\r\n"
    },
    {
      "id": 18,
      "imageId": 15,
      "cred": 10,
      "flags": 1,
      "label": "Slide Survivor 1",
      "description": "Get Shell in Leaf Slide 1.",
      "howto": "Beat the hi-score and get the shell in leaf slide 1."
    },
    {
      "id": 19,
      "imageId": 16,
      "cred": 10,
      "flags": 1,
      "label": "Slide Survivor 2",
      "description": "Get Shell in Leaf Slide 2.",
      "howto": "Beat the hi-score and get the shell in leaf slide 2."
    },
    {
      "id": 20,
      "imageId": 17,
      "cred": 10,
      "flags": 1,
      "label": "Slide Survivor 3",
      "description": "Get Shell in Leaf Slide 3.",
      "howto": "Beat the hi-score and get the shell in leaf slide 3."
    },
    {
      "id": 21,
      "imageId": 18,
      "cred": 30,
      "flags": 1,
      "label": "First steps",
      "description": "Go on Pen-Gu North legendary wave for the first time.",
      "howto": "Start surfing on the Pen Gu North Legendary wave!"
    },
    {
      "id": 22,
      "imageId": 19,
      "cred": 10,
      "flags": 4,
      "label": "Lucky one",
      "description": "Get a total of 4 Shells.",
      "howto": "Get a total of 4 Shells."
    },
    {
      "id": 23,
      "imageId": 20,
      "cred": 20,
      "flags": 4,
      "label": "Shell Collector",
      "description": "Get a total of 8 Shells.",
      "howto": "Get a total of 8 Shells."
    },
    {
      "id": 24,
      "imageId": 21,
      "cred": 30,
      "flags": 4,
      "label": "Shell Lover",
      "description": "Get a total of 12 Shells.",
      "howto": "Get a total of 12 Shells."
    },
    {
      "id": 25,
      "imageId": 22,
      "cred": 40,
      "flags": 4,
      "label": "Shell Addict",
      "description": "Get a total of 16 Shells.",
      "howto": "Get a total of 16 Shells."
    },
    {
      "id": 26,
      "imageId": 23,
      "cred": 50,
      "flags": 4,
      "label": "Too Many Shells",
      "description": "Get a total of 20 Shells.",
      "howto": "Get a total of 20 Shells."
    },
    {
      "id": 27,
      "imageId": 24,
      "cred": 100,
      "flags": 4,
      "label": "Record Man!",
      "description": "Get a total of 27 Shells.",
      "howto": "Get a total of 27 Shells."
    },
    {
      "id": 28,
      "imageId": 25,
      "cred": 50,
      "flags": 3,
      "label": "The Beach Kid",
      "description": "Unlock Arnold.",
      "howto": "Unlock Arnold by getting the second shell in Shiverpool 2."
    },
    {
      "id": 29,
      "imageId": 26,
      "cred": 100,
      "flags": 3,
      "label": "Wild Encounter",
      "description": "Unlock Elliot.",
      "howto": "Unlock Elliot by getting the second shell in Volcano 2."
    },
    {
      "id": 32,
      "imageId": 27,
      "cred": 50,
      "flags": 3,
      "label": "The Geek",
      "description": "Unlock Geek.",
      "howto": "Unlock Geek by getting the second shell in Pen-Gu South 4."
    },
    {
      "id": 33,
      "imageId": 28,
      "cred": 100,
      "flags": 3,
      "label": "Figure from the Past",
      "description": "Unlock Z.",
      "howto": "Unlock Z by getting the second shell in Pen-Gu North legendary."
    },
    {
      "id": 34,
      "imageId": 29,
      "cred": 100,
      "flags": 4,
      "label": "King of Boneyards",
      "description": "Get 1 Trophy in Boneyards.",
      "howto": "Get 1 Trophy in Boneyards."
    }
  ]
}