{
  "achievementsPossible": 12,
  "credPossible": 200,
  "achievements": [
    {
      "id": 1,
      "imageId": 1,
      "cred": 5,
      "flags": 6,
      "label": "Humble Beginnings",
      "description": "Finish the Tutorial map. You’ve learnt what to do. Every hero has to start somewhere.",
      "howto": "Finish the Tutorial map"
    },
    {
      "id": 2,
      "imageId": 2,
      "cred": 10,
      "flags": 6,
      "label": "Zombie Hunter",
      "description": "Defeat Zulac. You don't need a shotgun or chainsaw to defeat the Undead, just weapons and gems.",
      "howto": "Defeat Zulac"
    },
    {
      "id": 3,
      "imageId": 3,
      "cred": 10,
      "flags": 6,
      "label": "Basilisk’s Bane",
      "description": "Defeat Iriki. With all the dead snakes in the jungle, maybe you should open your own restaurant.",
      "howto": "Defeat Iriki"
    },
    {
      "id": 4,
      "imageId": 4,
      "cred": 15,
      "flags": 6,
      "label": "Giant Slayer",
      "description": "Defeat Arokk. The arena may miss him, but you won’t. After all, he was just a big purple dude.",
      "howto": "Defeat Arokk"
    },
    {
      "id": 5,
      "imageId": 5,
      "cred": 25,
      "flags": 1,
      "label": "Story’s End",
      "description": "Defeat the Horned Daemon. Our hero's saga  may go on, but this part of the story is over.",
      "howto": "Defeat the Horned Daemon"
    },
    {
      "id": 6,
      "imageId": 6,
      "cred": 20,
      "flags": 2,
      "label": "Conquering Hero",
      "description": "Win 15 Ranked Xbox LIVE multiplayer games. You’ve shown the world you’re no pushover.",
      "howto": "Win 15 Ranked Xbox LIVE multiplayer games"
    },
    {
      "id": 7,
      "imageId": 7,
      "cred": 10,
      "flags": 2,
      "label": "Skillfully Done",
      "description": "Raise any one of your Stats to 25. Now you're beginning to look like a Hero.",
      "howto": "Raise any one of your Stats to 25"
    },
    {
      "id": 8,
      "imageId": 8,
      "cred": 10,
      "flags": 3,
      "label": "Dungeon Delver",
      "description": "Unlock 10 Dungeons. Monsters beware, lest your head end up on the wall.",
      "howto": "Unlock 10 Dungeons"
    },
    {
      "id": 9,
      "imageId": 9,
      "cred": 15,
      "flags": 3,
      "label": "Finder of Secrets",
      "description": "Uncover a secret location. Persistence isn't its own reward, secret locations are!",
      "howto": "Uncover a secret location"
    },
    {
      "id": 10,
      "imageId": 10,
      "cred": 15,
      "flags": 2,
      "label": "Dog Trainer",
      "description": "Train your Warbeast to level 25. Okay, he's house-trained, but can he herd a bunch of sheep?",
      "howto": "Train your Warbeast to level 25"
    },
    {
      "id": 11,
      "imageId": 11,
      "cred": 15,
      "flags": 7,
      "label": "Craftsman",
      "description": "Forge 10 items. You're getting good at this whole crafting business.",
      "howto": "Forge 10 items"
    },
    {
      "id": 12,
      "imageId": 12,
      "cred": 50,
      "flags": 3,
      "label": "Deathbringer",
      "description": "Collect all 60 Awards. That's it! There's nothing else to do.",
      "howto": "Collect all 60 Awards"
    }
  ]
}