{
  "achievementsPossible": 38,
  "credPossible": 1000,
  "achievements": [
    {
      "id": 1,
      "imageId": 24,
      "cred": 80,
      "flags": 3,
      "label": "True Portal Master",
      "description": "Unlock all other Achievements. (primary profile)",
      "howto": "Unlock all other Achievements. (primary profile)"
    },
    {
      "id": 2,
      "imageId": 25,
      "cred": 10,
      "flags": 3,
      "label": "Hello!! Skylander",
      "description": "The first time you put your Skylander on the Portal of Power. (primary profile)",
      "howto": "The first time you put your Skylander on the Portal of Power. (primary profile)"
    },
    {
      "id": 3,
      "imageId": 26,
      "cred": 10,
      "flags": 3,
      "label": "Home Sweet Home",
      "description": "Complete the Shattered Island level. (primary profile)",
      "howto": "Complete the Shattered Island level. (primary profile)"
    },
    {
      "id": 4,
      "imageId": 27,
      "cred": 10,
      "flags": 3,
      "label": "Fresh Air",
      "description": "Complete the Stormy Stronghold level and acquire the elemental source. (primary profile)",
      "howto": "Complete the Stormy Stronghold level and acquire the elemental source. (primary profile)"
    },
    {
      "id": 5,
      "imageId": 28,
      "cred": 10,
      "flags": 3,
      "label": "Pure Water",
      "description": "Complete the Leviathan Lagoon level and acquire the elemental source. (primary profile)",
      "howto": "Complete the Leviathan Lagoon level and acquire the elemental source. (primary profile)"
    },
    {
      "id": 6,
      "imageId": 29,
      "cred": 10,
      "flags": 3,
      "label": "Mother Earth",
      "description": "Complete the Stone Town level and acquire the elemental source. (primary profile)",
      "howto": "Complete the Stone Town level and acquire the elemental source. (primary profile)"
    },
    {
      "id": 7,
      "imageId": 30,
      "cred": 20,
      "flags": 3,
      "label": "Light of Life",
      "description": "Complete the Falling Forest level and acquire the elemental source. (primary profile)",
      "howto": "Complete the Falling Forest level and acquire the elemental source. (primary profile)"
    },
    {
      "id": 8,
      "imageId": 31,
      "cred": 20,
      "flags": 3,
      "label": "Perfect Technology",
      "description": "Complete the Battlefield level and acquire the elemental source. (primary profile)",
      "howto": "Complete the Battlefield level and acquire the elemental source. (primary profile)"
    },
    {
      "id": 9,
      "imageId": 32,
      "cred": 20,
      "flags": 3,
      "label": "Undead Spirit",
      "description": "Complete the Creepy Citadel level and acquire the elemental source. (primary profile)",
      "howto": "Complete the Creepy Citadel level and acquire the elemental source. (primary profile)"
    },
    {
      "id": 10,
      "imageId": 33,
      "cred": 20,
      "flags": 3,
      "label": "Dancing Fire",
      "description": "Complete the Lava Lakes Railway level and acquire the elemental source. (primary profile)",
      "howto": "Complete the Lava Lakes Railway level and acquire the elemental source. (primary profile)"
    },
    {
      "id": 11,
      "imageId": 34,
      "cred": 40,
      "flags": 3,
      "label": "Magic Time",
      "description": "Complete the Arkeyan Armory level and acquire the elemental source. (primary profile)",
      "howto": "Complete the Arkeyan Armory level and acquire the elemental source. (primary profile)"
    },
    {
      "id": 12,
      "imageId": 35,
      "cred": 60,
      "flags": 3,
      "label": "The Savior",
      "description": "Complete the adventure mode by finishing the game. (primary profile)",
      "howto": "Complete the adventure mode by finishing the game. (primary profile)"
    },
    {
      "id": 13,
      "imageId": 36,
      "cred": 60,
      "flags": 3,
      "label": "Star Chaser",
      "description": "Get 3 stars in any one level. (primary profile)",
      "howto": "Get 3 stars in any one level. (primary profile)"
    },
    {
      "id": 14,
      "imageId": 37,
      "cred": 20,
      "flags": 3,
      "label": "Phew! That was close!",
      "description": "In the Leviathan Lagoon level, dodge 30 sharks without being hit. (primary profile)",
      "howto": "In the Leviathan Lagoon level, dodge 30 sharks without being hit. (primary profile)"
    },
    {
      "id": 15,
      "imageId": 38,
      "cred": 20,
      "flags": 3,
      "label": "Dodge Ball",
      "description": "In Falling Forest, beat Evil Ent while more than 5 of his seeds are on the field. (primary profile)",
      "howto": "In Falling Forest, beat Evil Ent while more than 5 of his seeds are on the field. (primary profile)"
    },
    {
      "id": 16,
      "imageId": 39,
      "cred": 40,
      "flags": 3,
      "label": "Call Me Fireman!",
      "description": "Beat Kaos' Evil minions in Lava Lakes Railway with only Gill Grunt's Power Hose. (primary profile)",
      "howto": "Beat Kaos' Evil minions in Lava Lakes Railway with only Gill Grunt's Power Hose. (primary profile)"
    },
    {
      "id": 17,
      "imageId": 40,
      "cred": 20,
      "flags": 3,
      "label": "Tag me if you can!",
      "description": "Avoid being hit by the laser traps during the boss fight in Creepy Citadel. (primary profile)",
      "howto": "Avoid being hit by the laser traps during the boss fight in Creepy Citadel. (primary profile)"
    },
    {
      "id": 18,
      "imageId": 41,
      "cred": 60,
      "flags": 3,
      "label": "One for All!",
      "description": "Defeat Kaos without swapping Skylanders during the battle. (primary profile)",
      "howto": "Defeat Kaos without swapping Skylanders during the battle. (primary profile)"
    },
    {
      "id": 19,
      "imageId": 42,
      "cred": 20,
      "flags": 3,
      "label": "The Ace Pilot",
      "description": "Defeat 30 enemies while riding the War Machine in the Arkeyan Armory level.  (primary profile)",
      "howto": "Defeat 30 enemies while riding the War Machine in the Arkeyan Armory level. (primary profile)"
    },
    {
      "id": 20,
      "imageId": 43,
      "cred": 20,
      "flags": 3,
      "label": "No Rocket Fired!",
      "description": "Never use any rocket in the Falling Forest level. (primary profile)",
      "howto": "Never use any rocket in the Falling Forest level. (primary profile)"
    },
    {
      "id": 21,
      "imageId": 44,
      "cred": 10,
      "flags": 3,
      "label": "Leviathan Dentist",
      "description": "Get swallowed by the Leviathan 5 times in the Leviathan Lagoon level. (primary profile)",
      "howto": "Get swallowed by the Leviathan 5 times in the Leviathan Lagoon level. (primary profile)"
    },
    {
      "id": 22,
      "imageId": 45,
      "cred": 20,
      "flags": 3,
      "label": "I love smashing!",
      "description": "Destroy all of the rocks in the Molekin Mine level. (primary profile)",
      "howto": "Destroy all of the rocks in the Molekin Mine level. (primary profile)"
    },
    {
      "id": 23,
      "imageId": 46,
      "cred": 20,
      "flags": 3,
      "label": "Mine Detector",
      "description": "Complete the Troll Warehouse level without getting injured by the landmines. (primary profile)",
      "howto": "Complete the Troll Warehouse level without getting injured by the landmines. (primary profile)"
    },
    {
      "id": 24,
      "imageId": 47,
      "cred": 20,
      "flags": 3,
      "label": "Get me if you can!",
      "description": "Complete Crystal Eye Castle without being hit by any of the rolling barrels. (primary profile)",
      "howto": "Complete Crystal Eye Castle without being hit by any of the rolling barrels. (primary profile)"
    },
    {
      "id": 25,
      "imageId": 48,
      "cred": 20,
      "flags": 3,
      "label": "New Challenger",
      "description": "Complete your first challenge level! (primary profile)",
      "howto": "Complete your first challenge level! (primary profile)"
    },
    {
      "id": 26,
      "imageId": 49,
      "cred": 40,
      "flags": 3,
      "label": "Can't stop me!",
      "description": "Complete 3 Challenge levels. (primary profile)",
      "howto": "Complete 3 Challenge levels. (primary profile)"
    },
    {
      "id": 27,
      "imageId": 50,
      "cred": 10,
      "flags": 3,
      "label": "I love shopping",
      "description": "The first time you purchase an upgrade for your Skylander. (primary profile)",
      "howto": "The first time you purchase an upgrade for your Skylander. (primary profile)"
    },
    {
      "id": 28,
      "imageId": 51,
      "cred": 20,
      "flags": 3,
      "label": "Gotta buy them all",
      "description": "Purchase all upgrades for any one Skylander. (primary profile)",
      "howto": "Purchase all upgrades for any one Skylander. (primary profile)"
    },
    {
      "id": 29,
      "imageId": 53,
      "cred": 60,
      "flags": 3,
      "label": "Climb to the Top",
      "description": "Level up any one Skylander to level 10. (primary profile)",
      "howto": "Level up any one Skylander to level 10. (primary profile)"
    },
    {
      "id": 30,
      "imageId": 52,
      "cred": 40,
      "flags": 3,
      "label": "Fashion Elite",
      "description": "Collect 10 Hats. (primary profile)",
      "howto": "Collect 10 Hats. (primary profile)"
    },
    {
      "id": 31,
      "imageId": 54,
      "cred": 10,
      "flags": 3,
      "label": "Fashion Stylist",
      "description": "Have your Skylander equip a hat for the first time. (primary profile)",
      "howto": "Have your Skylander equip a hat for the first time. (primary profile)"
    },
    {
      "id": 32,
      "imageId": 55,
      "cred": 10,
      "flags": 3,
      "label": "Inside Power",
      "description": "Unlock any Elemental Gate. (primary profile)",
      "howto": "Unlock any Elemental Gate. (primary profile)"
    },
    {
      "id": 33,
      "imageId": 56,
      "cred": 10,
      "flags": 3,
      "label": "Chompy Chopper",
      "description": "Defeat 15 Chompies in the Shattered Island level. (primary profile)",
      "howto": "Defeat 15 Chompies in the Shattered Island level. (primary profile)"
    },
    {
      "id": 34,
      "imageId": 57,
      "cred": 10,
      "flags": 3,
      "label": "Happy Hour",
      "description": "Open any treasure chest. (primary profile)",
      "howto": "Open any treasure chest. (primary profile)"
    },
    {
      "id": 35,
      "imageId": 58,
      "cred": 40,
      "flags": 3,
      "label": "Archaeologist",
      "description": "Collect 10 Story Scrolls. (primary profile)",
      "howto": "Collect 10 Story Scrolls. (primary profile)"
    },
    {
      "id": 36,
      "imageId": 59,
      "cred": 40,
      "flags": 3,
      "label": "Treasure-hunter",
      "description": "Collect 10 Legendary Treasures. (primary profile)",
      "howto": "Collect 10 Legendary Treasures. (primary profile)"
    },
    {
      "id": 37,
      "imageId": 60,
      "cred": 40,
      "flags": 3,
      "label": "The Spiritual Mentor",
      "description": "Collect 10 Soul Gems. (primary profile)",
      "howto": "Collect 10 Soul Gems. (primary profile)"
    },
    {
      "id": 38,
      "imageId": 61,
      "cred": 10,
      "flags": 3,
      "label": "The First Battle",
      "description": "Play and complete any PvP match: win or lose. (primary profile)",
      "howto": "Play and complete any PvP match: win or lose. (primary profile)"
    }
  ]
}