{
  "achievementsPossible": 16,
  "credPossible": 1000,
  "achievements": [
    {
      "id": 1,
      "imageId": 1,
      "cred": 50,
      "flags": 6,
      "label": "EXTRA",
      "description": "マブラヴ開始！",
      "howto": "ゲームを開始してみよう"
    },
    {
      "id": 2,
      "imageId": 2,
      "cred": 50,
      "flags": 1,
      "label": "I will -a",
      "description": "EX純夏エンド",
      "howto": "エクストラ 純夏エンドを見よう"
    },
    {
      "id": 3,
      "imageId": 3,
      "cred": 50,
      "flags": 1,
      "label": "I will -b",
      "description": "EX冥夜エンド",
      "howto": "エクストラ 冥夜エンドを見よう"
    },
    {
      "id": 4,
      "imageId": 4,
      "cred": 50,
      "flags": 1,
      "label": "傷は化石にならないけれど",
      "description": "EX千鶴エンド",
      "howto": "エクストラ 千鶴エンドを見よう"
    },
    {
      "id": 5,
      "imageId": 5,
      "cred": 50,
      "flags": 1,
      "label": "Astraea",
      "description": "EX慧エンド",
      "howto": "エクストラ 慧エンドを見よう"
    },
    {
      "id": 6,
      "imageId": 6,
      "cred": 50,
      "flags": 1,
      "label": "リトル・モア",
      "description": "EX壬姫エンド",
      "howto": "エクストラ 壬姫エンドを見よう"
    },
    {
      "id": 7,
      "imageId": 7,
      "cred": 50,
      "flags": 1,
      "label": "日常その1",
      "description": "EX日常エンド1",
      "howto": "エクストラ 日常エンド1を見よう"
    },
    {
      "id": 8,
      "imageId": 8,
      "cred": 50,
      "flags": 1,
      "label": "日常その2",
      "description": "EX日常エンド2",
      "howto": "エクストラ 日常エンド2を見よう"
    },
    {
      "id": 9,
      "imageId": 9,
      "cred": 100,
      "flags": 1,
      "label": "EXTRA-Complete!!",
      "description": "エクストラのエンディングを全て見た",
      "howto": "エクストラの全エンディングを見よう"
    },
    {
      "id": 10,
      "imageId": 10,
      "cred": 100,
      "flags": 3,
      "label": "UNLIMITED",
      "description": "アンリミテッドを開放した",
      "howto": "知らない世界"
    },
    {
      "id": 11,
      "imageId": 11,
      "cred": 50,
      "flags": 1,
      "label": "遙かなる地球の歌",
      "description": "アンリミテッドのエンディングを1つ見た",
      "howto": "アンリミテッドのエンディングを見よう"
    },
    {
      "id": 12,
      "imageId": 12,
      "cred": 100,
      "flags": 1,
      "label": "UNLIMITED-Complete!!",
      "description": "アンリミテッドのエンディングを全て見た",
      "howto": "アンリミテッドの全エンディングを見よう"
    },
    {
      "id": 13,
      "imageId": 13,
      "cred": 50,
      "flags": 1,
      "label": "パンチドランカー",
      "description": "「どりるみるきいぱんち」を5回食らった",
      "howto": "純夏に5回ほど殴られよう"
    },
    {
      "id": 14,
      "imageId": 14,
      "cred": 100,
      "flags": 1,
      "label": "警告劇場",
      "description": "警告られた",
      "howto": "警告られよう"
    },
    {
      "id": 15,
      "imageId": 15,
      "cred": 50,
      "flags": 3,
      "label": "ALL MUSIC",
      "description": "ミュージックモード 解放",
      "howto": "すべての音楽を聴いてみよう"
    },
    {
      "id": 16,
      "imageId": 16,
      "cred": 50,
      "flags": 1,
      "label": "ALL VISUAL",
      "description": "アルバム/100%",
      "howto": "全てのビジュアルを鑑賞できるようにしよう"
    }
  ]
}