[
	{
		"titleId": 1480656849,
		"largeId": 131085,
		"smallId": 65549
	},
	{
		"titleId": 1480656849,
		"largeId": 131086,
		"smallId": 65550
	},
	{
		"titleId": 1480656849,
		"largeId": 131087,
		"smallId": 65551
	},
	{
		"titleId": 1480656849,
		"largeId": 131088,
		"smallId": 65552
	},
	{
		"titleId": 1480656849,
		"largeId": 131089,
		"smallId": 65553
	},
	{
		"titleId": 1480656849,
		"largeId": 131090,
		"smallId": 65554
	},
	{
		"titleId": 1480656849,
		"largeId": 131091,
		"smallId": 65555
	},
	{
		"titleId": 1480656849,
		"largeId": 131092,
		"smallId": 65556
	},
	{
		"titleId": 1480656849,
		"largeId": 131093,
		"smallId": 65557
	},
	{
		"titleId": 1480656849,
		"largeId": 131094,
		"smallId": 65558
	},
	{
		"titleId": 1480656849,
		"largeId": 131095,
		"smallId": 65559
	}
]
