{
  "achievementsPossible": 48,
  "credPossible": 1000,
  "achievements": [
    {
      "id": 1,
      "imageId": 1,
      "cred": 30,
      "flags": 1,
      "label": "已可使用張遼",
      "description": "已可使用張遼",
      "howto": "達到特定條件後，即可使用"
    },
    {
      "id": 2,
      "imageId": 2,
      "cred": 30,
      "flags": 1,
      "label": "已可使用曹操",
      "description": "已可使用曹操",
      "howto": "達到特定條件後，即可使用"
    },
    {
      "id": 3,
      "imageId": 9,
      "cred": 10,
      "flags": 1,
      "label": "已可使用許褚",
      "description": "已可使用許褚",
      "howto": "達到特定條件後，即可使用"
    },
    {
      "id": 4,
      "imageId": 10,
      "cred": 10,
      "flags": 1,
      "label": "已可使用夏侯淵",
      "description": "已可使用夏侯淵",
      "howto": "達到特定條件後，即可使用"
    },
    {
      "id": 5,
      "imageId": 11,
      "cred": 10,
      "flags": 1,
      "label": "已可使用徐晃",
      "description": "已可使用徐晃",
      "howto": "達到特定條件後，即可使用"
    },
    {
      "id": 6,
      "imageId": 12,
      "cred": 10,
      "flags": 1,
      "label": "已可使用張郃",
      "description": "已可使用張郃",
      "howto": "達到特定條件後，即可使用"
    },
    {
      "id": 7,
      "imageId": 13,
      "cred": 10,
      "flags": 1,
      "label": "已可使用曹仁",
      "description": "已可使用曹仁",
      "howto": "達到特定條件後，即可使用"
    },
    {
      "id": 8,
      "imageId": 14,
      "cred": 10,
      "flags": 1,
      "label": "已可使用曹丕",
      "description": "已可使用曹丕",
      "howto": "達到特定條件後，即可使用"
    },
    {
      "id": 9,
      "imageId": 30,
      "cred": 10,
      "flags": 1,
      "label": "已可使用甄姬",
      "description": "已可使用甄姬",
      "howto": "達到特定條件後，即可使用"
    },
    {
      "id": 10,
      "imageId": 4,
      "cred": 30,
      "flags": 1,
      "label": "已可使用孫堅",
      "description": "已可使用孫堅",
      "howto": "達到特定條件後，即可使用"
    },
    {
      "id": 11,
      "imageId": 3,
      "cred": 30,
      "flags": 1,
      "label": "已可使用甘寧",
      "description": "已可使用甘寧",
      "howto": "達到特定條件後，即可使用"
    },
    {
      "id": 12,
      "imageId": 15,
      "cred": 10,
      "flags": 1,
      "label": "已可使用太史慈",
      "description": "已可使用太史慈",
      "howto": "達到特定條件後，即可使用"
    },
    {
      "id": 13,
      "imageId": 16,
      "cred": 10,
      "flags": 1,
      "label": "已可使用呂蒙",
      "description": "已可使用呂蒙",
      "howto": "達到特定條件後，即可使用"
    },
    {
      "id": 14,
      "imageId": 17,
      "cred": 10,
      "flags": 1,
      "label": "已可使用黃蓋",
      "description": "已可使用黃蓋",
      "howto": "達到特定條件後，即可使用"
    },
    {
      "id": 15,
      "imageId": 18,
      "cred": 10,
      "flags": 1,
      "label": "已可使用周泰",
      "description": "已可使用周泰",
      "howto": "達到特定條件後，即可使用"
    },
    {
      "id": 16,
      "imageId": 19,
      "cred": 10,
      "flags": 1,
      "label": "已可使用凌統",
      "description": "已可使用凌統",
      "howto": "達到特定條件後，即可使用"
    },
    {
      "id": 17,
      "imageId": 20,
      "cred": 10,
      "flags": 1,
      "label": "已可使用孫策",
      "description": "已可使用孫策",
      "howto": "達到特定條件後，即可使用"
    },
    {
      "id": 18,
      "imageId": 21,
      "cred": 10,
      "flags": 1,
      "label": "已可使用孫權",
      "description": "已可使用孫權",
      "howto": "達到特定條件後，即可使用"
    },
    {
      "id": 19,
      "imageId": 31,
      "cred": 10,
      "flags": 1,
      "label": "已可使用小喬",
      "description": "已可使用小喬",
      "howto": "達到特定條件後，即可使用"
    },
    {
      "id": 20,
      "imageId": 5,
      "cred": 30,
      "flags": 1,
      "label": "已可使用諸葛亮",
      "description": "已可使用諸葛亮",
      "howto": "達到特定條件後，即可使用"
    },
    {
      "id": 21,
      "imageId": 6,
      "cred": 30,
      "flags": 1,
      "label": "已可使用劉備",
      "description": "已可使用劉備",
      "howto": "達到特定條件後，即可使用"
    },
    {
      "id": 22,
      "imageId": 22,
      "cred": 10,
      "flags": 1,
      "label": "已可使用馬超",
      "description": "已可使用馬超",
      "howto": "達到特定條件後，即可使用"
    },
    {
      "id": 23,
      "imageId": 23,
      "cred": 10,
      "flags": 1,
      "label": "已可使用黃忠",
      "description": "已可使用黃忠",
      "howto": "達到特定條件後，即可使用"
    },
    {
      "id": 24,
      "imageId": 24,
      "cred": 10,
      "flags": 1,
      "label": "已可使用魏延",
      "description": "已可使用魏延",
      "howto": "達到特定條件後，即可使用"
    },
    {
      "id": 25,
      "imageId": 25,
      "cred": 10,
      "flags": 1,
      "label": "已可使用關平",
      "description": "已可使用關平",
      "howto": "達到特定條件後，即可使用"
    },
    {
      "id": 26,
      "imageId": 26,
      "cred": 10,
      "flags": 1,
      "label": "已可使用龐統",
      "description": "已可使用龐統",
      "howto": "達到特定條件後，即可使用"
    },
    {
      "id": 27,
      "imageId": 32,
      "cred": 10,
      "flags": 1,
      "label": "已可使用月英",
      "description": "已可使用月英",
      "howto": "達到特定條件後，即可使用"
    },
    {
      "id": 28,
      "imageId": 7,
      "cred": 30,
      "flags": 1,
      "label": "已可使用貂蟬",
      "description": "已可使用貂蟬",
      "howto": "達到特定條件後，即可使用"
    },
    {
      "id": 29,
      "imageId": 8,
      "cred": 30,
      "flags": 1,
      "label": "已可使用呂布",
      "description": "已可使用呂布",
      "howto": "達到特定條件後，即可使用"
    },
    {
      "id": 30,
      "imageId": 27,
      "cred": 10,
      "flags": 1,
      "label": "已可使用董卓",
      "description": "已可使用董卓",
      "howto": "達到特定條件後，即可使用"
    },
    {
      "id": 31,
      "imageId": 28,
      "cred": 10,
      "flags": 1,
      "label": "已可使用袁紹",
      "description": "已可使用袁紹",
      "howto": "達到特定條件後，即可使用"
    },
    {
      "id": 32,
      "imageId": 29,
      "cred": 10,
      "flags": 1,
      "label": "已可使用張角",
      "description": "已可使用張角",
      "howto": "達到特定條件後，即可使用"
    },
    {
      "id": 33,
      "imageId": 33,
      "cred": 10,
      "flags": 1,
      "label": "更新暴風的個人最高記錄(第１位)",
      "description": "更新了暴風的個人最高記錄(第１位)",
      "howto": "得更新暴風的個人最高記錄(第１位)"
    },
    {
      "id": 34,
      "imageId": 34,
      "cred": 10,
      "flags": 1,
      "label": "更新生還的個人最高記錄(第１位)",
      "description": "更新了生還的個人最高記錄(第１位)",
      "howto": "得更新生還的個人最高記錄(第１位)"
    },
    {
      "id": 35,
      "imageId": 35,
      "cred": 10,
      "flags": 1,
      "label": "更新速驅的個人最高記錄(第１位)",
      "description": "更新了速驅的個人最高記錄(第１位)",
      "howto": "得更新速驅的個人最高記錄(第１位)"
    },
    {
      "id": 36,
      "imageId": 36,
      "cred": 10,
      "flags": 1,
      "label": "更新破壞的個人最高記錄(第１位)",
      "description": "更新了破壞的個人最高記錄(第１位)",
      "howto": "得更新破壞的個人最高記錄(第１位)"
    },
    {
      "id": 37,
      "imageId": 37,
      "cred": 10,
      "flags": 1,
      "label": "更新迴避的個人最高記錄(第１位)",
      "description": "更新了迴避的個人最高記錄(第１位)",
      "howto": "得更新迴避的個人最高記錄(第１位)"
    },
    {
      "id": 38,
      "imageId": 38,
      "cred": 30,
      "flags": 1,
      "label": "達成戰功目標50以上",
      "description": "戰功目標達到了50以上",
      "howto": "得達到戰功目標50以上"
    },
    {
      "id": 39,
      "imageId": 39,
      "cred": 40,
      "flags": 1,
      "label": "達成戰功目標75以上",
      "description": "戰功目標達到了75以上",
      "howto": "得達到戰功目標75以上"
    },
    {
      "id": 40,
      "imageId": 40,
      "cred": 50,
      "flags": 1,
      "label": "達成戰功目標100以上",
      "description": "戰功目標達到了100以上",
      "howto": "得達到戰功目標100以上"
    },
    {
      "id": 41,
      "imageId": 41,
      "cred": 60,
      "flags": 1,
      "label": "達成所有的戰功目標",
      "description": "達成了所有的戰功目標",
      "howto": "得達成所有的戰功目標"
    },
    {
      "id": 42,
      "imageId": 42,
      "cred": 20,
      "flags": 1,
      "label": "過關劇本達到10以上",
      "description": "過關劇本達到了10以上",
      "howto": "過關劇本得達到10以上"
    },
    {
      "id": 43,
      "imageId": 43,
      "cred": 30,
      "flags": 1,
      "label": "過關劇本達到20以上",
      "description": "過關劇本達到了20以上",
      "howto": "過關劇本得達到20以上"
    },
    {
      "id": 44,
      "imageId": 44,
      "cred": 40,
      "flags": 1,
      "label": "過關劇本達到30以上",
      "description": "過關劇本達到了30以上",
      "howto": "過關劇本得達到30以上"
    },
    {
      "id": 45,
      "imageId": 45,
      "cred": 50,
      "flags": 1,
      "label": "達成所有劇本的過關",
      "description": "達成了所有劇本的過關",
      "howto": "得將所有的劇本過關"
    },
    {
      "id": 46,
      "imageId": 46,
      "cred": 50,
      "flags": 1,
      "label": "達成所有無雙模式的過關",
      "description": "達成了所有無雙模式的過關",
      "howto": "得將所有的無雙模式過關"
    },
    {
      "id": 47,
      "imageId": 47,
      "cred": 50,
      "flags": 1,
      "label": "所有武將的等級皆為50",
      "description": "所有武將的等級達到50",
      "howto": "得將所有的武將等級提升至50"
    },
    {
      "id": 48,
      "imageId": 48,
      "cred": 50,
      "flags": 1,
      "label": "所有劇本以難易度‧修羅過關",
      "description": "將所有劇本皆以難易度‧修羅過關",
      "howto": "得將所有的劇本過關"
    }
  ]
}