{
  "achievementsPossible": 12,
  "credPossible": 200,
  "achievements": [
    {
      "id": 1,
      "imageId": 2,
      "cred": 5,
      "flags": 1,
      "label": "First Touch",
      "description": "Finish one DAILY TEST!",
      "howto": "Finish one DAILY TEST!"
    },
    {
      "id": 2,
      "imageId": 3,
      "cred": 10,
      "flags": 1,
      "label": "Combo",
      "description": "Get 30 combos in any mode!",
      "howto": "Get 30 combos in any mode!"
    },
    {
      "id": 3,
      "imageId": 4,
      "cred": 10,
      "flags": 1,
      "label": "A+",
      "description": "Get an A+ in the TRAINING modes!",
      "howto": "Get an A+ in the TRAINING modes!"
    },
    {
      "id": 4,
      "imageId": 5,
      "cred": 30,
      "flags": 1,
      "label": "Brain Master",
      "description": "Get an A+ in all mini-games!",
      "howto": "Get an A+ in all mini-games!"
    },
    {
      "id": 5,
      "imageId": 6,
      "cred": 15,
      "flags": 1,
      "label": "20% Brain Usage",
      "description": "Reach 20% Brain Usage!",
      "howto": "Reach 20% Brain Usage!"
    },
    {
      "id": 6,
      "imageId": 7,
      "cred": 15,
      "flags": 1,
      "label": "40% Brain Usage",
      "description": "Reach 40% Brain Usage!",
      "howto": "Reach 40% Brain Usage!"
    },
    {
      "id": 7,
      "imageId": 8,
      "cred": 15,
      "flags": 1,
      "label": "60% Brain Usage",
      "description": "Reach 60% Brain Usage!",
      "howto": "Reach 60% Brain Usage!"
    },
    {
      "id": 8,
      "imageId": 9,
      "cred": 20,
      "flags": 1,
      "label": "80% Brain Usage",
      "description": "Reach 80% Brain Usage!",
      "howto": "Reach 80% Brain Usage!"
    },
    {
      "id": 9,
      "imageId": 10,
      "cred": 20,
      "flags": 1,
      "label": "100% Brain Usage\r\n",
      "description": "Reach 100% Brain Usage!",
      "howto": "Reach 100% Brain Usage!"
    },
    {
      "id": 10,
      "imageId": 11,
      "cred": 10,
      "flags": 1,
      "label": "Online!",
      "description": "Finish one online match!",
      "howto": "Finish one online match!"
    },
    {
      "id": 11,
      "imageId": 12,
      "cred": 20,
      "flags": 1,
      "label": "Brain Lord!",
      "description": "Win 10 online matches in a row!",
      "howto": "Win 10 online matches in a row!"
    },
    {
      "id": 12,
      "imageId": 13,
      "cred": 30,
      "flags": 1,
      "label": "The One!",
      "description": "Win a total of 100 online matches!",
      "howto": "Win a total of 100 online matches!"
    }
  ]
}