{
  "achievementsPossible": 20,
  "credPossible": 400,
  "achievements": [
    {
      "id": 1,
      "imageId": 38,
      "cred": 10,
      "flags": 4,
      "label": "Win",
      "description": "Win First Star in Tour",
      "howto": "Win First Star in Tour"
    },
    {
      "id": 2,
      "imageId": 39,
      "cred": 10,
      "flags": 4,
      "label": "Side Tracked",
      "description": "Win First Bonus Match in Tour",
      "howto": "Win First Bonus Match in Tour"
    },
    {
      "id": 3,
      "imageId": 40,
      "cred": 15,
      "flags": 4,
      "label": "8 Ball Champion",
      "description": "Won 8 Ball Tour",
      "howto": "Win 8 Ball Tour"
    },
    {
      "id": 4,
      "imageId": 41,
      "cred": 40,
      "flags": 4,
      "label": "All Star",
      "description": "Obtained all 298 stars",
      "howto": "Obtain all 298 stars"
    },
    {
      "id": 5,
      "imageId": 29,
      "cred": 20,
      "flags": 4,
      "label": "Super Skill",
      "description": "Reach 1500000 Points",
      "howto": "Reach 1500000 Points"
    },
    {
      "id": 6,
      "imageId": 42,
      "cred": 15,
      "flags": 4,
      "label": "Jack Of All Trades",
      "description": "Win One Game In All Rule Sets",
      "howto": "Win One Game In All Rule Sets"
    },
    {
      "id": 7,
      "imageId": 43,
      "cred": 15,
      "flags": 4,
      "label": "9 Ball Champion",
      "description": "Won 9 Ball Tour",
      "howto": "Win 9 Ball Tour"
    },
    {
      "id": 8,
      "imageId": 32,
      "cred": 15,
      "flags": 4,
      "label": "Zen 4",
      "description": "Reach 4 minutes in Endurance",
      "howto": "Reach 4 minutes in Endurance"
    },
    {
      "id": 9,
      "imageId": 44,
      "cred": 20,
      "flags": 4,
      "label": "Super Streak",
      "description": "30 Ball Streak in Endurance",
      "howto": "30 Ball Streak in Endurance"
    },
    {
      "id": 10,
      "imageId": 45,
      "cred": 20,
      "flags": 4,
      "label": "Champion",
      "description": "Win Online Tournament",
      "howto": "Win Online Tournament"
    },
    {
      "id": 11,
      "imageId": 46,
      "cred": 10,
      "flags": 4,
      "label": "Epic Win",
      "description": "Win Online Match",
      "howto": "Win Online Match"
    },
    {
      "id": 12,
      "imageId": 47,
      "cred": 10,
      "flags": 4,
      "label": "Does Not Compute",
      "description": "First Win Against AI in Versus",
      "howto": "First Win Against AI in Versus"
    },
    {
      "id": 28,
      "imageId": 31,
      "cred": 10,
      "flags": 4,
      "label": "Zen 8",
      "description": "Reach 8 minutes in Endurance",
      "howto": "Reach 8 minutes in Endurance"
    },
    {
      "id": 29,
      "imageId": 33,
      "cred": 35,
      "flags": 4,
      "label": "Zen 12",
      "description": "Reach 12 minutes in Endurance",
      "howto": "Reach 12 minutes in Endurance"
    },
    {
      "id": 30,
      "imageId": 35,
      "cred": 40,
      "flags": 4,
      "label": "Super Zen",
      "description": "Reach 20 minutes in Endurance",
      "howto": "Reach 20 minutes in Endurance"
    },
    {
      "id": 31,
      "imageId": 26,
      "cred": 20,
      "flags": 4,
      "label": "Nirvana",
      "description": "Clear the table in Endurance",
      "howto": "Clear the table in Endurance"
    },
    {
      "id": 32,
      "imageId": 27,
      "cred": 35,
      "flags": 4,
      "label": "Mega Streak",
      "description": "50 ball streak in Endurance",
      "howto": "50 ball streak in Endurance"
    },
    {
      "id": 33,
      "imageId": 28,
      "cred": 15,
      "flags": 4,
      "label": "Super Shot",
      "description": "Earn 5000 points in one skill shot",
      "howto": "Earn 5000 points in one skill shot"
    },
    {
      "id": 34,
      "imageId": 48,
      "cred": 35,
      "flags": 4,
      "label": "Mega Shot",
      "description": "Earn 10000 points in one skill shot",
      "howto": "Earn 10000 points in one skill shot"
    },
    {
      "id": 35,
      "imageId": 30,
      "cred": 10,
      "flags": 4,
      "label": "Back to the Future",
      "description": "Use a Flashback",
      "howto": "Use a Flashback"
    }
  ]
}