{
  "achievementsPossible": 73,
  "credPossible": 1675,
  "achievements": [
    {
      "id": 1,
      "imageId": 2,
      "cred": 10,
      "flags": 1,
      "label": "一族の末子",
      "description": "人間の貴族の冒頭ストーリーをクリアする。",
      "howto": "人間の貴族の冒頭ストーリーをクリアする。"
    },
    {
      "id": 2,
      "imageId": 3,
      "cred": 10,
      "flags": 6,
      "label": "闇に冒されし者",
      "description": "デイルズエルフの冒頭ストーリーをクリアする。",
      "howto": "デイルズエルフの冒頭ストーリーをクリアする。"
    },
    {
      "id": 3,
      "imageId": 4,
      "cred": 10,
      "flags": 1,
      "label": "徴兵",
      "description": "シティエルフの冒頭ストーリーをクリアする。",
      "howto": "シティエルフの冒頭ストーリーをクリアする。"
    },
    {
      "id": 4,
      "imageId": 5,
      "cred": 10,
      "flags": 1,
      "label": "試練を乗り越えし者",
      "description": "メジャイの冒頭ストーリーをクリアする。",
      "howto": "メジャイの冒頭ストーリーをクリアする。"
    },
    {
      "id": 5,
      "imageId": 6,
      "cred": 10,
      "flags": 1,
      "label": "階級無き者",
      "description": "ドワーフの平民の冒頭ストーリーをクリアする。",
      "howto": "ドワーフの平民の冒頭ストーリーをクリアする。"
    },
    {
      "id": 6,
      "imageId": 7,
      "cred": 10,
      "flags": 1,
      "label": "一族殺し",
      "description": "ドワーフの貴族の冒頭ストーリーをクリアする。",
      "howto": "ドワーフの貴族の冒頭ストーリーをクリアする。"
    },
    {
      "id": 7,
      "imageId": 8,
      "cred": 20,
      "flags": 1,
      "label": "最後のウォーデン",
      "description": "オスタガーをクリアする。",
      "howto": "オスタガーをクリアする。"
    },
    {
      "id": 8,
      "imageId": 9,
      "cred": 20,
      "flags": 1,
      "label": "盟主",
      "description": "グレイ・ウォーデンの協定を用いて、すべての勢力を味方につける。",
      "howto": "グレイ・ウォーデンの協定を用いて、すべての勢力を味方につける。"
    },
    {
      "id": 9,
      "imageId": 10,
      "cred": 20,
      "flags": 1,
      "label": "レッドクリフの英雄",
      "description": "「レッドクリフ伯」をクリアする。",
      "howto": "「レッドクリフ伯」をクリアする。"
    },
    {
      "id": 10,
      "imageId": 11,
      "cred": 20,
      "flags": 1,
      "label": "扇動者",
      "description": "「諸侯会議」をクリアする。",
      "howto": "「諸侯会議」をクリアする。"
    },
    {
      "id": 11,
      "imageId": 12,
      "cred": 20,
      "flags": 1,
      "label": "傭兵",
      "description": "ジョブ掲示板のクエストを15個クリアする。",
      "howto": "ジョブ掲示板のクエストを15個クリアする。"
    },
    {
      "id": 13,
      "imageId": 13,
      "cred": 25,
      "flags": 1,
      "label": "新兵募集係",
      "description": "すべてのプレイを通じて、すべてのパーティメンバーを仲間にする。",
      "howto": "すべてのプレイを通じて、すべてのパーティメンバーを仲間にする。"
    },
    {
      "id": 14,
      "imageId": 14,
      "cred": 25,
      "flags": 1,
      "label": "あきれるほどロマンティック",
      "description": "すべてのプレイを通じて、すべてのロマンスを経験する。",
      "howto": "すべてのプレイを通じて、すべてのロマンスを経験する。"
    },
    {
      "id": 15,
      "imageId": 15,
      "cred": 50,
      "flags": 1,
      "label": "完璧主義者",
      "description": "すべてのプレイを通じて、すべてのエンディングを見る。",
      "howto": "すべてのプレイを通じて、すべてのエンディングを見る。"
    },
    {
      "id": 16,
      "imageId": 16,
      "cred": 15,
      "flags": 1,
      "label": "教育",
      "description": "書物を使って、メインキャラクターの能力値、タレント、スペルまたはスキルを強化する。",
      "howto": "書物を使って、メインキャラクターの能力値、タレント、スペルまたはスキルを強化する。"
    },
    {
      "id": 17,
      "imageId": 17,
      "cred": 50,
      "flags": 1,
      "label": "究極の犠牲",
      "description": "フェレルデンを守るため、究極の犠牲を行う。",
      "howto": "フェレルデンを守るため、究極の犠牲を行う。"
    },
    {
      "id": 18,
      "imageId": 18,
      "cred": 50,
      "flags": 1,
      "label": "闇の契約",
      "description": "アーチデーモンを倒し、モリガンの闇の儀式を利用して自らの命を救う。",
      "howto": "アーチデーモンを倒し、モリガンの闇の儀式を利用して自らの命を救う。"
    },
    {
      "id": 19,
      "imageId": 19,
      "cred": 20,
      "flags": 1,
      "label": "魔法支持者",
      "description": "「崩壊したサークル」で魔道士の味方となる。",
      "howto": "「崩壊したサークル」で魔道士の味方となる。"
    },
    {
      "id": 20,
      "imageId": 20,
      "cred": 20,
      "flags": 1,
      "label": "儀式執行者",
      "description": "「崩壊したサークル」でテンプル騎士団の味方となる。",
      "howto": "「崩壊したサークル」でテンプル騎士団の味方となる。"
    },
    {
      "id": 21,
      "imageId": 21,
      "cred": 20,
      "flags": 1,
      "label": "虐殺者",
      "description": "「獣の性質」でウェアウルフの味方となる。",
      "howto": "「獣の性質」でウェアウルフの味方となる。"
    },
    {
      "id": 22,
      "imageId": 22,
      "cred": 20,
      "flags": 1,
      "label": "密猟者",
      "description": "「獣の性質」でエルフの味方となる。",
      "howto": "「獣の性質」でエルフの味方となる。"
    },
    {
      "id": 23,
      "imageId": 23,
      "cred": 20,
      "flags": 1,
      "label": "背信",
      "description": "「聖灰の骨壷」でアンドラステ教団の味方となる。",
      "howto": "「聖灰の骨壷」でアンドラステ教団の味方となる。"
    },
    {
      "id": 24,
      "imageId": 24,
      "cred": 20,
      "flags": 1,
      "label": "良識",
      "description": "「聖灰の骨壷」でアンドラステ教団の敵となる。",
      "howto": "「聖灰の骨壷」でアンドラステ教団の敵となる。"
    },
    {
      "id": 25,
      "imageId": 25,
      "cred": 20,
      "flags": 1,
      "label": "ベイレンの味方",
      "description": "「彼女もまたパラゴン」でベイレンの味方となる。",
      "howto": "「彼女もまたパラゴン」でベイレンの味方となる。"
    },
    {
      "id": 26,
      "imageId": 26,
      "cred": 20,
      "flags": 1,
      "label": "ハロモントの味方",
      "description": "「彼女もまたパラゴン」でハロモントの味方となる。",
      "howto": "「彼女もまたパラゴン」でハロモントの味方となる。"
    },
    {
      "id": 27,
      "imageId": 27,
      "cred": 20,
      "flags": 1,
      "label": "解放者",
      "description": "虚無の金床を破壊する。",
      "howto": "虚無の金床を破壊する。"
    },
    {
      "id": 28,
      "imageId": 28,
      "cred": 20,
      "flags": 1,
      "label": "現実主義者",
      "description": "虚無の金床を破壊しない。",
      "howto": "虚無の金床を破壊しない。"
    },
    {
      "id": 29,
      "imageId": 29,
      "cred": 10,
      "flags": 1,
      "label": "強打者",
      "description": "メインキャラクターが一撃で250以上のダメージを敵に与える。",
      "howto": "メインキャラクターが一撃で250以上のダメージを敵に与える。"
    },
    {
      "id": 30,
      "imageId": 30,
      "cred": 10,
      "flags": 1,
      "label": "血まみれ",
      "description": "メインキャラクターが一度も戦闘不能になることなく冒頭ストーリーをクリアする。",
      "howto": "メインキャラクターが一度も戦闘不能になることなく冒頭ストーリーをクリアする。"
    },
    {
      "id": 31,
      "imageId": 31,
      "cred": 35,
      "flags": 1,
      "label": "冒険者",
      "description": "ゲーム中、すべてのエリアに足を運ぶ。",
      "howto": "ゲーム中、すべてのエリアに足を運ぶ。"
    },
    {
      "id": 32,
      "imageId": 32,
      "cred": 25,
      "flags": 1,
      "label": "武器の達人",
      "description": "メインキャラクターが戦士でレベル20に到達する。",
      "howto": "メインキャラクターが戦士でレベル20に到達する。"
    },
    {
      "id": 33,
      "imageId": 33,
      "cred": 25,
      "flags": 1,
      "label": "シャドウ",
      "description": "メインキャラクターがローグでレベル20に到達する。",
      "howto": "メインキャラクターがローグでレベル20に到達する。"
    },
    {
      "id": 34,
      "imageId": 34,
      "cred": 25,
      "flags": 1,
      "label": "大魔道士",
      "description": "メインキャラクターが魔道士でレベル20に到達する。",
      "howto": "メインキャラクターが魔道士でレベル20に到達する。"
    },
    {
      "id": 35,
      "imageId": 35,
      "cred": 30,
      "flags": 1,
      "label": "ドラゴンスレイヤー",
      "description": "聖灰の骨壷を守るドラゴンを倒す。",
      "howto": "聖灰の骨壷を守るドラゴンを倒す。"
    },
    {
      "id": 36,
      "imageId": 36,
      "cred": 10,
      "flags": 1,
      "label": "巡礼者",
      "description": "教会掲示板のクエストをクリアする。",
      "howto": "教会掲示板のクエストをクリアする。"
    },
    {
      "id": 37,
      "imageId": 37,
      "cred": 20,
      "flags": 1,
      "label": "グレイ・ウォーデン",
      "description": "ダークスポーンを100体倒す。",
      "howto": "ダークスポーンを100体倒す。"
    },
    {
      "id": 38,
      "imageId": 38,
      "cred": 25,
      "flags": 1,
      "label": "マスター・ウォーデン",
      "description": "ダークスポーンを500体倒す。",
      "howto": "ダークスポーンを500体倒す。"
    },
    {
      "id": 39,
      "imageId": 39,
      "cred": 25,
      "flags": 1,
      "label": "ブライトを鎮めし者",
      "description": "ダークスポーンを1000体倒す。",
      "howto": "ダークスポーンを1000体倒す。"
    },
    {
      "id": 40,
      "imageId": 40,
      "cred": 20,
      "flags": 1,
      "label": "鉄壁",
      "description": "「最終決戦」のデネリム門で、兵士を半数以上生き残らせる。",
      "howto": "「最終決戦」のデネリム門で、兵士を半数以上生き残らせる。"
    },
    {
      "id": 41,
      "imageId": 41,
      "cred": 10,
      "flags": 1,
      "label": "何でも屋",
      "description": "アイテムを生成する。",
      "howto": "アイテムを生成する。"
    },
    {
      "id": 42,
      "imageId": 42,
      "cred": 10,
      "flags": 1,
      "label": "交渉人",
      "description": "難易度の高い説得に5回成功する。",
      "howto": "難易度の高い説得に5回成功する。"
    },
    {
      "id": 43,
      "imageId": 43,
      "cred": 20,
      "flags": 1,
      "label": "雄弁者",
      "description": "難易度の高い説得に25回成功する。",
      "howto": "難易度の高い説得に25回成功する。"
    },
    {
      "id": 44,
      "imageId": 44,
      "cred": 10,
      "flags": 1,
      "label": "脅し",
      "description": "難易度の高い脅迫に5回成功する。",
      "howto": "難易度の高い脅迫に5回成功する。"
    },
    {
      "id": 45,
      "imageId": 45,
      "cred": 20,
      "flags": 1,
      "label": "恫喝",
      "description": "難易度の高い脅迫に10回成功する。",
      "howto": "難易度の高い脅迫に10回成功する。"
    },
    {
      "id": 46,
      "imageId": 46,
      "cred": 10,
      "flags": 1,
      "label": "トゥルーナイト",
      "description": "アリスターとのロマンスを経験する。",
      "howto": "アリスターとのロマンスを経験する。"
    },
    {
      "id": 47,
      "imageId": 47,
      "cred": 10,
      "flags": 1,
      "label": "ウィッチ・ゴーン・ワイルド",
      "description": "モリガンとのロマンスを経験する。",
      "howto": "モリガンとのロマンスを経験する。"
    },
    {
      "id": 48,
      "imageId": 48,
      "cred": 10,
      "flags": 1,
      "label": "イージー・ラバー",
      "description": "ゼブランとのロマンスを経験する。",
      "howto": "ゼブランとのロマンスを経験する。"
    },
    {
      "id": 49,
      "imageId": 49,
      "cred": 10,
      "flags": 1,
      "label": "酒・女・歌",
      "description": "レリアナとのロマンスを経験する。",
      "howto": "レリアナとのロマンスを経験する。"
    },
    {
      "id": 50,
      "imageId": 50,
      "cred": 25,
      "flags": 1,
      "label": "ベテラン",
      "description": "メインキャラクターがサブクラスを習得する。",
      "howto": "メインキャラクターがサブクラスを習得する。"
    },
    {
      "id": 51,
      "imageId": 51,
      "cred": 30,
      "flags": 1,
      "label": "エリート",
      "description": "メインキャラクターがサブクラスを2つ習得する。",
      "howto": "メインキャラクターがサブクラスを2つ習得する。"
    },
    {
      "id": 52,
      "imageId": 1,
      "cred": 25,
      "flags": 1,
      "label": "ピークの城主",
      "description": "「ソルジャーズ・ピーク」をクリアする。（ダウンロード コンテンツ「ウォーデンの要塞」）",
      "howto": "「ソルジャーズ・ピーク」をクリアする。（ダウンロード コンテンツ「ウォーデンの要塞」）"
    },
    {
      "id": 53,
      "imageId": 52,
      "cred": 25,
      "flags": 1,
      "label": "悪魔崇拝",
      "description": "アヴァナスの研究を利用する。（ダウンロード コンテンツ「ウォーデンの要塞」）",
      "howto": "アヴァナスの研究を利用する。（ダウンロード コンテンツ「ウォーデンの要塞」）"
    },
    {
      "id": 54,
      "imageId": 53,
      "cred": 25,
      "flags": 1,
      "label": "板ばさみ",
      "description": "「ホンリスのゴーレム」をクリアする。（ダウンロード コンテンツ「囚われし石像」）",
      "howto": "「ホンリスのゴーレム」をクリアする。（ダウンロード コンテンツ「囚われし石像」）"
    },
    {
      "id": 55,
      "imageId": 54,
      "cred": 25,
      "flags": 1,
      "label": "石の嘆き",
      "description": "「ゴーレムの記憶」をクリアする。（ダウンロード コンテンツ「囚われし石像」）",
      "howto": "「ゴーレムの記憶」をクリアする。（ダウンロード コンテンツ「囚われし石像」）"
    },
    {
      "id": 56,
      "imageId": 55,
      "cred": 25,
      "flags": 1,
      "label": "戦いには勝利を",
      "description": "ケイラン王を殺したオーガを倒す。",
      "howto": "ケイラン王を殺したオーガを倒す。"
    },
    {
      "id": 57,
      "imageId": 56,
      "cred": 30,
      "flags": 1,
      "label": "不落のビジル",
      "description": "ビジルの要塞のすべての拡張を実施する。",
      "howto": "ビジルの要塞のすべての拡張を実施する。"
    },
    {
      "id": 58,
      "imageId": 57,
      "cred": 30,
      "flags": 1,
      "label": "カル・ヒロルの救世主",
      "description": "カル・ヒロルのブルードマザーをすべて倒す。（拡張パック「ドラゴンエイジ：オリジンズ－アウェイクニング」）",
      "howto": "カル・ヒロルのブルードマザーをすべて倒す。（拡張パック「ドラゴンエイジ：オリジンズ－アウェイクニング」）"
    },
    {
      "id": 59,
      "imageId": 58,
      "cred": 30,
      "flags": 1,
      "label": "目には目を",
      "description": "シルヴァライト鉱山から脱出する。（拡張パック「ドラゴンエイジ：オリジンズ－アウェイクニング」）",
      "howto": "シルヴァライト鉱山から脱出する。（拡張パック「ドラゴンエイジ：オリジンズ－アウェイクニング」）"
    },
    {
      "id": 60,
      "imageId": 59,
      "cred": 30,
      "flags": 1,
      "label": "おごれる者久しからず",
      "description": "男爵夫人を倒す。（拡張パック「ドラゴンエイジ：オリジンズ－アウェイクニング」）",
      "howto": "男爵夫人を倒す。（拡張パック「ドラゴンエイジ：オリジンズ－アウェイクニング」）"
    },
    {
      "id": 61,
      "imageId": 60,
      "cred": 25,
      "flags": 1,
      "label": "アマランシン最後の希望",
      "description": "アマランシンの街を救う。（拡張パック「ドラゴンエイジ：オリジンズ－アウェイクニング」）",
      "howto": "アマランシンの街を救う。（拡張パック「ドラゴンエイジ：オリジンズ－アウェイクニング」）"
    },
    {
      "id": 62,
      "imageId": 61,
      "cred": 25,
      "flags": 1,
      "label": "ビジルの守護神",
      "description": "ビジルの要塞を救う。（拡張パック「ドラゴンエイジ：オリジンズ－アウェイクニング」）",
      "howto": "ビジルの要塞を救う。（拡張パック「ドラゴンエイジ：オリジンズ－アウェイクニング」）"
    },
    {
      "id": 63,
      "imageId": 62,
      "cred": 50,
      "flags": 1,
      "label": "覚醒",
      "description": "Dragon Age: Origins - Awakeningをクリアする。",
      "howto": "Dragon Age: Origins - Awakeningをクリアする。"
    },
    {
      "id": 64,
      "imageId": 63,
      "cred": 30,
      "flags": 1,
      "label": "グレイの司令官",
      "description": "レベル30に到達する。",
      "howto": "レベル30に到達する。"
    },
    {
      "id": 68,
      "imageId": 67,
      "cred": 50,
      "flags": 1,
      "label": "密偵",
      "description": "密偵の戦闘服を集めて組み立てる。",
      "howto": "密偵の戦闘服を集めて組み立てる。"
    },
    {
      "id": 69,
      "imageId": 68,
      "cred": 25,
      "flags": 1,
      "label": "ターニングポイント",
      "description": "レリアナがなぜ裏切ったのか話を聞く。",
      "howto": "レリアナがなぜ裏切ったのか話を聞く。"
    },
    {
      "id": 70,
      "imageId": 69,
      "cred": 25,
      "flags": 1,
      "label": "報復",
      "description": "警備隊長イームスの経歴を台無しにする。",
      "howto": "警備隊長イームスの経歴を台無しにする。"
    },
    {
      "id": 71,
      "imageId": 70,
      "cred": 25,
      "flags": 1,
      "label": "死神",
      "description": "ハーベスターを倒す。",
      "howto": "ハーベスターを倒す。"
    },
    {
      "id": 72,
      "imageId": 72,
      "cred": 50,
      "flags": 1,
      "label": "冥王",
      "description": "難易度ハードまたはナイトメアでハーベスターを倒す。",
      "howto": "難易度ハードまたはナイトメアでハーベスターを倒す。"
    },
    {
      "id": 73,
      "imageId": 71,
      "cred": 25,
      "flags": 1,
      "label": "繋がった真実",
      "description": "アムガラックで研究メモをすべて収集する。",
      "howto": "アムガラックで研究メモをすべて収集する。"
    },
    {
      "id": 74,
      "imageId": 73,
      "cred": 25,
      "flags": 1,
      "label": "ヴァーテラルの敗北",
      "description": "難易度ハードまたはナイトメアでヴァーテラルを倒す。",
      "howto": "難易度ハードまたはナイトメアでヴァーテラルを倒す。"
    },
    {
      "id": 75,
      "imageId": 74,
      "cred": 25,
      "flags": 1,
      "label": "ウィッチハンター",
      "description": "「ウィッチハント」をクリアする。",
      "howto": "「ウィッチハント」をクリアする。"
    },
    {
      "id": 76,
      "imageId": 75,
      "cred": 25,
      "flags": 1,
      "label": "木と石の時代",
      "description": "カダッシュ洞穴の失われた知識をすべて収集する。",
      "howto": "カダッシュ洞穴の失われた知識をすべて収集する。"
    },
    {
      "id": 77,
      "imageId": 76,
      "cred": 25,
      "flags": 1,
      "label": "鏡の国",
      "description": "幻視術の儀式を行う。",
      "howto": "幻視術の儀式を行う。"
    }
  ]
}