{
  "achievementsPossible": 99,
  "credPossible": 1000,
  "achievements": [
    {
      "id": 43,
      "imageId": 1,
      "cred": 5,
      "flags": 7,
      "label": "Bone Breaker",
      "description": "Kill 30 enemies with thrown physics objects.",
      "howto": "Kill 30 enemies with thrown physics objects."
    },
    {
      "id": 44,
      "imageId": 2,
      "cred": 5,
      "flags": 7,
      "label": "Deadly Harvest",
      "description": "Kill an enemy by planting a hopper mine.",
      "howto": "Kill an enemy by planting a hopper mine."
    },
    {
      "id": 45,
      "imageId": 3,
      "cred": 5,
      "flags": 7,
      "label": "Hack Attack!",
      "description": "Kill five enemies with a Manhack.",
      "howto": "Kill five enemies with a Manhack."
    },
    {
      "id": 46,
      "imageId": 4,
      "cred": 10,
      "flags": 7,
      "label": "Hot PotatOwned",
      "description": "Kill a Combine soldier with his own grenade.",
      "howto": "Kill a Combine soldier with his own grenade."
    },
    {
      "id": 47,
      "imageId": 5,
      "cred": 5,
      "flags": 7,
      "label": "Conservationist",
      "description": "Kill five enemies with the same energy ball.",
      "howto": "Kill five enemies with the same energy ball."
    },
    {
      "id": 48,
      "imageId": 6,
      "cred": 10,
      "flags": 7,
      "label": "Think Fast!",
      "description": "Kill an Elite Soldier with his own energy ball.",
      "howto": "Kill an Elite Soldier with his own energy ball."
    },
    {
      "id": 50,
      "imageId": 8,
      "cred": 5,
      "flags": 7,
      "label": "Grave Robber",
      "description": "Steal a Zombine's grenade.",
      "howto": "Steal a Zombine's grenade."
    },
    {
      "id": 51,
      "imageId": 9,
      "cred": 5,
      "flags": 7,
      "label": "Zombie-que",
      "description": "Use flares to light 15 zombies on fire.",
      "howto": "Use flares to light 15 zombies on fire."
    },
    {
      "id": 52,
      "imageId": 10,
      "cred": 5,
      "flags": 6,
      "label": "Defiant",
      "description": "Hit the trashcan cop with the can.",
      "howto": "Hit the trashcan cop with the can."
    },
    {
      "id": 53,
      "imageId": 11,
      "cred": 5,
      "flags": 6,
      "label": "Submissive",
      "description": "Put the can in the trash.",
      "howto": "Put the can in the trash."
    },
    {
      "id": 54,
      "imageId": 12,
      "cred": 5,
      "flags": 6,
      "label": "Malcontent",
      "description": "Escape the apartment block raid.",
      "howto": "Escape the apartment block raid."
    },
    {
      "id": 55,
      "imageId": 13,
      "cred": 5,
      "flags": 4,
      "label": "What cat?",
      "description": "Break the mini-teleporter in Kleiner's lab.",
      "howto": "Break the mini-teleporter in Kleiner's lab."
    },
    {
      "id": 56,
      "imageId": 14,
      "cred": 5,
      "flags": 6,
      "label": "Trusty Hardware",
      "description": "Get the crowbar.",
      "howto": "Get the crowbar."
    },
    {
      "id": 57,
      "imageId": 15,
      "cred": 5,
      "flags": 7,
      "label": "Barnacle Bowling",
      "description": "Kill five barnacles with one barrel.",
      "howto": "Kill five barnacles with one barrel."
    },
    {
      "id": 58,
      "imageId": 16,
      "cred": 5,
      "flags": 6,
      "label": "Anchor's Aweigh!",
      "description": "Get the airboat.",
      "howto": "Get the airboat."
    },
    {
      "id": 60,
      "imageId": 18,
      "cred": 5,
      "flags": 6,
      "label": "Heavy Weapons",
      "description": "Get the airboat's mounted gun.",
      "howto": "Get the airboat's mounted gun."
    },
    {
      "id": 61,
      "imageId": 19,
      "cred": 13,
      "flags": 7,
      "label": "Vorticough",
      "description": "Discover the hidden singing vortigaunt cave in chapter Water Hazard.",
      "howto": "Discover the hidden singing vortigaunt cave in chapter Water Hazard."
    },
    {
      "id": 62,
      "imageId": 20,
      "cred": 10,
      "flags": 6,
      "label": "Revenge!",
      "description": "Destroy the hunter-chopper in Half-Life 2.",
      "howto": "Destroy the hunter-chopper in Half-Life 2."
    },
    {
      "id": 63,
      "imageId": 21,
      "cred": 10,
      "flags": 7,
      "label": "Blast from the Past",
      "description": "Find the HEV Suit Charger faceplate in Eli's scrapyard.",
      "howto": "Find the HEV Suit Charger faceplate in Eli's scrapyard."
    },
    {
      "id": 64,
      "imageId": 22,
      "cred": 5,
      "flags": 6,
      "label": "Zero-Point Energy",
      "description": "Get the Gravity Gun in Black Mesa East.",
      "howto": "Get the Gravity Gun in Black Mesa East."
    },
    {
      "id": 65,
      "imageId": 23,
      "cred": 2,
      "flags": 7,
      "label": "Two Points",
      "description": "Use DOG's ball to make a basket in Eli's scrapyard.",
      "howto": "Use DOG's ball to make a basket in Eli's scrapyard."
    },
    {
      "id": 66,
      "imageId": 24,
      "cred": 25,
      "flags": 7,
      "label": "Zombie Chopper",
      "description": "Play through Ravenholm using only the Gravity Gun.",
      "howto": "Play through Ravenholm using only the Gravity Gun."
    },
    {
      "id": 67,
      "imageId": 25,
      "cred": 5,
      "flags": 6,
      "label": "Hallowed Ground",
      "description": "Escort Gregori safely through the church cemetery.",
      "howto": ""
    },
    {
      "id": 68,
      "imageId": 26,
      "cred": 5,
      "flags": 7,
      "label": "OSHA Violation",
      "description": "Kill 3 enemies using the crane.",
      "howto": "Kill 3 enemies using the crane."
    },
    {
      "id": 69,
      "imageId": 27,
      "cred": 5,
      "flags": 7,
      "label": "Targetted Advertising",
      "description": "Pin a soldier to the billboard in chapter Highway 17.",
      "howto": "Pin a soldier to the billboard in chapter Highway 17."
    },
    {
      "id": 70,
      "imageId": 28,
      "cred": 5,
      "flags": 6,
      "label": "Where Cubbage Fears to Tread",
      "description": "Defend Little Odessa from the gunship attack.",
      "howto": ""
    },
    {
      "id": 71,
      "imageId": 29,
      "cred": 5,
      "flags": 7,
      "label": "One Man Army",
      "description": "Destroy six gunships in Half-Life 2.",
      "howto": "Destroy six gunships in Half-Life 2."
    },
    {
      "id": 72,
      "imageId": 30,
      "cred": 20,
      "flags": 7,
      "label": "Keep Off the Sand!",
      "description": "Cross the antlion beach in chapter Sandtraps without touching the sand.",
      "howto": "Cross the antlion beach in chapter Sandtraps without touching the sand."
    },
    {
      "id": 74,
      "imageId": 32,
      "cred": 10,
      "flags": 7,
      "label": "Bug Hunt",
      "description": "Use the antlions to kill 50 enemies.",
      "howto": "Use the antlions to kill 50 enemies."
    },
    {
      "id": 75,
      "imageId": 33,
      "cred": 5,
      "flags": 7,
      "label": "Flushed",
      "description": "Kill an enemy with a toilet.",
      "howto": "Kill an enemy with a toilet."
    },
    {
      "id": 76,
      "imageId": 34,
      "cred": 10,
      "flags": 6,
      "label": "Warden Freeman",
      "description": "Survive the second turret standoff in Nova Prospekt.",
      "howto": "Survive the second turret standoff in Nova Prospekt."
    },
    {
      "id": 78,
      "imageId": 36,
      "cred": 5,
      "flags": 6,
      "label": "\"Radiation Levels Detected\"",
      "description": "Get through the toxic tunnel under City 17 in Half-Life 2.",
      "howto": "Get through the toxic tunnel under City 17 in Half-Life 2."
    },
    {
      "id": 79,
      "imageId": 37,
      "cred": 10,
      "flags": 6,
      "label": "Plaza Defender",
      "description": "Survive the generator plaza standoff in chapter Anticitizen One.",
      "howto": "Survive the generator plaza standoff in chapter Anticitizen One."
    },
    {
      "id": 80,
      "imageId": 38,
      "cred": 5,
      "flags": 7,
      "label": "Counter-Sniper",
      "description": "Kill all of the snipers in City 17.",
      "howto": "Kill all of the snipers in City 17."
    },
    {
      "id": 81,
      "imageId": 39,
      "cred": 10,
      "flags": 6,
      "label": "Fight the Power",
      "description": "Shut down the supression device by disabling its generators.",
      "howto": "Shut down the supression device by disabling its generators."
    },
    {
      "id": 82,
      "imageId": 40,
      "cred": 10,
      "flags": 6,
      "label": "Giant Killer",
      "description": "Survive the rooftop strider battle in the ruins of City 17.",
      "howto": "Survive the rooftop strider battle in the ruins of City 17."
    },
    {
      "id": 84,
      "imageId": 42,
      "cred": 25,
      "flags": 1,
      "label": "Singularity Collapse",
      "description": "Destroy the Citadel's reactor core.",
      "howto": ""
    },
    {
      "id": 86,
      "imageId": 44,
      "cred": 15,
      "flags": 7,
      "label": "Lambda Locator",
      "description": "Find all lambda caches in Half-Life 2.",
      "howto": "Find all lambda caches in Half-Life 2."
    },
    {
      "id": 87,
      "imageId": 45,
      "cred": 5,
      "flags": 6,
      "label": "Watch Your Head!",
      "description": "Make it to the bottom of the Citadel's main elevator shaft in one piece.",
      "howto": "Make it to the bottom of the Citadel's main elevator shaft in one piece."
    },
    {
      "id": 88,
      "imageId": 46,
      "cred": 5,
      "flags": 6,
      "label": "Containment",
      "description": "Contain the Citadel core.",
      "howto": "Contain the Citadel core."
    },
    {
      "id": 89,
      "imageId": 47,
      "cred": 10,
      "flags": 7,
      "label": "Pacifist",
      "description": "Contain the Citadel core without killing any stalkers.",
      "howto": "Contain the Citadel core without killing any stalkers."
    },
    {
      "id": 90,
      "imageId": 48,
      "cred": 5,
      "flags": 7,
      "label": "Car Crusher",
      "description": "Use the cars to squash 15 antlions in Episode One.",
      "howto": "Use the cars to squash 15 antlions in Episode One."
    },
    {
      "id": 91,
      "imageId": 49,
      "cred": 10,
      "flags": 6,
      "label": "Elevator Action",
      "description": "Survive long enough to get on the parking garage elevator.",
      "howto": "Survive long enough to get on the parking garage elevator."
    },
    {
      "id": 92,
      "imageId": 50,
      "cred": 10,
      "flags": 7,
      "label": "Live Bait",
      "description": "Help Alyx snipe 30 enemies in Episode One.",
      "howto": "Help Alyx snipe 30 enemies in Episode One."
    },
    {
      "id": 93,
      "imageId": 51,
      "cred": 5,
      "flags": 6,
      "label": "Attica!",
      "description": "Destroy the gunship in the hospital attic.",
      "howto": "Destroy the gunship in the hospital attic."
    },
    {
      "id": 94,
      "imageId": 52,
      "cred": 15,
      "flags": 7,
      "label": "Citizen Escort",
      "description": "Don't let any citizens die when escorting them to the escape train.",
      "howto": "Don't let any citizens die when escorting them to the escape train."
    },
    {
      "id": 95,
      "imageId": 53,
      "cred": 20,
      "flags": 1,
      "label": "Escape From City 17",
      "description": "Escape City 17 with Alyx.",
      "howto": "Escape City 17 with Alyx."
    },
    {
      "id": 96,
      "imageId": 17,
      "cred": 40,
      "flags": 7,
      "label": "The One Free Bullet",
      "description": "Beat Episode One firing exactly one bullet.  Grenade, crowbar, rocket, and Gravgun kills are okay!",
      "howto": "Beat Episode One firing exactly one bullet.  Grenade, crowbar, rocket, and Gravgun kills are okay!"
    },
    {
      "id": 97,
      "imageId": 55,
      "cred": 5,
      "flags": 7,
      "label": "Acid Reflex",
      "description": "Kill an acid antlion worker.",
      "howto": "Kill an acid antlion worker."
    },
    {
      "id": 98,
      "imageId": 56,
      "cred": 20,
      "flags": 7,
      "label": "Get Some Grub",
      "description": "Squish every antlion grub in Episode Two.",
      "howto": "Squish every antlion grub in Episode Two."
    },
    {
      "id": 99,
      "imageId": 57,
      "cred": 5,
      "flags": 7,
      "label": "Pinata Party",
      "description": "Find and break every web cache in Episode Two.",
      "howto": "Find and break every web cache in Episode Two."
    },
    {
      "id": 100,
      "imageId": 58,
      "cred": 5,
      "flags": 6,
      "label": "Into the Breach",
      "description": "Help Griggs and Sheckley hold off the antlion invasion inside the mine shaft.",
      "howto": "Help Griggs and Sheckley hold off the antlion invasion inside the mine shaft."
    },
    {
      "id": 101,
      "imageId": 59,
      "cred": 5,
      "flags": 6,
      "label": "Twofer",
      "description": "Defeat both antlion guards outside the White Forest.",
      "howto": ""
    },
    {
      "id": 102,
      "imageId": 60,
      "cred": 5,
      "flags": 7,
      "label": "Hit and Run",
      "description": "Run over 20 enemies with the car in Episode Two.",
      "howto": "Run over 20 enemies with the car in Episode Two."
    },
    {
      "id": 103,
      "imageId": 61,
      "cred": 10,
      "flags": 6,
      "label": "Meet the Hunters",
      "description": "Survive the Hunter ambush with Alyx.",
      "howto": ""
    },
    {
      "id": 104,
      "imageId": 62,
      "cred": 15,
      "flags": 7,
      "label": "Puttin' On a Clinic",
      "description": "Defeat the chopper in Episode Two without any misses.",
      "howto": "Defeat the chopper in Episode Two without any misses."
    },
    {
      "id": 105,
      "imageId": 63,
      "cred": 5,
      "flags": 6,
      "label": "Gunishment!",
      "description": "Destroy the Combine cannon in the junkyard.",
      "howto": ""
    },
    {
      "id": 106,
      "imageId": 64,
      "cred": 10,
      "flags": 7,
      "label": "Cache Checker",
      "description": "Find every radar cache in chapter Under The Radar.",
      "howto": "Find every radar cache in chapter Under The Radar."
    },
    {
      "id": 107,
      "imageId": 66,
      "cred": 5,
      "flags": 7,
      "label": "Gordon Propelled Rocket",
      "description": "Unlock the rocket launcher lambda cache in chapter Under The Radar.",
      "howto": "Unlock the rocket launcher lambda cache in chapter Under The Radar."
    },
    {
      "id": 108,
      "imageId": 65,
      "cred": 5,
      "flags": 7,
      "label": "Pedal to the Metal",
      "description": "Beat DOG in a race to the White Forest base.",
      "howto": "Beat DOG in a race to the White Forest base."
    },
    {
      "id": 109,
      "imageId": 67,
      "cred": 10,
      "flags": 6,
      "label": "Quiet Mountain Getaway",
      "description": "Survive the ambush at White Forest Inn.",
      "howto": ""
    },
    {
      "id": 110,
      "imageId": 68,
      "cred": 30,
      "flags": 7,
      "label": "Little Rocket Man",
      "description": "Send the garden gnome into space.",
      "howto": "Send the garden gnome into space."
    },
    {
      "id": 111,
      "imageId": 69,
      "cred": 5,
      "flags": 6,
      "label": "Secondary Silo Secured",
      "description": "Secure the launch doors on missile silo 2.",
      "howto": ""
    },
    {
      "id": 112,
      "imageId": 70,
      "cred": 35,
      "flags": 7,
      "label": "Neighborhood Watch",
      "description": "Save all buildings outside the missile silo from destruction.",
      "howto": "Save all buildings outside the missile silo from destruction."
    },
    {
      "id": 113,
      "imageId": 71,
      "cred": 20,
      "flags": 1,
      "label": "Defense of the Armament",
      "description": "Save the missile silo from the Combine offensive.",
      "howto": ""
    },
    {
      "id": 114,
      "imageId": 72,
      "cred": 10,
      "flags": 7,
      "label": "Payback",
      "description": "Kill a Hunter with its own flechettes.",
      "howto": "Kill a Hunter with its own flechettes."
    },
    {
      "id": 115,
      "imageId": 73,
      "cred": 5,
      "flags": 6,
      "label": "Lab Rat",
      "description": "Acquire the fully powered Aperture Science Handheld Portal Device.",
      "howto": "Acquire the fully powered Aperture Science Handheld Portal Device."
    },
    {
      "id": 116,
      "imageId": 35,
      "cred": 5,
      "flags": 6,
      "label": "Fratricide",
      "description": "Do whatever it takes to survive.",
      "howto": "Do whatever it takes to survive."
    },
    {
      "id": 117,
      "imageId": 74,
      "cred": 5,
      "flags": 6,
      "label": "Partygoer",
      "description": "Make the correct party escort submission position decision.",
      "howto": "Make the correct party escort submission position decision."
    },
    {
      "id": 118,
      "imageId": 75,
      "cred": 10,
      "flags": 1,
      "label": "Heartbreaker",
      "description": "Complete Portal.",
      "howto": "Complete Portal."
    },
    {
      "id": 119,
      "imageId": 76,
      "cred": 5,
      "flags": 7,
      "label": "Terminal Velocity",
      "description": "Fall 30,000 feet.",
      "howto": "Fall 30,000 feet."
    },
    {
      "id": 120,
      "imageId": 77,
      "cred": 5,
      "flags": 7,
      "label": "Long Jump",
      "description": "Jump 300 feet.",
      "howto": "Jump 300 feet."
    },
    {
      "id": 121,
      "imageId": 78,
      "cred": 10,
      "flags": 7,
      "label": "Cupcake",
      "description": "Beat two Portal advanced maps.",
      "howto": "Beat two Portal advanced maps."
    },
    {
      "id": 122,
      "imageId": 79,
      "cred": 20,
      "flags": 7,
      "label": "Fruitcake",
      "description": "Beat four Portal advanced maps.",
      "howto": "Beat four Portal advanced maps."
    },
    {
      "id": 123,
      "imageId": 80,
      "cred": 30,
      "flags": 7,
      "label": "Vanilla Crazy Cake",
      "description": "Beat all six Portal advanced maps.",
      "howto": "Beat all six Portal advanced maps."
    },
    {
      "id": 124,
      "imageId": 81,
      "cred": 10,
      "flags": 7,
      "label": "Basic Science",
      "description": "Earn bronze medals on all Portal challenges.",
      "howto": "Earn bronze medals on all Portal challenges."
    },
    {
      "id": 125,
      "imageId": 82,
      "cred": 20,
      "flags": 7,
      "label": "Rocket Science",
      "description": "Earn silver medals on all Portal challenges.",
      "howto": "Earn silver medals on all Portal challenges."
    },
    {
      "id": 126,
      "imageId": 83,
      "cred": 40,
      "flags": 7,
      "label": "Aperture Science",
      "description": "Earn gold medals on all Portal challenges.",
      "howto": "Earn gold medals on all Portal challenges."
    },
    {
      "id": 127,
      "imageId": 88,
      "cred": 5,
      "flags": 7,
      "label": "Turret",
      "description": "Accumulate 10 turret kills with a single turret.",
      "howto": "Accumulate 10 turret kills with a single turret."
    },
    {
      "id": 128,
      "imageId": 89,
      "cred": 5,
      "flags": 7,
      "label": "Nemesis",
      "description": "Get five revenge kills.",
      "howto": "Get five revenge kills."
    },
    {
      "id": 129,
      "imageId": 90,
      "cred": 10,
      "flags": 7,
      "label": "Hard to Kill",
      "description": "Get five kills in a row without dying.",
      "howto": "Get five kills in a row without dying."
    },
    {
      "id": 130,
      "imageId": 91,
      "cred": 15,
      "flags": 7,
      "label": "Master of Disguise",
      "description": "Trick an opposing medic into healing you.",
      "howto": "Trick an opposing medic into healing you."
    },
    {
      "id": 131,
      "imageId": 92,
      "cred": 10,
      "flags": 7,
      "label": "With Friends Like these...",
      "description": "Play in a game with seven or more players from your friends list.",
      "howto": "Play in a game with seven or more players from your friends list."
    },
    {
      "id": 132,
      "imageId": 93,
      "cred": 10,
      "flags": 7,
      "label": "Dynasty",
      "description": "Win 20 games.",
      "howto": "Win 20 games."
    },
    {
      "id": 133,
      "imageId": 94,
      "cred": 15,
      "flags": 7,
      "label": "Hardcore",
      "description": "Accumulate 1000 total kills.",
      "howto": "Accumulate 1000 total kills."
    },
    {
      "id": 134,
      "imageId": 95,
      "cred": 5,
      "flags": 7,
      "label": "Powerhouse Offense",
      "description": "Win 2Fort with a shutout.",
      "howto": "Win 2Fort with a shutout."
    },
    {
      "id": 135,
      "imageId": 96,
      "cred": 10,
      "flags": 7,
      "label": "Lightning Offense",
      "description": "Win Well in 5 minutes or less.",
      "howto": "Win Well in 5 minutes or less."
    },
    {
      "id": 136,
      "imageId": 97,
      "cred": 20,
      "flags": 7,
      "label": "Relentless Offense",
      "description": "Win Hydro without giving up a capture.",
      "howto": "Win Hydro without giving up a capture."
    },
    {
      "id": 137,
      "imageId": 98,
      "cred": 10,
      "flags": 7,
      "label": "Impenetrable Defense",
      "description": "Successfully defend Dustbowl without giving up a capture.",
      "howto": "Successfully defend Dustbowl without giving up a capture."
    },
    {
      "id": 138,
      "imageId": 99,
      "cred": 30,
      "flags": 7,
      "label": "Impossible Defense",
      "description": "Successfully defend Gravel Pit without giving up a capture.",
      "howto": "Successfully defend Gravel Pit without giving up a capture."
    },
    {
      "id": 139,
      "imageId": 84,
      "cred": 5,
      "flags": 1,
      "label": "Head of the Class",
      "description": "Play a complete round with every class.",
      "howto": "Play a complete round with every class."
    },
    {
      "id": 140,
      "imageId": 85,
      "cred": 5,
      "flags": 1,
      "label": "World Traveler",
      "description": "Play a complete game on every map.",
      "howto": "Play a complete game on every map."
    },
    {
      "id": 141,
      "imageId": 86,
      "cred": 5,
      "flags": 7,
      "label": "Team Doctor",
      "description": "Accumulate 25000 heal points as a Medic.",
      "howto": "Accumulate 25000 heal points as a Medic."
    },
    {
      "id": 142,
      "imageId": 87,
      "cred": 5,
      "flags": 7,
      "label": "Flamethrower",
      "description": "Set five enemies on fire in 30 seconds.",
      "howto": "Set five enemies on fire in 30 seconds."
    },
    {
      "id": 143,
      "imageId": 100,
      "cred": 10,
      "flags": 7,
      "label": "Atomizer",
      "description": "Disintegrate 15 soldiers by throwing them into a Combine ball field.",
      "howto": "Disintegrate 15 soldiers by throwing them into a Combine ball field."
    },
    {
      "id": 144,
      "imageId": 41,
      "cred": 10,
      "flags": 6,
      "label": "Follow Freeman",
      "description": "Gain command of a squad of rebels in the uprising.",
      "howto": "Gain command of a squad of rebels in the uprising."
    },
    {
      "id": 145,
      "imageId": 101,
      "cred": 5,
      "flags": 7,
      "label": "Grey Matter",
      "description": "Get 25 headshots as a Sniper.",
      "howto": "Get 25 headshots as a Sniper."
    },
    {
      "id": 146,
      "imageId": 7,
      "cred": 5,
      "flags": 1,
      "label": "Camera Shy",
      "description": "Detach security cameras from the walls.",
      "howto": "Detach security cameras from the walls."
    },
    {
      "id": 148,
      "imageId": 102,
      "cred": 5,
      "flags": 1,
      "label": "Friendly Fire",
      "description": "Knock down a turret with another turret.",
      "howto": "Knock down a turret with another turret."
    }
  ]
}