{
  "achievementsPossible": 20,
  "credPossible": 400,
  "achievements": [
    {
      "id": 24,
      "imageId": 25,
      "cred": 20,
      "flags": 1,
      "label": "Dance Pro!",
      "description": "15 perfects in a Dance song.",
      "howto": "15 perfects in a Dance song."
    },
    {
      "id": 25,
      "imageId": 26,
      "cred": 20,
      "flags": 1,
      "label": "Dancing Star!",
      "description": "Finish one song in Dance mode with 4 stars.",
      "howto": "Finish one song in Dance mode with 4 stars."
    },
    {
      "id": 26,
      "imageId": 27,
      "cred": 25,
      "flags": 1,
      "label": "Perfection does exist!",
      "description": "Finish one song in Dance mode without missing more than 10 movements.",
      "howto": "Finish one song in Dance mode without missing more than 10 movements."
    },
    {
      "id": 27,
      "imageId": 28,
      "cred": 20,
      "flags": 1,
      "label": "Rising Star!",
      "description": "Finish one song in Sing and Dance mode with 4 stars.",
      "howto": "Finish one song in Sing and Dance mode with 4 stars."
    },
    {
      "id": 28,
      "imageId": 29,
      "cred": 15,
      "flags": 1,
      "label": "You've got the style!",
      "description": "15 perfects in a Sing and Dance song.",
      "howto": "15 perfects in a Sing and Dance song."
    },
    {
      "id": 29,
      "imageId": 30,
      "cred": 15,
      "flags": 1,
      "label": "And the winner is…",
      "description": "Play 5 songs in a row in Battle mode in one game session.",
      "howto": "Play 5 songs in a row in Battle mode in one game session."
    },
    {
      "id": 30,
      "imageId": 31,
      "cred": 20,
      "flags": 1,
      "label": "Battle Star!",
      "description": "Finish one song in Battle mode with 4 stars.",
      "howto": "Finish one song in Battle mode with 4 stars."
    },
    {
      "id": 31,
      "imageId": 32,
      "cred": 10,
      "flags": 1,
      "label": "Battle Champion!",
      "description": "Win a Battle",
      "howto": "Win a Battle"
    },
    {
      "id": 32,
      "imageId": 33,
      "cred": 15,
      "flags": 1,
      "label": "United we stand!",
      "description": "Play 5 songs in a row in Co-op mode in one game session.",
      "howto": "Play 5 songs in a row in Co-op mode in one game session."
    },
    {
      "id": 33,
      "imageId": 34,
      "cred": 20,
      "flags": 1,
      "label": "Co-op Star!",
      "description": "Finish one song in Co-op mode with 4 stars.",
      "howto": "Finish one song in Co-op mode with 4 stars."
    },
    {
      "id": 34,
      "imageId": 35,
      "cred": 30,
      "flags": 1,
      "label": "Score Explosion!",
      "description": "Get above 100.000 points in Co-op mode.",
      "howto": "Get above 100.000 points in Co-op mode."
    },
    {
      "id": 35,
      "imageId": 36,
      "cred": 10,
      "flags": 1,
      "label": "The public is with you!",
      "description": "Win the applause meter.",
      "howto": "Win the applause meter."
    },
    {
      "id": 36,
      "imageId": 37,
      "cred": 20,
      "flags": 1,
      "label": "Fusion!",
      "description": "Both players have the same applause meter score",
      "howto": "Both players have the same applause meter score"
    },
    {
      "id": 37,
      "imageId": 38,
      "cred": 10,
      "flags": 1,
      "label": "That’s a real concert!",
      "description": "Singing loud enough during a song.",
      "howto": "Singing loud enough during a song."
    },
    {
      "id": 38,
      "imageId": 39,
      "cred": 20,
      "flags": 1,
      "label": "La la la laaa",
      "description": "Sing 5 pages without making any mistakes",
      "howto": "Sing 5 pages without making any mistakes"
    },
    {
      "id": 39,
      "imageId": 40,
      "cred": 10,
      "flags": 1,
      "label": "Getting hot!",
      "description": "Play for 15 minutes.",
      "howto": "Play for 15 minutes."
    },
    {
      "id": 40,
      "imageId": 41,
      "cred": 20,
      "flags": 1,
      "label": "Getting trained!",
      "description": "Achieve at least 3 stars for each song",
      "howto": "Achieve at least 3 stars for each song"
    },
    {
      "id": 41,
      "imageId": 42,
      "cred": 25,
      "flags": 1,
      "label": "You are a connoisseur!",
      "description": "Play each song",
      "howto": "Play each song"
    },
    {
      "id": 42,
      "imageId": 43,
      "cred": 25,
      "flags": 1,
      "label": "Saturday Night Fever",
      "description": "Play for 30 minutes on a Saturday Night.",
      "howto": "Play for 30 minutes on a Saturday Night."
    },
    {
      "id": 43,
      "imageId": 44,
      "cred": 50,
      "flags": 1,
      "label": "Game Master!",
      "description": "Unlock the 19 previous achievements",
      "howto": "Unlock the 19 previous achievements"
    }
  ]
}