{
  "achievementsPossible": 27,
  "credPossible": 1000,
  "achievements": [
    {
      "id": 54,
      "imageId": 1,
      "cred": 125,
      "flags": 1,
      "label": "You Can't Touch This",
      "description": "Complete Brawl for it All without being knocked down on Truculent",
      "howto": "Complete Brawl for it All without being knocked down on Truculent"
    },
    {
      "id": 55,
      "imageId": 2,
      "cred": 150,
      "flags": 1,
      "label": "Multicultural",
      "description": "Complete Brawl for it All with all of the characters",
      "howto": "Complete Brawl for it All with all of the characters"
    },
    {
      "id": 57,
      "imageId": 4,
      "cred": 50,
      "flags": 1,
      "label": "Unbeatable",
      "description": "Complete Brawl for it All without losing",
      "howto": "Complete Brawl for it All without losing"
    },
    {
      "id": 58,
      "imageId": 5,
      "cred": 40,
      "flags": 7,
      "label": "Combosaurus",
      "description": "Win a ranked or VS CPU match while using a combination of 12 Sky or Groundbreakers",
      "howto": "Win a ranked or VS CPU match while using a combination of 12 Sky or Groundbreakers"
    },
    {
      "id": 60,
      "imageId": 7,
      "cred": 25,
      "flags": 1,
      "label": "Untouchable",
      "description": "Win a match without getting hurt against an opponent in a ranked match or the CPU",
      "howto": "Win a match without getting hurt against an opponent in a ranked match or the CPU"
    },
    {
      "id": 62,
      "imageId": 9,
      "cred": 60,
      "flags": 1,
      "label": "Champion",
      "description": "Win 50 ranked matches",
      "howto": "Win 50 ranked matches"
    },
    {
      "id": 64,
      "imageId": 11,
      "cred": 25,
      "flags": 7,
      "label": "Headbook",
      "description": "Upload a Photo Game Face™ boxer",
      "howto": "Upload a Photo Game Face™ boxer"
    },
    {
      "id": 67,
      "imageId": 14,
      "cred": 10,
      "flags": 1,
      "label": "Mad Skillz Yo!",
      "description": "Complete Brawl for it All on Impossible difficulty with any character",
      "howto": "Complete Brawl for it All on Impossible difficulty with any character"
    },
    {
      "id": 68,
      "imageId": 15,
      "cred": 40,
      "flags": 1,
      "label": "The Best D is a Good O",
      "description": "Win a match without blocking, parrying or dodging against an opponent in a ranked match or the CPU",
      "howto": "Win a match without blocking, parrying or dodging against an opponent in a ranked match or the CPU"
    },
    {
      "id": 69,
      "imageId": 16,
      "cred": 40,
      "flags": 1,
      "label": "I Break Face",
      "description": "Complete Brawl for it All with a Photo Game Face™ boxer",
      "howto": "Complete Brawl for it All with a Photo Game Face™ boxer"
    },
    {
      "id": 72,
      "imageId": 19,
      "cred": 40,
      "flags": 1,
      "label": "Lights Out",
      "description": "K.O. an opponent in a ranked match or the CPU in less than 1 minute",
      "howto": "K.O. an opponent in a ranked match or the CPU in less than 1 minute"
    },
    {
      "id": 73,
      "imageId": 20,
      "cred": 15,
      "flags": 6,
      "label": "My First Clone",
      "description": "Download a Photo Game Face™ boxer",
      "howto": "Download a Photo Game Face™ boxer"
    },
    {
      "id": 74,
      "imageId": 21,
      "cred": 40,
      "flags": 6,
      "label": "Gettin' Dizzy",
      "description": "Stun an opponent 15 times and win in a ranked match or against the CPU",
      "howto": "Stun an opponent 15 times and win in a ranked match or against the CPU"
    },
    {
      "id": 75,
      "imageId": 22,
      "cred": 75,
      "flags": 1,
      "label": "Undisputed",
      "description": "Complete Brawl for it All",
      "howto": "Complete Brawl for it All"
    },
    {
      "id": 77,
      "imageId": 24,
      "cred": 25,
      "flags": 1,
      "label": "Underdog",
      "description": "In a ranked match or against the CPU get knocked down twice then Facebreaker or get 3 knockdowns",
      "howto": ""
    },
    {
      "id": 78,
      "imageId": 25,
      "cred": 25,
      "flags": 1,
      "label": "Powerhouse",
      "description": "Win 25 ranked matches",
      "howto": "Win 25 ranked matches"
    },
    {
      "id": 81,
      "imageId": 28,
      "cred": 20,
      "flags": 1,
      "label": "Filmography Major",
      "description": "Upload a video",
      "howto": "Upload a video"
    },
    {
      "id": 82,
      "imageId": 29,
      "cred": 15,
      "flags": 1,
      "label": "Amateur",
      "description": "Win 10 ranked matches",
      "howto": "Win 10 ranked matches"
    },
    {
      "id": 83,
      "imageId": 30,
      "cred": 25,
      "flags": 6,
      "label": "Freakin' Zombies",
      "description": "Beat Voodoo in Brawl for it All",
      "howto": "Beat Voodoo in Brawl for it All"
    },
    {
      "id": 85,
      "imageId": 32,
      "cred": 25,
      "flags": 6,
      "label": "Smoke Bomb",
      "description": "Beat Steve in Brawl for it All",
      "howto": "Beat Steve in Brawl for it All"
    },
    {
      "id": 86,
      "imageId": 33,
      "cred": 25,
      "flags": 6,
      "label": "I Like Turtles",
      "description": "Beat Brick in Brawl for it All",
      "howto": "Beat Brick in Brawl for it All"
    },
    {
      "id": 88,
      "imageId": 35,
      "cred": 25,
      "flags": 6,
      "label": "Spanked The Monkey",
      "description": "Beat Tiki in Brawl for it All",
      "howto": "Beat Tiki in Brawl for it All"
    },
    {
      "id": 89,
      "imageId": 36,
      "cred": 25,
      "flags": 6,
      "label": "Straight-Jacket",
      "description": "Beat Socks in Brawl for it All",
      "howto": "Beat Socks in Brawl for it All"
    },
    {
      "id": 91,
      "imageId": 38,
      "cred": 25,
      "flags": 7,
      "label": "It's In The Game",
      "description": "Create a Photo Game Face™ boxer",
      "howto": "Create a Photo Game Face™ boxer"
    },
    {
      "id": 93,
      "imageId": 40,
      "cred": 10,
      "flags": 1,
      "label": "I'm Kind of a Big Deal online",
      "description": "Win 1 ranked match with a Photo Game Face™ boxer",
      "howto": "Win 1 ranked match with a Photo Game Face™ boxer"
    },
    {
      "id": 94,
      "imageId": 41,
      "cred": 5,
      "flags": 1,
      "label": "Rookie",
      "description": "Win 1 ranked match",
      "howto": "Win 1 ranked match"
    },
    {
      "id": 95,
      "imageId": 42,
      "cred": 15,
      "flags": 4,
      "label": "FaceBreaked",
      "description": "Win a fight with FaceBreaker against an opponent in a ranked match or the CPU",
      "howto": "Win a fight with FaceBreaker against an opponent in a ranked match or the CPU"
    }
  ]
}