{
  "achievementsPossible": 51,
  "credPossible": 1250,
  "achievements": [
    {
      "id": 1,
      "imageId": 1,
      "cred": 5,
      "flags": 6,
      "label": "シュタインズゲートの選択",
      "description": "STEINS;GATEを開始した",
      "howto": "STEINS;GATEを開始する"
    },
    {
      "id": 2,
      "imageId": 2,
      "cred": 5,
      "flags": 6,
      "label": "始まりと終わりのプロローグ",
      "description": "プロローグクリア",
      "howto": "プロローグをクリアする"
    },
    {
      "id": 3,
      "imageId": 11,
      "cred": 10,
      "flags": 6,
      "label": "無限連鎖のアポトーシス",
      "description": "Chapter9クリア",
      "howto": "Chapter9をクリアする"
    },
    {
      "id": 4,
      "imageId": 12,
      "cred": 100,
      "flags": 6,
      "label": "境界面上のシュタインズゲート",
      "description": "シュタインズゲートに到達した",
      "howto": "シュタインズゲートに到達する"
    },
    {
      "id": 5,
      "imageId": 13,
      "cred": 10,
      "flags": 3,
      "label": "天才少女のメランコリィ",
      "description": "紅莉栖とメールを使って仲良くなった",
      "howto": "紅莉栖とメールを使って仲良くなる"
    },
    {
      "id": 6,
      "imageId": 14,
      "cred": 50,
      "flags": 6,
      "label": "因果律のメルト",
      "description": "紅莉栖のエンディングを見た",
      "howto": "紅莉栖のエンディングを見る"
    },
    {
      "id": 7,
      "imageId": 15,
      "cred": 50,
      "flags": 6,
      "label": "透明のスターダスト",
      "description": "まゆりのエンディングを見た",
      "howto": "まゆりのエンディングを見る"
    },
    {
      "id": 8,
      "imageId": 16,
      "cred": 50,
      "flags": 6,
      "label": "不可逆のリブート",
      "description": "鈴羽のエンディングを見た",
      "howto": "鈴羽のエンディングを見る"
    },
    {
      "id": 9,
      "imageId": 17,
      "cred": 50,
      "flags": 6,
      "label": "背徳と再生のリンク",
      "description": "るかのエンディングを見た",
      "howto": "るかのエンディングを見る"
    },
    {
      "id": 10,
      "imageId": 18,
      "cred": 50,
      "flags": 6,
      "label": "分離喪失のジャメヴュ",
      "description": "フェイリスのエンディングを見た",
      "howto": "フェイリスのエンディングを見る"
    },
    {
      "id": 11,
      "imageId": 19,
      "cred": 100,
      "flags": 1,
      "label": "全ての世界線のコンプリート",
      "description": "全エンディングを見た",
      "howto": "全エンディングを見る"
    },
    {
      "id": 12,
      "imageId": 20,
      "cred": 25,
      "flags": 1,
      "label": "CGの達成率25%",
      "description": "CGを25％見た",
      "howto": "CGを25％見る"
    },
    {
      "id": 13,
      "imageId": 21,
      "cred": 25,
      "flags": 1,
      "label": "CGの達成率50%",
      "description": "CGを50％見た",
      "howto": "CGを50％見る"
    },
    {
      "id": 14,
      "imageId": 22,
      "cred": 25,
      "flags": 1,
      "label": "CGの達成率75%",
      "description": "CGを75％見た",
      "howto": "CGを75％見る"
    },
    {
      "id": 15,
      "imageId": 23,
      "cred": 25,
      "flags": 1,
      "label": "CGの達成率100%",
      "description": "全CGを見た",
      "howto": "全CGを見る"
    },
    {
      "id": 16,
      "imageId": 24,
      "cred": 5,
      "flags": 4,
      "label": "自我のメモリーズ",
      "description": "【フォーントリガー】送信履歴を一度でも見た",
      "howto": "【フォーントリガー】送信履歴を一度見る"
    },
    {
      "id": 17,
      "imageId": 25,
      "cred": 5,
      "flags": 4,
      "label": "他我のメモリーズ",
      "description": "【フォーントリガー】着信履歴から一度でもメールを参照した",
      "howto": "【フォーントリガー】着信履歴から一度メールを参照する"
    },
    {
      "id": 18,
      "imageId": 26,
      "cred": 5,
      "flags": 4,
      "label": "共鳴のリアクション",
      "description": "【フォーントリガー】誰かからのメールに返信した",
      "howto": "【フォーントリガー】誰かからのメールに返信する"
    },
    {
      "id": 19,
      "imageId": 27,
      "cred": 5,
      "flags": 4,
      "label": "忘却のメッセージ",
      "description": "【フォーントリガー】誰かからのメールを1通だけでもいいので未読にしたままクリアした",
      "howto": "【フォーントリガー】誰かからのメールを1通だけでもいいので未読にしたままクリアする"
    },
    {
      "id": 20,
      "imageId": 28,
      "cred": 5,
      "flags": 4,
      "label": "投影のヴィジョン",
      "description": "【フォーントリガー】待ち受け画面の壁紙を変更した",
      "howto": "【フォーントリガー】待ち受け画面の壁紙を変更する"
    },
    {
      "id": 21,
      "imageId": 29,
      "cred": 5,
      "flags": 4,
      "label": "ハジメテのオト",
      "description": "【フォーントリガー】着信メロディを変更した",
      "howto": "【フォーントリガー】着信メロディを変更する"
    },
    {
      "id": 22,
      "imageId": 30,
      "cred": 5,
      "flags": 4,
      "label": "完全孤立のアイデンティティ",
      "description": "【フォーントリガー】誰かからかかってきた電話を無視した",
      "howto": "【フォーントリガー】誰かからかかってきた電話を無視する"
    },
    {
      "id": 23,
      "imageId": 31,
      "cred": 50,
      "flags": 1,
      "label": "雷ネットのヒーロー",
      "description": "【フォーントリガー】雷ネットのあらすじ13話分コンプリート",
      "howto": "【フォーントリガー】雷ネットのあらすじ13話分をコンプリートする"
    },
    {
      "id": 24,
      "imageId": 32,
      "cred": 50,
      "flags": 1,
      "label": "流行終焉のカエルん",
      "description": "【フォーントリガー】ゲロカエルん待ち受け壁紙コンプリート",
      "howto": "【フォーントリガー】ゲロカエルんの待ち受け壁紙をコンプリートする"
    },
    {
      "id": 25,
      "imageId": 33,
      "cred": 50,
      "flags": 1,
      "label": "混沌の詩",
      "description": "【フォーントリガー】混沌とした頭から流れ出る着信用ソング4曲をコンプリート",
      "howto": "【フォーントリガー】混沌とした頭から流れ出る着信用ソング4曲をコンプリートする"
    },
    {
      "id": 26,
      "imageId": 3,
      "cred": 10,
      "flags": 6,
      "label": "時間跳躍のパラノイア",
      "description": "Chapter1クリア",
      "howto": "Chapter1をクリアする"
    },
    {
      "id": 27,
      "imageId": 4,
      "cred": 10,
      "flags": 6,
      "label": "空理彷徨のランデヴー",
      "description": "Chapter2クリア",
      "howto": "Chapter2をクリアする"
    },
    {
      "id": 28,
      "imageId": 5,
      "cred": 10,
      "flags": 6,
      "label": "蝶翼のダイバージェンス",
      "description": "Chapter3クリア",
      "howto": "Chapter3をクリアする"
    },
    {
      "id": 29,
      "imageId": 6,
      "cred": 10,
      "flags": 6,
      "label": "夢幻のホメオスタシス",
      "description": "Chapter4クリア",
      "howto": "Chapter4をクリアする"
    },
    {
      "id": 30,
      "imageId": 7,
      "cred": 10,
      "flags": 6,
      "label": "時空境界のドグマ",
      "description": "Chapter5クリア",
      "howto": "Chapter5をクリアする"
    },
    {
      "id": 31,
      "imageId": 8,
      "cred": 10,
      "flags": 6,
      "label": "形而上のネクローシス",
      "description": "Chapter6クリア",
      "howto": "Chapter6をクリアする"
    },
    {
      "id": 32,
      "imageId": 9,
      "cred": 10,
      "flags": 6,
      "label": "虚像歪曲のコンプレックス",
      "description": "Chapter7クリア",
      "howto": "Chapter7をクリアする"
    },
    {
      "id": 33,
      "imageId": 10,
      "cred": 10,
      "flags": 6,
      "label": "自己相似のアンドロギュノス",
      "description": "Chapter8クリア",
      "howto": "Chapter8をクリアする"
    },
    {
      "id": 34,
      "imageId": 35,
      "cred": 50,
      "flags": 1,
      "label": "雷ネットのマスコット",
      "description": "【フォーントリガー】うーぱ2種類の待ち受け壁紙ゲット",
      "howto": "【フォーントリガー】うーぱ2種類の待ち受け壁紙をゲットする"
    },
    {
      "id": 35,
      "imageId": 36,
      "cred": 50,
      "flags": 1,
      "label": "混沌の姫たち",
      "description": "【フォーントリガー】混沌とした頭のキャラクター待ち受け壁紙3種類ゲット",
      "howto": "【フォーントリガー】混沌とした頭のキャラクター待ち受け壁紙3種類をゲットする"
    },
    {
      "id": 36,
      "imageId": 37,
      "cred": 10,
      "flags": 4,
      "label": "不連続性のクオリア",
      "description": "【フォーントリガー】紅莉栖からカップ麺を買ってきてとメールで2回連続頼まれた",
      "howto": "【フォーントリガー】紅莉栖からカップ麺を買ってきてとメールで2回連続頼まれる"
    },
    {
      "id": 37,
      "imageId": 38,
      "cred": 10,
      "flags": 4,
      "label": "黒歴史のパッション",
      "description": "【フォーントリガー】まゆりからの「コス作りを始めたきっかけ」に関するメールを読んだ",
      "howto": "【フォーントリガー】まゆりからの「コス作りを始めたきっかけ」に関するメールを読む"
    },
    {
      "id": 38,
      "imageId": 39,
      "cred": 10,
      "flags": 4,
      "label": "女戦士のプライド",
      "description": "【フォーントリガー】鈴羽からの「格闘技」に関するメールを読んだ",
      "howto": "【フォーントリガー】鈴羽からの「格闘技」に関するメールを読む"
    },
    {
      "id": 39,
      "imageId": 40,
      "cred": 10,
      "flags": 4,
      "label": "暴虐のシスター",
      "description": "【フォーントリガー】るかからの「姉」に関するメールを読んだ",
      "howto": "【フォーントリガー】るかからの「姉」に関するメールを読む"
    },
    {
      "id": 40,
      "imageId": 41,
      "cred": 10,
      "flags": 4,
      "label": "猫のティータイム",
      "description": "【フォーントリガー】フェイリスからの「紅茶」に関するメールを読んだ",
      "howto": "【フォーントリガー】フェイリスからの「紅茶」に関するメールを読む"
    },
    {
      "id": 41,
      "imageId": 42,
      "cred": 5,
      "flags": 7,
      "label": "ホームラン級の不器用さ",
      "description": "電話レンジ（仮）のタイマー設定を10回間違えた（累計）",
      "howto": "電話レンジ（仮）のタイマー設定を10回間違える（累計）"
    },
    {
      "id": 42,
      "imageId": 43,
      "cred": 20,
      "flags": 6,
      "label": "不可避のサクリファイス",
      "description": "交通事故に遭った",
      "howto": "交通事故に遭う"
    },
    {
      "id": 43,
      "imageId": 44,
      "cred": 20,
      "flags": 6,
      "label": "慟哭のティアーズレイン",
      "description": "鈴羽の涙を目撃したが逃げられた",
      "howto": "鈴羽の涙を目撃する"
    },
    {
      "id": 44,
      "imageId": 45,
      "cred": 20,
      "flags": 6,
      "label": "焦燥のエスケープ",
      "description": "まゆりとともに秋葉原を全力疾走した",
      "howto": "まゆりとともに秋葉原を全力疾走する"
    },
    {
      "id": 45,
      "imageId": 46,
      "cred": 20,
      "flags": 6,
      "label": "起死回生のターン",
      "description": "雷ネット・アクセスバトラーズ・グランドチャンピオンシップ決勝戦を見た",
      "howto": "雷ネット・アクセスバトラーズ・グランドチャンピオンシップ決勝戦を見る"
    },
    {
      "id": 46,
      "imageId": 47,
      "cred": 20,
      "flags": 6,
      "label": "灼熱のフェスティバル",
      "description": "コミマデートを敢行したが逆効果だった",
      "howto": "コミマデートを敢行する"
    },
    {
      "id": 47,
      "imageId": 48,
      "cred": 20,
      "flags": 6,
      "label": "沈鬱のワンダラー",
      "description": "駅前で座り込んでいる不審な様子の萌郁と小芝居をした",
      "howto": "駅前で座り込んでいる萌郁と小芝居をする"
    },
    {
      "id": 48,
      "imageId": 49,
      "cred": 20,
      "flags": 6,
      "label": "怨嗟初期化のメソッド",
      "description": "FBの正体を突き止めた",
      "howto": "萌郁の上司に挨拶する"
    },
    {
      "id": 49,
      "imageId": 50,
      "cred": 20,
      "flags": 6,
      "label": "鏡像のプロフェト",
      "description": "もう1人のタイムリーパーと会った",
      "howto": "15年後の運命について告げられる"
    },
    {
      "id": 50,
      "imageId": 51,
      "cred": 20,
      "flags": 6,
      "label": "希望と絶望のパンドラ",
      "description": "紅莉栖の父親が誰なのかを知った",
      "howto": "親子ゲンカ真っ最中の場面に出くわす"
    },
    {
      "id": 51,
      "imageId": 52,
      "cred": 70,
      "flags": 6,
      "label": "ラボメンからのプレゼント",
      "description": "おめでとう。今日から君もラボメンだ",
      "howto": "STEINS;GATEをやり尽くす"
    }
  ]
}