{
  "achievementsPossible": 50,
  "credPossible": 1000,
  "achievements": [
    {
      "id": 1,
      "imageId": 106,
      "cred": 10,
      "flags": 6,
      "label": "ニューカマー",
      "description": "チームに入隊した者に与えられる",
      "howto": "チームに入隊しましょう"
    },
    {
      "id": 2,
      "imageId": 105,
      "cred": 10,
      "flags": 6,
      "label": "アセンブラー",
      "description": "AC をアセンブルした者に与えられる",
      "howto": "AC をアセンブルしましょう"
    },
    {
      "id": 3,
      "imageId": 3,
      "cred": 10,
      "flags": 6,
      "label": "コーディネイター",
      "description": "AC をカラーリングした者に与えられる",
      "howto": "AC をカラーリングしましょう"
    },
    {
      "id": 4,
      "imageId": 4,
      "cred": 10,
      "flags": 6,
      "label": "アーティスト",
      "description": "エンブレムをエディットした者に与えられる",
      "howto": "エンブレムをエディットしましょう"
    },
    {
      "id": 5,
      "imageId": 5,
      "cred": 10,
      "flags": 6,
      "label": "三大勢力",
      "description": "いずれかの勢力に所属しているチームのメンバーとなった者に与えられる",
      "howto": "いずれかの勢力に所属しているチームのメンバーになりましょう"
    },
    {
      "id": 6,
      "imageId": 138,
      "cred": 10,
      "flags": 6,
      "label": "通常出撃",
      "description": "通常出撃を行った者に与えられる",
      "howto": "通常出撃を行いましょう"
    },
    {
      "id": 7,
      "imageId": 139,
      "cred": 10,
      "flags": 4,
      "label": "通常出撃勝利",
      "description": "通常出撃で勝利した者に与えられる",
      "howto": "通常出撃で勝利しましょう"
    },
    {
      "id": 8,
      "imageId": 27,
      "cred": 15,
      "flags": 6,
      "label": "特別出撃",
      "description": "特別出撃を行った者に与えられる",
      "howto": "特別出撃を行いましょう"
    },
    {
      "id": 9,
      "imageId": 28,
      "cred": 20,
      "flags": 4,
      "label": "特別出撃勝利",
      "description": "特別出撃で勝利した者に与えられる",
      "howto": "特別出撃で勝利しましょう"
    },
    {
      "id": 10,
      "imageId": 99,
      "cred": 20,
      "flags": 4,
      "label": "メダリスト",
      "description": "ワールドモードに出撃し、プレイヤー勲章を獲得した者に与えられる",
      "howto": "ワールドモードに出撃し、プレイヤー勲章を獲得しましょう（勲章の種類は問いません）"
    },
    {
      "id": 11,
      "imageId": 136,
      "cred": 15,
      "flags": 6,
      "label": "部隊出撃",
      "description": "4人以上で通常出撃、または特別出撃を行った者に与えられる（傭兵、UNAC も１人とカウントします）",
      "howto": "4人以上で通常出撃、または特別出撃を行いましょう（傭兵、UNAC も１人とカウントします）"
    },
    {
      "id": 12,
      "imageId": 26,
      "cred": 10,
      "flags": 6,
      "label": "アーキテクト",
      "description": "オペレーションをカスタマイズし、UNAC を作成した者に与えられる",
      "howto": "オペレーションをカスタマイズし、UNAC を作成しましょう"
    },
    {
      "id": 13,
      "imageId": 137,
      "cred": 20,
      "flags": 4,
      "label": "オペレータ",
      "description": "通常出撃または特別出撃にオペレータとして参加し、戦闘を勝利に導いた者に与えられる",
      "howto": "通常出撃または特別出撃にオペレータとして参加し、戦闘を勝利に導きましょう"
    },
    {
      "id": 14,
      "imageId": 29,
      "cred": 15,
      "flags": 4,
      "label": "UNAC オペレーション",
      "description": "UNAC を含めた部隊にオペレータとして参加し、戦闘を勝利に導いた者に与えられる",
      "howto": "UNAC を含めた部隊にオペレータとして参加し、戦闘を勝利に導きましょう"
    },
    {
      "id": 15,
      "imageId": 30,
      "cred": 15,
      "flags": 6,
      "label": "領地カスタム",
      "description": "自分の領地をカスタマイズした者に与えられる。",
      "howto": "自分の領地をカスタマイズしましょう（カスタマイズデータをACVDサーバーに登録する必要があります）"
    },
    {
      "id": 16,
      "imageId": 23,
      "cred": 10,
      "flags": 6,
      "label": "サインズ",
      "description": "傭兵として依頼を受け、出撃した者に与えられる",
      "howto": "傭兵として依頼を受け、出撃しましょう"
    },
    {
      "id": 17,
      "imageId": 135,
      "cred": 10,
      "flags": 4,
      "label": "依頼達成",
      "description": "傭兵として依頼を成功させた者に与えられる",
      "howto": "傭兵として依頼を受け、成功させましょう"
    },
    {
      "id": 18,
      "imageId": 19,
      "cred": 10,
      "flags": 6,
      "label": "戦場カメラマン",
      "description": "スクリーンショットを撮影した者に与えられる",
      "howto": "スクリーンショットを撮影しましょう"
    },
    {
      "id": 19,
      "imageId": 6,
      "cred": 15,
      "flags": 4,
      "label": "ファーストダウン",
      "description": "AC と戦闘し、勝利した者に与えられる",
      "howto": "AC と戦闘し、勝利しましょう（ミッションの種類は問いません）"
    },
    {
      "id": 20,
      "imageId": 17,
      "cred": 10,
      "flags": 6,
      "label": "プレイヤーランク E",
      "description": "プレイヤーランクを E 以上にした者に与えられる",
      "howto": "プレイヤーランクを E 以上にしましょう"
    },
    {
      "id": 21,
      "imageId": 150,
      "cred": 50,
      "flags": 1,
      "label": "プレイヤーランク S",
      "description": "プレイヤーランクを S にした者に与えられる",
      "howto": "プレイヤーランクを S にしましょう"
    },
    {
      "id": 22,
      "imageId": 32,
      "cred": 15,
      "flags": 2,
      "label": "チームランク E",
      "description": "チームランクが E 以上のチームの所属メンバーに与えられる",
      "howto": "チームランクが E 以上のチームに所属しましょう"
    },
    {
      "id": 23,
      "imageId": 18,
      "cred": 30,
      "flags": 2,
      "label": "チームランク A",
      "description": "チームランク A 以上のチームの所属メンバーに与えられる",
      "howto": "チームランク A 以上のチームに所属しましょう"
    },
    {
      "id": 24,
      "imageId": 116,
      "cred": 10,
      "flags": 6,
      "label": "ミッション：01 クリア",
      "description": "ストーリーミッション： 01 DIRTY WORKER をクリアした者に与えられる",
      "howto": "ストーリーミッション： 01 をクリアしましょう"
    },
    {
      "id": 25,
      "imageId": 117,
      "cred": 10,
      "flags": 6,
      "label": "ミッション：02 クリア",
      "description": "ストーリーミッション： 02 TRICKSTER をクリアした者に与えられる",
      "howto": "ストーリーミッション： 02 をクリアしましょう"
    },
    {
      "id": 26,
      "imageId": 118,
      "cred": 10,
      "flags": 6,
      "label": "ミッション：03 クリア",
      "description": "ストーリーミッション： 03 RUSTING STEEL をクリアした者に与えられる",
      "howto": "ストーリーミッション： 03 をクリアしましょう"
    },
    {
      "id": 27,
      "imageId": 8,
      "cred": 10,
      "flags": 6,
      "label": "ミッション：04 クリア",
      "description": "ストーリーミッション： 04 PEEKABOO をクリアした者に与えられる",
      "howto": "ストーリーミッション： 04 をクリアしましょう"
    },
    {
      "id": 28,
      "imageId": 9,
      "cred": 10,
      "flags": 6,
      "label": "ミッション：05 クリア",
      "description": "ストーリーミッション： 05 SECRET GAME をクリアした者に与えられる",
      "howto": "ストーリーミッション： 05 をクリアしましょう"
    },
    {
      "id": 29,
      "imageId": 10,
      "cred": 10,
      "flags": 6,
      "label": "ミッション：06 クリア",
      "description": "ストーリーミッション： 06 BLUE MAGNOLIA をクリアした者に与えられる",
      "howto": "ストーリーミッション： 06 をクリアしましょう"
    },
    {
      "id": 30,
      "imageId": 11,
      "cred": 10,
      "flags": 6,
      "label": "ミッション：07 クリア",
      "description": "ストーリーミッション： 07 GRAVITY をクリアした者に与えられる",
      "howto": "ストーリーミッション： 07 をクリアしましょう"
    },
    {
      "id": 31,
      "imageId": 12,
      "cred": 10,
      "flags": 6,
      "label": "ミッション：08 クリア",
      "description": "ストーリーミッション： 08 VENDETTA をクリアした者に与えられる",
      "howto": "ストーリーミッション： 08 をクリアしましょう"
    },
    {
      "id": 32,
      "imageId": 13,
      "cred": 10,
      "flags": 6,
      "label": "ミッション：09 クリア",
      "description": "ストーリーミッション： 09 FORGIVE AN ANGEL をクリアした者に与えられる",
      "howto": "ストーリーミッション： 09 をクリアしましょう"
    },
    {
      "id": 33,
      "imageId": 14,
      "cred": 10,
      "flags": 6,
      "label": "ミッション：10クリア",
      "description": "ストーリーミッション： 10 MECHANIZED MEMORIES をクリアした者に与えられる",
      "howto": "ストーリーミッション： 10 をクリアしましょう"
    },
    {
      "id": 34,
      "imageId": 15,
      "cred": 30,
      "flags": 1,
      "label": "ストーリーミッションクリア",
      "description": "全てのストーリーミッションをクリアした者に与えられる",
      "howto": "全てのストーリーミッションをクリアしましょう"
    },
    {
      "id": 35,
      "imageId": 7,
      "cred": 10,
      "flags": 6,
      "label": "情報収集",
      "description": "プレイヤー情報でニュースを閲覧した者に与えられる",
      "howto": "プレイヤー情報でニュースを閲覧しましょう"
    },
    {
      "id": 36,
      "imageId": 34,
      "cred": 50,
      "flags": 1,
      "label": "パーツマスター",
      "description": "全ての AC パーツを入手した者に与えられる（ダウンロードコンテンツのパーツは対象外です）",
      "howto": "全ての AC パーツを入手しましょう（ダウンロードコンテンツのパーツは対象外です）"
    },
    {
      "id": 37,
      "imageId": 22,
      "cred": 30,
      "flags": 1,
      "label": "エンブレムマスター",
      "description": "AC 撃破とショップ購入により、全てのエンブレムとエンブレムピースを手に入れた者に与えられる（ダウンロードコンテンツ、アーマード・コアⅤの引き継ぎエンブレムは対象外です）",
      "howto": "AC 撃破とショップ購入により、全てのエンブレムとエンブレムピースを手に入れましょう（ダウンロードコンテンツ、アーマード・コアⅤの引き継ぎエンブレムは対象外です）"
    },
    {
      "id": 38,
      "imageId": 33,
      "cred": 30,
      "flags": 2,
      "label": "アーキテクトマスター",
      "description": "UNAC 拡張を行い、全てのグレードを最大にした者に与えられる",
      "howto": "UNAC 拡張を行い、全てのグレードを最大にしましょう"
    },
    {
      "id": 39,
      "imageId": 31,
      "cred": 30,
      "flags": 4,
      "label": "オペレータマスター",
      "description": "出撃メンバーが全て UNAC の部隊にオペレータとして参加し、戦闘を勝利に導いた者に与えられる",
      "howto": "出撃メンバーが全て UNAC の部隊にオペレータとして参加し、戦闘を勝利に導きましょう"
    },
    {
      "id": 40,
      "imageId": 20,
      "cred": 30,
      "flags": 4,
      "label": "領地マスター",
      "description": "領地カスタムで全ての防衛装置とフォーメーションを購入した者に与えられる",
      "howto": "領地カスタムで全ての防衛装置とフォーメーションを購入しましょう"
    },
    {
      "id": 41,
      "imageId": 16,
      "cred": 50,
      "flags": 1,
      "label": "ストーリーマスター",
      "description": "全てのストーリーミッションをランク S でクリアした者に与えられる",
      "howto": "全てのストーリーミッションをランク S でクリアしましょう"
    },
    {
      "id": 42,
      "imageId": 21,
      "cred": 30,
      "flags": 1,
      "label": "サブクエストマスター",
      "description": "ストーリーミッションの全てのサブクエストを達成した者に与えられる",
      "howto": "ストーリーミッションの全てのサブクエストを達成しましょう"
    },
    {
      "id": 43,
      "imageId": 35,
      "cred": 50,
      "flags": 4,
      "label": "バーサーカー",
      "description": "ストーリーミッションのハードコアモードをクリアした者に与えられる（タイプは問いません）",
      "howto": "ストーリーミッションのハードコアモードをクリアしましょう（タイプは問いません）"
    },
    {
      "id": 44,
      "imageId": 151,
      "cred": 30,
      "flags": 4,
      "label": "廃墟の王",
      "description": "ワールドモードで、SCAVENGER・HUNTER・PREDATOR を撃破した者に与えられる",
      "howto": "ワールドモードで、SCAVENGER・HUNTER・PREDATOR を撃破しましょう"
    },
    {
      "id": 45,
      "imageId": 152,
      "cred": 30,
      "flags": 4,
      "label": "荒野の王",
      "description": "ワールドモードで、To-605A・To-605S・To-605D を撃破した者に与えられる",
      "howto": "ワールドモードで、To-605A・To-605S・To-605D を撃破しましょう"
    },
    {
      "id": 46,
      "imageId": 153,
      "cred": 30,
      "flags": 4,
      "label": "汚染地域の王",
      "description": "ワールドモードで、GREY LOTUS を撃破した者に与えられる",
      "howto": "ワールドモードで、GREY LOTUS を撃破しましょう"
    },
    {
      "id": 47,
      "imageId": 154,
      "cred": 30,
      "flags": 4,
      "label": "湿原の王",
      "description": "ワールドモードで、SPIRIT CLASS MOVING FORTRESS を撃破した者に与えられる",
      "howto": "ワールドモードで、SPIRIT CLASS MOVING FORTRESS を撃破しましょう"
    },
    {
      "id": 48,
      "imageId": 155,
      "cred": 30,
      "flags": 4,
      "label": "雪原の王",
      "description": "ワールドモードで、EXUSIA を撃破した者に与えられる",
      "howto": "ワールドモードで、EXUSIA を撃破しましょう"
    },
    {
      "id": 49,
      "imageId": 156,
      "cred": 30,
      "flags": 4,
      "label": "極地の王",
      "description": "ワールドモードで、LiV を撃破した者に与えられる",
      "howto": "ワールドモードで、LiV を撃破しましょう"
    },
    {
      "id": 50,
      "imageId": 107,
      "cred": 30,
      "flags": 4,
      "label": "砂漠の王",
      "description": "ワールドモードで、N-WGⅨ/ｖ を撃破した者に与えられる",
      "howto": "ワールドモードで、N-WGⅨ/ｖ を撃破しましょう"
    }
  ]
}