{
  "achievementsPossible": 50,
  "credPossible": 1000,
  "achievements": [
    {
      "id": 6,
      "imageId": 20,
      "cred": 15,
      "flags": 1,
      "label": "Racing Transformed",
      "description": "Turned All-Star",
      "howto": "Go All-Star"
    },
    {
      "id": 7,
      "imageId": 23,
      "cred": 15,
      "flags": 1,
      "label": "Parts Shop",
      "description": "Won an event with a Mod equipped",
      "howto": "Win an event with a Mod equipped"
    },
    {
      "id": 8,
      "imageId": 24,
      "cred": 10,
      "flags": 1,
      "label": "Sonic Drift",
      "description": "Did a 10 second Drift as Sonic",
      "howto": "Do a 10 second Drift as Sonic"
    },
    {
      "id": 9,
      "imageId": 25,
      "cred": 10,
      "flags": 1,
      "label": "Tornado",
      "description": "Did a Level 3 Air-Drift",
      "howto": "Do a Level 3 Air-Drift"
    },
    {
      "id": 10,
      "imageId": 26,
      "cred": 15,
      "flags": 1,
      "label": "Magic Second",
      "description": "Finished 0.5 seconds ahead of an opponent in a Race",
      "howto": "Finish 0.5 seconds ahead of an opponent in a Race"
    },
    {
      "id": 11,
      "imageId": 27,
      "cred": 10,
      "flags": 1,
      "label": "Spin Dash",
      "description": "Did a Boost-Start in each vehicle mode",
      "howto": "Do a Boost-Start in each vehicle mode"
    },
    {
      "id": 12,
      "imageId": 28,
      "cred": 15,
      "flags": 1,
      "label": "Scud Racer",
      "description": "Finished 1st in a Race without getting hit by weapons",
      "howto": "Finish 1st in a Race without getting hit by weapons"
    },
    {
      "id": 13,
      "imageId": 29,
      "cred": 15,
      "flags": 1,
      "label": "Blast Processing",
      "description": "Hit 2 opponents with a single Hot Rod Blast",
      "howto": "Hit 2 opponents with a single Hot Rod Blast"
    },
    {
      "id": 14,
      "imageId": 30,
      "cred": 10,
      "flags": 1,
      "label": "Fighting Viper",
      "description": "Evaded or Blocked a homing-weapon 3 times in a Race",
      "howto": "Evade or Block a homing-weapon 3 times in a Race"
    },
    {
      "id": 15,
      "imageId": 31,
      "cred": 15,
      "flags": 1,
      "label": "Catcher Pitcher",
      "description": "Absorbed a weapon with the Glove and fired it back at your attacker",
      "howto": "Absorb a weapon with the Glove and fire it back at your attacker"
    },
    {
      "id": 16,
      "imageId": 32,
      "cred": 10,
      "flags": 1,
      "label": "Eyes On The Road",
      "description": "Hit an opponent with a weapon while looking backwards",
      "howto": "Hit an opponent with a weapon while looking backwards"
    },
    {
      "id": 17,
      "imageId": 33,
      "cred": 10,
      "flags": 1,
      "label": "Cosmic Smash",
      "description": "Detonated the Hot Rod at the very last second",
      "howto": "Detonate the Hot Rod at the very last second"
    },
    {
      "id": 18,
      "imageId": 34,
      "cred": 20,
      "flags": 1,
      "label": "Nomad",
      "description": "Visited every location in the game",
      "howto": "Visit every location in the game"
    },
    {
      "id": 19,
      "imageId": 35,
      "cred": 10,
      "flags": 1,
      "label": "Rank B",
      "description": "Earned your B Class License",
      "howto": "Earn your B Class License"
    },
    {
      "id": 20,
      "imageId": 36,
      "cred": 20,
      "flags": 1,
      "label": "Rank A",
      "description": "Earned your A Class License",
      "howto": "Earn your A Class License"
    },
    {
      "id": 21,
      "imageId": 37,
      "cred": 30,
      "flags": 1,
      "label": "Rank S",
      "description": "Earned your S Class License",
      "howto": "Earn your S Class License"
    },
    {
      "id": 22,
      "imageId": 38,
      "cred": 50,
      "flags": 1,
      "label": "SEGA All Star",
      "description": "Earned your Star License",
      "howto": "Earn your Star License"
    },
    {
      "id": 23,
      "imageId": 39,
      "cred": 100,
      "flags": 1,
      "label": "SEGA Super Star",
      "description": "Earned your Triple-Star License",
      "howto": "Earn your Triple-Star License"
    },
    {
      "id": 24,
      "imageId": 40,
      "cred": 20,
      "flags": 1,
      "label": "Hardcore",
      "description": "Completed a World Tour event on Expert difficulty",
      "howto": "Complete a World Tour event on Expert difficulty"
    },
    {
      "id": 25,
      "imageId": 41,
      "cred": 10,
      "flags": 1,
      "label": "Newtron",
      "description": "Manually selected a Random character for a Matchmaking game",
      "howto": "Manually select a Random character for a Matchmaking game"
    },
    {
      "id": 26,
      "imageId": 42,
      "cred": 10,
      "flags": 1,
      "label": "SUMO Wrestled",
      "description": "Beat your first Staff Ghost in Time Attack",
      "howto": "Beat your first Staff Ghost in Time Attack"
    },
    {
      "id": 27,
      "imageId": 43,
      "cred": 50,
      "flags": 1,
      "label": "Yokozuna",
      "description": "Beat all the Staff Ghosts in Time Attack",
      "howto": "Beat all the Staff Ghosts in Time Attack"
    },
    {
      "id": 28,
      "imageId": 44,
      "cred": 20,
      "flags": 1,
      "label": "De Rol Le Credits",
      "description": "Unlocked Superstar Showdown in World Tour",
      "howto": "Unlock Superstar Showdown in World Tour"
    },
    {
      "id": 29,
      "imageId": 45,
      "cred": 30,
      "flags": 1,
      "label": "Takes AGES",
      "description": "Unlocked every Character in the game",
      "howto": "Unlock every Character in the game"
    },
    {
      "id": 30,
      "imageId": 46,
      "cred": 30,
      "flags": 1,
      "label": "Racing Hero",
      "description": "Got a Podium Finish in every Grand Prix tournament",
      "howto": "Get a Podium Finish in every Grand Prix tournament"
    },
    {
      "id": 31,
      "imageId": 47,
      "cred": 15,
      "flags": 1,
      "label": "Welcome To The Fantasy Zone",
      "description": "Finished 1st in a Grand Prix tournament",
      "howto": "Finish 1st in a Grand Prix tournament"
    },
    {
      "id": 32,
      "imageId": 48,
      "cred": 20,
      "flags": 1,
      "label": "Holosseum",
      "description": "Unlocked Mirror Grand Prix mode",
      "howto": "Unlock Mirror Grand Prix mode"
    },
    {
      "id": 33,
      "imageId": 49,
      "cred": 30,
      "flags": 1,
      "label": "Gale Racer",
      "description": "Got a Podium Finish in every Grand Prix tournament on Expert difficulty",
      "howto": "Get a Podium Finish in every Grand Prix tournament on Expert difficulty"
    },
    {
      "id": 34,
      "imageId": 50,
      "cred": 15,
      "flags": 1,
      "label": "Race Leader",
      "description": "Won a Matchmaking game",
      "howto": "Win a Matchmaking game"
    },
    {
      "id": 35,
      "imageId": 51,
      "cred": 10,
      "flags": 1,
      "label": "House Party Of The Dead",
      "description": "Completed an event with 4 local friends",
      "howto": "Complete an event with 4 local friends"
    },
    {
      "id": 36,
      "imageId": 52,
      "cred": 15,
      "flags": 1,
      "label": "Virtua Trickster",
      "description": "Rolled Left, Rolled Right, Backflipped, Forward Flipped and landed as a car or boat",
      "howto": "Roll Left, Roll Right, Backflip, Forward Flip and land as a car or boat"
    },
    {
      "id": 37,
      "imageId": 53,
      "cred": 15,
      "flags": 1,
      "label": "Link Chain",
      "description": "Completed the Dream Valley Ring Race and passed every Ring as NiGHTS or Reala",
      "howto": "Complete the Dream Valley Ring Race and pass every Ring as NiGHTS or Reala"
    },
    {
      "id": 38,
      "imageId": 54,
      "cred": 15,
      "flags": 1,
      "label": "Vyse The Legend",
      "description": "Beat 01:11.16 in Time Attack as Vyse in Rogue's Landing",
      "howto": "Beat 01:11.16 in Time Attack as Vyse in Rogue's Landing"
    },
    {
      "id": 39,
      "imageId": 55,
      "cred": 15,
      "flags": 1,
      "label": "You Got The Horn",
      "description": "Levelled-up a character",
      "howto": "Level-up a character"
    },
    {
      "id": 40,
      "imageId": 56,
      "cred": 50,
      "flags": 1,
      "label": "All Stars",
      "description": "Collected every Star in World Tour",
      "howto": "Collect every Star in World Tour"
    },
    {
      "id": 41,
      "imageId": 57,
      "cred": 15,
      "flags": 1,
      "label": "Battle Outrunner",
      "description": "Did 5 overtakes in a single Drift",
      "howto": "Do 5 overtakes in a single Drift"
    },
    {
      "id": 42,
      "imageId": 58,
      "cred": 15,
      "flags": 1,
      "label": "Genesis",
      "description": "Triple-Stunted while transforming into a car or boat",
      "howto": "Triple-Stunt while transforming into a car or boat"
    },
    {
      "id": 43,
      "imageId": 59,
      "cred": 15,
      "flags": 1,
      "label": "Drift More",
      "description": "Got a Perfect Drift score on a Drift Challenge event",
      "howto": "Get a Perfect Drift score on a Drift Challenge event"
    },
    {
      "id": 44,
      "imageId": 61,
      "cred": 15,
      "flags": 1,
      "label": "Mega Jet",
      "description": "Did a Reckless Boost",
      "howto": "Do a Reckless Boost"
    },
    {
      "id": 45,
      "imageId": 62,
      "cred": 15,
      "flags": 1,
      "label": "Ax Battler",
      "description": "Finished a Battle Race without losing any lives",
      "howto": "Finish a Battle Race without losing any lives"
    },
    {
      "id": 46,
      "imageId": 64,
      "cred": 15,
      "flags": 1,
      "label": "Arrow Of Light",
      "description": "Froze an opponent with Ice from at least 100 meters away",
      "howto": "Freeze an opponent with Ice from at least 100 meters away"
    },
    {
      "id": 47,
      "imageId": 72,
      "cred": 10,
      "flags": 1,
      "label": "Buzz Bomber",
      "description": "Hit 1st, 2nd and 3rd place with a Swarm attack",
      "howto": "Hit 1st, 2nd and 3rd place with a Swarm attack"
    },
    {
      "id": 48,
      "imageId": 73,
      "cred": 20,
      "flags": 1,
      "label": "Lock On Sight",
      "description": "Scored 90% accuracy with aimed weapons in an event",
      "howto": "Score 90% accuracy with aimed weapons in an event"
    },
    {
      "id": 49,
      "imageId": 63,
      "cred": 50,
      "flags": 1,
      "label": "Welcome To Victory Lane",
      "description": "Finished 1st in every Grand Prix tournament on Expert difficulty",
      "howto": "Finish 1st in every Grand Prix tournament on Expert difficulty"
    },
    {
      "id": 50,
      "imageId": 66,
      "cred": 15,
      "flags": 1,
      "label": "Meteor Strike",
      "description": "Collected 10 Stars in World Tour",
      "howto": "Collect 10 Stars in World Tour"
    },
    {
      "id": 51,
      "imageId": 67,
      "cred": 10,
      "flags": 1,
      "label": "Justice Shot",
      "description": "Got 10 hits by firing weapons backwards in a single event",
      "howto": "Get 10 hits by firing weapons backwards in a single event"
    },
    {
      "id": 52,
      "imageId": 68,
      "cred": 15,
      "flags": 1,
      "label": "Shadow Step",
      "description": "Did 10 Stunt Combos in a single event",
      "howto": "Do 10 Stunt Combos in a single event"
    },
    {
      "id": 53,
      "imageId": 69,
      "cred": 10,
      "flags": 1,
      "label": "Crack Down",
      "description": "Got a total of 20 hits with weapons in a Race",
      "howto": "Get a total of 20 hits with weapons in a Race"
    },
    {
      "id": 54,
      "imageId": 70,
      "cred": 20,
      "flags": 1,
      "label": "The King Of Speed",
      "description": "Finished 1st in a Grand Prix tournament at Expert difficulty",
      "howto": "Finish 1st in a Grand Prix tournament at Expert difficulty"
    },
    {
      "id": 55,
      "imageId": 71,
      "cred": 10,
      "flags": 1,
      "label": "Team Sonic",
      "description": "Finished 1st, 2nd, 3rd and 4th with local friends in a 10 player Race",
      "howto": "Finish 1st, 2nd, 3rd and 4th with local friends in a 10 player Race"
    }
  ]
}