{
  "avatarAssetsPossible": 5,
  "maleAvatarAssetsPossible": 2,
  "femaleAvatarAssetsPossible": 2,
  "avatarAssets": [
    {
      "id": "00000544-0001-c143-ced3-e26558410b14",
      "imageId": 34,
      "subcategory": 0,
      "unknown": 0,
      "isMale": false,
      "isFemale": false,
      "isUnisex": true,
      "label": "Bloodskin Helmet",
      "description": "Completed the first mission.",
      "howto": "Complete the first mission."
    },
    {
      "id": "00000208-0002-d101-c856-3d2758410b14",
      "imageId": 38,
      "subcategory": 0,
      "unknown": 2015221016,
      "isMale": true,
      "isFemale": false,
      "isUnisex": false,
      "label": "Bloodskin Suit (Top)",
      "description": "Bloodskin reached Level 2.",
      "howto": "Raise the level of Bloodskin."
    },
    {
      "id": "00000208-0002-71b2-c1a2-da4b58410b14",
      "imageId": 36,
      "subcategory": 0,
      "unknown": 2015221016,
      "isMale": false,
      "isFemale": true,
      "isUnisex": false,
      "label": "Bloodskin Suit (Top)",
      "description": "Bloodskin reached Level 2.",
      "howto": "Raise the level of Bloodskin."
    },
    {
      "id": "00000010-0005-a191-ca36-677b58410b14",
      "imageId": 42,
      "subcategory": 0,
      "unknown": 2015221016,
      "isMale": true,
      "isFemale": false,
      "isUnisex": false,
      "label": "Bloodskin Suit (Bottom)",
      "description": "Got an S rank five times with Bloodskin.",
      "howto": "Get an S rank five times with Bloodskin."
    },
    {
      "id": "00000010-0005-21d2-c564-5ef458410b14",
      "imageId": 40,
      "subcategory": 0,
      "unknown": 2015221016,
      "isMale": false,
      "isFemale": true,
      "isUnisex": false,
      "label": "Bloodskin Suit (Bottom)",
      "description": "Got an S rank five times with Bloodskin.",
      "howto": "Get an S rank five times with Bloodskin."
    }
  ]
}