{
  "achievementsPossible": 50,
  "credPossible": 1000,
  "achievements": [
    {
      "id": 20,
      "imageId": 21,
      "cred": 80,
      "flags": 6,
      "label": "Through the Halls",
      "description": "Hall of Heroes has been completed (all tokens collected) in Single Player or Online Coop Play.",
      "howto": "Continue playing to unlock this secret achievement."
    },
    {
      "id": 29,
      "imageId": 27,
      "cred": 80,
      "flags": 6,
      "label": "Frozen Vengeance",
      "description": "Ice Forest has been completed (all tokens collected) in Single Player or Online Coop Play.",
      "howto": "Continue playing to unlock this secret achievement."
    },
    {
      "id": 30,
      "imageId": 29,
      "cred": 80,
      "flags": 6,
      "label": "The One That Got Away…",
      "description": "World Serpent has been completed (all tokens collected) in Single Player or Online Coop Play.",
      "howto": "Continue playing to unlock this secret achievement."
    },
    {
      "id": 31,
      "imageId": 22,
      "cred": 80,
      "flags": 6,
      "label": "To Hel and Back",
      "description": "Helheim has been completed (all tokens collected) in Single Player or Online Coop Play.",
      "howto": "Continue playing to unlock this secret achievement."
    },
    {
      "id": 32,
      "imageId": 26,
      "cred": 10,
      "flags": 6,
      "label": "Unstoppable: Hall of Heroes",
      "description": "Hall of Heroes has been completed without dying.",
      "howto": "Continue playing to unlock this secret achievement."
    },
    {
      "id": 37,
      "imageId": 28,
      "cred": 15,
      "flags": 6,
      "label": "Unstoppable: Ice Forest",
      "description": "The Ice Forest has been completed without dying.",
      "howto": "Continue playing to unlock this secret achievement."
    },
    {
      "id": 38,
      "imageId": 51,
      "cred": 15,
      "flags": 6,
      "label": "Unstoppable: World Serpent",
      "description": "The World Serpent has been completed without dying.",
      "howto": "Continue playing to unlock this secret achievement."
    },
    {
      "id": 39,
      "imageId": 23,
      "cred": 20,
      "flags": 6,
      "label": "Unstoppable: Helheim",
      "description": "Helheim has been completed without dying.",
      "howto": "Continue playing to unlock this secret achievement."
    },
    {
      "id": 43,
      "imageId": 11,
      "cred": 5,
      "flags": 4,
      "label": "NORN Novice",
      "description": "First Cyberspace Well has been activated.",
      "howto": "Continue playing to unlock this secret achievement."
    },
    {
      "id": 50,
      "imageId": 10,
      "cred": 10,
      "flags": 4,
      "label": "In the NORN's Favor",
      "description": "All of the Cyberspace Wells have been activated.",
      "howto": "Find and activate all available Cyberspace wells."
    },
    {
      "id": 56,
      "imageId": 31,
      "cred": 20,
      "flags": 2,
      "label": "Chosen of the Aesir",
      "description": "Achieved Adept status (Level 10).",
      "howto": "Achieve Adept status."
    },
    {
      "id": 58,
      "imageId": 32,
      "cred": 25,
      "flags": 2,
      "label": "Elite Warrior of the Aesir",
      "description": "Achieved Skilled status (Level 20).",
      "howto": "Achieve Skilled status."
    },
    {
      "id": 59,
      "imageId": 33,
      "cred": 30,
      "flags": 2,
      "label": "Hero to the Aesir",
      "description": "Achieved Hero status (Level 30).",
      "howto": "Achieve Hero status."
    },
    {
      "id": 60,
      "imageId": 34,
      "cred": 30,
      "flags": 2,
      "label": "Legend of the Aesir",
      "description": "Achieved Legend status (Level 40).",
      "howto": "Achieve Legend status."
    },
    {
      "id": 61,
      "imageId": 35,
      "cred": 40,
      "flags": 2,
      "label": "True Son of Odin",
      "description": "Achieved God status (Level 50).",
      "howto": "Achieve God status."
    },
    {
      "id": 62,
      "imageId": 4,
      "cred": 10,
      "flags": 2,
      "label": "Jack of all Trades",
      "description": "Achieved Adept status or greater for all classes.",
      "howto": "Achieve Adept status or greater for all classes."
    },
    {
      "id": 63,
      "imageId": 46,
      "cred": 5,
      "flags": 3,
      "label": "First Step toward Destiny",
      "description": "First Skill Point assigned.",
      "howto": "Assign your first skill point."
    },
    {
      "id": 65,
      "imageId": 25,
      "cred": 30,
      "flags": 4,
      "label": "Triumph of Humanity",
      "description": "Hel has been defeated by the Human Baldur.",
      "howto": "Continue playing to unlock this secret achievement."
    },
    {
      "id": 66,
      "imageId": 24,
      "cred": 30,
      "flags": 4,
      "label": "Exultation of Steel",
      "description": "Hel has been defeated by the Cybernetic Baldur.",
      "howto": "Continue playing to unlock this secret achievement."
    },
    {
      "id": 67,
      "imageId": 20,
      "cred": 30,
      "flags": 4,
      "label": "Bane to Goblins",
      "description": "2,500 Goblins defeated.",
      "howto": "Continue playing to unlock this secret achievement."
    },
    {
      "id": 68,
      "imageId": 14,
      "cred": 30,
      "flags": 4,
      "label": "Hunter of Elfkin",
      "description": "500 Dark Elves vanquished.",
      "howto": "Continue playing to unlock this secret achievement."
    },
    {
      "id": 69,
      "imageId": 49,
      "cred": 30,
      "flags": 4,
      "label": "Slayer of Trollkind",
      "description": "50 Trolls destroyed by mounting.",
      "howto": "Continue playing to unlock this secret achievement."
    },
    {
      "id": 70,
      "imageId": 50,
      "cred": 30,
      "flags": 4,
      "label": "Avenger of the Slain",
      "description": "1,000 Undead slain.",
      "howto": "Continue playing to unlock this secret achievement."
    },
    {
      "id": 71,
      "imageId": 30,
      "cred": 10,
      "flags": 4,
      "label": "The Blood of Heralds",
      "description": "100 enemy leaders conquered.",
      "howto": "Continue playing to unlock this secret achievement."
    },
    {
      "id": 72,
      "imageId": 16,
      "cred": 10,
      "flags": 4,
      "label": "Feeder of Ravens",
      "description": "Kill 10,000 enemies.",
      "howto": "Continue playing to unlock this secret achievement."
    },
    {
      "id": 75,
      "imageId": 47,
      "cred": 25,
      "flags": 4,
      "label": "Path of Ruin",
      "description": "100 enemies decimated by Ruiners.",
      "howto": "Defeat 100 total enemies using Ruiners."
    },
    {
      "id": 77,
      "imageId": 13,
      "cred": 10,
      "flags": 4,
      "label": "Unrelenting Rage",
      "description": "Achieved a 100-hit combo.",
      "howto": "Achieve a 100 hit combo."
    },
    {
      "id": 79,
      "imageId": 8,
      "cred": 10,
      "flags": 4,
      "label": "Show No Mercy",
      "description": "25 enemies killed with a single Battle Cry.",
      "howto": "Defeat 25 enemies with a single Battle Cry."
    },
    {
      "id": 81,
      "imageId": 43,
      "cred": 10,
      "flags": 4,
      "label": "Rune Lore",
      "description": "Collected 1,000 Runes.",
      "howto": "Collect 1,000 Runes."
    },
    {
      "id": 83,
      "imageId": 17,
      "cred": 5,
      "flags": 4,
      "label": "Relics of a Forgotten Past",
      "description": "Complete a 7-piece Elite armor suit.",
      "howto": "Complete a 7 piece Elite armor suit."
    },
    {
      "id": 84,
      "imageId": 38,
      "cred": 5,
      "flags": 4,
      "label": "Trial of Ascendance",
      "description": "Complete a level 1 charm.",
      "howto": "Continue playing to unlock this secret achievement."
    },
    {
      "id": 85,
      "imageId": 9,
      "cred": 10,
      "flags": 4,
      "label": "I'm Rich...",
      "description": "Collected 1,000,000 in bounty.",
      "howto": "Collect 1,000,000 in bounty."
    },
    {
      "id": 87,
      "imageId": 36,
      "cred": 10,
      "flags": 4,
      "label": "Artisan to the Aesir",
      "description": "Craft 100 blueprints.",
      "howto": "Construct 100 blueprints."
    },
    {
      "id": 88,
      "imageId": 37,
      "cred": 10,
      "flags": 4,
      "label": "Aesir Ascendant",
      "description": "Complete a level 3 charm.",
      "howto": "Complete a tier 3 charm."
    },
    {
      "id": 89,
      "imageId": 18,
      "cred": 5,
      "flags": 4,
      "label": "Force to be Reckoned With",
      "description": "100 Elite enemies annihilated.",
      "howto": "Continue playing to unlock this secret achievement."
    },
    {
      "id": 90,
      "imageId": 6,
      "cred": 5,
      "flags": 4,
      "label": "Valkyrie's Folly",
      "description": "Died 100 times.",
      "howto": "Continue playing to unlock this secret achievement."
    },
    {
      "id": 91,
      "imageId": 44,
      "cred": 10,
      "flags": 4,
      "label": "Fenrir's Bite",
      "description": "Assigned a skill point to a sentient weapon.",
      "howto": "Assign a skill point to a sentient ability."
    },
    {
      "id": 92,
      "imageId": 2,
      "cred": 5,
      "flags": 4,
      "label": "Display of Power",
      "description": "Execute 2 in 1 move using a Juggle, Ruiner, Finisher, Slide, or Gunfire.",
      "howto": "Execute either a 2 in1 Juggle, Ruiner, Finisher, Slide, or Gunfire move."
    },
    {
      "id": 93,
      "imageId": 19,
      "cred": 10,
      "flags": 4,
      "label": "The Final Strike",
      "description": "Kill 100 enemies with finishers.",
      "howto": "Kill 100 enemies with finishers."
    },
    {
      "id": 94,
      "imageId": 15,
      "cred": 10,
      "flags": 4,
      "label": "Death from Above",
      "description": "Kill 100 enemies with air combat.",
      "howto": "Kill 100 enemies with air combat."
    },
    {
      "id": 95,
      "imageId": 41,
      "cred": 5,
      "flags": 4,
      "label": "A Valorous Deed",
      "description": "Defeat a polarity enemy.",
      "howto": "Defeat a polarity enemy."
    },
    {
      "id": 96,
      "imageId": 42,
      "cred": 10,
      "flags": 4,
      "label": "Without Equal",
      "description": "Defeat 1000 polarity enemies.",
      "howto": "Defeat 1000 polarity enemies."
    },
    {
      "id": 97,
      "imageId": 12,
      "cred": 10,
      "flags": 4,
      "label": "Relics of Ascendance",
      "description": "Completed 20 Charm Quests.",
      "howto": "Complete 20 Charm Quests."
    },
    {
      "id": 98,
      "imageId": 3,
      "cred": 10,
      "flags": 4,
      "label": "Archivist to the Aesir",
      "description": "Acquired 7,500 items.",
      "howto": "Acquire 7,500 item drops."
    },
    {
      "id": 99,
      "imageId": 5,
      "cred": 20,
      "flags": 4,
      "label": "One God Enters, One God Leaves…",
      "description": "Completed 3 Secret Arena Battles.",
      "howto": "Complete 3 Secret Arena Battles."
    },
    {
      "id": 100,
      "imageId": 45,
      "cred": 10,
      "flags": 4,
      "label": "Serve Em Up",
      "description": "The player must juggle an enemy which is then killed in air combat by their teammate.",
      "howto": "Juggle an enemy to be killed in air combat by a teammate."
    },
    {
      "id": 101,
      "imageId": 48,
      "cred": 10,
      "flags": 4,
      "label": "Teamwork Takedown",
      "description": "In co-op one player must destroy the troll's chest armor and the other must mount kill.",
      "howto": "One player must destroy the troll's chest armor and the other must mount kill."
    },
    {
      "id": 102,
      "imageId": 39,
      "cred": 10,
      "flags": 4,
      "label": "Blooded of the Aesir",
      "description": "Reached Level 5.",
      "howto": "Achieve Novice status (Level 5)."
    },
    {
      "id": 103,
      "imageId": 40,
      "cred": 15,
      "flags": 4,
      "label": "Hate for the Machine…",
      "description": "Kill 20,000 enemies.",
      "howto": "Kill 20,000 enemies."
    },
    {
      "id": 104,
      "imageId": 7,
      "cred": 5,
      "flags": 4,
      "label": "The Call of Battle",
      "description": "First Battle Cry unlocked.",
      "howto": "Continue playing to unlock this secret achievement."
    }
  ]
}