{
  "achievementsPossible": 50,
  "credPossible": 1000,
  "achievements": [
    {
      "id": 1,
      "imageId": 30,
      "cred": 5,
      "flags": 1,
      "label": "出撃します！",
      "description": "ゲームをプレイしました。 (Xbox 360・Arcade HD・Ver.1.5・Novice)",
      "howto": "ゲームをプレイしよう。 (Xbox 360・Arcade HD・Ver.1.5・Novice)"
    },
    {
      "id": 2,
      "imageId": 2,
      "cred": 5,
      "flags": 1,
      "label": "朱理",
      "description": "朱理を選択しました。 (Arcade HD・Ver.1.5・Novice)",
      "howto": "朱理を選択しよう。 (Arcade HD・Ver.1.5・Novice)"
    },
    {
      "id": 3,
      "imageId": 3,
      "cred": 5,
      "flags": 1,
      "label": "光",
      "description": "光を選択しました。 (Arcade HD・Ver.1.5・Novice)",
      "howto": "光を選択しよう。 (Arcade HD・Ver.1.5・Novice)"
    },
    {
      "id": 4,
      "imageId": 4,
      "cred": 5,
      "flags": 1,
      "label": "真璃亜",
      "description": "真璃亜を選択しました。(Arcade HD・Ver.1.5・Novice)",
      "howto": "真璃亜を選択しよう。(Arcade HD・Ver.1.5・Novice)"
    },
    {
      "id": 5,
      "imageId": 5,
      "cred": 5,
      "flags": 1,
      "label": "桜夜",
      "description": "桜夜を選択しました。(Xbox 360)",
      "howto": "桜夜を選択しよう。(Xbox 360)"
    },
    {
      "id": 6,
      "imageId": 6,
      "cred": 5,
      "flags": 1,
      "label": "市街地を越えて",
      "description": "1面をクリアしました。 (Arcade HD・Ver.1.5・Novice)",
      "howto": "1面をクリアしよう。 (Arcade HD・Ver.1.5・Novice)"
    },
    {
      "id": 7,
      "imageId": 7,
      "cred": 10,
      "flags": 1,
      "label": "水源地を越えて",
      "description": "2面をクリアしました。 (Arcade HD・Ver.1.5・Novice)",
      "howto": "2面をクリアしよう。 (Arcade HD・Ver.1.5・Novice)"
    },
    {
      "id": 8,
      "imageId": 8,
      "cred": 15,
      "flags": 1,
      "label": "住宅地を越えて",
      "description": "3面をクリアしました。 (Arcade HD・Ver.1.5・Novice)",
      "howto": "3面をクリアしよう。 (Arcade HD・Ver.1.5・Novice)"
    },
    {
      "id": 9,
      "imageId": 9,
      "cred": 20,
      "flags": 1,
      "label": "郊外を越えて",
      "description": "4面をクリアしました。 (Arcade HD・Ver.1.5・Novice)",
      "howto": "4面をクリアしよう。 (Arcade HD・Ver.1.5・Novice)"
    },
    {
      "id": 10,
      "imageId": 10,
      "cred": 25,
      "flags": 1,
      "label": "地下通路を越えて",
      "description": "5面をクリアしました。 (Arcade HD・Ver.1.5・Novice)",
      "howto": "5面をクリアしよう。 (Arcade HD・Ver.1.5・Novice)"
    },
    {
      "id": 11,
      "imageId": 11,
      "cred": 20,
      "flags": 1,
      "label": "朱理の完",
      "description": "朱理でクリアしました。 (Arcade HD・Ver.1.5・Novice)",
      "howto": "朱理でクリアしよう。 (Arcade HD・Ver.1.5・Novice)"
    },
    {
      "id": 12,
      "imageId": 12,
      "cred": 20,
      "flags": 1,
      "label": "光の完",
      "description": "光でクリアしました。 (Arcade HD・Ver.1.5・Novice)",
      "howto": "光でクリアしよう。 (Arcade HD・Ver.1.5・Novice)"
    },
    {
      "id": 13,
      "imageId": 13,
      "cred": 20,
      "flags": 1,
      "label": "真璃亜の完",
      "description": "真璃亜でクリアしました。(Arcade HD・Ver.1.5・Novice)",
      "howto": "真璃亜でクリアしよう。(Arcade HD・Ver.1.5・Novice)"
    },
    {
      "id": 14,
      "imageId": 14,
      "cred": 20,
      "flags": 1,
      "label": "桜夜の完",
      "description": "桜夜でクリアしました。（Xbox 360）",
      "howto": "桜夜でクリアしよう。（Xbox 360）"
    },
    {
      "id": 15,
      "imageId": 15,
      "cred": 5,
      "flags": 1,
      "label": "良いボムしてるね！",
      "description": "ボムを使いました。(Arcade HD・Ver.1.5・Novice)",
      "howto": "ボムを使おう。(Arcade HD・Ver.1.5・Novice)"
    },
    {
      "id": 16,
      "imageId": 16,
      "cred": 5,
      "flags": 1,
      "label": "思わぬ花火！",
      "description": "オートボムを発動させました。(Arcade HD・Ver.1.5・Novice)",
      "howto": "オートボムを発動させよう。(Arcade HD・Ver.1.5・Novice)"
    },
    {
      "id": 17,
      "imageId": 17,
      "cred": 5,
      "flags": 1,
      "label": "ハイパー！",
      "description": "ハイパーを使用しました。(Arcade HD・Ver.1.5・Novice)",
      "howto": "ハイパーを使用しよう。(Arcade HD・Ver.1.5・Novice)"
    },
    {
      "id": 18,
      "imageId": 18,
      "cred": 15,
      "flags": 1,
      "label": "エキスパートへの挑戦",
      "description": "エキスパートの1面をクリアしました。（Arcade HD・Ver.1.5）",
      "howto": "エキスパートの1面をクリアしよう。（Arcade HD・Ver.1.5）"
    },
    {
      "id": 19,
      "imageId": 19,
      "cred": 15,
      "flags": 1,
      "label": "1000HIT",
      "description": "1000HITを達成しました。(Arcade HD・Ver.1.5・Novice)",
      "howto": "1000HITを目指そう。(Arcade HD・Ver.1.5・Novice)"
    },
    {
      "id": 20,
      "imageId": 20,
      "cred": 30,
      "flags": 1,
      "label": "5000HIT",
      "description": "5000HITを達成しました。(Arcade HD・Ver.1.5・Novice)",
      "howto": "5000HITを目指そう。(Arcade HD・Ver.1.5・Novice)"
    },
    {
      "id": 21,
      "imageId": 21,
      "cred": 40,
      "flags": 1,
      "label": "10000HIT",
      "description": "10000HITを達成しました。(Arcade HD・Ver.1.5・Novice)",
      "howto": "10000HITを目指そう。(Arcade HD・Ver.1.5・Novice)"
    },
    {
      "id": 22,
      "imageId": 22,
      "cred": 30,
      "flags": 1,
      "label": "コンプリート",
      "description": "３キャラ（朱理、光、真璃亜）でクリアしました。（Arcade HD・Ver.1.5・Novice）",
      "howto": "３キャラ（朱理、光、真璃亜）でクリアしよう。（Arcade HD・Ver.1.5・Novice）"
    },
    {
      "id": 23,
      "imageId": 23,
      "cred": 15,
      "flags": 1,
      "label": "上達への道",
      "description": "2面までをノーコンテニューでクリアしました。(Arcade HD・Ver.1.5)",
      "howto": "2面までをノーコンテニューでクリアしよう。(Arcade HD・Ver.1.5)"
    },
    {
      "id": 24,
      "imageId": 24,
      "cred": 25,
      "flags": 1,
      "label": "更なる上達への道",
      "description": "3面までを2コンテニュー以内でクリアしました。(Arcade HD・Ver.1.5)",
      "howto": "3面までを2コンテニュー以内でクリアしよう。(Arcade HD・Ver.1.5)"
    },
    {
      "id": 25,
      "imageId": 25,
      "cred": 35,
      "flags": 1,
      "label": "上達",
      "description": "7コンテニュー以内でゲームをクリアしました。(Arcade HD・Ver.1.5)",
      "howto": "7コンテニュー以内でゲームをクリアしよう。(Arcade HD・Ver.1.5)"
    },
    {
      "id": 26,
      "imageId": 26,
      "cred": 50,
      "flags": 1,
      "label": "1コイン",
      "description": "1プレイでクリアしました。(Arcade HD・Ver.1.5・Novice)",
      "howto": "1プレイでクリアしよう。(Arcade HD・Ver.1.5・Novice)"
    },
    {
      "id": 27,
      "imageId": 27,
      "cred": 10,
      "flags": 1,
      "label": "１機ノーボム",
      "description": "1面を１機でボムを使わずにクリアしました。(Arcade HD・Ver.1.5)",
      "howto": "１面を１機でボムを使わずにクリアしよう。(Arcade HD・Ver.1.5)"
    },
    {
      "id": 28,
      "imageId": 28,
      "cred": 5,
      "flags": 1,
      "label": "GET",
      "description": "ボムアイテムを取得しました。(Arcade HD・Ver.1.5・Novice)",
      "howto": "ボムアイテムを取得しよう。(Arcade HD・Ver.1.5・Novice)"
    },
    {
      "id": 29,
      "imageId": 29,
      "cred": 5,
      "flags": 1,
      "label": "スタンバイ",
      "description": "ハイパーシステムをスタンバイさせました。(Arcade HD・Ver.1.5・Novice)",
      "howto": "ハイパーシステムをスタンバイさせよう。(Arcade HD・Ver.1.5・Novice)"
    },
    {
      "id": 31,
      "imageId": 31,
      "cred": 10,
      "flags": 1,
      "label": "MAXハイパー！",
      "description": "Lv10ハイパーを使用しました。(Xbox 360・Arcade HD・Ver.1.5・Novice)",
      "howto": "Lv10ハイパーを使用しよう。(Xbox 360・Arcade HD・Ver.1.5・Novice)"
    },
    {
      "id": 32,
      "imageId": 32,
      "cred": 15,
      "flags": 1,
      "label": "蜂億点",
      "description": "スコアが8億点に到達しました。(Arcade HD・Ver.1.5・Novice)",
      "howto": "スコアを8億点以上出そう。(Arcade HD・Ver.1.5・Novice)"
    },
    {
      "id": 33,
      "imageId": 33,
      "cred": 20,
      "flags": 1,
      "label": "拾蜂億点",
      "description": "スコアが18億点に到達しました。(Arcade HD・Ver.1.5・Novice)",
      "howto": "スコアを18億点以上出そう。(Arcade HD・Ver.1.5・Novice)"
    },
    {
      "id": 34,
      "imageId": 34,
      "cred": 50,
      "flags": 1,
      "label": "蜂蜂億点",
      "description": "スコアが88億点に到達しました。(Arcade HD・Ver.1.5・Novice)",
      "howto": "スコアを88億点以上出そう。(Arcade HD・Ver.1.5・Novice)"
    },
    {
      "id": 35,
      "imageId": 35,
      "cred": 10,
      "flags": 1,
      "label": "相応しいカタチ",
      "description": "陽蜂エンドに到達しました。(Arcade HD・Ver.1.5・Novice)",
      "howto": "陽蜂エンドに到達しよう。(Arcade HD・Ver.1.5・Novice)"
    },
    {
      "id": 36,
      "imageId": 36,
      "cred": 50,
      "flags": 1,
      "label": "完全撃破",
      "description": "全てのキャラでクリアしました。(Xbox 360・Arcade HD・Ver.1.5・Novice)",
      "howto": "4キャラ全てのキャラクターで1コインクリアしよう。(Xbox 360・Arcade HD・Ver.1.5・Novice)"
    },
    {
      "id": 37,
      "imageId": 52,
      "cred": 10,
      "flags": 1,
      "label": "大往生直前",
      "description": "ダブルアタックを使ってエネルギーを0まで減少させました。（Xbox 360）",
      "howto": "ダブルアタックを使ってエネルギーを0まで減少させよう。（Xbox 360）"
    },
    {
      "id": 38,
      "imageId": 53,
      "cred": 25,
      "flags": 1,
      "label": "輝く蜂は蜜の味",
      "description": "MAX HITが10000以上のときに蜂アイテムを取得しました。（Xbox 360）",
      "howto": "MAX HITが10000以上のときに蜂アイテムを取得しよう。（Xbox 360）"
    },
    {
      "id": 39,
      "imageId": 54,
      "cred": 25,
      "flags": 1,
      "label": "命を削る力",
      "description": "ダブルアタックを1プレイ中に30秒以上使いました。（Xbox 360）",
      "howto": "ダブルアタックを1プレイ中に30秒以上使おう。（Xbox 360）"
    },
    {
      "id": 40,
      "imageId": 55,
      "cred": 15,
      "flags": 1,
      "label": "大錬金！",
      "description": "ダブルアタックで弾消しの発生する敵を撃破しました。（Xbox 360）",
      "howto": "ダブルアタックで弾消しの発生する敵を撃破しよう。（Xbox 360）"
    },
    {
      "id": 41,
      "imageId": 56,
      "cred": 50,
      "flags": 1,
      "label": "エネルギー大復活",
      "description": "1回のハイパーでエネルギーを5000以上回復させました。（Xbox 360）",
      "howto": "1回のハイパーでエネルギーを5000以上回復させよう。（Xbox 360）"
    },
    {
      "id": 42,
      "imageId": 57,
      "cred": 15,
      "flags": 1,
      "label": "徹底的に剥いてやる！1",
      "description": "1面ボスのパーツを全て破壊しました。（Xbox 360）",
      "howto": "1面ボスのパーツを全て破壊しよう。（Xbox 360）"
    },
    {
      "id": 43,
      "imageId": 58,
      "cred": 10,
      "flags": 1,
      "label": "徹底的に剥いてやる！2",
      "description": "2面ボスのパーツを全て破壊しました。（Xbox 360）",
      "howto": "2面ボスのパーツを全て破壊しよう。（Xbox 360）"
    },
    {
      "id": 44,
      "imageId": 59,
      "cred": 10,
      "flags": 1,
      "label": "全力中の全力！",
      "description": "自機変形後、ハイパーを使いました。(Xbox 360）",
      "howto": "秘密の実績"
    },
    {
      "id": 45,
      "imageId": 60,
      "cred": 15,
      "flags": 1,
      "label": "常連客",
      "description": "ショップの商品を30個購入しました。",
      "howto": "ショップの商品を30個購入しよう。"
    },
    {
      "id": 46,
      "imageId": 46,
      "cred": 30,
      "flags": 1,
      "label": "大富豪",
      "description": "ショップの商品を全て購入しました。",
      "howto": "ショップの商品を全て購入しよう。"
    },
    {
      "id": 47,
      "imageId": 47,
      "cred": 15,
      "flags": 1,
      "label": "チャレンジ１年生",
      "description": "チャレンジを10個クリアしました。",
      "howto": "チャレンジを10個クリアしよう。"
    },
    {
      "id": 48,
      "imageId": 48,
      "cred": 30,
      "flags": 1,
      "label": "資格ゲッター",
      "description": "チャレンジを25個クリアしました。",
      "howto": "チャレンジを25個クリアしよう。"
    },
    {
      "id": 49,
      "imageId": 49,
      "cred": 50,
      "flags": 1,
      "label": "ミッションコンプリート！",
      "description": "チャレンジを全てクリアしました。",
      "howto": "チャレンジを全てクリアしよう。"
    },
    {
      "id": 50,
      "imageId": 50,
      "cred": 25,
      "flags": 1,
      "label": "良い買い物しましたね！",
      "description": "秘密な買い物をしました。",
      "howto": "秘密の実績"
    },
    {
      "id": 51,
      "imageId": 51,
      "cred": 50,
      "flags": 1,
      "label": "ぶるじょわ",
      "description": "コインを9999以上貯めました。",
      "howto": "秘密の実績"
    }
  ]
}