{
  "achievementsPossible": 12,
  "credPossible": 200,
  "achievements": [
    {
      "id": 1,
      "imageId": 1,
      "cred": 10,
      "flags": 1,
      "label": "UNO!",
      "description": "Successfully call UNO! and win the game.",
      "howto": "Successfully call UNO! and win the game."
    },
    {
      "id": 2,
      "imageId": 2,
      "cred": 10,
      "flags": 1,
      "label": "Bluff",
      "description": "Successfully bluff on a Wild Draw Four twice in the same game.",
      "howto": "Successfully bluff on a Wild Draw Four twice in the same game."
    },
    {
      "id": 3,
      "imageId": 3,
      "cred": 10,
      "flags": 1,
      "label": "Multiplayer",
      "description": "Complete a 4-player game of UNO®, in any mode, on Xbox Live.",
      "howto": "Complete a 4-player game of UNO®, in any mode, on Xbox Live."
    },
    {
      "id": 4,
      "imageId": 4,
      "cred": 15,
      "flags": 1,
      "label": "Quick Change Artist",
      "description": "Change the color of the discard pile 5 or more times in a single round.",
      "howto": "Change the color of the discard pile 5 or more times in a single round."
    },
    {
      "id": 5,
      "imageId": 5,
      "cred": 20,
      "flags": 1,
      "label": "Wild Abandon",
      "description": "Go out with a Wild or Wild Draw Four card.",
      "howto": "Go out with a Wild or Wild Draw Four card."
    },
    {
      "id": 6,
      "imageId": 6,
      "cred": 20,
      "flags": 1,
      "label": "Ace!",
      "description": "Go out without ever drawing a card.",
      "howto": "Go out without ever drawing a card."
    },
    {
      "id": 7,
      "imageId": 7,
      "cred": 15,
      "flags": 1,
      "label": "Wild Thing",
      "description": "Successfully play 40 Wild or Wild Draw Four cards.",
      "howto": "Successfully play 40 Wild or Wild Draw Four cards."
    },
    {
      "id": 8,
      "imageId": 8,
      "cred": 15,
      "flags": 1,
      "label": "Skip to My Lou",
      "description": "Play 40 Skip cards.",
      "howto": "Play 40 Skip cards."
    },
    {
      "id": 9,
      "imageId": 9,
      "cred": 15,
      "flags": 1,
      "label": "Twister",
      "description": "Play 40 Reverse cards.",
      "howto": "Play 40 Reverse cards."
    },
    {
      "id": 10,
      "imageId": 10,
      "cred": 15,
      "flags": 1,
      "label": "High Noon",
      "description": "Play 40 Draw Two cards.",
      "howto": "Play 40 Draw Two cards."
    },
    {
      "id": 11,
      "imageId": 11,
      "cred": 25,
      "flags": 1,
      "label": "Devotee",
      "description": "Win 40 games of UNO®.",
      "howto": "Win 40 games of UNO®."
    },
    {
      "id": 12,
      "imageId": 12,
      "cred": 30,
      "flags": 1,
      "label": "UNO Shark",
      "description": "Win ten 4-player games of UNO®, in any mode, on Xbox Live.",
      "howto": "Win ten 4-player games of UNO®, in any mode, on Xbox Live."
    }
  ]
}