{
  "achievementsPossible": 45,
  "credPossible": 1000,
  "achievements": [
    {
      "id": 9,
      "imageId": 6,
      "cred": 10,
      "flags": 1,
      "label": "Captain",
      "description": "Successfully commandeer an enemy Carrier",
      "howto": "Successfully commandeer an enemy Carrier"
    },
    {
      "id": 10,
      "imageId": 4,
      "cred": 10,
      "flags": 1,
      "label": "Damsel in distress",
      "description": "Rescue Captain Aurora from the APA",
      "howto": "Rescue Captain Aurora from the APA"
    },
    {
      "id": 11,
      "imageId": 24,
      "cred": 10,
      "flags": 1,
      "label": "Fence Off",
      "description": "Defeat the enemy Carrier in naval combat",
      "howto": "Defeat the enemy Carrier in naval combat"
    },
    {
      "id": 12,
      "imageId": 43,
      "cred": 10,
      "flags": 1,
      "label": "To Protect, To Destroy",
      "description": "Decommission the Geothermal power plants",
      "howto": "Decommission the Geothermal power plants"
    },
    {
      "id": 13,
      "imageId": 23,
      "cred": 20,
      "flags": 1,
      "label": "Titanic",
      "description": "Sink the enemy Carrier",
      "howto": "Sink the enemy Carrier"
    },
    {
      "id": 14,
      "imageId": 42,
      "cred": 10,
      "flags": 1,
      "label": "Relentless",
      "description": "Shoot down Shin's Manta",
      "howto": "Shoot down Shin's Manta"
    },
    {
      "id": 15,
      "imageId": 41,
      "cred": 75,
      "flags": 1,
      "label": "Revenge Is Sweet",
      "description": "Execute Dr. Mao Shin",
      "howto": "Execute Dr. Mao Shin"
    },
    {
      "id": 16,
      "imageId": 2,
      "cred": 25,
      "flags": 1,
      "label": "Blueprint Collector",
      "description": "Locate and acquire all available Blueprints",
      "howto": "Locate and acquire all available Blueprints"
    },
    {
      "id": 17,
      "imageId": 47,
      "cred": 25,
      "flags": 1,
      "label": "Lean Mean Green Machine",
      "description": "Locate all Green Laser research files",
      "howto": "Locate all Green Laser research files"
    },
    {
      "id": 19,
      "imageId": 16,
      "cred": 50,
      "flags": 1,
      "label": "Island Hopper",
      "description": "Capture over 250 islands",
      "howto": "Capture over 250 islands"
    },
    {
      "id": 22,
      "imageId": 11,
      "cred": 10,
      "flags": 1,
      "label": "5 Finger Discount",
      "description": "Capture the enemy Stockpile",
      "howto": "Capture the enemy Stockpile"
    },
    {
      "id": 23,
      "imageId": 39,
      "cred": 25,
      "flags": 1,
      "label": "Millionaire",
      "description": "Mine over 1 million in resources",
      "howto": "Mine over 1 million in resources"
    },
    {
      "id": 26,
      "imageId": 40,
      "cred": 25,
      "flags": 1,
      "label": "Hammers And Nails",
      "description": "Produce over 1000 items",
      "howto": "Produce over 1000 items"
    },
    {
      "id": 29,
      "imageId": 10,
      "cred": 50,
      "flags": 1,
      "label": "Conqueror Of The Dead Zone",
      "description": "Capture all enemy islands in the Dead Zone",
      "howto": "Capture all enemy islands in the Dead Zone"
    },
    {
      "id": 30,
      "imageId": 13,
      "cred": 10,
      "flags": 1,
      "label": "Hardcore MK.I",
      "description": "Capture 1 island without using load",
      "howto": "Capture 1 island without using load"
    },
    {
      "id": 31,
      "imageId": 14,
      "cred": 25,
      "flags": 1,
      "label": "Hardcore MK.II",
      "description": "Capture 3 islands without using load",
      "howto": "Capture 3 islands without using load"
    },
    {
      "id": 32,
      "imageId": 15,
      "cred": 50,
      "flags": 1,
      "label": "Hardcore MK.III",
      "description": "Capture 5 islands without using load",
      "howto": "Capture 5 islands without using load"
    },
    {
      "id": 33,
      "imageId": 17,
      "cred": 10,
      "flags": 1,
      "label": "Iron Fist MK.I",
      "description": "Capture 1 island with a Strong defense",
      "howto": "Capture 1 island with a Strong defense"
    },
    {
      "id": 34,
      "imageId": 18,
      "cred": 25,
      "flags": 1,
      "label": "Iron Fist MK.II",
      "description": "Capture 10 islands with a Strong defense",
      "howto": "Capture 10 islands with a Strong defense"
    },
    {
      "id": 35,
      "imageId": 19,
      "cred": 50,
      "flags": 1,
      "label": "Iron Fist MK.III",
      "description": "Capture 50 islands with a Strong defense",
      "howto": "Capture 50 islands with a Strong defense"
    },
    {
      "id": 36,
      "imageId": 20,
      "cred": 10,
      "flags": 1,
      "label": "Bunker Buster MK.I",
      "description": "Capture 1 island with a Very Strong defense",
      "howto": "Capture 1 island with a Very Strong defense"
    },
    {
      "id": 37,
      "imageId": 21,
      "cred": 25,
      "flags": 1,
      "label": "Bunker Buster MK.II",
      "description": "Capture 10 islands with a Very Strong defense",
      "howto": "Capture 10 islands with a Very Strong defense"
    },
    {
      "id": 38,
      "imageId": 22,
      "cred": 50,
      "flags": 1,
      "label": "Bunker Buster MK.III",
      "description": "Capture 25 islands with a Very Strong defense",
      "howto": "Capture 25 islands with a Very Strong defense"
    },
    {
      "id": 39,
      "imageId": 7,
      "cred": 25,
      "flags": 1,
      "label": "Balls Of Steel MK.I",
      "description": "Capture 1 island with a Deadly defense",
      "howto": "Capture 1 island with a Deadly defense"
    },
    {
      "id": 40,
      "imageId": 8,
      "cred": 50,
      "flags": 1,
      "label": "Balls Of Steel MK.II",
      "description": "Capture 10 islands with a Deadly defense",
      "howto": "Capture 10 islands with a Deadly defense"
    },
    {
      "id": 41,
      "imageId": 9,
      "cred": 75,
      "flags": 1,
      "label": "Balls Of Steel MK.III",
      "description": "Capture 25 islands with a Deadly defense",
      "howto": "Capture 25 islands with a Deadly defense"
    },
    {
      "id": 42,
      "imageId": 25,
      "cred": 5,
      "flags": 1,
      "label": "Fly Swatter MK.I",
      "description": "Destroy 1 Manta from Direct Control",
      "howto": "Destroy 1 Manta from Direct Control"
    },
    {
      "id": 43,
      "imageId": 26,
      "cred": 10,
      "flags": 1,
      "label": "Fly Swatter MK.II",
      "description": "Destroy 100 Mantas from Direct Control",
      "howto": "Destroy 100 Mantas from Direct Control"
    },
    {
      "id": 44,
      "imageId": 27,
      "cred": 25,
      "flags": 1,
      "label": "Fly Swatter MK.III",
      "description": "Destroy 1000 Mantas from Direct Control",
      "howto": "Destroy 1000 Mantas from Direct Control"
    },
    {
      "id": 48,
      "imageId": 31,
      "cred": 5,
      "flags": 1,
      "label": "Bug Crusher MK.I",
      "description": "Destroy 1 Walrus from Direct Control",
      "howto": "Destroy 1 Walrus from Direct Control"
    },
    {
      "id": 49,
      "imageId": 32,
      "cred": 10,
      "flags": 1,
      "label": "Bug Crusher MK.II",
      "description": "Destroy 100 Walruses from Direct Control",
      "howto": "Destroy 100 Walruses from Direct Control"
    },
    {
      "id": 50,
      "imageId": 33,
      "cred": 25,
      "flags": 1,
      "label": "Bug Crusher MK.III",
      "description": "Destroy 1000 Walruses from Direct Control",
      "howto": "Destroy 1000 Walruses from Direct Control"
    },
    {
      "id": 54,
      "imageId": 28,
      "cred": 5,
      "flags": 1,
      "label": "Barricade Blaster MK.I",
      "description": "Destroy 1 Turret from Direct Control",
      "howto": "Destroy 1 Turret from Direct Control"
    },
    {
      "id": 66,
      "imageId": 12,
      "cred": 10,
      "flags": 1,
      "label": "Kali",
      "description": "Unleash the Lord of Death within you, eliminate Fulcrum's facilities",
      "howto": "Unleash the Lord of Death within you, eliminate Fulcrum's facilities"
    },
    {
      "id": 67,
      "imageId": 35,
      "cred": 10,
      "flags": 1,
      "label": "Manhattan project",
      "description": "Reassemble the Hammerhead Nuclear Missile system",
      "howto": "Reassemble the Hammerhead Nuclear Missile system"
    },
    {
      "id": 68,
      "imageId": 3,
      "cred": 10,
      "flags": 1,
      "label": "Lost Friends",
      "description": "Restore contact with Captain Aurora",
      "howto": "Restore contact with Captain Aurora"
    },
    {
      "id": 69,
      "imageId": 34,
      "cred": 10,
      "flags": 1,
      "label": "Silent Heroes",
      "description": "Locate survivors from the Dead Zone drop",
      "howto": "Locate survivors from the Dead Zone drop"
    },
    {
      "id": 70,
      "imageId": 29,
      "cred": 10,
      "flags": 1,
      "label": "Barricade Blaster MK.II",
      "description": "Destroy 100 Turret from Direct Control",
      "howto": "Destroy 100 Turret from Direct Control"
    },
    {
      "id": 71,
      "imageId": 30,
      "cred": 25,
      "flags": 1,
      "label": "Barricade Blaster MK.III",
      "description": "Destroy 1000 Turret from Direct Control",
      "howto": "Destroy 1000 Turret from Direct Control"
    },
    {
      "id": 72,
      "imageId": 36,
      "cred": 5,
      "flags": 1,
      "label": "Road Kill MK.I",
      "description": "Run over 1 enemy infantry unit",
      "howto": "Run over 1 enemy infantry unit"
    },
    {
      "id": 73,
      "imageId": 37,
      "cred": 10,
      "flags": 1,
      "label": "Road Kill MK.II",
      "description": "Run over 50 enemy infantry units",
      "howto": "Run over 50 enemy infantry units"
    },
    {
      "id": 74,
      "imageId": 38,
      "cred": 25,
      "flags": 1,
      "label": "Road Kill MK.III",
      "description": "Run over 100 enemy infantry units",
      "howto": "Run over 100 enemy infantry units"
    },
    {
      "id": 75,
      "imageId": 44,
      "cred": 5,
      "flags": 1,
      "label": "Air Strike MK.I",
      "description": "Destroy 1 Walrus using a Manta",
      "howto": "Destroy 1 Walrus using a Manta"
    },
    {
      "id": 76,
      "imageId": 45,
      "cred": 10,
      "flags": 1,
      "label": "Air Strike MK.II",
      "description": "Destroy 100 Walruses using a Manta",
      "howto": "Destroy 100 Walruses using a Manta"
    },
    {
      "id": 77,
      "imageId": 46,
      "cred": 25,
      "flags": 1,
      "label": "Air Strike MK.III",
      "description": "Destroy 1000 Walruses using a Manta",
      "howto": "Destroy 1000 Walruses using a Manta"
    }
  ]
}