{
  "achievementsPossible": 25,
  "credPossible": 1000,
  "achievements": [
    {
      "id": 1,
      "imageId": 1,
      "cred": 20,
      "flags": 6,
      "label": "The First Dance",
      "description": "Danced through Regular mode!",
      "howto": "Dance in Regular mode!"
    },
    {
      "id": 2,
      "imageId": 2,
      "cred": 25,
      "flags": 6,
      "label": "Let's Dance Together!",
      "description": "Danced through Team High Score with 2 players!",
      "howto": "Dance in Team High Score with 2 players!"
    },
    {
      "id": 3,
      "imageId": 3,
      "cred": 20,
      "flags": 6,
      "label": "Strike a Pose",
      "description": "Danced through Pose & Shake!",
      "howto": "Dance in Pose & Shake!"
    },
    {
      "id": 4,
      "imageId": 4,
      "cred": 15,
      "flags": 6,
      "label": "The Modern Mixtape",
      "description": "Created \"Your Playlist\" in Playlist mode!",
      "howto": "Create \"Your Playlist\" in Playlist mode!"
    },
    {
      "id": 5,
      "imageId": 5,
      "cred": 30,
      "flags": 6,
      "label": "First Playlist Completed!",
      "description": "Danced through 1 preset Playlist in Playlist mode!",
      "howto": "Dance through 1 preset Playlist in Playlist mode!"
    },
    {
      "id": 6,
      "imageId": 6,
      "cred": 20,
      "flags": 6,
      "label": "Nice Choreography!",
      "description": "Created 1 Original Dance in Create mode!",
      "howto": "Create an Original Dance in Create mode!"
    },
    {
      "id": 7,
      "imageId": 7,
      "cred": 20,
      "flags": 6,
      "label": "Anything You Can Do…",
      "description": "Danced through 1 Original Dance created in Create mode!",
      "howto": "Dance through 1 Original Dance created in Create mode!"
    },
    {
      "id": 8,
      "imageId": 8,
      "cred": 30,
      "flags": 2,
      "label": "Getting Warmed Up",
      "description": "Danced a total of 10 times!",
      "howto": "Dance a total of 10 times!"
    },
    {
      "id": 9,
      "imageId": 9,
      "cred": 50,
      "flags": 2,
      "label": "Becoming a Professional",
      "description": "Danced a total of 100 times!",
      "howto": "Dance a total of 100 times!"
    },
    {
      "id": 10,
      "imageId": 10,
      "cred": 100,
      "flags": 2,
      "label": "Practice Makes Perfect",
      "description": "Danced a total of 1000 times!",
      "howto": "Dance a total of 1000 times!"
    },
    {
      "id": 11,
      "imageId": 11,
      "cred": 40,
      "flags": 2,
      "label": "Are You Forming a Dance Crew?",
      "description": "Danced through songs in Team High Score 50 times in multiplayer!",
      "howto": "Dance through songs in Team High Score 50 times in multiplayer!"
    },
    {
      "id": 12,
      "imageId": 12,
      "cred": 40,
      "flags": 2,
      "label": "You're a Poser",
      "description": "Danced through songs in Pose & Shake 50 times!",
      "howto": "Dance through songs in Pose & Shake 50 times!"
    },
    {
      "id": 13,
      "imageId": 13,
      "cred": 40,
      "flags": 2,
      "label": "A New Just Dance Kid?",
      "description": "Danced through any songs created in Create 50 times!",
      "howto": "Dance through any songs created in Create 50 times!"
    },
    {
      "id": 14,
      "imageId": 14,
      "cred": 50,
      "flags": 2,
      "label": "Getting a Workout",
      "description": "Danced 25 times in 1 play session!",
      "howto": "Dance 25 times in 1 play session!"
    },
    {
      "id": 15,
      "imageId": 15,
      "cred": 40,
      "flags": 2,
      "label": "My Favorite Song",
      "description": "Danced through the same song 30 times!",
      "howto": "Dance through the same song 30 times!"
    },
    {
      "id": 16,
      "imageId": 16,
      "cred": 50,
      "flags": 1,
      "label": "You're a Dance Star!",
      "description": "Danced through all the songs once!",
      "howto": "Dance through all the songs once!"
    },
    {
      "id": 17,
      "imageId": 17,
      "cred": 50,
      "flags": 4,
      "label": "Knowing Your Routine",
      "description": "Earned 15,000 or more points while the Next Move Icons are turned off in Regular mode!",
      "howto": "Earn 15,000 or more points while the Next Move Icons are turned off in Regular mode!"
    },
    {
      "id": 18,
      "imageId": 18,
      "cred": 40,
      "flags": 4,
      "label": "Combo Master!",
      "description": "Scored 7 or more Perfects in a row in any song in Regular mode!",
      "howto": "Score 7 or more Perfects in a row in any 1 song in Regular mode!"
    },
    {
      "id": 19,
      "imageId": 19,
      "cred": 30,
      "flags": 4,
      "label": "Impressive Score!",
      "description": "Earned 10,000 or more points in any song in Regular mode!",
      "howto": "Earn 10,000 or more points in any 1 song in Regular mode!"
    },
    {
      "id": 20,
      "imageId": 20,
      "cred": 30,
      "flags": 4,
      "label": "Now That's Teamwork",
      "description": "Earned 35,000 or more points in any song in Team High Score!",
      "howto": "Earn 35,000 or more points in any 1 song in Team High Score!"
    },
    {
      "id": 21,
      "imageId": 21,
      "cred": 30,
      "flags": 4,
      "label": "The Pose & Shake Professional",
      "description": "Earned 10,000 or more points in any song in Pose & Shake mode!",
      "howto": "Earn at least 10,000 points in any song in Pose & Shake!"
    },
    {
      "id": 22,
      "imageId": 22,
      "cred": 30,
      "flags": 4,
      "label": "…I Can Do Better!",
      "description": "Earned 10,000 or more points in any song in Create mode!",
      "howto": "Earn 10,000 or more points in any 1 song in Create mode!"
    },
    {
      "id": 23,
      "imageId": 23,
      "cred": 100,
      "flags": 1,
      "label": "Just Dance Virtuoso",
      "description": "Earned at least 10,000 points in all songs in Regular mode!",
      "howto": "Earn at least 10,000 points in all songs in Regular mode!"
    },
    {
      "id": 24,
      "imageId": 24,
      "cred": 50,
      "flags": 1,
      "label": "The Perfect Team",
      "description": "Earned at least 35,000 points in all songs in Team High Score!",
      "howto": "Earn at least 35,000 points in all songs in Team High Score!"
    },
    {
      "id": 25,
      "imageId": 25,
      "cred": 50,
      "flags": 1,
      "label": "The Pose & Shake Master",
      "description": "Earned 10,000 or more points in all songs in Pose & Shake mode!",
      "howto": "Earn at least 10,000 points in all songs in Pose & Shake!"
    }
  ]
}