{
  "achievementsPossible": 15,
  "credPossible": 250,
  "achievements": [
    {
      "id": 1,
      "imageId": 8,
      "cred": 15,
      "flags": 6,
      "label": "Gold Star",
      "description": "You have completed the first stage of the 1P Journey",
      "howto": "Complete the first stage of the 1P Journey"
    },
    {
      "id": 2,
      "imageId": 9,
      "cred": 30,
      "flags": 1,
      "label": "Gold, Mine",
      "description": "You have completed the 1P Journey",
      "howto": "Complete the 1P Journey"
    },
    {
      "id": 3,
      "imageId": 10,
      "cred": 15,
      "flags": 4,
      "label": "Mother Lode",
      "description": "You have collected 8 bronze medals in Hang On",
      "howto": "Collect 8 bronze medals in Hang On (main game)"
    },
    {
      "id": 4,
      "imageId": 11,
      "cred": 20,
      "flags": 4,
      "label": "Big Ore-Deal",
      "description": "You have completed 30 of the 1P Puzzles",
      "howto": "Complete 30 of the 1P Puzzles"
    },
    {
      "id": 5,
      "imageId": 12,
      "cred": 15,
      "flags": 6,
      "label": "Double Up",
      "description": "You have completed the first stage of the Co-op Journey",
      "howto": "Complete the first stage of the Co-op Journey"
    },
    {
      "id": 6,
      "imageId": 13,
      "cred": 30,
      "flags": 1,
      "label": "Double Down",
      "description": "You have completed the Co-op Journey",
      "howto": "Complete the Co-op Journey"
    },
    {
      "id": 7,
      "imageId": 14,
      "cred": 10,
      "flags": 5,
      "label": "Metal of Honor",
      "description": "You have won 5 Last Man matches on Xbox LIVE",
      "howto": "Win 5 Last Man matches (original levels) on Xbox LIVE"
    },
    {
      "id": 8,
      "imageId": 15,
      "cred": 10,
      "flags": 4,
      "label": "Gold Rush",
      "description": "You have collected 5000 pieces of gold",
      "howto": "Collect 5000 pieces of gold"
    },
    {
      "id": 9,
      "imageId": 16,
      "cred": 15,
      "flags": 4,
      "label": "Treasure Hunter",
      "description": "You have unearthed 20 hidden enemies and stolen their treasure",
      "howto": "Unearth 20 hidden enemies and steal their treasure"
    },
    {
      "id": 10,
      "imageId": 17,
      "cred": 10,
      "flags": 4,
      "label": "Blast Off",
      "description": "Without blasting, you have collected all gold and completed level 3-1 of the 1P Journey",
      "howto": "Without blasting, collect all gold and complete level 3-1 of the 1P Journey"
    },
    {
      "id": 11,
      "imageId": 18,
      "cred": 15,
      "flags": 4,
      "label": "Fool's Gold",
      "description": "You have stolen all gold from trapped enemies and completed level 3-1 of the 1P Journey",
      "howto": "Steal all gold from trapped enemies and complete level 3-1 of the 1P Journey"
    },
    {
      "id": 12,
      "imageId": 19,
      "cred": 15,
      "flags": 4,
      "label": "Golden Rule",
      "description": "In a single game and without killing an enemy, you have completed the first stage of the 1P Journey",
      "howto": "In a single game and without killing an enemy, complete the first stage of the 1P Journey"
    },
    {
      "id": 13,
      "imageId": 22,
      "cred": 20,
      "flags": 1,
      "label": "Claim to Fame",
      "description": "You have completed the 1P Expansion Journey (in the Journey Expansion Pack)",
      "howto": "Complete the 1P Expansion Journey (in the Journey Expansion Pack)"
    },
    {
      "id": 14,
      "imageId": 23,
      "cred": 15,
      "flags": 1,
      "label": "Gold Diggers",
      "description": "You have completed the Co-op Expansion Journey (in the Journey Expansion Pack)",
      "howto": "Complete the Co-op Expansion Journey (in the Journey Expansion Pack)"
    },
    {
      "id": 15,
      "imageId": 24,
      "cred": 15,
      "flags": 1,
      "label": "Gold Luck",
      "description": "You have completed all of the 1P Expansion Puzzles (in the Skill Expansion Pack)",
      "howto": "Complete all of the 1P Expansion Puzzles (in the Skill Expansion Pack)"
    }
  ]
}