{
  "achievementsPossible": 37,
  "credPossible": 1000,
  "achievements": [
    {
      "id": 6,
      "imageId": 1,
      "cred": 20,
      "flags": 6,
      "label": "The Spine Mountains - Normal",
      "description": "You have made it through the SPINE MOUNTAINS level on NORMAL.",
      "howto": "<Insert display string text>"
    },
    {
      "id": 7,
      "imageId": 2,
      "cred": 30,
      "flags": 6,
      "label": "The Spine Mountains - Hard",
      "description": "You have made it through the SPINE MOUNTAINS level on HARD.",
      "howto": "<Insert display string text>"
    },
    {
      "id": 9,
      "imageId": 3,
      "cred": 20,
      "flags": 6,
      "label": "Carvahall - Normal",
      "description": "You have made it through the CARVAHALL level on NORMAL.",
      "howto": "<Insert display string text>"
    },
    {
      "id": 10,
      "imageId": 4,
      "cred": 30,
      "flags": 6,
      "label": "Carvahall - Hard",
      "description": "You have made it through the CARVAHALL level on HARD.",
      "howto": "<Insert display string text>"
    },
    {
      "id": 12,
      "imageId": 27,
      "cred": 20,
      "flags": 6,
      "label": "Flight From Gil'ead - Normal",
      "description": "You have beaten the FLIGHT FROM GIL'EAD level on NORMAL.",
      "howto": "<Insert display string text>"
    },
    {
      "id": 13,
      "imageId": 28,
      "cred": 30,
      "flags": 6,
      "label": "Flight From Gil'ead - Hard",
      "description": "You have beaten the FLIGHT FROM GIL'EAD level on HARD.",
      "howto": "<Insert display string text>"
    },
    {
      "id": 15,
      "imageId": 5,
      "cred": 20,
      "flags": 6,
      "label": "Ra'zac Chase - Normal",
      "description": "You have beaten the RA'ZAC CHASE level on NORMAL.",
      "howto": "<Insert display string text>"
    },
    {
      "id": 16,
      "imageId": 6,
      "cred": 30,
      "flags": 6,
      "label": "Ra'zac Chase - Hard",
      "description": "You have beaten the RA'ZAC CHASE level on HARD.",
      "howto": "<Insert display string text>"
    },
    {
      "id": 18,
      "imageId": 9,
      "cred": 20,
      "flags": 6,
      "label": "Daret Town - Normal",
      "description": "You have made it through the DARET TOWN level on NORMAL.",
      "howto": "<Insert display string text>"
    },
    {
      "id": 19,
      "imageId": 10,
      "cred": 30,
      "flags": 6,
      "label": "Daret Town - Hard",
      "description": "You have made it through the DARET TOWN level on HARD.",
      "howto": "<Insert display string text>"
    },
    {
      "id": 21,
      "imageId": 11,
      "cred": 20,
      "flags": 6,
      "label": "Daret Docks - Normal",
      "description": "You have made it through the DARET DOCKS level on NORMAL.",
      "howto": "<Insert display string text>"
    },
    {
      "id": 22,
      "imageId": 12,
      "cred": 30,
      "flags": 6,
      "label": "Daret Docks - Hard",
      "description": "You have made it through the DARET DOCKS level on HARD.",
      "howto": "<Insert display string text>"
    },
    {
      "id": 24,
      "imageId": 13,
      "cred": 20,
      "flags": 6,
      "label": "Daret Bridge - Normal",
      "description": "You have made it through the DARET BRIDGE level on NORMAL.",
      "howto": "<Insert display string text>"
    },
    {
      "id": 25,
      "imageId": 14,
      "cred": 30,
      "flags": 6,
      "label": "Daret Bridge - Hard",
      "description": "You have made it through the DARET BRIDGE level on HARD.",
      "howto": "<Insert display string text>"
    },
    {
      "id": 27,
      "imageId": 15,
      "cred": 20,
      "flags": 6,
      "label": "Gil'ead City - Normal",
      "description": "You have made it through the GIL'EAD CITY level on NORMAL.",
      "howto": "<Insert display string text>"
    },
    {
      "id": 28,
      "imageId": 16,
      "cred": 30,
      "flags": 6,
      "label": "Gil'ead City - Hard",
      "description": "You have made it through the GIL'EAD CITY level on HARD.",
      "howto": "<Insert display string text>"
    },
    {
      "id": 30,
      "imageId": 17,
      "cred": 20,
      "flags": 6,
      "label": "Gil'ead Keep - Normal",
      "description": "You have made it through the GIL'EAD KEEP level on NORMAL.",
      "howto": "<Insert display string text>"
    },
    {
      "id": 31,
      "imageId": 18,
      "cred": 30,
      "flags": 6,
      "label": "Gil'ead Keep - Hard",
      "description": "You have made it through the GIL'EAD KEEP level on HARD.",
      "howto": "<Insert display string text>"
    },
    {
      "id": 33,
      "imageId": 19,
      "cred": 20,
      "flags": 6,
      "label": "Durza's Fortress - Normal",
      "description": "You have made it through the DURZA'S FORTRESS level on NORMAL.",
      "howto": "<Insert display string text>"
    },
    {
      "id": 34,
      "imageId": 20,
      "cred": 30,
      "flags": 6,
      "label": "Durza's Fortress - Hard",
      "description": "You have made it through the DURZA'S FORTRESS level on HARD.",
      "howto": "<Insert display string text>"
    },
    {
      "id": 36,
      "imageId": 21,
      "cred": 20,
      "flags": 6,
      "label": "Urgal Encampment - Normal",
      "description": "You have made it through the URGAL ENCAMPMENT level on NORMAL.",
      "howto": "<Insert display string text>"
    },
    {
      "id": 37,
      "imageId": 22,
      "cred": 30,
      "flags": 6,
      "label": "Urgal Encampment - Hard",
      "description": "You have made it through the URGAL ENCAMPMENT level on HARD.",
      "howto": "<Insert display string text>"
    },
    {
      "id": 39,
      "imageId": 23,
      "cred": 20,
      "flags": 6,
      "label": "Misty Gorge - Normal",
      "description": "You have made it through the MISTY GORGE level on NORMAL.",
      "howto": "<Insert display string text>"
    },
    {
      "id": 40,
      "imageId": 24,
      "cred": 30,
      "flags": 6,
      "label": "Misty Gorge - Hard",
      "description": "You have made it through the MISTY GORGE level on HARD.",
      "howto": "<Insert display string text>"
    },
    {
      "id": 42,
      "imageId": 25,
      "cred": 20,
      "flags": 6,
      "label": "The Beor Mountains - Normal",
      "description": "You have made it through the BEOR MOUNTAINS level on NORMAL.",
      "howto": "<Insert display string text>"
    },
    {
      "id": 43,
      "imageId": 26,
      "cred": 30,
      "flags": 6,
      "label": "The Beor Mountains - Hard",
      "description": "You have made it through the BEOR MOUNTAINS level on HARD.",
      "howto": "<Insert display string text>"
    },
    {
      "id": 45,
      "imageId": 31,
      "cred": 20,
      "flags": 6,
      "label": "Urgal Attack! - Normal",
      "description": "You have beaten the URGAL ATTACK! level on NORMAL.",
      "howto": "<Insert display string text>"
    },
    {
      "id": 46,
      "imageId": 32,
      "cred": 30,
      "flags": 6,
      "label": "Urgal Attack! - Hard",
      "description": "You have beaten the URGAL ATTACK! level on HARD.",
      "howto": "<Insert display string text>"
    },
    {
      "id": 48,
      "imageId": 33,
      "cred": 20,
      "flags": 6,
      "label": "Defend the Varden - Normal",
      "description": "You have beaten the DEFEND THE VARDEN level on NORMAL.",
      "howto": "<Insert display string text>"
    },
    {
      "id": 49,
      "imageId": 34,
      "cred": 30,
      "flags": 6,
      "label": "Defend the Varden - Hard",
      "description": "You have beaten the DEFEND THE VARDEN level on HARD.",
      "howto": "<Insert display string text>"
    },
    {
      "id": 54,
      "imageId": 7,
      "cred": 20,
      "flags": 6,
      "label": "Trapped! - Normal",
      "description": "You have beaten the TRAPPED! level on Normal.",
      "howto": "<Insert display string text>"
    },
    {
      "id": 55,
      "imageId": 8,
      "cred": 30,
      "flags": 6,
      "label": "Trapped! - Hard",
      "description": "You have beaten the TRAPPED! level on HARD.",
      "howto": "<Insert display string text>"
    },
    {
      "id": 56,
      "imageId": 35,
      "cred": 20,
      "flags": 6,
      "label": "Final Battle - Normal",
      "description": "You have made it through the FINAL BATTLE on NORMAL.",
      "howto": "<Insert display string text>"
    },
    {
      "id": 57,
      "imageId": 36,
      "cred": 30,
      "flags": 6,
      "label": "Final Battle - Hard",
      "description": "You have made it through the FINAL BATTLE on HARD.",
      "howto": "<Insert display string text>"
    },
    {
      "id": 58,
      "imageId": 29,
      "cred": 20,
      "flags": 6,
      "label": "Ruins of Orthíad - Normal",
      "description": "You have beaten the RUINS OF ORTHÍAD level on NORMAL.",
      "howto": "<Insert display string text>"
    },
    {
      "id": 59,
      "imageId": 30,
      "cred": 30,
      "flags": 6,
      "label": "Ruins of Orthíad - Hard",
      "description": "You have beaten the RUINS OF ORTHÍAD level on HARD.",
      "howto": "<Insert display string text>"
    },
    {
      "id": 60,
      "imageId": 37,
      "cred": 100,
      "flags": 3,
      "label": "Explorer",
      "description": "You have collected all the secret eggs",
      "howto": ""
    }
  ]
}