{
  "achievementsPossible": 41,
  "credPossible": 1000,
  "achievements": [
    {
      "id": 1,
      "imageId": 50,
      "cred": 5,
      "flags": 1,
      "label": "Bad master",
      "description": "Having killed a dog",
      "howto": "Having killed a dog"
    },
    {
      "id": 2,
      "imageId": 51,
      "cred": 5,
      "flags": 1,
      "label": "Very bad master",
      "description": "Having killed 10 dogs",
      "howto": "Having killed 10 dogs"
    },
    {
      "id": 3,
      "imageId": 52,
      "cred": 5,
      "flags": 1,
      "label": "Cleaner",
      "description": "Kill 10 pests",
      "howto": "Kill 10 pests"
    },
    {
      "id": 4,
      "imageId": 53,
      "cred": 5,
      "flags": 1,
      "label": "Exterminator",
      "description": "Kill 30 pests",
      "howto": "Kill 30 pests"
    },
    {
      "id": 5,
      "imageId": 54,
      "cred": 5,
      "flags": 1,
      "label": "Dalek",
      "description": "Kill 100 pests",
      "howto": "Kill 100 pests"
    },
    {
      "id": 6,
      "imageId": 55,
      "cred": 5,
      "flags": 1,
      "label": "Poacher",
      "description": "Kill a wolf",
      "howto": "Kill a wolf"
    },
    {
      "id": 7,
      "imageId": 56,
      "cred": 10,
      "flags": 3,
      "label": "It's time to train!",
      "description": "Unlock the shooting range",
      "howto": "Unlock the shooting range"
    },
    {
      "id": 8,
      "imageId": 57,
      "cred": 10,
      "flags": 1,
      "label": "Trained up!",
      "description": "Participate in all shooting range tests",
      "howto": "Participate in all shooting range tests"
    },
    {
      "id": 9,
      "imageId": 58,
      "cred": 10,
      "flags": 1,
      "label": "Ninja!",
      "description": "While stalking, do not get spotted by a big game animal",
      "howto": "While stalking, do not get spotted by a big game animal"
    },
    {
      "id": 10,
      "imageId": 59,
      "cred": 10,
      "flags": 1,
      "label": "Protector",
      "description": "Finish a hunting weekend without killing a single dog",
      "howto": "Finish a hunting weekend without killing a single dog"
    },
    {
      "id": 11,
      "imageId": 60,
      "cred": 10,
      "flags": 1,
      "label": "Bad hunter",
      "description": "Kill an animal that is not in the hunt plan",
      "howto": "Kill an animal that is not in the hunt plan"
    },
    {
      "id": 12,
      "imageId": 61,
      "cred": 10,
      "flags": 1,
      "label": "Perfect score",
      "description": "Score 80 points in target shooting in the shooting range",
      "howto": "Score 80 points in target shooting in the shooting range"
    },
    {
      "id": 13,
      "imageId": 62,
      "cred": 10,
      "flags": 1,
      "label": "Sniper",
      "description": "While stalking, kill a big game animal at more than 80 m",
      "howto": "While stalking, kill a big game animal at more than 80 m"
    },
    {
      "id": 14,
      "imageId": 63,
      "cred": 15,
      "flags": 1,
      "label": "Accomplished hunter",
      "description": "Take your first big game animal",
      "howto": "Take your first big game animal"
    },
    {
      "id": 15,
      "imageId": 64,
      "cred": 15,
      "flags": 1,
      "label": "Good student",
      "description": "Get the hunting permit",
      "howto": "Get the hunting permit"
    },
    {
      "id": 16,
      "imageId": 65,
      "cred": 15,
      "flags": 1,
      "label": "Hunting companion",
      "description": "Get the dog-handler permit",
      "howto": "Get the dog-handler permit"
    },
    {
      "id": 17,
      "imageId": 66,
      "cred": 15,
      "flags": 1,
      "label": "No more joking around!",
      "description": "Get the big game permit",
      "howto": "Get the big game permit"
    },
    {
      "id": 18,
      "imageId": 67,
      "cred": 15,
      "flags": 1,
      "label": "Without breathing",
      "description": "Get the pro permit",
      "howto": "Get the pro permit"
    },
    {
      "id": 19,
      "imageId": 68,
      "cred": 15,
      "flags": 1,
      "label": "Bull's eye",
      "description": "Get the sniper permit",
      "howto": "Get the sniper permit"
    },
    {
      "id": 20,
      "imageId": 69,
      "cred": 20,
      "flags": 2,
      "label": "Bang! Apprentice",
      "description": "Hunter Level 2 achieved",
      "howto": "Hunter Level 2 achieved"
    },
    {
      "id": 21,
      "imageId": 70,
      "cred": 20,
      "flags": 2,
      "label": "Bang! Novice",
      "description": "Hunter Level 5 achieved",
      "howto": "Hunter Level 5 achieved"
    },
    {
      "id": 22,
      "imageId": 71,
      "cred": 20,
      "flags": 2,
      "label": "Bang! Master",
      "description": "Hunter Level 10 achieved",
      "howto": "Hunter Level 10 achieved"
    },
    {
      "id": 23,
      "imageId": 72,
      "cred": 20,
      "flags": 2,
      "label": "Bang! Expert",
      "description": "Hunter Level 15 achieved",
      "howto": "Hunter Level 15 achieved"
    },
    {
      "id": 24,
      "imageId": 73,
      "cred": 20,
      "flags": 2,
      "label": "Bang! Professional",
      "description": "Hunter Level 20 achieved",
      "howto": "Hunter Level 20 achieved"
    },
    {
      "id": 25,
      "imageId": 74,
      "cred": 30,
      "flags": 1,
      "label": "Good reflexes!",
      "description": "Kill a fleeing big game animal",
      "howto": "Kill a fleeing big game animal"
    },
    {
      "id": 26,
      "imageId": 75,
      "cred": 30,
      "flags": 1,
      "label": "The snipe hunter",
      "description": "Kill 3 prey using a dispersion weapon",
      "howto": "Kill 3 prey using a dispersion weapon"
    },
    {
      "id": 27,
      "imageId": 76,
      "cred": 30,
      "flags": 1,
      "label": "Swamp tracker",
      "description": "Take 5 pheasants during the hunting weekend in Camargue",
      "howto": "Take 5 pheasants during the hunting weekend in Camargue"
    },
    {
      "id": 28,
      "imageId": 77,
      "cred": 30,
      "flags": 1,
      "label": "Plains tracker",
      "description": "Take 5 pheasants during the hunting weekend in Corrèze",
      "howto": "Take 5 pheasants during the hunting weekend in Corrèze"
    },
    {
      "id": 29,
      "imageId": 78,
      "cred": 30,
      "flags": 1,
      "label": "Mountain tracker",
      "description": "Take 5 pheasants during the hunting weekend in the Alps",
      "howto": "Avoir prélevé les 5 faisans dans le week-end de chasse dans les Alpes"
    },
    {
      "id": 30,
      "imageId": 79,
      "cred": 30,
      "flags": 1,
      "label": "Hills tracker",
      "description": "Take 5 pheasants during the hunting weekend in the Highlands",
      "howto": "Take 5 pheasants during the hunting weekend in the Highlands"
    },
    {
      "id": 31,
      "imageId": 80,
      "cred": 30,
      "flags": 1,
      "label": "Forest tracker",
      "description": "Take 5 pheasants during the hunting weekend in the Black Forest",
      "howto": "Take 5 pheasants during the hunting weekend in the Black Forest"
    },
    {
      "id": 32,
      "imageId": 81,
      "cred": 40,
      "flags": 1,
      "label": "Swamp hunter",
      "description": "Take the roe deer during the hunting weekend in Camargue",
      "howto": "Take the roe deer during the hunting weekend in Camargue"
    },
    {
      "id": 33,
      "imageId": 82,
      "cred": 40,
      "flags": 1,
      "label": "Plains hunter",
      "description": "Take the boar during the hunting weekend in Corrèze",
      "howto": "Take the boar during the hunting weekend in Corrèze"
    },
    {
      "id": 34,
      "imageId": 83,
      "cred": 40,
      "flags": 1,
      "label": "Mountain hunter",
      "description": "Take the chamois during the hunting weekend in the Alps",
      "howto": "Take the chamois during the hunting weekend in the Alps"
    },
    {
      "id": 35,
      "imageId": 84,
      "cred": 40,
      "flags": 1,
      "label": "Hills hunter",
      "description": "Take the stag during the hunting weekend in the Highlands",
      "howto": "Take the stag during the hunting weekend in the Highlands"
    },
    {
      "id": 36,
      "imageId": 85,
      "cred": 40,
      "flags": 1,
      "label": "Forest hunter",
      "description": "Take the sika deer during the hunting weekend in the Black Forest",
      "howto": "Take the sika deer during the hunting weekend in the Black Forest"
    },
    {
      "id": 37,
      "imageId": 86,
      "cred": 40,
      "flags": 1,
      "label": "Sunday hunter",
      "description": "Participate at least once in all of the hunting week-ends",
      "howto": "Participate at least once in all of the hunting week-ends"
    },
    {
      "id": 38,
      "imageId": 87,
      "cred": 60,
      "flags": 1,
      "label": "End of season",
      "description": "Finish the hunting season",
      "howto": "Finish the hunting season"
    },
    {
      "id": 39,
      "imageId": 88,
      "cred": 60,
      "flags": 3,
      "label": "A hunter that knows how to hunt",
      "description": "Unlock all of the hunter's skills",
      "howto": "Unlock all of the hunter's skills"
    },
    {
      "id": 40,
      "imageId": 48,
      "cred": 60,
      "flags": 3,
      "label": "Well-equipped",
      "description": "Unlock all of the hunting equipment",
      "howto": "Unlock all of the hunting equipment"
    },
    {
      "id": 41,
      "imageId": 90,
      "cred": 80,
      "flags": 1,
      "label": "The season's over",
      "description": "Complete all of the hunt plans for the Hunting Season",
      "howto": "Complete all of the hunt plans for the Hunting Season"
    }
  ]
}