{
  "avatarAssetsPossible": 5,
  "maleAvatarAssetsPossible": 2,
  "femaleAvatarAssetsPossible": 2,
  "avatarAssets": [
    {
      "id": "00000208-0001-01c1-ceed-60bc5451087b",
      "imageId": 52,
      "subcategory": 0,
      "unknown": 0,
      "isMale": true,
      "isFemale": false,
      "isUnisex": false,
      "label": "T-Shirt",
      "description": "Do it up with an Alive T-Shirt for your Avatar",
      "howto": "Finish a race and unlock the Off and Racing Achievement"
    },
    {
      "id": "00000208-0001-f112-cbd1-71765451087b",
      "imageId": 54,
      "subcategory": 0,
      "unknown": 2015221016,
      "isMale": false,
      "isFemale": true,
      "isUnisex": false,
      "label": "T-Shirt",
      "description": "Do it up with an Alive T-Shirt for your Avatar",
      "howto": "Finish a race and unlock the Off and Racing Achievement"
    },
    {
      "id": "00000ab8-0002-91d1-cf5e-eddc5451087b",
      "imageId": 66,
      "subcategory": 0,
      "unknown": 2015221016,
      "isMale": true,
      "isFemale": false,
      "isUnisex": false,
      "label": "MX Jersey",
      "description": "Trick out your Avatar with an Alive Motocross Jersey",
      "howto": "Achieve every level 1 Race Goal and unlock the All Around Talent Achievement"
    },
    {
      "id": "00000ab8-0002-1132-cfb4-7ab75451087b",
      "imageId": 64,
      "subcategory": 0,
      "unknown": 2015221016,
      "isMale": false,
      "isFemale": true,
      "isUnisex": false,
      "label": "MX Jersey",
      "description": "Trick out your Avatar with an Alive Motocross Jersey",
      "howto": "Achieve every level 1 Race Goal and unlock the All Around Talent Achievement"
    },
    {
      "id": "00000544-0004-01b3-ca9b-93fb5451087b",
      "imageId": 68,
      "subcategory": 0,
      "unknown": 2015221016,
      "isMale": false,
      "isFemale": false,
      "isUnisex": true,
      "label": "Gold Helmet",
      "description": "Protect your Avatar's dome with the Gold Alive Helmet",
      "howto": "Reach Rider XP Level 50 and unlock the Record Chaser Achievement"
    }
  ]
}