{
  "achievementsPossible": 50,
  "credPossible": 1000,
  "achievements": [
    {
      "id": 2,
      "imageId": 5,
      "cred": 30,
      "flags": 1,
      "label": "Viking Conqueror Normal",
      "description": "Completed Viking on the normal difficulty setting",
      "howto": "Reach the end of the game on normal difficulty"
    },
    {
      "id": 9,
      "imageId": 5,
      "cred": 60,
      "flags": 1,
      "label": "Viking Conqueror Hard",
      "description": "Completed Viking on the hard difficulty setting",
      "howto": "Reach the end of the game on hard difficulty"
    },
    {
      "id": 10,
      "imageId": 1,
      "cred": 20,
      "flags": 6,
      "label": "Niflberg Supplies Freed",
      "description": "Niflberg farm and quarry freed from the Legion",
      "howto": "Liberate the farm and the quarry in Niflberg"
    },
    {
      "id": 12,
      "imageId": 3,
      "cred": 15,
      "flags": 4,
      "label": "Dragon Summoner",
      "description": "Summoned the dragon-guardian of Niflberg",
      "howto": "Find and charge the dragon gem Hugin and dragon amulet, and summon a dragon"
    },
    {
      "id": 15,
      "imageId": 6,
      "cred": 15,
      "flags": 7,
      "label": "Skullbagger 1",
      "description": "Collected all the skulls in Niflberg",
      "howto": "Collect the 6 skulls in Darkwater"
    },
    {
      "id": 16,
      "imageId": 5,
      "cred": 25,
      "flags": 1,
      "label": "Savior of Niflberg Normal",
      "description": "Liberated Niflberg on normal difficulty level",
      "howto": "Liberate Niflberg completely on the normal difficulty level"
    },
    {
      "id": 17,
      "imageId": 5,
      "cred": 35,
      "flags": 1,
      "label": "Savior of Niflberg Hard",
      "description": "Liberated Niflberg on hard difficulty level",
      "howto": "Liberate Niflberg completely on the hard difficulty level"
    },
    {
      "id": 18,
      "imageId": 1,
      "cred": 20,
      "flags": 6,
      "label": "Galcliff Supplies Freed",
      "description": "Galcliff farm, still, lumber mill, and quarry freed from the Legion",
      "howto": "Liberate the farm, still, lumber mill, and the quarry in Galcliff"
    },
    {
      "id": 20,
      "imageId": 3,
      "cred": 15,
      "flags": 4,
      "label": "Dragon Master",
      "description": "Summoned the dragon-guardian of Galcliff",
      "howto": "Complete the second dragon gem, and summon a dragon"
    },
    {
      "id": 23,
      "imageId": 6,
      "cred": 15,
      "flags": 7,
      "label": "Skullbagger 2",
      "description": "Collected all the skulls in Galcliff",
      "howto": "Collect the 6 skulls in Holdenfort and the 6 skulls in Caldberg"
    },
    {
      "id": 24,
      "imageId": 1,
      "cred": 40,
      "flags": 4,
      "label": "Demon's Nemesis",
      "description": "Killed Hel's Harbinger",
      "howto": "Kill Hel's Harbinger Drakan"
    },
    {
      "id": 25,
      "imageId": 5,
      "cred": 30,
      "flags": 1,
      "label": "Redeemer Of Galcliff Normal",
      "description": "Liberated Galcliff on normal difficulty level",
      "howto": "Liberate Galcliff completely on the normal difficulty level"
    },
    {
      "id": 26,
      "imageId": 5,
      "cred": 40,
      "flags": 1,
      "label": "Redeemer of Galcliff Hard",
      "description": "Liberated Galcliff on hard difficulty level",
      "howto": "Liberate Galcliff completely on the hard difficulty level"
    },
    {
      "id": 27,
      "imageId": 1,
      "cred": 20,
      "flags": 6,
      "label": "Isaholm Supplies Freed",
      "description": "Isaholm farm, still, lumber mill, and quarry freed from the Legion",
      "howto": "Liberate the farm, still, lumber mill, and the quarry in Isaholm"
    },
    {
      "id": 29,
      "imageId": 3,
      "cred": 15,
      "flags": 4,
      "label": "Dragon Overlord",
      "description": "Summoned the dragon-guardian of Isaholm",
      "howto": "Recover the final dragon gem, and summon a dragon"
    },
    {
      "id": 35,
      "imageId": 6,
      "cred": 15,
      "flags": 7,
      "label": "Skullbagger 3",
      "description": "Collected all the skulls in Isaholm",
      "howto": "Collect all the 4 skulls in Thornvik"
    },
    {
      "id": 36,
      "imageId": 2,
      "cred": 25,
      "flags": 4,
      "label": "Death King",
      "description": "Performed 150 fatalities",
      "howto": "Finish off 150 Legion with fatality moves"
    },
    {
      "id": 39,
      "imageId": 2,
      "cred": 20,
      "flags": 7,
      "label": "Demon Eviscerator",
      "description": "Performed 100 fatalities",
      "howto": "Finish off 100 Legion with fatality moves"
    },
    {
      "id": 40,
      "imageId": 3,
      "cred": 20,
      "flags": 7,
      "label": "They Never Saw Me Coming",
      "description": "Executed 100 sneaky kills",
      "howto": "Execute 100 sneaky kills"
    },
    {
      "id": 43,
      "imageId": 2,
      "cred": 25,
      "flags": 7,
      "label": "Giant Killer",
      "description": "Defeated a Legion Giant",
      "howto": "Find and slaughter a Legion Giant\r\n"
    },
    {
      "id": 44,
      "imageId": 2,
      "cred": 20,
      "flags": 7,
      "label": "The Flames of Freya",
      "description": "Incinerated 10 Legion soldiers",
      "howto": "Buy flamepots and incinerate 10 Legion soldiers with them"
    },
    {
      "id": 50,
      "imageId": 2,
      "cred": 5,
      "flags": 2,
      "label": "Thor's Mortal Lightning Rod",
      "description": "Blasted a Legion with Thor's ultimate lightning",
      "howto": "Send a Legion back to the underworld in the most lightning-tastic way imaginable"
    },
    {
      "id": 52,
      "imageId": 2,
      "cred": 5,
      "flags": 2,
      "label": "Odin's Doomsinger",
      "description": "Absolutely immolated a Legion",
      "howto": "Use the ultimate fire attack to kill a Legion"
    },
    {
      "id": 54,
      "imageId": 2,
      "cred": 5,
      "flags": 2,
      "label": "Heimdall's Enforcer",
      "description": "Mastered the ultimate ice attack",
      "howto": "Glacially wipe out a Legion using the ultimate ice attack"
    },
    {
      "id": 55,
      "imageId": 3,
      "cred": 15,
      "flags": 7,
      "label": "Deadly Axe Juggler",
      "description": "Demonstrated uncanny deadliness with throwing axes",
      "howto": "Kill 5 Legion just using Throwing axes"
    },
    {
      "id": 56,
      "imageId": 3,
      "cred": 5,
      "flags": 7,
      "label": "Euthanasia Euphoria",
      "description": "Pushed 20 Legion off cliffs to their death",
      "howto": "Use your defensive bash to knock your Legion foes to their doom!"
    },
    {
      "id": 57,
      "imageId": 3,
      "cred": 10,
      "flags": 7,
      "label": "Friend Of The People",
      "description": "Powered-up over 500 Vikings using the magic of the runes",
      "howto": "Power-up over 500 Vikings in your armies with runic magic"
    },
    {
      "id": 58,
      "imageId": 2,
      "cred": 15,
      "flags": 7,
      "label": "Assassin of Assassins",
      "description": "Defeated a Legion Assassin",
      "howto": "Locate and kill a Legion Assassin"
    },
    {
      "id": 59,
      "imageId": 3,
      "cred": 45,
      "flags": 7,
      "label": "Blinded To Fear",
      "description": "Killed 50 Legion without using a health potion",
      "howto": "Kill 50 Legion without using a health potion"
    },
    {
      "id": 61,
      "imageId": 3,
      "cred": 12,
      "flags": 2,
      "label": "Viking Slaughterer",
      "description": "Unlocked 4 advanced combat moves",
      "howto": "Learn a total of 4 new moves"
    },
    {
      "id": 62,
      "imageId": 3,
      "cred": 10,
      "flags": 2,
      "label": "Viking Butcher",
      "description": "Mastered the first advanced combat move",
      "howto": "Master the first new move at the Battle Arena"
    },
    {
      "id": 63,
      "imageId": 3,
      "cred": 14,
      "flags": 2,
      "label": "Viking Slayer",
      "description": "Mastered 8 advanced combat moves",
      "howto": "Master a total of 8 new moves"
    },
    {
      "id": 64,
      "imageId": 3,
      "cred": 16,
      "flags": 2,
      "label": "Viking Warrior",
      "description": "Mastered 12 advanced combat moves",
      "howto": "Master a total of 12 new moves"
    },
    {
      "id": 65,
      "imageId": 3,
      "cred": 18,
      "flags": 2,
      "label": "Viking Blademaster",
      "description": "Unlocked all advanced combat moves",
      "howto": "Learn all the moves in the game"
    },
    {
      "id": 66,
      "imageId": 2,
      "cred": 5,
      "flags": 7,
      "label": "Demon Hacker",
      "description": "Performed 25 fatalities",
      "howto": "Finish off 25 Legion with fatality moves"
    },
    {
      "id": 67,
      "imageId": 1,
      "cred": 20,
      "flags": 4,
      "label": "Secretive Rogue",
      "description": "Sneaked into the infested settlement of Darkwater",
      "howto": "Complete the quest to sneak into Darkwater"
    },
    {
      "id": 68,
      "imageId": 2,
      "cred": 20,
      "flags": 7,
      "label": "The Perfect Killer",
      "description": "Killed a Legion Champion without being hit",
      "howto": "Kill a Legion Champion without being hit"
    },
    {
      "id": 69,
      "imageId": 2,
      "cred": 5,
      "flags": 7,
      "label": "Killer of Champions",
      "description": "Killed 10 Champions",
      "howto": "Kill 10 Champions"
    },
    {
      "id": 70,
      "imageId": 2,
      "cred": 5,
      "flags": 7,
      "label": "Killer of Giants",
      "description": "Killed 5 Giants",
      "howto": "Kill 5 Giants"
    },
    {
      "id": 71,
      "imageId": 4,
      "cred": 10,
      "flags": 6,
      "label": "Hero Of Darkwater",
      "description": "Achieved victory at the battle for Darkwater",
      "howto": "Lead your army to victory at the battle for Darkwater"
    },
    {
      "id": 72,
      "imageId": 4,
      "cred": 10,
      "flags": 6,
      "label": "Hero Of Holdenfort",
      "description": "Achieved victory at the battle of Holdenfort",
      "howto": "Lead your army to victory at the battle for Holdenfort"
    },
    {
      "id": 73,
      "imageId": 4,
      "cred": 10,
      "flags": 6,
      "label": "Hero Of Caldberg",
      "description": "Achieved victory at the battle of Caldberg",
      "howto": "Lead your army to victory at the battle for Caldberg"
    },
    {
      "id": 74,
      "imageId": 4,
      "cred": 10,
      "flags": 6,
      "label": "Hero Of Thornvik",
      "description": "Achieved victory at the battle of Thornvik",
      "howto": "Lead your army to victory at the battle for Thornvik"
    },
    {
      "id": 75,
      "imageId": 4,
      "cred": 20,
      "flags": 6,
      "label": "Hero Of Midgard",
      "description": "Achieved victory at the final battle for all Midgard",
      "howto": "Lead your army to victory at the final battle for all Midgard"
    },
    {
      "id": 76,
      "imageId": 2,
      "cred": 50,
      "flags": 7,
      "label": "No Need For Immortality",
      "description": "Achieved the perfect victory at the final battle for all Midgard",
      "howto": "Lead your army to victory at Hel's Fortress without need for immortality"
    },
    {
      "id": 77,
      "imageId": 2,
      "cred": 10,
      "flags": 7,
      "label": "Thirst For Blood",
      "description": "Killed 50 Legion in Midgard",
      "howto": "Kill 50 Legion soldiers"
    },
    {
      "id": 78,
      "imageId": 2,
      "cred": 20,
      "flags": 7,
      "label": "Lust For Blood",
      "description": "Killed 100 Legion",
      "howto": "Kill 100 Legion soldiers"
    },
    {
      "id": 79,
      "imageId": 2,
      "cred": 25,
      "flags": 7,
      "label": "Champion of Champions",
      "description": "Defeated a Legion Champion\r\n",
      "howto": "Find and defeat a Legion Champion"
    },
    {
      "id": 80,
      "imageId": 3,
      "cred": 35,
      "flags": 7,
      "label": "Berzerker",
      "description": "Killed 200 Legion in Midgard",
      "howto": "Kill 200 Legion soldiers"
    },
    {
      "id": 81,
      "imageId": 3,
      "cred": 50,
      "flags": 7,
      "label": "Slaughter Master",
      "description": "Killed 500 Legion in Midgard",
      "howto": "Kill 500 Legion soldiers"
    }
  ]
}