{
  "achievementsPossible": 10,
  "credPossible": 1000,
  "achievements": [
    {
      "id": 1,
      "imageId": 1,
      "cred": 100,
      "flags": 7,
      "label": "「通り名」の取得01",
      "description": "天下御免",
      "howto": "天下御免"
    },
    {
      "id": 2,
      "imageId": 2,
      "cred": 100,
      "flags": 7,
      "label": "「通り名」の取得02",
      "description": "ウエポンマスター",
      "howto": "ウエポンマスター"
    },
    {
      "id": 3,
      "imageId": 3,
      "cred": 100,
      "flags": 7,
      "label": "「通り名」の取得03",
      "description": "アーマーマスター",
      "howto": "アーマーマスター"
    },
    {
      "id": 4,
      "imageId": 4,
      "cred": 100,
      "flags": 7,
      "label": "「通り名」の取得04",
      "description": "リングマスター",
      "howto": "リングマスター"
    },
    {
      "id": 5,
      "imageId": 5,
      "cred": 100,
      "flags": 7,
      "label": "「通り名」の取得05",
      "description": "暁の咆哮",
      "howto": "暁の咆哮"
    },
    {
      "id": 6,
      "imageId": 6,
      "cred": 100,
      "flags": 7,
      "label": "「通り名」の取得06",
      "description": "コンプリーター",
      "howto": "コンプリーター"
    },
    {
      "id": 7,
      "imageId": 7,
      "cred": 100,
      "flags": 7,
      "label": "「通り名」の取得07",
      "description": "叡智の源",
      "howto": "叡智の源"
    },
    {
      "id": 8,
      "imageId": 8,
      "cred": 100,
      "flags": 7,
      "label": "「通り名」の取得08",
      "description": "万物の頂点",
      "howto": "万物の頂点"
    },
    {
      "id": 9,
      "imageId": 9,
      "cred": 100,
      "flags": 7,
      "label": "「通り名」の取得09",
      "description": "破壊王",
      "howto": "破壊王"
    },
    {
      "id": 10,
      "imageId": 10,
      "cred": 100,
      "flags": 7,
      "label": "「通り名」の取得10",
      "description": "神を超えし者",
      "howto": "神を超えし者"
    }
  ]
}