{
  "achievementsPossible": 28,
  "credPossible": 1000,
  "achievements": [
    {
      "id": 1,
      "imageId": 1,
      "cred": 50,
      "flags": 1,
      "label": "American Idol",
      "description": "Win the full American Idol tournament at any difficulty level",
      "howto": "Win the full American Idol tournament at any difficulty level"
    },
    {
      "id": 2,
      "imageId": 2,
      "cred": 80,
      "flags": 1,
      "label": "World Idol",
      "description": "Win the full American Idol tournament at Expert difficulty level",
      "howto": "Win the full American Idol tournament at Expert difficulty level\r\n"
    },
    {
      "id": 3,
      "imageId": 3,
      "cred": 10,
      "flags": 1,
      "label": "Golden Ticket",
      "description": "Pass the auditions phase in single player",
      "howto": "Pass the auditions phase in single player"
    },
    {
      "id": 4,
      "imageId": 4,
      "cred": 20,
      "flags": 1,
      "label": "The Great American Songbook",
      "description": "Sing all the songs on the disc once - full song only",
      "howto": "Sing all the songs on the disc once - full song only"
    },
    {
      "id": 5,
      "imageId": 5,
      "cred": 30,
      "flags": 1,
      "label": "American Sensation",
      "description": "Win 20 American Idol single player tournaments",
      "howto": "Win 20 American Idol single player tournaments"
    },
    {
      "id": 6,
      "imageId": 6,
      "cred": 20,
      "flags": 1,
      "label": "It Sounds Like a Lot",
      "description": "Score 1 million points (cumulative in any mode)",
      "howto": "Score 1 million points (cumulative in any mode)"
    },
    {
      "id": 7,
      "imageId": 7,
      "cred": 50,
      "flags": 1,
      "label": "It Didn't Take That Long",
      "description": "Score 10 million points (cumulative in any mode)",
      "howto": "Score 10 million points (cumulative in any mode)"
    },
    {
      "id": 8,
      "imageId": 8,
      "cred": 100,
      "flags": 1,
      "label": "Dedication",
      "description": "Score 50 million points (cumulative in any mode)",
      "howto": "Score 50 million points (cumulative in any mode)"
    },
    {
      "id": 9,
      "imageId": 9,
      "cred": 100,
      "flags": 1,
      "label": "Girl’s Best Friend",
      "description": "Get a perfect score throughout a full American Idol tournament\r\n",
      "howto": "Get a perfect score throughout a full American Idol tournament"
    },
    {
      "id": 10,
      "imageId": 10,
      "cred": 10,
      "flags": 4,
      "label": "Headbanger",
      "description": "Compete offline in a battle Head to Head game",
      "howto": "Compete offline in a battle Head to Head game"
    },
    {
      "id": 11,
      "imageId": 11,
      "cred": 10,
      "flags": 4,
      "label": "Premiership",
      "description": "Compete offline in an Arcade League game",
      "howto": "Compete offline in an Arcade League game"
    },
    {
      "id": 12,
      "imageId": 12,
      "cred": 10,
      "flags": 4,
      "label": "Just the Two of Us",
      "description": "Play an offline Co-op Duet",
      "howto": "Play an offline Co-op Duet"
    },
    {
      "id": 13,
      "imageId": 13,
      "cred": 10,
      "flags": 4,
      "label": "Grudge Match",
      "description": "Play an Xbox LIVE Head-to-Head match",
      "howto": "Play an Xbox LIVE Head-to-Head match"
    },
    {
      "id": 14,
      "imageId": 14,
      "cred": 10,
      "flags": 4,
      "label": "World Tour",
      "description": "Play an Xbox LIVE American Idol Tournament match",
      "howto": "Play an Xbox LIVE American Idol Tournament match"
    },
    {
      "id": 15,
      "imageId": 15,
      "cred": 10,
      "flags": 4,
      "label": "Global Star",
      "description": "Play an Xbox LIVE Arcade League match",
      "howto": "Play an Xbox LIVE Arcade League match"
    },
    {
      "id": 17,
      "imageId": 16,
      "cred": 15,
      "flags": 1,
      "label": "Ranked Grudge Match Winner",
      "description": "Win an Xbox LIVE Head-to-Head ranked match",
      "howto": "Win an Xbox LIVE Head-to-Head ranked match"
    },
    {
      "id": 18,
      "imageId": 17,
      "cred": 15,
      "flags": 1,
      "label": "Ranked World Tour Winner",
      "description": "Win an Xbox LIVE American Idol Tournament ranked match",
      "howto": "Win an Xbox LIVE American Idol Tournament ranked match"
    },
    {
      "id": 19,
      "imageId": 18,
      "cred": 15,
      "flags": 1,
      "label": "Ranked Global Star Winner",
      "description": "Win an Xbox LIVE Arcade League ranked match",
      "howto": "Win an Xbox LIVE Arcade League ranked match"
    },
    {
      "id": 20,
      "imageId": 20,
      "cred": 175,
      "flags": 1,
      "label": "Maestro",
      "description": "Achieve Diamond Status for every song on the disc",
      "howto": "Achieve Diamond Status for every song on the disc"
    },
    {
      "id": 21,
      "imageId": 21,
      "cred": 10,
      "flags": 1,
      "label": "Megastar",
      "description": "Achieve Diamond Status for one song",
      "howto": "Achieve Diamond Status for one song"
    },
    {
      "id": 22,
      "imageId": 23,
      "cred": 50,
      "flags": 1,
      "label": "Hero",
      "description": "Achieve Diamond Status for ten different songs",
      "howto": "Achieve Diamond Status for ten different songs"
    },
    {
      "id": 23,
      "imageId": 22,
      "cred": 25,
      "flags": 1,
      "label": "Superstar",
      "description": "Achieve Diamond Status for five different songs",
      "howto": "Achieve Diamond Status for five different songs"
    },
    {
      "id": 24,
      "imageId": 19,
      "cred": 50,
      "flags": 1,
      "label": "Million Seller",
      "description": "Achieve Platinum Status for every song on the disc",
      "howto": "Achieve Platinum Status for every song on the disc"
    },
    {
      "id": 25,
      "imageId": 25,
      "cred": 75,
      "flags": 1,
      "label": "Legend",
      "description": "Achieve Diamond Status for twenty different songs",
      "howto": "Achieve Diamond Status for twenty different songs"
    },
    {
      "id": 26,
      "imageId": 24,
      "cred": 10,
      "flags": 1,
      "label": "Inspiration",
      "description": "Achieve Gold Status for every song on the disc",
      "howto": "Achieve Gold Status for every song on the disc"
    },
    {
      "id": 27,
      "imageId": 27,
      "cred": 20,
      "flags": 1,
      "label": "The Showman",
      "description": "Complete a medley and receive Platinum Status",
      "howto": "Complete a medley and receive Platinum Status"
    },
    {
      "id": 28,
      "imageId": 28,
      "cred": 15,
      "flags": 1,
      "label": "Why Don't You Marry Him Then",
      "description": "Achieve \"Excellent\" comments from Simon three times in a row during an American Idol tournament",
      "howto": "Achieve \"Excellent\" comments from Simon three times in a row during an American Idol tournament"
    },
    {
      "id": 29,
      "imageId": 26,
      "cred": 5,
      "flags": 3,
      "label": "The First of Many",
      "description": "Achieve Platinum Status for one performance",
      "howto": "Achieve Platinum Status for one performance"
    }
  ]
}