{
  "avatarAssetsPossible": 10,
  "maleAvatarAssetsPossible": 5,
  "femaleAvatarAssetsPossible": 5,
  "avatarAssets": [
    {
      "id": "00000ffc-0001-51e1-c3bc-7a234d53093b",
      "imageId": 39,
      "subcategory": 0,
      "unknown": 0,
      "isMale": true,
      "isFemale": false,
      "isUnisex": false,
      "label": "Marathon Racer Suit",
      "description": "This suit’s designed for people who spend many hours behind the wheel.",
      "howto": "Get behind the wheel for 10 hours to unlock this award!"
    },
    {
      "id": "00000ffc-0001-9152-c66e-95444d53093b",
      "imageId": 46,
      "subcategory": 0,
      "unknown": 2015221016,
      "isMale": false,
      "isFemale": true,
      "isUnisex": false,
      "label": "Marathon Racer Suit",
      "description": "This suit’s designed for people who spend many hours behind the wheel.",
      "howto": "Get behind the wheel for 10 hours to unlock this award!"
    },
    {
      "id": "00000208-0002-31a1-cc16-777c4d53093b",
      "imageId": 51,
      "subcategory": 0,
      "unknown": 2015221016,
      "isMale": true,
      "isFemale": false,
      "isUnisex": false,
      "label": "Boss Hoodie",
      "description": "Show everyone who’s Boss with your new threads.",
      "howto": "Play on all tracks to unlock this award!"
    },
    {
      "id": "00000208-0002-41e2-c823-7ef64d53093b",
      "imageId": 50,
      "subcategory": 0,
      "unknown": 2015221016,
      "isMale": false,
      "isFemale": true,
      "isUnisex": false,
      "label": "Boss Hoodie",
      "description": "Show everyone who’s Boss with your new threads.",
      "howto": "Play on all tracks to unlock this award!"
    },
    {
      "id": "00000208-0003-4141-c29d-72b94d53093b",
      "imageId": 53,
      "subcategory": 0,
      "unknown": 2015221016,
      "isMale": true,
      "isFemale": false,
      "isUnisex": false,
      "label": "Raven Leather Jacket",
      "description": "Take to the streets in this tough leather jacket.",
      "howto": "Drive every vehicle style to unlock this award!"
    },
    {
      "id": "00000208-0003-6122-c430-75704d53093b",
      "imageId": 52,
      "subcategory": 0,
      "unknown": 2015221016,
      "isMale": false,
      "isFemale": true,
      "isUnisex": false,
      "label": "Raven Leather Jacket",
      "description": "Take to the streets in this tough leather jacket.",
      "howto": "Drive every vehicle style to unlock this award!"
    },
    {
      "id": "00000100-0004-b1c1-cfbb-36d54d53093b",
      "imageId": 55,
      "subcategory": 0,
      "unknown": 2015221016,
      "isMale": true,
      "isFemale": false,
      "isUnisex": false,
      "label": "Aviator Ranch Goggles",
      "description": "Premium performance racing goggles.",
      "howto": "Play each activity once in solo play to unlock this award!"
    },
    {
      "id": "00000100-0004-5122-cf6e-dda74d53093b",
      "imageId": 54,
      "subcategory": 0,
      "unknown": 2015221016,
      "isMale": false,
      "isFemale": true,
      "isUnisex": false,
      "label": "Aviator Ranch Goggles",
      "description": "Premium performance racing goggles.",
      "howto": "Play each activity once in solo play to unlock this award!"
    },
    {
      "id": "00000544-0005-01b1-c76d-654a4d53093b",
      "imageId": 57,
      "subcategory": 0,
      "unknown": 2015221016,
      "isMale": true,
      "isFemale": false,
      "isUnisex": false,
      "label": "Smashing Helmet",
      "description": "Premium performance racing helmet.",
      "howto": "Play each activity 10 times in offline play"
    },
    {
      "id": "00000544-0005-f102-cdd0-6a924d53093b",
      "imageId": 56,
      "subcategory": 0,
      "unknown": 2015221016,
      "isMale": false,
      "isFemale": true,
      "isUnisex": false,
      "label": "Smashing Helmet",
      "description": "Premium performance racing helmet.",
      "howto": "Play each activity 10 times in offline play"
    }
  ]
}