{
  "achievementsPossible": 20,
  "credPossible": 1000,
  "achievements": [
    {
      "id": 1,
      "imageId": 2,
      "cred": 50,
      "flags": 1,
      "label": "Bomber",
      "description": "Earned by taking out a Nightwalker with a UV mine in Xbox LIVE competition.",
      "howto": "Earned by taking out a Nightwalker with a UV mine in Xbox LIVE competition."
    },
    {
      "id": 2,
      "imageId": 3,
      "cred": 50,
      "flags": 1,
      "label": "Savage",
      "description": "Earned by scoring 5 kills  in Xbox Live competition without dying once.",
      "howto": "Earned by scoring 5 kills  in Xbox Live competition without dying once."
    },
    {
      "id": 3,
      "imageId": 4,
      "cred": 50,
      "flags": 1,
      "label": "Berserker",
      "description": "Earned by scoring 10 kills in Xbox Live competition without dying once.",
      "howto": "Earned by scoring 10 kills in Xbox Live competition without dying once."
    },
    {
      "id": 4,
      "imageId": 5,
      "cred": 50,
      "flags": 1,
      "label": "Rampage",
      "description": "Earned by scoring 20 kills in Xbox Live competition without dying once.",
      "howto": "Earned by scoring 20 kills in Xbox Live competition without dying once."
    },
    {
      "id": 5,
      "imageId": 6,
      "cred": 50,
      "flags": 1,
      "label": "Kill Frenzy",
      "description": "Earned by scoring 3 kills within the 1st min. as a Nightwalker in Xbox Live competition.",
      "howto": "Earned by scoring 3 kills within the 1st min. as a Nightwalker in Xbox Live competition."
    },
    {
      "id": 6,
      "imageId": 7,
      "cred": 50,
      "flags": 1,
      "label": "Despicable One",
      "description": "Earned by scoring 20 kills without dying as a Nightwalker in Xbox Live competition.",
      "howto": "Earned by scoring 20 kills without dying as a Nightwalker in Xbox Live competition."
    },
    {
      "id": 7,
      "imageId": 8,
      "cred": 50,
      "flags": 1,
      "label": "Sniper",
      "description": "Earned by scoring a headshot in Xbox Live competition.",
      "howto": "Earned by scoring a headshot in Xbox Live competition."
    },
    {
      "id": 8,
      "imageId": 1,
      "cred": 50,
      "flags": 1,
      "label": "Stronger",
      "description": "Earned by completing a match without dying once in Xbox Live competition.",
      "howto": "Earned by completing a match without dying once in Xbox Live competition."
    },
    {
      "id": 11,
      "imageId": 12,
      "cred": 50,
      "flags": 1,
      "label": "Flame Killer",
      "description": "Earned by taking down a Flame carrier.",
      "howto": "Earned by taking down a Flame carrier."
    },
    {
      "id": 12,
      "imageId": 22,
      "cred": 50,
      "flags": 1,
      "label": "Flame Hero",
      "description": "Earned by stealing the opposition's Flame and bringing it back to score.\r\n",
      "howto": "Earned by stealing the opposition's Flame and bringing it back to score.\r\n"
    },
    {
      "id": 13,
      "imageId": 13,
      "cred": 50,
      "flags": 1,
      "label": "Destroyer",
      "description": "Earned by destroying an objective.",
      "howto": "Earned by destroying an objective."
    },
    {
      "id": 14,
      "imageId": 14,
      "cred": 50,
      "flags": 1,
      "label": "Dominator",
      "description": "Earned by scoring 90 seconds of destruction time.",
      "howto": "Earned by scoring 90 seconds of destruction time."
    },
    {
      "id": 15,
      "imageId": 15,
      "cred": 50,
      "flags": 1,
      "label": "Collector",
      "description": "Earned by collecting all medals.",
      "howto": ""
    },
    {
      "id": 16,
      "imageId": 16,
      "cred": 50,
      "flags": 1,
      "label": "All Clear",
      "description": "Earned by achieving a Clear Percentage of 100%.",
      "howto": ""
    },
    {
      "id": 17,
      "imageId": 17,
      "cred": 50,
      "flags": 1,
      "label": "Nightwalker Killer",
      "description": "Scored 500 or more Nightwalker kills in single-player mode.",
      "howto": "Scored 500 or more Nightwalker kills in single-player mode."
    },
    {
      "id": 18,
      "imageId": 18,
      "cred": 50,
      "flags": 1,
      "label": "Captain",
      "description": "Watched the ending sequence in single-player mode.",
      "howto": "Watched the ending sequence in single-player mode."
    },
    {
      "id": 19,
      "imageId": 19,
      "cred": 50,
      "flags": 1,
      "label": "Walking Dead",
      "description": "Bit 200 times by Nightwalkers.",
      "howto": ""
    },
    {
      "id": 20,
      "imageId": 20,
      "cred": 50,
      "flags": 1,
      "label": "Real John Lloyd",
      "description": "Cleared all stages in single-player mode at Rank \"S\".",
      "howto": ""
    },
    {
      "id": 21,
      "imageId": 21,
      "cred": 50,
      "flags": 1,
      "label": "Heavy Gamer",
      "description": "Rated \"A\" or above after clearing all stages in single-player mode.",
      "howto": "Rated \"A\" or above after clearing all stages in single-player mode."
    },
    {
      "id": 22,
      "imageId": 23,
      "cred": 50,
      "flags": 1,
      "label": "Martial Arts Master",
      "description": "Finished off an enemy with a kick in Xbox LIVE competition.",
      "howto": "Finished off an enemy with a kick in Xbox LIVE competition."
    }
  ]
}