{
  "achievementsPossible": 37,
  "credPossible": 1000,
  "achievements": [
    {
      "id": 1,
      "imageId": 84,
      "cred": 30,
      "flags": 1,
      "label": "Super Sight",
      "description": "Hunted 20 animals using Focus Shot in Story Mode",
      "howto": "Hunt 20 animals using Focus Shot in Story Mode"
    },
    {
      "id": 2,
      "imageId": 82,
      "cred": 30,
      "flags": 1,
      "label": "The True Adventurer",
      "description": "Finished Story Mode on the Hard difficulty setting",
      "howto": "Finish Story Mode on the Hard difficulty setting"
    },
    {
      "id": 3,
      "imageId": 83,
      "cred": 30,
      "flags": 1,
      "label": "You Are On Fire!",
      "description": "Hunted four attackers in a single Focus Shot sequence in Story Mode",
      "howto": "Hunt four attackers in a single Focus Shot sequence in Story Mode"
    },
    {
      "id": 4,
      "imageId": 85,
      "cred": 30,
      "flags": 1,
      "label": "Fill The Pocket",
      "description": "Gathered 15 collectibles in Story Mode",
      "howto": "Gather 15 collectibles in Story Mode"
    },
    {
      "id": 5,
      "imageId": 86,
      "cred": 30,
      "flags": 1,
      "label": "Stop Chewing My Leg",
      "description": "Hunted six latching animals while in Story Mode or Shooting Galleries",
      "howto": "Hunt six latching animals while in Story Mode or Shooting Galleries"
    },
    {
      "id": 6,
      "imageId": 87,
      "cred": 30,
      "flags": 1,
      "label": "You Rule!",
      "description": "Won 15 Challenges",
      "howto": "Win 15 Challenges"
    },
    {
      "id": 7,
      "imageId": 88,
      "cred": 30,
      "flags": 1,
      "label": "More Than Alpha",
      "description": "Hunted three alpha wolves in Story Mode",
      "howto": "Hunt three alpha wolves in Story Mode"
    },
    {
      "id": 8,
      "imageId": 89,
      "cred": 30,
      "flags": 1,
      "label": "The Pro Adventurer",
      "description": "Finished Story Mode on the Medium difficulty setting",
      "howto": "Finish Story Mode on the Medium difficulty setting"
    },
    {
      "id": 9,
      "imageId": 90,
      "cred": 30,
      "flags": 1,
      "label": "There Is No Match For You!",
      "description": "Hunted three bears in Story Mode",
      "howto": "Hunt three bears in Story Mode"
    },
    {
      "id": 10,
      "imageId": 91,
      "cred": 30,
      "flags": 1,
      "label": "Cat Dominator",
      "description": "Hunted four cougars in Story Mode",
      "howto": "Hunt four cougars in Story Mode"
    },
    {
      "id": 11,
      "imageId": 92,
      "cred": 30,
      "flags": 1,
      "label": "Hunting Holds No Secrets",
      "description": "Finished three hunts in Story Mode",
      "howto": "Finish three hunts in Story Mode"
    },
    {
      "id": 13,
      "imageId": 93,
      "cred": 30,
      "flags": 1,
      "label": "In Your Face",
      "description": "Hunted 15 animals using Focus Shot in Story Mode",
      "howto": "Hunt 15 animals using Focus Shot in Story Mode"
    },
    {
      "id": 15,
      "imageId": 95,
      "cred": 30,
      "flags": 1,
      "label": "Off My Leg",
      "description": "Hunted three latching animals while in Story Mode or Shooting Galleries",
      "howto": "Hunt three latching animals while in Story Mode or Shooting Galleries"
    },
    {
      "id": 16,
      "imageId": 96,
      "cred": 30,
      "flags": 1,
      "label": "Hunting For Gold",
      "description": "Obtained gold medals in all Survival Shooting Galleries",
      "howto": "Obtain gold medals in all Survival Shooting Galleries"
    },
    {
      "id": 17,
      "imageId": 98,
      "cred": 30,
      "flags": 1,
      "label": "Keep Them Comin’",
      "description": "Obtained gold medals in all Quick Draw Shooting Galleries",
      "howto": "Obtain gold medals in all Quick Draw Shooting Galleries"
    },
    {
      "id": 20,
      "imageId": 99,
      "cred": 30,
      "flags": 1,
      "label": "The Super Semi",
      "description": "Hunted 10 animals with the semi auto rifle in Story Mode",
      "howto": "Hunt 10 animals with the semi auto rifle in Story Mode"
    },
    {
      "id": 21,
      "imageId": 100,
      "cred": 30,
      "flags": 1,
      "label": "The Bolt Connoisseur",
      "description": "Hunted 30 animals with the bolt action rifle in Story Mode",
      "howto": "Hunt 30 animals with the bolt action rifle in Story Mode"
    },
    {
      "id": 22,
      "imageId": 101,
      "cred": 30,
      "flags": 1,
      "label": "The Shotgun Master",
      "description": "Hunted 20 animals with the shotgun in Story Mode",
      "howto": "Hunt 20 animals with the shotgun in Story Mode"
    },
    {
      "id": 23,
      "imageId": 102,
      "cred": 20,
      "flags": 1,
      "label": "The Handgun Sheriff",
      "description": "Hunted 20 animals with the handgun in Story Mode",
      "howto": "Hunt 20 animals with the handgun in Story Mode"
    },
    {
      "id": 24,
      "imageId": 103,
      "cred": 20,
      "flags": 1,
      "label": "Hangman",
      "description": "Hunted 20 targets while hanging in Story Mode",
      "howto": "Hunt 20 targets while hanging in Story Mode"
    },
    {
      "id": 25,
      "imageId": 104,
      "cred": 30,
      "flags": 1,
      "label": "Pro Challenge",
      "description": "Won 10 Challenges",
      "howto": "Win 10 Challenges"
    },
    {
      "id": 26,
      "imageId": 105,
      "cred": 30,
      "flags": 1,
      "label": "A Good Explorer",
      "description": "Finished Story Mode on the Easy difficulty setting",
      "howto": "Finish Story Mode on the Easy difficulty setting"
    },
    {
      "id": 27,
      "imageId": 106,
      "cred": 20,
      "flags": 1,
      "label": "Bonus Master",
      "description": "Obtained six Perks in a single Shooting Gallery attempt",
      "howto": "Obtain six Perks in a single Shooting Gallery attempt"
    },
    {
      "id": 28,
      "imageId": 107,
      "cred": 30,
      "flags": 1,
      "label": "Serious Partner ",
      "description": "Finished five Co-op Survival Shooting Galleries",
      "howto": "Finish five Co-op Survival Shooting Galleries"
    },
    {
      "id": 29,
      "imageId": 108,
      "cred": 30,
      "flags": 1,
      "label": "Bulletproof",
      "description": "Hunted 30 animals in a row without dying in Story Mode",
      "howto": "Hunt 30 animals in a row without dying in Story Mode"
    },
    {
      "id": 30,
      "imageId": 109,
      "cred": 30,
      "flags": 1,
      "label": "Stay Away!",
      "description": "Successfully repeled 20 animals using melee attacks in Story Mode",
      "howto": "Successfully repel 20 animals using melee attacks in Story Mode"
    },
    {
      "id": 32,
      "imageId": 111,
      "cred": 20,
      "flags": 1,
      "label": "It's All About Diversity",
      "description": "Used four different Perks in a single Shooting Gallery attempt",
      "howto": "Use four different Perks in a single Shooting Gallery attempt"
    },
    {
      "id": 34,
      "imageId": 113,
      "cred": 30,
      "flags": 1,
      "label": "The Town At Last",
      "description": "Reached Jenner Station",
      "howto": "Reach Jenner Station"
    },
    {
      "id": 35,
      "imageId": 114,
      "cred": 20,
      "flags": 1,
      "label": "Find The Light",
      "description": "Exited the mines",
      "howto": "Exit the mines"
    },
    {
      "id": 36,
      "imageId": 115,
      "cred": 20,
      "flags": 1,
      "label": "Give It A Start",
      "description": "Started the cable car",
      "howto": "Start the cable car"
    },
    {
      "id": 37,
      "imageId": 116,
      "cred": 20,
      "flags": 1,
      "label": "Everyone Is Safe For Now!",
      "description": "Fought off the attackers at Jonah’s Cabin",
      "howto": "Fight off the attackers at Jonah’s Cabin"
    },
    {
      "id": 38,
      "imageId": 117,
      "cred": 20,
      "flags": 1,
      "label": "Here You Are!",
      "description": "Found Dr. West",
      "howto": "Find Dr. West"
    },
    {
      "id": 39,
      "imageId": 118,
      "cred": 20,
      "flags": 1,
      "label": "Rest For The Night",
      "description": "Reached Jonah’s Cabin",
      "howto": "Reach Jonah’s Cabin"
    },
    {
      "id": 40,
      "imageId": 119,
      "cred": 20,
      "flags": 1,
      "label": "Take The Plane Down",
      "description": "Landed the plane without hitting an obstacle",
      "howto": "Land the plane without hitting an obstacle"
    },
    {
      "id": 41,
      "imageId": 97,
      "cred": 30,
      "flags": 1,
      "label": "Gold All The Way",
      "description": "Obtained gold medals in all Trek Shooting Galleries",
      "howto": "Obtain gold medals in all Trek Shooting Galleries"
    },
    {
      "id": 42,
      "imageId": 94,
      "cred": 30,
      "flags": 1,
      "label": "Navigator",
      "description": "Finished all Shooting Galleries one time",
      "howto": "Finish all Shooting Galleries one time"
    },
    {
      "id": 43,
      "imageId": 112,
      "cred": 20,
      "flags": 1,
      "label": "Mush Mush Mush!",
      "description": "Successfully completed one dog sledding event without taking any damage ",
      "howto": "Successfully complete one dog sledding event without taking any damage  "
    }
  ]
}