{
  "achievementsPossible": 12,
  "credPossible": 200,
  "achievements": [
    {
      "id": 1,
      "imageId": 1,
      "cred": 6,
      "flags": 1,
      "label": "Lightning Rod",
      "description": "You completed the game with the Lightning.",
      "howto": "Complete the game with the Lightning."
    },
    {
      "id": 2,
      "imageId": 2,
      "cred": 7,
      "flags": 1,
      "label": "Mosquito Wing",
      "description": "You completed the game with the Mosquito.",
      "howto": "Complete the game with the Mosquito."
    },
    {
      "id": 3,
      "imageId": 3,
      "cred": 7,
      "flags": 1,
      "label": "Shinden Striker",
      "description": "You completed the game with the Shinden.",
      "howto": "Complete the game with the Shinden."
    },
    {
      "id": 4,
      "imageId": 4,
      "cred": 15,
      "flags": 1,
      "label": "Wingman",
      "description": "You completed 3 levels of the game while playing Co-Op.",
      "howto": "Complete 3 levels of the game while playing Co-Op."
    },
    {
      "id": 5,
      "imageId": 5,
      "cred": 10,
      "flags": 1,
      "label": "Concerted Combat",
      "description": "You destroyed 30 enemies using a Joint Strike.",
      "howto": "Destroy 30 enemies using a Joint Strike."
    },
    {
      "id": 6,
      "imageId": 6,
      "cred": 10,
      "flags": 1,
      "label": "Sharpshooter",
      "description": "You got a 90% percent or better accuracy rating.",
      "howto": "Get a 90% or better accuracy rating."
    },
    {
      "id": 7,
      "imageId": 7,
      "cred": 10,
      "flags": 1,
      "label": "Blitz",
      "description": "You completed the game on the Wing King difficulty setting.",
      "howto": "Complete the game on the Wing King difficulty setting."
    },
    {
      "id": 8,
      "imageId": 8,
      "cred": 10,
      "flags": 1,
      "label": "Fangs Out",
      "description": "You defeated all of the bosses with an A rating in one play-through.",
      "howto": "Defeat all of the bosses with an A rating in one play-through."
    },
    {
      "id": 9,
      "imageId": 9,
      "cred": 25,
      "flags": 1,
      "label": "Padlocked",
      "description": "You defeated all of the bosses with an S rating in one play-through.",
      "howto": "Defeat all of the bosses with an S rating in one play-through."
    },
    {
      "id": 10,
      "imageId": 10,
      "cred": 30,
      "flags": 1,
      "label": "Tiger",
      "description": "You collected 30 medals.",
      "howto": "Collect 30 medals."
    },
    {
      "id": 11,
      "imageId": 11,
      "cred": 30,
      "flags": 1,
      "label": "Shooter",
      "description": "You completed the game with over 200,000 points.",
      "howto": "Complete the game with over 200,000 points."
    },
    {
      "id": 12,
      "imageId": 12,
      "cred": 40,
      "flags": 1,
      "label": "Combat Ace",
      "description": "You completed the game with over 2,000,000 points.",
      "howto": "Complete the game with over 2,000,000 points.\r\n"
    }
  ]
}