{
  "achievementsPossible": 19,
  "credPossible": 400,
  "achievements": [
    {
      "id": 1,
      "imageId": 31,
      "cred": 40,
      "flags": 1,
      "label": "Goldmember",
      "description": "Got all Gold in the World Tour",
      "howto": "Get all Gold in the World Tour"
    },
    {
      "id": 13,
      "imageId": 36,
      "cred": 25,
      "flags": 1,
      "label": "The Velvet Cave",
      "description": "Got Gold in Valkenburg Event",
      "howto": "Get Gold in Valkenburg Event"
    },
    {
      "id": 14,
      "imageId": 32,
      "cred": 25,
      "flags": 1,
      "label": "Poutine anyone?",
      "description": "Got Gold in Quebec Event",
      "howto": "Get Gold in Quebec Event"
    },
    {
      "id": 15,
      "imageId": 33,
      "cred": 25,
      "flags": 1,
      "label": "Bigger is Better",
      "description": "Got Gold in St. Paul Event",
      "howto": "Get Gold in St. Paul Event"
    },
    {
      "id": 16,
      "imageId": 34,
      "cred": 25,
      "flags": 1,
      "label": "Down the hatch",
      "description": "Got Gold in Munich Event",
      "howto": "Get Gold in Munich Event"
    },
    {
      "id": 17,
      "imageId": 35,
      "cred": 25,
      "flags": 1,
      "label": "ARE you Stoked?",
      "description": "Got Gold in Åre Event",
      "howto": "Get Gold in Åre Event"
    },
    {
      "id": 18,
      "imageId": 37,
      "cred": 20,
      "flags": 1,
      "label": "Headache",
      "description": "Raced a total of 10 Versus races",
      "howto": "Race a total of 10 Versus races"
    },
    {
      "id": 19,
      "imageId": 38,
      "cred": 10,
      "flags": 1,
      "label": "Thunderstruck",
      "description": "Got powered up and performed a T-Pose over the Thor Statue",
      "howto": "Get powered up and perform a T-Pose over the Thor Statue"
    },
    {
      "id": 20,
      "imageId": 39,
      "cred": 5,
      "flags": 1,
      "label": "Powerthirst",
      "description": "Got powered up 5 times in 1 race",
      "howto": "Get powered up 5 times in 1 race"
    },
    {
      "id": 21,
      "imageId": 40,
      "cred": 20,
      "flags": 1,
      "label": "Energy Legs",
      "description": "Performed a total of 50 Powerlandings",
      "howto": "Perform a total of 50 Powerlandings"
    },
    {
      "id": 22,
      "imageId": 41,
      "cred": 20,
      "flags": 1,
      "label": "The Race",
      "description": "Performed 30 perfect starts",
      "howto": "Perform 30 perfect starts"
    },
    {
      "id": 23,
      "imageId": 42,
      "cred": 20,
      "flags": 1,
      "label": "Bully",
      "description": "Performed a total of 51 Takedowns",
      "howto": "Perform a total of 51 Takedowns"
    },
    {
      "id": 24,
      "imageId": 43,
      "cred": 40,
      "flags": 1,
      "label": "Best of the Best",
      "description": "#1 place in Overall leaderboard Event or Qualifier on any track",
      "howto": "#1 place in Overall leaderboard Event or Qualifier on any track"
    },
    {
      "id": 25,
      "imageId": 44,
      "cred": 35,
      "flags": 1,
      "label": "Boyscout",
      "description": "Collected all badges",
      "howto": "Collect all badges"
    },
    {
      "id": 26,
      "imageId": 45,
      "cred": 15,
      "flags": 1,
      "label": "Gonna make ya...",
      "description": "Performed 50 jumps in game",
      "howto": "Perform 50 jumps in game"
    },
    {
      "id": 27,
      "imageId": 46,
      "cred": 15,
      "flags": 1,
      "label": "Mr. Blaine",
      "description": "Performed 50 air tricks in game",
      "howto": "Perform 50 air tricks in game"
    },
    {
      "id": 28,
      "imageId": 47,
      "cred": 20,
      "flags": 1,
      "label": "The Broken Heart",
      "description": "Won races against 13 Ghosts ",
      "howto": "Win races against 13 Ghosts "
    },
    {
      "id": 29,
      "imageId": 48,
      "cred": 10,
      "flags": 1,
      "label": "Gives You Wings",
      "description": "Grabbed the Red Bull can on every track",
      "howto": "Grab the Red Bull can on every track"
    },
    {
      "id": 30,
      "imageId": 49,
      "cred": 5,
      "flags": 1,
      "label": "Respect!",
      "description": "Watched the credits",
      "howto": "Watch the credits"
    }
  ]
}