{
  "achievementsPossible": 50,
  "credPossible": 1000,
  "achievements": [
    {
      "id": 69,
      "imageId": 24,
      "cred": 10,
      "flags": 1,
      "label": "A Little Help From My Friends",
      "description": "Start a Story with a four player band.",
      "howto": "Start a Story with a four player band."
    },
    {
      "id": 70,
      "imageId": 25,
      "cred": 30,
      "flags": 1,
      "label": "All You Need Is Love",
      "description": "Five-star every song in The Beatles: Rock Band.",
      "howto": "Five-star every song in The Beatles: Rock Band."
    },
    {
      "id": 71,
      "imageId": 7,
      "cred": 10,
      "flags": 1,
      "label": "Don't Let Me Down",
      "description": "You saved a bandmate from failing!",
      "howto": ""
    },
    {
      "id": 72,
      "imageId": 8,
      "cred": 15,
      "flags": 1,
      "label": "All Together Now",
      "description": "Get a Guitar, Bass and Drum unison bonus on the songs listed on the Achievements screen.",
      "howto": "Get a Guitar, Bass and Drum unison bonus on the songs listed on the Achievements screen."
    },
    {
      "id": 73,
      "imageId": 34,
      "cred": 15,
      "flags": 1,
      "label": "In Seconds Flat",
      "description": "Maintain Beatlemania for 60 seconds.",
      "howto": "Maintain Beatlemania for 60 seconds."
    },
    {
      "id": 74,
      "imageId": 44,
      "cred": 10,
      "flags": 1,
      "label": "Shake It Up, Baby!",
      "description": "Use Beatlemania at least 5 times in a single song using either Bass or Guitar.",
      "howto": "Use Beatlemania at least 5 times in a single song using either Bass or Guitar."
    },
    {
      "id": 75,
      "imageId": 43,
      "cred": 10,
      "flags": 1,
      "label": "Eight Days A Week",
      "description": "Get an 8x Band Multiplier.",
      "howto": "Get an 8x Band Multiplier."
    },
    {
      "id": 76,
      "imageId": 32,
      "cred": 20,
      "flags": 1,
      "label": "Like a Million Suns",
      "description": "Score 1,000,000 points in a single song.",
      "howto": "Score 1,000,000 points in a single song."
    },
    {
      "id": 77,
      "imageId": 9,
      "cred": 10,
      "flags": 1,
      "label": "Authenticity",
      "description": "Finish any song as a Bassist with Lefty Mode turned on, hitting at least 50% of the notes.",
      "howto": "Finish any song as a Bassist with Lefty Mode turned on, hitting at least 50% of the notes."
    },
    {
      "id": 78,
      "imageId": 11,
      "cred": 20,
      "flags": 1,
      "label": "How Could I Dance with Another?",
      "description": "Score 100% playing I Saw Her Standing There on Expert Bass.",
      "howto": "Score 100% playing I Saw Her Standing There on Expert Bass."
    },
    {
      "id": 79,
      "imageId": 18,
      "cred": 15,
      "flags": 1,
      "label": "Day Tripper",
      "description": "Start a new Story save file and reach the credits within 24 hours.",
      "howto": "Start a new Story save file and reach the credits within 24 hours."
    },
    {
      "id": 80,
      "imageId": 14,
      "cred": 35,
      "flags": 1,
      "label": "I GOT BLISTERS ON MY FINGERS!",
      "description": "Score 100% notes hit on Helter Skelter playing Expert Drums.",
      "howto": "Score 100% notes hit on Helter Skelter playing Expert Drums."
    },
    {
      "id": 81,
      "imageId": 46,
      "cred": 5,
      "flags": 1,
      "label": "Let's Get Some Levels",
      "description": "Calibrate your system for the optimal experience.",
      "howto": "Calibrate your system for the optimal experience."
    },
    {
      "id": 82,
      "imageId": 29,
      "cred": 35,
      "flags": 1,
      "label": "Better Free Your Mind Instead",
      "description": "Earn Expert gold stars on the 4 songs displayed on the Achievements screen.",
      "howto": "Earn Expert gold stars on the 4 songs displayed on the Achievements screen."
    },
    {
      "id": 83,
      "imageId": 35,
      "cred": 35,
      "flags": 1,
      "label": "Things That Money Just Can't Buy",
      "description": "Earn Expert gold stars on the 4 songs displayed on the Achievements screen.",
      "howto": "Earn Expert gold stars on the 4 songs displayed on the Achievements screen."
    },
    {
      "id": 84,
      "imageId": 26,
      "cred": 35,
      "flags": 1,
      "label": "No One's Frightened of Playing",
      "description": "Earn Expert gold stars on the 4 songs displayed on the Achievements screen.",
      "howto": "Earn Expert gold stars on the 4 songs displayed on the Achievements screen."
    },
    {
      "id": 85,
      "imageId": 41,
      "cred": 35,
      "flags": 1,
      "label": "And the Band Begins to Play",
      "description": "Earn Expert gold stars on the 4 songs displayed on the Achievements screen.",
      "howto": "Earn Expert gold stars on the 4 songs displayed on the Achievements screen."
    },
    {
      "id": 86,
      "imageId": 47,
      "cred": 25,
      "flags": 1,
      "label": "Elmore James Got Nothing on This",
      "description": "Get 85% or better on all solos in The Beatles: Rock Band on Expert Guitar.",
      "howto": "Get 85% or better on all solos in The Beatles: Rock Band on Expert Guitar."
    },
    {
      "id": 87,
      "imageId": 48,
      "cred": 30,
      "flags": 1,
      "label": "Oh Yeah, All Right!",
      "description": "Hit 100% of the notes in the solo of The End on Hard or Expert Guitar.",
      "howto": "Hit 100% of the notes in the solo of The End on Hard or Expert Guitar."
    },
    {
      "id": 88,
      "imageId": 49,
      "cred": 30,
      "flags": 1,
      "label": "Still My Guitar Gently Weeps",
      "description": "Hit 100% of the notes in either of the solos in While My Guitar Gently Weeps on Expert Guitar.",
      "howto": "Hit 100% of the notes in either of the solos in While My Guitar Gently Weeps on Expert Guitar."
    },
    {
      "id": 89,
      "imageId": 50,
      "cred": 30,
      "flags": 1,
      "label": "What I Got I'll Give to You",
      "description": "Hit 100% of the notes in the solo of Can't Buy Me Love on Hard or Expert Guitar.",
      "howto": "Hit 100% of the notes in the solo of Can't Buy Me Love on Hard or Expert Guitar."
    },
    {
      "id": 90,
      "imageId": 51,
      "cred": 35,
      "flags": 1,
      "label": "Are You Gonna Be in My Dreams?",
      "description": "Hit 100% of the notes in the solo of The End on Expert Drums.",
      "howto": "Hit 100% of the notes in the solo of The End on Expert Drums."
    },
    {
      "id": 91,
      "imageId": 28,
      "cred": 25,
      "flags": 1,
      "label": "Sun, Sun, Sun Here It Comes",
      "description": "Get a 350-note streak playing Here Comes The Sun on Guitar.",
      "howto": "Get a 350-note streak playing Here Comes The Sun on Guitar."
    },
    {
      "id": 92,
      "imageId": 22,
      "cred": 25,
      "flags": 1,
      "label": "Goo Goo G'joob",
      "description": "Get a 550-note streak playing I Am The Walrus on Drums.",
      "howto": "Get a 550-note streak playing I Am The Walrus on Drums."
    },
    {
      "id": 93,
      "imageId": 23,
      "cred": 20,
      "flags": 1,
      "label": "The Words You Long to Hear",
      "description": "Earn a five-star rating for the songs on the Achievements screen as a Vocalist on Hard or Expert.",
      "howto": "Earn a five-star rating for the songs on the Achievements screen as a Vocalist on Hard or Expert."
    },
    {
      "id": 94,
      "imageId": 20,
      "cred": 25,
      "flags": 1,
      "label": "She Still Sings It with the Band",
      "description": "Get all possible Double Fab ratings for every song with 2 vocal parts.",
      "howto": "Get all possible Double Fab ratings for every song with 2 vocal parts."
    },
    {
      "id": 95,
      "imageId": 55,
      "cred": 25,
      "flags": 1,
      "label": "All the Children Sing",
      "description": "Get all possible Triple Fab ratings for every song with 3 vocal parts.",
      "howto": "Get all possible Triple Fab ratings for every song with 3 vocal parts."
    },
    {
      "id": 96,
      "imageId": 31,
      "cred": 25,
      "flags": 1,
      "label": "Won't You Come Out to Play?",
      "description": "Play Dear Prudence on Expert Guitar, playing all hammer-ons and pull-offs without strumming.",
      "howto": "Play Dear Prudence on Expert Guitar, playing all hammer-ons and pull-offs without strumming."
    },
    {
      "id": 97,
      "imageId": 15,
      "cred": 10,
      "flags": 1,
      "label": "Liverpool Lads",
      "description": "Play a song in The Cavern '63 in Story.",
      "howto": "Play a song in The Cavern '63 in Story."
    },
    {
      "id": 98,
      "imageId": 40,
      "cred": 10,
      "flags": 1,
      "label": "Really Big Show",
      "description": "Play a song on The Ed Sullivan Show '64 in Story.",
      "howto": "Play a song on The Ed Sullivan Show '64 in Story."
    },
    {
      "id": 99,
      "imageId": 45,
      "cred": 10,
      "flags": 1,
      "label": "Stadium Superstars",
      "description": "Play a song in Shea Stadium '65 in Story.",
      "howto": "Play a song in Shea Stadium '65 in Story."
    },
    {
      "id": 100,
      "imageId": 54,
      "cred": 10,
      "flags": 1,
      "label": "The Final Tour",
      "description": "Play a song in Budokan '66 in Story.",
      "howto": "Play a song in Budokan '66 in Story."
    },
    {
      "id": 101,
      "imageId": 52,
      "cred": 10,
      "flags": 1,
      "label": "In the Studio",
      "description": "Play a song in Abbey Road, Studio 2 in Story. ",
      "howto": "Play a song in Abbey Road, Studio 2 in Story. "
    },
    {
      "id": 102,
      "imageId": 30,
      "cred": 20,
      "flags": 1,
      "label": "Passed the Audition",
      "description": "\"I'd like to say thank you on behalf of the group and myself and I hope we passed the audition!\"\r\n",
      "howto": "Play all the songs on the Apple Corps Rooftop '69 in Story."
    },
    {
      "id": 103,
      "imageId": 53,
      "cred": 10,
      "flags": 1,
      "label": "The Love You Make",
      "description": "Complete the Encore in Story.",
      "howto": "Complete the Encore in Story."
    },
    {
      "id": 104,
      "imageId": 16,
      "cred": 10,
      "flags": 1,
      "label": "Mr. K Will Challenge the World",
      "description": "Finish all 8 Chapter Challenges.",
      "howto": "Finish all 8 Chapter Challenges."
    },
    {
      "id": 107,
      "imageId": 17,
      "cred": 15,
      "flags": 1,
      "label": "Toppermost of the Poppermost",
      "description": "Finish all 8 Chapter Challenges with full star ratings.",
      "howto": "Finish all 8 Chapter Challenges with full star ratings."
    },
    {
      "id": 108,
      "imageId": 37,
      "cred": 10,
      "flags": 1,
      "label": "I Saw the Photograph",
      "description": "Get your first Beatles Photo.",
      "howto": "Get your first Beatles Photo."
    },
    {
      "id": 109,
      "imageId": 38,
      "cred": 10,
      "flags": 1,
      "label": "In Penny Lane There is a Barber",
      "description": "Get half of the Beatles Photos.",
      "howto": ""
    },
    {
      "id": 110,
      "imageId": 36,
      "cred": 20,
      "flags": 1,
      "label": "Images of Broken Light",
      "description": "Get all the Beatles Photos.",
      "howto": ""
    },
    {
      "id": 111,
      "imageId": 13,
      "cred": 15,
      "flags": 1,
      "label": "Teachers Who Taught Me WERE Cool",
      "description": "Complete all the Beatle Beats.",
      "howto": "Complete all the Beatle Beats."
    },
    {
      "id": 112,
      "imageId": 12,
      "cred": 25,
      "flags": 1,
      "label": "That's It! You've Got It!",
      "description": "Get a 350-note streak playing Hey Bulldog on Bass.",
      "howto": "Get a 350-note streak playing Hey Bulldog on Bass."
    },
    {
      "id": 113,
      "imageId": 39,
      "cred": 25,
      "flags": 1,
      "label": "Pick a Moon Dog",
      "description": "Play Dig A Pony on Expert Guitar, playing all hammer-ons and pull-offs without strumming.",
      "howto": "Play Dig A Pony on Expert Guitar, playing all hammer-ons and pull-offs without strumming."
    },
    {
      "id": 114,
      "imageId": 42,
      "cred": 20,
      "flags": 1,
      "label": "Doing the Best That You Can!",
      "description": "Complete all the Drum Lessons.",
      "howto": "Complete all the Drum Lessons."
    },
    {
      "id": 115,
      "imageId": 27,
      "cred": 20,
      "flags": 1,
      "label": "Gear Guitarist",
      "description": "Earn a Guitar Career score of 1,000,000.",
      "howto": "Earn a Guitar Career score of 1,000,000."
    },
    {
      "id": 116,
      "imageId": 10,
      "cred": 20,
      "flags": 1,
      "label": "Ace Bassist",
      "description": "Earn a Bass Career score of 1,000,000.",
      "howto": "Earn a Bass Career score of 1,000,000."
    },
    {
      "id": 117,
      "imageId": 21,
      "cred": 20,
      "flags": 1,
      "label": "Dazzling Drummer",
      "description": "Earn a Drum Career score of 1,000,000.",
      "howto": "Earn a Drum Career score of 1,000,000."
    },
    {
      "id": 118,
      "imageId": 56,
      "cred": 20,
      "flags": 1,
      "label": "Sensational Singers",
      "description": "Earn a Vocal Harmonies Career score of 1,000,000.",
      "howto": "Earn a Vocal Harmonies Career score of 1,000,000."
    },
    {
      "id": 119,
      "imageId": 19,
      "cred": 25,
      "flags": 1,
      "label": "Do Right by Me",
      "description": "Get a 350-note streak playing Ticket To Ride on Guitar.",
      "howto": "Get a 350-note streak playing Ticket To Ride on Guitar."
    },
    {
      "id": 120,
      "imageId": 33,
      "cred": 25,
      "flags": 1,
      "label": "We Would Be So Happy, You and Me",
      "description": "Play Octopus's Garden on Expert Guitar, playing all hammer-ons and pull-offs without strumming.",
      "howto": "Play Octopus's Garden on Expert Guitar, playing all hammer-ons and pull-offs without strumming."
    }
  ]
}