{
  "achievementsPossible": 50,
  "credPossible": 1000,
  "achievements": [
    {
      "id": 2,
      "imageId": 1,
      "cred": 10,
      "flags": 1,
      "label": "Completed Single Agent",
      "description": "Completed Single Player Game on Agent Difficulty Setting",
      "howto": ""
    },
    {
      "id": 3,
      "imageId": 3,
      "cred": 25,
      "flags": 1,
      "label": "Completed Single Perfect Agent",
      "description": "Completed Single Player Game on Perfect Agent Difficulty Setting",
      "howto": ""
    },
    {
      "id": 4,
      "imageId": 2,
      "cred": 15,
      "flags": 1,
      "label": "Completed Single Secret Agent",
      "description": "Completed Single Player Game on Secret Agent Difficulty Setting",
      "howto": ""
    },
    {
      "id": 5,
      "imageId": 4,
      "cred": 50,
      "flags": 1,
      "label": "Completed Single Dark Agent",
      "description": "Completed Single Player Game on Dark Agent Difficulty Setting",
      "howto": ""
    },
    {
      "id": 6,
      "imageId": 5,
      "cred": 10,
      "flags": 1,
      "label": "Completed Co-Op Agent",
      "description": "Completed Co-op Game On Agent Difficulty Setting",
      "howto": ""
    },
    {
      "id": 7,
      "imageId": 6,
      "cred": 15,
      "flags": 1,
      "label": "Completed Co-Op Secret Agent",
      "description": "Completed Co-Op Game On Secret Agent Difficulty Setting",
      "howto": ""
    },
    {
      "id": 8,
      "imageId": 7,
      "cred": 25,
      "flags": 1,
      "label": "Completed Co-Op Perfect Agent",
      "description": "Completed Co-Op Game On Perfect Agent Difficulty Setting",
      "howto": ""
    },
    {
      "id": 9,
      "imageId": 8,
      "cred": 50,
      "flags": 1,
      "label": "Completed Co-Op Dark Agent",
      "description": "Completed Co-Op Game On Dark Agent Difficulty Setting",
      "howto": ""
    },
    {
      "id": 10,
      "imageId": 12,
      "cred": 10,
      "flags": 6,
      "label": "Played 10 Deathmatch Games",
      "description": "Multiplayer Award. Played in 10 DeathMatch Games.",
      "howto": ""
    },
    {
      "id": 12,
      "imageId": 13,
      "cred": 20,
      "flags": 6,
      "label": "Played 100 Deathmatch Games",
      "description": "Multiplayer Award. Played in 100 DeathMatch Games.",
      "howto": ""
    },
    {
      "id": 14,
      "imageId": 14,
      "cred": 30,
      "flags": 6,
      "label": "Played 1000 Deathmatch Games",
      "description": "Multiplayer Award. Played in 1000 DeathMatch Games.",
      "howto": ""
    },
    {
      "id": 15,
      "imageId": 15,
      "cred": 10,
      "flags": 6,
      "label": "Played 10 DarkOps Games",
      "description": "Multiplayer Award. Played in 10 DarkOps Games.",
      "howto": ""
    },
    {
      "id": 17,
      "imageId": 16,
      "cred": 20,
      "flags": 6,
      "label": "Played 100 DarkOps Games",
      "description": "Multiplayer Award. Played in 100 DarkOps Games.",
      "howto": ""
    },
    {
      "id": 19,
      "imageId": 17,
      "cred": 30,
      "flags": 6,
      "label": "Played 1000 DarkOps Games",
      "description": "Multiplayer Award. Played in 1000 DarkOps Games.",
      "howto": ""
    },
    {
      "id": 20,
      "imageId": 30,
      "cred": 10,
      "flags": 6,
      "label": "10 Kills in Killcount",
      "description": "DeathMatch Award. Achieved 10 Kills in DeathMatch: Killcount.",
      "howto": ""
    },
    {
      "id": 22,
      "imageId": 31,
      "cred": 20,
      "flags": 6,
      "label": "100 Kills in Killcount",
      "description": "DeathMatch Award. Achieved 100 Kills in DeathMatch: Killcount.",
      "howto": ""
    },
    {
      "id": 24,
      "imageId": 32,
      "cred": 30,
      "flags": 6,
      "label": "1000 Kills in Killcount",
      "description": "DeathMatch Award. Achieved 1000 Kills in DeathMatch: Killcount.",
      "howto": ""
    },
    {
      "id": 25,
      "imageId": 45,
      "cred": 10,
      "flags": 6,
      "label": "10 Kills in Team Killcount",
      "description": "DeathMatch Award. Achieved 10 Kills in DeathMatch: Team Killcount.",
      "howto": ""
    },
    {
      "id": 27,
      "imageId": 46,
      "cred": 20,
      "flags": 6,
      "label": "100 Kills in Team Killcount",
      "description": "DeathMatch Award. Achieved 100 Kills in DeathMatch: Team Killcount.",
      "howto": ""
    },
    {
      "id": 29,
      "imageId": 47,
      "cred": 30,
      "flags": 6,
      "label": "1000 Kills in Team Killcount",
      "description": "DeathMatch Award. Achieved 1000 Kills in DeathMatch: Team Killcount.",
      "howto": ""
    },
    {
      "id": 30,
      "imageId": 9,
      "cred": 10,
      "flags": 6,
      "label": "10 Flags Captured",
      "description": "DeathMatch Award. Captured 10 Flags in DeathMatch: Capture the Flag.",
      "howto": ""
    },
    {
      "id": 32,
      "imageId": 10,
      "cred": 20,
      "flags": 6,
      "label": "100 Flags Captured",
      "description": "DeathMatch Award. Captured 100 Flags in DeathMatch: Capture the Flag.",
      "howto": ""
    },
    {
      "id": 40,
      "imageId": 27,
      "cred": 10,
      "flags": 6,
      "label": "10 Players Infected",
      "description": "DarkOps Award. Infected 10 Players in DarkOps: Infection.",
      "howto": ""
    },
    {
      "id": 42,
      "imageId": 28,
      "cred": 20,
      "flags": 6,
      "label": "100 Players Infected",
      "description": "DarkOps Award. Infected 100 Players in DarkOps: Infection.",
      "howto": ""
    },
    {
      "id": 44,
      "imageId": 29,
      "cred": 30,
      "flags": 6,
      "label": "1000 Players Infected",
      "description": "DarkOps Award. Infected 1000 Players in DarkOps: Infection.",
      "howto": ""
    },
    {
      "id": 45,
      "imageId": 48,
      "cred": 10,
      "flags": 6,
      "label": "10 Territories Held",
      "description": "DeathMatch Award. Scored 10 Points in DeathMatch: Territorial Gains.",
      "howto": ""
    },
    {
      "id": 47,
      "imageId": 49,
      "cred": 20,
      "flags": 6,
      "label": "100 Territories Held",
      "description": "DeathMatch Award. Scored 100 Points in DeathMatch: Territorial Gains.",
      "howto": ""
    },
    {
      "id": 55,
      "imageId": 18,
      "cred": 10,
      "flags": 6,
      "label": "10 Rounds Survived",
      "description": "DarkOps Award. Survived 10 Rounds of DarkOps: Eradication.",
      "howto": ""
    },
    {
      "id": 57,
      "imageId": 19,
      "cred": 20,
      "flags": 6,
      "label": "100 Rounds Survived",
      "description": "DarkOps Award. Survived 100 Rounds of DarkOps: Eradication.",
      "howto": ""
    },
    {
      "id": 59,
      "imageId": 20,
      "cred": 30,
      "flags": 6,
      "label": "1000 Rounds Survived",
      "description": "DarkOps Award. Survived 1000 Rounds of DarkOps: Eradication.",
      "howto": ""
    },
    {
      "id": 60,
      "imageId": 39,
      "cred": 10,
      "flags": 6,
      "label": "10,000 CR Property Destroyed",
      "description": "DarkOps Award. Destroyed 10K CR of property in DarksOps: Sabotage.",
      "howto": ""
    },
    {
      "id": 62,
      "imageId": 40,
      "cred": 20,
      "flags": 6,
      "label": "100,000 CR Property Destroyed",
      "description": "DarkOps Award. Destroyed 100K CR of property in DarksOps: Sabotage.",
      "howto": ""
    },
    {
      "id": 65,
      "imageId": 36,
      "cred": 10,
      "flags": 6,
      "label": "10 Minutes Survived",
      "description": "DarkOps Award. Survived for 10 minutes in DarkOps: Onslaught.",
      "howto": ""
    },
    {
      "id": 67,
      "imageId": 37,
      "cred": 20,
      "flags": 6,
      "label": "100 Minutes Survived",
      "description": "DarkOps Award. Survived for 100 minutes in DarkOps: Onslaught.",
      "howto": ""
    },
    {
      "id": 85,
      "imageId": 42,
      "cred": 10,
      "flags": 6,
      "label": "10 Sniper Kills",
      "description": "Expert Kill Award. Achieved 10 Kills with a Sniper Rifle over all multiplayer games played.",
      "howto": ""
    },
    {
      "id": 87,
      "imageId": 43,
      "cred": 20,
      "flags": 6,
      "label": "100 Sniper Kills",
      "description": "Expert Kill Award. Achieved 100 Kills with a Sniper Rifle over all multiplayer games played.",
      "howto": ""
    },
    {
      "id": 89,
      "imageId": 44,
      "cred": 30,
      "flags": 6,
      "label": "1000 Sniper Kills",
      "description": "Expert Kill Award. Achieved 1000 Kills with a Sniper Rifle over all multiplayer games played.",
      "howto": ""
    },
    {
      "id": 100,
      "imageId": 24,
      "cred": 10,
      "flags": 6,
      "label": "10 Headshot Kills",
      "description": "Expert Kill Award. Achieved 10 Headshot Kills over all multiplayer games played.",
      "howto": ""
    },
    {
      "id": 102,
      "imageId": 25,
      "cred": 20,
      "flags": 6,
      "label": "100 Headshot Kills",
      "description": "Expert Kill Award. Achieved 100 Headshot Kills over all multiplayer games played.",
      "howto": ""
    },
    {
      "id": 104,
      "imageId": 26,
      "cred": 30,
      "flags": 6,
      "label": "1000 Headshot Kills",
      "description": "Expert Kill Award. Achieved 1000 Headshot Kills over all multiplayer games played.",
      "howto": ""
    },
    {
      "id": 110,
      "imageId": 33,
      "cred": 10,
      "flags": 6,
      "label": "10 Melee Kills",
      "description": "Expert Kill Award. Achieved 10 Melee Kills (armed or unarmed) over all multiplayer games played.",
      "howto": ""
    },
    {
      "id": 112,
      "imageId": 34,
      "cred": 20,
      "flags": 6,
      "label": "100 Melee Kills",
      "description": "Expert Kill Award. Achieved 100 Melee Kills (armed or unarmed) over all multiplayer games played.",
      "howto": ""
    },
    {
      "id": 114,
      "imageId": 35,
      "cred": 30,
      "flags": 6,
      "label": "1000 Melee Kills",
      "description": "Expert Kill Award. Achieved 1000 Melee Kills (armed or unarmed) over all multiplayer games played.",
      "howto": ""
    },
    {
      "id": 127,
      "imageId": 21,
      "cred": 10,
      "flags": 6,
      "label": "10 Explosive Kills",
      "description": "Expert Kill Award. Achieved 10 Explosive Kills over all multiplayer games played.",
      "howto": ""
    },
    {
      "id": 128,
      "imageId": 22,
      "cred": 20,
      "flags": 6,
      "label": "100 Explosive Kills",
      "description": "Expert Kill Award. Achieved 100 Explosive Kills over all multiplayer games played.",
      "howto": ""
    },
    {
      "id": 129,
      "imageId": 23,
      "cred": 30,
      "flags": 6,
      "label": "1000 Explosive Kills",
      "description": "Expert Kill Award. Achieved 1000 Explosive Kills over all multiplayer games played.",
      "howto": ""
    },
    {
      "id": 130,
      "imageId": 41,
      "cred": 15,
      "flags": 1,
      "label": "1 Co-op Mission On Dark Agent",
      "description": "Completed One Co-op Mission On Dark Agent",
      "howto": ""
    },
    {
      "id": 131,
      "imageId": 50,
      "cred": 25,
      "flags": 1,
      "label": "5 Co-op Missions On Dark Agent",
      "description": "Completed Five Co-op Missions On Dark Agent",
      "howto": ""
    },
    {
      "id": 132,
      "imageId": 11,
      "cred": 15,
      "flags": 1,
      "label": "1 Solo Mission On Dark Agent",
      "description": "Completed One Single Player Mission On Dark Agent",
      "howto": ""
    },
    {
      "id": 133,
      "imageId": 38,
      "cred": 25,
      "flags": 1,
      "label": "5 Solo Missions On Dark Agent",
      "description": "Completed Five Single Player Missions On Dark Agent",
      "howto": ""
    }
  ]
}