[
  {
    "titleId": 1480659441,
    "largeId": 131072,
    "smallId": 65536,
    "commonId": 0
  },
  {
    "titleId": 1480659441,
    "largeId": 131073,
    "smallId": 65537,
    "commonId": 1
  }
]