{
  "achievementsPossible": 30,
  "credPossible": 400,
  "achievements": [
    {
      "id": 1,
      "imageId": 1,
      "cred": 5,
      "flags": 4,
      "label": "Serious case of Kleptomania",
      "description": "Ripped your first costume off a dead bear.",
      "howto": "Steal your first costume."
    },
    {
      "id": 2,
      "imageId": 2,
      "cred": 5,
      "flags": 3,
      "label": "Deranged Collector",
      "description": "Found, unlocked & bought 25 items. (Costumes & Weapons)",
      "howto": "Find, unlock and buy 25 items. (Costumes & Weapons)"
    },
    {
      "id": 3,
      "imageId": 3,
      "cred": 5,
      "flags": 3,
      "label": "Crazed Gatherer",
      "description": "Found, unlocked & bought 50 items. (Costumes & Weapons)",
      "howto": "Find, unlock and buy 50 items. (Costumes & Weapons)"
    },
    {
      "id": 4,
      "imageId": 4,
      "cred": 10,
      "flags": 3,
      "label": "Insane Pack Rat",
      "description": "Found, unlocked & bought 100 items. (Costumes & Weapons)",
      "howto": "Find, unlock and buy 100 items. (Costumes & Weapons)"
    },
    {
      "id": 5,
      "imageId": 5,
      "cred": 20,
      "flags": 3,
      "label": "Demented Hoarder",
      "description": "Found, unlocked & bought 200 items. (Costumes & Weapons)",
      "howto": "Find, unlock and buy 200 items. (Costumes & Weapons)"
    },
    {
      "id": 6,
      "imageId": 6,
      "cred": 30,
      "flags": 1,
      "label": "Jack of all Threads",
      "description": "Found, unlocked & bought all costumes.",
      "howto": "Find, unlock and buy all the costumes."
    },
    {
      "id": 7,
      "imageId": 7,
      "cred": 20,
      "flags": 1,
      "label": "Armed to the Eyelids",
      "description": "Found, unlocked & bought all weapons.",
      "howto": "Find, unlock and buy all the weapons."
    },
    {
      "id": 8,
      "imageId": 8,
      "cred": 5,
      "flags": 4,
      "label": "The Naked Nakedness Award",
      "description": "Mastered your first costume or weapon.",
      "howto": "Master your first costume or weapon."
    },
    {
      "id": 9,
      "imageId": 9,
      "cred": 5,
      "flags": 4,
      "label": "The Velour Top Hat Award",
      "description": "Mastered 25 items. (Costumes & Weapons)",
      "howto": "Master 25 items. (Costumes & Weapons)"
    },
    {
      "id": 10,
      "imageId": 10,
      "cred": 5,
      "flags": 4,
      "label": "The Frilly Shirt Award",
      "description": "Mastered 50 items. (Costumes & Weapons)",
      "howto": "Master 50 items. (Costumes & Weapons)"
    },
    {
      "id": 11,
      "imageId": 11,
      "cred": 10,
      "flags": 4,
      "label": "The Chrome Thong Award ",
      "description": "Mastered 100 items. (Costumes & Weapons)",
      "howto": "Master 100 items. (Costumes & Weapons)"
    },
    {
      "id": 12,
      "imageId": 12,
      "cred": 20,
      "flags": 4,
      "label": "The Mustache Award",
      "description": "Way to go! Mastered 200 items! (Costumes & Weapons)",
      "howto": "Master 200 items. (Costumes & Weapons)"
    },
    {
      "id": 13,
      "imageId": 27,
      "cred": 30,
      "flags": 1,
      "label": "Master ALL the PANTS! -You",
      "description": "You really love those pants of yours and all the other costumes! Bravo on mastering them all!",
      "howto": "Master all costumes."
    },
    {
      "id": 14,
      "imageId": 28,
      "cred": 20,
      "flags": 1,
      "label": "There’s “Glad” in “Gladiator”",
      "description": "A lot of Fluff went into this achievement! Mastered all weapons...you nutter!",
      "howto": "Master all weapons."
    },
    {
      "id": 15,
      "imageId": 29,
      "cred": 5,
      "flags": 2,
      "label": "Naughtinator",
      "description": "Reached level 25.",
      "howto": "Reach level 25."
    },
    {
      "id": 16,
      "imageId": 34,
      "cred": 5,
      "flags": 2,
      "label": "Juggernaughty",
      "description": "Reached level 50.",
      "howto": "Reach level 50."
    },
    {
      "id": 17,
      "imageId": 30,
      "cred": 5,
      "flags": 2,
      "label": "Naughtomitron",
      "description": "Reached Level 75.",
      "howto": "Reach level 75."
    },
    {
      "id": 18,
      "imageId": 35,
      "cred": 10,
      "flags": 2,
      "label": "Naughtiness Incarnated",
      "description": "Reached Level 100. Naughty!",
      "howto": "Reach level 100."
    },
    {
      "id": 19,
      "imageId": 31,
      "cred": 10,
      "flags": 4,
      "label": "We all hate Cuddles",
      "description": "Killed your first target properly and lived to tell the tale.",
      "howto": "Kill your first target properly and live to tell the tale."
    },
    {
      "id": 20,
      "imageId": 36,
      "cred": 15,
      "flags": 6,
      "label": "Crossed off",
      "description": "Cleared half of the Target List.",
      "howto": "Clear half of the Target List."
    },
    {
      "id": 21,
      "imageId": 37,
      "cred": 25,
      "flags": 1,
      "label": "A lot of Red Ink",
      "description": "Cleared the Target List. Well done.",
      "howto": "Clear the Target List."
    },
    {
      "id": 22,
      "imageId": 32,
      "cred": 5,
      "flags": 4,
      "label": "Shinier than ever",
      "description": "Got your first Naughty Cup!",
      "howto": "Get your first Naughty Cup!"
    },
    {
      "id": 23,
      "imageId": 33,
      "cred": 5,
      "flags": 4,
      "label": "Trophyriffic!",
      "description": "Got either 18 Bronze, 6 Silver, 2 Gold or 1 Platinum Naughty Cups.",
      "howto": "Get either 18 Bronze, 6 Silver, 2 Gold or 1 Platinum Naughty Cups."
    },
    {
      "id": 24,
      "imageId": 13,
      "cred": 10,
      "flags": 4,
      "label": "Trophyolic!",
      "description": "Got either 24 Bronze, 18 Silver, 8 Gold Naughty Cups or 4 Platinum Naughty Cups.",
      "howto": "Get either 24 Bronze, 18 Silver, 8 Gold Naughty Cups or 4 Platinum Naughty Cups."
    },
    {
      "id": 25,
      "imageId": 14,
      "cred": 15,
      "flags": 4,
      "label": "Trophreaking!",
      "description": "Got either 36 Bronze, 24 Silver, 18 Gold or 8 Platinum Naughty Cups.",
      "howto": "Get either 36 Bronze, 24 Silver, 18 Gold or 8 Platinum Naughty Cups."
    },
    {
      "id": 26,
      "imageId": 15,
      "cred": 20,
      "flags": 4,
      "label": "Trophabulous!",
      "description": "Got either 36 Silver, 24 Gold or 18 Platinum Naughty Cups.",
      "howto": "Get either 36 Silver, 24 Gold or 18 Platinum Naughty Cups."
    },
    {
      "id": 27,
      "imageId": 16,
      "cred": 30,
      "flags": 4,
      "label": "Trophenomenal!",
      "description": "Got either 36 Gold or 24 Platinum Naughty Cups.",
      "howto": "Get either 36 Gold or 24 Platinum Naughty Cups."
    },
    {
      "id": 28,
      "imageId": 17,
      "cred": 35,
      "flags": 1,
      "label": "The platinums of perfectitude!",
      "description": "To celebrate your rockitude, here’s an achievement for getting 36 Platinum Naughty Cups. Insane!",
      "howto": "Get 36 Platinum Naughty Cups."
    },
    {
      "id": 29,
      "imageId": 18,
      "cred": 5,
      "flags": 4,
      "label": "Expert Bonus-objectiver",
      "description": "Completed the 3 bonus objectives of an area.",
      "howto": "Complete the 3 bonus objectives of an area."
    },
    {
      "id": 30,
      "imageId": 40,
      "cred": 10,
      "flags": 4,
      "label": "Naughtylionnaire",
      "description": "Got a million coins…why aren’t you buying anything?!",
      "howto": "Get a million coins."
    }
  ]
}