{
  "achievementsPossible": 46,
  "credPossible": 1000,
  "achievements": [
    {
      "id": 1,
      "imageId": 1,
      "cred": 1,
      "flags": 1,
      "label": "Style Master",
      "description": "Campaign: Perform a GREAT take off or a PERFECT landing on the normal hill!",
      "howto": "Campaign: Perform a GREAT take off or a PERFECT landing on the normal hill!"
    },
    {
      "id": 2,
      "imageId": 2,
      "cred": 1,
      "flags": 1,
      "label": "Speed Junkie",
      "description": "Campaign: Go faster than 155 km/h in Downhill!",
      "howto": "Campaign: Go faster than 155 km/h in Downhill!"
    },
    {
      "id": 3,
      "imageId": 3,
      "cred": 1,
      "flags": 1,
      "label": "Eagle Eye",
      "description": "Campaign: In Curling, shoot the rear stone out of the house without touching the front one!",
      "howto": "Campaign: In Curling, shoot the rear stone out of the house without touching the front one!"
    },
    {
      "id": 4,
      "imageId": 4,
      "cred": 1,
      "flags": 1,
      "label": "Finger Stroboscope",
      "description": "Campaign: Hit 20 targets at the Biathlon shooting! The counter resets every 5 seconds.",
      "howto": "Campaign: Hit 20 targets at the Biathlon shooting! The counter resets every 5 seconds."
    },
    {
      "id": 5,
      "imageId": 5,
      "cred": 1,
      "flags": 1,
      "label": "Skeletorious",
      "description": "Campaign: Go faster than 116 km/h in Skeleton!",
      "howto": "Campaign: Go faster than 116 km/h in Skeleton!"
    },
    {
      "id": 6,
      "imageId": 6,
      "cred": 10,
      "flags": 1,
      "label": "Downhill Boss",
      "description": "Campaign: Be faster than the favorite in Downhill!",
      "howto": "Campaign: Be faster than the favorite in Downhill!"
    },
    {
      "id": 7,
      "imageId": 7,
      "cred": 5,
      "flags": 1,
      "label": "Mr. and Mrs. Skill",
      "description": "Campaign: Get the Curling stone onto the specified position without touching your other stone.",
      "howto": "Campaign: Get the Curling stone onto the specified position without touching your other stone."
    },
    {
      "id": 8,
      "imageId": 8,
      "cred": 5,
      "flags": 1,
      "label": "Paceman",
      "description": "Campaign: Reach a top speed of at least 60 km/h at Biathlon.",
      "howto": "Campaign: Reach a top speed of at least 60 km/h at Biathlon."
    },
    {
      "id": 9,
      "imageId": 9,
      "cred": 5,
      "flags": 1,
      "label": "AIR G",
      "description": "Campaign: Jump over 50 meters in Super G. Search the best ramp on the track!",
      "howto": "Campaign: Jump over 50 meters in Super G. Search the best ramp on the track!"
    },
    {
      "id": 10,
      "imageId": 10,
      "cred": 5,
      "flags": 1,
      "label": "Brainiac",
      "description": "Campaign: Add up the figures during the run within 135 seconds and enter the correct result!",
      "howto": "Campaign: Add up the figures during the run within 135 seconds and enter the correct result!"
    },
    {
      "id": 11,
      "imageId": 11,
      "cred": 5,
      "flags": 1,
      "label": "Quick Start",
      "description": "Campaign: You need to perform an awesome start (better than 89%) in Speed Skating!",
      "howto": "Campaign: You need to perform an awesome start (better than 89%) in Speed Skating!"
    },
    {
      "id": 12,
      "imageId": 12,
      "cred": 20,
      "flags": 1,
      "label": "Speedskate Boss",
      "description": "Campaign: Beat the Boss in 500m Speed Skating! Mind the racing line!",
      "howto": "Campaign: Beat the Boss in 500m Speed Skating! Mind the racing line!"
    },
    {
      "id": 13,
      "imageId": 13,
      "cred": 10,
      "flags": 1,
      "label": "Ruler",
      "description": "Campaign: You have 35 seconds to overtake all 7 opponents at Biathlon.",
      "howto": "Campaign: You have 35 seconds to overtake all 7 opponents at Biathlon."
    },
    {
      "id": 14,
      "imageId": 14,
      "cred": 10,
      "flags": 1,
      "label": "Bob Perfect ",
      "description": "Campaign: Perform a perfect start with the four-seater bob.",
      "howto": "Campaign: Perform a perfect start with the four-seater bob."
    },
    {
      "id": 15,
      "imageId": 15,
      "cred": 10,
      "flags": 1,
      "label": "MC Fly",
      "description": "Campaign: Keep cool, watch your style and perform a GREAT landing!",
      "howto": "Campaign: Keep cool, watch your style and perform a GREAT landing!"
    },
    {
      "id": 16,
      "imageId": 16,
      "cred": 10,
      "flags": 1,
      "label": "Golden Moments",
      "description": "Campaign: Collect 37 gold coins in Downhill. You have 150 seconds.",
      "howto": "Campaign: Collect 37 gold coins in Downhill. You have 150 seconds."
    },
    {
      "id": 17,
      "imageId": 17,
      "cred": 10,
      "flags": 1,
      "label": "Clever ",
      "description": "Campaign: Add up the figures during the run within 135 seconds and enter the correct result!",
      "howto": "Campaign: Add up the figures during the run within 135 seconds and enter the correct result!"
    },
    {
      "id": 18,
      "imageId": 18,
      "cred": 30,
      "flags": 1,
      "label": "Bob Boss",
      "description": "Campaign: Match with the fast as lightning two-seater bob champion and beat him!",
      "howto": "Campaign: Match with the fast as lightning two-seater bob champion and beat him!"
    },
    {
      "id": 19,
      "imageId": 19,
      "cred": 15,
      "flags": 1,
      "label": "Sniper",
      "description": "Campaign: Shoot two adversarial stones out of the house without touching other stones!",
      "howto": "Campaign: Shoot two adversarial stones out of the house without touching other stones!"
    },
    {
      "id": 20,
      "imageId": 20,
      "cred": 15,
      "flags": 1,
      "label": "Rhythm Sticks",
      "description": "Campaign: Great rhythm (over 90%) in 500m Speed Skating! Hit GREAT or PERFECT every time.",
      "howto": "Campaign: Great rhythm (over 90%) in 500m Speed Skating! Hit GREAT or PERFECT every time."
    },
    {
      "id": 21,
      "imageId": 21,
      "cred": 15,
      "flags": 1,
      "label": "Art of Curling",
      "description": "Campaign: Show your feeling for art and match the given pattern with your Curling stones!",
      "howto": "Campaign: Show your feeling for art and match the given pattern with your Curling stones!"
    },
    {
      "id": 22,
      "imageId": 22,
      "cred": 15,
      "flags": 1,
      "label": "Untouchable",
      "description": "Campaign: Race through the ice canal without touching the boards!",
      "howto": "Campaign: Race through the ice canal without touching the boards!"
    },
    {
      "id": 23,
      "imageId": 23,
      "cred": 15,
      "flags": 1,
      "label": "Skull Skill",
      "description": "Campaign: Avoid any contact with the skulls in this 500 m Speed Skating race and win the race!",
      "howto": "Campaign: Avoid any contact with the skulls in this 500 m Speed Skating race and win the race!"
    },
    {
      "id": 24,
      "imageId": 24,
      "cred": 50,
      "flags": 1,
      "label": "Giant Slalom Boss",
      "description": "Campaign: You compete with Mr. Giant Slalom himself! Win and you'll be unforgotten.",
      "howto": "Campaign: You compete with Mr. Giant Slalom himself! Win and you'll be unforgotten."
    },
    {
      "id": 25,
      "imageId": 25,
      "cred": 20,
      "flags": 1,
      "label": "Kamikaze",
      "description": "Campaign: Fall as hard as you can after jumping 130 m from the large hill.",
      "howto": "Campaign: Fall as hard as you can after jumping 130 m from the large hill."
    },
    {
      "id": 26,
      "imageId": 26,
      "cred": 20,
      "flags": 1,
      "label": "Yin and Yang",
      "description": "Campaign: Collect 42 coins but avoid the skulls. You have 112 seconds!",
      "howto": "Campaign: Collect 42 coins but avoid the skulls. You have 112 seconds!"
    },
    {
      "id": 27,
      "imageId": 27,
      "cred": 20,
      "flags": 1,
      "label": "Art of Shooting",
      "description": "Campaign:  Be the van Gogh of the track and shoot the right patterns in Biathlon.",
      "howto": "Campaign:  Be the van Gogh of the track and shoot the right patterns in Biathlon."
    },
    {
      "id": 28,
      "imageId": 28,
      "cred": 20,
      "flags": 1,
      "label": "Skiller",
      "description": "Campaign: You have two stones to remove three adversarial stones from the house. Good luck!",
      "howto": "Campaign: You have two stones to remove three adversarial stones from the house. Good luck!"
    },
    {
      "id": 29,
      "imageId": 29,
      "cred": 20,
      "flags": 1,
      "label": "Calculator",
      "description": "Campaign: Add up the figures during the run within 100 seconds and enter the correct result!",
      "howto": "Campaign: Add up the figures during the run within 100 seconds and enter the correct result!"
    },
    {
      "id": 30,
      "imageId": 30,
      "cred": 70,
      "flags": 1,
      "label": "Biathlon Boss",
      "description": "Campaign: Compete with the best biathlete of all times! Losing is not an option!",
      "howto": "Campaign: Compete with the best biathlete of all times! Losing is not an option!"
    },
    {
      "id": 31,
      "imageId": 31,
      "cred": 25,
      "flags": 1,
      "label": "High Skiller",
      "description": "Campaign: Push the opponent's stones to the specified position without moving your stones!",
      "howto": "Campaign: Push the opponent's stones to the specified position without moving your stones!"
    },
    {
      "id": 32,
      "imageId": 32,
      "cred": 25,
      "flags": 1,
      "label": "Alpha Dog",
      "description": "Campaign: Keep your position for 60 seconds. No one must overtake you!",
      "howto": "Campaign: Keep your position for 60 seconds. No one must overtake you!"
    },
    {
      "id": 33,
      "imageId": 33,
      "cred": 25,
      "flags": 1,
      "label": "Skully",
      "description": "Campaign: Avoid all skulls within the given time without getting disqualified!",
      "howto": "Campaign: Avoid all skulls within the given time without getting disqualified!"
    },
    {
      "id": 34,
      "imageId": 34,
      "cred": 25,
      "flags": 1,
      "label": "Style Flyer",
      "description": "Campaign: Get an excellent style score at the Ski Jump from the small hill.",
      "howto": "Campaign: Get an excellent style score at the Ski Jump from the small hill."
    },
    {
      "id": 35,
      "imageId": 35,
      "cred": 25,
      "flags": 1,
      "label": "Time of the Skull",
      "description": "Campaign: Avoid the skulls within the time limit!",
      "howto": "Campaign: Avoid the skulls within the time limit!"
    },
    {
      "id": 36,
      "imageId": 36,
      "cred": 100,
      "flags": 1,
      "label": "Slalom Boss",
      "description": "Campaign: Do your best in Slalom! Defeat one of the best athletes in the world.",
      "howto": "Campaign: Do your best in Slalom! Defeat one of the best athletes in the world."
    },
    {
      "id": 37,
      "imageId": 37,
      "cred": 20,
      "flags": 1,
      "label": "Rookie Cup",
      "description": "Win the Rookie Cup!",
      "howto": "Win the Rookie Cup!"
    },
    {
      "id": 38,
      "imageId": 38,
      "cred": 25,
      "flags": 1,
      "label": "Zen Cup",
      "description": "Win the Zen Cup!",
      "howto": "Win the Zen Cup!"
    },
    {
      "id": 39,
      "imageId": 39,
      "cred": 30,
      "flags": 1,
      "label": "Slide Cup",
      "description": "Win the Slide Cup!",
      "howto": "Win the Slide Cup!"
    },
    {
      "id": 40,
      "imageId": 40,
      "cred": 30,
      "flags": 1,
      "label": "Big Time Cup",
      "description": "Win the Big Time Cup!",
      "howto": "Win the Big Time Cup!"
    },
    {
      "id": 41,
      "imageId": 41,
      "cred": 30,
      "flags": 1,
      "label": "Groove Cup",
      "description": "Win the Groove Cup!",
      "howto": "Win the Groove Cup!"
    },
    {
      "id": 42,
      "imageId": 42,
      "cred": 35,
      "flags": 1,
      "label": "Advanced Ski Cup",
      "description": "Win the Advanced Ski Cup!",
      "howto": "Win the Advanced Ski Cup!"
    },
    {
      "id": 44,
      "imageId": 45,
      "cred": 35,
      "flags": 1,
      "label": "Ice Tube Cup",
      "description": "Win the Ice Tube Cup!",
      "howto": "Win the Ice Tube Cup!"
    },
    {
      "id": 45,
      "imageId": 46,
      "cred": 40,
      "flags": 1,
      "label": "Lord Winterbottom Cup",
      "description": "Win the Lord Winterbottom Cup!",
      "howto": "Win the Lord Winterbottom Cup!"
    },
    {
      "id": 46,
      "imageId": 47,
      "cred": 45,
      "flags": 1,
      "label": "Wanna Go Pro Cup",
      "description": "Win the Wanna Go Pro Cup!",
      "howto": "Win the Wanna Go Pro Cup!"
    },
    {
      "id": 47,
      "imageId": 48,
      "cred": 50,
      "flags": 1,
      "label": "Almost Famous Cup",
      "description": "Win the Almost Famous Cup!",
      "howto": "Win the Almost Famous Cup!"
    }
  ]
}