{
  "achievementsPossible": 26,
  "credPossible": 400,
  "achievements": [
    {
      "id": 1,
      "imageId": 1,
      "cred": 10,
      "flags": 2,
      "label": "First Steps",
      "description": "Completed 10 Rewards.",
      "howto": "Complete 10 Rewards"
    },
    {
      "id": 2,
      "imageId": 2,
      "cred": 10,
      "flags": 2,
      "label": "On Your Way",
      "description": "Completed 20 Rewards.",
      "howto": "Complete 20 Rewards"
    },
    {
      "id": 3,
      "imageId": 3,
      "cred": 10,
      "flags": 2,
      "label": "Jogging Along",
      "description": "Completed 30 Rewards.",
      "howto": "Complete 30 Rewards"
    },
    {
      "id": 4,
      "imageId": 4,
      "cred": 15,
      "flags": 2,
      "label": "Going Somewhere",
      "description": "Completed 40 Rewards.",
      "howto": "Complete 40 Rewards"
    },
    {
      "id": 5,
      "imageId": 5,
      "cred": 15,
      "flags": 2,
      "label": "Sir Trots-A-Lot",
      "description": "Completed 50 Rewards.",
      "howto": "Complete 50 Rewards"
    },
    {
      "id": 6,
      "imageId": 6,
      "cred": 15,
      "flags": 2,
      "label": "Running Steady",
      "description": "Completed 60 Rewards.",
      "howto": "Complete 60 Rewards"
    },
    {
      "id": 7,
      "imageId": 7,
      "cred": 20,
      "flags": 2,
      "label": "Good Stride",
      "description": "Completed 70 Rewards.",
      "howto": "Complete 70 Rewards"
    },
    {
      "id": 8,
      "imageId": 8,
      "cred": 20,
      "flags": 2,
      "label": "Sprint!!",
      "description": "Completed 80 Rewards.",
      "howto": "Complete 80 Rewards"
    },
    {
      "id": 9,
      "imageId": 9,
      "cred": 30,
      "flags": 2,
      "label": "You are AWESOME",
      "description": "Completed all 90 Rewards.",
      "howto": "Complete all 90 Rewards"
    },
    {
      "id": 10,
      "imageId": 10,
      "cred": 10,
      "flags": 6,
      "label": "Cloud King",
      "description": "What were those giant things in the background of World 1?  You are pretty sure you have no idea.",
      "howto": "Complete World 1"
    },
    {
      "id": 11,
      "imageId": 11,
      "cred": 15,
      "flags": 6,
      "label": "Water Strider",
      "description": "Mucked through the Emerald Brine.",
      "howto": "Complete World 2"
    },
    {
      "id": 12,
      "imageId": 12,
      "cred": 20,
      "flags": 6,
      "label": "Super Tree Hugger",
      "description": "Evolved past the Supernature.",
      "howto": "Complete World 3"
    },
    {
      "id": 13,
      "imageId": 13,
      "cred": 25,
      "flags": 6,
      "label": "Feel the Burn",
      "description": "How did you manage to get through the Mounting Sadds?",
      "howto": "Complete World 4"
    },
    {
      "id": 14,
      "imageId": 14,
      "cred": 30,
      "flags": 1,
      "label": "Future Legend",
      "description": "Back on track to your FATE.",
      "howto": "Complete the game"
    },
    {
      "id": 15,
      "imageId": 15,
      "cred": 10,
      "flags": 7,
      "label": "Multiple Personalities",
      "description": "Beat 30 levels as alternate characters.  Way to go!",
      "howto": "Beat 30 levels as alternate characters"
    },
    {
      "id": 16,
      "imageId": 16,
      "cred": 20,
      "flags": 1,
      "label": "Hardcore",
      "description": "Beat all levels on hard.  That's something!",
      "howto": "Beat all levels on hard."
    },
    {
      "id": 17,
      "imageId": 17,
      "cred": 5,
      "flags": 7,
      "label": "Dancing Fool",
      "description": "You got the fever and danced 100 times.",
      "howto": "Dance 100 times"
    },
    {
      "id": 18,
      "imageId": 18,
      "cred": 5,
      "flags": 4,
      "label": "Bullseye!",
      "description": "Perfect+?!  That's unpossible!",
      "howto": "Get a bullseye"
    },
    {
      "id": 19,
      "imageId": 19,
      "cred": 10,
      "flags": 4,
      "label": "Perfectionist",
      "description": "Perfect Runned each level.",
      "howto": "Get one Perfect in each level"
    },
    {
      "id": 20,
      "imageId": 21,
      "cred": 50,
      "flags": 1,
      "label": "Perfect Perfectionist",
      "description": "Triple Perfect+ed the entire game.  Holy crap!",
      "howto": "Achieve a Triple Perfect+ in every level"
    },
    {
      "id": 21,
      "imageId": 22,
      "cred": 5,
      "flags": 4,
      "label": "Marathoner",
      "description": "You warned the Athenians of the oncoming Persian army!",
      "howto": "Run 26.22 miles"
    },
    {
      "id": 22,
      "imageId": 23,
      "cred": 5,
      "flags": 4,
      "label": "A New Challenger",
      "description": "Checkpoints are for suckers!",
      "howto": "Skip a checkpoint & beat a level"
    },
    {
      "id": 23,
      "imageId": 24,
      "cred": 10,
      "flags": 3,
      "label": "Who Dat!?",
      "description": "You made a new friend.",
      "howto": "Unlock a new character"
    },
    {
      "id": 24,
      "imageId": 25,
      "cred": 5,
      "flags": 4,
      "label": "Better Than Perfect",
      "description": "Got 5 Perfect+s, one in each World.",
      "howto": "Get one Perfect+ in each World"
    },
    {
      "id": 25,
      "imageId": 26,
      "cred": 10,
      "flags": 4,
      "label": "Double Perfectionist",
      "description": "Double Double Perfected once in each World.",
      "howto": "Get two Double Perfects in each World"
    },
    {
      "id": 26,
      "imageId": 27,
      "cred": 20,
      "flags": 4,
      "label": "Triple Perfectionist",
      "description": "Triple Triple Perfected once in each World.",
      "howto": "Get three Triple Perfects in each World"
    }
  ]
}