{
  "achievementsPossible": 33,
  "credPossible": 1000,
  "achievements": [
    {
      "id": 54,
      "imageId": 1,
      "cred": 5,
      "flags": 1,
      "label": "Get In The Ring",
      "description": "Win a Fight Now match against the CPU",
      "howto": "Win a Fight Now match against the CPU"
    },
    {
      "id": 55,
      "imageId": 33,
      "cred": 40,
      "flags": 1,
      "label": "Just Like Mike",
      "description": "Win a Fight Now match by KO in in the first round against the CPU in a 10 round fight.",
      "howto": "Win a Fight Now match by KO in in the first round against the CPU in a 10 round fight."
    },
    {
      "id": 57,
      "imageId": 4,
      "cred": 50,
      "flags": 1,
      "label": "More machine than man",
      "description": "Win 50 Fight Now matches against the CPU",
      "howto": "Win 50 Fight Now matches against the CPU"
    },
    {
      "id": 58,
      "imageId": 5,
      "cred": 10,
      "flags": 7,
      "label": "Knock a sucker out.",
      "description": "Win by a knockout in Fight Now against the CPU",
      "howto": "Win by a knockout in Fight Now against the CPU"
    },
    {
      "id": 60,
      "imageId": 34,
      "cred": 15,
      "flags": 1,
      "label": "Ecko Trunk Challenge",
      "description": "Beat CPU Miguel Cotto in Fight Now on Pro.",
      "howto": "Beat CPU Miguel Cotto in Fight Now on Pro."
    },
    {
      "id": 62,
      "imageId": 8,
      "cred": 15,
      "flags": 1,
      "label": "Man Up Manny",
      "description": "Beat CPU Manny Pacquiao in Fight Now on Champion.",
      "howto": "Beat CPU Manny Pacquiao in Fight Now on Champion."
    },
    {
      "id": 64,
      "imageId": 10,
      "cred": 10,
      "flags": 7,
      "label": "Pull No Punches",
      "description": "Win a Fight Now match vs the CPU while landing at least 500 punches",
      "howto": "Win a Fight Now match vs the CPU while landing at least 500 punches"
    },
    {
      "id": 67,
      "imageId": 13,
      "cred": 40,
      "flags": 1,
      "label": "Pound For Pound",
      "description": "Win a fight against a CPU opponent in a higher weight class than you.",
      "howto": "Win a fight against a CPU opponent in a higher weight class than you."
    },
    {
      "id": 68,
      "imageId": 14,
      "cred": 10,
      "flags": 1,
      "label": "The Road Is Long",
      "description": "Win 10 fights in Legacy Mode",
      "howto": "Win 10 fights in Legacy Mode"
    },
    {
      "id": 69,
      "imageId": 15,
      "cred": 40,
      "flags": 1,
      "label": "The Champ Is Here",
      "description": "Win a championship belt in a single weight class.",
      "howto": "Win a championship belt in a single weight class."
    },
    {
      "id": 72,
      "imageId": 18,
      "cred": 50,
      "flags": 1,
      "label": "The Latest and the Greatest",
      "description": "Retire as a Superstar",
      "howto": "Retire as a Superstar"
    },
    {
      "id": 73,
      "imageId": 19,
      "cred": 20,
      "flags": 6,
      "label": "From Chump to Champ",
      "description": "Win the Amateur Tournament in Legacy Mode",
      "howto": "Win the Amateur Tournament in Legacy Mode"
    },
    {
      "id": 74,
      "imageId": 20,
      "cred": 30,
      "flags": 6,
      "label": "Movin' On Up",
      "description": "Move up in weight class in Legacy Mode.",
      "howto": "Move up in weight class in Legacy Mode."
    },
    {
      "id": 75,
      "imageId": 21,
      "cred": 20,
      "flags": 1,
      "label": "Undefeated",
      "description": "Win 5 Consecutive Legacy Mode fights",
      "howto": "Win 5 Consecutive Legacy Mode fights"
    },
    {
      "id": 77,
      "imageId": 23,
      "cred": 5,
      "flags": 1,
      "label": "You're In The Game!",
      "description": "Create a boxer using the Photo Game Face tool",
      "howto": ""
    },
    {
      "id": 78,
      "imageId": 24,
      "cred": 60,
      "flags": 1,
      "label": "My Style Is Impetuous",
      "description": "Beat CPU Mike Tyson on G.O.A.T. using a created boxer in Fight Now",
      "howto": "Beat CPU Mike Tyson on G.O.A.T. using a created boxer in Fight Now"
    },
    {
      "id": 81,
      "imageId": 27,
      "cred": 50,
      "flags": 1,
      "label": "XL",
      "description": "Win the Middleweight Championship Belt in Online World Championship Mode.",
      "howto": "Win the Middleweight Championship Belt in Online World Championship Mode."
    },
    {
      "id": 82,
      "imageId": 28,
      "cred": 25,
      "flags": 1,
      "label": "L",
      "description": "Win the  Lightweight Championship Belt in Online World Championship Mode.",
      "howto": "Win the  Lightweight Championship Belt in Online World Championship Mode."
    },
    {
      "id": 83,
      "imageId": 29,
      "cred": 30,
      "flags": 6,
      "label": "Solid Contender",
      "description": "Win 5 online ranked matches.",
      "howto": "Win 5 online ranked matches."
    },
    {
      "id": 85,
      "imageId": 31,
      "cred": 5,
      "flags": 6,
      "label": "Pain Brings Glory",
      "description": "Win a match in Online World Championship Mode.",
      "howto": "Win a match in Online World Championship Mode."
    },
    {
      "id": 86,
      "imageId": 32,
      "cred": 10,
      "flags": 6,
      "label": "Comeback Kid",
      "description": "Win a Online ranked match after being knocked down twice.",
      "howto": "Win a Online ranked match after being knocked down twice."
    },
    {
      "id": 98,
      "imageId": 2,
      "cred": 10,
      "flags": 1,
      "label": "Walk like ten men",
      "description": "Win 10 Fight Now matches against the CPU",
      "howto": "Win 10 Fight Now matches against the CPU"
    },
    {
      "id": 99,
      "imageId": 6,
      "cred": 40,
      "flags": 1,
      "label": "David and Goliath",
      "description": "Beat CPU Mike Tyson in Fight Now on G.O.A.T.",
      "howto": "Beat CPU Mike Tyson in Fight Now on G.O.A.T."
    },
    {
      "id": 100,
      "imageId": 7,
      "cred": 40,
      "flags": 1,
      "label": "King of The Rope-a-Dope",
      "description": "Beat CPU Muhammad Ali in Fight Now on G.O.A.T.",
      "howto": "Beat CPU Muhammad Ali in Fight Now on G.O.A.T."
    },
    {
      "id": 101,
      "imageId": 9,
      "cred": 10,
      "flags": 1,
      "label": "Punch Drunk",
      "description": "Win a Fight Now match vs the CPU while landing at least 250 jabs",
      "howto": "Win a Fight Now match vs the CPU while landing at least 250 jabs"
    },
    {
      "id": 102,
      "imageId": 11,
      "cred": 10,
      "flags": 1,
      "label": "Enough To Feed a Horse",
      "description": "Win a Fight Now match vs the CPU while landing at least 10 haymakers",
      "howto": "Win a Fight Now match vs the CPU while landing at least 10 haymakers"
    },
    {
      "id": 103,
      "imageId": 12,
      "cred": 50,
      "flags": 1,
      "label": "Precision Guided Pain",
      "description": "Win a fight where you landed at least 70% of your punches vs CPU",
      "howto": "Win a fight where you landed at least 70% of your punches vs CPU"
    },
    {
      "id": 104,
      "imageId": 16,
      "cred": 80,
      "flags": 1,
      "label": "GOAT",
      "description": "Retire as the G.O.A.T(unlocks achievements; Retiring as a Superstar and Hall of Famer if not earned)",
      "howto": "Retire as the G.O.A.T(unlocks achievements; Retiring as a Superstar and Hall of Famer if not earned)"
    },
    {
      "id": 105,
      "imageId": 17,
      "cred": 65,
      "flags": 1,
      "label": "Big Gloves to Fill",
      "description": "Retire as a Hall of Famer (unlocks achievement for retiring as a superstar if not earned)",
      "howto": "Retire as a Hall of Famer (unlocks achievement for retiring as a superstar if not earned)"
    },
    {
      "id": 106,
      "imageId": 25,
      "cred": 60,
      "flags": 1,
      "label": "Flyswatter",
      "description": "Beat CPU Muhammad Ali on G.O.A.T. using a created boxer in Fight Now",
      "howto": "Beat CPU Muhammad Ali on G.O.A.T. using a created boxer in Fight Now"
    },
    {
      "id": 107,
      "imageId": 26,
      "cred": 75,
      "flags": 1,
      "label": "XXL",
      "description": "Win the Heavyweight Championship Belt in Online World Championship Mode.",
      "howto": "Win the Heavyweight Championship Belt in Online World Championship Mode."
    },
    {
      "id": 108,
      "imageId": 30,
      "cred": 15,
      "flags": 1,
      "label": "A Force to Reckon With",
      "description": "Win 10 online ranked matches.",
      "howto": "Win 10 online ranked matches."
    },
    {
      "id": 109,
      "imageId": 22,
      "cred": 5,
      "flags": 1,
      "label": "New Blood",
      "description": "Import a boxer into Legacy Mode",
      "howto": "Import a boxer into Legacy Mode"
    }
  ]
}