{
  "achievementsPossible": 10,
  "credPossible": 50,
  "achievements": [
    {
      "id": 1,
      "imageId": 194,
      "cred": 5,
      "flags": 2,
      "label": "Racket Juggler",
      "description": "Good start! You reached level 1 (or observed another player doing so) to become a Racket Juggler.",
      "howto": "Reach level 1 (or observe another player doing so) to gain the rank of Racket Juggler."
    },
    {
      "id": 2,
      "imageId": 199,
      "cred": 5,
      "flags": 2,
      "label": "Hard Court Heavy",
      "description": "Imposing! You reached level 2 (or observed another player doing so), rising to Hard Court Heavy.",
      "howto": "Reach level 2 (or observe another player doing so) to gain the rank of Hard Court Heavy."
    },
    {
      "id": 3,
      "imageId": 195,
      "cred": 5,
      "flags": 2,
      "label": "Forhand Fiend",
      "description": "Wicked! You reached level 3 (or observed another player doing so) to advance to Forehand Fiend.",
      "howto": "Reach level 3 (or observe another player doing so) to gain the rank of Forhand Fiend."
    },
    {
      "id": 4,
      "imageId": 200,
      "cred": 5,
      "flags": 2,
      "label": "Backhand Slicer",
      "description": "Sharp work! You reached level 4 (or observed another player doing so) to rank as Backhand Slicer.",
      "howto": "Reach level 4 (or observe another player doing so) to gain the rank of Backhand Slicer."
    },
    {
      "id": 5,
      "imageId": 196,
      "cred": 5,
      "flags": 2,
      "label": "Top Lobber",
      "description": "Looking up! You reached level 5 (or observed another player doing so) for promotion to Top Lobber.",
      "howto": "Reach level 5 (or observe another player doing so) to gain the rank of Top Lobber."
    },
    {
      "id": 6,
      "imageId": 201,
      "cred": 5,
      "flags": 2,
      "label": "Multiball Menace",
      "description": "Never miss! You reached level 6 (or observed another player doing so) to climb to Multiball Menace.",
      "howto": "Reach level 6 (or observe another player doing so) to gain the rank of Multiball Menace."
    },
    {
      "id": 7,
      "imageId": 197,
      "cred": 5,
      "flags": 2,
      "label": "Return Champ",
      "description": "No going back! You reached level 7 (or observed another player doing so) to rank as Return Champ.",
      "howto": "Reach level 7 (or observe another player doing so) to gain the rank of Return Champ."
    },
    {
      "id": 8,
      "imageId": 202,
      "cred": 5,
      "flags": 2,
      "label": "Yellow Flash",
      "description": "Rapid fire! You reached level 8 (or observed another player doing so) to qualify as Yellow Flash.",
      "howto": "Reach level 8 (or observe another player doing so) to gain the rank of Yellow Flash."
    },
    {
      "id": 9,
      "imageId": 198,
      "cred": 5,
      "flags": 2,
      "label": "Red Flash",
      "description": "Blinding! You reached level 9 (or observed another player doing so) to move up to Red Flash.",
      "howto": "Reach level 9 (or observe another player doing so) to gain the rank of Red Flash."
    },
    {
      "id": 10,
      "imageId": 203,
      "cred": 5,
      "flags": 2,
      "label": "Tennis Titan",
      "description": "Towering! You reached level 10 (or observed another player doing so) to rule all as Tennis Titan.",
      "howto": "Reach level 10 (or observe another player doing so) to gain the rank of Tennis Titan."
    }
  ]
}