{
  "achievementsPossible": 24,
  "credPossible": 1000,
  "achievements": [
    {
      "id": 28,
      "imageId": 3,
      "cred": 30,
      "flags": 1,
      "label": "Challenge Expert",
      "description": "50 Challenges completed",
      "howto": "50 Challenges completed"
    },
    {
      "id": 29,
      "imageId": 3,
      "cred": 60,
      "flags": 1,
      "label": "Challenge Master",
      "description": "All Challenges completed",
      "howto": "All Challenges completed"
    },
    {
      "id": 31,
      "imageId": 3,
      "cred": 50,
      "flags": 1,
      "label": "Extreme Bike Collector",
      "description": "Purchase all extreme bikes",
      "howto": "Purchase all extreme bikes"
    },
    {
      "id": 33,
      "imageId": 3,
      "cred": 50,
      "flags": 1,
      "label": "Finish 500 Races",
      "description": "Finish 500 races, online or offline",
      "howto": ""
    },
    {
      "id": 34,
      "imageId": 3,
      "cred": 30,
      "flags": 1,
      "label": "Finish 250 Races",
      "description": "Finish 250 races, online or offline",
      "howto": ""
    },
    {
      "id": 35,
      "imageId": 3,
      "cred": 20,
      "flags": 1,
      "label": "Finish 50 Races",
      "description": "Finish 50 races, online or offline",
      "howto": ""
    },
    {
      "id": 36,
      "imageId": 3,
      "cred": 60,
      "flags": 4,
      "label": "GP - Champion",
      "description": "Win a Career mode Grand Prix season on Champion difficulty",
      "howto": "Win a Career mode Grand Prix season on Champion difficulty"
    },
    {
      "id": 37,
      "imageId": 3,
      "cred": 100,
      "flags": 1,
      "label": "GP - Legend",
      "description": "Win a Career mode Grand Prix season on Legend difficulty",
      "howto": "Win a Career mode Grand Prix season on Legend difficulty"
    },
    {
      "id": 38,
      "imageId": 3,
      "cred": 30,
      "flags": 1,
      "label": "GP - Professional",
      "description": "Win a Career mode Grand Prix season on Pro difficulty",
      "howto": "Win a Career mode Grand Prix season on Pro difficulty"
    },
    {
      "id": 43,
      "imageId": 3,
      "cred": 75,
      "flags": 1,
      "label": "Seeded #1",
      "description": "Seed #1 achieved",
      "howto": "Seed #1 achieved"
    },
    {
      "id": 44,
      "imageId": 3,
      "cred": 50,
      "flags": 1,
      "label": "Seeded #10",
      "description": "Seed #10 achieved",
      "howto": "Seed #10 achieved"
    },
    {
      "id": 45,
      "imageId": 3,
      "cred": 30,
      "flags": 1,
      "label": "Seeded #25",
      "description": "Seed #25 achieved",
      "howto": "Seed #25 achieved"
    },
    {
      "id": 46,
      "imageId": 3,
      "cred": 20,
      "flags": 1,
      "label": "Seeded #50",
      "description": "Seed #50 achieved",
      "howto": "Seed #50 achieved"
    },
    {
      "id": 47,
      "imageId": 3,
      "cred": 15,
      "flags": 1,
      "label": "Seeded #75",
      "description": "Seed #75 achieved",
      "howto": "Seed #75 achieved"
    },
    {
      "id": 48,
      "imageId": 3,
      "cred": 10,
      "flags": 1,
      "label": "Seeded #90",
      "description": "Seed #90 achieved",
      "howto": "Seed #90 achieved"
    },
    {
      "id": 50,
      "imageId": 3,
      "cred": 10,
      "flags": 4,
      "label": "Stunt Mode Rider",
      "description": "Play a 'Stunt mode' game in any Multiplayer mode",
      "howto": "Play a 'Stunt mode' game in any Multiplayer mode"
    },
    {
      "id": 52,
      "imageId": 3,
      "cred": 10,
      "flags": 4,
      "label": "Extreme Mode Champion",
      "description": "Win any Extreme mode championship, at any difficulty",
      "howto": "Win any Extreme mode championship, at any difficulty"
    },
    {
      "id": 53,
      "imageId": 3,
      "cred": 60,
      "flags": 4,
      "label": "Extreme 1000 - Legend",
      "description": "Win a Career mode Extreme 1000 season on Legend difficulty",
      "howto": "Win a Career mode Extreme 1000 season on Legend difficulty"
    },
    {
      "id": 54,
      "imageId": 3,
      "cred": 50,
      "flags": 4,
      "label": "Extreme 1200 - Champion",
      "description": "Win a Career mode Extreme 1200 season on Champion difficulty",
      "howto": "Win a Career mode Extreme 1200 season on Champion difficulty"
    },
    {
      "id": 55,
      "imageId": 3,
      "cred": 75,
      "flags": 4,
      "label": "Extreme 1200 - Legend",
      "description": "Win a Career mode Extreme 1200 season on Legend difficulty",
      "howto": "Win a Career mode Extreme 1200 season on Legend difficulty"
    },
    {
      "id": 56,
      "imageId": 3,
      "cred": 25,
      "flags": 4,
      "label": "Extreme 1200 - Professional",
      "description": "Win a Career mode Extreme 1200 season on Pro difficulty",
      "howto": "Win a Career mode Extreme 1200 season on Pro difficulty"
    },
    {
      "id": 57,
      "imageId": 3,
      "cred": 30,
      "flags": 4,
      "label": "Extreme 600 - Legend",
      "description": "Win a Career mode Extreme 600 season on Legend difficulty",
      "howto": "Win a Career mode Extreme 600 season on Legend difficulty"
    },
    {
      "id": 58,
      "imageId": 3,
      "cred": 100,
      "flags": 7,
      "label": "Accredited",
      "description": "All rider credits awarded",
      "howto": "All rider credits awarded"
    },
    {
      "id": 59,
      "imageId": 3,
      "cred": 10,
      "flags": 1,
      "label": "GP - Rookie",
      "description": "Win a Career mode Grand Prix season on Rookie difficulty",
      "howto": "Win a Career mode Grand Prix season on Rookie difficulty"
    }
  ]
}