{
  "achievementsPossible": 16,
  "credPossible": 1000,
  "achievements": [
    {
      "id": 19,
      "imageId": 1,
      "cred": 25,
      "flags": 6,
      "label": "Stick it to McQueen",
      "description": "Completed Radiator Springs and unlocked Ornament Valley, and got the sticker to prove it",
      "howto": "Beat the three Radiator Springs road races and the Relay Race, then place in the first Stadium Race"
    },
    {
      "id": 20,
      "imageId": 1,
      "cred": 75,
      "flags": 4,
      "label": "Rust Bust",
      "description": "Won the Rustbucket Race Series",
      "howto": "Qualify in the first three Rustbucket Series races, then win the final"
    },
    {
      "id": 21,
      "imageId": 1,
      "cred": 75,
      "flags": 4,
      "label": "Golden Gas Can",
      "description": "Completed all nine levels of Fillmore's Fuel Frenzy",
      "howto": "Win each of the nine levels of Fillmore's Fuel Frenzy"
    },
    {
      "id": 22,
      "imageId": 1,
      "cred": 75,
      "flags": 4,
      "label": "Frank Slash",
      "description": "Completed all six levels of Tractor Tipping",
      "howto": "Tip all tractors before the time limit in each of the six levels of Tractor Tipping"
    },
    {
      "id": 23,
      "imageId": 1,
      "cred": 75,
      "flags": 4,
      "label": "High Draulics",
      "description": "Completed all seven levels of Ramone's Rhythmic Rumble",
      "howto": "Score well playing along with each of the seven songs in Ramone's Rhythmic Rumble"
    },
    {
      "id": 24,
      "imageId": 1,
      "cred": 100,
      "flags": 4,
      "label": "Ghost Light",
      "description": "Beat all seven levels of Ghosting Mater",
      "howto": "Scare Mater home in each of the seven Ghosting Mater levels"
    },
    {
      "id": 25,
      "imageId": 1,
      "cred": 75,
      "flags": 4,
      "label": "James P. Sullivan Cup",
      "description": "Finished in the top three of the Monster Truck Waypoint final",
      "howto": "Qualify in the first two Waypoint Race Series races, then finish in the top three of the final"
    },
    {
      "id": 26,
      "imageId": 1,
      "cred": 75,
      "flags": 4,
      "label": "Race 'n' Chase Victor",
      "description": "Completed all nine levels of Doc and the Law's Race 'n' Chase",
      "howto": "Tag your opponent then zoom to your goal without being tagged in all nine Race 'n' Chase levels"
    },
    {
      "id": 27,
      "imageId": 1,
      "cred": 25,
      "flags": 6,
      "label": "Unlock Tailfin Pass",
      "description": "Completed Ornament Valley and unlocked Tailfin Pass",
      "howto": "Beat the three Ornament Valley road races and the Relay Race, then place in the second Stadium race"
    },
    {
      "id": 28,
      "imageId": 1,
      "cred": 25,
      "flags": 3,
      "label": "Find all Paintjobs",
      "description": "Unlocked all 8 of McQueen's new paintjobs, available at Ramone's House of Body Art",
      "howto": "Find all 8 new paintjobs for Lightning McQueen"
    },
    {
      "id": 29,
      "imageId": 1,
      "cred": 35,
      "flags": 3,
      "label": "Find all wheel sets",
      "description": "Unlocked all 8 of McQueen's new wheel sets, available at Luigi's Casa Della Tires",
      "howto": "Find all 8 new wheel sets for Lightning McQueen"
    },
    {
      "id": 30,
      "imageId": 1,
      "cred": 25,
      "flags": 3,
      "label": "Build Monster McQueen",
      "description": "Found the parts necessary to construct Monster McQueen",
      "howto": "Find two monster truck pieces, plus a new horn, so Luigi can build Monster McQueen"
    },
    {
      "id": 31,
      "imageId": 1,
      "cred": 40,
      "flags": 3,
      "label": "Build Monster Mater",
      "description": "Found the six parts necessary to construct Monster Mater",
      "howto": "Find six monster truck parts in Radiator Springs so Luigi can build Monster Mater"
    },
    {
      "id": 32,
      "imageId": 1,
      "cred": 50,
      "flags": 4,
      "label": "Win all Stadium Races",
      "description": "Won all four race in McQueen's new Racing Stadium",
      "howto": "Finish first in all four races conducted in Lightning McQueen's new Racing Stadium"
    },
    {
      "id": 33,
      "imageId": 1,
      "cred": 75,
      "flags": 4,
      "label": "Win all Road Races",
      "description": "Won all nine road races, three in each of the three main areas",
      "howto": "Radiator Springs, Ornament Valley, and Tailfin Pass -- win all three races in each area"
    },
    {
      "id": 34,
      "imageId": 1,
      "cred": 150,
      "flags": 1,
      "label": "Beat the game!",
      "description": "Won every event, collected every Bolt Banner and earned every sticker",
      "howto": "Collect every Bolt Banner and earn every sticker in the game"
    }
  ]
}