{
  "achievementsPossible": 46,
  "credPossible": 1000,
  "achievements": [
    {
      "id": 12,
      "imageId": 24,
      "cred": 15,
      "flags": 4,
      "label": "Thank You",
      "description": "Complete a Quest for the Princess.",
      "howto": "Complete the first Quest."
    },
    {
      "id": 13,
      "imageId": 25,
      "cred": 15,
      "flags": 4,
      "label": "Mystery Dungeon",
      "description": "Return from the Dungeon alive.",
      "howto": "Survive a Dungeon segment (exit at Checkpoint)"
    },
    {
      "id": 14,
      "imageId": 26,
      "cred": 15,
      "flags": 4,
      "label": "Hot Deals in the Ice Kingdom",
      "description": "Buy something from the shop.",
      "howto": "Purchase something from Choose Goose"
    },
    {
      "id": 15,
      "imageId": 27,
      "cred": 15,
      "flags": 4,
      "label": "Dungeon",
      "description": "Outsmart the Demon Cat.",
      "howto": "Defeat the Demon Cat"
    },
    {
      "id": 16,
      "imageId": 28,
      "cred": 15,
      "flags": 1,
      "label": "Evicted!",
      "description": "Outrun the stampeding prisoners.",
      "howto": "Defeat the Chase Boss"
    },
    {
      "id": 17,
      "imageId": 29,
      "cred": 15,
      "flags": 1,
      "label": "My Two Favorite People",
      "description": "Put Ice King in his place.",
      "howto": "Defeat the Ice King"
    },
    {
      "id": 18,
      "imageId": 30,
      "cred": 15,
      "flags": 1,
      "label": "Reign of Gunters",
      "description": "Assist Gunter with a feisty feline.",
      "howto": "Defeat Gunter's Cat"
    },
    {
      "id": 19,
      "imageId": 31,
      "cred": 15,
      "flags": 1,
      "label": "Beautopia",
      "description": "Rescue the Hyoomans.",
      "howto": "Rescue the Hyoomans"
    },
    {
      "id": 20,
      "imageId": 32,
      "cred": 15,
      "flags": 1,
      "label": "His Hero",
      "description": "Weather Goliad and Stormo's psychic assault.",
      "howto": "Survive Goliad & Stormo"
    },
    {
      "id": 21,
      "imageId": 33,
      "cred": 15,
      "flags": 1,
      "label": "Hitman",
      "description": "Free the Earl of Lemongrab.",
      "howto": "Defeat Lemongrab"
    },
    {
      "id": 22,
      "imageId": 34,
      "cred": 15,
      "flags": 1,
      "label": "Power Animal",
      "description": "Free Flame Princess.",
      "howto": "Destroy the cow centrifuge"
    },
    {
      "id": 23,
      "imageId": 35,
      "cred": 15,
      "flags": 1,
      "label": "Guardians of Sunshine",
      "description": "Overcome the Guardians' punishment.",
      "howto": "Defeat the Gumball Guardians"
    },
    {
      "id": 24,
      "imageId": 36,
      "cred": 15,
      "flags": 1,
      "label": "What Have you Done?",
      "description": "Uncover Bubblegum's dark secret.",
      "howto": "Defeat the Gum Wad"
    },
    {
      "id": 25,
      "imageId": 37,
      "cred": 15,
      "flags": 2,
      "label": "Who Would Win",
      "description": "Upgrade a character's Rowdiness.",
      "howto": "Upgrade Rowdiness once"
    },
    {
      "id": 26,
      "imageId": 38,
      "cred": 15,
      "flags": 2,
      "label": "The Meaning of Bravery",
      "description": "Upgrade a character's Thumps.",
      "howto": "Upgrade Thumps once"
    },
    {
      "id": 27,
      "imageId": 39,
      "cred": 15,
      "flags": 2,
      "label": "Lady & Peebles",
      "description": "Upgrade a character's Focus.",
      "howto": "Upgrade Focus once"
    },
    {
      "id": 28,
      "imageId": 40,
      "cred": 15,
      "flags": 2,
      "label": "What is Life?",
      "description": "Upgrade a character's Imagination.",
      "howto": "Upgrade Imagination once"
    },
    {
      "id": 29,
      "imageId": 41,
      "cred": 30,
      "flags": 2,
      "label": "Finn the Human",
      "description": "Fully upgrade Finn.",
      "howto": "Max out Finn's stats"
    },
    {
      "id": 30,
      "imageId": 42,
      "cred": 30,
      "flags": 2,
      "label": "Jake the Dog",
      "description": "Fully upgrade Jake.",
      "howto": "Max out Jake's stats"
    },
    {
      "id": 31,
      "imageId": 43,
      "cred": 30,
      "flags": 2,
      "label": "Daddy's Little Monster",
      "description": "Fully upgrade Marceline.",
      "howto": "Max out Marceline's stats"
    },
    {
      "id": 32,
      "imageId": 44,
      "cred": 30,
      "flags": 2,
      "label": "The Other Tarts",
      "description": "Fully upgrade Cinnamon Bun.",
      "howto": "Max out Cinnamon Bun's stats"
    },
    {
      "id": 33,
      "imageId": 45,
      "cred": 30,
      "flags": 2,
      "label": "Trouble in Lumpy Space",
      "description": "Fully upgrade LSP.",
      "howto": "Max out Lumpy Space Princess's stats"
    },
    {
      "id": 34,
      "imageId": 46,
      "cred": 30,
      "flags": 2,
      "label": "Loyalty to the King",
      "description": "Fully upgrade Ice King.",
      "howto": "Max out Ice King's stats"
    },
    {
      "id": 35,
      "imageId": 47,
      "cred": 30,
      "flags": 2,
      "label": "You Made Me",
      "description": "Fully upgrade Lemongrab.",
      "howto": "Max out Lemongrab's stats"
    },
    {
      "id": 36,
      "imageId": 48,
      "cred": 30,
      "flags": 2,
      "label": "Hot to the Touch",
      "description": "Fully upgrade Flame Princess.",
      "howto": "Max out Flame Princess's stats"
    },
    {
      "id": 37,
      "imageId": 49,
      "cred": 15,
      "flags": 1,
      "label": "Business Time",
      "description": "Complete all of Princess Bubblegum's Quests.",
      "howto": "Complete Bubblegum's Quests"
    },
    {
      "id": 38,
      "imageId": 50,
      "cred": 15,
      "flags": 1,
      "label": "Tree Trunks",
      "description": "Complete all of Tree Trunks' Quests.",
      "howto": "Complete Tree Trunks' quests"
    },
    {
      "id": 39,
      "imageId": 51,
      "cred": 15,
      "flags": 1,
      "label": "Princess of Rad Hats",
      "description": "Complete all of Susan Strong's Quests.",
      "howto": "Complete Susan Strong's quests"
    },
    {
      "id": 40,
      "imageId": 52,
      "cred": 15,
      "flags": 1,
      "label": "Dream of Love",
      "description": "Complete all of Mr. Pig's Quests.",
      "howto": "Complete Mr. Pig's quests"
    },
    {
      "id": 41,
      "imageId": 53,
      "cred": 15,
      "flags": 1,
      "label": "Grumpy Butt",
      "description": "Complete all of Starchy's Quests.",
      "howto": "Complete Starchy's Quests"
    },
    {
      "id": 42,
      "imageId": 54,
      "cred": 15,
      "flags": 4,
      "label": "Memory of a Memory",
      "description": "Used a Special Attack.",
      "howto": "Use a Special Attack"
    },
    {
      "id": 43,
      "imageId": 55,
      "cred": 15,
      "flags": 4,
      "label": "The New Frontier",
      "description": "Entered the Nightosphere",
      "howto": "Enter the Nightosphere"
    },
    {
      "id": 44,
      "imageId": 56,
      "cred": 15,
      "flags": 4,
      "label": "Freak City",
      "description": "Receive a Curse.",
      "howto": "Get Cursed"
    },
    {
      "id": 45,
      "imageId": 57,
      "cred": 30,
      "flags": 1,
      "label": "It Came from the Nightosphere",
      "description": "Survive 15 Floors in one Nightosphere run.",
      "howto": "Travel 15 Floors in one Nightosphere run"
    },
    {
      "id": 46,
      "imageId": 58,
      "cred": 30,
      "flags": 1,
      "label": "Return to the Nightosphere",
      "description": "Survive 25 Floors in one Nightosphere run.",
      "howto": "Travel 25 Floors in one Nightosphere run"
    },
    {
      "id": 47,
      "imageId": 59,
      "cred": 90,
      "flags": 1,
      "label": "The Limit",
      "description": "Survive 50 Floors in one Nightosphere run.",
      "howto": "Travel 50 Floors in one Nightosphere run"
    },
    {
      "id": 48,
      "imageId": 60,
      "cred": 15,
      "flags": 4,
      "label": "Another Way",
      "description": "Perform a perfect block",
      "howto": "Perform a perfect block"
    },
    {
      "id": 49,
      "imageId": 61,
      "cred": 15,
      "flags": 4,
      "label": "One Last Job",
      "description": "Grab 50 Treasures on a single Treasure Floor.",
      "howto": "Grab 50 treasures worth of Treasure in a Treasure Floor"
    },
    {
      "id": 50,
      "imageId": 62,
      "cred": 15,
      "flags": 4,
      "label": "Vault of Bones",
      "description": "Survive a Monster Floor.",
      "howto": "Survive a Monster Floor"
    },
    {
      "id": 51,
      "imageId": 63,
      "cred": 30,
      "flags": 4,
      "label": "Crystals Have Power",
      "description": "Collect every Token",
      "howto": "Collect every Token"
    },
    {
      "id": 52,
      "imageId": 64,
      "cred": 30,
      "flags": 4,
      "label": "What Was Missing",
      "description": "Collect every Sub-Weapon",
      "howto": "Collect every Sub-Weapon"
    },
    {
      "id": 53,
      "imageId": 65,
      "cred": 20,
      "flags": 2,
      "label": "I Remember You",
      "description": "Upgrade a Sub-Weapon into a stronger one.",
      "howto": "Upgrade a Sub-Weapon to a stronger Sub-Weapon"
    },
    {
      "id": 54,
      "imageId": 66,
      "cred": 20,
      "flags": 4,
      "label": "Fruit Salad Days",
      "description": "Eat every Food item at least once.",
      "howto": "Eat every different Food item at least once"
    },
    {
      "id": 55,
      "imageId": 67,
      "cred": 20,
      "flags": 4,
      "label": "All the Little People",
      "description": "Locate every Familiar",
      "howto": "Locate every Familiar"
    },
    {
      "id": 56,
      "imageId": 69,
      "cred": 50,
      "flags": 1,
      "label": "BMO Lost",
      "description": "Find all of BMO's game cartridges",
      "howto": "Find all of BMO's game cartridges"
    },
    {
      "id": 57,
      "imageId": 68,
      "cred": 20,
      "flags": 4,
      "label": "The Ultimate Party Dip",
      "description": "Pick up every Item pickup at least once.",
      "howto": "Pick up every type of Item"
    }
  ]
}