{
  "achievementsPossible": 48,
  "credPossible": 1000,
  "achievements": [
    {
      "id": 5,
      "imageId": 2,
      "cred": 10,
      "flags": 6,
      "label": "A Secret History",
      "description": "Complete \"THE DAIMYO'S STORY\".",
      "howto": "Complete \"THE DAIMYO'S STORY\"."
    },
    {
      "id": 6,
      "imageId": 3,
      "cred": 15,
      "flags": 6,
      "label": "The Death of Innocence",
      "description": "Complete \"SCHOOL INVASION\".",
      "howto": "Complete \"SCHOOL INVASION\"."
    },
    {
      "id": 7,
      "imageId": 4,
      "cred": 20,
      "flags": 6,
      "label": "The Price for Vengeance",
      "description": "Complete \"SWORD MASTER'S STORY\".",
      "howto": "Complete \"SWORD MASTER'S STORY\"."
    },
    {
      "id": 8,
      "imageId": 5,
      "cred": 25,
      "flags": 6,
      "label": "Love Lost",
      "description": "Complete \"OKIKU'S STORY\".",
      "howto": "Complete \"OKIKU'S STORY\"."
    },
    {
      "id": 9,
      "imageId": 6,
      "cred": 30,
      "flags": 6,
      "label": "The Path to Godhood",
      "description": "Complete \"THE LOWDOWN EAST PASS\".",
      "howto": "Complete \"THE LOWDOWN EAST PASS\"."
    },
    {
      "id": 10,
      "imageId": 1,
      "cred": 5,
      "flags": 6,
      "label": "And so it begins",
      "description": "Complete \"PRELUDE\".",
      "howto": "Complete \"PRELUDE\"."
    },
    {
      "id": 11,
      "imageId": 7,
      "cred": 35,
      "flags": 6,
      "label": "Copy-Cat Killer",
      "description": "Complete \"THE DOPPELGANGER\".",
      "howto": "Complete \"THE DOPPELGANGER\"."
    },
    {
      "id": 12,
      "imageId": 8,
      "cred": 40,
      "flags": 6,
      "label": "The Past Laid to Rest",
      "description": "Complete \"KUMA'S STORY\".",
      "howto": "Complete \"KUMA'S STORY\"."
    },
    {
      "id": 13,
      "imageId": 9,
      "cred": 45,
      "flags": 6,
      "label": "All That Stood Are Gone",
      "description": "Complete \"THE EMPTY SEVEN'S STORY\".",
      "howto": "Complete \"THE EMPTY SEVEN'S STORY\"."
    },
    {
      "id": 14,
      "imageId": 10,
      "cred": 50,
      "flags": 6,
      "label": "Revenge Served?",
      "description": "Complete \"JUSTICE'S STORY\".",
      "howto": "Complete \"JUSTICE'S STORY\"."
    },
    {
      "id": 15,
      "imageId": 11,
      "cred": 200,
      "flags": 1,
      "label": "Completionist",
      "description": "Complete the game on both difficulties.",
      "howto": "Complete the game on both difficulties."
    },
    {
      "id": 16,
      "imageId": 27,
      "cred": 5,
      "flags": 4,
      "label": "Closer to God",
      "description": "Slice an enemy using a Vertical Attack with a bonus.",
      "howto": "Slice an enemy using a Vertical Attack with a bonus."
    },
    {
      "id": 18,
      "imageId": 26,
      "cred": 10,
      "flags": 4,
      "label": "This Little Piggy",
      "description": "Slice off fingers and toes at the same time.",
      "howto": "Slice off fingers and toes at the same time."
    },
    {
      "id": 19,
      "imageId": 28,
      "cred": 10,
      "flags": 4,
      "label": "Give Me a Hand",
      "description": "Slice off an enemy's hand.",
      "howto": "Slice off an enemy's hand."
    },
    {
      "id": 21,
      "imageId": 32,
      "cred": 5,
      "flags": 4,
      "label": "Two Birds One Sword",
      "description": "Slice 2 enemies at once.",
      "howto": "Slice 2 enemies at once."
    },
    {
      "id": 22,
      "imageId": 33,
      "cred": 5,
      "flags": 4,
      "label": "Three-way",
      "description": "Slice 3 enemies at once.",
      "howto": "Slice 3 enemies at once."
    },
    {
      "id": 23,
      "imageId": 34,
      "cred": 10,
      "flags": 4,
      "label": "Four to the Floor",
      "description": "Slice 4 enemies at once.",
      "howto": "Slice 4 enemies at once."
    },
    {
      "id": 26,
      "imageId": 15,
      "cred": 5,
      "flags": 3,
      "label": "The Child Without a Name",
      "description": "Collect 5 mementos in \"THE DAIMYO'S STORY\".",
      "howto": "Collect 5 mementos in \"THE DAIMYO'S STORY\"."
    },
    {
      "id": 27,
      "imageId": 16,
      "cred": 5,
      "flags": 3,
      "label": "Afro Samurai",
      "description": "Collect 5 mementos in \"SCHOOL INVASION\".",
      "howto": "Collect 5 mementos in \"SCHOOL INVASION\"."
    },
    {
      "id": 28,
      "imageId": 17,
      "cred": 5,
      "flags": 3,
      "label": "The Demon of Vengeance",
      "description": "Collect 5 mementos in \"OKIKU'S STORY\".",
      "howto": "Collect 5 mementos in \"OKIKU'S STORY\"."
    },
    {
      "id": 29,
      "imageId": 18,
      "cred": 5,
      "flags": 3,
      "label": "The Number Two",
      "description": "Collect 5 mementos in \"THE LOWDOWN EAST PASS\".",
      "howto": "Collect 5 mementos in \"THE LOWDOWN EAST PASS\"."
    },
    {
      "id": 31,
      "imageId": 19,
      "cred": 5,
      "flags": 3,
      "label": "The Death Bringer",
      "description": "Collect 5 mementos in \"THE DOPPELGANGER\".",
      "howto": "Collect 5 mementos in \"THE DOPPELGANGER\"."
    },
    {
      "id": 32,
      "imageId": 20,
      "cred": 5,
      "flags": 3,
      "label": "Widow Maker",
      "description": "Collect 5 mementos in \"KUMA'S STORY\".",
      "howto": "Collect 5 mementos in \"KUMA'S STORY\"."
    },
    {
      "id": 33,
      "imageId": 21,
      "cred": 5,
      "flags": 3,
      "label": "The Samurai Ghost",
      "description": "Collect 5 mementos in \"THE EMPTY SEVEN'S STORY\".",
      "howto": "Collect 5 mementos in \"THE EMPTY SEVEN'S STORY\"."
    },
    {
      "id": 34,
      "imageId": 22,
      "cred": 100,
      "flags": 3,
      "label": "The Number One",
      "description": "Unlock all skills.",
      "howto": "Unlock all skills."
    },
    {
      "id": 35,
      "imageId": 35,
      "cred": 20,
      "flags": 4,
      "label": "Hundred Head Hunter",
      "description": "Slice off 100 heads with a bonus.",
      "howto": "Slice off 100 heads with a bonus."
    },
    {
      "id": 36,
      "imageId": 31,
      "cred": 25,
      "flags": 4,
      "label": "Head to Toe",
      "description": "Slice 50 enemies using a Vertical Attack with a bonus.",
      "howto": "Slice 50 enemies using a Vertical Attack with a bonus."
    },
    {
      "id": 38,
      "imageId": 40,
      "cred": 5,
      "flags": 4,
      "label": "Meijin",
      "description": "Achieve 100 kills.",
      "howto": "Achieve 100 kills."
    },
    {
      "id": 39,
      "imageId": 41,
      "cred": 20,
      "flags": 1,
      "label": "Kengo",
      "description": "Achieve 1000 kills.",
      "howto": "Achieve 1000 kills."
    },
    {
      "id": 40,
      "imageId": 42,
      "cred": 50,
      "flags": 4,
      "label": "Kensei",
      "description": "Achieve 2000 kills.",
      "howto": "Achieve 2000 kills."
    },
    {
      "id": 41,
      "imageId": 44,
      "cred": 5,
      "flags": 4,
      "label": "Made Hand Ronin",
      "description": "Complete a Ronin Straight Flush.",
      "howto": "Complete a Ronin Straight Flush."
    },
    {
      "id": 42,
      "imageId": 45,
      "cred": 10,
      "flags": 4,
      "label": "No Limit Ninjas",
      "description": "Complete a Ninja Straight Flush.",
      "howto": "Complete a Ninja Straight Flush."
    },
    {
      "id": 43,
      "imageId": 46,
      "cred": 10,
      "flags": 1,
      "label": "Kunoichi Suicide Queens",
      "description": "Complete a Kunoichi Straight Flush.",
      "howto": "Complete a Kunoichi Straight Flush."
    },
    {
      "id": 44,
      "imageId": 47,
      "cred": 15,
      "flags": 4,
      "label": "Gutshot Android Straight",
      "description": "Complete an Android Straight Flush.",
      "howto": "Complete an Android Straight Flush."
    },
    {
      "id": 45,
      "imageId": 48,
      "cred": 25,
      "flags": 4,
      "label": "Off Suit Samurai",
      "description": "Complete a Samurai Straight Flush.",
      "howto": "Complete a Samurai Straight Flush."
    },
    {
      "id": 46,
      "imageId": 23,
      "cred": 10,
      "flags": 4,
      "label": "Hip Hop",
      "description": "Slice off an enemy's foot.",
      "howto": "Slice off an enemy's foot."
    },
    {
      "id": 47,
      "imageId": 30,
      "cred": 5,
      "flags": 1,
      "label": "Slow Your Roll",
      "description": "Slice an enemy during their attack.",
      "howto": "Slice an enemy during their attack."
    },
    {
      "id": 49,
      "imageId": 25,
      "cred": 10,
      "flags": 4,
      "label": "You Are Glue ",
      "description": "Kill an enemy with a sliced bullet.",
      "howto": "Kill an enemy with a sliced bullet."
    },
    {
      "id": 50,
      "imageId": 43,
      "cred": 10,
      "flags": 4,
      "label": "I Am Rubber",
      "description": "Kill an enemy with a reflected bullet.",
      "howto": "Kill an enemy with a reflected bullet."
    },
    {
      "id": 51,
      "imageId": 38,
      "cred": 5,
      "flags": 4,
      "label": "Mash Medley",
      "description": "Achieve a 20 hit combo.",
      "howto": "Achieve a 20 hit combo."
    },
    {
      "id": 52,
      "imageId": 39,
      "cred": 20,
      "flags": 4,
      "label": "Rhythm Section",
      "description": "Achieve a total of 3000 combos.",
      "howto": "Achieve a total of 3000 combos."
    },
    {
      "id": 53,
      "imageId": 37,
      "cred": 15,
      "flags": 4,
      "label": "Let It Flow ",
      "description": "Spill 2000 gallons of blood.",
      "howto": "Spill 2000 gallons of blood."
    },
    {
      "id": 54,
      "imageId": 14,
      "cred": 30,
      "flags": 4,
      "label": "Bushi",
      "description": "Unlock 40 skills.",
      "howto": "Unlock 40 skills."
    },
    {
      "id": 55,
      "imageId": 12,
      "cred": 10,
      "flags": 4,
      "label": "Ashigaru",
      "description": "Unlock 10 skills.",
      "howto": "Unlock 10 skills."
    },
    {
      "id": 56,
      "imageId": 13,
      "cred": 20,
      "flags": 4,
      "label": "Hatamoto",
      "description": "Unlock 25 skills.",
      "howto": "Unlock 25 skills."
    },
    {
      "id": 57,
      "imageId": 24,
      "cred": 5,
      "flags": 4,
      "label": "F*!# Gravity",
      "description": "Slice an enemy in the air.",
      "howto": "Slice an enemy in the air."
    },
    {
      "id": 58,
      "imageId": 29,
      "cred": 5,
      "flags": 4,
      "label": "Hats Off to You",
      "description": "Slice off a head with a bonus.",
      "howto": "Slice off a head with a bonus."
    },
    {
      "id": 59,
      "imageId": 36,
      "cred": 15,
      "flags": 1,
      "label": "Torso From Tail",
      "description": "Slice 50 bellies.",
      "howto": "Slice 50 bellies."
    }
  ]
}