{
  "achievementsPossible": 43,
  "credPossible": 1960,
  "achievements": [
    {
      "id": 1,
      "imageId": 1,
      "cred": 20,
      "flags": 1,
      "label": "Three Women and a Barry",
      "description": "Clear Episode One.",
      "howto": "Clear Episode One."
    },
    {
      "id": 2,
      "imageId": 2,
      "cred": 80,
      "flags": 1,
      "label": "\"Less Talking, More Walking\"",
      "description": "Clear Episode One in Countdown Mode.",
      "howto": "Clear Episode One in Countdown Mode."
    },
    {
      "id": 3,
      "imageId": 3,
      "cred": 80,
      "flags": 1,
      "label": "\"Not Even Close to Easy\"",
      "description": "Clear Episode One in Invisible Mode.",
      "howto": "Clear Episode One in Invisible Mode."
    },
    {
      "id": 4,
      "imageId": 4,
      "cred": 100,
      "flags": 1,
      "label": "Only Good Guys Win Medals",
      "description": "Get all medals in Episode One.",
      "howto": "Get all medals in Episode One."
    },
    {
      "id": 5,
      "imageId": 5,
      "cred": 60,
      "flags": 1,
      "label": "Bounty Hunter",
      "description": "Get a total of 50,000 BP.",
      "howto": "Get a total of 50,000 BP."
    },
    {
      "id": 6,
      "imageId": 6,
      "cred": 20,
      "flags": 1,
      "label": "Who Needs Fire?",
      "description": "Escape from the detention center in Claire's Episode One without using the flame-thrower bust.",
      "howto": "Escape from the detention center in Claire's Episode One without using the flame-thrower bust."
    },
    {
      "id": 7,
      "imageId": 7,
      "cred": 20,
      "flags": 1,
      "label": "Cure for the Afflicted",
      "description": "Defeat 100 Afflicted in the main campaign.",
      "howto": "Defeat 100 Afflicted in the main campaign."
    },
    {
      "id": 8,
      "imageId": 8,
      "cred": 20,
      "flags": 1,
      "label": "Revenant Reaper",
      "description": "Defeat 100 Revenants in the main campaign.",
      "howto": "Defeat 100 Revenants in the main campaign."
    },
    {
      "id": 9,
      "imageId": 9,
      "cred": 20,
      "flags": 1,
      "label": "Knifin' Around",
      "description": "Defeat 100 enemies with the knife in the main campaign.",
      "howto": "Defeat 100 enemies with the knife in the main campaign."
    },
    {
      "id": 10,
      "imageId": 10,
      "cred": 20,
      "flags": 1,
      "label": "Fudge Them Up!",
      "description": "Defeat 50 enemies with physical attacks in the main campaign.",
      "howto": "Defeat 50 enemies with physical attacks in the main campaign."
    },
    {
      "id": 11,
      "imageId": 11,
      "cred": 20,
      "flags": 1,
      "label": "And STAY Down",
      "description": "Perform 50 follow-ups in the main campaign.",
      "howto": "Perform 50 follow-ups in the main campaign."
    },
    {
      "id": 12,
      "imageId": 12,
      "cred": 20,
      "flags": 1,
      "label": "From the Shadows",
      "description": "Defeat 20 enemies with stealth attacks in the main campaign.",
      "howto": "Defeat 20 enemies with stealth attacks in the main campaign."
    },
    {
      "id": 13,
      "imageId": 13,
      "cred": 20,
      "flags": 1,
      "label": "Flashlight Duty",
      "description": "Use Moira's light to stun 50 enemies in the main campaign.",
      "howto": "Use Moira's light to stun 50 enemies in the main campaign."
    },
    {
      "id": 14,
      "imageId": 14,
      "cred": 60,
      "flags": 1,
      "label": "I Can Do Blunt Weapons",
      "description": "Use Moira's crowbar to defeat 50 enemies in the main campaign.",
      "howto": "Use Moira's crowbar to defeat 50 enemies in the main campaign."
    },
    {
      "id": 15,
      "imageId": 15,
      "cred": 60,
      "flags": 1,
      "label": "Brick Layer",
      "description": "Defeat 20 enemies with a brick as Natalia in the main campaign.",
      "howto": "Defeat 20 enemies with a brick as Natalia in the main campaign."
    },
    {
      "id": 16,
      "imageId": 16,
      "cred": 60,
      "flags": 1,
      "label": "Cutting Edge",
      "description": "Clear Episode One only using the knife.",
      "howto": "Clear Episode One only using the knife."
    },
    {
      "id": 17,
      "imageId": 17,
      "cred": 20,
      "flags": 1,
      "label": "Line 'Em Up!",
      "description": "Defeat two enemies with one shot in the main campaign.",
      "howto": "Defeat two enemies with one shot in the main campaign."
    },
    {
      "id": 18,
      "imageId": 18,
      "cred": 20,
      "flags": 1,
      "label": "Disarmed",
      "description": "Destroy 30 Revenants' weapon arms.",
      "howto": "Destroy 30 Revenants' weapon arms."
    },
    {
      "id": 19,
      "imageId": 19,
      "cred": 60,
      "flags": 1,
      "label": "Unfriendly Skies",
      "description": "Shoot down 30 Afflicted in mid-jump in the main campaign.",
      "howto": "Shoot down 30 Afflicted in mid-jump in the main campaign."
    },
    {
      "id": 20,
      "imageId": 20,
      "cred": 60,
      "flags": 1,
      "label": "Now That's Teamwork!",
      "description": "Have Moira stun an enemy and Claire follow up with a physical attack in the main campaign.",
      "howto": "Have Moira stun an enemy and Claire follow up with a physical attack in the main campaign."
    },
    {
      "id": 21,
      "imageId": 21,
      "cred": 20,
      "flags": 1,
      "label": "Friend Indeed",
      "description": "Save your captured partner ten times in the main campaign.",
      "howto": "Save your captured partner ten times in the main campaign."
    },
    {
      "id": 22,
      "imageId": 22,
      "cred": 20,
      "flags": 1,
      "label": "Fish in a Barrel",
      "description": "Defeat five enemies with one exploding bottle or one firebomb bottle in the main campaign.",
      "howto": "Defeat five enemies with one exploding bottle or one firebomb bottle in the main campaign."
    },
    {
      "id": 23,
      "imageId": 23,
      "cred": 20,
      "flags": 1,
      "label": "Raiders of the Evil",
      "description": "Clear one Raid Mode mission.",
      "howto": "Clear one Raid Mode mission."
    },
    {
      "id": 24,
      "imageId": 24,
      "cred": 20,
      "flags": 1,
      "label": "Jammin'",
      "description": "Evaluate an item in Raid Mode.",
      "howto": "Evaluate an item in Raid Mode."
    },
    {
      "id": 25,
      "imageId": 25,
      "cred": 80,
      "flags": 1,
      "label": "I Saw, I Conquered",
      "description": "Clear one Gauntlet in Raid Mode.",
      "howto": "Clear one Gauntlet in Raid Mode."
    },
    {
      "id": 26,
      "imageId": 26,
      "cred": 20,
      "flags": 1,
      "label": "Scared to Death",
      "description": "Clear Episode Two.",
      "howto": "Clear Episode Two."
    },
    {
      "id": 27,
      "imageId": 27,
      "cred": 80,
      "flags": 1,
      "label": "\"Run, Moira. Run!\"",
      "description": "Clear Episode Two in Countdown Mode.",
      "howto": "Clear Episode Two in Countdown Mode."
    },
    {
      "id": 28,
      "imageId": 28,
      "cred": 80,
      "flags": 1,
      "label": "\"That's Gonna Be Fun\"",
      "description": "Clear Episode Two in Invisible Mode.",
      "howto": "Clear Episode Two in Invisible Mode."
    },
    {
      "id": 29,
      "imageId": 29,
      "cred": 100,
      "flags": 1,
      "label": "There's a Medal for That",
      "description": "Get all medals in Episode Two.",
      "howto": "Get all medals in Episode Two."
    },
    {
      "id": 30,
      "imageId": 30,
      "cred": 20,
      "flags": 1,
      "label": "Pedro, I'm Sorry...",
      "description": "Defeat Mutant Pedro in Claire's Episode Two.",
      "howto": "Defeat Mutant Pedro in Claire's Episode Two."
    },
    {
      "id": 31,
      "imageId": 31,
      "cred": 20,
      "flags": 1,
      "label": "\"I Do Not Like Glasps,\" I Gasped",
      "description": "Defeat 20 Glasps in the main campaign.",
      "howto": "Defeat 20 Glasps in the main campaign."
    },
    {
      "id": 32,
      "imageId": 32,
      "cred": 20,
      "flags": 1,
      "label": "Conquered Fear",
      "description": "Clear Episode Three.",
      "howto": "Clear Episode Three."
    },
    {
      "id": 33,
      "imageId": 33,
      "cred": 80,
      "flags": 1,
      "label": "Pedal to the Metal",
      "description": "Clear Episode Three in Countdown Mode.",
      "howto": "Clear Episode Three in Countdown Mode."
    },
    {
      "id": 34,
      "imageId": 34,
      "cred": 80,
      "flags": 1,
      "label": "I Can See Undead People",
      "description": "Clear Episode Three in Invisible Mode.",
      "howto": "Clear Episode Three in Invisible Mode."
    },
    {
      "id": 35,
      "imageId": 35,
      "cred": 100,
      "flags": 1,
      "label": "Sweet, Golden Medal",
      "description": "Get all medals in Episode Three.",
      "howto": "Get all medals in Episode Three."
    },
    {
      "id": 36,
      "imageId": 36,
      "cred": 20,
      "flags": 1,
      "label": "Here's My Resignation",
      "description": "Moira defeats Neil in Claire's Episode Three.",
      "howto": "Moira defeats Neil in Claire's Episode Three."
    },
    {
      "id": 37,
      "imageId": 37,
      "cred": 20,
      "flags": 1,
      "label": "A Ripple in Time",
      "description": "Obtain the item that lies beyond the gate in the sewers in Barry's Episode Three.",
      "howto": "Obtain the item that lies beyond the gate in the sewers in Barry's Episode Three."
    },
    {
      "id": 38,
      "imageId": 38,
      "cred": 20,
      "flags": 1,
      "label": "True or False",
      "description": "Clear Episode Four.",
      "howto": "Clear Episode Four."
    },
    {
      "id": 39,
      "imageId": 39,
      "cred": 80,
      "flags": 1,
      "label": "\"You are Authorized to Panic\"",
      "description": "Clear Episode Four in Countdown Mode.",
      "howto": "Clear Episode Four in Countdown Mode."
    },
    {
      "id": 40,
      "imageId": 40,
      "cred": 80,
      "flags": 1,
      "label": "\"There's Something in Here\"",
      "description": "Clear Episode Four in Invisible Mode.",
      "howto": "Clear Episode Four in Invisible Mode."
    },
    {
      "id": 41,
      "imageId": 41,
      "cred": 100,
      "flags": 1,
      "label": "I'm Not Leaving Without My Medal",
      "description": "Get all medals in Episode Four.",
      "howto": "Get all medals in Episode Four."
    },
    {
      "id": 42,
      "imageId": 42,
      "cred": 20,
      "flags": 1,
      "label": "What You Can't See Can Kill You",
      "description": "Defeat six or more Glasps in the monument in Claire's Episode Four, on Normal difficulty or higher.",
      "howto": "Defeat six or more Glasps in the monument in Claire's Episode Four, on Normal difficulty or higher."
    },
    {
      "id": 43,
      "imageId": 43,
      "cred": 20,
      "flags": 1,
      "label": "Routes of Future Past",
      "description": "Complete both routes through the landfill in Barry's Episode Four.",
      "howto": "Complete both routes through the landfill in Barry's Episode Four."
    }
  ]
}