{
  "achievementsPossible": 15,
  "credPossible": 250,
  "achievements": [
    {
      "id": 9,
      "imageId": 1,
      "cred": 5,
      "flags": 1,
      "label": "Cadet",
      "description": "Completed a game of Dogfight",
      "howto": "Complete a game of Dogfight"
    },
    {
      "id": 11,
      "imageId": 3,
      "cred": 10,
      "flags": 1,
      "label": "Hero",
      "description": "Earned gold medals on all Defense Missions (Headquarters, Big Guns, and Reconnaissance).",
      "howto": "Earn gold medals on all Defense Missions (Headquarters, Big Guns, and Reconnaissance)."
    },
    {
      "id": 15,
      "imageId": 4,
      "cred": 10,
      "flags": 2,
      "label": "Professional",
      "description": "Earned gold medals on all Assault Missions (Bully Fight, Zeppeligeddon, and Bombs Away).",
      "howto": "Earn gold medals on all Assault Missions (Bully Fight, Zeppeligeddon, and Bombs Away)."
    },
    {
      "id": 19,
      "imageId": 2,
      "cred": 10,
      "flags": 2,
      "label": "Technical",
      "description": "Earned gold medals on all Navigation Missions (Ring Race, Birds of War, and Follow the Leader).",
      "howto": "Earn gold medals on all Navigation Missions (Ring Race, Birds of War, and Follow the Leader)."
    },
    {
      "id": 20,
      "imageId": 9,
      "cred": 15,
      "flags": 1,
      "label": "Big Guns",
      "description": "Earned 100 kills from the Turret",
      "howto": "Earn 100 kills from the Turret"
    },
    {
      "id": 21,
      "imageId": 10,
      "cred": 15,
      "flags": 1,
      "label": "Flawless",
      "description": "Completed any mode with 20+ kills and no deaths (Multiplayer Only).",
      "howto": "Complete any mode with 20+ kills and no deaths (Multiplayer Only)."
    },
    {
      "id": 22,
      "imageId": 7,
      "cred": 15,
      "flags": 1,
      "label": "Helping Hand",
      "description": "Earned 250 assists.",
      "howto": "Earn 250 assists."
    },
    {
      "id": 23,
      "imageId": 8,
      "cred": 20,
      "flags": 1,
      "label": "Sky King",
      "description": "Earned 25 wins (Multiplayer Only).",
      "howto": "Earn 25 wins (Multiplayer Only).\r\n"
    },
    {
      "id": 24,
      "imageId": 5,
      "cred": 20,
      "flags": 1,
      "label": "Weaponeer",
      "description": "Earned 25+ kills with every secondary weapon.",
      "howto": "Earn 25+ kills with every secondary weapon."
    },
    {
      "id": 25,
      "imageId": 12,
      "cred": 25,
      "flags": 1,
      "label": "Classic",
      "description": "Earned Doghouse reward 10 times (Multiplayer Only).",
      "howto": "Earn Doghouse reward 10 times (Multiplayer Only).\r\n"
    },
    {
      "id": 26,
      "imageId": 6,
      "cred": 25,
      "flags": 1,
      "label": "Veteran",
      "description": "Earned 10,000+ points (Xbox LIVE Player Match Only).",
      "howto": "Earn 10,000+ points (Xbox LIVE Player Match Only)."
    },
    {
      "id": 27,
      "imageId": 13,
      "cred": 30,
      "flags": 1,
      "label": "Flying Ace",
      "description": "Reached Flying Ace Status (Xbox LIVE Player Match Only).",
      "howto": "Reach Flying Ace Status (Xbox LIVE Player Match Only)."
    },
    {
      "id": 28,
      "imageId": 19,
      "cred": 15,
      "flags": 1,
      "label": "Bully",
      "description": "Killed any Blockhead (Xbox LIVE Player Match Only)",
      "howto": "Kill any Blockhead (Xbox LIVE Player Match Only)"
    },
    {
      "id": 29,
      "imageId": 20,
      "cred": 15,
      "flags": 1,
      "label": "Camouflage",
      "description": "Survived 5 minutes with no deaths (Xbox LIVE Player Match Only).",
      "howto": "Survive 5 minutes with no deaths (Xbox LIVE Player Match Only)."
    },
    {
      "id": 30,
      "imageId": 21,
      "cred": 20,
      "flags": 1,
      "label": "Kite Flyer",
      "description": "Earned 50+ kills for both \"Kite\" class airplanes (Dragonfly and Whirlybird)",
      "howto": "Earn 50+ kills for both \"Kite\" class airplanes (Dragonfly and Whirlybird)"
    }
  ]
}