{
  "achievementsPossible": 50,
  "credPossible": 1000,
  "achievements": [
    {
      "id": 11,
      "imageId": 1,
      "cred": 20,
      "flags": 4,
      "label": "Challenger",
      "description": "Successfully completed 5 Factory requests",
      "howto": "Successfully completed 5 Factory requests"
    },
    {
      "id": 13,
      "imageId": 2,
      "cred": 20,
      "flags": 4,
      "label": "Master Challenger",
      "description": "Successfully completed 20 Factory requests",
      "howto": "Successfully completed 20 Factory requests"
    },
    {
      "id": 14,
      "imageId": 32,
      "cred": 20,
      "flags": 4,
      "label": "Romancer",
      "description": "Become Master Romancer for 5 species",
      "howto": "Become Master Romancer for 5 species"
    },
    {
      "id": 16,
      "imageId": 33,
      "cred": 20,
      "flags": 4,
      "label": "Master Romancer",
      "description": "Become Master Romancer for 20 species",
      "howto": "Become Master Romancer for 20 species"
    },
    {
      "id": 17,
      "imageId": 6,
      "cred": 20,
      "flags": 4,
      "label": "Collector",
      "description": "Made 5 species resident",
      "howto": "Made 5 species resident"
    },
    {
      "id": 19,
      "imageId": 7,
      "cred": 20,
      "flags": 4,
      "label": "Master Collector",
      "description": "Made 50 species resident",
      "howto": "Made 50 species resident"
    },
    {
      "id": 21,
      "imageId": 24,
      "cred": 20,
      "flags": 4,
      "label": "Longevity",
      "description": "Played the game for 10 hours (real time)",
      "howto": "Played the game for 10 hours (real time)"
    },
    {
      "id": 23,
      "imageId": 25,
      "cred": 20,
      "flags": 4,
      "label": "Longevity Master",
      "description": "Played the game for 50 hours (real time)",
      "howto": "Played the game for 50 hours (real time)"
    },
    {
      "id": 27,
      "imageId": 22,
      "cred": 20,
      "flags": 4,
      "label": "Land Owner",
      "description": "Garden size increased once",
      "howto": "Garden size increased once"
    },
    {
      "id": 32,
      "imageId": 23,
      "cred": 20,
      "flags": 4,
      "label": "Master Land Owner",
      "description": "Garden size at maximum",
      "howto": "Garden size at maximum"
    },
    {
      "id": 33,
      "imageId": 12,
      "cred": 20,
      "flags": 4,
      "label": "Garden Value",
      "description": "Garden worth 25,000 chocolate coins",
      "howto": "Garden worth 25,000 chocolate coins"
    },
    {
      "id": 35,
      "imageId": 13,
      "cred": 20,
      "flags": 4,
      "label": "Garden Value Master",
      "description": "Garden worth 100,000 chocolate coins",
      "howto": "Garden worth 100,000 chocolate coins"
    },
    {
      "id": 36,
      "imageId": 30,
      "cred": 20,
      "flags": 4,
      "label": "Piñata Value",
      "description": "One Piñata worth 5,000 chocolate coins",
      "howto": "One Piñata worth 5,000 chocolate coins"
    },
    {
      "id": 38,
      "imageId": 31,
      "cred": 20,
      "flags": 4,
      "label": "Piñata Value Master",
      "description": "One Piñata worth 10,000 chocolate coins",
      "howto": "One Piñata worth 10,000 chocolate coins"
    },
    {
      "id": 50,
      "imageId": 28,
      "cred": 20,
      "flags": 4,
      "label": "Pigxie Prize",
      "description": "Cross romancing a Swanana and a Rashberry",
      "howto": "Cross romancing a Swanana and a Rashberry"
    },
    {
      "id": 51,
      "imageId": 39,
      "cred": 20,
      "flags": 4,
      "label": "Super Shovel",
      "description": "All the Shovel Head upgrades",
      "howto": "All the Shovel Head upgrades"
    },
    {
      "id": 52,
      "imageId": 35,
      "cred": 20,
      "flags": 4,
      "label": "Shovel Strength",
      "description": "All the Shovel Handle upgrades",
      "howto": "All the Shovel Handle upgrades"
    },
    {
      "id": 53,
      "imageId": 47,
      "cred": 20,
      "flags": 4,
      "label": "Watering Can Do",
      "description": "All the Watering Can upgrades",
      "howto": "All the Watering Can upgrades"
    },
    {
      "id": 54,
      "imageId": 16,
      "cred": 20,
      "flags": 4,
      "label": "Green Fingers",
      "description": "Grown 5 plants to maturity",
      "howto": "Grown 5 plants to maturity"
    },
    {
      "id": 56,
      "imageId": 17,
      "cred": 20,
      "flags": 4,
      "label": "Master Green Fingers",
      "description": "Grown 25 plants to maturity",
      "howto": "Grown 25 plants to maturity"
    },
    {
      "id": 57,
      "imageId": 20,
      "cred": 20,
      "flags": 4,
      "label": "Horticulturist",
      "description": "Full bonus growth for 5 plants",
      "howto": "Full bonus growth for 5 plants"
    },
    {
      "id": 59,
      "imageId": 21,
      "cred": 20,
      "flags": 4,
      "label": "Master Horticulturist",
      "description": "Full bonus growth for 25 plants",
      "howto": "Full bonus growth for 25 plants"
    },
    {
      "id": 71,
      "imageId": 18,
      "cred": 20,
      "flags": 4,
      "label": "Harvester",
      "description": "Collected produce from a Buzzlegum, Moozipan or Goobaa",
      "howto": "Collected produce from a Buzzlegum, Moozipan or Goobaa"
    },
    {
      "id": 74,
      "imageId": 48,
      "cred": 20,
      "flags": 4,
      "label": "Wealthy",
      "description": "Player has 25,000 chocolate coins",
      "howto": "Player has 25,000 chocolate coins"
    },
    {
      "id": 78,
      "imageId": 15,
      "cred": 20,
      "flags": 4,
      "label": "Generosity",
      "description": "Player turned the Beggar into a Trader",
      "howto": "Player turned the Beggar into a Trader"
    },
    {
      "id": 79,
      "imageId": 41,
      "cred": 20,
      "flags": 4,
      "label": "Label Designer",
      "description": "Made a Custom Label",
      "howto": "Made a Custom Label"
    },
    {
      "id": 80,
      "imageId": 29,
      "cred": 20,
      "flags": 4,
      "label": "Piñata Name Caller",
      "description": "Named a Piñata",
      "howto": "Named a Piñata"
    },
    {
      "id": 81,
      "imageId": 19,
      "cred": 20,
      "flags": 4,
      "label": "Helper Name Caller",
      "description": "Named a Helper",
      "howto": "Named a Helper"
    },
    {
      "id": 88,
      "imageId": 40,
      "cred": 20,
      "flags": 4,
      "label": "Taffly Fertilizer",
      "description": "Player has made fertilizer with the Taffly",
      "howto": "Player has made fertilizer with the Taffly"
    },
    {
      "id": 89,
      "imageId": 4,
      "cred": 20,
      "flags": 4,
      "label": "Cluckles Hatches Egg",
      "description": "Player has hatched an egg using the Cluckles",
      "howto": "Player has hatched an egg using the Cluckles"
    },
    {
      "id": 90,
      "imageId": 5,
      "cred": 20,
      "flags": 4,
      "label": "Cocoadile Tears",
      "description": "Player has attained full bonus growth for a plant using the Cocoadile tears",
      "howto": "Player has attained full bonus growth for a plant using the Cocoadile tears"
    },
    {
      "id": 91,
      "imageId": 3,
      "cred": 20,
      "flags": 4,
      "label": "Chewnicorn Healing",
      "description": "Player has healed a Piñata with the Chewnicorn's power",
      "howto": "Player has healed a Piñata with the Chewnicorn's power"
    },
    {
      "id": 92,
      "imageId": 34,
      "cred": 20,
      "flags": 4,
      "label": "Sherbat Dance",
      "description": "Player has distracted Dastardos with the Sherbat",
      "howto": "Player has distracted Dastardos with the Sherbat"
    },
    {
      "id": 93,
      "imageId": 8,
      "cred": 20,
      "flags": 4,
      "label": "Crowla Delay",
      "description": "Player has distracted Dastardos with the Crowla",
      "howto": "Player has distracted Dastardos with the Crowla"
    },
    {
      "id": 94,
      "imageId": 27,
      "cred": 20,
      "flags": 4,
      "label": "Mallowolf Howl",
      "description": "Player has used the Mallowolf to scare off Ruffians",
      "howto": "Player has used the Mallowolf to scare off Ruffians"
    },
    {
      "id": 95,
      "imageId": 26,
      "cred": 20,
      "flags": 4,
      "label": "Macaracoon Gift",
      "description": "Player has been brought a Romance Sweet by a Macaracoon",
      "howto": "Player has been brought a Romance Sweet by a Macaracoon"
    },
    {
      "id": 105,
      "imageId": 10,
      "cred": 20,
      "flags": 4,
      "label": "Evolver",
      "description": "Evolved 2 species",
      "howto": "Evolved 2 species"
    },
    {
      "id": 106,
      "imageId": 11,
      "cred": 20,
      "flags": 4,
      "label": "Master Evolver",
      "description": "Evolved 8 species",
      "howto": "Evolved 8 species"
    },
    {
      "id": 107,
      "imageId": 36,
      "cred": 20,
      "flags": 4,
      "label": "Sour Tower",
      "description": "Tower of Sour has 2 pieces",
      "howto": "Tower of Sour has 2 pieces"
    },
    {
      "id": 108,
      "imageId": 37,
      "cred": 20,
      "flags": 4,
      "label": "Master Sour Tower",
      "description": "Tower of Sour has 6 pieces",
      "howto": "Tower of Sour has 6 pieces"
    },
    {
      "id": 109,
      "imageId": 42,
      "cred": 20,
      "flags": 4,
      "label": "Talent",
      "description": "Player has reached Level 10",
      "howto": "Player has reached Level 10"
    },
    {
      "id": 110,
      "imageId": 43,
      "cred": 20,
      "flags": 4,
      "label": "Master Talent",
      "description": "Player has reached Level 50",
      "howto": "Player has reached Level 50"
    },
    {
      "id": 111,
      "imageId": 44,
      "cred": 20,
      "flags": 4,
      "label": "Variants",
      "description": "Made 5 variant Piñatas",
      "howto": "Made 5 variant Piñatas"
    },
    {
      "id": 112,
      "imageId": 45,
      "cred": 20,
      "flags": 4,
      "label": "Variants Master",
      "description": "Made 20 variant Piñatas",
      "howto": "Made 20 variant Piñatas"
    },
    {
      "id": 113,
      "imageId": 9,
      "cred": 20,
      "flags": 4,
      "label": "Diggerling",
      "description": "Employed a Diggerling",
      "howto": "Employed a Diggerling"
    },
    {
      "id": 114,
      "imageId": 46,
      "cred": 20,
      "flags": 4,
      "label": "Watchling",
      "description": "Employed a Watchling",
      "howto": "Employed a Watchling"
    },
    {
      "id": 115,
      "imageId": 38,
      "cred": 20,
      "flags": 4,
      "label": "Sprinkling",
      "description": "Employed a Sprinkling",
      "howto": "Employed a Sprinkling"
    },
    {
      "id": 116,
      "imageId": 50,
      "cred": 20,
      "flags": 4,
      "label": "Weedling",
      "description": "Employed a Weedling",
      "howto": "Employed a Weedling"
    },
    {
      "id": 117,
      "imageId": 14,
      "cred": 20,
      "flags": 4,
      "label": "Gatherling",
      "description": "Employed a Gatherling",
      "howto": "Employed a Gatherling"
    },
    {
      "id": 118,
      "imageId": 49,
      "cred": 20,
      "flags": 4,
      "label": "Wealth Master",
      "description": "Player has 100,000 chocolate coins",
      "howto": "Player has 100,000 chocolate coins"
    }
  ]
}