{
  "achievementsPossible": 46,
  "credPossible": 1000,
  "achievements": [
    {
      "id": 58,
      "imageId": 163,
      "cred": 10,
      "flags": 1,
      "label": "Apprentice Pin Collector",
      "description": "Acquired a Collectible Pin for the first time",
      "howto": "Acquire a Collectible Pin for the first time"
    },
    {
      "id": 59,
      "imageId": 193,
      "cred": 10,
      "flags": 1,
      "label": "Blot Alley Superstar",
      "description": "Befriended the Blotworx and helped Petetronic",
      "howto": "Befriend the Blotworx and help Petetronic"
    },
    {
      "id": 60,
      "imageId": 180,
      "cred": 10,
      "flags": 1,
      "label": "Clear!",
      "description": "Mickey revived Oswald while playing co-op",
      "howto": "Mickey revived Oswald while playing co-op"
    },
    {
      "id": 61,
      "imageId": 186,
      "cred": 25,
      "flags": 1,
      "label": "Devoted Pin Collector",
      "description": "Found 88 Collectible Pins",
      "howto": "Find 88 Collectible Pins"
    },
    {
      "id": 62,
      "imageId": 204,
      "cred": 30,
      "flags": 1,
      "label": "Dragon Defeat",
      "description": "Defeated the Blotworx Dragon",
      "howto": "Defeat the Blotworx Dragon"
    },
    {
      "id": 64,
      "imageId": 187,
      "cred": 30,
      "flags": 1,
      "label": "Dressed to Impress",
      "description": "Collected every Costume",
      "howto": "Collect every Costume"
    },
    {
      "id": 65,
      "imageId": 188,
      "cred": 10,
      "flags": 1,
      "label": "Dress-up",
      "description": "Changed costumes for the first time",
      "howto": "Change costumes for the first time"
    },
    {
      "id": 67,
      "imageId": 158,
      "cred": 20,
      "flags": 1,
      "label": "Fall From Grace",
      "description": "Entered Angel Falls, exited Devil Falls",
      "howto": "Enter Angel Falls, but exit Devil Falls"
    },
    {
      "id": 68,
      "imageId": 159,
      "cred": 30,
      "flags": 1,
      "label": "Film Buff",
      "description": "Collected every 2D Film Reel",
      "howto": "Collect every 2D Film Reel"
    },
    {
      "id": 69,
      "imageId": 189,
      "cred": 20,
      "flags": 1,
      "label": "Fortified",
      "description": "Scouted a path through Fort Wasteland",
      "howto": "Scout a path through Fort Wasteland"
    },
    {
      "id": 70,
      "imageId": 190,
      "cred": 20,
      "flags": 1,
      "label": "Full-court Prescott",
      "description": "Chased Prescott through the Floatyard",
      "howto": "Chase Prescott through the Floatyard"
    },
    {
      "id": 71,
      "imageId": 191,
      "cred": 20,
      "flags": 1,
      "label": "Go with the Flow",
      "description": "Solved OsTown's Thinner problem",
      "howto": "Solve OsTown's Thinner problem"
    },
    {
      "id": 72,
      "imageId": 160,
      "cred": 10,
      "flags": 1,
      "label": "Who Left These Lying Around?",
      "description": "Rescued all the gremlins",
      "howto": "Rescue all the gremlins"
    },
    {
      "id": 73,
      "imageId": 161,
      "cred": 10,
      "flags": 1,
      "label": "Get with the Program",
      "description": "Reprogrammed a Beetleworx",
      "howto": "Reprogram a Beetleworx"
    },
    {
      "id": 74,
      "imageId": 192,
      "cred": 20,
      "flags": 1,
      "label": "Hard Hat Area",
      "description": "Got through Ventureland's construction area",
      "howto": "Head through Ventureland's construction area"
    },
    {
      "id": 76,
      "imageId": 162,
      "cred": 20,
      "flags": 1,
      "label": "Heads Up",
      "description": "Matched Seth's flowers to OsTown's statue",
      "howto": "Match Seth's flowers to OsTown's statue"
    },
    {
      "id": 77,
      "imageId": 164,
      "cred": 25,
      "flags": 1,
      "label": "Heroes of Wasteland",
      "description": "Built both statues in OsTown",
      "howto": "Build both statues in OsTown"
    },
    {
      "id": 78,
      "imageId": 201,
      "cred": 10,
      "flags": 1,
      "label": "Junker",
      "description": "Destroyed 50 enemies",
      "howto": "Destroy 50 enemies"
    },
    {
      "id": 79,
      "imageId": 166,
      "cred": 20,
      "flags": 1,
      "label": "Lab Tested",
      "description": "Finished Yen Sid's Lab",
      "howto": "Finish Yen Sid's Lab"
    },
    {
      "id": 80,
      "imageId": 167,
      "cred": 25,
      "flags": 1,
      "label": "Make Your Own Way",
      "description": "Ignored Daisy AND Smee's suggestions",
      "howto": "Ignore Daisy AND Smee's suggestions"
    },
    {
      "id": 83,
      "imageId": 168,
      "cred": 75,
      "flags": 1,
      "label": "Master Pin Collector",
      "description": "Collected 176 Collectible Pins",
      "howto": "Collect 176 Collectible Pins"
    },
    {
      "id": 84,
      "imageId": 169,
      "cred": 10,
      "flags": 1,
      "label": "Not-So-Sleepy Hollow",
      "description": "Revealed every knothole surprise",
      "howto": "Reveal every knothole surprise"
    },
    {
      "id": 85,
      "imageId": 170,
      "cred": 25,
      "flags": 1,
      "label": "Off Track",
      "description": "Shuttered all four train stations",
      "howto": "Shutter all four train stations"
    },
    {
      "id": 86,
      "imageId": 171,
      "cred": 10,
      "flags": 1,
      "label": "Oswald's New Groove",
      "description": "Finished Dark Beauty Castle with two players",
      "howto": "Finish Dark Beauty Castle with two players"
    },
    {
      "id": 87,
      "imageId": 172,
      "cred": 75,
      "flags": 1,
      "label": "Perfectionist",
      "description": "Finished all quests",
      "howto": "Finish all quests"
    },
    {
      "id": 88,
      "imageId": 173,
      "cred": 10,
      "flags": 1,
      "label": "Picture Perfect",
      "description": "Got all three of Metairie's pictures",
      "howto": "Get all three of Metairie's pictures"
    },
    {
      "id": 89,
      "imageId": 174,
      "cred": 25,
      "flags": 1,
      "label": "Prince Charming",
      "description": "Befriended 100 enemies",
      "howto": "Befriend 100 enemies"
    },
    {
      "id": 90,
      "imageId": 175,
      "cred": 20,
      "flags": 1,
      "label": "Projector Corrector",
      "description": "Restarted the Rainbow Falls Substation",
      "howto": "Restart the Rainbow Falls Substation"
    },
    {
      "id": 91,
      "imageId": 194,
      "cred": 10,
      "flags": 1,
      "label": "Race the Autotopia Speedway",
      "description": "Completed a race in Autotopia",
      "howto": "Complete a race in Autotopia"
    },
    {
      "id": 92,
      "imageId": 176,
      "cred": 10,
      "flags": 1,
      "label": "Recycler",
      "description": "Befriended 50 enemies",
      "howto": "Befriend 50 enemies"
    },
    {
      "id": 93,
      "imageId": 177,
      "cred": 20,
      "flags": 1,
      "label": "Rogues Gallery",
      "description": "Photographed every enemy",
      "howto": "Photograph every enemy"
    },
    {
      "id": 94,
      "imageId": 195,
      "cred": 20,
      "flags": 1,
      "label": "Running the Gauntlet",
      "description": "Got through Blot Alley by any means",
      "howto": "Go through Blot Alley by any means"
    },
    {
      "id": 97,
      "imageId": 196,
      "cred": 20,
      "flags": 1,
      "label": "Siphon...Siphoff...",
      "description": "Dealt with all the Guardian Siphons",
      "howto": "Deal with all the Guardian Siphons"
    },
    {
      "id": 98,
      "imageId": 178,
      "cred": 30,
      "flags": 1,
      "label": "Staff Photographer",
      "description": "Got all Adelle's photos from the official Picture Spots",
      "howto": "Get all Adelle's photos from the official Picture Spots"
    },
    {
      "id": 99,
      "imageId": 179,
      "cred": 50,
      "flags": 1,
      "label": "Statue Garden",
      "description": "Awakened every Spirit",
      "howto": "Awaken every Spirit"
    },
    {
      "id": 100,
      "imageId": 197,
      "cred": 30,
      "flags": 1,
      "label": "The Bigger They Are...",
      "description": "Defeated Prescott's mechanical creation",
      "howto": "Defeat Prescott's mechanical creation"
    },
    {
      "id": 101,
      "imageId": 181,
      "cred": 25,
      "flags": 1,
      "label": "Thinderella",
      "description": "Destroyed 100 enemies",
      "howto": "Destroy 100 enemies"
    },
    {
      "id": 102,
      "imageId": 198,
      "cred": 20,
      "flags": 1,
      "label": "Things Are Worxing Out",
      "description": "Opened the way to Blot Alley",
      "howto": "Open the way to Blot Alley"
    },
    {
      "id": 103,
      "imageId": 199,
      "cred": 20,
      "flags": 1,
      "label": "Trailblazer",
      "description": "Braved Disney Gulch",
      "howto": "Brave Disney Gulch"
    },
    {
      "id": 104,
      "imageId": 200,
      "cred": 20,
      "flags": 1,
      "label": "Tryptic",
      "description": "Dealt with all 3 dioramas",
      "howto": "Deal with all 3 dioramas"
    },
    {
      "id": 105,
      "imageId": 182,
      "cred": 10,
      "flags": 1,
      "label": "Tunnel Mouse",
      "description": "Played through every D.E.C.",
      "howto": "Play through every D.E.C."
    },
    {
      "id": 106,
      "imageId": 183,
      "cred": 20,
      "flags": 1,
      "label": "Walking the Mean Streets",
      "description": "Navigated both halves of Mean Street",
      "howto": "Navigate both halves of Mean Street"
    },
    {
      "id": 107,
      "imageId": 184,
      "cred": 10,
      "flags": 1,
      "label": "We've Got Spirit, Yes We Do!",
      "description": "Awakened a Spirit",
      "howto": "Awaken a Spirit"
    },
    {
      "id": 108,
      "imageId": 185,
      "cred": 10,
      "flags": 1,
      "label": "When You Wish Upon a Star",
      "description": "Painted every star and comet in Yen Sid's Lab",
      "howto": "Paint every star and comet in Yen Sid's Lab"
    },
    {
      "id": 109,
      "imageId": 202,
      "cred": 30,
      "flags": 1,
      "label": "You Must be This Tall to Ride",
      "description": "Defeated the Mad Doctor's new ride",
      "howto": "Defeat the Mad Doctor's new ride"
    },
    {
      "id": 110,
      "imageId": 203,
      "cred": 20,
      "flags": 1,
      "label": "Your Conscience Be Your Guide",
      "description": "Found a way through the Rainbow Caverns",
      "howto": "Find a way through the Rainbow Caverns"
    }
  ]
}