{
  "achievementsPossible": 49,
  "credPossible": 1000,
  "achievements": [
    {
      "id": 230,
      "imageId": 1,
      "cred": 30,
      "flags": 1,
      "label": "League Champions",
      "description": "Be a member of an EASHL club that has recently won the League Title and return to the Seasons HUB",
      "howto": "Be a member of an EASHL club that has recently won the League Title and return to the Seasons HUB"
    },
    {
      "id": 231,
      "imageId": 2,
      "cred": 15,
      "flags": 1,
      "label": "Conference Champions",
      "description": "Be a member of an EASHL club that has recently won a Division Title and return to the Seasons HUB",
      "howto": "Be a member of an EASHL club that has recently won a Division Title and return to the Seasons HUB"
    },
    {
      "id": 232,
      "imageId": 3,
      "cred": 30,
      "flags": 1,
      "label": "On A Roll",
      "description": "Be a member of an EASHL club that had a perfect record last season and return to the Seasons HUB",
      "howto": "Be a member of an EASHL club that had a perfect record last season and return to the Seasons HUB"
    },
    {
      "id": 233,
      "imageId": 4,
      "cred": 15,
      "flags": 1,
      "label": "Victorious",
      "description": "Be a member of an EASHL club that has recently won a playoff cup and return to the Seasons HUB",
      "howto": "Be a member of an EASHL club that has recently won a playoff cup and return to the Seasons HUB"
    },
    {
      "id": 234,
      "imageId": 5,
      "cred": 15,
      "flags": 1,
      "label": "Promotions For All",
      "description": "Be a member of an EASHL club that has recently been promoted and return to the Seasons HUB",
      "howto": "Be a member of an EASHL club that has recently been promoted and return to the Seasons HUB"
    },
    {
      "id": 235,
      "imageId": 6,
      "cred": 15,
      "flags": 1,
      "label": "Lead By Example",
      "description": "As Captain or Assistant Captain, be named one of the 3 stars during an EASHL match",
      "howto": "As Captain or Assistant Captain, be named one of the 3 stars during an EASHL match"
    },
    {
      "id": 236,
      "imageId": 7,
      "cred": 15,
      "flags": 1,
      "label": "Power To The Max!",
      "description": "Boost one of your online Pro player's attributes by +15",
      "howto": "Boost one of your online Pro player's attributes by +15"
    },
    {
      "id": 237,
      "imageId": 8,
      "cred": 30,
      "flags": 1,
      "label": "Coast To Coast",
      "description": "Starting from behind your net skate up the ice and score without passing",
      "howto": "Starting from behind your net skate up the ice and score without passing"
    },
    {
      "id": 238,
      "imageId": 9,
      "cred": 15,
      "flags": 1,
      "label": "Clutch",
      "description": "Score a goal and win in overtime in online versus",
      "howto": "Score a goal and win in overtime in online versus"
    },
    {
      "id": 239,
      "imageId": 10,
      "cred": 30,
      "flags": 1,
      "label": "High Risk High Reward",
      "description": "Score a goal with your goalie pulled",
      "howto": "Score a goal with your goalie pulled"
    },
    {
      "id": 240,
      "imageId": 11,
      "cred": 15,
      "flags": 1,
      "label": "Undressed",
      "description": "Score a goal on a goalie who has performed a desperation save in Online Ranked Shootout",
      "howto": "Score a goal on a goalie who has performed a desperation save in Online Ranked Shootout"
    },
    {
      "id": 241,
      "imageId": 12,
      "cred": 15,
      "flags": 1,
      "label": "Locked and Loaded",
      "description": "Score on a slapshot in Online Ranked Shootout",
      "howto": "Score on a slapshot in Online Ranked Shootout"
    },
    {
      "id": 242,
      "imageId": 13,
      "cred": 15,
      "flags": 1,
      "label": "Promising Start",
      "description": "Get drafted in 1st overall to an NHL® team in Be A Pro with a created Pro.",
      "howto": "Get drafted in 1st overall to an NHL® team in Be A Pro with a created Pro."
    },
    {
      "id": 243,
      "imageId": 14,
      "cred": 15,
      "flags": 1,
      "label": "Billboarded",
      "description": "Sign an Endorsement in Be A Pro with a created Pro.",
      "howto": "Sign an Endorsement in Be A Pro with a created Pro."
    },
    {
      "id": 244,
      "imageId": 15,
      "cred": 15,
      "flags": 1,
      "label": "Accepted",
      "description": "Be invited out by one of your teammates in Be A Pro with a created Pro.",
      "howto": "Be invited out by one of your teammates in Be A Pro with a created Pro."
    },
    {
      "id": 245,
      "imageId": 16,
      "cred": 15,
      "flags": 1,
      "label": "#1 Fan",
      "description": "Have your Fan likeability meter full in Be A Pro with a created Pro.",
      "howto": "Have your Fan likeability meter full in Be A Pro with a created Pro."
    },
    {
      "id": 246,
      "imageId": 17,
      "cred": 15,
      "flags": 1,
      "label": "Locker Room Favorite",
      "description": "Have your teammate likeability meter full in Be A Pro with a created Pro.",
      "howto": "Have your teammate likeability meter full in Be A Pro with a created Pro."
    },
    {
      "id": 247,
      "imageId": 18,
      "cred": 15,
      "flags": 1,
      "label": "Suck Up",
      "description": "Have your management likeability meter full in Be A Pro with a created Pro.",
      "howto": "Have your management likeability meter full in Be A Pro with a created Pro."
    },
    {
      "id": 248,
      "imageId": 19,
      "cred": 15,
      "flags": 1,
      "label": "Family Man",
      "description": "Have your Family likeability meter full in Be A Pro with a created Pro.",
      "howto": "Have your Family likeability meter full in Be A Pro with a created Pro."
    },
    {
      "id": 249,
      "imageId": 20,
      "cred": 15,
      "flags": 1,
      "label": "Editor",
      "description": "Edit your created pro in Be A Pro.",
      "howto": "Edit your created pro in Be A Pro."
    },
    {
      "id": 250,
      "imageId": 21,
      "cred": 30,
      "flags": 1,
      "label": "Making Millions",
      "description": "Acquire 50 million dollars in your career in Be A Pro with a created Pro.",
      "howto": "Acquire 50 million dollars in your career in Be A Pro with a created Pro."
    },
    {
      "id": 251,
      "imageId": 22,
      "cred": 30,
      "flags": 1,
      "label": "Tough as Nails     ",
      "description": "Win a fight without blocking/dodging",
      "howto": "Win a fight without blocking/dodging"
    },
    {
      "id": 252,
      "imageId": 23,
      "cred": 15,
      "flags": 1,
      "label": "True Teammate                ",
      "description": "Engage in a fight standing up for a teammate (player or goalie) that was hit",
      "howto": "Engage in a fight standing up for a teammate (player or goalie) that was hit"
    },
    {
      "id": 253,
      "imageId": 24,
      "cred": 15,
      "flags": 1,
      "label": "Jersey ‘Em",
      "description": "Land a successful punch in the fight state with your opponent pulled down",
      "howto": "Land a successful punch in the fight state with your opponent pulled down"
    },
    {
      "id": 254,
      "imageId": 25,
      "cred": 15,
      "flags": 1,
      "label": "Grappling      ",
      "description": "Win a fight by pushing/pulling a player to the ground      ",
      "howto": "Win a fight by pushing/pulling a player to the ground      "
    },
    {
      "id": 255,
      "imageId": 26,
      "cred": 15,
      "flags": 1,
      "label": "Escape Artist   ",
      "description": "In a fight escape from the pulled down state",
      "howto": "In a fight escape from the pulled down state"
    },
    {
      "id": 256,
      "imageId": 27,
      "cred": 30,
      "flags": 1,
      "label": "Deking Machine                 ",
      "description": "Beat a defender with each of the new One-Touch dekes in one match",
      "howto": "Beat a defender with each of the new One-Touch dekes in one match"
    },
    {
      "id": 257,
      "imageId": 28,
      "cred": 15,
      "flags": 1,
      "label": "Not My Gatorade!",
      "description": "Knock off the opposing goalie's Gatorade bottle from the net by scoring a goal.",
      "howto": "Knock off the opposing goalie's Gatorade bottle from the net by scoring a goal."
    },
    {
      "id": 258,
      "imageId": 29,
      "cred": 30,
      "flags": 1,
      "label": "Puck On A String                ",
      "description": "Beat two defenders with One-Touch dekes before scoring a goal with the same player",
      "howto": "Beat two defenders with One-Touch dekes before scoring a goal with the same player"
    },
    {
      "id": 259,
      "imageId": 30,
      "cred": 30,
      "flags": 1,
      "label": "Legend GM",
      "description": "Achieve Legendary GM Status in Be A GM",
      "howto": "Achieve Legendary GM Status in Be A GM"
    },
    {
      "id": 260,
      "imageId": 55,
      "cred": 15,
      "flags": 1,
      "label": "Real Competition",
      "description": "Play in a GM Connected league of 5 Human GMs",
      "howto": "Play in a GM Connected league of 5 Human GMs"
    },
    {
      "id": 261,
      "imageId": 32,
      "cred": 30,
      "flags": 1,
      "label": "Champions!",
      "description": "Participate in and Win the Stanley Cup® match in GM Connected",
      "howto": "Participate in and Win the Stanley Cup® match in GM Connected"
    },
    {
      "id": 262,
      "imageId": 57,
      "cred": 15,
      "flags": 1,
      "label": "Call For Backup",
      "description": "Win a GM Connected league match with an OTP partner",
      "howto": "Win a GM Connected league match with an OTP partner"
    },
    {
      "id": 263,
      "imageId": 34,
      "cred": 15,
      "flags": 1,
      "label": "Prince of Wales ",
      "description": "Win a title from any conference in Hockey Ultimate Team  Seasons.",
      "howto": "Win a title from any conference in Hockey Ultimate Team  Seasons."
    },
    {
      "id": 265,
      "imageId": 35,
      "cred": 15,
      "flags": 1,
      "label": "The Champ Is Here!",
      "description": "Win a Hockey Ultimate Team Seasons Playoff Championship.",
      "howto": "Win a Hockey Ultimate Team  Seasons Playoff Championship."
    },
    {
      "id": 266,
      "imageId": 36,
      "cred": 15,
      "flags": 1,
      "label": "Moving On Up",
      "description": "Get your first division promotion in Hockey Ultimate Team Seasons.",
      "howto": "Get your first division promotion in Hockey Ultimate Team Seasons."
    },
    {
      "id": 267,
      "imageId": 37,
      "cred": 30,
      "flags": 1,
      "label": "You're The Best",
      "description": "Win the League Title in Hockey Ultimate Team  Seasons.",
      "howto": "Win the League Title in Hockey Ultimate Team  Seasons."
    },
    {
      "id": 268,
      "imageId": 38,
      "cred": 30,
      "flags": 1,
      "label": "On Fire",
      "description": "Have a perfect season record in Hockey Ultimate Team  Seasons.",
      "howto": "Have a perfect season record in Hockey Ultimate Team  Seasons."
    },
    {
      "id": 269,
      "imageId": 39,
      "cred": 15,
      "flags": 1,
      "label": "Changing Skins",
      "description": "Change the team of a player by using the Change Team item in Hockey Ultimate Team",
      "howto": "Change the team of a player by using the Change Team item in Hockey Ultimate Team"
    },
    {
      "id": 270,
      "imageId": 40,
      "cred": 15,
      "flags": 1,
      "label": "Mad Scientist",
      "description": "Use the line assistant feature to setup your lines in Hockey Ultimate Team",
      "howto": "Use the line assistant feature to setup your lines in Hockey Ultimate Team"
    },
    {
      "id": 271,
      "imageId": 41,
      "cred": 15,
      "flags": 1,
      "label": "Chosen One",
      "description": "Assign a Captain to your Hockey Ultimate Team using the Assign Captain card",
      "howto": "Assign a Captain to your Hockey Ultimate Team using the Assign Captain card"
    },
    {
      "id": 272,
      "imageId": 42,
      "cred": 15,
      "flags": 1,
      "label": "Collector",
      "description": "Collect at least one Player item from each of the NHL® teams in Hockey Ultimate Team mode.",
      "howto": "Collect at least one Player item from each of the NHL® teams in Hockey Ultimate Team mode."
    },
    {
      "id": 273,
      "imageId": 43,
      "cred": 100,
      "flags": 1,
      "label": "Master Collector",
      "description": "Collect at least one Player item from each team in Hockey Ultimate Team  mode.",
      "howto": "Collect at least one Player item from each team in Hockey Ultimate Team  mode."
    },
    {
      "id": 274,
      "imageId": 44,
      "cred": 15,
      "flags": 1,
      "label": "What Are You Buying?",
      "description": "Buy 25 card packs from the Hockey Ultimate Team Store.",
      "howto": "Buy 25 card packs from the Hockey Ultimate Team Store."
    },
    {
      "id": 275,
      "imageId": 45,
      "cred": 15,
      "flags": 1,
      "label": "Wheelin' And Dealin'",
      "description": "Buy and/or sell 150 items in the Hockey Ultimate Team Auction House.",
      "howto": "Buy and/or sell 150 items in the Hockey Ultimate Team Auction House."
    },
    {
      "id": 276,
      "imageId": 46,
      "cred": 15,
      "flags": 1,
      "label": "The Stars Have Aligned",
      "description": "Collect a Stars of the Week player item in Hockey Ultimate Team mode.",
      "howto": "Collect a Stars of the Week player item in Hockey Ultimate Team mode."
    },
    {
      "id": 277,
      "imageId": 47,
      "cred": 15,
      "flags": 1,
      "label": "Going To The Bank",
      "description": "Redeem Coins in Hockey Ultimate team.",
      "howto": "Redeem Coins in Hockey Ultimate team."
    },
    {
      "id": 278,
      "imageId": 53,
      "cred": 15,
      "flags": 1,
      "label": "How Hospitable of you",
      "description": "Complete the Hospitality Settings",
      "howto": "Complete the Hospitality Settings"
    },
    {
      "id": 279,
      "imageId": 54,
      "cred": 15,
      "flags": 1,
      "label": "A Moment of Greatness",
      "description": "Win an NHL® Moments Live moment on Superstar difficulty",
      "howto": "Win an NHL® Moments Live moment on Superstar difficulty"
    }
  ]
}