{
  "achievementsPossible": 45,
  "credPossible": 1000,
  "achievements": [
    {
      "id": 1,
      "imageId": 282,
      "cred": 30,
      "flags": 1,
      "label": "Telepathic",
      "description": "Assist a goal using a threaded through pass",
      "howto": "Assist a goal using a threaded through pass"
    },
    {
      "id": 2,
      "imageId": 276,
      "cred": 15,
      "flags": 1,
      "label": "Slotted",
      "description": "Score a goal using a low shot",
      "howto": "Score a goal using a low shot"
    },
    {
      "id": 3,
      "imageId": 283,
      "cred": 30,
      "flags": 1,
      "label": "The Architect",
      "description": "Perform 3 successful threaded through passes with the same player in the attacking third",
      "howto": "Perform 3 successful threaded through passes with the same player in the attacking third"
    },
    {
      "id": 4,
      "imageId": 251,
      "cred": 15,
      "flags": 1,
      "label": "Can't believe you fell for that",
      "description": "Score a Penalty Kick after stuttering",
      "howto": "Score a Penalty Kick after stuttering"
    },
    {
      "id": 5,
      "imageId": 246,
      "cred": 30,
      "flags": 1,
      "label": "100%",
      "description": "Win a penalty shoot-out without missing",
      "howto": "Win a penalty shoot-out without missing"
    },
    {
      "id": 6,
      "imageId": 269,
      "cred": 80,
      "flags": 1,
      "label": "Offence starts with the keeper",
      "description": "Score a goal from a counter attack that started with a goalkeeper driven throw",
      "howto": "Score a goal from a counter attack that started with a goalkeeper driven throw"
    },
    {
      "id": 7,
      "imageId": 274,
      "cred": 15,
      "flags": 1,
      "label": "Pure class",
      "description": "Score by performing an outside of the foot free kick",
      "howto": "Score by performing an outside of the foot free kick"
    },
    {
      "id": 8,
      "imageId": 285,
      "cred": 15,
      "flags": 1,
      "label": "They did their homework",
      "description": "Score 2 goals from a corner in a match",
      "howto": "Score 2 goals from a corner in a match"
    },
    {
      "id": 9,
      "imageId": 248,
      "cred": 15,
      "flags": 1,
      "label": "Aerial threat",
      "description": "Score a goal with a downward header",
      "howto": "Score a goal with a downward header"
    },
    {
      "id": 10,
      "imageId": 279,
      "cred": 15,
      "flags": 1,
      "label": "Sweet spot",
      "description": "During open play, score a long-distance goal with a defender (25 yards out)",
      "howto": "During open play, score a long-distance goal with a defender (25 yards out)"
    },
    {
      "id": 11,
      "imageId": 255,
      "cred": 15,
      "flags": 1,
      "label": "First Exchange",
      "description": "Complete your first Squad Building Challenge in FUT",
      "howto": "Complete your first Squad Building Challenge in FUT"
    },
    {
      "id": 12,
      "imageId": 287,
      "cred": 80,
      "flags": 1,
      "label": "Trial of Power",
      "description": "Win all 4 matches in an Online Draft Mode session in FUT",
      "howto": "Win all 4 matches in an Online Draft Mode session in FUT"
    },
    {
      "id": 13,
      "imageId": 272,
      "cred": 15,
      "flags": 1,
      "label": "Practice Run",
      "description": "Win all 4 matches in a Single Player Draft Mode session in FUT",
      "howto": "Win all 4 matches in a Single Player Draft Mode session in FUT"
    },
    {
      "id": 14,
      "imageId": 264,
      "cred": 15,
      "flags": 1,
      "label": "Make it count!",
      "description": "First appearance in the Starting 11 or the Subs of a player bought from the Transfer Market in FUT",
      "howto": "First appearance in the Starting 11 or the Subs of a player bought from the Transfer Market in FUT"
    },
    {
      "id": 15,
      "imageId": 260,
      "cred": 15,
      "flags": 1,
      "label": "Half a Century",
      "description": "Have a player score their 50th goal at the club in FUT",
      "howto": "Have a player score their 50th goal at the club in FUT"
    },
    {
      "id": 16,
      "imageId": 256,
      "cred": 15,
      "flags": 1,
      "label": "Friendship endures ",
      "description": "Win a Friendly Season in FUT",
      "howto": "Win a Friendly Season in FUT"
    },
    {
      "id": 17,
      "imageId": 253,
      "cred": 15,
      "flags": 1,
      "label": "Exchange student ",
      "description": "Sign a Loan Player from the EASFC Catalogue",
      "howto": "Sign a Loan Player from the EASFC Catalogue"
    },
    {
      "id": 18,
      "imageId": 259,
      "cred": 15,
      "flags": 1,
      "label": "Grouped Together",
      "description": "Complete your first Group in Squad Building Challenges in FUT",
      "howto": "Complete your first Group in Squad Building Challenges in FUT"
    },
    {
      "id": 19,
      "imageId": 284,
      "cred": 15,
      "flags": 1,
      "label": "The Science of FUT",
      "description": "Apply your first Chemistry Style consumable in FUT",
      "howto": "Apply your first Chemistry Style consumable in FUT"
    },
    {
      "id": 20,
      "imageId": 273,
      "cred": 15,
      "flags": 1,
      "label": "Proving grounds",
      "description": "Challenge and complete a match against the Team of the Week in FUT",
      "howto": "Challenge and complete a match against the Team of the Week in FUT"
    },
    {
      "id": 21,
      "imageId": 252,
      "cred": 30,
      "flags": 1,
      "label": "Champions!",
      "description": "Win a division title in FUT Seasons",
      "howto": "Win a division title in FUT Seasons"
    },
    {
      "id": 22,
      "imageId": 247,
      "cred": 15,
      "flags": 1,
      "label": "A shift in power...",
      "description": "Change your captain in FUT",
      "howto": "Change your captain in FUT"
    },
    {
      "id": 23,
      "imageId": 280,
      "cred": 15,
      "flags": 1,
      "label": "I'll use all the help I can get",
      "description": "Play a full match with the \"FIFA Trainer\" overlays turned on",
      "howto": "Play a full match with the \"FIFA Trainer\" overlays turned on"
    },
    {
      "id": 24,
      "imageId": 286,
      "cred": 15,
      "flags": 1,
      "label": "Totally worth it",
      "description": "Sign a world class player in manager Career mode (80+ rated)",
      "howto": "Sign a world class player in manager Career mode (80+ rated)"
    },
    {
      "id": 25,
      "imageId": 261,
      "cred": 30,
      "flags": 1,
      "label": "Here we go... ",
      "description": "Earn a Promotion in Seasons",
      "howto": "Earn a Promotion in Seasons"
    },
    {
      "id": 26,
      "imageId": 278,
      "cred": 15,
      "flags": 1,
      "label": "Still friends?",
      "description": "Finish an Online Friendlies Season",
      "howto": "Finish an Online Friendlies Season"
    },
    {
      "id": 27,
      "imageId": 281,
      "cred": 90,
      "flags": 1,
      "label": "Talent thief",
      "description": "Buy a player from a rival team",
      "howto": "Buy a player from a rival team"
    },
    {
      "id": 28,
      "imageId": 263,
      "cred": 15,
      "flags": 1,
      "label": "Instant Karma",
      "description": "Gift an EA SPORTS Football Club Catalogue item",
      "howto": "Gift an EA SPORTS Football Club Catalogue item"
    },
    {
      "id": 29,
      "imageId": 267,
      "cred": 15,
      "flags": 1,
      "label": "Mine!",
      "description": "Purchase an EA SPORTS Football Club Catalogue item",
      "howto": "Purchase an EA SPORTS Football Club Catalogue item"
    },
    {
      "id": 30,
      "imageId": 257,
      "cred": 15,
      "flags": 1,
      "label": "Game on",
      "description": "Play a women's football match",
      "howto": "Play a women's football match"
    },
    {
      "id": 31,
      "imageId": 250,
      "cred": 30,
      "flags": 1,
      "label": "Best of the Best",
      "description": "Win the Women's International Cup tournament",
      "howto": "Win the Women's International Cup tournament"
    },
    {
      "id": 32,
      "imageId": 289,
      "cred": 15,
      "flags": 1,
      "label": "Unstoppable",
      "description": "Score 5 goals in a women's football match",
      "howto": "Score 5 goals in a women's football match"
    },
    {
      "id": 33,
      "imageId": 277,
      "cred": 30,
      "flags": 1,
      "label": "Stand your ground",
      "description": "Perform a slide tackle and keep possession of the ball in a women's football match",
      "howto": "Perform a slide tackle and keep possession of the ball in a women's football match"
    },
    {
      "id": 34,
      "imageId": 262,
      "cred": 15,
      "flags": 1,
      "label": "I'll take it",
      "description": "Win a Pre-Season Tournament in Career Mode",
      "howto": "Win a Pre-Season Tournament in Career Mode"
    },
    {
      "id": 35,
      "imageId": 258,
      "cred": 15,
      "flags": 1,
      "label": "Got Flair?",
      "description": "Score a goal with Flair Shot in a women's football match",
      "howto": "Score a goal with Flair Shot in a women's football match"
    },
    {
      "id": 36,
      "imageId": 268,
      "cred": 15,
      "flags": 1,
      "label": "Nice catch",
      "description": "Scout and find a player with any combination of 3 GTN player attributes",
      "howto": "Scout and find a player with any combination of 3 GTN player attributes"
    },
    {
      "id": 37,
      "imageId": 265,
      "cred": 15,
      "flags": 1,
      "label": "Managing for results",
      "description": "Win a Trophy as a Team manager",
      "howto": "Win a Trophy as a Team manager"
    },
    {
      "id": 38,
      "imageId": 292,
      "cred": 30,
      "flags": 1,
      "label": "Work Hard Play Hard",
      "description": "Get your Play as Player to be featured in the Team of the Week",
      "howto": "Get your Play as Player to be featured in the Team of the Week"
    },
    {
      "id": 39,
      "imageId": 249,
      "cred": 15,
      "flags": 1,
      "label": "A-Grade Student",
      "description": "Get A ratings on all 5 training drills in Career Mode",
      "howto": "Get A ratings on all 5 training drills in Career Mode"
    },
    {
      "id": 40,
      "imageId": 254,
      "cred": 15,
      "flags": 1,
      "label": "Fill in the blanks",
      "description": "Fill up all Team Sheets slots",
      "howto": "Fill up all Team Sheets slots"
    },
    {
      "id": 41,
      "imageId": 270,
      "cred": 15,
      "flags": 1,
      "label": "Pencil it in",
      "description": "Create a New Team Sheet",
      "howto": "Create a New Team Sheet"
    },
    {
      "id": 42,
      "imageId": 275,
      "cred": 15,
      "flags": 1,
      "label": "Self improvement",
      "description": "Improve 1 attribute in Player Career Mode",
      "howto": "Improve 1 attribute in Player Career Mode"
    },
    {
      "id": 43,
      "imageId": 288,
      "cred": 15,
      "flags": 1,
      "label": "Best two out of three?",
      "description": "Play a consecutive match in Seasons",
      "howto": "Play a consecutive match in Seasons"
    },
    {
      "id": 44,
      "imageId": 271,
      "cred": 15,
      "flags": 1,
      "label": "Practice makes perfect",
      "description": "Play 5 training drills in Manager Career Mode",
      "howto": "Play 5 training drills in Manager Career Mode"
    },
    {
      "id": 45,
      "imageId": 290,
      "cred": 15,
      "flags": 1,
      "label": "Where's the ball?",
      "description": "Score a goal after 10 consecutive passes in the opposing third of the pitch",
      "howto": "Score a goal after 10 consecutive passes in the opposing third of the pitch"
    }
  ]
}