{
  "avatarAssetsPossible": 8,
  "maleAvatarAssetsPossible": 4,
  "femaleAvatarAssetsPossible": 4,
  "avatarAssets": [
    {
      "id": "00000218-0001-4101-c5c1-5d13434d083d",
      "imageId": 647,
      "subcategory": 0,
      "unknown": 0,
      "isMale": true,
      "isFemale": false,
      "isUnisex": false,
      "label": "DiRT 3 Racing Suit",
      "description": "Show your true colours with this awesome DIRT 3 racing suit.",
      "howto": "Get the DiRT 3 Racing Suit by completing Season 1 of the DiRT Tour"
    },
    {
      "id": "00000218-0001-51a2-ca78-5b24434d083d",
      "imageId": 667,
      "subcategory": 0,
      "unknown": 2015221016,
      "isMale": false,
      "isFemale": true,
      "isUnisex": false,
      "label": "DiRT 3 Racing Suit",
      "description": "Show your true colours with this awesome DIRT 3 racing suit.",
      "howto": "Get the DiRT 3 Racing Suit by completing Season 1 of the DiRT Tour"
    },
    {
      "id": "00000880-0002-6131-cd30-f4df434d083d",
      "imageId": 654,
      "subcategory": 0,
      "unknown": 2015221016,
      "isMale": true,
      "isFemale": false,
      "isUnisex": false,
      "label": "DiRT 3 Racing Gloves",
      "description": "Hold on tight with these stylish DiRT3 racing gloves.",
      "howto": "Get the DiRT 3 Racing Gloves by reaching Fanbase Tier 24"
    },
    {
      "id": "00000880-0002-91f2-ca56-68bd434d083d",
      "imageId": 671,
      "subcategory": 0,
      "unknown": 2015221016,
      "isMale": false,
      "isFemale": true,
      "isUnisex": false,
      "label": "DiRT 3 Racing Gloves",
      "description": "Hold on tight with these stylish DiRT3 racing gloves.",
      "howto": "Get the DiRT 3 Racing Gloves by reaching Fanbase Tier 24"
    },
    {
      "id": "00000544-0003-1111-c852-b961434d083d",
      "imageId": 655,
      "subcategory": 0,
      "unknown": 2015221016,
      "isMale": true,
      "isFemale": false,
      "isUnisex": false,
      "label": "DiRT 3 Rally Helmet",
      "description": "Keep your head with this amazing DiRT 3 racing helmet",
      "howto": "Get the DiRT 3 Rally Helmet by completing Season 2 of the DiRT Tour"
    },
    {
      "id": "00000544-0003-f1c2-cf9a-f2c0434d083d",
      "imageId": 669,
      "subcategory": 0,
      "unknown": 2015221016,
      "isMale": false,
      "isFemale": true,
      "isUnisex": false,
      "label": "DiRT 3 Rally Helmet",
      "description": "Keep your head with this amazing DiRT 3 racing helmet",
      "howto": "Get the DiRT 3 Rally Helmet by completing Season 2 of the DiRT Tour"
    },
    {
      "id": "00000020-0004-0121-c9dd-9cae434d083d",
      "imageId": 663,
      "subcategory": 0,
      "unknown": 2015221016,
      "isMale": true,
      "isFemale": false,
      "isUnisex": false,
      "label": "DiRT 3 Racing Shoes",
      "description": "Put pedal to the metal in these sleek DiRT3 racing shoes.",
      "howto": "Get the DiRT 3 Racing Shoes by reaching Fanbase Tier 12"
    },
    {
      "id": "00000020-0004-d1e2-c1b1-b95a434d083d",
      "imageId": 665,
      "subcategory": 0,
      "unknown": 2015221016,
      "isMale": false,
      "isFemale": true,
      "isUnisex": false,
      "label": "DiRT 3 Racing Shoes",
      "description": "Put pedal to the metal in these sleek DiRT3 racing shoes.",
      "howto": "Get the DiRT 3 Racing Shoes by reaching Fanbase Tier 12"
    }
  ]
}