{
  "achievementsPossible": 52,
  "credPossible": 1250,
  "achievements": [
    {
      "id": 9,
      "imageId": 47,
      "cred": 20,
      "flags": 4,
      "label": "Sun Tzu",
      "description": "Let your crew do the dirty work.",
      "howto": "Let your crew do the dirty work."
    },
    {
      "id": 10,
      "imageId": 32,
      "cred": 10,
      "flags": 6,
      "label": "Fragile Alliance",
      "description": "Complete the first level in co-op.",
      "howto": "Complete the first level in co-op."
    },
    {
      "id": 11,
      "imageId": 39,
      "cred": 30,
      "flags": 6,
      "label": "No Going Back Now",
      "description": "Go to the point of no return in co-op.",
      "howto": "Go to the point of no return in co-op."
    },
    {
      "id": 12,
      "imageId": 11,
      "cred": 50,
      "flags": 1,
      "label": "End of the Road",
      "description": "Complete the game in co-op.",
      "howto": "Complete the game in co-op."
    },
    {
      "id": 13,
      "imageId": 6,
      "cred": 20,
      "flags": 6,
      "label": "Impact",
      "description": "Escape from death row.",
      "howto": "Escape from death row."
    },
    {
      "id": 14,
      "imageId": 9,
      "cred": 20,
      "flags": 1,
      "label": "Damned if you do",
      "description": "Let them burn.",
      "howto": "Let them burn."
    },
    {
      "id": 15,
      "imageId": 10,
      "cred": 30,
      "flags": 1,
      "label": "Damned if you don't",
      "description": "No rest for the wicked.",
      "howto": "No rest for the wicked."
    },
    {
      "id": 16,
      "imageId": 38,
      "cred": 50,
      "flags": 1,
      "label": "Iron Flower",
      "description": "Complete the game on hard.",
      "howto": "Complete the game on hard."
    },
    {
      "id": 17,
      "imageId": 8,
      "cred": 30,
      "flags": 4,
      "label": "Crowd Control",
      "description": "Surgical precision in the nightclub.",
      "howto": "Surgical precision in the nightclub."
    },
    {
      "id": 18,
      "imageId": 33,
      "cred": 20,
      "flags": 6,
      "label": "Have Gun, Will Travel Part I",
      "description": "Travel into the Rising Sun.",
      "howto": "Travel into the Rising Sun."
    },
    {
      "id": 19,
      "imageId": 34,
      "cred": 20,
      "flags": 6,
      "label": "Have Gun, Will Travel Part II",
      "description": "Counter-revolution.",
      "howto": "Counter-revolution."
    },
    {
      "id": 20,
      "imageId": 35,
      "cred": 20,
      "flags": 6,
      "label": "Have Gun, Will Travel Part III",
      "description": "The Beginning of the End.",
      "howto": "The Beginning of the End."
    },
    {
      "id": 21,
      "imageId": 1,
      "cred": 10,
      "flags": 4,
      "label": "Behemoth",
      "description": "Stop the roaring beast.",
      "howto": "Stop the roaring beast."
    },
    {
      "id": 22,
      "imageId": 40,
      "cred": 20,
      "flags": 4,
      "label": "Pushblade Symphony",
      "description": "Points for getting up close and personal.",
      "howto": "Points for getting up close and personal."
    },
    {
      "id": 23,
      "imageId": 31,
      "cred": 20,
      "flags": 4,
      "label": "Frag Out",
      "description": "5 with one fragmentation grenade.",
      "howto": "5 with one fragmentation grenade."
    },
    {
      "id": 24,
      "imageId": 36,
      "cred": 10,
      "flags": 4,
      "label": "Headmaster",
      "description": "47 headshots.",
      "howto": "47 headshots."
    },
    {
      "id": 25,
      "imageId": 7,
      "cred": 10,
      "flags": 4,
      "label": "By the Grace of...",
      "description": "Lynch puts them out of their misery.",
      "howto": "Lynch puts them out of their misery."
    },
    {
      "id": 26,
      "imageId": 3,
      "cred": 20,
      "flags": 4,
      "label": "Boomstick",
      "description": "Shotgun messiah.",
      "howto": "Shotgun messiah."
    },
    {
      "id": 27,
      "imageId": 41,
      "cred": 10,
      "flags": 4,
      "label": "Return to Sender",
      "description": "Throw back enemy grenades.",
      "howto": "Throw back enemy grenades."
    },
    {
      "id": 28,
      "imageId": 48,
      "cred": 20,
      "flags": 4,
      "label": "Teflon",
      "description": "Avoid damage on a level.",
      "howto": "Avoid damage on a level."
    },
    {
      "id": 29,
      "imageId": 4,
      "cred": 10,
      "flags": 4,
      "label": "Bulletproof",
      "description": "Avoid using adrenaline on a level.",
      "howto": "Avoid using adrenaline on a level."
    },
    {
      "id": 30,
      "imageId": 42,
      "cred": 20,
      "flags": 4,
      "label": "Revenge Part I",
      "description": "Silencing the silent one.",
      "howto": "Silencing the silent one."
    },
    {
      "id": 33,
      "imageId": 45,
      "cred": 20,
      "flags": 4,
      "label": "Revenge Part IV",
      "description": "Shouldn't have gotten personal.",
      "howto": "Shouldn't have gotten personal."
    },
    {
      "id": 34,
      "imageId": 46,
      "cred": 30,
      "flags": 4,
      "label": "Revenge Part V",
      "description": "Glad it got personal.",
      "howto": "Glad it got personal."
    },
    {
      "id": 35,
      "imageId": 37,
      "cred": 10,
      "flags": 4,
      "label": "Hindsight",
      "description": "Get that bird out of the sky.",
      "howto": "Get that bird out of the sky."
    },
    {
      "id": 36,
      "imageId": 2,
      "cred": 30,
      "flags": 4,
      "label": "Berserkopath",
      "description": "Make the most of Lynch's condition.",
      "howto": "Make the most of Lynch's condition."
    },
    {
      "id": 37,
      "imageId": 5,
      "cred": 20,
      "flags": 4,
      "label": "Bullseye",
      "description": "Lynch reacts fast at the Exchange.",
      "howto": "Lynch reacts fast at the Exchange."
    },
    {
      "id": 38,
      "imageId": 18,
      "cred": 5,
      "flags": 1,
      "label": "Family Member",
      "description": "Complete a Fragile Alliance session.",
      "howto": "Complete a Fragile Alliance session."
    },
    {
      "id": 39,
      "imageId": 26,
      "cred": 5,
      "flags": 1,
      "label": "Some",
      "description": "Escape with $50,000 from a Fragile Alliance heist.",
      "howto": "Escape with $50,000 from a Fragile Alliance heist."
    },
    {
      "id": 40,
      "imageId": 13,
      "cred": 15,
      "flags": 1,
      "label": "A Lot",
      "description": "Escape with $1,500,000 from a Fragile Alliance heist.",
      "howto": "Escape with $1,500,000 from a Fragile Alliance heist."
    },
    {
      "id": 41,
      "imageId": 27,
      "cred": 5,
      "flags": 1,
      "label": "Sweet Revenge",
      "description": "Get personal revenge in Fragile Alliance.",
      "howto": "Get personal revenge in Fragile Alliance."
    },
    {
      "id": 42,
      "imageId": 16,
      "cred": 10,
      "flags": 1,
      "label": "Crime Buster",
      "description": "Kill 10 traitors in Fragile Alliance.",
      "howto": "Kill 10 traitors in Fragile Alliance."
    },
    {
      "id": 43,
      "imageId": 17,
      "cred": 25,
      "flags": 1,
      "label": "Double Trouble",
      "description": "Kill 2 traitors in a Fragile Alliance round.",
      "howto": "Kill 2 traitors in a Fragile Alliance round."
    },
    {
      "id": 44,
      "imageId": 23,
      "cred": 30,
      "flags": 1,
      "label": "Never Give Up",
      "description": "Get 3 personal revenge kills in a Fragile Alliance session.",
      "howto": "Get 3 personal revenge kills in a Fragile Alliance session."
    },
    {
      "id": 45,
      "imageId": 28,
      "cred": 30,
      "flags": 1,
      "label": "The Cleaner",
      "description": "Get 30 personal revenge kills in Fragile Alliance.",
      "howto": "Get 30 personal revenge kills in Fragile Alliance."
    },
    {
      "id": 46,
      "imageId": 22,
      "cred": 35,
      "flags": 1,
      "label": "Mr. Popularity",
      "description": "Kill 100 traitors in Fragile Alliance.",
      "howto": "Kill 100 traitors in Fragile Alliance."
    },
    {
      "id": 47,
      "imageId": 14,
      "cred": 25,
      "flags": 1,
      "label": "Cash Addict",
      "description": "Help to get all the money out in a Fragile Alliance round.",
      "howto": "Help to get all the money out in a Fragile Alliance round."
    },
    {
      "id": 48,
      "imageId": 20,
      "cred": 50,
      "flags": 1,
      "label": "Most Wanted",
      "description": "Escape with $150,000,000 from Fragile Alliance heists.",
      "howto": "Escape with $150,000,000 from Fragile Alliance heists."
    },
    {
      "id": 49,
      "imageId": 19,
      "cred": 15,
      "flags": 1,
      "label": "Mercenary",
      "description": "Complete one session in each Fragile Alliance scenario.",
      "howto": "Complete one session in each Fragile Alliance scenario."
    },
    {
      "id": 50,
      "imageId": 21,
      "cred": 50,
      "flags": 1,
      "label": "Mr. Play-It-Straight",
      "description": "Win 50 rounds of Fragile Alliance as a merc.",
      "howto": "Win 50 rounds of Fragile Alliance as a merc."
    },
    {
      "id": 51,
      "imageId": 12,
      "cred": 25,
      "flags": 1,
      "label": "50 to Won",
      "description": "Win 50 rounds of Fragile Alliance.",
      "howto": "Win 50 rounds of Fragile Alliance."
    },
    {
      "id": 52,
      "imageId": 30,
      "cred": 35,
      "flags": 1,
      "label": "Veteran",
      "description": "Complete 200 Fragile Alliance sessions.",
      "howto": "Complete 200 Fragile Alliance sessions."
    },
    {
      "id": 53,
      "imageId": 25,
      "cred": 15,
      "flags": 1,
      "label": "Rush Hour",
      "description": "Escape in all rounds of a Fragile Alliance session.",
      "howto": "Escape in all rounds of a Fragile Alliance session."
    },
    {
      "id": 54,
      "imageId": 24,
      "cred": 25,
      "flags": 1,
      "label": "Perfect Split",
      "description": "All players split the money equally from a Fragile Alliance heist.",
      "howto": "All players split the money equally from a Fragile Alliance heist."
    },
    {
      "id": 55,
      "imageId": 15,
      "cred": 0,
      "flags": 1,
      "label": "Celebrity",
      "description": "Play as Lynch in Fragile Alliance.",
      "howto": "Play as Lynch in Fragile Alliance."
    },
    {
      "id": 56,
      "imageId": 29,
      "cred": 0,
      "flags": 1,
      "label": "True Elite",
      "description": "Play as Kane in Fragile Alliance.",
      "howto": "Play as Kane in Fragile Alliance."
    },
    {
      "id": 57,
      "imageId": 43,
      "cred": 20,
      "flags": 4,
      "label": "Revenge Part II & III",
      "description": "Who's the old timer now?",
      "howto": "Who's the old timer now?"
    },
    {
      "id": 58,
      "imageId": 52,
      "cred": 100,
      "flags": 1,
      "label": "Drug Lord",
      "description": "Complete a session on all 4 scenarios of The Dope Bag",
      "howto": "Complete a session on all 4 scenarios of The Dope Bag"
    },
    {
      "id": 61,
      "imageId": 44,
      "cred": 50,
      "flags": 1,
      "label": "Front Runner",
      "description": "Flying High: Escape with some dope on the first helicopter.",
      "howto": "Flying High: Escape with some dope on the first helicopter."
    },
    {
      "id": 62,
      "imageId": 53,
      "cred": 25,
      "flags": 1,
      "label": "Steal from the poor...",
      "description": "Loot all the market stands in Havana.",
      "howto": "Loot all the market stands in Havana."
    },
    {
      "id": 63,
      "imageId": 54,
      "cred": 25,
      "flags": 1,
      "label": "Ninja Looter",
      "description": "Loot katanas and nothing else and escape.",
      "howto": "Loot katanas and nothing else and escape."
    },
    {
      "id": 64,
      "imageId": 51,
      "cred": 50,
      "flags": 1,
      "label": "Put it in your pipe...",
      "description": "And smoke it!",
      "howto": "And smoke it!"
    }
  ]
}