{
  "achievementsPossible": 12,
  "credPossible": 200,
  "achievements": [
    {
      "id": 1,
      "imageId": 1,
      "cred": 25,
      "flags": 1,
      "label": "Survivor",
      "description": "Completed the game.",
      "howto": "Complete the game."
    },
    {
      "id": 2,
      "imageId": 2,
      "cred": 15,
      "flags": 1,
      "label": "Honour",
      "description": "Collected 50% of the medals.",
      "howto": "Collect 50% of the medals."
    },
    {
      "id": 3,
      "imageId": 3,
      "cred": 35,
      "flags": 1,
      "label": "Private Eye",
      "description": "Collected all documents and objects.",
      "howto": "Collect all documents and objects."
    },
    {
      "id": 4,
      "imageId": 4,
      "cred": 25,
      "flags": 1,
      "label": "Celebrated",
      "description": "Collected all the medals.",
      "howto": "Collect all the medals."
    },
    {
      "id": 5,
      "imageId": 5,
      "cred": 15,
      "flags": 1,
      "label": "Challenged",
      "description": "Completed the Challenge Room.",
      "howto": "Complete the Challenge Room."
    },
    {
      "id": 6,
      "imageId": 6,
      "cred": 10,
      "flags": 1,
      "label": "Tinker",
      "description": "Completed a hack.",
      "howto": "Complete a hack."
    },
    {
      "id": 7,
      "imageId": 7,
      "cred": 15,
      "flags": 1,
      "label": "Swept Off Their Feet",
      "description": "Swept 3 Malthusians off their feet with water.",
      "howto": "Sweep 3 Malthusians off their feet with water."
    },
    {
      "id": 8,
      "imageId": 8,
      "cred": 10,
      "flags": 1,
      "label": "Vengeance",
      "description": "Killed 5 Mathusians with fire or electricity.",
      "howto": "Kill 5 Mathusians with fire or electricity."
    },
    {
      "id": 9,
      "imageId": 9,
      "cred": 15,
      "flags": 1,
      "label": "Chain Gang",
      "description": "Killed 2 Malthusians within a timed chain attack.",
      "howto": "Kill 2 Malthusians within a timed chain attack."
    },
    {
      "id": 10,
      "imageId": 10,
      "cred": 10,
      "flags": 1,
      "label": "My Hero",
      "description": "Saved Chief Billingham.",
      "howto": "Save Chief Billingham."
    },
    {
      "id": 11,
      "imageId": 11,
      "cred": 15,
      "flags": 1,
      "label": "Davy Jones' Locker",
      "description": "Neutralized 10 Malthusians in underwater combat.",
      "howto": "Neutralize 10 Malthusians in underwater combat."
    },
    {
      "id": 12,
      "imageId": 12,
      "cred": 10,
      "flags": 1,
      "label": "Drowned",
      "description": "Drowned a Malthusian.",
      "howto": "Drown a Malthusian."
    }
  ]
}