{
  "achievementsPossible": 30,
  "credPossible": 1000,
  "achievements": [
    {
      "id": 13,
      "imageId": 2,
      "cred": 33,
      "flags": 4,
      "label": "Rookie Racer",
      "description": "Earn your first Stadium Events victory.",
      "howto": "Earn your first Stadium Events victory."
    },
    {
      "id": 14,
      "imageId": 3,
      "cred": 33,
      "flags": 4,
      "label": "Got Some Skills",
      "description": "Earn your first Skill Driving victory.",
      "howto": "Earn your first Skill Driving victory."
    },
    {
      "id": 15,
      "imageId": 4,
      "cred": 33,
      "flags": 4,
      "label": "No Hands!",
      "description": "Earn your first Stunt Mode victory.",
      "howto": "Earn your first Stunt Mode victory."
    },
    {
      "id": 16,
      "imageId": 5,
      "cred": 33,
      "flags": 4,
      "label": "Left In The Dust",
      "description": "Lose your first Stadium Events race.",
      "howto": "Lose your first Stadium Events race."
    },
    {
      "id": 17,
      "imageId": 6,
      "cred": 33,
      "flags": 4,
      "label": "Skilled Loser",
      "description": "Lose your first Skill Driving race.",
      "howto": "Lose your first Skill Driving race."
    },
    {
      "id": 18,
      "imageId": 7,
      "cred": 33,
      "flags": 4,
      "label": "No Teeth!",
      "description": "Lose your first Stunt Mode race.",
      "howto": "Lose your first Stunt Mode race."
    },
    {
      "id": 19,
      "imageId": 8,
      "cred": 33,
      "flags": 1,
      "label": "Racing With The Angels",
      "description": "Complete Angel Stadium with all stars collected.",
      "howto": "Complete Angel Stadium with all stars collected."
    },
    {
      "id": 20,
      "imageId": 9,
      "cred": 33,
      "flags": 1,
      "label": "Jackson Would Be Proud",
      "description": "Complete Everbank Field with all stars collected.",
      "howto": "Complete Everbank Field with all stars collected."
    },
    {
      "id": 21,
      "imageId": 10,
      "cred": 33,
      "flags": 1,
      "label": "Went Beyond Georgia Dome",
      "description": "Complete Georgia Dome with all stars collected.",
      "howto": "Complete Georgia Dome with all stars collected."
    },
    {
      "id": 22,
      "imageId": 11,
      "cred": 33,
      "flags": 1,
      "label": "No Problem Houston!",
      "description": "Complete NRG Stadium with all stars collected.",
      "howto": "Complete NRG Stadium with all stars collected."
    },
    {
      "id": 23,
      "imageId": 12,
      "cred": 33,
      "flags": 1,
      "label": "Always Bet On Me!",
      "description": "Complete Sam Boyd Stadium with all stars collected.",
      "howto": "Complete Sam Boyd Stadium with all stars collected."
    },
    {
      "id": 24,
      "imageId": 13,
      "cred": 33,
      "flags": 1,
      "label": "Lost In The Woods",
      "description": "Complete Skill Driving – Forest with all stars collected.",
      "howto": "Complete Skill Driving – Forest with all stars collected."
    },
    {
      "id": 25,
      "imageId": 14,
      "cred": 33,
      "flags": 1,
      "label": "City Cruiser",
      "description": "Complete Skill Driving – Urban with all stars collected.",
      "howto": "Complete Skill Driving – Urban with all stars collected."
    },
    {
      "id": 26,
      "imageId": 15,
      "cred": 33,
      "flags": 1,
      "label": "Who Needs Spice?",
      "description": "Complete Skill Driving – Desert with all stars collected.",
      "howto": "Complete Skill Driving – Desert with all stars collected."
    },
    {
      "id": 27,
      "imageId": 16,
      "cred": 33,
      "flags": 1,
      "label": "Crop Circle Maker",
      "description": "Complete Skill Driving – Farm with all stars collected.",
      "howto": "Complete Skill Driving – Farm with all stars collected."
    },
    {
      "id": 28,
      "imageId": 17,
      "cred": 33,
      "flags": 1,
      "label": "Want To Build A Snowman?",
      "description": "Complete Skill Driving – Frozen with all stars collected.",
      "howto": "Complete Skill Driving – Frozen with all stars collected."
    },
    {
      "id": 29,
      "imageId": 18,
      "cred": 33,
      "flags": 1,
      "label": "Dangerous LumberJack",
      "description": "Complete Stunt Mode – Forest with all stars collected.",
      "howto": "Complete Stunt Mode – Forest with all stars collected."
    },
    {
      "id": 30,
      "imageId": 19,
      "cred": 33,
      "flags": 1,
      "label": "Wrecked The City",
      "description": "Complete Stunt Mode – Urban with all stars collected.",
      "howto": "Complete Stunt Mode – Urban with all stars collected."
    },
    {
      "id": 31,
      "imageId": 20,
      "cred": 33,
      "flags": 1,
      "label": "Covered In Dust",
      "description": "Complete Stunt Mode – Desert with all stars collected.",
      "howto": "Complete Stunt Mode – Desert with all stars collected."
    },
    {
      "id": 32,
      "imageId": 21,
      "cred": 33,
      "flags": 1,
      "label": "Scared The Cows",
      "description": "Complete Stunt Mode – Farm with all stars collected.",
      "howto": "Complete Stunt Mode – Farm with all stars collected."
    },
    {
      "id": 33,
      "imageId": 22,
      "cred": 33,
      "flags": 1,
      "label": "Stuntman!",
      "description": "Complete Stunt Mode – Frozen with all stars collected.",
      "howto": "Complete Stunt Mode – Frozen with all stars collected."
    },
    {
      "id": 34,
      "imageId": 23,
      "cred": 33,
      "flags": 1,
      "label": "Perfectionist",
      "description": "Complete the game with all stars collected.",
      "howto": "Complete the game with all stars collected."
    },
    {
      "id": 35,
      "imageId": 24,
      "cred": 33,
      "flags": 4,
      "label": "What Does This Button Do?",
      "description": "Activate 25 Jump power-ups.",
      "howto": "Activate 25 Jump power-ups."
    },
    {
      "id": 36,
      "imageId": 25,
      "cred": 33,
      "flags": 4,
      "label": "Shiny Red Button",
      "description": "Activate 25 Boost power-ups.",
      "howto": "Activate 25 Boost power-ups."
    },
    {
      "id": 37,
      "imageId": 26,
      "cred": 33,
      "flags": 4,
      "label": "One Step Back",
      "description": "Perform a full 360’ Back Flip in Freestyle.",
      "howto": "Perform a full 360’ Back Flip in Freestyle."
    },
    {
      "id": 38,
      "imageId": 27,
      "cred": 33,
      "flags": 4,
      "label": "Two Steps Forward",
      "description": "Perform a full 360’ Front Flip in Freestyle.",
      "howto": "Perform a full 360’ Front Flip in Freestyle."
    },
    {
      "id": 39,
      "imageId": 28,
      "cred": 33,
      "flags": 4,
      "label": "Don't Look Down",
      "description": "Get 2 seconds of Air Time in Freestyle.",
      "howto": "Get 2 seconds of Air Time in Freestyle."
    },
    {
      "id": 40,
      "imageId": 29,
      "cred": 33,
      "flags": 4,
      "label": "Fly To The Moon",
      "description": "Get 3 seconds of Air Time in Freestyle.",
      "howto": "Get 3 seconds of Air Time in Freestyle."
    },
    {
      "id": 41,
      "imageId": 30,
      "cred": 33,
      "flags": 3,
      "label": "Destroyer Maximus",
      "description": "Unlock Max-D.",
      "howto": "Unlock Max-D."
    },
    {
      "id": 42,
      "imageId": 31,
      "cred": 43,
      "flags": 3,
      "label": "Back from the grave",
      "description": "Unlock Grave Digger.",
      "howto": "Unlock Grave Digger."
    }
  ]
}