{
  "achievementsPossible": 49,
  "credPossible": 1000,
  "achievements": [
    {
      "id": 1,
      "imageId": 3,
      "cred": 5,
      "flags": 1,
      "label": "Blood Trial",
      "description": "Complete \"Blood Trial\" challenge",
      "howto": "Complete \"Blood Trial\" challenge"
    },
    {
      "id": 2,
      "imageId": 3,
      "cred": 5,
      "flags": 1,
      "label": "Close Up",
      "description": "Complete \"Close Up\" challenge",
      "howto": "Complete \"Close Up\" challenge"
    },
    {
      "id": 3,
      "imageId": 3,
      "cred": 5,
      "flags": 1,
      "label": "Leap Up!",
      "description": "Complete \"Leap Up!\" challenge",
      "howto": "Complete \"Leap Up!\" challenge"
    },
    {
      "id": 4,
      "imageId": 3,
      "cred": 5,
      "flags": 1,
      "label": "Kaboom",
      "description": "Complete \"Kaboom\" challenge",
      "howto": "Complete \"Kaboom\" challenge"
    },
    {
      "id": 5,
      "imageId": 3,
      "cred": 5,
      "flags": 1,
      "label": "Train Wreck",
      "description": "Complete \"Train Wreck\" challenge",
      "howto": "Complete \"Train Wreck\" challenge"
    },
    {
      "id": 6,
      "imageId": 3,
      "cred": 5,
      "flags": 1,
      "label": "Swinger",
      "description": "Complete \"Swinger\" challenge",
      "howto": "Complete \"Swinger\" challenge"
    },
    {
      "id": 7,
      "imageId": 3,
      "cred": 5,
      "flags": 1,
      "label": "Man Locked Up",
      "description": "Complete \"Man Locked Up\" challenge",
      "howto": "Complete \"Man Locked Up\" challenge"
    },
    {
      "id": 8,
      "imageId": 3,
      "cred": 5,
      "flags": 1,
      "label": "Stroke of Luck",
      "description": "Complete \"Stroke of Luck\" challenge",
      "howto": "Complete \"Stroke of Luck\" challenge"
    },
    {
      "id": 9,
      "imageId": 4,
      "cred": 10,
      "flags": 1,
      "label": "Kick In The Back",
      "description": "Complete \"Kick In The Back\" challenge",
      "howto": "Complete \"Kick In The Back\" challenge"
    },
    {
      "id": 10,
      "imageId": 4,
      "cred": 10,
      "flags": 1,
      "label": "Receiving End",
      "description": "Complete \"Receiving End\" challenge",
      "howto": "Complete \"Receiving End\" challenge"
    },
    {
      "id": 11,
      "imageId": 4,
      "cred": 10,
      "flags": 1,
      "label": "Jabber Man",
      "description": "Complete \"Jabber Man\" challenge",
      "howto": "Complete \"Jabber Man\" challenge"
    },
    {
      "id": 12,
      "imageId": 4,
      "cred": 10,
      "flags": 1,
      "label": "Incoming!",
      "description": "Complete \"Incoming!\" challenge",
      "howto": "Complete \"Incoming!\" challenge"
    },
    {
      "id": 13,
      "imageId": 4,
      "cred": 10,
      "flags": 1,
      "label": "Slayer",
      "description": "Complete \"Slayer\" challenge",
      "howto": "Complete \"Slayer\" challenge"
    },
    {
      "id": 14,
      "imageId": 4,
      "cred": 10,
      "flags": 1,
      "label": "Torn Into Pieces",
      "description": "Complete \"Torn Into Pieces\" challenge",
      "howto": "Complete \"Torn Into Pieces\" challenge"
    },
    {
      "id": 15,
      "imageId": 4,
      "cred": 10,
      "flags": 1,
      "label": "Fair Fight!",
      "description": "Complete \"Fair Fight!\" challenge",
      "howto": "Complete \"Fair Fight!\" challenge"
    },
    {
      "id": 16,
      "imageId": 5,
      "cred": 15,
      "flags": 1,
      "label": "Cracker",
      "description": "Complete \"Cracker\" challenge",
      "howto": "Complete \"Cracker\" challenge"
    },
    {
      "id": 17,
      "imageId": 4,
      "cred": 10,
      "flags": 1,
      "label": "Whoo-paah!",
      "description": "Complete \"Whoo-paah!\" challenge",
      "howto": "Complete \"Whoo-paah!\" challenge"
    },
    {
      "id": 18,
      "imageId": 4,
      "cred": 10,
      "flags": 1,
      "label": "Down To Earth",
      "description": "Complete \"Down To Earth\" challenge",
      "howto": "Complete \"Down To Earth\" challenge"
    },
    {
      "id": 20,
      "imageId": 4,
      "cred": 10,
      "flags": 1,
      "label": "Rocket Man",
      "description": "Complete \"Rocket Man\" challenge",
      "howto": "Complete \"Rocket Man\" challenge"
    },
    {
      "id": 21,
      "imageId": 4,
      "cred": 10,
      "flags": 1,
      "label": "Two Hit Wonder",
      "description": "Complete \"Two Hit Wonder\" challenge",
      "howto": "Complete \"Two Hit Wonder\" challenge"
    },
    {
      "id": 22,
      "imageId": 4,
      "cred": 10,
      "flags": 1,
      "label": "Explosive Delivery",
      "description": "Complete \"Explosive Delivery\" challenge",
      "howto": "Complete \"Explosive Delivery\" challenge"
    },
    {
      "id": 23,
      "imageId": 4,
      "cred": 10,
      "flags": 1,
      "label": "The Pinball Effect",
      "description": "Complete \"The Pinball Effect\" challenge",
      "howto": "Complete \"The Pinball Effect\" challenge"
    },
    {
      "id": 24,
      "imageId": 4,
      "cred": 10,
      "flags": 1,
      "label": "Worthy Foe",
      "description": "Complete \"Worthy Foe\" challenge",
      "howto": "Complete \"Worthy Foe\" challenge"
    },
    {
      "id": 25,
      "imageId": 4,
      "cred": 10,
      "flags": 1,
      "label": "Spence is in the Air",
      "description": "Complete \"Spence is in the Air\" challenge",
      "howto": "Complete \"Spence is in the Air\" challenge"
    },
    {
      "id": 26,
      "imageId": 4,
      "cred": 10,
      "flags": 1,
      "label": "The River",
      "description": "Complete \"The River\" challenge",
      "howto": "Complete \"The River\" challenge"
    },
    {
      "id": 27,
      "imageId": 5,
      "cred": 15,
      "flags": 1,
      "label": "Let the Dog Out",
      "description": "Complete \"Let the Dog Out\" challenge",
      "howto": "Complete \"Let the Dog Out\" challenge"
    },
    {
      "id": 28,
      "imageId": 5,
      "cred": 15,
      "flags": 1,
      "label": "Barrage",
      "description": "Complete \"Barrage\" challenge",
      "howto": "Complete \"Barrage\" challenge"
    },
    {
      "id": 29,
      "imageId": 9,
      "cred": 20,
      "flags": 1,
      "label": "Air to Surface",
      "description": "Complete \"Air to Surface\" challenge",
      "howto": "Complete \"Air to Surface\" challenge"
    },
    {
      "id": 30,
      "imageId": 9,
      "cred": 20,
      "flags": 1,
      "label": "Drive-by",
      "description": "Complete \"Drive-by\" challenge",
      "howto": "Complete \"Drive-by\" challenge"
    },
    {
      "id": 31,
      "imageId": 5,
      "cred": 15,
      "flags": 1,
      "label": "Pull!",
      "description": "Complete \"Pull!\" challenge",
      "howto": "Complete \"Pull!\" challenge"
    },
    {
      "id": 32,
      "imageId": 9,
      "cred": 20,
      "flags": 1,
      "label": "Come Out and Play",
      "description": "Complete \"Come Out and Play\" challenge",
      "howto": "Complete \"Come Out and Play\" challenge"
    },
    {
      "id": 33,
      "imageId": 9,
      "cred": 20,
      "flags": 1,
      "label": "Crowd Control",
      "description": "Complete \"Crowd Control\" challenge",
      "howto": "Complete \"Crowd Control\" challenge"
    },
    {
      "id": 34,
      "imageId": 5,
      "cred": 15,
      "flags": 1,
      "label": "Shoot 'Em Up!",
      "description": "Complete \"Shoot 'Em Up!\" challenge",
      "howto": "Complete \"Shoot 'Em Up!\" challenge"
    },
    {
      "id": 35,
      "imageId": 10,
      "cred": 25,
      "flags": 1,
      "label": "The Pitcher",
      "description": "Complete \"The Pitcher\" challenge",
      "howto": "Complete \"The Pitcher\" challenge"
    },
    {
      "id": 36,
      "imageId": 10,
      "cred": 25,
      "flags": 1,
      "label": "Feel the Beat, Y'all!",
      "description": "Complete \"Feel the Beat, Y'all!\" challenge",
      "howto": "Complete \"Feel the Beat, Y'all!\" challenge"
    },
    {
      "id": 37,
      "imageId": 10,
      "cred": 25,
      "flags": 1,
      "label": "Shellshock",
      "description": "Complete \"Shellshock\" challenge",
      "howto": "Complete \"Shellshock\" challenge"
    },
    {
      "id": 38,
      "imageId": 10,
      "cred": 25,
      "flags": 1,
      "label": "Headshot Bonanza",
      "description": "Complete \"Headshot Bonanza\" challenge",
      "howto": "Complete \"Headshot Bonanza\" challenge"
    },
    {
      "id": 39,
      "imageId": 10,
      "cred": 25,
      "flags": 1,
      "label": "Poly Cruncher",
      "description": "Complete \"Poly Cruncher\" challenge",
      "howto": "Complete \"Poly Cruncher\" challenge"
    },
    {
      "id": 40,
      "imageId": 10,
      "cred": 25,
      "flags": 1,
      "label": "Nemesis",
      "description": "Complete \"Nemesis\" challenge",
      "howto": "Complete \"Nemesis\" challenge"
    },
    {
      "id": 41,
      "imageId": 10,
      "cred": 25,
      "flags": 1,
      "label": "Biomech Sweeper",
      "description": "Complete \"Biomech Sweeper\" challenge",
      "howto": "Complete \"Biomech Sweeper\" challenge"
    },
    {
      "id": 42,
      "imageId": 10,
      "cred": 25,
      "flags": 1,
      "label": "Whip 'Em Good",
      "description": "Complete \"Whip 'Em Good\" challenge",
      "howto": "Complete \"Whip 'Em Good\" challenge"
    },
    {
      "id": 43,
      "imageId": 11,
      "cred": 30,
      "flags": 1,
      "label": "Out of the Bush",
      "description": "Complete \"Out of the Bush\" challenge",
      "howto": "Complete \"Out of the Bush\" challenge"
    },
    {
      "id": 44,
      "imageId": 6,
      "cred": 40,
      "flags": 1,
      "label": "Can you dig it?",
      "description": "Complete \"Can you dig it?\" challenge",
      "howto": "Complete \"Can you dig it?\" challenge"
    },
    {
      "id": 45,
      "imageId": 7,
      "cred": 50,
      "flags": 1,
      "label": "Choke on that",
      "description": "Kill Groeder – Kill him for good",
      "howto": ""
    },
    {
      "id": 46,
      "imageId": 7,
      "cred": 50,
      "flags": 1,
      "label": "The Collector",
      "description": "Find all collectibles in the game.",
      "howto": "Find all collectibles in the game."
    },
    {
      "id": 47,
      "imageId": 7,
      "cred": 50,
      "flags": 1,
      "label": "Bionically Challenged",
      "description": "Complete all challenges in the game.",
      "howto": "Complete all challenges in the game."
    },
    {
      "id": 48,
      "imageId": 7,
      "cred": 50,
      "flags": 1,
      "label": "End Game",
      "description": "Complete the final mission",
      "howto": "Complete the final mission"
    },
    {
      "id": 49,
      "imageId": 8,
      "cred": 75,
      "flags": 1,
      "label": "I got Hard",
      "description": "Finish the game in Hard mode.",
      "howto": "Finish the game in Hard mode."
    },
    {
      "id": 50,
      "imageId": 8,
      "cred": 100,
      "flags": 1,
      "label": "I went Commando",
      "description": "Finish the game in Commando mode.",
      "howto": "Finish the game in Commando mode."
    }
  ]
}