{
  "achievementsPossible": 39,
  "credPossible": 1000,
  "achievements": [
    {
      "id": 11,
      "imageId": 1,
      "cred": 10,
      "flags": 6,
      "label": "Orientation Day Graduate",
      "description": "Complete your first Hell's Gate visit.",
      "howto": ""
    },
    {
      "id": 12,
      "imageId": 1,
      "cred": 20,
      "flags": 6,
      "label": "War's Begun",
      "description": "Complete Blue Lagoon",
      "howto": ""
    },
    {
      "id": 13,
      "imageId": 1,
      "cred": 20,
      "flags": 6,
      "label": "The First Harmonic",
      "description": "Score your first harmonic in Needle Hills.",
      "howto": ""
    },
    {
      "id": 14,
      "imageId": 1,
      "cred": 20,
      "flags": 6,
      "label": "Harmonic in the FEBA",
      "description": "Score a harmonic from the FEBA.",
      "howto": ""
    },
    {
      "id": 15,
      "imageId": 1,
      "cred": 20,
      "flags": 6,
      "label": "Grave's Bog Harmonic",
      "description": "Score the harmonic in Grave's Bog.",
      "howto": ""
    },
    {
      "id": 16,
      "imageId": 1,
      "cred": 20,
      "flags": 6,
      "label": "Two-Traitor Clean-up!",
      "description": "Kill Langley and Epstein in the Hanging Garden.",
      "howto": ""
    },
    {
      "id": 17,
      "imageId": 1,
      "cred": 20,
      "flags": 6,
      "label": "Hasta la vista, Harper",
      "description": "Kill Harper in Mist Ridge.",
      "howto": ""
    },
    {
      "id": 18,
      "imageId": 1,
      "cred": 20,
      "flags": 6,
      "label": "Ryder owns Goliath",
      "description": "Complete the Plains of Goliath.",
      "howto": ""
    },
    {
      "id": 19,
      "imageId": 1,
      "cred": 20,
      "flags": 6,
      "label": "Did we win?",
      "description": "Survive the RDA attack in Iknimaya.",
      "howto": ""
    },
    {
      "id": 20,
      "imageId": 1,
      "cred": 20,
      "flags": 6,
      "label": "The First Song",
      "description": "Secure the song in the Swotulu.",
      "howto": ""
    },
    {
      "id": 21,
      "imageId": 1,
      "cred": 20,
      "flags": 6,
      "label": "Song of Torukä Na'rìng",
      "description": "Secure the song in Torukä Na'rìng.",
      "howto": ""
    },
    {
      "id": 22,
      "imageId": 1,
      "cred": 20,
      "flags": 6,
      "label": "Song of Va'erä Ramunong",
      "description": "Secure the song in Va'erä Ramunong.",
      "howto": ""
    },
    {
      "id": 23,
      "imageId": 1,
      "cred": 20,
      "flags": 6,
      "label": "Song of Kxanìa Taw",
      "description": "Secure the song in Kxanìa Taw.",
      "howto": ""
    },
    {
      "id": 24,
      "imageId": 2,
      "cred": 100,
      "flags": 1,
      "label": "More Tawtute Will Come",
      "description": "Finish the game on the Na'vi side.",
      "howto": ""
    },
    {
      "id": 25,
      "imageId": 2,
      "cred": 100,
      "flags": 1,
      "label": "The Battle's Won",
      "description": "Finish the game on the RDA side.",
      "howto": ""
    },
    {
      "id": 26,
      "imageId": 3,
      "cred": 20,
      "flags": 4,
      "label": "Blue Lagoon Clean Sweep",
      "description": "Complete all Sector Challenges in Blue Lagoon.",
      "howto": "Complete all Sector Challenges in Blue Lagoon."
    },
    {
      "id": 27,
      "imageId": 3,
      "cred": 20,
      "flags": 4,
      "label": "Needle Hills Clean Sweep",
      "description": "Complete all Sector Challenges in Needle Hills.",
      "howto": "Complete all Sector Challenges in Needle Hills."
    },
    {
      "id": 28,
      "imageId": 3,
      "cred": 20,
      "flags": 4,
      "label": "FEBA Clean Sweep",
      "description": "Complete all Sector Challenges in the FEBA.",
      "howto": "Complete all Sector Challenges in the FEBA."
    },
    {
      "id": 29,
      "imageId": 3,
      "cred": 20,
      "flags": 4,
      "label": "Grave's Bog Clean Sweep",
      "description": "Complete all Sector Challenges in Grave's Bog.",
      "howto": "Complete all Sector Challenges in Grave's Bog."
    },
    {
      "id": 30,
      "imageId": 3,
      "cred": 20,
      "flags": 4,
      "label": "Hanging Gardens Clean Sweep",
      "description": "Complete all Sector Challenges in the Hanging Gardens.",
      "howto": "Complete all Sector Challenges in the Hanging Gardens."
    },
    {
      "id": 31,
      "imageId": 3,
      "cred": 20,
      "flags": 4,
      "label": "Plains of Goliath Clean Sweep",
      "description": "Complete all Sector Challenges in Plains of Goliath.",
      "howto": "Complete all Sector Challenges in Plains of Goliath."
    },
    {
      "id": 32,
      "imageId": 3,
      "cred": 20,
      "flags": 4,
      "label": "Iknimaya Clean Sweep",
      "description": "Complete all Sector Challenges in Iknimaya.",
      "howto": "Complete all Sector Challenges in Iknimaya."
    },
    {
      "id": 33,
      "imageId": 3,
      "cred": 20,
      "flags": 4,
      "label": "Swotulu Clean Sweep",
      "description": "Complete all Sector Challenges in the Swotulu.",
      "howto": "Complete all Sector Challenges in the Swotulu."
    },
    {
      "id": 34,
      "imageId": 3,
      "cred": 20,
      "flags": 4,
      "label": "Va'erä Ramunong Clean Sweep",
      "description": "Complete all Sector Challenges in Va'erä Ramunong.",
      "howto": "Complete all Sector Challenges in Va'erä Ramunong."
    },
    {
      "id": 35,
      "imageId": 3,
      "cred": 20,
      "flags": 4,
      "label": "Kxanìa Taw Clean Sweep",
      "description": "Complete all Sector Challenges in Kxanìa Taw.",
      "howto": "Complete all Sector Challenges in Kxanìa Taw."
    },
    {
      "id": 36,
      "imageId": 3,
      "cred": 20,
      "flags": 4,
      "label": "Torukä Na'rìng Clean Sweep",
      "description": "Complete all Sector Challenges in Torukä Na'rìng.",
      "howto": "Complete all Sector Challenges in Torukä Na'rìng."
    },
    {
      "id": 37,
      "imageId": 4,
      "cred": 75,
      "flags": 4,
      "label": "Clean Sweep of Pandora",
      "description": "Complete every Sector Challenge in the game.",
      "howto": "Complete every Sector Challenge in the game."
    },
    {
      "id": 38,
      "imageId": 5,
      "cred": 25,
      "flags": 4,
      "label": "Turn the Tide",
      "description": "Claim 50% of all territories.",
      "howto": "Claim 50% of all territories."
    },
    {
      "id": 40,
      "imageId": 6,
      "cred": 20,
      "flags": 4,
      "label": "Digital Bookworm",
      "description": "Unlock 20 Pandorapedia articles.",
      "howto": "Unlock 20 Pandorapedia articles."
    },
    {
      "id": 41,
      "imageId": 6,
      "cred": 20,
      "flags": 4,
      "label": "Weapon of Choice",
      "description": "Kill 100 enemies using the dual wasps or the bow.",
      "howto": "Kill 100 enemies using the dual wasps or the bow."
    },
    {
      "id": 42,
      "imageId": 6,
      "cred": 30,
      "flags": 4,
      "label": "Jack of All Skills",
      "description": "Use every Rank 4 skill 20 times.",
      "howto": "Use every Rank 4 skill 20 times."
    },
    {
      "id": 43,
      "imageId": 7,
      "cred": 20,
      "flags": 4,
      "label": "A God is Upon Us",
      "description": "Get 10 kills in a row without dying.",
      "howto": "Get 10 kills in a row without dying."
    },
    {
      "id": 44,
      "imageId": 7,
      "cred": 20,
      "flags": 4,
      "label": "Bring On All Comers!",
      "description": "Complete 150 Multiplayer games.",
      "howto": "Complete 150 Multiplayer games."
    },
    {
      "id": 45,
      "imageId": 7,
      "cred": 20,
      "flags": 4,
      "label": "The Enemy's Bane",
      "description": "Finish a Team Deathmatch with the most kills of either team.\r\n",
      "howto": "Finish a Team Deathmatch with the most kills of either team.\r\n"
    },
    {
      "id": 46,
      "imageId": 7,
      "cred": 20,
      "flags": 4,
      "label": "Flawless Victory",
      "description": "Win 3-0 in 'Capture the Flag'.",
      "howto": "Win 3-0 in 'Capture the Flag'."
    },
    {
      "id": 47,
      "imageId": 7,
      "cred": 20,
      "flags": 4,
      "label": "Destructive Preservation",
      "description": "As an RDA grunt, reach the end of the timer with 3 intact missiles.",
      "howto": "As an RDA grunt, reach the end of the timer with 3 intact missiles."
    },
    {
      "id": 48,
      "imageId": 7,
      "cred": 20,
      "flags": 4,
      "label": "Pandora's Protector",
      "description": "As a Na'vi warrior, reach the end of the timer with 3 intact crystals.",
      "howto": "As a Na'vi warrior, reach the end of the timer with 3 intact crystals."
    },
    {
      "id": 49,
      "imageId": 7,
      "cred": 20,
      "flags": 4,
      "label": "The Conqueror",
      "description": "Win 5 'Capture and Hold' matches.",
      "howto": "Win 5 'Capture and Hold' matches."
    },
    {
      "id": 50,
      "imageId": 7,
      "cred": 20,
      "flags": 4,
      "label": "Central Focus",
      "description": "Win 5 'King of the Hill' matches.",
      "howto": "Win 5 'King of the Hill' matches."
    }
  ]
}