{
  "avatarAssetsPossible": 3,
  "maleAvatarAssetsPossible": 1,
  "femaleAvatarAssetsPossible": 1,
  "avatarAssets": [
    {
      "id": "00000040-0005-5133-c94c-90425841095f",
      "imageId": 17,
      "subcategory": 0,
      "unknown": 0,
      "isMale": false,
      "isFemale": false,
      "isUnisex": true,
      "label": "Dr. Diggabone's hat",
      "description": "Dr. Diggabone's hat",
      "howto": "Grab all 16 relics"
    },
    {
      "id": "00000238-0006-e1b1-cfc3-51665841095f",
      "imageId": 14,
      "subcategory": 0,
      "unknown": 2015221016,
      "isMale": true,
      "isFemale": false,
      "isUnisex": false,
      "label": "Dr. Diggabone's outfit",
      "description": "Dr. Diggabone's outfit",
      "howto": "Unlock Full Game"
    },
    {
      "id": "00000038-0006-51f2-cb6b-5b2f5841095f",
      "imageId": 15,
      "subcategory": 0,
      "unknown": 2015221016,
      "isMale": false,
      "isFemale": true,
      "isUnisex": false,
      "label": "Dr. Diggabone's outfit",
      "description": "Dr. Diggabone's outfit",
      "howto": "Unlock Full Game"
    }
  ]
}