{
  "avatarAssetsPossible": 4,
  "maleAvatarAssetsPossible": 1,
  "femaleAvatarAssetsPossible": 1,
  "avatarAssets": [
    {
      "id": "00000008-0001-9141-cbf6-a4bc4d530a87",
      "imageId": 90,
      "subcategory": 0,
      "unknown": 0,
      "isMale": true,
      "isFemale": false,
      "isUnisex": false,
      "label": "Fable Anniversary Male T-Shirt",
      "description": "Show your love for Fable Anniversary to the world, or at least just the people on your friends list.",
      "howto": "Unlock the “From The Smallest Acorn” achievement in Fable Anniversary."
    },
    {
      "id": "00000008-0001-0132-c7e2-e9764d530a87",
      "imageId": 92,
      "subcategory": 0,
      "unknown": 2015221016,
      "isMale": false,
      "isFemale": true,
      "isUnisex": false,
      "label": "Fable Anniversary Female T-Shirt",
      "description": "Show your love for Fable Anniversary to the world, or at least just the people on your friends list.",
      "howto": "Unlock the “From The Smallest Acorn” achievement in Fable Anniversary."
    },
    {
      "id": "00000544-0002-01c3-c5a7-91874d530a87",
      "imageId": 80,
      "subcategory": 0,
      "unknown": 2015221016,
      "isMale": false,
      "isFemale": false,
      "isUnisex": true,
      "label": "Bandit Bandana",
      "description": "Fool everyone into thinking you're a Bandit by wearing the Bandana. Easy when you know how!",
      "howto": "Unlock “The Bloodline Part I” achievement in Fable Anniversary."
    },
    {
      "id": "00000544-0003-71f3-cf76-3aca4d530a87",
      "imageId": 85,
      "subcategory": 0,
      "unknown": 2015221016,
      "isMale": false,
      "isFemale": false,
      "isUnisex": true,
      "label": "Jack Of Blades Mask",
      "description": "The real question is; did you keep or throw the actual mask?!",
      "howto": "Unlock the “(#SPOILERS)” achievement in Fable Anniversary."
    }
  ]
}