{
  "achievementsPossible": 55,
  "credPossible": 1240,
  "achievements": [
    {
      "id": 1,
      "imageId": 2,
      "cred": 10,
      "flags": 4,
      "label": "Falcon Dive",
      "description": "Learned the Falcon Dive.",
      "howto": "Learn the Falcon Dive."
    },
    {
      "id": 2,
      "imageId": 3,
      "cred": 10,
      "flags": 4,
      "label": "Sliding",
      "description": "Learned how to slide.",
      "howto": "Learn how to slide."
    },
    {
      "id": 3,
      "imageId": 4,
      "cred": 10,
      "flags": 4,
      "label": "Kunai Climb",
      "description": "Learned the Kunai Climb.",
      "howto": "Learn the Kunai Climb."
    },
    {
      "id": 4,
      "imageId": 5,
      "cred": 10,
      "flags": 4,
      "label": "Wall Run",
      "description": "Learned the Wall Run.",
      "howto": "Learn the Wall Run."
    },
    {
      "id": 5,
      "imageId": 6,
      "cred": 10,
      "flags": 4,
      "label": "Flying Bird Flip",
      "description": "Learned the Flying Bird Flip.",
      "howto": "Learn the Flying Bird Flip."
    },
    {
      "id": 6,
      "imageId": 7,
      "cred": 10,
      "flags": 4,
      "label": "Rope Crossing",
      "description": "Learned how to cross a rope.",
      "howto": "Learn how to cross a rope."
    },
    {
      "id": 7,
      "imageId": 8,
      "cred": 10,
      "flags": 4,
      "label": "Izuna Drop",
      "description": "Learned the Izuna Drop.",
      "howto": "Learn the Izuna Drop."
    },
    {
      "id": 8,
      "imageId": 9,
      "cred": 10,
      "flags": 4,
      "label": "Ultimate Technique",
      "description": "Learned the Ultimate Technique.",
      "howto": "Learn the Ultimate Technique."
    },
    {
      "id": 9,
      "imageId": 10,
      "cred": 10,
      "flags": 4,
      "label": "Inferno",
      "description": "Learned Ninpo.",
      "howto": "Learn Ninpo."
    },
    {
      "id": 10,
      "imageId": 11,
      "cred": 10,
      "flags": 6,
      "label": "Steel on Steel",
      "description": "Destroyed the Steel Spider.",
      "howto": "Destroy the Steel Spider."
    },
    {
      "id": 11,
      "imageId": 12,
      "cred": 10,
      "flags": 6,
      "label": "The Grip of Murder",
      "description": "Finish Day 1.",
      "howto": "Finish Day 1."
    },
    {
      "id": 12,
      "imageId": 13,
      "cred": 10,
      "flags": 6,
      "label": "Mind the Gap",
      "description": "Escaped from the monorail.",
      "howto": "Escape from the monorail."
    },
    {
      "id": 13,
      "imageId": 14,
      "cred": 10,
      "flags": 6,
      "label": "Bumpy Ride",
      "description": "Finish Day 2.",
      "howto": "Finish Day 2."
    },
    {
      "id": 14,
      "imageId": 15,
      "cred": 15,
      "flags": 6,
      "label": "Beyond the Flames",
      "description": "Made it through the fire.",
      "howto": "Make it through the fire."
    },
    {
      "id": 15,
      "imageId": 16,
      "cred": 15,
      "flags": 6,
      "label": "Antediluvian Slumber",
      "description": "Finish Day 3.",
      "howto": "Finish Day 3."
    },
    {
      "id": 16,
      "imageId": 17,
      "cred": 15,
      "flags": 6,
      "label": "Abysmal Creations",
      "description": "Escaped from the Chimera Disposal Facility.",
      "howto": "Escape from the Chimera Disposal Facility."
    },
    {
      "id": 17,
      "imageId": 18,
      "cred": 15,
      "flags": 6,
      "label": "The Great Escape",
      "description": "Finish Day 4.",
      "howto": "Finish Day 4."
    },
    {
      "id": 18,
      "imageId": 19,
      "cred": 15,
      "flags": 6,
      "label": "The Acolyte",
      "description": "Successfully responded to Sanji's ambush.",
      "howto": "Successfully clear the Sanji event in Hayabusa Village."
    },
    {
      "id": 19,
      "imageId": 20,
      "cred": 15,
      "flags": 6,
      "label": "The Karma of a Shinobi",
      "description": "Finish Day 5.",
      "howto": "Finish Day 5."
    },
    {
      "id": 20,
      "imageId": 21,
      "cred": 15,
      "flags": 6,
      "label": "Evil Twin",
      "description": "Defeated the Epigonos.",
      "howto": "Defeat the Epigonos."
    },
    {
      "id": 21,
      "imageId": 22,
      "cred": 15,
      "flags": 6,
      "label": "Waiting",
      "description": "Finish Day 6.",
      "howto": "Finish Day 6."
    },
    {
      "id": 22,
      "imageId": 23,
      "cred": 15,
      "flags": 6,
      "label": "Ahab",
      "description": "Land on the Black Narwhal.",
      "howto": "Attack the Black Narwhal."
    },
    {
      "id": 23,
      "imageId": 24,
      "cred": 15,
      "flags": 6,
      "label": "Advent of the Goddess",
      "description": "Finish Day 7.",
      "howto": "Finish Day 7."
    },
    {
      "id": 24,
      "imageId": 25,
      "cred": 15,
      "flags": 6,
      "label": "Brothers",
      "description": "Defeated Cliff.",
      "howto": "The sibling rivalry comes to an end."
    },
    {
      "id": 25,
      "imageId": 26,
      "cred": 15,
      "flags": 6,
      "label": "Atonement",
      "description": "Defeated Theodore.",
      "howto": "One more death to make amends."
    },
    {
      "id": 26,
      "imageId": 27,
      "cred": 50,
      "flags": 1,
      "label": "Hero",
      "description": "Cleared the game on Hero.",
      "howto": "Clear the game on Hero."
    },
    {
      "id": 27,
      "imageId": 28,
      "cred": 50,
      "flags": 1,
      "label": "Shinobi",
      "description": "Cleared the game on Normal.",
      "howto": "Clear the game on Normal."
    },
    {
      "id": 28,
      "imageId": 29,
      "cred": 60,
      "flags": 1,
      "label": "Mentor",
      "description": "Cleared the game on Hard.",
      "howto": "Clear the game on Hard."
    },
    {
      "id": 29,
      "imageId": 30,
      "cred": 100,
      "flags": 1,
      "label": "Master Ninja",
      "description": "Cleared the game on Master Ninja.",
      "howto": "Clear the game on Master Ninja."
    },
    {
      "id": 30,
      "imageId": 31,
      "cred": 10,
      "flags": 4,
      "label": "Steel on Bone",
      "description": "Cut down 100 enemies with Steel on Bone attacks.",
      "howto": "Cut down 100 enemies with Steel on Bone attacks."
    },
    {
      "id": 31,
      "imageId": 32,
      "cred": 10,
      "flags": 7,
      "label": "I Got Your Back",
      "description": "Played a Co-op Ninja Trial with a partner.",
      "howto": "Play a Co-op Ninja Trial with a partner."
    },
    {
      "id": 32,
      "imageId": 33,
      "cred": 10,
      "flags": 7,
      "label": "Initiation",
      "description": "Played a Clan Battle.",
      "howto": "Play a Clan Battle."
    },
    {
      "id": 33,
      "imageId": 34,
      "cred": 10,
      "flags": 4,
      "label": "Teamwork",
      "description": "Won 10 team matches in Clan Battles.",
      "howto": "Win 10 team battles."
    },
    {
      "id": 34,
      "imageId": 35,
      "cred": 10,
      "flags": 4,
      "label": "One Against the World",
      "description": "Won a battle royale match.",
      "howto": "Win a battle royale match."
    },
    {
      "id": 35,
      "imageId": 36,
      "cred": 10,
      "flags": 4,
      "label": "Shady",
      "description": "Performed a betrayal.",
      "howto": "Perform a betrayal."
    },
    {
      "id": 36,
      "imageId": 37,
      "cred": 10,
      "flags": 4,
      "label": "Sneaky",
      "description": "Performed a ghost kill.",
      "howto": "Perform a ghost kill."
    },
    {
      "id": 37,
      "imageId": 38,
      "cred": 10,
      "flags": 4,
      "label": "An Honorable Death",
      "description": "Performed harakiri.",
      "howto": "Perform harakiri."
    },
    {
      "id": 38,
      "imageId": 39,
      "cred": 10,
      "flags": 1,
      "label": "Initiate",
      "description": "Cleared 10 Acolyte Trials.",
      "howto": "Clear 10 Acolyte Trials."
    },
    {
      "id": 39,
      "imageId": 40,
      "cred": 10,
      "flags": 1,
      "label": "Veteran",
      "description": "Cleared 10 Mentor Trials.",
      "howto": "Clear 10 Mentor Trials."
    },
    {
      "id": 40,
      "imageId": 41,
      "cred": 10,
      "flags": 1,
      "label": "Prestige",
      "description": "Cleared 5 Leader Trials.",
      "howto": "Clear 5 Leader Trials."
    },
    {
      "id": 41,
      "imageId": 42,
      "cred": 50,
      "flags": 1,
      "label": "Overlord",
      "description": "Cleared 5 Master Ninja Trials.",
      "howto": "Clear 5 Master Ninja Trials."
    },
    {
      "id": 42,
      "imageId": 43,
      "cred": 100,
      "flags": 1,
      "label": "Ultimate Ninja",
      "description": "Cleared 3 Ultimate Ninja Trials.",
      "howto": "Clear 3 Ultimate Ninja Trials."
    },
    {
      "id": 43,
      "imageId": 44,
      "cred": 15,
      "flags": 2,
      "label": "Master of the Katana",
      "description": "Raised the katana to level 10.",
      "howto": "Raise the katana to level 10."
    },
    {
      "id": 44,
      "imageId": 45,
      "cred": 15,
      "flags": 2,
      "label": "Hayabusa Style Grand Master",
      "description": "Reached level 50.",
      "howto": "Reach level 50."
    },
    {
      "id": 45,
      "imageId": 46,
      "cred": 10,
      "flags": 7,
      "label": "Snowman",
      "description": "Played the Snowfield stage 10 times.",
      "howto": "Play the Snowfield stage 10 times."
    },
    {
      "id": 46,
      "imageId": 47,
      "cred": 10,
      "flags": 7,
      "label": "Guardian of the Village",
      "description": "Played the Hidden Village stage 10 times.",
      "howto": "Play the Hidden Village stage 10 times."
    },
    {
      "id": 47,
      "imageId": 48,
      "cred": 10,
      "flags": 7,
      "label": "Observer",
      "description": "Played the Watchtower stage 10 times.",
      "howto": "Play the Watchtower stage 10 times."
    },
    {
      "id": 48,
      "imageId": 49,
      "cred": 50,
      "flags": 2,
      "label": "Lone Ninja",
      "description": "Cleared 10 Solo Ninja Trials.",
      "howto": "Clear 10 Solo Ninja Trials."
    },
    {
      "id": 49,
      "imageId": 50,
      "cred": 10,
      "flags": 4,
      "label": "The Spice of Life",
      "description": "Obtained 10 customization parts.",
      "howto": "Get 10 customization parts."
    },
    {
      "id": 50,
      "imageId": 51,
      "cred": 50,
      "flags": 4,
      "label": "Walking Dictionary",
      "description": "Obtained 100 kanji.",
      "howto": "Get 100 kanji."
    },
    {
      "id": 51,
      "imageId": 52,
      "cred": 120,
      "flags": 1,
      "label": "Legendary Ninja",
      "description": "Cleared the story on the Ultimate Ninja play style and Ultimate Ninja Trials 4 & 5.",
      "howto": "Clear the story on the Ultimate Ninja play style and Ultimate Ninja Trials 4 & 5."
    },
    {
      "id": 52,
      "imageId": 53,
      "cred": 15,
      "flags": 4,
      "label": "Bloodied Talons",
      "description": "Defeated 100 opponents in Clan Battles with the Metal Claws.",
      "howto": "Defeat 100 opponents in Clan Battles with the Metal Claws."
    },
    {
      "id": 53,
      "imageId": 54,
      "cred": 15,
      "flags": 4,
      "label": "Grim Reaper",
      "description": "Defeated 100 opponents in Clan Battles with the Great Scythe.",
      "howto": "Defeat 100 opponents in Clan Battles with the Great Scythe."
    },
    {
      "id": 54,
      "imageId": 55,
      "cred": 45,
      "flags": 1,
      "label": "Warrior",
      "description": "Cleared all Ninja Trials included in Ninja Pack 1.",
      "howto": "Clear all Ninja Trials included in Ninja Pack 1."
    },
    {
      "id": 55,
      "imageId": 56,
      "cred": 45,
      "flags": 1,
      "label": "Sage",
      "description": "Cleared all Ninja Trials included in Ninja Pack 2.",
      "howto": "Clear all Ninja Trials included in Ninja Pack 2."
    }
  ]
}