{
  "achievementsPossible": 12,
  "credPossible": 400,
  "achievements": [
    {
      "id": 1,
      "imageId": 1,
      "cred": 70,
      "flags": 4,
      "label": "God of War",
      "description": "Kill 10,000 Enemies",
      "howto": "Kill 10,000 Enemies"
    },
    {
      "id": 2,
      "imageId": 2,
      "cred": 60,
      "flags": 4,
      "label": "Awardist",
      "description": "Earn 100 awards",
      "howto": "Earn 100 awards"
    },
    {
      "id": 3,
      "imageId": 3,
      "cred": 15,
      "flags": 4,
      "label": "Points in Your Favor",
      "description": "Inflict 2,500 total points of damage to enemies",
      "howto": "Inflict 2,500 total points of damage to enemies"
    },
    {
      "id": 4,
      "imageId": 4,
      "cred": 20,
      "flags": 4,
      "label": "War Bonds",
      "description": "Earn $50,000 total cash",
      "howto": "Earn $50,000 total cash"
    },
    {
      "id": 5,
      "imageId": 5,
      "cred": 20,
      "flags": 4,
      "label": "Rampage!",
      "description": "Win an Arms Race match without dying",
      "howto": "Win an Arms Race match without dying"
    },
    {
      "id": 6,
      "imageId": 6,
      "cred": 30,
      "flags": 4,
      "label": "Battle Sight Zero",
      "description": "Kill 250 enemies with headshots",
      "howto": "Kill 250 enemies with headshots"
    },
    {
      "id": 7,
      "imageId": 7,
      "cred": 60,
      "flags": 4,
      "label": "Clean Sweep",
      "description": "Kill the entire opposing team without any members of your team taking any damage",
      "howto": "Kill the entire opposing team without any members of your team taking any damage"
    },
    {
      "id": 8,
      "imageId": 8,
      "cred": 20,
      "flags": 4,
      "label": "Repeat Offender",
      "description": "Dominate an enemy",
      "howto": "Dominate an enemy"
    },
    {
      "id": 9,
      "imageId": 9,
      "cred": 25,
      "flags": 4,
      "label": "Expert Marksman",
      "description": "Get a kill with every weapon",
      "howto": "Get a kill with every weapon"
    },
    {
      "id": 10,
      "imageId": 10,
      "cred": 10,
      "flags": 4,
      "label": "Magic Bullet",
      "description": "Kill an enemy with the last bullet in your magazine (excluding sniper rifles and Zeus x27)",
      "howto": "Kill an enemy with the last bullet in your magazine (excluding sniper rifles and Zeus x27)"
    },
    {
      "id": 11,
      "imageId": 11,
      "cred": 30,
      "flags": 4,
      "label": "First Things First",
      "description": "Personally kill the entire Terrorist team before the bomb is planted in Online Demolition Mode",
      "howto": "Personally kill the entire Terrorist team before the bomb is planted in Online Demolition Mode"
    },
    {
      "id": 12,
      "imageId": 12,
      "cred": 40,
      "flags": 4,
      "label": "King of the Kill",
      "description": "Play 5,000 matches of Arms Race or Demolition mode",
      "howto": "Play 5,000 matches of Arms Race or Demolition mode"
    }
  ]
}