{
  "achievementsPossible": 41,
  "credPossible": 1000,
  "achievements": [
    {
      "id": 1,
      "imageId": 45,
      "cred": 10,
      "flags": 6,
      "label": "Now You're Cooking…",
      "description": "Survived the Diner Otherworld.",
      "howto": "Survive the Diner Otherworld."
    },
    {
      "id": 2,
      "imageId": 4,
      "cred": 10,
      "flags": 6,
      "label": "Out of the Frying Pan",
      "description": "Rode the Sky Tram to Devil's Pit.",
      "howto": "Ride the Sky Tram to Devil's Pit."
    },
    {
      "id": 3,
      "imageId": 1,
      "cred": 10,
      "flags": 6,
      "label": "Going off the Rails",
      "description": "Escaped from Devil's Pit.",
      "howto": "Escape from Devil's Pit."
    },
    {
      "id": 4,
      "imageId": 2,
      "cred": 10,
      "flags": 6,
      "label": "Found a Friend!",
      "description": "Met DJ Ricks in the Radio Station.",
      "howto": "Meet DJ Ricks in the Radio Station."
    },
    {
      "id": 5,
      "imageId": 3,
      "cred": 10,
      "flags": 6,
      "label": "Whatever Doesn't Kill You…",
      "description": "Escaped the Radio Station Otherworld.",
      "howto": "Escape the Radio Station Otherworld."
    },
    {
      "id": 6,
      "imageId": 5,
      "cred": 10,
      "flags": 6,
      "label": "Ashes, Ashes",
      "description": "Collected 3 pages of the rhyme book.",
      "howto": "Collect 3 pages of the rhyme book."
    },
    {
      "id": 7,
      "imageId": 6,
      "cred": 10,
      "flags": 6,
      "label": "Broken Cycle",
      "description": "Defeated The Bogeyman.",
      "howto": "Defeat The Bogeyman."
    },
    {
      "id": 8,
      "imageId": 7,
      "cred": 10,
      "flags": 6,
      "label": "No Turning Back",
      "description": "Reached Overlook Penitentiary.",
      "howto": "Reach Overlook Penitentiary."
    },
    {
      "id": 9,
      "imageId": 8,
      "cred": 50,
      "flags": 1,
      "label": "Ending A",
      "description": "Achieved \"Forgiveness\" ending.",
      "howto": "Achieve \"Forgiveness\" ending."
    },
    {
      "id": 10,
      "imageId": 9,
      "cred": 50,
      "flags": 1,
      "label": "Ending C",
      "description": "Achieved \"Full Circle\" ending.",
      "howto": "Achieve \"Full Circle\" ending."
    },
    {
      "id": 11,
      "imageId": 10,
      "cred": 50,
      "flags": 1,
      "label": "Ending B",
      "description": "Achieved \"Truth & Justice\" ending.",
      "howto": "Achieve \"Truth & Justice\" ending."
    },
    {
      "id": 12,
      "imageId": 11,
      "cred": 50,
      "flags": 1,
      "label": "Ending D",
      "description": "Achieved \"Execution\" ending.",
      "howto": "Achieve \"Execution\" ending."
    },
    {
      "id": 13,
      "imageId": 12,
      "cred": 70,
      "flags": 1,
      "label": "Ending E",
      "description": "Achieved \"Surprise!\" ending.",
      "howto": "Achieve \"Surprise!\" ending."
    },
    {
      "id": 14,
      "imageId": 13,
      "cred": 100,
      "flags": 1,
      "label": "Capital Punishment",
      "description": "Completed the game on the hard game difficulty setting, any ending.",
      "howto": "Complete the game on the hard game difficulty setting, any ending."
    },
    {
      "id": 15,
      "imageId": 14,
      "cred": 50,
      "flags": 1,
      "label": "Good Behavior",
      "description": "Completed the game on any difficulty without killing any monsters.",
      "howto": "Complete the game on any difficulty without killing any monsters."
    },
    {
      "id": 16,
      "imageId": 15,
      "cred": 100,
      "flags": 1,
      "label": "Silent Hill Tour Guide",
      "description": "Completed all side quests.",
      "howto": "Complete all side quests."
    },
    {
      "id": 17,
      "imageId": 16,
      "cred": 5,
      "flags": 1,
      "label": "Useless Trinkets",
      "description": "Completed the \"Digging up the Past\" side quest.",
      "howto": "Complete the \"Digging up the Past\" side quest."
    },
    {
      "id": 18,
      "imageId": 17,
      "cred": 5,
      "flags": 1,
      "label": "Birdman",
      "description": "Completed the \"Bird Cage\" side quest.",
      "howto": "Complete the \"Bird Cage\" side quest."
    },
    {
      "id": 20,
      "imageId": 19,
      "cred": 5,
      "flags": 1,
      "label": "Calling All Cars",
      "description": "Completed the \"All Points Bulletin\" side quest.",
      "howto": "Complete the \"All Points Bulletin\" side quest."
    },
    {
      "id": 22,
      "imageId": 21,
      "cred": 5,
      "flags": 1,
      "label": "Neighborhood Watch",
      "description": "Completed the \"Stolen Goods\" side quest.",
      "howto": "Complete the \"Stolen Goods\" side quest."
    },
    {
      "id": 23,
      "imageId": 22,
      "cred": 5,
      "flags": 1,
      "label": "Art Appreciation",
      "description": "Completed \"The Art Collector\" side quest.",
      "howto": "Complete \"The Art Collector\" side quest."
    },
    {
      "id": 24,
      "imageId": 23,
      "cred": 5,
      "flags": 1,
      "label": "Silent Alarm",
      "description": "Completed \"The Bank\" side quest.",
      "howto": "Complete \"The Bank\" side quest."
    },
    {
      "id": 25,
      "imageId": 24,
      "cred": 5,
      "flags": 1,
      "label": "Will Work For Food",
      "description": "Completed the \"Homeless\" side quest.",
      "howto": "Complete the \"Homeless\" side quest."
    },
    {
      "id": 26,
      "imageId": 25,
      "cred": 5,
      "flags": 1,
      "label": "Cutting Room Floor",
      "description": "Completed the \"Cinéma Vérité\" side quest.",
      "howto": "Complete the \"Cinéma Vérité\" side quest."
    },
    {
      "id": 27,
      "imageId": 26,
      "cred": 5,
      "flags": 1,
      "label": "Turn Back Time",
      "description": "Completed \"The Gramophone\" side quest.",
      "howto": "Complete \"The Gramophone\" side quest."
    },
    {
      "id": 29,
      "imageId": 28,
      "cred": 5,
      "flags": 1,
      "label": "What's Your Sign?",
      "description": "Completed the \"Shadow Play\" side quest.",
      "howto": "Complete the \"Shadow Play\" side quest."
    },
    {
      "id": 30,
      "imageId": 29,
      "cred": 5,
      "flags": 1,
      "label": "Telltale Heart",
      "description": "Completed the \"Dead Man's Hand\" side quest.",
      "howto": "Complete the \"Dead Man's Hand\" side quest."
    },
    {
      "id": 31,
      "imageId": 30,
      "cred": 5,
      "flags": 1,
      "label": "Dust to Dust",
      "description": "Completed the \"Ashes to Ashes\" side quest.",
      "howto": "Complete the \"Ashes to Ashes\" side quest."
    },
    {
      "id": 32,
      "imageId": 31,
      "cred": 5,
      "flags": 1,
      "label": "Long Walk, Short Pier",
      "description": "Completed the \"Ribbons\" side quest.",
      "howto": "Complete the \"Ribbons\" side quest."
    },
    {
      "id": 33,
      "imageId": 32,
      "cred": 5,
      "flags": 1,
      "label": "Spot the Difference",
      "description": "Completed the \"Mirror, Mirror\" side quest.",
      "howto": "Complete the \"Mirror, Mirror\" side quest."
    },
    {
      "id": 34,
      "imageId": 33,
      "cred": 20,
      "flags": 5,
      "label": "Silence is Golden",
      "description": "Killed or incapacitated 10 Screamers.",
      "howto": "Kill or incapacitate 10 Screamers."
    },
    {
      "id": 35,
      "imageId": 34,
      "cred": 20,
      "flags": 5,
      "label": "Shadow Boxer",
      "description": "Killed or incapacitated 10 Dolls.",
      "howto": "Kill or incapacitate 10 Dolls."
    },
    {
      "id": 36,
      "imageId": 35,
      "cred": 20,
      "flags": 5,
      "label": "Piñata Party",
      "description": "Killed or incapacitated 10 Weeping Bats.",
      "howto": "Kill or incapacitate 10 Weeping Bats."
    },
    {
      "id": 37,
      "imageId": 36,
      "cred": 20,
      "flags": 5,
      "label": "Lockdown",
      "description": "Killed or incapacitated 10 Prisoner Minions.",
      "howto": "Kill or incapacitate 10 Prisoner Minions."
    },
    {
      "id": 38,
      "imageId": 37,
      "cred": 20,
      "flags": 5,
      "label": "The Bigger They Are…",
      "description": "Killed or incapacitated 10 Prisoner Juggernauts.",
      "howto": "Kill or incapacitate 10 Prisoner Juggernauts."
    },
    {
      "id": 39,
      "imageId": 38,
      "cred": 20,
      "flags": 7,
      "label": "Fight or Flight?",
      "description": "Escaped from 20 monsters.",
      "howto": "Escape from 20 monsters."
    },
    {
      "id": 42,
      "imageId": 41,
      "cred": 50,
      "flags": 7,
      "label": "Silent Hill Historic Society",
      "description": "Completed Murphy's Journal with all Mysteries.",
      "howto": "Complete Murphy's Journal with all Mysteries."
    },
    {
      "id": 43,
      "imageId": 42,
      "cred": 25,
      "flags": 7,
      "label": "Stay of Execution",
      "description": "Incapacitated 20 monsters without killing them.",
      "howto": "Incapacitate 20 monsters without killing them."
    },
    {
      "id": 44,
      "imageId": 43,
      "cred": 25,
      "flags": 7,
      "label": "Gun Control",
      "description": "Killed 25 monsters with the Pistol or Shotgun.",
      "howto": "Kill 25 monsters with the Pistol or Shotgun."
    },
    {
      "id": 45,
      "imageId": 44,
      "cred": 10,
      "flags": 7,
      "label": "Hypochondriac",
      "description": "Used 20 First Aid Kits.",
      "howto": "Use 20 First Aid Kits."
    },
    {
      "id": 46,
      "imageId": 46,
      "cred": 100,
      "flags": 1,
      "label": "Puzzle Master",
      "description": "Completed the game on the hard puzzle difficulty setting, any ending.",
      "howto": "Complete the game on the hard puzzle difficulty setting, any ending."
    }
  ]
}