{
  "achievementsPossible": 42,
  "credPossible": 1000,
  "achievements": [
    {
      "id": 1,
      "imageId": 2,
      "cred": 20,
      "flags": 1,
      "label": "The Phantom Menace",
      "description": "Finish Episode I in story mode.",
      "howto": "Finish Episode I in story mode."
    },
    {
      "id": 2,
      "imageId": 3,
      "cred": 20,
      "flags": 1,
      "label": "Attack of the Clones",
      "description": "Finish Episode II in story mode.",
      "howto": "Finish Episode II in story mode."
    },
    {
      "id": 3,
      "imageId": 4,
      "cred": 20,
      "flags": 1,
      "label": "Revenge of the Sith",
      "description": "Finish Episode III in story mode",
      "howto": "Finish Episode III in story mode"
    },
    {
      "id": 4,
      "imageId": 5,
      "cred": 20,
      "flags": 1,
      "label": "A New Hope",
      "description": "Finish Episode IV in story mode.",
      "howto": "Finish Episode IV in story mode."
    },
    {
      "id": 5,
      "imageId": 6,
      "cred": 20,
      "flags": 1,
      "label": "The Empire Strikes Back",
      "description": "Finish Episode V in story mode.",
      "howto": "Finish Episode V in story mode."
    },
    {
      "id": 6,
      "imageId": 7,
      "cred": 20,
      "flags": 1,
      "label": "Return of the Jedi",
      "description": "Finish Episode VI in story mode.",
      "howto": "Finish Episode VI in story mode."
    },
    {
      "id": 7,
      "imageId": 8,
      "cred": 60,
      "flags": 1,
      "label": "Collector",
      "description": "Unlock all characters.",
      "howto": "Unlock all characters."
    },
    {
      "id": 8,
      "imageId": 9,
      "cred": 60,
      "flags": 1,
      "label": "Secret Master",
      "description": "Collect all available red bricks.",
      "howto": "Collect all available red bricks."
    },
    {
      "id": 9,
      "imageId": 10,
      "cred": 60,
      "flags": 1,
      "label": "Going for gold",
      "description": "Collect all available Gold Bricks.",
      "howto": "Collect all available Gold Bricks."
    },
    {
      "id": 10,
      "imageId": 11,
      "cred": 60,
      "flags": 1,
      "label": "Mini Mayhem",
      "description": "Collect all mini-kits.",
      "howto": "Collect all mini-kits."
    },
    {
      "id": 11,
      "imageId": 12,
      "cred": 100,
      "flags": 1,
      "label": "100%",
      "description": "Complete the game to 100%",
      "howto": "Complete the game to 100%"
    },
    {
      "id": 12,
      "imageId": 13,
      "cred": 20,
      "flags": 1,
      "label": "Lightsaber master",
      "description": "Perform 20 unblockable combo attacks.",
      "howto": "Perform 20 unblockable combo attacks."
    },
    {
      "id": 13,
      "imageId": 14,
      "cred": 20,
      "flags": 1,
      "label": "Lightsaber defender",
      "description": "Perform 200 perfect lightsaber deflections.",
      "howto": "Perform 200 perfect lightsaber deflections."
    },
    {
      "id": 14,
      "imageId": 15,
      "cred": 20,
      "flags": 1,
      "label": "Dodger",
      "description": "Perform 200 blaster character dodges.",
      "howto": "Perform 200 blaster character dodges."
    },
    {
      "id": 16,
      "imageId": 16,
      "cred": 20,
      "flags": 1,
      "label": "Stormtrooper Slayer",
      "description": "Destroy 300 stormtroopers.",
      "howto": "Destroy 300 stormtroopers."
    },
    {
      "id": 17,
      "imageId": 18,
      "cred": 20,
      "flags": 1,
      "label": "Droid Slayer",
      "description": "Destory 300 droids.",
      "howto": "Destory 300 droids."
    },
    {
      "id": 18,
      "imageId": 19,
      "cred": 20,
      "flags": 1,
      "label": "Fighter Ace",
      "description": "Destroy 50 TIE fighters.",
      "howto": "Destroy 50 TIE fighters."
    },
    {
      "id": 19,
      "imageId": 20,
      "cred": 20,
      "flags": 1,
      "label": "Yee Haw",
      "description": "Ride all mounts types & ride-ons.",
      "howto": "Ride all mounts types & ride-ons."
    },
    {
      "id": 20,
      "imageId": 21,
      "cred": 20,
      "flags": 1,
      "label": "Cash In",
      "description": "Sell your landspeeder to the Jawas.",
      "howto": "Sell your landspeeder to the Jawas."
    },
    {
      "id": 22,
      "imageId": 22,
      "cred": 20,
      "flags": 1,
      "label": "Crowd Pleaser",
      "description": "Break Jar Jar 20 times.",
      "howto": "Break Jar Jar 20 times."
    },
    {
      "id": 23,
      "imageId": 23,
      "cred": 20,
      "flags": 1,
      "label": "Slam Dunk",
      "description": "Destroy 5 people with one attack (Jedi super slam).",
      "howto": "Destroy 5 people with one attack (Jedi super slam)."
    },
    {
      "id": 24,
      "imageId": 24,
      "cred": 20,
      "flags": 1,
      "label": "Harmless?",
      "description": "Disable 5 Droidikas with R2D2.",
      "howto": "Disable 5 Droidikas with R2D2."
    },
    {
      "id": 25,
      "imageId": 25,
      "cred": 20,
      "flags": 1,
      "label": "Fire in the hole!",
      "description": "Destroy 10 characters with one thermal detonator.",
      "howto": "Destroy 10 characters with one thermal detonator."
    },
    {
      "id": 26,
      "imageId": 26,
      "cred": 20,
      "flags": 1,
      "label": "Let the Wookiee win",
      "description": "Pull 25 arms off other characters.",
      "howto": "Pull 25 arms off other characters."
    },
    {
      "id": 29,
      "imageId": 27,
      "cred": 20,
      "flags": 1,
      "label": "Disco King",
      "description": "Set off all three Discos.",
      "howto": "Set off all three Discos."
    },
    {
      "id": 30,
      "imageId": 28,
      "cred": 20,
      "flags": 1,
      "label": "Use the Force Luke",
      "description": "Death Star Trench Run without Firing.",
      "howto": "Death Star Trench Run without Firing."
    },
    {
      "id": 33,
      "imageId": 29,
      "cred": 20,
      "flags": 1,
      "label": "Bar Room Brawl",
      "description": "Start a Cantina Fight with 50 casualties.",
      "howto": "Start a Cantina Fight with 50 casualties."
    },
    {
      "id": 34,
      "imageId": 30,
      "cred": 20,
      "flags": 1,
      "label": "LEGO build-master",
      "description": "Make 100 Build-its throughout the game.",
      "howto": "Make 100 Build-its throughout the game."
    },
    {
      "id": 36,
      "imageId": 31,
      "cred": 20,
      "flags": 1,
      "label": "Gopher",
      "description": "Max out the stud counter.",
      "howto": "Max out the stud counter."
    },
    {
      "id": 39,
      "imageId": 34,
      "cred": 20,
      "flags": 1,
      "label": "Cloud Cover",
      "description": "Finish Cloud City still wearing a Helmet.",
      "howto": "Finish Cloud City still wearing a Helmet."
    },
    {
      "id": 40,
      "imageId": 35,
      "cred": 20,
      "flags": 1,
      "label": "Follower of Fashion",
      "description": "Wear Every Hat.",
      "howto": "Wear Every Hat."
    },
    {
      "id": 42,
      "imageId": 36,
      "cred": 10,
      "flags": 1,
      "label": "Undecided.",
      "description": "Crossover: Destroy Anakin with Vader.",
      "howto": "Crossover: Destroy Anakin with Vader."
    },
    {
      "id": 43,
      "imageId": 37,
      "cred": 10,
      "flags": 1,
      "label": "Love is...",
      "description": "Crossover: Destroy Jango Fett with Boba Fett.",
      "howto": "Crossover: Destroy Jango Fett with Boba Fett."
    },
    {
      "id": 44,
      "imageId": 38,
      "cred": 10,
      "flags": 1,
      "label": "Unfaithful",
      "description": "Crossover: Destroy The Emperor with Darth Maul.",
      "howto": "Crossover: Destroy The Emperor with Darth Maul."
    },
    {
      "id": 45,
      "imageId": 39,
      "cred": 10,
      "flags": 1,
      "label": "Did I Break your Concentration?",
      "description": "Revenge: Destroy The Emperor with Mace Windu.",
      "howto": "Revenge: Destroy The Emperor with Mace Windu."
    },
    {
      "id": 46,
      "imageId": 40,
      "cred": 10,
      "flags": 1,
      "label": "Nobody Expects...",
      "description": "Revenge: Destroy The Emperor with Kit Fisto.",
      "howto": "Revenge: Destroy The Emperor with Kit Fisto."
    },
    {
      "id": 47,
      "imageId": 41,
      "cred": 10,
      "flags": 1,
      "label": "Hands Off!",
      "description": "Revenge: Destroy Anakin with Dooku.",
      "howto": "Revenge: Destroy Anakin with Dooku."
    },
    {
      "id": 48,
      "imageId": 42,
      "cred": 10,
      "flags": 1,
      "label": "Who needs Obi-Wan?",
      "description": "Revenge: Destroy Darth Maul with Qui-Gon.",
      "howto": "Revenge: Destroy Darth Maul with Qui-Gon."
    },
    {
      "id": 49,
      "imageId": 43,
      "cred": 10,
      "flags": 1,
      "label": "Strike me down",
      "description": "Revenge: Destroy Darth Vader with Obi-Wan.",
      "howto": "Revenge: Destroy Darth Vader with Obi-Wan."
    },
    {
      "id": 50,
      "imageId": 33,
      "cred": 20,
      "flags": 1,
      "label": "Arcade Master",
      "description": "Get 100 points in Arcade Mode",
      "howto": "Get 100 points in Arcade Mode"
    },
    {
      "id": 51,
      "imageId": 17,
      "cred": 20,
      "flags": 1,
      "label": "Online Player",
      "description": "Play through an entire level online",
      "howto": "Play through an entire level online"
    },
    {
      "id": 52,
      "imageId": 1,
      "cred": 20,
      "flags": 1,
      "label": "Shoot First",
      "description": "Shoot First",
      "howto": "Shoot First"
    }
  ]
}