{
  "avatarAssetsPossible": 3,
  "maleAvatarAssetsPossible": 1,
  "femaleAvatarAssetsPossible": 1,
  "avatarAssets": [
    {
      "id": "00000544-0001-b193-c9f3-39e658410aa3",
      "imageId": 14,
      "subcategory": 0,
      "unknown": 0,
      "isMale": false,
      "isFemale": false,
      "isUnisex": true,
      "label": "Space helmet",
      "description": "Fired the Project X weapon",
      "howto": "Fire the Project X weapon"
    },
    {
      "id": "00000238-0002-d111-c493-6a1958410aa3",
      "imageId": 16,
      "subcategory": 0,
      "unknown": 2015221016,
      "isMale": true,
      "isFemale": false,
      "isUnisex": false,
      "label": "Space suit (male)",
      "description": "Space walk completed on Elite difficulty",
      "howto": "Complete the space walk on Elite difficulty"
    },
    {
      "id": "00000238-0002-71c2-c91d-553058410aa3",
      "imageId": 17,
      "subcategory": 0,
      "unknown": 2015221016,
      "isMale": false,
      "isFemale": true,
      "isUnisex": false,
      "label": "Space suit (female)",
      "description": "Space walk completed on Elite difficulty",
      "howto": "Complete the space walk on Elite difficulty"
    }
  ]
}