{
  "achievementsPossible": 30,
  "credPossible": 1000,
  "achievements": [
    {
      "id": 1,
      "imageId": 1,
      "cred": 25,
      "flags": 6,
      "label": "Progress",
      "description": "You have achieved 25 % game progress.",
      "howto": "Achieve 25 % game progress."
    },
    {
      "id": 2,
      "imageId": 2,
      "cred": 50,
      "flags": 6,
      "label": "A Fast Career",
      "description": "You have achieved 50 % game progress.",
      "howto": "Achieve 50 % game progress."
    },
    {
      "id": 3,
      "imageId": 3,
      "cred": 75,
      "flags": 6,
      "label": "Becoming a Legend",
      "description": "You have achieved 75 % game progress.",
      "howto": "Achieve 75 % game progress."
    },
    {
      "id": 4,
      "imageId": 4,
      "cred": 100,
      "flags": 1,
      "label": "Supercop",
      "description": "You have achieved 100 % game progress.",
      "howto": "Achieve 100 % game progress."
    },
    {
      "id": 5,
      "imageId": 5,
      "cred": 25,
      "flags": 4,
      "label": "Clean Lap",
      "description": "You finished a  a clean lap.",
      "howto": "Drive a whole lap without causing any damage."
    },
    {
      "id": 6,
      "imageId": 6,
      "cred": 75,
      "flags": 4,
      "label": "Driving on Eggshells",
      "description": "You have won a race without causing damage.",
      "howto": "Win a race without causing damage."
    },
    {
      "id": 7,
      "imageId": 7,
      "cred": 50,
      "flags": 4,
      "label": "Race King",
      "description": "You have finished a race with 30 laps on the Autobahn Cobra-11-Circuit.",
      "howto": "Race 30 Laps on the Autobahn Cobra-11-Circuit."
    },
    {
      "id": 8,
      "imageId": 8,
      "cred": 50,
      "flags": 4,
      "label": "Offroad King",
      "description": "You have finished a race with 30 laps on the Autobahn 4x4-Club-Circuit.",
      "howto": "Race 30 Laps on the Autobahn 4x4-Club-Circuit."
    },
    {
      "id": 9,
      "imageId": 9,
      "cred": 50,
      "flags": 4,
      "label": "Amateur",
      "description": "You won 10 single races.",
      "howto": "Win 10 single races."
    },
    {
      "id": 10,
      "imageId": 10,
      "cred": 100,
      "flags": 4,
      "label": "Pro",
      "description": "You won 50 single races.",
      "howto": "Win 50 single races."
    },
    {
      "id": 11,
      "imageId": 11,
      "cred": 30,
      "flags": 4,
      "label": "Test Drive",
      "description": "Driven every car for a test drive.",
      "howto": "Take every car out for a test drive."
    },
    {
      "id": 12,
      "imageId": 12,
      "cred": 30,
      "flags": 4,
      "label": "Track Tester",
      "description": "Driven on every track.",
      "howto": "Drive on every track available in single player mode."
    },
    {
      "id": 13,
      "imageId": 13,
      "cred": 50,
      "flags": 4,
      "label": "Kilometer Hunter",
      "description": "Driven 1,000 kilometers in the whole game.",
      "howto": "Drive 1,000 kilometers."
    },
    {
      "id": 14,
      "imageId": 14,
      "cred": 30,
      "flags": 4,
      "label": "A Long Way",
      "description": "You drove uninterrupted on patrol for 30 minutes.",
      "howto": "Drive uninterrupted on patrol for 30 minutes."
    },
    {
      "id": 15,
      "imageId": 15,
      "cred": 3,
      "flags": 4,
      "label": "A Leading Light",
      "description": "Police light successfully tested!",
      "howto": "Use the police light independently."
    },
    {
      "id": 16,
      "imageId": 16,
      "cred": 3,
      "flags": 4,
      "label": "The Grouch",
      "description": "You honked your horn 1 time.",
      "howto": "Honk your horn 1 time."
    },
    {
      "id": 17,
      "imageId": 17,
      "cred": 8,
      "flags": 4,
      "label": "Into the Past",
      "description": "You drove backwards for 200 m.",
      "howto": "Drive backwards for 200 m."
    },
    {
      "id": 18,
      "imageId": 18,
      "cred": 20,
      "flags": 4,
      "label": "Change of Scene",
      "description": "You changed the scenario 10 times.",
      "howto": "Change the scenario 10 times."
    },
    {
      "id": 19,
      "imageId": 19,
      "cred": 15,
      "flags": 4,
      "label": "A Matter of Speed",
      "description": "You drove at 280 kph for 15 seconds.",
      "howto": "Drive at 280 kph for 15 seconds."
    },
    {
      "id": 20,
      "imageId": 20,
      "cred": 50,
      "flags": 4,
      "label": "Long Jump",
      "description": "You jumped 100 m or more.",
      "howto": "Jump over a distance of at least 100 m."
    },
    {
      "id": 21,
      "imageId": 21,
      "cred": 15,
      "flags": 4,
      "label": "Junk",
      "description": "Your first totaled vehicle.",
      "howto": "Turn your car into scrap metal."
    },
    {
      "id": 22,
      "imageId": 22,
      "cred": 10,
      "flags": 4,
      "label": "The Two-Wheeler",
      "description": "You got rid of more than one wheel.",
      "howto": "Skillfully remove at least 2 wheels."
    },
    {
      "id": 23,
      "imageId": 23,
      "cred": 10,
      "flags": 4,
      "label": "Swashbuckler",
      "description": "You destroyed 10 opponents.",
      "howto": "Destroy 10 opponents."
    },
    {
      "id": 24,
      "imageId": 24,
      "cred": 20,
      "flags": 4,
      "label": "Road Rage",
      "description": "You made 100 vehicles explode.",
      "howto": "Make 100 vehicles explode."
    },
    {
      "id": 25,
      "imageId": 25,
      "cred": 15,
      "flags": 4,
      "label": "The Bomb",
      "description": "You have destroyed 1,000 objects.",
      "howto": "Destroy 1,000 objects."
    },
    {
      "id": 26,
      "imageId": 26,
      "cred": 15,
      "flags": 4,
      "label": "Close Encounters",
      "description": "You crashed into traffic 100 times.",
      "howto": "Crash into traffic 100 times."
    },
    {
      "id": 27,
      "imageId": 27,
      "cred": 6,
      "flags": 4,
      "label": "Acknowledgments",
      "description": "Viewed the entire 'Credits'.",
      "howto": "View 'Credits' to the end."
    },
    {
      "id": 28,
      "imageId": 28,
      "cred": 20,
      "flags": 4,
      "label": "Garage Owner",
      "description": "You have unlocked all cars.",
      "howto": "Unlock all cars."
    },
    {
      "id": 29,
      "imageId": 29,
      "cred": 20,
      "flags": 4,
      "label": "Got it!",
      "description": "You have unlocked all single race tracks.",
      "howto": "Unlock all single race tracks."
    },
    {
      "id": 30,
      "imageId": 30,
      "cred": 30,
      "flags": 4,
      "label": "Discount Tickets Collector",
      "description": "You have collected 1,000,000 discount tickets.",
      "howto": "Collect 1,000,000 discount tickets."
    }
  ]
}