{
  "achievementsPossible": 12,
  "credPossible": 200,
  "achievements": [
    {
      "id": 1,
      "imageId": 10,
      "cred": 10,
      "flags": 1,
      "label": "Straight Flush",
      "description": "Build all tower types of one race in one mission.",
      "howto": "Build all tower types of one race in one mission."
    },
    {
      "id": 2,
      "imageId": 11,
      "cred": 20,
      "flags": 1,
      "label": "Survivor",
      "description": "Survive 60 waves on the Survival game mode.",
      "howto": "Survive 60 waves on the Survival game mode."
    },
    {
      "id": 3,
      "imageId": 12,
      "cred": 10,
      "flags": 1,
      "label": "Vacuum Cleaner Agent",
      "description": "Sell 10 towers in a single mission.",
      "howto": "Sell 10 towers in a single mission."
    },
    {
      "id": 4,
      "imageId": 2,
      "cred": 20,
      "flags": 1,
      "label": "Demolition man",
      "description": "Destroy the Minotaur Base.",
      "howto": "Destroy the Minotaur Base."
    },
    {
      "id": 5,
      "imageId": 1,
      "cred": 20,
      "flags": 1,
      "label": "Cunning",
      "description": "Win a level without towers.",
      "howto": "Win a level without towers."
    },
    {
      "id": 6,
      "imageId": 5,
      "cred": 10,
      "flags": 1,
      "label": "Librarian",
      "description": "Use the unit info 10 times.",
      "howto": "Use the unit info 10 times."
    },
    {
      "id": 7,
      "imageId": 8,
      "cred": 10,
      "flags": 1,
      "label": "Rookie",
      "description": "Finish the first mission.",
      "howto": "Finish the first mission."
    },
    {
      "id": 8,
      "imageId": 9,
      "cred": 20,
      "flags": 1,
      "label": "Veteran",
      "description": "Finish the Campaign.",
      "howto": "Finish the Campaign."
    },
    {
      "id": 9,
      "imageId": 7,
      "cred": 20,
      "flags": 1,
      "label": "Master Economist",
      "description": "Use all Economy Upgrades in one mission.",
      "howto": "Use all Economy Upgrades in one mission."
    },
    {
      "id": 10,
      "imageId": 6,
      "cred": 20,
      "flags": 1,
      "label": "Lucky!",
      "description": "Win 5 multiplayer match in a row.",
      "howto": "Win 5 multiplayer match in a row."
    },
    {
      "id": 11,
      "imageId": 4,
      "cred": 20,
      "flags": 1,
      "label": "Grandmaster",
      "description": "Complete all levels in Limited Resource mode.",
      "howto": "Complete all levels in Limited Resource mode."
    },
    {
      "id": 12,
      "imageId": 3,
      "cred": 20,
      "flags": 1,
      "label": "Don't Panic!",
      "description": "Unlock all achievements.",
      "howto": "Unlock all achievements."
    }
  ]
}