{
  "achievementsPossible": 12,
  "credPossible": 200,
  "achievements": [
    {
      "id": 1,
      "imageId": 1,
      "cred": 10,
      "flags": 6,
      "label": "Gin Winner",
      "description": "Win 1 round by going Gin",
      "howto": "Win 1 round by going Gin"
    },
    {
      "id": 2,
      "imageId": 2,
      "cred": 10,
      "flags": 6,
      "label": "Close Cut Match",
      "description": "Win 1 round by Undercut",
      "howto": "Win 1 round by Undercut"
    },
    {
      "id": 3,
      "imageId": 3,
      "cred": 5,
      "flags": 6,
      "label": "Knock-out",
      "description": "Win 1 round by Knock",
      "howto": "Win 1 round by Knock"
    },
    {
      "id": 4,
      "imageId": 4,
      "cred": 10,
      "flags": 6,
      "label": "Rummy Bunch",
      "description": "Finish a 4-player game of Gin Rummy in any mode on Xbox LIVE",
      "howto": "Finish a 4-player game of Gin Rummy in any mode on Xbox LIVE"
    },
    {
      "id": 5,
      "imageId": 5,
      "cred": 10,
      "flags": 6,
      "label": "Setting Champ",
      "description": "Win 1 round with only sets",
      "howto": "Win 1 round with only sets"
    },
    {
      "id": 6,
      "imageId": 6,
      "cred": 15,
      "flags": 6,
      "label": "Well-Suited",
      "description": "Win 1 round with cards including deadwood from only one suit",
      "howto": "Win 1 round with cards including deadwood from only one suit"
    },
    {
      "id": 7,
      "imageId": 7,
      "cred": 20,
      "flags": 6,
      "label": "On a Roll",
      "description": "Win 20 rounds by going Gin in any game mode",
      "howto": "Win 20 rounds by going Gin in any game mode"
    },
    {
      "id": 8,
      "imageId": 8,
      "cred": 20,
      "flags": 6,
      "label": "Gutsy Gin Guru",
      "description": "Win 1 round without drawing from the discard pile",
      "howto": "Win 1 round without drawing from the discard pile"
    },
    {
      "id": 9,
      "imageId": 9,
      "cred": 20,
      "flags": 6,
      "label": "Rummy Shark",
      "description": "Win 10 matches or games in Single Player.",
      "howto": "Win 10 matches or games in Single Player."
    },
    {
      "id": 10,
      "imageId": 10,
      "cred": 25,
      "flags": 6,
      "label": "Merciless",
      "description": "Win 1 Player Match hand against one player by 50 or more points",
      "howto": "Win 1 Player Match hand against one player by 50 or more points"
    },
    {
      "id": 11,
      "imageId": 11,
      "cred": 25,
      "flags": 6,
      "label": "Rummy Master",
      "description": "Win 5 games/matches in each single player mode, and 25 player matches",
      "howto": "Win 5 games/matches in each single player mode, and 25 player matches"
    },
    {
      "id": 12,
      "imageId": 12,
      "cred": 30,
      "flags": 6,
      "label": "Rummy Buff",
      "description": "Earn over 50,000 Total Points",
      "howto": "Earn over 50,000 Total Points"
    }
  ]
}