{
  "achievementsPossible": 26,
  "credPossible": 1000,
  "achievements": [
    {
      "id": 1,
      "imageId": 1,
      "cred": 50,
      "flags": 1,
      "label": "XIIZEALクリア",
      "description": "XIIZEALオールクリア",
      "howto": "XIIZEAL ARCADE MODE をクリア"
    },
    {
      "id": 2,
      "imageId": 2,
      "cred": 150,
      "flags": 1,
      "label": "XIIZEAL 1コイン クリア",
      "description": "XIIZEAL 1コイン クリア",
      "howto": "XIIZEAL ARCADE MODE をコンティニューしないでクリア"
    },
    {
      "id": 3,
      "imageId": 3,
      "cred": 20,
      "flags": 4,
      "label": "赤いボス",
      "description": "通常の3倍強いボス登場",
      "howto": "XIIZEAL Stage2 ボス登場直前に倍率12倍"
    },
    {
      "id": 4,
      "imageId": 4,
      "cred": 20,
      "flags": 4,
      "label": "赤いスポーツカー",
      "description": "一度は乗ってみたい赤いスポーツカー",
      "howto": "XIIZEAL Stage3 序盤に出現する赤いスポーツカーを撃破"
    },
    {
      "id": 7,
      "imageId": 5,
      "cred": 20,
      "flags": 4,
      "label": "ボス1再び登場",
      "description": "再び登場",
      "howto": "XIIZEAL Stage4 ボス1 の破壊可能箇所 全て壊し 倍率11倍以下"
    },
    {
      "id": 8,
      "imageId": 8,
      "cred": 20,
      "flags": 4,
      "label": "ボス2登場",
      "description": "ホントのボスはこっちだ！",
      "howto": "XIIZEAL Stage4 ボス1 の破壊可能箇所 全て壊し 倍率12倍"
    },
    {
      "id": 9,
      "imageId": 9,
      "cred": 20,
      "flags": 4,
      "label": "中ボス登場",
      "description": "こいつに逃げられるとステージクリアだ！",
      "howto": "XIIZEAL Stage5 ある地点で倍率12倍"
    },
    {
      "id": 10,
      "imageId": 10,
      "cred": 20,
      "flags": 4,
      "label": "すぐ逃げる飛行機撃破",
      "description": "レシプロ",
      "howto": "XIIZEAL Stage6 飛行場終盤に現れすぐ逃げる飛行機を撃破"
    },
    {
      "id": 11,
      "imageId": 11,
      "cred": 20,
      "flags": 4,
      "label": "バックファイアマスター",
      "description": "俺の後ろに立つと火傷するぞ",
      "howto": "バックファイアで敵を3000機以上倒す"
    },
    {
      "id": 12,
      "imageId": 12,
      "cred": 20,
      "flags": 4,
      "label": "サイドアタックマスター",
      "description": "俺と並ぼうなんて10年早い",
      "howto": "サイドアタックで敵を5000機以上倒す"
    },
    {
      "id": 13,
      "imageId": 13,
      "cred": 50,
      "flags": 1,
      "label": "DELTAZEALクリア",
      "description": "DELTAZEALオールクリア",
      "howto": "DELTAZEAL ARCADE MODE をクリア"
    },
    {
      "id": 14,
      "imageId": 14,
      "cred": 150,
      "flags": 1,
      "label": "DELTAZEAL 1コイン クリア",
      "description": "DELTAZEAL 1コイン クリア",
      "howto": "DELTAZEAL ARCADE MODE をコンティニューしないでクリア"
    },
    {
      "id": 15,
      "imageId": 15,
      "cred": 20,
      "flags": 4,
      "label": "ワイドMAX",
      "description": "ワイド最高！",
      "howto": "赤アイテムを連続１０個取得"
    },
    {
      "id": 16,
      "imageId": 16,
      "cred": 20,
      "flags": 4,
      "label": "ミサイルMAX",
      "description": "誘導ミサイル最高！",
      "howto": "緑アイテムを連続10個取得"
    },
    {
      "id": 17,
      "imageId": 17,
      "cred": 20,
      "flags": 4,
      "label": "レーザーMAX",
      "description": "レーザー最高！",
      "howto": "青アイテムを連続10個取得"
    },
    {
      "id": 18,
      "imageId": 18,
      "cred": 20,
      "flags": 4,
      "label": "ブラックホール弾マスター",
      "description": "ブラックホール弾最高！",
      "howto": "勲章アイテムが最高点でブラックホール弾を使用"
    },
    {
      "id": 19,
      "imageId": 19,
      "cred": 20,
      "flags": 4,
      "label": "RAPIDシリーズ登場",
      "description": "レア分岐なんだぜ",
      "howto": "DELTAZEAL Stage1 序盤左右から出現する敵をあるタイミングで撃破"
    },
    {
      "id": 20,
      "imageId": 20,
      "cred": 20,
      "flags": 4,
      "label": "WARNING! ST2",
      "description": "戦車いっぱい",
      "howto": "DELTAZEAL Stage2 序盤画面下から出現する敵を全て撃破"
    },
    {
      "id": 21,
      "imageId": 21,
      "cred": 20,
      "flags": 4,
      "label": "列車登場",
      "description": "上り下りとやってくるる",
      "howto": "DELTAZEAL Stage2 F1型戦車を素早く全滅"
    },
    {
      "id": 22,
      "imageId": 22,
      "cred": 20,
      "flags": 4,
      "label": "WARNING! ST4",
      "description": "潜水艦いっぱい",
      "howto": "DELTAZEAL Stage4 ある場面で敵を全滅"
    },
    {
      "id": 23,
      "imageId": 23,
      "cred": 20,
      "flags": 4,
      "label": "赤い潜水艦",
      "description": "奴の得点は通常の１０倍だ！",
      "howto": "DELTAZEAL Stage4 難易度HARD以上か海の色が赤いと登場"
    },
    {
      "id": 24,
      "imageId": 24,
      "cred": 100,
      "flags": 3,
      "label": "全ゲーム解除",
      "description": "本当のゲームはこれからさ！",
      "howto": "全ゲーム解除"
    },
    {
      "id": 25,
      "imageId": 25,
      "cred": 40,
      "flags": 4,
      "label": "ありがとう10周年",
      "description": "ありがとうございます！",
      "howto": "シューティングラブ。10周年をプレイ"
    },
    {
      "id": 26,
      "imageId": 26,
      "cred": 40,
      "flags": 4,
      "label": "縦画面ラブ。",
      "description": "縦シューなら 縦画面！（家庭用ＴＶは縦置きすると火災の原因になる恐れもあるので注意！専用モニターを使おう！）",
      "howto": "SETTING - SCREEN - ROTATE [90度]か[270度]でプレイする"
    },
    {
      "id": 27,
      "imageId": 27,
      "cred": 40,
      "flags": 4,
      "label": "BGMラブ。",
      "description": "ゲームミュージックっていいよね。",
      "howto": "SE 0 でBGM 0以外設定後 ゲームをプレイ"
    },
    {
      "id": 28,
      "imageId": 28,
      "cred": 40,
      "flags": 4,
      "label": "ごぶさたしてます。",
      "description": "お久しブリーフ。たまにやると、新しい魅力を発見したりしなかったり。新鮮な気持ちで挑もう！",
      "howto": "１週間以上ぶりぐらいにプレイ"
    }
  ]
}