{
  "achievementsPossible": 10,
  "credPossible": 1000,
  "achievements": [
    {
      "id": 1,
      "imageId": 1,
      "cred": 100,
      "flags": 6,
      "label": "プロローグを見た",
      "description": "プロローグを見ました",
      "howto": "プロローグを見ましょう"
    },
    {
      "id": 2,
      "imageId": 2,
      "cred": 100,
      "flags": 6,
      "label": "ゆな ハッピーエンディング",
      "description": "滝川ゆなとハッピーエンディングを迎えました",
      "howto": "滝川ゆなとハッピーエンディングを迎えましょう"
    },
    {
      "id": 3,
      "imageId": 3,
      "cred": 100,
      "flags": 6,
      "label": "朱美 ハッピーエンディング",
      "description": "羽瀬川朱美とハッピーエンディングを迎えました",
      "howto": "羽瀬川朱美とハッピーエンディングを迎えましょう"
    },
    {
      "id": 4,
      "imageId": 4,
      "cred": 100,
      "flags": 6,
      "label": "さゆり ハッピーエンディング",
      "description": "真柴さゆりとハッピーエンディングを迎えました",
      "howto": "真柴さゆりとハッピーエンディングを迎えましょう"
    },
    {
      "id": 5,
      "imageId": 5,
      "cred": 100,
      "flags": 6,
      "label": "蒼空 ハッピーエンディング",
      "description": "北川蒼空とハッピーエンディングを迎えました",
      "howto": "北川蒼空とハッピーエンディングを迎えましょう"
    },
    {
      "id": 6,
      "imageId": 6,
      "cred": 100,
      "flags": 6,
      "label": "彩花 ハッピーエンディング",
      "description": "神峰彩花とハッピーエンディングを迎えました",
      "howto": "神峰彩花とハッピーエンディングを迎えましょう"
    },
    {
      "id": 7,
      "imageId": 7,
      "cred": 100,
      "flags": 6,
      "label": "よしみ ハッピーエンディング",
      "description": "桜庭よしみとハッピーエンディングを迎えました",
      "howto": "桜庭よしみとハッピーエンディングを迎えましょう"
    },
    {
      "id": 8,
      "imageId": 8,
      "cred": 100,
      "flags": 6,
      "label": "ミサ ハッピーエンディング",
      "description": "羽瀬川ミサとハッピーエンディングを迎えました",
      "howto": "羽瀬川ミサとハッピーエンディングを迎えましょう"
    },
    {
      "id": 9,
      "imageId": 9,
      "cred": 100,
      "flags": 6,
      "label": "はるな ハッピーエンディング",
      "description": "星野はるなとハッピーエンディングを迎えました",
      "howto": "星野はるなとハッピーエンディングを迎えましょう"
    },
    {
      "id": 10,
      "imageId": 10,
      "cred": 100,
      "flags": 6,
      "label": "バッドエンド",
      "description": "バッドエンドを見ました",
      "howto": "バッドエンドも見てください"
    }
  ]
}