{
  "achievementsPossible": 50,
  "credPossible": 1000,
  "achievements": [
    {
      "id": 1,
      "imageId": 1,
      "cred": 15,
      "flags": 1,
      "label": "All Normal Cleared (Ranger)",
      "description": "Cleared all stages on Normal difficulty as a Ranger.",
      "howto": "Cleared all stages on Normal difficulty as a Ranger."
    },
    {
      "id": 2,
      "imageId": 2,
      "cred": 20,
      "flags": 1,
      "label": "All Hard Cleared (Ranger)",
      "description": "Cleared all stages on Hard difficulty as a Ranger.",
      "howto": "Cleared all stages on Hard difficulty as a Ranger."
    },
    {
      "id": 3,
      "imageId": 3,
      "cred": 30,
      "flags": 1,
      "label": "All Hardest Cleared (Ranger)",
      "description": "Cleared all stages on Hardest difficulty as a Ranger.",
      "howto": "Cleared all stages on Hardest difficulty as a Ranger."
    },
    {
      "id": 4,
      "imageId": 4,
      "cred": 50,
      "flags": 1,
      "label": "All Inferno Cleared (Ranger)",
      "description": "Cleared all stages on Inferno difficulty as a Ranger.",
      "howto": "Cleared all stages on Inferno difficulty as a Ranger."
    },
    {
      "id": 5,
      "imageId": 5,
      "cred": 15,
      "flags": 1,
      "label": "All Normal Cleared (Wing Diver)",
      "description": "Cleared all stages on Normal difficulty as a Wing Diver.",
      "howto": "Cleared all stages on Normal difficulty as a Wing Diver."
    },
    {
      "id": 6,
      "imageId": 6,
      "cred": 20,
      "flags": 1,
      "label": "All Hard Cleared (Wing Diver)",
      "description": "Cleared all stages on Hard difficulty as a Wing Diver.",
      "howto": "Cleared all stages on Hard difficulty as a Wing Diver."
    },
    {
      "id": 7,
      "imageId": 7,
      "cred": 30,
      "flags": 1,
      "label": "All Hardest Cleared (Wing Diver)",
      "description": "Cleared all stages on Hardest difficulty as a Wing Diver.",
      "howto": "Cleared all stages on Hardest difficulty as a Wing Diver."
    },
    {
      "id": 8,
      "imageId": 8,
      "cred": 50,
      "flags": 1,
      "label": "All Inferno Cleared (Wing Diver)",
      "description": "Cleared all stages on Inferno difficulty as a Wing Diver.",
      "howto": "Cleared all stages on Inferno difficulty as a Wing Diver."
    },
    {
      "id": 9,
      "imageId": 9,
      "cred": 15,
      "flags": 1,
      "label": "All Normal Cleared (Air Raider)",
      "description": "Cleared all stages on Normal difficulty as an Air Raider.",
      "howto": "Cleared all stages on Normal difficulty as an Air Raider."
    },
    {
      "id": 10,
      "imageId": 10,
      "cred": 20,
      "flags": 1,
      "label": "All Hard Cleared (Air Raider)",
      "description": "Cleared all stages on Hard difficulty as an Air Raider.",
      "howto": "Cleared all stages on Hard difficulty as an Air Raider."
    },
    {
      "id": 11,
      "imageId": 11,
      "cred": 30,
      "flags": 1,
      "label": "All Hardest Cleared (Air Raider)",
      "description": "Cleared all stages on Hardest difficulty as an Air Raider.",
      "howto": "Cleared all stages on Hardest difficulty as an Air Raider."
    },
    {
      "id": 12,
      "imageId": 12,
      "cred": 50,
      "flags": 1,
      "label": "All Inferno Cleared (Air Raider)",
      "description": "Cleared all stages on Inferno difficulty as an Air Raider.",
      "howto": "Cleared all stages on Inferno difficulty as an Air Raider."
    },
    {
      "id": 13,
      "imageId": 13,
      "cred": 15,
      "flags": 1,
      "label": "All Normal Cleared (Fencer)",
      "description": "Cleared all stages on Normal difficulty as a Fencer.",
      "howto": "Cleared all stages on Normal difficulty as a Fencer."
    },
    {
      "id": 14,
      "imageId": 14,
      "cred": 20,
      "flags": 1,
      "label": "All Hard Cleared (Fencer)",
      "description": "Cleared all stages on Hard difficulty as a Fencer.",
      "howto": "Cleared all stages on Hard difficulty as a Fencer."
    },
    {
      "id": 15,
      "imageId": 15,
      "cred": 30,
      "flags": 1,
      "label": "All Hardest Cleared (Fencer)",
      "description": "Cleared all stages on Hardest difficulty as a Fencer.",
      "howto": "Cleared all stages on Hardest difficulty as a Fencer."
    },
    {
      "id": 16,
      "imageId": 16,
      "cred": 50,
      "flags": 1,
      "label": "All Inferno Cleared (Fencer)",
      "description": "Cleared all stages on Inferno difficulty as a Fencer.",
      "howto": "Cleared all stages on Inferno difficulty as a Fencer."
    },
    {
      "id": 17,
      "imageId": 17,
      "cred": 15,
      "flags": 1,
      "label": "Weapons 10% Complete",
      "description": "Obtained 10% of all available weapons.",
      "howto": "Obtained 10% of all available weapons."
    },
    {
      "id": 18,
      "imageId": 18,
      "cred": 20,
      "flags": 1,
      "label": "Weapons 50% Complete",
      "description": "Obtained 50% of all available weapons.",
      "howto": "Obtained 50% of all available weapons."
    },
    {
      "id": 19,
      "imageId": 19,
      "cred": 50,
      "flags": 1,
      "label": "Weapons 100% Complete",
      "description": "Obtained all available weapons.",
      "howto": "Obtained all available weapons."
    },
    {
      "id": 20,
      "imageId": 20,
      "cred": 15,
      "flags": 1,
      "label": "Ant Hunter",
      "description": "Defeated 20,000 ant-type bugs.",
      "howto": "Defeated 20,000 ant-type bugs."
    },
    {
      "id": 21,
      "imageId": 21,
      "cred": 15,
      "flags": 1,
      "label": "Spider Hunter",
      "description": "Defeated 12,000 spider-type bugs.",
      "howto": "Defeated 12,000 spider-type bugs."
    },
    {
      "id": 22,
      "imageId": 22,
      "cred": 15,
      "flags": 1,
      "label": "Flying Drone Hunter",
      "description": "Destroyed 5000 flying drones.",
      "howto": "Destroyed 5000 flying drones."
    },
    {
      "id": 23,
      "imageId": 23,
      "cred": 15,
      "flags": 1,
      "label": "Carrier Hunter",
      "description": "Destroyed 500 carriers.",
      "howto": "Destroyed 500 carriers."
    },
    {
      "id": 24,
      "imageId": 24,
      "cred": 15,
      "flags": 1,
      "label": "Hector Hunter",
      "description": "Destroyed 900 Hectors.",
      "howto": "Destroyed 900 Hectors."
    },
    {
      "id": 25,
      "imageId": 25,
      "cred": 15,
      "flags": 1,
      "label": "Fortress Hunter",
      "description": "Destroyed 12 four-legged walking fortresses.",
      "howto": "Destroyed 12 four-legged walking fortresses."
    },
    {
      "id": 26,
      "imageId": 26,
      "cred": 15,
      "flags": 1,
      "label": "Queen Hunter",
      "description": "Defeated 24 queens.",
      "howto": "Defeated 24 queens."
    },
    {
      "id": 27,
      "imageId": 27,
      "cred": 15,
      "flags": 1,
      "label": "King Hunter",
      "description": "Defeated 40 king spiders.",
      "howto": "Defeated 40 king spiders."
    },
    {
      "id": 28,
      "imageId": 28,
      "cred": 15,
      "flags": 1,
      "label": "Red Hunter",
      "description": "Destroyed 150 red drones.",
      "howto": "Destroyed 150 red drones."
    },
    {
      "id": 29,
      "imageId": 29,
      "cred": 15,
      "flags": 1,
      "label": "Mothership Hunter",
      "description": "Destroyed 6 motherships.",
      "howto": "Destroyed 6 motherships."
    },
    {
      "id": 30,
      "imageId": 30,
      "cred": 15,
      "flags": 1,
      "label": "Retiarius Hunter",
      "description": "Defeated 360 Retiarius.",
      "howto": "Defeated 360 Retiarius."
    },
    {
      "id": 31,
      "imageId": 31,
      "cred": 15,
      "flags": 1,
      "label": "Tunnel Hunter",
      "description": "Destroyed 200 underground tunnel exits.",
      "howto": "Destroyed 200 underground tunnel exits."
    },
    {
      "id": 32,
      "imageId": 32,
      "cred": 15,
      "flags": 1,
      "label": "Shield Hunter",
      "description": "Defeated 120 shield bearers.",
      "howto": "Defeated 120 shield bearers."
    },
    {
      "id": 33,
      "imageId": 33,
      "cred": 15,
      "flags": 1,
      "label": "Bee Hunter",
      "description": "Defeated 4000 flying-type bugs.",
      "howto": "Defeated 4000 flying-type bugs."
    },
    {
      "id": 34,
      "imageId": 34,
      "cred": 15,
      "flags": 1,
      "label": "Death Hunter",
      "description": "Defeated 24 death queens.",
      "howto": "Defeated 24 death queens."
    },
    {
      "id": 35,
      "imageId": 35,
      "cred": 15,
      "flags": 1,
      "label": "Nest Hunter",
      "description": "Destroyed 6 flying-type bug nests.",
      "howto": "Destroyed 6 flying-type bug nests."
    },
    {
      "id": 36,
      "imageId": 36,
      "cred": 15,
      "flags": 1,
      "label": "Vehicle Hunter",
      "description": "Destroyed 2000 flying vehicles.",
      "howto": "Destroyed 2000 flying vehicles."
    },
    {
      "id": 37,
      "imageId": 37,
      "cred": 15,
      "flags": 1,
      "label": "Jumpship Hunter",
      "description": "Destroyed 200 large transport ships.",
      "howto": "Destroyed 200 large transport ships."
    },
    {
      "id": 38,
      "imageId": 38,
      "cred": 15,
      "flags": 1,
      "label": "Deroy Hunter",
      "description": "Defeated 200 Deroys.",
      "howto": "Defeated 200 Deroys."
    },
    {
      "id": 39,
      "imageId": 39,
      "cred": 15,
      "flags": 1,
      "label": "Dragon Hunter",
      "description": "Defeated 2400 Dragons.",
      "howto": "Defeated 2400 Dragons."
    },
    {
      "id": 40,
      "imageId": 40,
      "cred": 15,
      "flags": 1,
      "label": "Great Hunter",
      "description": "Defeated 20 Greater World Dragons.",
      "howto": "Defeated 20 Greater World Dragons."
    },
    {
      "id": 41,
      "imageId": 41,
      "cred": 15,
      "flags": 1,
      "label": "Argo Hunter",
      "description": "Destroyed 20 Argos.",
      "howto": "Destroyed 20 Argos."
    },
    {
      "id": 42,
      "imageId": 42,
      "cred": 15,
      "flags": 1,
      "label": "Brain Hunter",
      "description": "Destroyed 6 Brains.",
      "howto": "Destroyed 6 Brains."
    },
    {
      "id": 43,
      "imageId": 43,
      "cred": 15,
      "flags": 1,
      "label": "Master Ranger",
      "description": "Ranger's health has reached 1000.",
      "howto": "Ranger's health has reached 1000."
    },
    {
      "id": 44,
      "imageId": 44,
      "cred": 15,
      "flags": 1,
      "label": "Master Diver",
      "description": "Wing Diver's health has reached 550.",
      "howto": "Wing Diver's health has reached 550."
    },
    {
      "id": 45,
      "imageId": 45,
      "cred": 15,
      "flags": 1,
      "label": "Master Air Raider",
      "description": "Air Raider's health has reached 1000.",
      "howto": "Air Raider's health has reached 1000."
    },
    {
      "id": 46,
      "imageId": 46,
      "cred": 15,
      "flags": 1,
      "label": "Master Fencer",
      "description": "Fencer's health has reached 1250.",
      "howto": "Fencer's health has reached 1250."
    },
    {
      "id": 47,
      "imageId": 47,
      "cred": 15,
      "flags": 1,
      "label": "Rescue",
      "description": "Rescued 5 other players in co-op play.",
      "howto": "Rescued 5 other players in co-op play."
    },
    {
      "id": 48,
      "imageId": 48,
      "cred": 15,
      "flags": 1,
      "label": "Super Rescue",
      "description": "Rescued 50 other players in co-op play.",
      "howto": "Rescued 50 other players in co-op play."
    },
    {
      "id": 49,
      "imageId": 49,
      "cred": 10,
      "flags": 1,
      "label": "Medic",
      "description": "Healed another player in co-op play.",
      "howto": "Healed another player in co-op play."
    },
    {
      "id": 50,
      "imageId": 50,
      "cred": 10,
      "flags": 1,
      "label": "200 Meters High",
      "description": "Reached a height of 200 meters.",
      "howto": "Reached a height of 200 meters."
    }
  ]
}