{
  "achievementsPossible": 50,
  "credPossible": 1000,
  "achievements": [
    {
      "id": 2,
      "imageId": 1,
      "cred": 15,
      "flags": 4,
      "label": "Money well spent",
      "description": "Unlocked when player presses START for the first time on splash screen.",
      "howto": "Unlocked when player presses START for the first time on splash screen."
    },
    {
      "id": 3,
      "imageId": 2,
      "cred": 5,
      "flags": 4,
      "label": "Newcomer",
      "description": "Create your first custom rider.",
      "howto": "Create your first custom rider."
    },
    {
      "id": 4,
      "imageId": 3,
      "cred": 15,
      "flags": 4,
      "label": "Engineering Degree",
      "description": "Save a bike setting in any Simulation game mode for the first time.",
      "howto": "Save a bike setting in any Simulation game mode for the first time."
    },
    {
      "id": 5,
      "imageId": 4,
      "cred": 5,
      "flags": 4,
      "label": "Hello Chief, Nice to Meet You!",
      "description": "Use the Technical Meeting for the first time.",
      "howto": "Use the Technical Meeting for the first time."
    },
    {
      "id": 6,
      "imageId": 5,
      "cred": 25,
      "flags": 4,
      "label": "Break Your Soul",
      "description": "Damage your bike to retirement.",
      "howto": "Damage your bike to retirement."
    },
    {
      "id": 10,
      "imageId": 6,
      "cred": 25,
      "flags": 4,
      "label": "Break Your Body",
      "description": "Injure your rider to retirement.",
      "howto": "Injure your rider to retirement."
    },
    {
      "id": 11,
      "imageId": 7,
      "cred": 15,
      "flags": 4,
      "label": "Pit Walker",
      "description": "Ride your bike from the track into the pit-lane.",
      "howto": "Ride your bike from the track into the pit-lane."
    },
    {
      "id": 12,
      "imageId": 8,
      "cred": 25,
      "flags": 4,
      "label": "Superstock Champion",
      "description": "Win a Superstock Championship in any game mode.",
      "howto": "Win a Superstock Championship in any game mode."
    },
    {
      "id": 13,
      "imageId": 9,
      "cred": 25,
      "flags": 4,
      "label": "Supersport Champion",
      "description": "Win a Supersport Championship in any game mode.",
      "howto": "Win a Supersport Championship in any game mode."
    },
    {
      "id": 14,
      "imageId": 10,
      "cred": 25,
      "flags": 4,
      "label": "Superbike Champion",
      "description": "Win a Superbike Championship in any game mode.",
      "howto": "Win a Superbike Championship in any game mode."
    },
    {
      "id": 15,
      "imageId": 11,
      "cred": 15,
      "flags": 4,
      "label": "MUD World",
      "description": "Win a Race Weekend while your rider is wearing the MUD™ helmet.",
      "howto": "Win a Race Weekend while your rider is wearing the MUD™ helmet."
    },
    {
      "id": 16,
      "imageId": 12,
      "cred": 10,
      "flags": 4,
      "label": "Team Up with Baz",
      "description": "Join MRS Racing in Career mode.",
      "howto": "Join MRS Racing in Career mode."
    },
    {
      "id": 18,
      "imageId": 13,
      "cred": 40,
      "flags": 4,
      "label": "Better Than Spies",
      "description": "Achieve at least 14 Superpole and 11 Race victories in the same Career.",
      "howto": "Achieve at least 14 Superpole and 11 Race victories in the same Career."
    },
    {
      "id": 19,
      "imageId": 14,
      "cred": 10,
      "flags": 4,
      "label": "Beginner",
      "description": "Complete the first challenge of the SBK™ Experience.",
      "howto": "Complete the first challenge of the SBK™ Experience."
    },
    {
      "id": 20,
      "imageId": 15,
      "cred": 20,
      "flags": 4,
      "label": "2009 Was Amazing",
      "description": "Complete the last challenge of the level 2009 in the SBK™ Experience.",
      "howto": "Complete the last challenge of the level 2009 in the SBK™ Experience."
    },
    {
      "id": 21,
      "imageId": 16,
      "cred": 25,
      "flags": 4,
      "label": "This Was My Year!",
      "description": "Complete the last challenge of the level 2010 in the SBK™ Experience.",
      "howto": "Complete the last challenge of the level 2010 in the SBK™ Experience."
    },
    {
      "id": 22,
      "imageId": 17,
      "cred": 30,
      "flags": 4,
      "label": "Last Year Best Year",
      "description": "Complete the last challenge of the level 2011 in the SBK™ Experience.",
      "howto": "Complete the last challenge of the level 2011 in the SBK™ Experience."
    },
    {
      "id": 23,
      "imageId": 18,
      "cred": 35,
      "flags": 4,
      "label": "Entering the Future",
      "description": "Complete the last challenge of the level 2012 in the SBK™ Experience.",
      "howto": "Complete the last challenge of the level 2012 in the SBK™ Experience."
    },
    {
      "id": 24,
      "imageId": 19,
      "cred": 40,
      "flags": 4,
      "label": "I'm a Legend",
      "description": "Complete the last challenge of the level Legends in the SBK™ Experience.",
      "howto": "Complete the last challenge of the level Legends in the SBK™ Experience."
    },
    {
      "id": 35,
      "imageId": 20,
      "cred": 15,
      "flags": 4,
      "label": "Challenge to All Comers",
      "description": "Win your first Online Quick Race.",
      "howto": "Win your first Online Quick Race."
    },
    {
      "id": 36,
      "imageId": 21,
      "cred": 20,
      "flags": 4,
      "label": "Social Poleman",
      "description": "Obtain the best time in an Online Qualifying session.",
      "howto": "Obtain the best time in an Online Qualifying session."
    },
    {
      "id": 37,
      "imageId": 22,
      "cred": 10,
      "flags": 4,
      "label": "Easy, Mate…",
      "description": "Win a Quick Race.",
      "howto": "Win a Quick Race."
    },
    {
      "id": 38,
      "imageId": 23,
      "cred": 15,
      "flags": 4,
      "label": "Like a Pro",
      "description": "Win a single player Quick Race at Pro difficulty level.",
      "howto": "Win a single player Quick Race at Pro difficulty level."
    },
    {
      "id": 39,
      "imageId": 24,
      "cred": 20,
      "flags": 4,
      "label": "Too Real to be True!",
      "description": "Win a single player Quick Race at Real difficulty level.",
      "howto": "Win a single player Quick Race at Real difficulty level."
    },
    {
      "id": 40,
      "imageId": 25,
      "cred": 20,
      "flags": 4,
      "label": "This is How You Play This Game",
      "description": "Win a Race Weekend at Full Simulation.",
      "howto": "Win a Race Weekend at Full Simulation."
    },
    {
      "id": 41,
      "imageId": 26,
      "cred": 20,
      "flags": 4,
      "label": "The Collector",
      "description": "Unlock all locked riders.",
      "howto": "Unlock all locked riders."
    },
    {
      "id": 42,
      "imageId": 27,
      "cred": 20,
      "flags": 4,
      "label": "Water, a Lot of Water",
      "description": "Win a rainy single player Quick Race of 100% length.",
      "howto": "Win a rainy single player Quick Race of 100% length."
    },
    {
      "id": 43,
      "imageId": 28,
      "cred": 10,
      "flags": 4,
      "label": "One Enemy is Not Enough for Me",
      "description": "Beat the Special Opponent in Career for the first time.",
      "howto": "Beat the Special Opponent in Career for the first time."
    },
    {
      "id": 44,
      "imageId": 29,
      "cred": 15,
      "flags": 4,
      "label": "I'm Living the Experience",
      "description": "Complete 14 SBK™ Experience challenges.",
      "howto": "Complete 14 SBK™ Experience challenges."
    },
    {
      "id": 46,
      "imageId": 30,
      "cred": 30,
      "flags": 4,
      "label": "A Complete Champion",
      "description": "Win at least one Championship for every class in the same Career.",
      "howto": "Win at least one Championship for every class in the same Career."
    },
    {
      "id": 47,
      "imageId": 31,
      "cred": 20,
      "flags": 4,
      "label": "3, 2, 1... Done!",
      "description": "Reach all podium positions at least once in different Quick Races.",
      "howto": "Reach all podium positions at least once in different Quick Races."
    },
    {
      "id": 48,
      "imageId": 32,
      "cred": 10,
      "flags": 4,
      "label": "Days of Thunder",
      "description": "Reach 186 mph (300 km/h) with any bike on any track in any game mode.",
      "howto": "Reach 186 mph (300 km/h) with any bike on any track in any game mode."
    },
    {
      "id": 49,
      "imageId": 33,
      "cred": 20,
      "flags": 4,
      "label": "Yes, weekend!",
      "description": "Win a race in a weekend.",
      "howto": "Win a race in a weekend."
    },
    {
      "id": 52,
      "imageId": 34,
      "cred": 20,
      "flags": 4,
      "label": "I'm the King Now",
      "description": "Storm the last challenge of the SBK™ Experience. ",
      "howto": "Storm the last challenge of the SBK™ Experience. "
    },
    {
      "id": 53,
      "imageId": 35,
      "cred": 30,
      "flags": 4,
      "label": "I like the Experience",
      "description": "Complete all SBK™ Experience Challenges.",
      "howto": "Complete all SBK™ Experience Challenges."
    },
    {
      "id": 55,
      "imageId": 36,
      "cred": 50,
      "flags": 4,
      "label": "I love the Experience",
      "description": "Storm all SBK™ Experience Challenges.",
      "howto": "Storm all SBK™ Experience Challenges."
    },
    {
      "id": 56,
      "imageId": 37,
      "cred": 20,
      "flags": 4,
      "label": "Online Champ",
      "description": "Win your first Online Championship.",
      "howto": "Win your first Online Championship."
    },
    {
      "id": 57,
      "imageId": 38,
      "cred": 5,
      "flags": 4,
      "label": "Burn the chronometer",
      "description": "Win a Time Attack.",
      "howto": "Win a Time Attack."
    },
    {
      "id": 58,
      "imageId": 39,
      "cred": 5,
      "flags": 4,
      "label": "Thanks to the R&D",
      "description": "Successfully upgrade your bike in Career mode.",
      "howto": "Successfully upgrade your bike in Career mode."
    },
    {
      "id": 59,
      "imageId": 40,
      "cred": 40,
      "flags": 4,
      "label": "A Short but Amazing Journey",
      "description": "Finish the Career mode.",
      "howto": "Finish the Career mode."
    },
    {
      "id": 60,
      "imageId": 41,
      "cred": 10,
      "flags": 4,
      "label": "Rookie of the year",
      "description": "Reach 500 reputation points.",
      "howto": "Reach 500 reputation points."
    },
    {
      "id": 65,
      "imageId": 42,
      "cred": 15,
      "flags": 4,
      "label": "Rising Star",
      "description": "Reach 2100 reputation points.",
      "howto": "Reach 2100 reputation points."
    },
    {
      "id": 67,
      "imageId": 43,
      "cred": 20,
      "flags": 4,
      "label": "Fan Favourite",
      "description": "Reach 4000 reputation points.",
      "howto": "Reach 4000 reputation points."
    },
    {
      "id": 69,
      "imageId": 44,
      "cred": 25,
      "flags": 4,
      "label": "Living Legend",
      "description": "Reach 6000 reputation points.",
      "howto": "Reach 6000 reputation points."
    },
    {
      "id": 70,
      "imageId": 45,
      "cred": 25,
      "flags": 4,
      "label": "Not so popular",
      "description": "Lose at least 100 reputation points in Career mode.",
      "howto": "Lose at least 100 reputation points in Career mode."
    },
    {
      "id": 71,
      "imageId": 47,
      "cred": 10,
      "flags": 4,
      "label": "Young Guns",
      "description": "Join a Superstock class team in Career mode.",
      "howto": "Join a Superstock class team in Career mode."
    },
    {
      "id": 72,
      "imageId": 46,
      "cred": 25,
      "flags": 4,
      "label": "Stormed!",
      "description": "Storm one challenge of the SBK™ Experience.",
      "howto": "Storm one challenge of the SBK™ Experience."
    },
    {
      "id": 73,
      "imageId": 48,
      "cred": 10,
      "flags": 4,
      "label": "600cc, pure Fun",
      "description": "Join a Supersport class team in Career mode.",
      "howto": "Join a Supersport class team in Career mode."
    },
    {
      "id": 74,
      "imageId": 49,
      "cred": 10,
      "flags": 4,
      "label": "It is Time for the Top Class",
      "description": "Join a Superbike class team in Career mode.",
      "howto": "Join a Superbike class team in Career mode."
    },
    {
      "id": 75,
      "imageId": 50,
      "cred": 30,
      "flags": 4,
      "label": "Orient Express",
      "description": "Ride for at least 2000 km in any game mode.",
      "howto": "Ride for at least 2000 km in any game mode."
    }
  ]
}