{
  "achievementsPossible": 13,
  "credPossible": 1000,
  "achievements": [
    {
      "id": 6,
      "imageId": 23,
      "cred": 75,
      "flags": 1,
      "label": "The untouchable",
      "description": "Won a fight without being hit",
      "howto": "Win a fight without being hit"
    },
    {
      "id": 34,
      "imageId": 26,
      "cred": 100,
      "flags": 1,
      "label": "No more secrets",
      "description": "All Super Attacks have been performed",
      "howto": "Perform the Super Attacks of all Suits and their X Version"
    },
    {
      "id": 35,
      "imageId": 25,
      "cred": 100,
      "flags": 1,
      "label": "Ultimate Chain",
      "description": "Chained three Super Attacks by changing Suit twice",
      "howto": "Chain three Super Attacks by changing Suit twice"
    },
    {
      "id": 36,
      "imageId": 24,
      "cred": 20,
      "flags": 1,
      "label": "Super Chain",
      "description": "Chained two Super Attacks by changing Suit",
      "howto": "Chain two Super Attacks from different Suits"
    },
    {
      "id": 37,
      "imageId": 27,
      "cred": 50,
      "flags": 1,
      "label": "Fearless fighter",
      "description": "Won a match without dodging",
      "howto": "Win a match without dodging at any time"
    },
    {
      "id": 38,
      "imageId": 30,
      "cred": 200,
      "flags": 1,
      "label": "Modernist",
      "description": "Unlocked all PowerUps",
      "howto": "Gain enough experience points to reach Level 10"
    },
    {
      "id": 42,
      "imageId": 29,
      "cred": 50,
      "flags": 1,
      "label": "Ultra Chain",
      "description": "Chained three Super Attacks by changing Suit once",
      "howto": "Chain three Super Attacks by changing Suit once"
    },
    {
      "id": 48,
      "imageId": 28,
      "cred": 5,
      "flags": 1,
      "label": "Chain",
      "description": "Chained two Super Attacks",
      "howto": "Chain two Super Attacks in the same Suit"
    },
    {
      "id": 56,
      "imageId": 33,
      "cred": 200,
      "flags": 1,
      "label": "You’ve beaten the world",
      "description": "Completed the Campaign Mode",
      "howto": "Beat every opponent in Campaign Mode"
    },
    {
      "id": 57,
      "imageId": 32,
      "cred": 100,
      "flags": 1,
      "label": "You’ve made it halfway",
      "description": "Won against Malignance",
      "howto": "Beat Malignance"
    },
    {
      "id": 58,
      "imageId": 31,
      "cred": 25,
      "flags": 1,
      "label": "This is just the beginning",
      "description": "Won your first fight in Campaign Mode",
      "howto": "Beat Scorch in Campaign Mode"
    },
    {
      "id": 61,
      "imageId": 36,
      "cred": 50,
      "flags": 1,
      "label": "Best of the Best",
      "description": "Won a Tournament",
      "howto": "Start a Tournament and win first place"
    },
    {
      "id": 71,
      "imageId": 34,
      "cred": 25,
      "flags": 1,
      "label": "Here I am",
      "description": "Won a Ranked match",
      "howto": "Play an Online Ranked match and win"
    }
  ]
}