{
  "achievementsPossible": 55,
  "credPossible": 1250,
  "achievements": [
    {
      "id": 0,
      "imageId": 1,
      "cred": 10,
      "flags": 6,
      "label": "Hong Kong Marketplace Completed",
      "description": "Complete the Hong Kong Marketplace level on any Difficulty setting",
      "howto": "Complete the Hong Kong Marketplace level on any Difficulty setting"
    },
    {
      "id": 1,
      "imageId": 10,
      "cred": 10,
      "flags": 6,
      "label": "Tai O Completed",
      "description": "Complete the Tai O level on any Difficulty setting",
      "howto": "Complete the Tai O level on any Difficulty setting"
    },
    {
      "id": 2,
      "imageId": 7,
      "cred": 15,
      "flags": 6,
      "label": "The Mega Restaurant Completed",
      "description": "Complete The Mega Restaurant level on any Difficulty setting",
      "howto": "Complete The Mega Restaurant level on any Difficulty setting"
    },
    {
      "id": 3,
      "imageId": 4,
      "cred": 15,
      "flags": 6,
      "label": "Zakarov's Penthouse Completed",
      "description": "Complete the Zakarov's Penthouse level on any Difficulty setting",
      "howto": "Complete the Zakarov's Penthouse level on any Difficulty setting"
    },
    {
      "id": 4,
      "imageId": 3,
      "cred": 20,
      "flags": 6,
      "label": "Chicago History Museum Completed",
      "description": "Complete the Chicago History Museum level on any Difficulty setting",
      "howto": "Complete the Chicago History Museum level on any Difficulty setting"
    },
    {
      "id": 5,
      "imageId": 9,
      "cred": 20,
      "flags": 6,
      "label": "Slums of Kowloon Completed",
      "description": "Complete the Slums of Kowloon level on any Difficulty setting",
      "howto": "Complete the Slums of Kowloon level on any Difficulty setting"
    },
    {
      "id": 6,
      "imageId": 11,
      "cred": 25,
      "flags": 6,
      "label": "Wong's Estate Completed",
      "description": "Complete the Wong's Estate level on any Difficulty setting",
      "howto": "Complete the Wong's Estate level on any Difficulty setting"
    },
    {
      "id": 7,
      "imageId": 2,
      "cred": 40,
      "flags": 1,
      "label": "Game Completed - Casual",
      "description": "Complete the entire game on the Casual Difficulty setting",
      "howto": "Complete the entire game on the Casual Difficulty setting"
    },
    {
      "id": 8,
      "imageId": 8,
      "cred": 50,
      "flags": 1,
      "label": "Game Completed - Normal",
      "description": "Complete the entire game on the Normal Difficulty setting",
      "howto": "Complete the entire game on the Normal Difficulty setting"
    },
    {
      "id": 9,
      "imageId": 5,
      "cred": 60,
      "flags": 1,
      "label": "Game Completed - Hard",
      "description": "Complete the entire game on the Hard Difficulty setting",
      "howto": "Complete the entire game on the Hard Difficulty setting"
    },
    {
      "id": 10,
      "imageId": 6,
      "cred": 70,
      "flags": 1,
      "label": "Game Completed - Hard Boiled",
      "description": "Complete the entire game on the Hard Boiled Difficulty setting",
      "howto": "Complete the entire game on the Hard Boiled Difficulty setting"
    },
    {
      "id": 11,
      "imageId": 30,
      "cred": 20,
      "flags": 1,
      "label": "I Don't Know How to Play Those",
      "description": "In The Mega Restaurant level, complete the Casino or the Restaurant without using the Guitar Cases",
      "howto": "In The Mega Restaurant level, complete the Casino or the Restaurant without using the Guitar Cases"
    },
    {
      "id": 12,
      "imageId": 33,
      "cred": 10,
      "flags": 1,
      "label": "Paleontologist",
      "description": "In the Chicago History Museum level, completely destroy the Brachiosaurus or the T-Rex",
      "howto": "In the Chicago History Museum level, completely destroy the Brachiosaurus or the T-Rex"
    },
    {
      "id": 13,
      "imageId": 32,
      "cred": 10,
      "flags": 1,
      "label": "Stay Dry",
      "description": "In the Slums of Kowloon level, stay along the top pathway in the crumbling sewer area",
      "howto": "In the Slums of Kowloon level, stay along the top pathway in the crumbling sewer area"
    },
    {
      "id": 14,
      "imageId": 43,
      "cred": 25,
      "flags": 1,
      "label": "Master of Precision Aim",
      "description": "Kill 50 enemies with the Precision Aim special move",
      "howto": "Kill 50 enemies with the Precision Aim special move"
    },
    {
      "id": 15,
      "imageId": 44,
      "cred": 25,
      "flags": 1,
      "label": "Master of Barrage",
      "description": "Kill 100 enemies with the Barrage special move",
      "howto": "Kill 100 enemies with the Barrage special move"
    },
    {
      "id": 16,
      "imageId": 45,
      "cred": 25,
      "flags": 1,
      "label": "Master of Spin Attack",
      "description": "Kill 100 enemies with the Spin Attack Special Move",
      "howto": "Kill 100 enemies with the Spin Attack Special Move"
    },
    {
      "id": 17,
      "imageId": 27,
      "cred": 10,
      "flags": 1,
      "label": "Barrage Specialist",
      "description": "Use the Barrage special move with every weapon",
      "howto": "Use the Barrage special move with every weapon"
    },
    {
      "id": 18,
      "imageId": 34,
      "cred": 25,
      "flags": 1,
      "label": "Old School",
      "description": "On any difficulty setting, complete a level without using any of the Tequila Bomb Special Moves",
      "howto": "On any difficulty setting, complete a level without using any of the Tequila Bomb Special Moves"
    },
    {
      "id": 19,
      "imageId": 35,
      "cred": 10,
      "flags": 1,
      "label": "Untouchable",
      "description": "On any difficulty setting, complete a Standoff by defeating all enemies without taking any damage",
      "howto": "On any difficulty setting, complete a Standoff by defeating all enemies without taking any damage"
    },
    {
      "id": 20,
      "imageId": 38,
      "cred": 25,
      "flags": 1,
      "label": "Deadly World",
      "description": "Kill 50 enemies by using the environment instead of guns",
      "howto": "Kill 50 enemies by using the environment instead of guns"
    },
    {
      "id": 21,
      "imageId": 41,
      "cred": 25,
      "flags": 1,
      "label": "Rolling Death",
      "description": "Kill 50 enemies while riding on a roll cart",
      "howto": "Kill 50 enemies while riding on a roll cart"
    },
    {
      "id": 22,
      "imageId": 36,
      "cred": 25,
      "flags": 1,
      "label": "Death by Swing",
      "description": "Kill 50 enemies while hanging from a chandelier",
      "howto": "Kill 50 enemies while hanging from a chandelier"
    },
    {
      "id": 23,
      "imageId": 39,
      "cred": 10,
      "flags": 1,
      "label": "The Killer",
      "description": "Fire 10,000 times",
      "howto": "Fire 10,000 times"
    },
    {
      "id": 24,
      "imageId": 47,
      "cred": 35,
      "flags": 1,
      "label": "Origami Master",
      "description": "Collect 250 Origami Cranes",
      "howto": "Collect 250 Origami Cranes"
    },
    {
      "id": 25,
      "imageId": 42,
      "cred": 15,
      "flags": 1,
      "label": "Chow Would Be Proud",
      "description": "Kill 10 enemies with a 5 star style rating",
      "howto": "Kill 10 enemies with a 5 star style rating"
    },
    {
      "id": 26,
      "imageId": 40,
      "cred": 30,
      "flags": 1,
      "label": "Ruthless",
      "description": "Perform a 50 star Style Combo\r\n",
      "howto": "Perform a 50 star Style Combo\r\n"
    },
    {
      "id": 29,
      "imageId": 37,
      "cred": 20,
      "flags": 1,
      "label": "Massive D",
      "description": "Cause at least $75,000,000 of damage",
      "howto": "Cause at least $75,000,000 of damage"
    },
    {
      "id": 31,
      "imageId": 48,
      "cred": 60,
      "flags": 1,
      "label": "Nobody Has That Much Style…",
      "description": "Acquire 5,000 total Style Points",
      "howto": "Acquire 5,000 total Style Points"
    },
    {
      "id": 33,
      "imageId": 26,
      "cred": 5,
      "flags": 4,
      "label": "Meet John Woo",
      "description": "Visit the Unlock Shop",
      "howto": "Visit the Unlock Shop"
    },
    {
      "id": 34,
      "imageId": 14,
      "cred": 10,
      "flags": 3,
      "label": "Freedom!",
      "description": "Purchase all of the Multiplayer characters in the Unlock Shop",
      "howto": "Purchase all of the Multiplayer characters in the Unlock Shop"
    },
    {
      "id": 35,
      "imageId": 46,
      "cred": 30,
      "flags": 3,
      "label": "It's All Mine...",
      "description": "Purchase every item in the Unlock Shop",
      "howto": "Purchase every item in the Unlock Shop"
    },
    {
      "id": 36,
      "imageId": 23,
      "cred": 15,
      "flags": 5,
      "label": "Tea Party",
      "description": "Host and complete 10 multiplayer matches on the Kowloon Teahouse map",
      "howto": "Host and complete 10 multiplayer matches on the Kowloon Teahouse map"
    },
    {
      "id": 37,
      "imageId": 17,
      "cred": 15,
      "flags": 5,
      "label": "Jurassic Battle",
      "description": "Host and complete 10 multiplayer matches on the Dinosaur Rotunda map",
      "howto": "Host and complete 10 multiplayer matches on the Dinosaur Rotunda map"
    },
    {
      "id": 38,
      "imageId": 25,
      "cred": 15,
      "flags": 5,
      "label": "Mega Jackpot",
      "description": "Host and complete 10 multiplayer matches on the Golden Dragon Casino map",
      "howto": "Host and complete 10 multiplayer matches on the Golden Dragon Casino map"
    },
    {
      "id": 39,
      "imageId": 19,
      "cred": 15,
      "flags": 5,
      "label": "Lounge Lizard ",
      "description": "Host and complete 10 multiplayer matches on the Mega Lounge map",
      "howto": "Host and complete 10 multiplayer matches on the Mega Lounge map"
    },
    {
      "id": 40,
      "imageId": 15,
      "cred": 15,
      "flags": 5,
      "label": "Geronimo!",
      "description": "Host and complete 10 multiplayer matches on the Totem Pole Gallery map",
      "howto": "Host and complete 10 multiplayer matches on the Totem Pole Gallery map"
    },
    {
      "id": 41,
      "imageId": 21,
      "cred": 15,
      "flags": 5,
      "label": "Sea Food",
      "description": "Host and complete 10 multiplayer matches on the Tai O Drug Labs map",
      "howto": "Host and complete 10 multiplayer matches on the Tai O Drug Labs map"
    },
    {
      "id": 42,
      "imageId": 20,
      "cred": 15,
      "flags": 5,
      "label": "Movin' on Up",
      "description": "Host and complete 10 multiplayer matches on the Chicago Penthouse map",
      "howto": "Host and complete 10 multiplayer matches on the Chicago Penthouse map"
    },
    {
      "id": 43,
      "imageId": 22,
      "cred": 10,
      "flags": 5,
      "label": "One Gun To Rule Them All",
      "description": "Finish in 1st place in a Multiplayer ranked match",
      "howto": "Finish in 1st place in a Multiplayer ranked match"
    },
    {
      "id": 44,
      "imageId": 18,
      "cred": 20,
      "flags": 5,
      "label": "Killing Spree",
      "description": "Get 5 kills in a row without dying in a Multiplayer ranked match",
      "howto": "Get 5 kills in a row without dying in a Multiplayer ranked match"
    },
    {
      "id": 45,
      "imageId": 13,
      "cred": 20,
      "flags": 5,
      "label": "Bullet Ballet",
      "description": "Kill 50 opponents while in Tequila Time in Multiplayer matches",
      "howto": "Kill 50 opponents while in Tequila Time in Multiplayer matches"
    },
    {
      "id": 46,
      "imageId": 12,
      "cred": 20,
      "flags": 5,
      "label": "Winner Takes All",
      "description": "Kill 50 opponents using Tequila Bombs in Multiplayer matches",
      "howto": "Kill 50 opponents using Tequila Bombs in Multiplayer matches"
    },
    {
      "id": 47,
      "imageId": 16,
      "cred": 20,
      "flags": 5,
      "label": "Hardboiled Killer",
      "description": "Kill 307 opponents in Multiplayer matches",
      "howto": "Kill 307 opponents in Multiplayer matches"
    },
    {
      "id": 48,
      "imageId": 24,
      "cred": 20,
      "flags": 5,
      "label": "Be the Master",
      "description": "Kill 100 opponents as John Woo in Multiplayer matches",
      "howto": "Kill 100 opponents as John Woo in Multiplayer matches"
    },
    {
      "id": 49,
      "imageId": 29,
      "cred": 40,
      "flags": 1,
      "label": "Bulletproof",
      "description": "Win a multiplayer match without using a health pack.",
      "howto": "Win a multiplayer match without using a health pack."
    },
    {
      "id": 50,
      "imageId": 31,
      "cred": 40,
      "flags": 1,
      "label": "God of Guns",
      "description": "Win a multiplayer match without using a Tequila Bomb.",
      "howto": "Win a multiplayer match without using a Tequila Bomb."
    },
    {
      "id": 51,
      "imageId": 49,
      "cred": 40,
      "flags": 1,
      "label": "Testikill",
      "description": "In multiplayer, kill an opponent with a precision aim crotch shot.",
      "howto": "In multiplayer, kill an opponent with a precision aim crotch shot."
    },
    {
      "id": 52,
      "imageId": 50,
      "cred": 20,
      "flags": 1,
      "label": "Boomtown",
      "description": "In multiplayer, kill an opponent with an explosion in Slums Courtyard.",
      "howto": "In multiplayer, kill an opponent with an explosion in Slums Courtyard."
    },
    {
      "id": 53,
      "imageId": 52,
      "cred": 20,
      "flags": 1,
      "label": "Having a Blast",
      "description": "In multiplayer, kill an opponent with an explosion in Fisherman’s Cove.",
      "howto": "In multiplayer, kill an opponent with an explosion in Fisherman’s Cove."
    },
    {
      "id": 54,
      "imageId": 28,
      "cred": 20,
      "flags": 1,
      "label": "Asplosion",
      "description": "In multiplayer, kill an opponent with an explosive in Slums Downpour.",
      "howto": "In multiplayer, kill an opponent with an explosive in Slums Downpour."
    },
    {
      "id": 55,
      "imageId": 54,
      "cred": 20,
      "flags": 1,
      "label": "Castaway",
      "description": "In multiplayer, kill an opponent on the Heavy Machine Gun platform in Tai O Settlement\r\n",
      "howto": "In multiplayer, kill an opponent on the Heavy Machine Gun platform in Tai O Settlement\r\n"
    },
    {
      "id": 56,
      "imageId": 55,
      "cred": 20,
      "flags": 1,
      "label": "Diplomatic Immunity",
      "description": "In multiplayer, kill an opponent in the hull of the ship in Naval Exercise.",
      "howto": "In multiplayer, kill an opponent in the hull of the ship in Naval Exercise."
    },
    {
      "id": 57,
      "imageId": 57,
      "cred": 20,
      "flags": 1,
      "label": "Death from Above",
      "description": "In multiplayer, kill an opponent with a falling object in Kowloon Market.",
      "howto": "In multiplayer, kill an opponent with a falling object in Kowloon Market."
    },
    {
      "id": 58,
      "imageId": 59,
      "cred": 10,
      "flags": 1,
      "label": "Fisticuffs",
      "description": "In multiplayer, kill an opponent with a melee attack.",
      "howto": "In multiplayer, kill an opponent with a melee attack."
    }
  ]
}