{
  "achievementsPossible": 12,
  "credPossible": 200,
  "achievements": [
    {
      "id": 1,
      "imageId": 1,
      "cred": 10,
      "flags": 2,
      "label": "Yellow Belt",
      "description": "Get the difficulty to Yellow Belt",
      "howto": "Get the difficulty to Yellow Belt"
    },
    {
      "id": 2,
      "imageId": 2,
      "cred": 10,
      "flags": 2,
      "label": "Orange Belt",
      "description": "Get the difficulty to Orange Belt",
      "howto": "Get the difficulty to Orange Belt"
    },
    {
      "id": 3,
      "imageId": 3,
      "cred": 15,
      "flags": 2,
      "label": "Green Belt",
      "description": "Get the difficulty to Green Belt",
      "howto": "Get the difficulty to Green Belt"
    },
    {
      "id": 4,
      "imageId": 4,
      "cred": 15,
      "flags": 2,
      "label": "Purple Belt",
      "description": "Get the difficulty to Purple Belt",
      "howto": "Get the difficulty to Purple Belt"
    },
    {
      "id": 5,
      "imageId": 5,
      "cred": 20,
      "flags": 2,
      "label": "Blue Belt",
      "description": "Get the difficulty to Blue Belt",
      "howto": "Get the difficulty to Blue Belt"
    },
    {
      "id": 6,
      "imageId": 6,
      "cred": 20,
      "flags": 2,
      "label": "Brown Belt",
      "description": "Get the difficulty to Brown Belt",
      "howto": "Get the difficulty to Brown Belt"
    },
    {
      "id": 7,
      "imageId": 7,
      "cred": 30,
      "flags": 2,
      "label": "Black Belt",
      "description": "Get the difficulty to Black Belt",
      "howto": "Get the difficulty to Black Belt"
    },
    {
      "id": 8,
      "imageId": 8,
      "cred": 15,
      "flags": 1,
      "label": "Adventure Mode completed",
      "description": "Complete all 89 levels in Adventure Mode",
      "howto": "Complete all 89 levels in Adventure Mode"
    },
    {
      "id": 9,
      "imageId": 9,
      "cred": 15,
      "flags": 1,
      "label": "Tally Mode completed",
      "description": "Complete all 89 levels in Tally Mode",
      "howto": "Complete all 89 levels in Tally Mode"
    },
    {
      "id": 10,
      "imageId": 10,
      "cred": 5,
      "flags": 1,
      "label": "2x Multiplier",
      "description": "Get the multiplier to x2",
      "howto": "Get the multiplier to x2"
    },
    {
      "id": 11,
      "imageId": 11,
      "cred": 10,
      "flags": 1,
      "label": "4x Multiplier",
      "description": "Get the multiplier to x4",
      "howto": "Get the multiplier to x4"
    },
    {
      "id": 12,
      "imageId": 12,
      "cred": 35,
      "flags": 1,
      "label": "Black Belt Grandmaster",
      "description": "Complete all 89 levels in Adventure Mode on Black Belt starting from level 1",
      "howto": "Complete all 89 levels in Adventure Mode on Black Belt starting from level 1"
    }
  ]
}