{
  "achievementsPossible": 38,
  "credPossible": 1000,
  "achievements": [
    {
      "id": 6,
      "imageId": 191,
      "cred": 20,
      "flags": 1,
      "label": "Ugly on the Inside",
      "description": "Defeated the Adorian Elite Guard in Story Mode",
      "howto": "Defeat the Adorian Elite Guard in Story Mode"
    },
    {
      "id": 7,
      "imageId": 182,
      "cred": 20,
      "flags": 1,
      "label": "Dodge and Weave",
      "description": "Dodged the mines placed by Nethera in Story Mode",
      "howto": "Dodge the mines placed by Nethera in Story Mode"
    },
    {
      "id": 8,
      "imageId": 183,
      "cred": 20,
      "flags": 1,
      "label": "Road Hog",
      "description": "Defeated 40 bikers in Story Mode",
      "howto": "Defeat 40 bikers in Story Mode"
    },
    {
      "id": 9,
      "imageId": 184,
      "cred": 20,
      "flags": 1,
      "label": "Own the Road",
      "description": "Defeated 70 Bikers in Story Mode",
      "howto": "Defeat 70 bikers in Story Mode"
    },
    {
      "id": 10,
      "imageId": 185,
      "cred": 20,
      "flags": 1,
      "label": "Group Off",
      "description": "Destroyed 3 enemy platforms in Story Mode",
      "howto": "Destroy 3 enemy platforms in Story Mode"
    },
    {
      "id": 12,
      "imageId": 186,
      "cred": 20,
      "flags": 1,
      "label": "Brute Force",
      "description": "Achieved a 25x multiplier in Story Mode",
      "howto": "Achieve a 25x multiplier in Story Mode"
    },
    {
      "id": 13,
      "imageId": 187,
      "cred": 20,
      "flags": 1,
      "label": "Smile for the Camera!",
      "description": "Neuralized 7 humans in Story Mode",
      "howto": "Neuralize 7 humans in Story Mode"
    },
    {
      "id": 18,
      "imageId": 188,
      "cred": 20,
      "flags": 1,
      "label": "Kicking and Screaming",
      "description": "Escaped Serleena's drag attack",
      "howto": "Escape Serleena’s drag attack"
    },
    {
      "id": 19,
      "imageId": 189,
      "cred": 20,
      "flags": 1,
      "label": "High Score",
      "description": "Successfully finished the Virtual Reality training program in Story Mode",
      "howto": "Successfully finish the Virtual Reality training program in Story Mode"
    },
    {
      "id": 20,
      "imageId": 190,
      "cred": 20,
      "flags": 1,
      "label": "Party Crasher",
      "description": "Crashed Chauncey's party in Story Mode",
      "howto": "Crash Chauncey’s party in Story Mode"
    },
    {
      "id": 22,
      "imageId": 181,
      "cred": 20,
      "flags": 1,
      "label": "This Won't Take Long",
      "description": "Defeated the Nakkadan Elite Guard in Story Mode",
      "howto": "Defeat the Nakkadan Elite Guard in Story Mode"
    },
    {
      "id": 23,
      "imageId": 192,
      "cred": 10,
      "flags": 1,
      "label": "Hide’n’Seek",
      "description": "Scanned 2 hidden aliens in Story Mode",
      "howto": "Scan 2 hidden aliens in Story Mode"
    },
    {
      "id": 24,
      "imageId": 193,
      "cred": 20,
      "flags": 1,
      "label": "The Spice of Life",
      "description": "Defeated enemies using 10 different combos (P1)",
      "howto": "Defeat enemies using 10 different combos (P1)"
    },
    {
      "id": 25,
      "imageId": 194,
      "cred": 20,
      "flags": 1,
      "label": "Flying Car? Where?",
      "description": "Didn't get detected while flying the car",
      "howto": "Don't be detected while flying the car"
    },
    {
      "id": 28,
      "imageId": 222,
      "cred": 20,
      "flags": 1,
      "label": "Enjoy the Ride",
      "description": "Started playing in Story Mode",
      "howto": "Start playing in Story Mode"
    },
    {
      "id": 33,
      "imageId": 198,
      "cred": 25,
      "flags": 1,
      "label": "Superior Fighter",
      "description": "Achieved at least 150,000 points in one V.R. Mission (P1)",
      "howto": "Achieve at least 150,000 points in one V.R. Mission (P1)"
    },
    {
      "id": 34,
      "imageId": 199,
      "cred": 30,
      "flags": 1,
      "label": "Superstar",
      "description": "Achieved at least 200,000 points in one V.R. Mission (P1)",
      "howto": "Achieve at least 200,000 points in one V.R. Mission (P1)"
    },
    {
      "id": 35,
      "imageId": 200,
      "cred": 25,
      "flags": 1,
      "label": "Conqueror",
      "description": "Achieved at least 300,000 points in one V.R. Mission (P1)",
      "howto": "Achieve at least 300,000 points in one V.R. Mission (P1)"
    },
    {
      "id": 37,
      "imageId": 201,
      "cred": 30,
      "flags": 1,
      "label": "Duelist",
      "description": "Completed all the Competitive maps in V.R. Missions (P1)",
      "howto": "Complete all the Competitive maps in V.R. Missions (P1)"
    },
    {
      "id": 38,
      "imageId": 202,
      "cred": 30,
      "flags": 1,
      "label": "50 Enemies - Std. Issue 1995",
      "description": "Defeated 50 enemies with the Std. Issue 1995 (P1)",
      "howto": "Defeat 50 enemies with the Std. Issue 1995 (P1)"
    },
    {
      "id": 39,
      "imageId": 203,
      "cred": 30,
      "flags": 1,
      "label": "60 Enemies - Noisy Cricket",
      "description": "Defeated 60 enemies with the Noisy Cricket (P1)",
      "howto": "Defeat 60 enemies with the Noisy Cricket (P1)"
    },
    {
      "id": 40,
      "imageId": 204,
      "cred": 30,
      "flags": 1,
      "label": "250 Enemies - Tribarrel",
      "description": "Defeated 250 enemies with the Tribarrel (P1)",
      "howto": "Defeat 250 enemies with the Tribarrel (P1)"
    },
    {
      "id": 41,
      "imageId": 205,
      "cred": 30,
      "flags": 1,
      "label": "350 Enemies - Tribarrel",
      "description": "Defeated 350 enemies with the Tribarrel (P1)",
      "howto": "Defeat 350 enemies with the Tribarrel (P1)"
    },
    {
      "id": 42,
      "imageId": 206,
      "cred": 30,
      "flags": 1,
      "label": "100 Enemies - Adorian Crossbow",
      "description": "Defeated 100 enemies with the Adorian Crossbow (P1)",
      "howto": "Defeat 100 enemies with the Adorian Crossbow (P1)"
    },
    {
      "id": 43,
      "imageId": 207,
      "cred": 30,
      "flags": 1,
      "label": "200 Enemies - The BANGer",
      "description": "Defeated 200 enemies with the BANGer (P1)",
      "howto": "Defeat 200 enemies with the BANGer (P1)"
    },
    {
      "id": 44,
      "imageId": 208,
      "cred": 30,
      "flags": 1,
      "label": "Shattered Expectations",
      "description": "Froze 30 enemies with the Icer (P1)",
      "howto": "Freeze 30 enemies with the Icer (P1)"
    },
    {
      "id": 45,
      "imageId": 209,
      "cred": 20,
      "flags": 1,
      "label": "What Goes Up…",
      "description": "Used the Anti-Gravity grenade on 30 enemies (P1)",
      "howto": "Use the Anti-Gravity grenade on 30 enemies (P1)"
    },
    {
      "id": 47,
      "imageId": 210,
      "cred": 20,
      "flags": 1,
      "label": "Juggernaut",
      "description": "Used the Refracto Shield to reflect 100 enemy projectiles (P1)",
      "howto": "Use the Refracto Shield to reflect 100 enemy projectiles (P1)"
    },
    {
      "id": 50,
      "imageId": 211,
      "cred": 30,
      "flags": 1,
      "label": "Demolition Expert",
      "description": "Defeated 20 enemies with the Rocket Launcher while flying the car",
      "howto": "Defeat 20 enemies with the Rocket Launcher while flying the car"
    },
    {
      "id": 51,
      "imageId": 212,
      "cred": 20,
      "flags": 1,
      "label": "Keep it Slow",
      "description": "Defeated 30 enemies while they were under the effect of the Cerebro Accelerator (P1)",
      "howto": "Defeat 30 enemies while they're under the effect of the Cerebro Accelerator (P1)"
    },
    {
      "id": 53,
      "imageId": 213,
      "cred": 30,
      "flags": 1,
      "label": "Pest Control",
      "description": "Defeated 700 enemies (P1)",
      "howto": "Defeat 700 enemies (P1)"
    },
    {
      "id": 54,
      "imageId": 214,
      "cred": 20,
      "flags": 1,
      "label": "Assert Fail",
      "description": "Defeated Khnemu in Story Mode",
      "howto": "Defeat Khnemu in Story Mode"
    },
    {
      "id": 55,
      "imageId": 215,
      "cred": 50,
      "flags": 1,
      "label": "Junior Agent",
      "description": "Completed Story Mode as an Agent",
      "howto": "Complete Story Mode as an Agent"
    },
    {
      "id": 57,
      "imageId": 216,
      "cred": 30,
      "flags": 1,
      "label": "The Gatherer",
      "description": "Gathered 50 upgrade points",
      "howto": "Gather 50 upgrade points"
    },
    {
      "id": 58,
      "imageId": 217,
      "cred": 30,
      "flags": 1,
      "label": "HOT Streak",
      "description": "Defeated 900 enemies (P1)",
      "howto": "Defeat 900 enemies (P1)"
    },
    {
      "id": 60,
      "imageId": 218,
      "cred": 30,
      "flags": 1,
      "label": "High Standards",
      "description": "Defeated Nethera and saved Catyana",
      "howto": "Defeat Nethera and save Catyana"
    },
    {
      "id": 61,
      "imageId": 219,
      "cred": 60,
      "flags": 1,
      "label": "Senior Agent",
      "description": "Completed Story Mode as an Elite Agent",
      "howto": "Complete Story Mode as an Elite Agent"
    },
    {
      "id": 62,
      "imageId": 220,
      "cred": 50,
      "flags": 1,
      "label": "Save the Universe",
      "description": "Completed all the missions in Story Mode",
      "howto": "Complete all the missions in Story Mode"
    }
  ]
}