{
  "achievementsPossible": 27,
  "credPossible": 1000,
  "achievements": [
    {
      "id": 2,
      "imageId": 2,
      "cred": 30,
      "flags": 6,
      "label": "想いのかたち",
      "description": "りりすＡルートをクリア",
      "howto": ""
    },
    {
      "id": 3,
      "imageId": 1,
      "cred": 30,
      "flags": 6,
      "label": "気持ちの歩幅",
      "description": "智紗Ａルートをクリア",
      "howto": ""
    },
    {
      "id": 4,
      "imageId": 3,
      "cred": 30,
      "flags": 6,
      "label": "心のマリアージュ",
      "description": "クロエルートをクリア",
      "howto": ""
    },
    {
      "id": 5,
      "imageId": 4,
      "cred": 30,
      "flags": 6,
      "label": "クォリファイ・ペリオッド",
      "description": "鈴Aルートをクリア",
      "howto": ""
    },
    {
      "id": 6,
      "imageId": 5,
      "cred": 30,
      "flags": 6,
      "label": "想いは波に乗せて",
      "description": "結乃ルートをクリア",
      "howto": ""
    },
    {
      "id": 7,
      "imageId": 6,
      "cred": 20,
      "flags": 6,
      "label": "想いを波に乗せて",
      "description": "神奈ルートをクリア",
      "howto": ""
    },
    {
      "id": 8,
      "imageId": 7,
      "cred": 50,
      "flags": 6,
      "label": "オールルートクリア",
      "description": "全てのエンディングを体験した",
      "howto": ""
    },
    {
      "id": 9,
      "imageId": 8,
      "cred": 10,
      "flags": 1,
      "label": "ん……ダメ……",
      "description": "りりすの寝相が悪いのを再認識した",
      "howto": ""
    },
    {
      "id": 10,
      "imageId": 9,
      "cred": 40,
      "flags": 6,
      "label": "私の隣には志雄がいる",
      "description": "りりすの全イベントを見た",
      "howto": ""
    },
    {
      "id": 11,
      "imageId": 10,
      "cred": 10,
      "flags": 6,
      "label": "志雄く～ん！",
      "description": "智紗が訪ねてきた",
      "howto": ""
    },
    {
      "id": 12,
      "imageId": 11,
      "cred": 40,
      "flags": 6,
      "label": "大好きだよ",
      "description": "智紗の全イベントを見た",
      "howto": ""
    },
    {
      "id": 13,
      "imageId": 12,
      "cred": 10,
      "flags": 6,
      "label": "姉弟？恋人？夫婦？",
      "description": "先輩とスーパーにいった",
      "howto": ""
    },
    {
      "id": 14,
      "imageId": 13,
      "cred": 40,
      "flags": 6,
      "label": "私の居場所",
      "description": "先輩の全イベントを見た",
      "howto": ""
    },
    {
      "id": 15,
      "imageId": 14,
      "cred": 10,
      "flags": 6,
      "label": "志雄はたまにズルイな",
      "description": "鈴と一緒に料理をした",
      "howto": ""
    },
    {
      "id": 16,
      "imageId": 15,
      "cred": 40,
      "flags": 6,
      "label": "よしっ、走ろう！",
      "description": "鈴の全イベントを見た",
      "howto": ""
    },
    {
      "id": 17,
      "imageId": 16,
      "cred": 10,
      "flags": 6,
      "label": "すごいすごい！",
      "description": "結乃と花火を見に行った",
      "howto": ""
    },
    {
      "id": 18,
      "imageId": 17,
      "cred": 40,
      "flags": 6,
      "label": "指切り、お願いします",
      "description": "結乃（と神奈）の全イベントを見た",
      "howto": ""
    },
    {
      "id": 19,
      "imageId": 18,
      "cred": 25,
      "flags": 6,
      "label": "6NR 25%",
      "description": "25%読んだ",
      "howto": "既読25%を目指せ"
    },
    {
      "id": 20,
      "imageId": 19,
      "cred": 50,
      "flags": 6,
      "label": "6NR 50%",
      "description": "半分読んだ",
      "howto": "大体半分くらいやってみよう"
    },
    {
      "id": 21,
      "imageId": 20,
      "cred": 75,
      "flags": 6,
      "label": "6NR 75%",
      "description": "大体読んだ",
      "howto": "大体やったような気になるまでやってみよう"
    },
    {
      "id": 22,
      "imageId": 21,
      "cred": 100,
      "flags": 1,
      "label": "6NR perfect",
      "description": "全部読んだ",
      "howto": "隅々までやりつくしてみよう"
    },
    {
      "id": 23,
      "imageId": 22,
      "cred": 40,
      "flags": 1,
      "label": "Encyclopedia",
      "description": "豆知識を全部知った",
      "howto": "エンサイクロペディアを隅々まで読んでみよう"
    },
    {
      "id": 24,
      "imageId": 23,
      "cred": 10,
      "flags": 6,
      "label": "Extra Scenario",
      "description": "亨の孤独を知った",
      "howto": "けいこくげきじょうをみてみよう"
    },
    {
      "id": 25,
      "imageId": 24,
      "cred": 50,
      "flags": 1,
      "label": "Next Relation",
      "description": "ＣＧコンプリート！",
      "howto": "アルバムモードを完成させよう"
    },
    {
      "id": 26,
      "imageId": 25,
      "cred": 50,
      "flags": 1,
      "label": "Sound Track",
      "description": "ＭＵＳＩＣコンプリート！",
      "howto": "全ての楽曲を聴こう"
    },
    {
      "id": 27,
      "imageId": 26,
      "cred": 50,
      "flags": 1,
      "label": "ずっと一緒に もっと遠くまで",
      "description": "シーンタイトルコンプリート！",
      "howto": "全てのシーンを見てみよう"
    },
    {
      "id": 28,
      "imageId": 27,
      "cred": 80,
      "flags": 4,
      "label": "メガネ＋ポニテ＝最強説",
      "description": "どうしてもメガネが良かった",
      "howto": ""
    }
  ]
}