{
  "achievementsPossible": 12,
  "credPossible": 200,
  "achievements": [
    {
      "id": 2,
      "imageId": 1,
      "cred": 20,
      "flags": 1,
      "label": "A Friend in Need",
      "description": "Play Co-op mode",
      "howto": "Play Co-op mode"
    },
    {
      "id": 3,
      "imageId": 2,
      "cred": 15,
      "flags": 1,
      "label": "Leap of Faith",
      "description": "Catch Totec with the grapple while he is jumping over a death fall",
      "howto": "Catch Totec with the grapple while he is jumping over a death fall"
    },
    {
      "id": 4,
      "imageId": 3,
      "cred": 15,
      "flags": 1,
      "label": "Return to sender",
      "description": "Reflect an enemy's projectile back to him using Totec's shield",
      "howto": "Reflect an enemy's projectile back to him using Totec's shield"
    },
    {
      "id": 5,
      "imageId": 4,
      "cred": 10,
      "flags": 1,
      "label": "Three birds, one stone",
      "description": "Kill 3 enemies with one bomb",
      "howto": "Kill 3 enemies with one bomb"
    },
    {
      "id": 6,
      "imageId": 5,
      "cred": 10,
      "flags": 1,
      "label": "Jump Jump",
      "description": "Jump from Totec's shield while he is jumping",
      "howto": "Jump from Totec's shield while he is jumping"
    },
    {
      "id": 7,
      "imageId": 6,
      "cred": 10,
      "flags": 1,
      "label": "Beat a better mousetrap",
      "description": "Activate all of the spikes at once in the Spider Tomb spike field",
      "howto": "Activate all of the spikes at once in the Spider Tomb spike field"
    },
    {
      "id": 8,
      "imageId": 7,
      "cred": 25,
      "flags": 1,
      "label": "Breadwinner",
      "description": "Earn the top score objective in any level",
      "howto": "Earn the top score objective in any level"
    },
    {
      "id": 9,
      "imageId": 8,
      "cred": 20,
      "flags": 1,
      "label": "Seeing Red",
      "description": "Collect all 10 red skulls in any single level",
      "howto": "Collect all 10 red skulls in any single level"
    },
    {
      "id": 10,
      "imageId": 9,
      "cred": 15,
      "flags": 1,
      "label": "Overachiever",
      "description": "Complete any level-specific Reward Challenge",
      "howto": "Complete any level-specific Reward Challenge"
    },
    {
      "id": 11,
      "imageId": 10,
      "cred": 10,
      "flags": 1,
      "label": "Instant Sushi",
      "description": "Vanquish the summoned beast in the watery depths",
      "howto": "<String Placeholder>"
    },
    {
      "id": 12,
      "imageId": 11,
      "cred": 25,
      "flags": 1,
      "label": "Vanquish Xolotl",
      "description": "Regain the Mirror of Smoke",
      "howto": "<String Placeholder>"
    },
    {
      "id": 13,
      "imageId": 12,
      "cred": 25,
      "flags": 1,
      "label": "Tomb Raider",
      "description": "Collect all relics, artifacts and weapons",
      "howto": "Collect all relics, artifacts and weapons"
    }
  ]
}