{
  "avatarAssetsPossible": 2,
  "maleAvatarAssetsPossible": 1,
  "femaleAvatarAssetsPossible": 1,
  "avatarAssets": [
    {
      "id": "00000af8-0001-51a1-cdce-fb8f58410a59",
      "imageId": 13,
      "subcategory": 0,
      "unknown": 0,
      "isMale": true,
      "isFemale": false,
      "isUnisex": false,
      "label": "Mercenary Outfit",
      "description": "An outfit unlocked by completing the game.",
      "howto": "Complete the game to unlock these avatar outfits."
    },
    {
      "id": "00000ab8-0001-a1a2-c362-524c58410a59",
      "imageId": 14,
      "subcategory": 0,
      "unknown": 2015221016,
      "isMale": false,
      "isFemale": true,
      "isUnisex": false,
      "label": "Lara Jungle Outfit",
      "description": "An outfit unlocked by completing the game.",
      "howto": "Complete the game to unlock these avatar outfits."
    }
  ]
}