{
  "achievementsPossible": 45,
  "credPossible": 1000,
  "achievements": [
    {
      "id": 6,
      "imageId": 1,
      "cred": 30,
      "flags": 1,
      "label": "Classic Mode: 10 goals",
      "description": "10 goals have been completed in Classic Mode!",
      "howto": "10 goals have been completed in Classic Mode!"
    },
    {
      "id": 7,
      "imageId": 1,
      "cred": 30,
      "flags": 1,
      "label": "Classic Mode: 20 goals",
      "description": "20 goals have been completed in Classic Mode!",
      "howto": "20 goals have been completed in Classic Mode!"
    },
    {
      "id": 8,
      "imageId": 1,
      "cred": 30,
      "flags": 1,
      "label": "Classic Mode: 30 goals",
      "description": "30 goals have been completed in Classic Mode!",
      "howto": "30 goals have been completed in Classic Mode!"
    },
    {
      "id": 9,
      "imageId": 1,
      "cred": 30,
      "flags": 1,
      "label": "Classic Mode: 40 goals",
      "description": "40 goals have been completed in Classic Mode!",
      "howto": "40 goals have been completed in Classic Mode!"
    },
    {
      "id": 10,
      "imageId": 1,
      "cred": 30,
      "flags": 1,
      "label": "Classic Mode: 50 goals",
      "description": "50 goals have been completed in Classic Mode!",
      "howto": "50 goals have been completed in Classic Mode!"
    },
    {
      "id": 11,
      "imageId": 1,
      "cred": 50,
      "flags": 1,
      "label": "Classic Mode: 100%",
      "description": "Classic Mode is now 100% complete!",
      "howto": "Classic Mode is now 100% complete!"
    },
    {
      "id": 12,
      "imageId": 1,
      "cred": 10,
      "flags": 1,
      "label": "Hollywood Record",
      "description": "A high score has been achieved in Hollywood!",
      "howto": "A high score has been achieved in Hollywood!"
    },
    {
      "id": 13,
      "imageId": 1,
      "cred": 10,
      "flags": 1,
      "label": "Beverly Hills Record",
      "description": "A high score has been achieved in Beverly Hills!",
      "howto": "A high score has been achieved in Beverly Hills!"
    },
    {
      "id": 14,
      "imageId": 1,
      "cred": 10,
      "flags": 1,
      "label": "Downtown Record",
      "description": "A high score has been achieved in Downtown!",
      "howto": "A high score has been achieved in Downtown!"
    },
    {
      "id": 15,
      "imageId": 1,
      "cred": 10,
      "flags": 1,
      "label": "East L.A. Record",
      "description": "A high score has been achieved in in East L.A.!",
      "howto": "A high score has been achieved in in East L.A.!"
    },
    {
      "id": 16,
      "imageId": 1,
      "cred": 10,
      "flags": 1,
      "label": "Skate Ranch Record",
      "description": "A high score has been achieved in Skate Ranch!",
      "howto": "A high score has been achieved in Skate Ranch!"
    },
    {
      "id": 17,
      "imageId": 1,
      "cred": 10,
      "flags": 1,
      "label": "Casino Record",
      "description": "A high score has been achieved in Casino!",
      "howto": "A high score has been achieved in Casino!"
    },
    {
      "id": 18,
      "imageId": 1,
      "cred": 10,
      "flags": 1,
      "label": "Santa Monica Record",
      "description": "A high score has been achieved in Santa Monica!",
      "howto": "A high score has been achieved in Santa Monica!"
    },
    {
      "id": 19,
      "imageId": 1,
      "cred": 10,
      "flags": 1,
      "label": "Oil Rig Record",
      "description": "A high score has been achieved in Oil Rig!",
      "howto": "A high score has been achieved in Oil Rig!"
    },
    {
      "id": 20,
      "imageId": 1,
      "cred": 10,
      "flags": 1,
      "label": "Vans Park Record",
      "description": "A high score has been achieved in Vans Park!",
      "howto": "A high score has been achieved in Vans Park!"
    },
    {
      "id": 21,
      "imageId": 1,
      "cred": 10,
      "flags": 1,
      "label": "Minneapolis Record",
      "description": "A high score has been achieved in Minneapolis!",
      "howto": "A high score has been achieved in Minneapolis!"
    },
    {
      "id": 22,
      "imageId": 1,
      "cred": 10,
      "flags": 1,
      "label": "Santa Cruz Record",
      "description": "A high score has been achieved in Santa Cruz!",
      "howto": "A high score has been achieved in Santa Cruz!"
    },
    {
      "id": 23,
      "imageId": 1,
      "cred": 10,
      "flags": 1,
      "label": "The Mall Record",
      "description": "A high score has been achieved in the Mall!",
      "howto": "A high score has been achieved in the Mall!"
    },
    {
      "id": 24,
      "imageId": 1,
      "cred": 10,
      "flags": 1,
      "label": "Chicago Record",
      "description": "A high score has been achieved in Chicago!",
      "howto": "A high score has been achieved in Chicago!"
    },
    {
      "id": 25,
      "imageId": 1,
      "cred": 10,
      "flags": 1,
      "label": "Kyoto Record",
      "description": "A high score has been achieved in Kyoto!",
      "howto": "A high score has been achieved in Kyoto!"
    },
    {
      "id": 26,
      "imageId": 1,
      "cred": 10,
      "flags": 1,
      "label": "The Ruins Record",
      "description": "A high score has been achieved in the Ruins!",
      "howto": "A high score has been achieved in the Ruins!"
    },
    {
      "id": 27,
      "imageId": 1,
      "cred": 10,
      "flags": 1,
      "label": "LIVE in Hollywood",
      "description": "Competed LIVE against other players in Hollywood!",
      "howto": "Competed LIVE against other players in Hollywood!"
    },
    {
      "id": 28,
      "imageId": 1,
      "cred": 10,
      "flags": 1,
      "label": "LIVE in Beverly Hills",
      "description": "Competed LIVE against other players in Beverly Hills!",
      "howto": "Competed LIVE against other players in Beverly Hills!"
    },
    {
      "id": 29,
      "imageId": 1,
      "cred": 10,
      "flags": 1,
      "label": "LIVE in Downtown",
      "description": "Competed LIVE against other players in Downtown!",
      "howto": "Competed LIVE against other players in Downtown!"
    },
    {
      "id": 30,
      "imageId": 1,
      "cred": 10,
      "flags": 1,
      "label": "LIVE in East L.A.",
      "description": "Competed LIVE against other players in East L.A.!",
      "howto": "Competed LIVE against other players in East L.A.!"
    },
    {
      "id": 31,
      "imageId": 1,
      "cred": 10,
      "flags": 1,
      "label": "LIVE in Skate Ranch",
      "description": "Competed LIVE against other players in Skate Ranch!",
      "howto": "Competed LIVE against other players in Skate Ranch!"
    },
    {
      "id": 32,
      "imageId": 1,
      "cred": 10,
      "flags": 1,
      "label": "LIVE in Casino",
      "description": "Competed LIVE against other players in Casino!",
      "howto": "Competed LIVE against other players in Casino!"
    },
    {
      "id": 33,
      "imageId": 1,
      "cred": 10,
      "flags": 1,
      "label": "LIVE in Santa Monica",
      "description": "Competed LIVE against other players in Santa Monica!",
      "howto": "Competed LIVE against other players in Santa Monica!"
    },
    {
      "id": 34,
      "imageId": 1,
      "cred": 10,
      "flags": 1,
      "label": "LIVE in Oil Rig",
      "description": "Competed LIVE against other players in Oil Rig!",
      "howto": "Competed LIVE against other players in Oil Rig!"
    },
    {
      "id": 35,
      "imageId": 1,
      "cred": 10,
      "flags": 1,
      "label": "LIVE in Vans Park",
      "description": "Competed LIVE against other players in Vans Park!",
      "howto": "Competed LIVE against other players in Vans Park!"
    },
    {
      "id": 36,
      "imageId": 1,
      "cred": 10,
      "flags": 1,
      "label": "LIVE in Minneapolis",
      "description": "Competed LIVE against other players in Minneapolis!",
      "howto": "Competed LIVE against other players in Minneapolis!"
    },
    {
      "id": 37,
      "imageId": 1,
      "cred": 10,
      "flags": 1,
      "label": "LIVE in Santa Cruz",
      "description": "Competed LIVE against other players in Santa Cruz!",
      "howto": "Competed LIVE against other players in Santa Cruz!"
    },
    {
      "id": 38,
      "imageId": 1,
      "cred": 10,
      "flags": 1,
      "label": "LIVE in The Mall",
      "description": "Competed LIVE against other players in the Mall!",
      "howto": "Competed LIVE against other players in the Mall!"
    },
    {
      "id": 39,
      "imageId": 1,
      "cred": 10,
      "flags": 1,
      "label": "LIVE in Chicago",
      "description": "Competed LIVE against other players in Chicago!",
      "howto": "Competed LIVE against other players in Chicago!"
    },
    {
      "id": 40,
      "imageId": 1,
      "cred": 10,
      "flags": 1,
      "label": "LIVE in Kyoto",
      "description": "Competed LIVE against other players in Kyoto!",
      "howto": "Competed LIVE against other players in Kyoto!"
    },
    {
      "id": 41,
      "imageId": 1,
      "cred": 10,
      "flags": 1,
      "label": "LIVE in The Ruins",
      "description": "Competed LIVE against other players in Ruins!",
      "howto": "Competed LIVE against other players in Ruins!"
    },
    {
      "id": 57,
      "imageId": 1,
      "cred": 100,
      "flags": 1,
      "label": "Complete",
      "description": "Completed the game 100%!",
      "howto": "Completed the game 100%!"
    },
    {
      "id": 58,
      "imageId": 1,
      "cred": 50,
      "flags": 1,
      "label": "The “New You”",
      "description": "Got a haircut and some new clothes!",
      "howto": "Got a haircut and some new clothes!"
    },
    {
      "id": 59,
      "imageId": 1,
      "cred": 50,
      "flags": 1,
      "label": "Meet Iggy at the Ranch",
      "description": "Impressed the crew enough to get into the Skate Ranch!",
      "howto": "Impressed the crew enough to get into the Skate Ranch!"
    },
    {
      "id": 60,
      "imageId": 1,
      "cred": 50,
      "flags": 1,
      "label": "Won the AMJAM",
      "description": "Won the Tony Hawk AMJAM!",
      "howto": "Won the Tony Hawk AMJAM!"
    },
    {
      "id": 61,
      "imageId": 1,
      "cred": 50,
      "flags": 1,
      "label": "Hanging with Alva",
      "description": "Learned about Green Pipes Point from Tony Alva!",
      "howto": "Learned about Green Pipes Point from Tony Alva!"
    },
    {
      "id": 62,
      "imageId": 1,
      "cred": 50,
      "flags": 1,
      "label": "The Snake Run",
      "description": "Mega begins digging up the Snake Run at the Skate Ranch!",
      "howto": "Mega begins digging up the Snake Run at the Skate Ranch!"
    },
    {
      "id": 63,
      "imageId": 1,
      "cred": 50,
      "flags": 1,
      "label": "Rally the Pros",
      "description": "In search of pro skaters and bikers for the video!",
      "howto": "In search of pro skaters and bikers for the video!"
    },
    {
      "id": 64,
      "imageId": 1,
      "cred": 50,
      "flags": 1,
      "label": "Iggy’s Out of Jail",
      "description": "Shredding the Casino with Iggy!",
      "howto": "Shredding the Casino with Iggy!"
    },
    {
      "id": 65,
      "imageId": 1,
      "cred": 50,
      "flags": 1,
      "label": "Party at the Ranch!",
      "description": "Skating the all new Skate Ranch. Story is complete!",
      "howto": "Skating the all new Skate Ranch. Story is complete!"
    }
  ]
}