{
  "achievementsPossible": 12,
  "credPossible": 200,
  "achievements": [
    {
      "id": 1,
      "imageId": 3,
      "cred": 10,
      "flags": 1,
      "label": "Bin Collector",
      "description": "Kill Billy the Bin in New Junk City\r\n",
      "howto": "Kill Billy the Bin in New Junk City\r\n"
    },
    {
      "id": 2,
      "imageId": 4,
      "cred": 10,
      "flags": 1,
      "label": "Atom Raider",
      "description": "Collect 100 atoms (without exiting the game)",
      "howto": "Collect 100 atoms (without exiting the game)"
    },
    {
      "id": 3,
      "imageId": 5,
      "cred": 15,
      "flags": 1,
      "label": "Atom Jefferson",
      "description": "Collect 500 atoms (without exiting the game)",
      "howto": "Collect 500 atoms (without exiting the game)"
    },
    {
      "id": 4,
      "imageId": 6,
      "cred": 25,
      "flags": 1,
      "label": "Groovy Leader",
      "description": "Be \"No.1\" in each Xbox LIVE multiplayer level",
      "howto": "Be \"No.1\" in each Xbox LIVE multiplayer level"
    },
    {
      "id": 5,
      "imageId": 7,
      "cred": 5,
      "flags": 1,
      "label": "Canadian Stunt",
      "description": "Use the whip to swing from any moose head in Single Player mode",
      "howto": "Use the whip to swing from any moose head in Single Player mode"
    },
    {
      "id": 6,
      "imageId": 14,
      "cred": 35,
      "flags": 1,
      "label": "Superhero!",
      "description": "Get through Single Player mode in Original difficulty in one sitting in under 50 minutes",
      "howto": "Get through Single Player mode in Original difficulty in one sitting in under 50 minutes"
    },
    {
      "id": 7,
      "imageId": 8,
      "cred": 5,
      "flags": 1,
      "label": "Banker Whipper",
      "description": "Whip the banker twice in What The Heck?",
      "howto": "Whip the banker twice in What The Heck?"
    },
    {
      "id": 8,
      "imageId": 9,
      "cred": 15,
      "flags": 1,
      "label": "Space Collector",
      "description": "Collect more than 100 Blue Orbs (without exiting the game)",
      "howto": "Collect more than 100 Blue Orbs (without exiting the game)"
    },
    {
      "id": 9,
      "imageId": 10,
      "cred": 20,
      "flags": 1,
      "label": "Super Space Collector",
      "description": "Collect more than 300 Blue Orbs (without exiting the game)",
      "howto": "Collect more than 300 Blue Orbs (without exiting the game)"
    },
    {
      "id": 10,
      "imageId": 11,
      "cred": 10,
      "flags": 1,
      "label": "Snot an Achievement",
      "description": "Launch the cow in New Junk City",
      "howto": "Launch the cow in New Junk City"
    },
    {
      "id": 11,
      "imageId": 12,
      "cred": 35,
      "flags": 1,
      "label": "Earthworm Never Dies",
      "description": "Clear Single Player mode in Original difficulty in one sitting without losing a life",
      "howto": "Clear Single Player mode in Original difficulty in one sitting without losing a life"
    },
    {
      "id": 12,
      "imageId": 13,
      "cred": 15,
      "flags": 1,
      "label": "World Partnership",
      "description": "Complete all the Xbox LIVE multiplayer game levels",
      "howto": "Complete all the Xbox LIVE multiplayer game levels"
    }
  ]
}