{
  "achievementsPossible": 60,
  "credPossible": 1250,
  "achievements": [
    {
      "id": 1,
      "imageId": 132,
      "cred": 10,
      "flags": 2,
      "label": "Arts and Crafts",
      "description": "Construct 10 Engineering Items",
      "howto": "Construct 10 Engineering Items"
    },
    {
      "id": 2,
      "imageId": 133,
      "cred": 20,
      "flags": 2,
      "label": "Tinkerer",
      "description": "Construct 50 Engineering Items",
      "howto": "Construct 50 Engineering Items"
    },
    {
      "id": 3,
      "imageId": 134,
      "cred": 30,
      "flags": 2,
      "label": "Passive Aggressive",
      "description": "Get 3 kills with a single Sentry Bot",
      "howto": "Get 3 kills with a single Sentry Bot"
    },
    {
      "id": 4,
      "imageId": 135,
      "cred": 30,
      "flags": 2,
      "label": "Three Birds, One Bomb Car",
      "description": "Kill 3 Enemies with one RC Bomb Car",
      "howto": "Kill 3 Enemies with one RC Bomb Car"
    },
    {
      "id": 5,
      "imageId": 136,
      "cred": 30,
      "flags": 2,
      "label": "Keep 'Em Coming",
      "description": "Get 5 kills with one deployed Sentry Turret",
      "howto": "Get 5 kills with one deployed Sentry Turret"
    },
    {
      "id": 6,
      "imageId": 137,
      "cred": 50,
      "flags": 2,
      "label": "Mechanocide",
      "description": "Kill 100 Enemies with Sentry Bots, Sentry Turrets, or RC Bomb Cars",
      "howto": "Kill 100 Enemies with Sentry Bots, Sentry Turrets, or RC Bomb Cars"
    },
    {
      "id": 7,
      "imageId": 138,
      "cred": 20,
      "flags": 2,
      "label": "Jetpacker",
      "description": "Kill an Authority Enforcer during Jetpack descent",
      "howto": "Kill an Authority Enforcer during Jetpack descent"
    },
    {
      "id": 8,
      "imageId": 139,
      "cred": 15,
      "flags": 2,
      "label": "Silent But Deadly",
      "description": "Stealth kill 10 Enemies with the Striker Crossbow",
      "howto": "Stealth kill 10 Enemies with the Striker Crossbow"
    },
    {
      "id": 9,
      "imageId": 140,
      "cred": 15,
      "flags": 2,
      "label": "Hat Trick",
      "description": "Kill at least 3 Enemies with a single Mind Controlled Enemy",
      "howto": "Kill at least 3 Enemies with a single Mind Controlled Enemy"
    },
    {
      "id": 10,
      "imageId": 141,
      "cred": 15,
      "flags": 2,
      "label": "Decapathon",
      "description": "Get 10 Headshot kills with the Wingstick",
      "howto": "Get 10 Headshot kills with the Wingstick"
    },
    {
      "id": 11,
      "imageId": 142,
      "cred": 15,
      "flags": 2,
      "label": "Open Minded",
      "description": "Get 10 Headshot kills with the Sniper Rifle",
      "howto": "Get 10 Headshot kills with the Sniper Rifle"
    },
    {
      "id": 12,
      "imageId": 143,
      "cred": 20,
      "flags": 2,
      "label": "Jumper",
      "description": "Perform all 18 Vehicle Jumps",
      "howto": "Perform all 18 Vehicle Jumps"
    },
    {
      "id": 13,
      "imageId": 144,
      "cred": 20,
      "flags": 2,
      "label": "Gotta Have 'Em All",
      "description": "Collect all Playing Cards on one play-through",
      "howto": "Collect all Playing Cards on one play-through"
    },
    {
      "id": 14,
      "imageId": 145,
      "cred": 20,
      "flags": 2,
      "label": "Master Chef",
      "description": "Collect all Recipes and Schematics in one play-through",
      "howto": "Collect all Recipes and Schematics in one play-through"
    },
    {
      "id": 15,
      "imageId": 146,
      "cred": 25,
      "flags": 4,
      "label": "Hardest Deck",
      "description": "Beat Teague's hardest Deck",
      "howto": "Beat Teague's hardest Deck"
    },
    {
      "id": 16,
      "imageId": 147,
      "cred": 15,
      "flags": 4,
      "label": "JACKPOT!",
      "description": "Roll 4 Targets in the first round of Tombstones",
      "howto": "Roll 4 Targets in the first round of Tombstones"
    },
    {
      "id": 17,
      "imageId": 148,
      "cred": 15,
      "flags": 4,
      "label": "Just a Flesh Wound",
      "description": "Complete the final round of 5 Finger Filet",
      "howto": "Complete the final round of 5 Finger Filet"
    },
    {
      "id": 18,
      "imageId": 149,
      "cred": 15,
      "flags": 4,
      "label": "Deliverance",
      "description": "Complete the final round of Strum",
      "howto": "Complete the final round of Strum"
    },
    {
      "id": 19,
      "imageId": 150,
      "cred": 15,
      "flags": 4,
      "label": "Minigamer",
      "description": "Win all Minigames",
      "howto": "Win all Minigames"
    },
    {
      "id": 20,
      "imageId": 151,
      "cred": 10,
      "flags": 1,
      "label": "Lead Foot",
      "description": "Win a Race in the Campaign",
      "howto": "Win a Race in the Campaign"
    },
    {
      "id": 21,
      "imageId": 152,
      "cred": 50,
      "flags": 1,
      "label": "Rage Cup",
      "description": "Win all Races in the Campaign",
      "howto": "Win all Races in the Campaign"
    },
    {
      "id": 22,
      "imageId": 153,
      "cred": 20,
      "flags": 1,
      "label": "Demolition Man",
      "description": "Destroy 100 Enemy Cars",
      "howto": "Destroy 100 Enemy Cars"
    },
    {
      "id": 23,
      "imageId": 154,
      "cred": 15,
      "flags": 1,
      "label": "It's Good!",
      "description": "Score each of the 3 Field Goals from the ATV",
      "howto": "Score each of the 3 Field Goals from the ATV"
    },
    {
      "id": 24,
      "imageId": 155,
      "cred": 15,
      "flags": 1,
      "label": "Roadkill",
      "description": "Run over 10 Mutants",
      "howto": "Run over 10 Mutants"
    },
    {
      "id": 25,
      "imageId": 156,
      "cred": 10,
      "flags": 6,
      "label": "Ghost Buster",
      "description": "Complete Ghost Hideout in the Campaign",
      "howto": "Complete Ghost Hideout in the Campaign"
    },
    {
      "id": 26,
      "imageId": 157,
      "cred": 10,
      "flags": 6,
      "label": "Waste Management",
      "description": "Complete Wasted Garage in the Campaign",
      "howto": "Complete Wasted Garage in the Campaign"
    },
    {
      "id": 27,
      "imageId": 158,
      "cred": 10,
      "flags": 6,
      "label": "Gladiator",
      "description": "Complete Mutant Bash TV in the Campaign",
      "howto": "Complete Mutant Bash TV in the Campaign"
    },
    {
      "id": 28,
      "imageId": 159,
      "cred": 10,
      "flags": 6,
      "label": "It's Alive!",
      "description": "Complete Dead City in the Campaign",
      "howto": "Complete Dead City in the Campaign"
    },
    {
      "id": 29,
      "imageId": 160,
      "cred": 10,
      "flags": 6,
      "label": "Wellness Plan",
      "description": "Complete The Well in the Campaign",
      "howto": "Complete The Well in the Campaign"
    },
    {
      "id": 30,
      "imageId": 161,
      "cred": 10,
      "flags": 6,
      "label": "Debunked",
      "description": "Complete Shrouded Bunker in the Campaign",
      "howto": "Complete Shrouded Bunker in the Campaign"
    },
    {
      "id": 31,
      "imageId": 162,
      "cred": 10,
      "flags": 6,
      "label": "ytiC daeD",
      "description": "Complete Dead City Reverse in the Campaign",
      "howto": "Complete Dead City Reverse in the Campaign"
    },
    {
      "id": 32,
      "imageId": 163,
      "cred": 10,
      "flags": 6,
      "label": "Jail Break",
      "description": "Complete Authority Prison in the Campaign",
      "howto": "Complete Authority Prison in the Campaign"
    },
    {
      "id": 33,
      "imageId": 164,
      "cred": 10,
      "flags": 6,
      "label": "Vault Assault",
      "description": "Complete Gearhead Vault in the Campaign",
      "howto": "Complete Gearhead Vault in the Campaign"
    },
    {
      "id": 34,
      "imageId": 165,
      "cred": 10,
      "flags": 6,
      "label": "Power Struggle",
      "description": "Complete Power Plant in the Campaign",
      "howto": "Complete Power Plant in the Campaign"
    },
    {
      "id": 35,
      "imageId": 166,
      "cred": 10,
      "flags": 6,
      "label": "Decrypted",
      "description": "Complete Jackal Canyon in the Campaign",
      "howto": "Complete Jackal Canyon in the Campaign"
    },
    {
      "id": 36,
      "imageId": 167,
      "cred": 10,
      "flags": 6,
      "label": "Mutie Blues",
      "description": "Complete Blue Line Station in the Campaign",
      "howto": "Complete Blue Line Station in the Campaign"
    },
    {
      "id": 37,
      "imageId": 168,
      "cred": 20,
      "flags": 4,
      "label": "Bringin' Home the Bacon",
      "description": "Earn 750 Dollars in one episode of Bash TV in the Campaign",
      "howto": "Earn 750 Dollars in one episode of Bash TV in the Campaign"
    },
    {
      "id": 38,
      "imageId": 169,
      "cred": 40,
      "flags": 4,
      "label": "Mr. Oddjob",
      "description": "Complete 5 Job Board Quests in one play-through",
      "howto": "Complete 5 Job Board Quests in one play-through"
    },
    {
      "id": 39,
      "imageId": 170,
      "cred": 15,
      "flags": 4,
      "label": "Dev Graffiti",
      "description": "Find the secret Developer Graffiti Room",
      "howto": "Find the secret Developer Graffiti Room"
    },
    {
      "id": 40,
      "imageId": 171,
      "cred": 50,
      "flags": 1,
      "label": "Hey, not too rough",
      "description": "Finish the Campaign on any difficulty",
      "howto": "Finish the Campaign on any difficulty"
    },
    {
      "id": 41,
      "imageId": 172,
      "cred": 25,
      "flags": 1,
      "label": "Hurt me plenty",
      "description": "Finish the Campaign on at least Normal difficulty",
      "howto": "Finish the Campaign on at least Normal difficulty"
    },
    {
      "id": 42,
      "imageId": 173,
      "cred": 25,
      "flags": 1,
      "label": "Ultra-violence",
      "description": "Finish the Campaign on at least Hard difficulty",
      "howto": "Finish the Campaign on at least Hard difficulty"
    },
    {
      "id": 43,
      "imageId": 174,
      "cred": 25,
      "flags": 1,
      "label": "RAGE Nightmare",
      "description": "Finish the Campaign on Nightmare difficulty",
      "howto": "Finish the Campaign on Nightmare difficulty"
    },
    {
      "id": 44,
      "imageId": 175,
      "cred": 75,
      "flags": 1,
      "label": "Obsessive Compulsive",
      "description": "Reach 100% Completion in the Campaign",
      "howto": "Reach 100% Completion in the Campaign"
    },
    {
      "id": 45,
      "imageId": 176,
      "cred": 10,
      "flags": 7,
      "label": "The Legend Begins...",
      "description": "Complete a Legend of the Wasteland",
      "howto": "Complete a Legend of the Wasteland"
    },
    {
      "id": 46,
      "imageId": 177,
      "cred": 20,
      "flags": 7,
      "label": "Anthology",
      "description": "Complete all Legends of the Wasteland",
      "howto": "Complete all Legends of the Wasteland"
    },
    {
      "id": 47,
      "imageId": 178,
      "cred": 25,
      "flags": 7,
      "label": "A True Legend",
      "description": "Complete a Legend of the Wasteland on Nightmare difficulty",
      "howto": "Complete a Legend of the Wasteland on Nightmare difficulty"
    },
    {
      "id": 48,
      "imageId": 179,
      "cred": 15,
      "flags": 7,
      "label": "No Room for Sidekicks",
      "description": "Complete a Legend of the Wasteland without any player(s) becoming incapacitated",
      "howto": "Complete a Legend of the Wasteland without any player(s) becoming incapacitated"
    },
    {
      "id": 49,
      "imageId": 180,
      "cred": 10,
      "flags": 7,
      "label": "Fresh Meat",
      "description": "Complete a public Road RAGE match",
      "howto": "Complete a public Road RAGE match"
    },
    {
      "id": 50,
      "imageId": 181,
      "cred": 20,
      "flags": 7,
      "label": "MVP",
      "description": "Get first place in a public Road RAGE match",
      "howto": "Get first place in a public Road RAGE match"
    },
    {
      "id": 51,
      "imageId": 182,
      "cred": 70,
      "flags": 1,
      "label": "Night Terrors",
      "description": "Finish the Campaign on Ultra Nightmare difficulty",
      "howto": "Finish the Campaign on Ultra Nightmare difficulty"
    },
    {
      "id": 52,
      "imageId": 183,
      "cred": 20,
      "flags": 1,
      "label": "Cavernous Stumble",
      "description": "Complete Hagar Caves in The Scorchers job path",
      "howto": "Complete Hagar Caves in The Scorchers job path"
    },
    {
      "id": 53,
      "imageId": 184,
      "cred": 25,
      "flags": 1,
      "label": "Plans Refined",
      "description": "Complete Refinery in The Scorchers job path",
      "howto": "Complete Refinery in The Scorchers job path"
    },
    {
      "id": 54,
      "imageId": 185,
      "cred": 25,
      "flags": 1,
      "label": "Thrash Canyon",
      "description": "Complete Bash Canyon in The Scorchers job path",
      "howto": "Complete Bash Canyon in The Scorchers job path"
    },
    {
      "id": 55,
      "imageId": 186,
      "cred": 25,
      "flags": 1,
      "label": "Fired Up!",
      "description": "Complete Scorcher Base in the The Scorchers job path",
      "howto": "Complete Scorcher Base in the The Scorchers job path"
    },
    {
      "id": 56,
      "imageId": 187,
      "cred": 15,
      "flags": 4,
      "label": "Lucky Charms",
      "description": "Bet and win on Green in the Roly-Poly minigame",
      "howto": "Bet and win on Green in the Roly-Poly minigame"
    },
    {
      "id": 57,
      "imageId": 188,
      "cred": 15,
      "flags": 4,
      "label": "Foursome",
      "description": "Win with a Four of a Kind in the Video Poker minigame",
      "howto": "Win with a Four of a Kind in the Video Poker minigame"
    },
    {
      "id": 58,
      "imageId": 189,
      "cred": 15,
      "flags": 2,
      "label": "Wall Hack",
      "description": "Kill 2 enemies with one Railgun Slug shot through a wall",
      "howto": "Kill 2 enemies with one Railgun Slug shot through a wall"
    },
    {
      "id": 59,
      "imageId": 190,
      "cred": 15,
      "flags": 2,
      "label": "Rebar Pie",
      "description": "Pin an enemy to a surface with a Rebar ammo shot",
      "howto": "Pin an enemy to a surface with a Rebar ammo shot"
    },
    {
      "id": 60,
      "imageId": 191,
      "cred": 25,
      "flags": 2,
      "label": "Rite of Passage",
      "description": "Complete Wellspring Tunnels in The Scorchers job path",
      "howto": "Complete Wellspring Tunnels in The Scorchers job path"
    }
  ]
}