[
  {
    "titleId": 1480657511,
    "largeId": 131072,
    "smallId": 65536,
    "commonId": 0
  },
  {
    "titleId": 1480657511,
    "largeId": 131073,
    "smallId": 65537,
    "commonId": 1
  },
  {
    "titleId": 1480657511,
    "largeId": 132096,
    "smallId": 66560,
    "commonId": 1024
  },
  {
    "titleId": 1480657511,
    "largeId": 132097,
    "smallId": 66561,
    "commonId": 1025
  },
  {
    "titleId": 1480657511,
    "largeId": 132098,
    "smallId": 66562,
    "commonId": 1026
  },
  {
    "titleId": 1480657511,
    "largeId": 132099,
    "smallId": 66563,
    "commonId": 1027
  },
  {
    "titleId": 1480657511,
    "largeId": 132100,
    "smallId": 66564,
    "commonId": 1028
  }
]