{
  "achievementsPossible": 22,
  "credPossible": 1000,
  "achievements": [
    {
      "id": 1,
      "imageId": 1,
      "cred": 40,
      "flags": 1,
      "label": "Naval Academy Graduation",
      "description": "Complete all Naval Academy missions",
      "howto": "Complete all Naval Academy missions"
    },
    {
      "id": 2,
      "imageId": 2,
      "cred": 100,
      "flags": 1,
      "label": "Veteran of Midway",
      "description": "Complete all Single Player missions",
      "howto": "Complete all Single Player missions"
    },
    {
      "id": 3,
      "imageId": 3,
      "cred": 150,
      "flags": 1,
      "label": "Hardened Veteran of Midway",
      "description": "Complete all Single Player missions on Veteran difficulty level",
      "howto": "Complete all Single Player missions on Veteran difficulty level"
    },
    {
      "id": 4,
      "imageId": 4,
      "cred": 50,
      "flags": 1,
      "label": "Veteran Pilot",
      "description": "Complete all Plane Challenge missions",
      "howto": "Complete all Plane Challenge missions"
    },
    {
      "id": 5,
      "imageId": 5,
      "cred": 50,
      "flags": 1,
      "label": "Veteran Captain",
      "description": "Complete all Ship Challenge missions",
      "howto": "Complete all Ship Challenge missions"
    },
    {
      "id": 6,
      "imageId": 8,
      "cred": 50,
      "flags": 1,
      "label": "Veteran Submarine Commander",
      "description": "Complete all Submarine Challenge missions",
      "howto": "Complete all Submarine Challenge missions"
    },
    {
      "id": 7,
      "imageId": 9,
      "cred": 20,
      "flags": 4,
      "label": "Submarine Service Medal",
      "description": "At least 15 minutes unit usage plus used this unit type the most in the mission",
      "howto": "At least 15 minutes unit usage plus used this unit type the most in the mission"
    },
    {
      "id": 8,
      "imageId": 10,
      "cred": 20,
      "flags": 4,
      "label": "Air Unit Service Medal",
      "description": "At least 20 minutes unit usage plus used this unit type the most in the mission",
      "howto": "At least 20 minutes unit usage plus used this unit type the most in the mission"
    },
    {
      "id": 9,
      "imageId": 11,
      "cred": 20,
      "flags": 4,
      "label": "Sea Unit Service Medal",
      "description": "At least 25 minutes unit usage plus used this unit type the most in the mission",
      "howto": "At least 25 minutes unit usage plus used this unit type the most in the mission"
    },
    {
      "id": 10,
      "imageId": 12,
      "cred": 20,
      "flags": 4,
      "label": "Torpedo Marksmanship",
      "description": "Achieve 15 torpedo hits as well as most torpedo hits in mission",
      "howto": "Achieve 15 torpedo hits as well as most torpedo hits in mission"
    },
    {
      "id": 11,
      "imageId": 13,
      "cred": 20,
      "flags": 4,
      "label": "AA Marksmanship",
      "description": "Achieve 100 AA hits as well as most AA hits in mission",
      "howto": "Achieve 100 AA hits as well as most AA hits in mission"
    },
    {
      "id": 12,
      "imageId": 14,
      "cred": 20,
      "flags": 4,
      "label": "Artillery Marksmanship",
      "description": "Achieve 200 Artillery hits as well as most Artillery hits in mission",
      "howto": "Achieve 200 Artillery hits as well as most Artillery hits in mission"
    },
    {
      "id": 13,
      "imageId": 15,
      "cred": 20,
      "flags": 4,
      "label": "Legion of Merit",
      "description": "Team Kill/Death ratio must be at least 5:1",
      "howto": "Team Kill/Death ratio must be at least 5:1"
    },
    {
      "id": 14,
      "imageId": 16,
      "cred": 20,
      "flags": 4,
      "label": "Bronze Star",
      "description": "Team Kill/Death ratio must be at least 3:1",
      "howto": "Team Kill/Death ratio must be at least 3:1"
    },
    {
      "id": 15,
      "imageId": 17,
      "cred": 10,
      "flags": 4,
      "label": "Purple Heart",
      "description": "Worst Kill/Death ratio amongst the Players",
      "howto": "Worst Kill/Death ratio amongst the Players"
    },
    {
      "id": 16,
      "imageId": 18,
      "cred": 30,
      "flags": 4,
      "label": "Distinguished Service Cross",
      "description": "Kill 50 enemy planes and 10 enemy ships",
      "howto": "Kill 50 enemy planes and 10 enemy ships"
    },
    {
      "id": 17,
      "imageId": 19,
      "cred": 30,
      "flags": 4,
      "label": "Silver Star",
      "description": "Kill 10 enemy planes and 5 enemy ships",
      "howto": "Kill 10 enemy planes and 5 enemy ships"
    },
    {
      "id": 18,
      "imageId": 20,
      "cred": 40,
      "flags": 4,
      "label": "Navy Cross",
      "description": "Kill 10 enemy ships and reach at least 5 min ship usage",
      "howto": "Kill 10 enemy ships and reach at least 5 min ship usage"
    },
    {
      "id": 19,
      "imageId": 21,
      "cred": 40,
      "flags": 4,
      "label": "Navy Distinguished Service Medal",
      "description": "Kill 5 enemy ships and reach at least 5 min ship usage",
      "howto": "Kill 5 enemy ships and reach at least 5 min ship usage"
    },
    {
      "id": 20,
      "imageId": 22,
      "cred": 50,
      "flags": 4,
      "label": "Distinguished Flying Cross",
      "description": "Kill 40 enemy planes and reach at least 5 min plane usage",
      "howto": "Kill 40 enemy planes and reach at least 5 min plane usage"
    },
    {
      "id": 21,
      "imageId": 23,
      "cred": 50,
      "flags": 4,
      "label": "Air Medal",
      "description": "Kill 20 enemy planes and reach at least 5 min plane usage",
      "howto": "Kill 20 enemy planes and reach at least 5 min plane usage"
    },
    {
      "id": 22,
      "imageId": 24,
      "cred": 150,
      "flags": 4,
      "label": "Medal of Honor",
      "description": "Must reach the time and hit limits of the Service and the Marksmanship medals",
      "howto": "Must reach the time and hit limits of the Service and the Marksmanship medals"
    }
  ]
}