{
  "achievementsPossible": 12,
  "credPossible": 200,
  "achievements": [
    {
      "id": 1,
      "imageId": 10,
      "cred": 25,
      "flags": 1,
      "label": "Complete The Game",
      "description": "You completed the game.",
      "howto": "Play through the final scene of Gunstar Heroes."
    },
    {
      "id": 2,
      "imageId": 11,
      "cred": 25,
      "flags": 1,
      "label": "Golden Silver",
      "description": "You defeated Golden Silver.",
      "howto": "Defeat superboss Golden Silver."
    },
    {
      "id": 3,
      "imageId": 12,
      "cred": 25,
      "flags": 1,
      "label": "O Brother",
      "description": "You defeated Green.",
      "howto": "Defeat Green."
    },
    {
      "id": 4,
      "imageId": 13,
      "cred": 25,
      "flags": 1,
      "label": "Greedy Fly",
      "description": "You defeated Black Fly.",
      "howto": "Defeat Black Fly."
    },
    {
      "id": 5,
      "imageId": 14,
      "cred": 15,
      "flags": 1,
      "label": "Locked and Loaded",
      "description": "You began the game with each weapon.",
      "howto": "Begin the game with each weapon."
    },
    {
      "id": 6,
      "imageId": 15,
      "cred": 15,
      "flags": 1,
      "label": "Colonel Red",
      "description": "You defeated Smash Daisaku.",
      "howto": "Rescue Yellow by defeating Smash Daisaku."
    },
    {
      "id": 7,
      "imageId": 16,
      "cred": 15,
      "flags": 1,
      "label": "OMG 11 Bosses",
      "description": "You defeated Black Beat Stepper.",
      "howto": "Complete the Dice Palace and defeat Black Beat Stepper."
    },
    {
      "id": 8,
      "imageId": 17,
      "cred": 15,
      "flags": 1,
      "label": "Not Quite Red",
      "description": "You defeated Orange.",
      "howto": "Defeat Orange on the Flying Battleship."
    },
    {
      "id": 9,
      "imageId": 18,
      "cred": 10,
      "flags": 1,
      "label": "Crab Attack",
      "description": "You defeated Crab Force.",
      "howto": "Defeat Crab Force in the Underground Mine."
    },
    {
      "id": 10,
      "imageId": 19,
      "cred": 10,
      "flags": 1,
      "label": "Pink",
      "description": "You defeated Pinky Roader.",
      "howto": "Defeat Pinky Roader in the Ancient Ruins."
    },
    {
      "id": 11,
      "imageId": 20,
      "cred": 10,
      "flags": 1,
      "label": "Bravoo Man",
      "description": "You defeated Bravoo Man.",
      "howto": "Defeat Bravoo Man in the Ancient Ruins."
    },
    {
      "id": 12,
      "imageId": 21,
      "cred": 10,
      "flags": 1,
      "label": "Papaya Dance",
      "description": "You defeated Papaya Dance.",
      "howto": "Defeat Papaya Dance in the Ancient Ruins."
    }
  ]
}