{
  "achievementsPossible": 40,
  "credPossible": 1000,
  "achievements": [
    {
      "id": 2,
      "imageId": 51,
      "cred": 15,
      "flags": 1,
      "label": "Training complete",
      "description": "Complete the full tutorial.",
      "howto": "Complete the full tutorial."
    },
    {
      "id": 3,
      "imageId": 51,
      "cred": 15,
      "flags": 1,
      "label": "TV time for my sponsor",
      "description": "Maintain a solo breakaway for, at least, 20 kms.",
      "howto": "Maintain a solo breakaway for at least 20 kms in One-off stage or Tour de France modes."
    },
    {
      "id": 4,
      "imageId": 51,
      "cred": 15,
      "flags": 1,
      "label": "Never alone",
      "description": "Use all Team Comm menu options, including those only available on mode Full race.",
      "howto": "Use all Team Comm menu options, including those only available on mode Full race."
    },
    {
      "id": 5,
      "imageId": 51,
      "cred": 15,
      "flags": 1,
      "label": "Be my guest",
      "description": "Win a quick match in multiplayer mode.",
      "howto": "Launch a quick match in multiplayer mode and beat your opponent."
    },
    {
      "id": 6,
      "imageId": 51,
      "cred": 15,
      "flags": 1,
      "label": "Attack!!!!!",
      "description": "Launch an attack from the peloton to gain a few metres lead.",
      "howto": "Launch an attack from the peloton to gain a few metres lead."
    },
    {
      "id": 7,
      "imageId": 51,
      "cred": 15,
      "flags": 1,
      "label": "I slipped boss!",
      "description": "Fall off the bike while wearing the yellow jersey.",
      "howto": "Fall while wearing the yellow jersey in Tour de France mode."
    },
    {
      "id": 8,
      "imageId": 51,
      "cred": 15,
      "flags": 1,
      "label": "Rider combativeness prize",
      "description": "Be on the first breakaway (E1) for at least 500km during the same Tour de France.",
      "howto": "Accrue 500 kms in the lead breakaway (E1) across the same Tour de France."
    },
    {
      "id": 9,
      "imageId": 51,
      "cred": 15,
      "flags": 1,
      "label": "125cc",
      "description": "Ride faster than 70 km/h in a flat section.",
      "howto": "Ride faster than 70 km/h in a flat section."
    },
    {
      "id": 10,
      "imageId": 51,
      "cred": 15,
      "flags": 1,
      "label": "Moto GP",
      "description": "Ride faster than 90 km/h.",
      "howto": "Exceed 90 km/h with a rider. Generally, it's easier when going downhill."
    },
    {
      "id": 12,
      "imageId": 51,
      "cred": 15,
      "flags": 1,
      "label": "Finally some rest",
      "description": "Reach the first rest day (stage 10: Mâcon).",
      "howto": "Reach the first rest day (stage 10: Macon) in Tour de France mode."
    },
    {
      "id": 13,
      "imageId": 51,
      "cred": 15,
      "flags": 1,
      "label": "The harder is still to come",
      "description": "Reach the second rest day (stage 17: Pau).",
      "howto": "Reach the second rest day (stage 17: Pau) in Tour de France mode."
    },
    {
      "id": 14,
      "imageId": 51,
      "cred": 15,
      "flags": 1,
      "label": "Raise your arms",
      "description": "Your first victory.",
      "howto": "Is unlocked on first victory."
    },
    {
      "id": 15,
      "imageId": 51,
      "cred": 15,
      "flags": 1,
      "label": "Enjoy the victory",
      "description": "Use a celebration combo when you win a stage.",
      "howto": "Use a celebration combo when you win a stage."
    },
    {
      "id": 16,
      "imageId": 51,
      "cred": 15,
      "flags": 1,
      "label": "Solo taste better",
      "description": "Win a stage with a solo breakaway (at least the last km).",
      "howto": "The rider must cover the last kilometre of the stage alone."
    },
    {
      "id": 17,
      "imageId": 51,
      "cred": 15,
      "flags": 1,
      "label": "Faster than you think",
      "description": "Wear the green jersey for at least 1 stage with a silver or bronze sprinter.",
      "howto": "Wear the green jersey for at least 1 stage with a silver or bronze sprinter."
    },
    {
      "id": 18,
      "imageId": 51,
      "cred": 15,
      "flags": 1,
      "label": "The king of small hills",
      "description": "Wear the KOM jersey from the end of the 2nd stage until the 1st mountain stage (Stage 11: Mâcon).",
      "howto": "Wear the KOM jersey from the end of the 2nd stage until the 1st mountain stage (Stage 11: Mâcon)."
    },
    {
      "id": 19,
      "imageId": 51,
      "cred": 15,
      "flags": 1,
      "label": "Fast & furious",
      "description": "Win a flat stage with a gold medal sprinter.",
      "howto": "Win a stage with a sprinter who has a gold medal in sprint."
    },
    {
      "id": 20,
      "imageId": 51,
      "cred": 15,
      "flags": 1,
      "label": "Demolition man",
      "description": "Win a stage with more than 2 minutes advance on the 2nd rider.",
      "howto": "Win a stage with more than 2 minutes advance on the 2nd rider."
    },
    {
      "id": 21,
      "imageId": 51,
      "cred": 15,
      "flags": 1,
      "label": "Master of the alliances",
      "description": "Create 1 alliances in mode Tour de France.",
      "howto": "Create 1 alliance in mode Tour de France."
    },
    {
      "id": 22,
      "imageId": 51,
      "cred": 15,
      "flags": 1,
      "label": "Like father like son",
      "description": "Win a stage with a 30+ rider and with a -25 rider during the same Tour de France.",
      "howto": "Win a stage with a 30+ rider and with a -25 rider during the same Tour de France."
    },
    {
      "id": 23,
      "imageId": 51,
      "cred": 15,
      "flags": 1,
      "label": "Champs Elysees",
      "description": "Complete a Tour de France.",
      "howto": "Finish the Tour de France."
    },
    {
      "id": 24,
      "imageId": 51,
      "cred": 15,
      "flags": 1,
      "label": "Back-to-back",
      "description": "Win 2 consecutive stages with the same rider.",
      "howto": "Win two consecutive stages with the same rider during the same Tour de France."
    },
    {
      "id": 25,
      "imageId": 51,
      "cred": 15,
      "flags": 1,
      "label": "Support the pressure",
      "description": "Wear the yellow jersey for 7 stages with an Expert level team during the same Tour de France.",
      "howto": "Wear the yellow jersey for 7 stages with an Expert level team during the same Tour de France."
    },
    {
      "id": 26,
      "imageId": 51,
      "cred": 15,
      "flags": 1,
      "label": "All-rounder",
      "description": "Win a stage of each type (Tour or One-off) with any rider of the same team.",
      "howto": "Win a stage of each type (Tour or One-off) with any rider of the same team."
    },
    {
      "id": 27,
      "imageId": 51,
      "cred": 15,
      "flags": 1,
      "label": "Podium in paris",
      "description": "Finish the Tour de France in the top 3 (Tour only).",
      "howto": "Finish the Tour de France with a podium place."
    },
    {
      "id": 28,
      "imageId": 51,
      "cred": 15,
      "flags": 1,
      "label": "First and last",
      "description": "Win the first and last stages of the Tour de France in Tour mode.",
      "howto": "Win the prologue and the last stage on the same Tour de France."
    },
    {
      "id": 29,
      "imageId": 51,
      "cred": 15,
      "flags": 1,
      "label": "Welcome to the club",
      "description": "Win a Tour de France.",
      "howto": "Win a Tour de France."
    },
    {
      "id": 30,
      "imageId": 51,
      "cred": 15,
      "flags": 1,
      "label": "King of the mountains",
      "description": "Win the polka-dot jersey.",
      "howto": "Win the polka-dot jersey."
    },
    {
      "id": 31,
      "imageId": 51,
      "cred": 15,
      "flags": 1,
      "label": "King of the sprints",
      "description": "Win the green jersey.",
      "howto": "Win the green jersey."
    },
    {
      "id": 32,
      "imageId": 51,
      "cred": 15,
      "flags": 1,
      "label": "King Midas",
      "description": "Accumulate more than 500,000 EUR during a Tour de France.",
      "howto": "Accumulate more than 500,000 EUR during a Tour de France."
    },
    {
      "id": 33,
      "imageId": 51,
      "cred": 15,
      "flags": 1,
      "label": "The baby winner",
      "description": "Win the white jersey (tour mode only).",
      "howto": "Win the white jersey (tour mode only)."
    },
    {
      "id": 34,
      "imageId": 51,
      "cred": 15,
      "flags": 1,
      "label": "I live in the mountains",
      "description": "Be the first across all Hors Category climbs during the same Tour de France.",
      "howto": "Be the first across all Hors Category climbs during the same Tour de France."
    },
    {
      "id": 35,
      "imageId": 83,
      "cred": 30,
      "flags": 1,
      "label": "Three in a row",
      "description": "Win 3 consecutive stages with the same rider (Tour mode).",
      "howto": "Win three consecutive stages with the same rider during the same Tour de France."
    },
    {
      "id": 36,
      "imageId": 83,
      "cred": 30,
      "flags": 1,
      "label": "From nowhere",
      "description": "Win a stage with a rider who has no medals (Tour or One-Off).",
      "howto": "Win a stage with a rider who has no gold, silver or bronze medal."
    },
    {
      "id": 37,
      "imageId": 83,
      "cred": 30,
      "flags": 1,
      "label": "Monsieur Tour de France",
      "description": "Win at least 5 stages on the same Tour with the same rider (Tour mode only).",
      "howto": "Win 5 stages with the same rider during the same Tour de France."
    },
    {
      "id": 38,
      "imageId": 86,
      "cred": 70,
      "flags": 1,
      "label": "From start to finish",
      "description": "Win the first stage and keep the yellow jersey with same rider throughout all stages of the TDF.",
      "howto": "Win the prologue and keep the yellow jersey with the same rider until the end of Tour de France."
    },
    {
      "id": 39,
      "imageId": 86,
      "cred": 70,
      "flags": 1,
      "label": "Dream team",
      "description": "Win the Tour de France and have a team-mate on the podium.",
      "howto": "Win the Tour de France and have a team-mate who is placed 2nd or 3rd in the final overall rankings."
    },
    {
      "id": 40,
      "imageId": 86,
      "cred": 70,
      "flags": 1,
      "label": "Experienced player",
      "description": "Win the Tour de France with a Difficult or Expert team.",
      "howto": "Win the Tour de France with a team of Expert or Difficult level."
    },
    {
      "id": 41,
      "imageId": 86,
      "cred": 70,
      "flags": 1,
      "label": "Tour legend",
      "description": "Win all stages (Tour or One-Off) with the same or different riders.",
      "howto": "Win all stages in Tour de France or One-off stage mode with one or more riders."
    },
    {
      "id": 42,
      "imageId": 86,
      "cred": 150,
      "flags": 1,
      "label": "Son of the cannibal",
      "description": "Win the Yellow, Green and Polka-dot jerseys on the same edition with the same rider.",
      "howto": "Win the Yellow, Green and Polka-dot jerseys on the same edition with the same rider."
    }
  ]
}