{
  "achievementsPossible": 12,
  "credPossible": 200,
  "achievements": [
    {
      "id": 1,
      "imageId": 1,
      "cred": 10,
      "flags": 1,
      "label": "Cleared Tutorial",
      "description": "Completed all of the tutorial.",
      "howto": "Completed all of the tutorial."
    },
    {
      "id": 2,
      "imageId": 2,
      "cred": 10,
      "flags": 1,
      "label": "Cleared Stage",
      "description": "Completed at least 1 stage in Fury Mode.",
      "howto": "Completed at least 1 stage in Fury Mode."
    },
    {
      "id": 3,
      "imageId": 3,
      "cred": 20,
      "flags": 1,
      "label": "Cleared Fury",
      "description": "Completed all of the Fury Mode.",
      "howto": "Completed all of the Fury Mode."
    },
    {
      "id": 4,
      "imageId": 4,
      "cred": 20,
      "flags": 1,
      "label": "Cleared All",
      "description": "Completed all stages included in the original game.",
      "howto": "Completed all stages included in the original game."
    },
    {
      "id": 5,
      "imageId": 5,
      "cred": 20,
      "flags": 1,
      "label": "Cleared without Damage",
      "description": "Completed a stage in Single Player mode except the Tutorial without taking any damage.",
      "howto": "Completed a stage in Single Player mode except the Tutorial without taking any damage."
    },
    {
      "id": 6,
      "imageId": 6,
      "cred": 20,
      "flags": 4,
      "label": "MAX Combo",
      "description": "Reached a combo count of 999 in any Single Player mode except the Tutorial.",
      "howto": "Reached a combo count of 999 in any Single Player mode except the Tutorial."
    },
    {
      "id": 7,
      "imageId": 7,
      "cred": 20,
      "flags": 4,
      "label": "Exact Counter",
      "description": "Shot a Counter Attack exactly when invincibility ends in any Single Player mode except the Tutorial.",
      "howto": "Shot a Counter Attack exactly when invincibility ends in any Single Player mode except the Tutorial."
    },
    {
      "id": 8,
      "imageId": 8,
      "cred": 20,
      "flags": 4,
      "label": "MAX Counter",
      "description": "Shot 1000 missiles with a Counter Attack in any Single Player mode except the Tutorial.",
      "howto": "Shot 1000 missiles with a Counter Attack in any Single Player mode except the Tutorial."
    },
    {
      "id": 9,
      "imageId": 9,
      "cred": 10,
      "flags": 1,
      "label": "MAX Finish",
      "description": "Completed a stage with a MAX Attack in any Single Player mode except the Tutorial.",
      "howto": "Completed a stage with a MAX Attack in any Single Player mode except the Tutorial."
    },
    {
      "id": 10,
      "imageId": 10,
      "cred": 20,
      "flags": 3,
      "label": "Weapon Master",
      "description": "Used all types of weapons in any Single Player mode except the Tutorial.",
      "howto": "Used all types of weapons in any Single Player mode except the Tutorial."
    },
    {
      "id": 11,
      "imageId": 11,
      "cred": 10,
      "flags": 7,
      "label": "Creator",
      "description": "Edited a map.",
      "howto": "Edited a map."
    },
    {
      "id": 12,
      "imageId": 12,
      "cred": 20,
      "flags": 6,
      "label": "Million Counter",
      "description": "Shot 1 million missiles with a Counter Attack in any Single Player mode except the Tutorial.",
      "howto": "Shot 1 million missiles with a Counter Attack in any Single Player mode except the Tutorial."
    }
  ]
}