{
  "achievementsPossible": 39,
  "credPossible": 1000,
  "achievements": [
    {
      "id": 1,
      "imageId": 2,
      "cred": 20,
      "flags": 6,
      "label": "Chapter 1",
      "description": "Awarded for completing Chapter 1",
      "howto": "Awarded for completing Chapter 1"
    },
    {
      "id": 2,
      "imageId": 3,
      "cred": 30,
      "flags": 6,
      "label": "Chapter 2",
      "description": "Awarded for completing Chapter 2",
      "howto": "Awarded for completing Chapter 2"
    },
    {
      "id": 3,
      "imageId": 4,
      "cred": 30,
      "flags": 6,
      "label": "Chapter 3",
      "description": "Awarded for completing Chapter 3",
      "howto": "Awarded for completing Chapter 3"
    },
    {
      "id": 4,
      "imageId": 5,
      "cred": 50,
      "flags": 6,
      "label": "Chapter 4",
      "description": "Awarded for completing Chapter 4",
      "howto": "Awarded for completing Chapter 4"
    },
    {
      "id": 5,
      "imageId": 6,
      "cred": 50,
      "flags": 6,
      "label": "Chapter 5",
      "description": "Awarded for completing Chapter 5",
      "howto": "Awarded for completing Chapter 5"
    },
    {
      "id": 6,
      "imageId": 7,
      "cred": 100,
      "flags": 1,
      "label": "Chapter 6",
      "description": "Awarded for completing Chapter 6",
      "howto": "Awarded for completing Chapter 6"
    },
    {
      "id": 7,
      "imageId": 8,
      "cred": 50,
      "flags": 1,
      "label": "Normal Difficulty",
      "description": "Awarded for completing all Normal Missions",
      "howto": "Awarded for completing all Normal Missions"
    },
    {
      "id": 8,
      "imageId": 9,
      "cred": 50,
      "flags": 1,
      "label": "Hard Difficulty",
      "description": "Awarded for completing all Hard Missions",
      "howto": "Awarded for completing all Hard Missions"
    },
    {
      "id": 9,
      "imageId": 10,
      "cred": 10,
      "flags": 2,
      "label": "Mission Rank A",
      "description": "Awarded for achieving Total Mission Rank A",
      "howto": "Awarded for achieving Total Mission Rank A"
    },
    {
      "id": 10,
      "imageId": 11,
      "cred": 20,
      "flags": 2,
      "label": "Mission Rank S",
      "description": "Awarded for achieving Total Mission Rank S",
      "howto": "Awarded for achieving Total Mission Rank S"
    },
    {
      "id": 11,
      "imageId": 12,
      "cred": 30,
      "flags": 2,
      "label": "Mission Rank SS",
      "description": "Awarded for achieving Total Mission Rank SS",
      "howto": ""
    },
    {
      "id": 12,
      "imageId": 13,
      "cred": 30,
      "flags": 6,
      "label": "Special Pack",
      "description": "Awarded for completing the \"NDP-S001\" data pack",
      "howto": ""
    },
    {
      "id": 13,
      "imageId": 14,
      "cred": 30,
      "flags": 6,
      "label": "GA Pack-A",
      "description": "Awarded for completing the \"SDGA RANK-A\" data pack",
      "howto": "Awarded for completing the \"SDGA RANK-A\" data pack"
    },
    {
      "id": 15,
      "imageId": 15,
      "cred": 30,
      "flags": 6,
      "label": "GA Pack-B",
      "description": "Awarded for completing the \"SDGA RANK-B\" data pack",
      "howto": "Awarded for completing the \"SDGA RANK-B\" data pack"
    },
    {
      "id": 16,
      "imageId": 16,
      "cred": 30,
      "flags": 6,
      "label": "Rosenthal Pack",
      "description": "Awarded for completing the \"NDP-E001 ROS-OME\" data pack",
      "howto": "Awarded for completing the \"NDP-E001 ROS-OME\" data pack"
    },
    {
      "id": 17,
      "imageId": 17,
      "cred": 30,
      "flags": 6,
      "label": "Rayleonard Pack",
      "description": "Awarded for completing the \"NDP-C001 RAY\" data pack",
      "howto": "Awarded for completing the \"NDP-C001 RAY\" data pack"
    },
    {
      "id": 18,
      "imageId": 18,
      "cred": 30,
      "flags": 6,
      "label": "Akvavit Pack",
      "description": "Awarded for completing the \"NDP-C002 AKV\" data pack",
      "howto": "Awarded for completing the \"NDP-C002 AKV\" data pack"
    },
    {
      "id": 19,
      "imageId": 19,
      "cred": 30,
      "flags": 6,
      "label": "BFF Pack-A",
      "description": "Awarded for completing the \"SDBFF RANK-A\" data pack",
      "howto": "Awarded for completing the \"SDBFF RANK-A\" data pack"
    },
    {
      "id": 20,
      "imageId": 20,
      "cred": 30,
      "flags": 6,
      "label": "BFF Pack-B",
      "description": "Awarded for completing the \"SDBFF RANK-B\" data pack",
      "howto": "Awarded for completing the \"SDBFF RANK-B\" data pack"
    },
    {
      "id": 21,
      "imageId": 21,
      "cred": 30,
      "flags": 6,
      "label": "Leone Pack",
      "description": "Awarded for completing the \"NDP-B001 LEO\" data pack",
      "howto": "Awarded for completing the \"NDP-B001 LEO\" data pack"
    },
    {
      "id": 23,
      "imageId": 22,
      "cred": 30,
      "flags": 6,
      "label": "Aldra Pack",
      "description": "Awarded for completing the \"NDP-B002 ALD-MEL\" data pack",
      "howto": "Awarded for completing the \"NDP-B002 ALD-MEL\" data pack"
    },
    {
      "id": 24,
      "imageId": 23,
      "cred": 30,
      "flags": 6,
      "label": "Eqbal Pack",
      "description": "Awarded for completing the \"NDP-A001 EQB-TEC\" data pack",
      "howto": "Awarded for completing the \"NDP-A001 EQB-TEC\" data pack"
    },
    {
      "id": 25,
      "imageId": 24,
      "cred": 30,
      "flags": 6,
      "label": "Maggrib Pack",
      "description": "Awarded for completing the \"NDP-X002 MAGGRIB\" data pack",
      "howto": "Awarded for completing the \"NDP-X002 MAGGRIB\" data pack"
    },
    {
      "id": 26,
      "imageId": 25,
      "cred": 50,
      "flags": 1,
      "label": "All Data Packs",
      "description": "Awarded for completing all data packs",
      "howto": "Awarded for completing all data packs"
    },
    {
      "id": 27,
      "imageId": 26,
      "cred": 10,
      "flags": 1,
      "label": "01 Berlioz",
      "description": "Awarded for completing the MARCHE AU SUPPLICE mission on Hard",
      "howto": "Awarded for completing the MARCHE AU SUPPLICE mission on Hard"
    },
    {
      "id": 28,
      "imageId": 27,
      "cred": 10,
      "flags": 6,
      "label": "02 Sahdana",
      "description": "Awarded for completing the EGO BOOST mission on Hard",
      "howto": ""
    },
    {
      "id": 29,
      "imageId": 28,
      "cred": 10,
      "flags": 6,
      "label": "03 Anjou",
      "description": "Awarded for completing the JARDIN DE CHEVALIER mission on Hard",
      "howto": "Awarded for completing the JARDIN DE CHEVALIER mission on Hard"
    },
    {
      "id": 30,
      "imageId": 29,
      "cred": 10,
      "flags": 6,
      "label": "05 Mary Shelley",
      "description": "Awarded for completing the EMPRESS mission on Hard",
      "howto": "Awarded for completing the EMPRESS mission on Hard"
    },
    {
      "id": 31,
      "imageId": 30,
      "cred": 10,
      "flags": 6,
      "label": "06 Celo",
      "description": "Awarded for completing the SEED A BARREN EARTH mission on Hard",
      "howto": ""
    },
    {
      "id": 32,
      "imageId": 31,
      "cred": 10,
      "flags": 6,
      "label": "09 Sir Maurescu",
      "description": "Awarded for completing the LINE OF DEFENSE mission on Hard",
      "howto": ""
    },
    {
      "id": 33,
      "imageId": 32,
      "cred": 10,
      "flags": 6,
      "label": "10 Menno Ruh",
      "description": "Awarded for completing the INTERNAL PURGE mission on Hard",
      "howto": ""
    },
    {
      "id": 34,
      "imageId": 33,
      "cred": 10,
      "flags": 6,
      "label": "14 Sherring",
      "description": "Awarded for completing the SEA OF BLOOD mission on Hard",
      "howto": "Awarded for completing the SEA OF BLOOD mission on Hard"
    },
    {
      "id": 35,
      "imageId": 34,
      "cred": 10,
      "flags": 6,
      "label": "19 Francisca",
      "description": "Awarded for completing the SILENT AVALANCHE mission on Hard",
      "howto": ""
    },
    {
      "id": 36,
      "imageId": 35,
      "cred": 10,
      "flags": 6,
      "label": "25 Borisovich",
      "description": "Awarded for completing the SANDSTORM CITADEL mission on Hard",
      "howto": ""
    },
    {
      "id": 37,
      "imageId": 36,
      "cred": 10,
      "flags": 6,
      "label": "-- Amazigh",
      "description": "Awarded for completing the DESERT WOLF mission on Hard",
      "howto": "Awarded for completing the DESERT WOLF mission on Hard"
    },
    {
      "id": 38,
      "imageId": 37,
      "cred": 10,
      "flags": 6,
      "label": "-- Sus",
      "description": "Awarded for completing the UP IN FLAMES mission on Hard",
      "howto": "Awarded for completing the UP IN FLAMES mission on Hard"
    },
    {
      "id": 39,
      "imageId": 38,
      "cred": 10,
      "flags": 6,
      "label": "Ursragna",
      "description": "Awarded for completing the JUGGERNAUT mission on Hard",
      "howto": "Awarded for completing the JUGGERNAUT mission on Hard"
    },
    {
      "id": 40,
      "imageId": 39,
      "cred": 10,
      "flags": 6,
      "label": "Sol Dios",
      "description": "Awarded for completing the SOL DIOS mission on Hard",
      "howto": "Awarded for completing the SOL DIOS mission on Hard"
    },
    {
      "id": 41,
      "imageId": 40,
      "cred": 10,
      "flags": 6,
      "label": "00-Aretha",
      "description": "Awarded for completing the SEED A BARREN EARTH mission on Hard",
      "howto": "Awarded for completing the SEED A BARREN EARTH mission on Hard"
    }
  ]
}