{
  "achievementsPossible": 12,
  "credPossible": 200,
  "achievements": [
    {
      "id": 1,
      "imageId": 1,
      "cred": 15,
      "flags": 1,
      "label": "Ace Astropopper",
      "description": "Finish the story by completing level 32 with each pilot.",
      "howto": "Finish the story by completing level 32 with each pilot."
    },
    {
      "id": 2,
      "imageId": 2,
      "cred": 10,
      "flags": 1,
      "label": "BETA Survivor",
      "description": "Stay alive for 5 minutes in Survival mode.",
      "howto": "Stay alive for 5 minutes in Survival mode."
    },
    {
      "id": 3,
      "imageId": 3,
      "cred": 15,
      "flags": 1,
      "label": "Brick Basher",
      "description": "Break 100,000 total bricks. ",
      "howto": "Break 100,000 total bricks. "
    },
    {
      "id": 4,
      "imageId": 4,
      "cred": 25,
      "flags": 1,
      "label": "Brick Grinder",
      "description": "Complete 32 levels in a game without using your SUPA Weapon.",
      "howto": "Complete 32 levels in a game without using your SUPA Weapon."
    },
    {
      "id": 5,
      "imageId": 5,
      "cred": 25,
      "flags": 1,
      "label": "Captain Quick Brick",
      "description": "Complete a level in 25 seconds or less.",
      "howto": "Complete a level in 25 seconds or less."
    },
    {
      "id": 6,
      "imageId": 6,
      "cred": 15,
      "flags": 1,
      "label": "Combo Operator",
      "description": "Get a 17x combo.",
      "howto": "Get a 17x combo."
    },
    {
      "id": 7,
      "imageId": 7,
      "cred": 25,
      "flags": 1,
      "label": "Cosmic Overlord",
      "description": "Reign as Cosmic Overlord (12,000,000 points).",
      "howto": "Reign as Cosmic Overlord (12,000,000 points)."
    },
    {
      "id": 8,
      "imageId": 8,
      "cred": 25,
      "flags": 1,
      "label": "GAMMA Survivor",
      "description": "Reach the 9-minute mark in Survival mode.",
      "howto": "Reach the 9-minute mark in Survival mode."
    },
    {
      "id": 9,
      "imageId": 9,
      "cred": 10,
      "flags": 1,
      "label": "Interplanetary Hero",
      "description": "Unlock Vixx and Turbot.",
      "howto": "Unlock Vixx and Turbot."
    },
    {
      "id": 10,
      "imageId": 10,
      "cred": 10,
      "flags": 1,
      "label": "Puzzle Commander",
      "description": "Perfectly solve 10 bonus puzzles.",
      "howto": "Perfectly solve 10 bonus puzzles."
    },
    {
      "id": 11,
      "imageId": 11,
      "cred": 10,
      "flags": 1,
      "label": "Star Gazer",
      "description": "Receive your first promotion (25,000 points).",
      "howto": "Receive your first promotion (25,000 points)."
    },
    {
      "id": 12,
      "imageId": 12,
      "cred": 15,
      "flags": 1,
      "label": "Vortex Generator",
      "description": "Clear the entire screen of bricks 5 times in one level.",
      "howto": "Clear the entire screen of bricks 5 times in one level."
    }
  ]
}