{
  "achievementsPossible": 19,
  "credPossible": 1000,
  "achievements": [
    {
      "id": 1,
      "imageId": 57,
      "cred": 25,
      "flags": 3,
      "label": "Shapes All Over The Place",
      "description": "You earned six Gold Stars in Starting Steps!",
      "howto": "Earned by getting six Gold Stars in Starting Steps!"
    },
    {
      "id": 2,
      "imageId": 58,
      "cred": 50,
      "flags": 3,
      "label": "Mary Had A Little Lamb",
      "description": "You've earned twelve Gold Stars in Starting Steps!",
      "howto": "Earned by getting twelve Gold Stars in Starting Steps!"
    },
    {
      "id": 3,
      "imageId": 59,
      "cred": 50,
      "flags": 3,
      "label": "We Totally Rock",
      "description": "You've earned twelve Gold Stars in Smooth Moves!",
      "howto": "Earned by getting twelve Gold Stars in Smooth Moves!"
    },
    {
      "id": 5,
      "imageId": 61,
      "cred": 75,
      "flags": 3,
      "label": "Questing, Questing",
      "description": "You've earned eighteen Gold Stars in Fancy Footwork!",
      "howto": "Earned by getting eighteen Gold Stars in Fancy Footwork!"
    },
    {
      "id": 6,
      "imageId": 62,
      "cred": 75,
      "flags": 3,
      "label": "Reach For The Sky",
      "description": "You've earned twenty-four Gold Stars in Fancy Footwork!",
      "howto": "Earned by getting twenty-four Gold Stars in Fancy Footwork!"
    },
    {
      "id": 7,
      "imageId": 63,
      "cred": 50,
      "flags": 1,
      "label": "Cool Beans",
      "description": "You got three stars on a Freeze Move for the first time!",
      "howto": "Earned by getting three stars on a Freeze Move for the first time!"
    },
    {
      "id": 8,
      "imageId": 75,
      "cred": 50,
      "flags": 1,
      "label": "Quick Step",
      "description": "You played four Quick Play songs in a single game!",
      "howto": "Earned by playing four Quick Play songs in a single game!"
    },
    {
      "id": 9,
      "imageId": 76,
      "cred": 25,
      "flags": 1,
      "label": "First Dance",
      "description": "You played your first Dance song!",
      "howto": "Earned by playing a Dance song for the first time!"
    },
    {
      "id": 10,
      "imageId": 66,
      "cred": 25,
      "flags": 1,
      "label": "Work It Out",
      "description": "You played your first Workout song!",
      "howto": "Earned by playing a Workout song for the first time!"
    },
    {
      "id": 11,
      "imageId": 67,
      "cred": 25,
      "flags": 1,
      "label": "First Freeze",
      "description": "You played your first Freeze song!",
      "howto": "Earned by playing a Freeze song for the first time!"
    },
    {
      "id": 12,
      "imageId": 68,
      "cred": 50,
      "flags": 1,
      "label": "Dora Dance-A-Thon",
      "description": "You played every Dora the Explorer song!",
      "howto": "Earned by playing all the Dora the Explorer songs!"
    },
    {
      "id": 13,
      "imageId": 69,
      "cred": 50,
      "flags": 1,
      "label": "Gold Star Glory",
      "description": "You got your first three Gold Star rating!",
      "howto": "Earned by getting 3 Gold Stars for the first time!"
    },
    {
      "id": 14,
      "imageId": 77,
      "cred": 75,
      "flags": 1,
      "label": "I'm a Star",
      "description": "You got four three Star ratings in a single dance!",
      "howto": "Earned by getting four three Star ratings in a single dance!"
    },
    {
      "id": 15,
      "imageId": 78,
      "cred": 100,
      "flags": 1,
      "label": "Superstar Streak",
      "description": "You kept a Hot Streak going for six moves!",
      "howto": "Earned by keeping a Hot Streak going for six moves!"
    },
    {
      "id": 16,
      "imageId": 64,
      "cred": 50,
      "flags": 1,
      "label": "World Tour",
      "description": "You danced with every Guide Character!",
      "howto": "Earned by dancing with each Guide Character!"
    },
    {
      "id": 17,
      "imageId": 79,
      "cred": 25,
      "flags": 1,
      "label": "Dancetastic Duo",
      "description": "You danced with a second player!",
      "howto": "Earned by dancing with a second player!"
    },
    {
      "id": 18,
      "imageId": 72,
      "cred": 50,
      "flags": 1,
      "label": "Dancing Machine",
      "description": "You got twenty Gold Stars in Dance!",
      "howto": "Earned by getting twenty Gold Stars in Dance!"
    },
    {
      "id": 19,
      "imageId": 73,
      "cred": 75,
      "flags": 1,
      "label": "Workout Wonder",
      "description": "You got twenty-two Gold Stars in Workout!",
      "howto": "Earned by getting twenty-two Gold Stars in Workout!"
    },
    {
      "id": 20,
      "imageId": 74,
      "cred": 75,
      "flags": 1,
      "label": "Freeze-Tastic",
      "description": "You got twenty-four Gold Stars in Freeze!",
      "howto": "Earned by getting twenty-four Gold Stars in Freeze!"
    }
  ]
}