{
  "achievementsPossible": 28,
  "credPossible": 400,
  "achievements": [
    {
      "id": 2,
      "imageId": 2,
      "cred": 5,
      "flags": 1,
      "label": "Smooth Operator",
      "description": "Slide jumped 10 times in a row.",
      "howto": "Slide jump 10 times in one row."
    },
    {
      "id": 3,
      "imageId": 3,
      "cred": 15,
      "flags": 1,
      "label": "One Step Ahead",
      "description": "Wall jumped off 15 different walls in one checkpoint.",
      "howto": "Wall jump off 15 different walls in one checkpoint without dying."
    },
    {
      "id": 4,
      "imageId": 4,
      "cred": 15,
      "flags": 1,
      "label": "Shocking!",
      "description": "Got shocked 5 times in a row.",
      "howto": "Get shocked 5 times in a row."
    },
    {
      "id": 5,
      "imageId": 5,
      "cred": 15,
      "flags": 1,
      "label": "Officially Licensed",
      "description": "Jinxed an opponent while you wore a CC2 FameStar costume.",
      "howto": "Jinx an opponent while you're wearing a CC2 FameStar costume."
    },
    {
      "id": 6,
      "imageId": 6,
      "cred": 15,
      "flags": 1,
      "label": "Mission Control",
      "description": "Completed a Bonus Objective.",
      "howto": "Finish a Bonus Objective."
    },
    {
      "id": 7,
      "imageId": 7,
      "cred": 15,
      "flags": 1,
      "label": "Mission Possible",
      "description": "Completed 30 Bonus Objectives.",
      "howto": "Finish 30 Bonus Objectives."
    },
    {
      "id": 8,
      "imageId": 8,
      "cred": 15,
      "flags": 1,
      "label": "Mission Improbable",
      "description": "Completed 50 Bonus Objectives.",
      "howto": "Finish 50 Bonus Objectives."
    },
    {
      "id": 9,
      "imageId": 9,
      "cred": 15,
      "flags": 1,
      "label": "Mission Impossible",
      "description": "Completed 75 Bonus Objectives.",
      "howto": "Finish 75 Bonus Objectives."
    },
    {
      "id": 10,
      "imageId": 48,
      "cred": 15,
      "flags": 1,
      "label": "Stellar",
      "description": "Found and collected 25 unique stars by completing courses.",
      "howto": "Find and collect 25 unique stars by completing courses."
    },
    {
      "id": 11,
      "imageId": 49,
      "cred": 15,
      "flags": 1,
      "label": "Galactic",
      "description": "Found and collected 100 unique stars by completing courses.",
      "howto": "Find and collect 100 unique stars by completing courses."
    },
    {
      "id": 14,
      "imageId": 59,
      "cred": 25,
      "flags": 1,
      "label": "Jungle Fever",
      "description": "Unlocked every course marked with the trophy icon in the Amazon Jungle.",
      "howto": "Unlock every course marked with the trophy icon in the Amazon Jungle."
    },
    {
      "id": 24,
      "imageId": 60,
      "cred": 25,
      "flags": 1,
      "label": "Let It Snow",
      "description": "Unlocked every Antarctic course marked with the trophy icon.",
      "howto": "Unlock every course marked with the trophy icon in the Antarctic."
    },
    {
      "id": 25,
      "imageId": 61,
      "cred": 25,
      "flags": 1,
      "label": "Walk Like an Egyptian",
      "description": "Unlocked every Egyptian course marked with the trophy icon.",
      "howto": "Unlock every course marked with the trophy icon in Egypt."
    },
    {
      "id": 26,
      "imageId": 62,
      "cred": 25,
      "flags": 1,
      "label": "Shiver Me Timbers",
      "description": "Unlocked every Pirate Island course marked with the trophy icon.",
      "howto": "Unlock every course marked with the trophy icon in the Pirate Island."
    },
    {
      "id": 30,
      "imageId": 50,
      "cred": 15,
      "flags": 1,
      "label": "Cosmic",
      "description": "Found and collected 200 unique stars by completing courses.",
      "howto": "Find and collect 200 unique stars by completing courses."
    },
    {
      "id": 31,
      "imageId": 51,
      "cred": 15,
      "flags": 1,
      "label": "Universal",
      "description": "Found and collected 300 unique stars by completing courses.",
      "howto": "Find and collect 300 unique stars by completing courses."
    },
    {
      "id": 32,
      "imageId": 10,
      "cred": 10,
      "flags": 1,
      "label": "On Course",
      "description": "Finished a course marked with a trophy icon without dying.",
      "howto": "Finish a course marked with a trophy icon without dying."
    },
    {
      "id": 33,
      "imageId": 11,
      "cred": 15,
      "flags": 1,
      "label": "In Due Course",
      "description": "Finished 15 courses marked with a trophy icon without dying.",
      "howto": "Finish 15 courses marked with a trophy icon without dying."
    },
    {
      "id": 34,
      "imageId": 12,
      "cred": 15,
      "flags": 1,
      "label": "The Main Course",
      "description": "Finished all courses marked with a trophy icon without dying.",
      "howto": "Finish every course marked with a trophy icon without dying."
    },
    {
      "id": 35,
      "imageId": 52,
      "cred": 10,
      "flags": 1,
      "label": "One for the Road",
      "description": "Unlocked a split path.",
      "howto": "Unlock a split path."
    },
    {
      "id": 36,
      "imageId": 53,
      "cred": 10,
      "flags": 1,
      "label": "Hit the Road",
      "description": "Unlocked 5 split paths.",
      "howto": "Unlock 5 split paths."
    },
    {
      "id": 37,
      "imageId": 54,
      "cred": 10,
      "flags": 1,
      "label": "The High Road",
      "description": "Unlocked 15 split paths.",
      "howto": "Unlock 15 split paths."
    },
    {
      "id": 38,
      "imageId": 55,
      "cred": 10,
      "flags": 1,
      "label": "Road Less Traveled",
      "description": "Unlocked split path for all courses marked with the trophy icon.",
      "howto": "Unlock split path for all courses marked with the trophy icon."
    },
    {
      "id": 39,
      "imageId": 56,
      "cred": 15,
      "flags": 1,
      "label": "Star Power",
      "description": "Grabbed the most stars in a tournament.",
      "howto": "In a tournament, grab the most stars."
    },
    {
      "id": 40,
      "imageId": 57,
      "cred": 10,
      "flags": 1,
      "label": "CC2 Community",
      "description": "Finished an online game.",
      "howto": "Finish an online game."
    },
    {
      "id": 41,
      "imageId": 58,
      "cred": 5,
      "flags": 1,
      "label": "Welcome to CC2",
      "description": "Unlocked your first course.",
      "howto": "Unlock your first course."
    },
    {
      "id": 42,
      "imageId": 65,
      "cred": 10,
      "flags": 1,
      "label": "Crash Course 1 Style",
      "description": "Finished a level without ledge grabbing.",
      "howto": "Finish a level without ledge grabbing."
    },
    {
      "id": 43,
      "imageId": 66,
      "cred": 10,
      "flags": 1,
      "label": "Silver Star Medal",
      "description": "Got all the track stars and at least silver on all courses marked with the trophy icon.",
      "howto": "Get all the track stars and at least silver on all courses marked with the trophy icon."
    }
  ]
}