{
  "achievementsPossible": 15,
  "credPossible": 250,
  "achievements": [
    {
      "id": 2,
      "imageId": 1,
      "cred": 35,
      "flags": 1,
      "label": "Again, and Again, and AGAIN...",
      "description": "Woah, that's serious talent!  That's 11 consecutive Ranked Matches!",
      "howto": "Win 11 consecutive Ranked Matches."
    },
    {
      "id": 3,
      "imageId": 2,
      "cred": 20,
      "flags": 1,
      "label": "Excellent!",
      "description": "You showed those guys!  You've won 25 4-player online games!",
      "howto": "Win 25 online games with at least 4 players over your career."
    },
    {
      "id": 4,
      "imageId": 3,
      "cred": 20,
      "flags": 1,
      "label": "Three with One Blow!",
      "description": "Those three computer players never knew what hit them.",
      "howto": "Take out three computer players at once."
    },
    {
      "id": 5,
      "imageId": 4,
      "cred": 20,
      "flags": 1,
      "label": "...Of All You Survey",
      "description": "You've dominated in every single arena.",
      "howto": "Win at least one game on all the arenas."
    },
    {
      "id": 6,
      "imageId": 5,
      "cred": 20,
      "flags": 1,
      "label": "A Real Blast",
      "description": "That explosion was huge!  At least 12 bombs big!",
      "howto": "Chain-react at least 12 bombs."
    },
    {
      "id": 7,
      "imageId": 6,
      "cred": 20,
      "flags": 1,
      "label": "Full Closet",
      "description": "A true fashionista, you've collected every costume!",
      "howto": "Collect every costume."
    },
    {
      "id": 8,
      "imageId": 7,
      "cred": 15,
      "flags": 1,
      "label": "Luddite",
      "description": "That's 99 computer players we'll never see again.",
      "howto": "Take out 99 computer players over your career."
    },
    {
      "id": 9,
      "imageId": 8,
      "cred": 10,
      "flags": 1,
      "label": "Patriot",
      "description": "You've captured at LEAST five flags.",
      "howto": "Capture five flags over your career."
    },
    {
      "id": 10,
      "imageId": 9,
      "cred": 10,
      "flags": 1,
      "label": "Clearly Important",
      "description": "Someone of real importance, you've been a VIP at least three times!",
      "howto": "Be the VIP in at least three VIP games over your career."
    },
    {
      "id": 11,
      "imageId": 10,
      "cred": 10,
      "flags": 1,
      "label": "Hail to the King",
      "description": "Your 50 Capture the Crown points grant you a regal bearing, my liege.",
      "howto": "Score at least 50 points in Capture the Crown mode over your career."
    },
    {
      "id": 12,
      "imageId": 11,
      "cred": 10,
      "flags": 1,
      "label": "Wealth Beyond Measure",
      "description": "Careful investment has netted you over $500 in your Bankroll career.",
      "howto": "Collect at least $500 in Bankroll mode over your career."
    },
    {
      "id": 13,
      "imageId": 12,
      "cred": 10,
      "flags": 1,
      "label": "Explorerman",
      "description": "You came, you saw, you've played a game on every arena!",
      "howto": "Play at least one complete game on all the arenas."
    },
    {
      "id": 14,
      "imageId": 13,
      "cred": 10,
      "flags": 1,
      "label": "Go Go Bombzilla!",
      "description": "You've owned the city!  Twice!  As mighty Bombzilla!",
      "howto": "Win 2 matches in a row on Giant dressed in the complete Bombzilla costume. Requires Bomb-Up Pack I."
    },
    {
      "id": 15,
      "imageId": 14,
      "cred": 15,
      "flags": 1,
      "label": "Surprise Attack!",
      "description": "That opposing Bomber should've expected the unexpected, like a teleported bomb!",
      "howto": "Take out an opponent using a teleported bomb. Requires Bomb-Up Pack II."
    },
    {
      "id": 16,
      "imageId": 15,
      "cred": 25,
      "flags": 1,
      "label": "Revenge is So Sweet",
      "description": "You got revenge by bombing someone who bombed you first!",
      "howto": "Bomb someone who bombed you in one round on Resurrection or from a cart. Requires Bomb-Up Pack III."
    }
  ]
}