{
  "achievementsPossible": 23,
  "credPossible": 400,
  "achievements": [
    {
      "id": 1,
      "imageId": 10,
      "cred": 15,
      "flags": 1,
      "label": "Lights out!",
      "description": "Defeat the Night Watchman",
      "howto": "Defeat the Night Watchman"
    },
    {
      "id": 2,
      "imageId": 11,
      "cred": 15,
      "flags": 1,
      "label": "Dust to dust",
      "description": "Defeat the Necromancer",
      "howto": "Defeat the Necromancer"
    },
    {
      "id": 3,
      "imageId": 12,
      "cred": 15,
      "flags": 1,
      "label": "Not my type",
      "description": "Defeat the Succubus",
      "howto": "Defeat the Succubus"
    },
    {
      "id": 4,
      "imageId": 13,
      "cred": 15,
      "flags": 1,
      "label": "Curiosity killed the cat",
      "description": "Defeat the Reaver",
      "howto": "Defeat the Reaver"
    },
    {
      "id": 5,
      "imageId": 14,
      "cred": 15,
      "flags": 1,
      "label": "System shock",
      "description": "Defeat the Daemon Lord",
      "howto": "Defeat the Daemon Lord"
    },
    {
      "id": 6,
      "imageId": 19,
      "cred": 15,
      "flags": 1,
      "label": "This is not how a vampire dies",
      "description": "Defeat Dracula",
      "howto": "Defeat Dracula"
    },
    {
      "id": 7,
      "imageId": 15,
      "cred": 15,
      "flags": 1,
      "label": "Insecticidal",
      "description": "Defeat the Lady of the Crypt",
      "howto": "Defeat the Lady of the Crypt"
    },
    {
      "id": 8,
      "imageId": 9,
      "cred": 15,
      "flags": 1,
      "label": "The bigger they are...",
      "description": "Defeat the Executioner... twice!",
      "howto": "Defeat the Executioner... twice!"
    },
    {
      "id": 9,
      "imageId": 20,
      "cred": 15,
      "flags": 1,
      "label": "Sealed Fate",
      "description": "Be defeated by Dracula",
      "howto": "Be defeated by Dracula"
    },
    {
      "id": 10,
      "imageId": 7,
      "cred": 20,
      "flags": 1,
      "label": "Simon's Quest",
      "description": "Complete Simon (100%)",
      "howto": "Complete Simon (100%)"
    },
    {
      "id": 11,
      "imageId": 16,
      "cred": 20,
      "flags": 1,
      "label": "Alucard's Redemption",
      "description": "Complete Alucard (100%)",
      "howto": "Complete Alucard (100%)"
    },
    {
      "id": 12,
      "imageId": 8,
      "cred": 20,
      "flags": 1,
      "label": "Trevor's Destiny",
      "description": "Complete Trevor (100%)",
      "howto": "Complete Trevor (100%)"
    },
    {
      "id": 13,
      "imageId": 21,
      "cred": 15,
      "flags": 1,
      "label": "Combat master",
      "description": "Obtain all the skills (reach the MAX level)",
      "howto": "Obtain all the skills (reach the MAX level)"
    },
    {
      "id": 14,
      "imageId": 32,
      "cred": 15,
      "flags": 1,
      "label": "Quick as lightning",
      "description": "Finish the game under 3 h. 30 min.",
      "howto": "Finish the game under 3 h. 30 min."
    },
    {
      "id": 17,
      "imageId": 25,
      "cred": 25,
      "flags": 1,
      "label": "I'm a Belmont!",
      "description": "Finish the game on Hard without lowering the difficulty or enabling navigation aids from the map",
      "howto": "Finish the game on Hard without lowering the difficulty or enabling navigation aids from the map"
    },
    {
      "id": 18,
      "imageId": 26,
      "cred": 30,
      "flags": 1,
      "label": "I'm Dracula!",
      "description": "Finish the game on Hardcore without lowering the difficulty or enabling navigation aids from the map",
      "howto": "Finish the game on Hardcore without lowering the difficulty or enabling navigation aids from the map"
    },
    {
      "id": 19,
      "imageId": 28,
      "cred": 15,
      "flags": 1,
      "label": "The fearsome barbarian",
      "description": "Finish the Boss Rush mode on EASY",
      "howto": "Finish the Boss Rush mode on EASY"
    },
    {
      "id": 21,
      "imageId": 17,
      "cred": 10,
      "flags": 1,
      "label": "Puppeteer",
      "description": "Solve the Theatre puzzle without clues",
      "howto": "Solve the Theatre puzzle without clues"
    },
    {
      "id": 22,
      "imageId": 18,
      "cred": 10,
      "flags": 1,
      "label": "Light guide",
      "description": "Solve the Carousel puzzle without clues",
      "howto": "Solve the Carousel puzzle without clues"
    },
    {
      "id": 23,
      "imageId": 27,
      "cred": 10,
      "flags": 1,
      "label": "Beast Hunter",
      "description": "Kill 1000 enemies",
      "howto": "Kill 1000 enemies"
    },
    {
      "id": 31,
      "imageId": 29,
      "cred": 20,
      "flags": 1,
      "label": "The fearless vampire",
      "description": "Finish the Boss Rush mode on NORMAL",
      "howto": "Finish the Boss Rush mode on NORMAL"
    },
    {
      "id": 32,
      "imageId": 30,
      "cred": 25,
      "flags": 1,
      "label": "The best warrior in the Order",
      "description": "Finish the Boss Rush mode on HARD",
      "howto": "Finish the Boss Rush mode on HARD"
    },
    {
      "id": 33,
      "imageId": 31,
      "cred": 30,
      "flags": 1,
      "label": "The great pirate king",
      "description": "Finish the Boss Rush mode on HARDCORE",
      "howto": "Finish the Boss Rush mode on HARDCORE"
    }
  ]
}