{
  "achievementsPossible": 12,
  "credPossible": 250,
  "achievements": [
    {
      "id": 14,
      "imageId": 18,
      "cred": 20,
      "flags": 1,
      "label": "Wild Desire",
      "description": "5-star \"Ring of Fire\" as a Vocalist on Hard or harder",
      "howto": "5-star \"Ring of Fire\" as a Vocalist on Hard or harder"
    },
    {
      "id": 15,
      "imageId": 9,
      "cred": 20,
      "flags": 1,
      "label": "Country Boy Drum Roll",
      "description": "5-Star \"That's How Country Boys Roll\" as a Drummer on Hard or harder",
      "howto": "5-Star \"That's How Country Boys Roll\" as a Drummer on Hard or harder"
    },
    {
      "id": 16,
      "imageId": 21,
      "cred": 20,
      "flags": 1,
      "label": "It's Been A While",
      "description": "5-Star \"Kiss a Girl\" as a Guitarist on Hard or harder",
      "howto": "5-Star \"Kiss a Girl\" as a Guitarist on Hard or harder"
    },
    {
      "id": 18,
      "imageId": 19,
      "cred": 20,
      "flags": 1,
      "label": "Ride the Groove",
      "description": "5-Star \"Ride\" as a Bassist on Hard or harder",
      "howto": "5-Star \"Ride\" as a Bassist on Hard or harder"
    },
    {
      "id": 19,
      "imageId": 23,
      "cred": 35,
      "flags": 1,
      "label": "Awful Beautiful Career",
      "description": "Complete Solo Tour on any difficulty",
      "howto": "Complete Solo Tour on any difficulty"
    },
    {
      "id": 20,
      "imageId": 24,
      "cred": 35,
      "flags": 1,
      "label": "International Heartachers",
      "description": "Complete Band Tour on any difficulty",
      "howto": "Complete Band Tour on any difficulty"
    },
    {
      "id": 21,
      "imageId": 14,
      "cred": 20,
      "flags": 1,
      "label": "Ain't Settlin'",
      "description": "Earn 80 stars across all songs in Solo or Band Tour",
      "howto": "Earn 80 stars across all songs in Solo or Band Tour"
    },
    {
      "id": 22,
      "imageId": 22,
      "cred": 40,
      "flags": 1,
      "label": "Perfect Play",
      "description": "Earn a gold star on any song",
      "howto": "Earn a gold star on any song"
    },
    {
      "id": 23,
      "imageId": 16,
      "cred": 10,
      "flags": 1,
      "label": "Giddy On Up",
      "description": "Earn more than 1,000,000 points in a single song",
      "howto": "Earn more than 1,000,000 points in a single song"
    },
    {
      "id": 24,
      "imageId": 17,
      "cred": 10,
      "flags": 1,
      "label": "The One You Lean On",
      "description": "Hit all unison bonuses in any song with Guitar, Bass, and Drums",
      "howto": "Hit all unison bonuses in any song with Guitar, Bass, and Drums"
    },
    {
      "id": 25,
      "imageId": 15,
      "cred": 10,
      "flags": 1,
      "label": "Neon Dreams",
      "description": "Maintain deployed Overdrive for 90 seconds",
      "howto": "Maintain deployed Overdrive for 90 seconds"
    },
    {
      "id": 26,
      "imageId": 20,
      "cred": 10,
      "flags": 1,
      "label": "Worked All Week",
      "description": "Score 100% notes hit with any instrument in \"Sideways\" ... on the  weekend.",
      "howto": "Score 100% notes hit with any instrument in \"Sideways\" ... on the  weekend."
    }
  ]
}