{
  "achievementsPossible": 93,
  "credPossible": 2195,
  "achievements": [
    {
      "id": 1,
      "imageId": 1,
      "cred": 10,
      "flags": 1,
      "label": "Taking Inventory",
      "description": "Open your inventory.",
      "howto": "Open your inventory."
    },
    {
      "id": 2,
      "imageId": 2,
      "cred": 10,
      "flags": 1,
      "label": "Getting Wood",
      "description": "Punch a tree until the block of wood pops out.",
      "howto": "Punch a tree until the block of wood pops out."
    },
    {
      "id": 3,
      "imageId": 3,
      "cred": 10,
      "flags": 1,
      "label": "Benchmarking",
      "description": "Craft a workbench with four blocks of wooden planks.",
      "howto": "Craft a workbench with four blocks of wooden planks."
    },
    {
      "id": 4,
      "imageId": 11,
      "cred": 10,
      "flags": 1,
      "label": "Time to Mine!",
      "description": "Use planks and sticks to make a pickaxe.",
      "howto": "Use planks and sticks to make a pickaxe."
    },
    {
      "id": 5,
      "imageId": 61,
      "cred": 15,
      "flags": 1,
      "label": "Hot Topic",
      "description": "Construct a furnace out of eight cobblestone blocks.",
      "howto": "Construct a furnace out of eight cobblestone blocks."
    },
    {
      "id": 6,
      "imageId": 63,
      "cred": 15,
      "flags": 1,
      "label": "Acquire Hardware",
      "description": "Smelt an iron ingot.",
      "howto": "Smelt an iron ingot."
    },
    {
      "id": 7,
      "imageId": 4,
      "cred": 10,
      "flags": 1,
      "label": "Time to Farm!",
      "description": "Use planks and sticks to make a hoe.",
      "howto": "Use planks and sticks to make a hoe."
    },
    {
      "id": 8,
      "imageId": 5,
      "cred": 20,
      "flags": 1,
      "label": "Bake Bread",
      "description": "Turn wheat into bread.",
      "howto": "Turn wheat into bread."
    },
    {
      "id": 9,
      "imageId": 6,
      "cred": 40,
      "flags": 1,
      "label": "The Lie",
      "description": "Bake a cake using wheat, sugar, milk and eggs!",
      "howto": "Bake a cake using wheat, sugar, milk and eggs!"
    },
    {
      "id": 10,
      "imageId": 12,
      "cred": 15,
      "flags": 1,
      "label": "Getting an Upgrade",
      "description": "Construct a better pickaxe.",
      "howto": "Construct a better pickaxe."
    },
    {
      "id": 11,
      "imageId": 62,
      "cred": 15,
      "flags": 1,
      "label": "Delicious Fish",
      "description": "Catch and cook a fish!",
      "howto": "Catch and cook a fish!"
    },
    {
      "id": 12,
      "imageId": 64,
      "cred": 40,
      "flags": 1,
      "label": "On A Rail",
      "description": "Travel by minecart to a point at least 500m in a single direction from where you started.",
      "howto": "Travel by minecart to a point at least 500m in a single direction from where you started."
    },
    {
      "id": 14,
      "imageId": 7,
      "cred": 10,
      "flags": 1,
      "label": "Time to Strike!",
      "description": "Use planks and sticks to make a sword.",
      "howto": "Use planks and sticks to make a sword."
    },
    {
      "id": 15,
      "imageId": 8,
      "cred": 20,
      "flags": 1,
      "label": "Monster Hunter",
      "description": "Attack and destroy a monster.",
      "howto": "Attack and destroy a monster."
    },
    {
      "id": 16,
      "imageId": 9,
      "cred": 15,
      "flags": 1,
      "label": "Cow Tipper",
      "description": "Harvest some leather.",
      "howto": "Harvest some leather."
    },
    {
      "id": 17,
      "imageId": 10,
      "cred": 40,
      "flags": 1,
      "label": "When Pigs Fly",
      "description": "Use a saddle to ride a pig, then have the pig get hurt from fall damage while riding it.",
      "howto": "Use a saddle to ride a pig, then have the pig get hurt from fall damage while riding it."
    },
    {
      "id": 18,
      "imageId": 70,
      "cred": 30,
      "flags": 1,
      "label": "Leader Of The Pack",
      "description": "Befriend five wolves.",
      "howto": "Befriend five wolves."
    },
    {
      "id": 19,
      "imageId": 71,
      "cred": 15,
      "flags": 1,
      "label": "MOAR Tools",
      "description": "Construct one type of each tool (one pickaxe, one spade, one axe and one hoe).",
      "howto": "Construct one type of each tool (one pickaxe, one spade, one axe and one hoe)."
    },
    {
      "id": 20,
      "imageId": 72,
      "cred": 20,
      "flags": 1,
      "label": "Dispense With This",
      "description": "Construct a Dispenser.",
      "howto": "Construct a Dispenser."
    },
    {
      "id": 21,
      "imageId": 73,
      "cred": 40,
      "flags": 1,
      "label": "Into The Nether",
      "description": "Construct a Nether Portal.",
      "howto": "Construct a Nether Portal."
    },
    {
      "id": 22,
      "imageId": 142,
      "cred": 30,
      "flags": 1,
      "label": "Sniper Duel",
      "description": "Kill a Skeleton with an arrow from more than 50 meters.",
      "howto": "Kill a Skeleton with an arrow from more than 50 meters."
    },
    {
      "id": 23,
      "imageId": 143,
      "cred": 20,
      "flags": 1,
      "label": "DIAMONDS!",
      "description": "Acquire diamonds with your iron tools.",
      "howto": "Acquire diamonds with your iron tools."
    },
    {
      "id": 24,
      "imageId": 145,
      "cred": 30,
      "flags": 1,
      "label": "Return to Sender",
      "description": "Destroy a Ghast with a fireball.",
      "howto": "Destroy a Ghast with a fireball."
    },
    {
      "id": 25,
      "imageId": 146,
      "cred": 20,
      "flags": 1,
      "label": "Into Fire",
      "description": "Relieve a Blaze of its rod.",
      "howto": "Relieve a Blaze of its rod."
    },
    {
      "id": 26,
      "imageId": 147,
      "cred": 15,
      "flags": 1,
      "label": "Local Brewery",
      "description": "Brew a potion.",
      "howto": "Brew a potion."
    },
    {
      "id": 27,
      "imageId": 148,
      "cred": 20,
      "flags": 1,
      "label": "The End?",
      "description": "Enter an End Portal.",
      "howto": "Enter an End Portal."
    },
    {
      "id": 28,
      "imageId": 149,
      "cred": 40,
      "flags": 1,
      "label": "The End.",
      "description": "Kill the Enderdragon.",
      "howto": "Kill the Enderdragon."
    },
    {
      "id": 29,
      "imageId": 150,
      "cred": 20,
      "flags": 1,
      "label": "Enchanter",
      "description": "Construct an Enchantment Table.",
      "howto": "Construct an Enchantment Table."
    },
    {
      "id": 30,
      "imageId": 151,
      "cred": 30,
      "flags": 1,
      "label": "Overkill",
      "description": "Deal nine hearts of damage in a single hit.",
      "howto": "Deal nine hearts of damage in a single hit."
    },
    {
      "id": 31,
      "imageId": 152,
      "cred": 20,
      "flags": 1,
      "label": "Librarian",
      "description": "Build some bookshelves to improve your enchantment table.",
      "howto": "Build some bookshelves to improve your enchantment table."
    },
    {
      "id": 32,
      "imageId": 153,
      "cred": 40,
      "flags": 1,
      "label": "Adventuring Time",
      "description": "Discover 17 of the 40 different biomes.",
      "howto": "Discover 17 of the 40 different biomes."
    },
    {
      "id": 33,
      "imageId": 154,
      "cred": 15,
      "flags": 1,
      "label": "Repopulation",
      "description": "Breed two cows with wheat.",
      "howto": "Breed two cows with wheat."
    },
    {
      "id": 34,
      "imageId": 155,
      "cred": 15,
      "flags": 1,
      "label": "Diamonds to you!",
      "description": "Throw diamonds at another player.",
      "howto": "Throw diamonds at another player."
    },
    {
      "id": 35,
      "imageId": 156,
      "cred": 10,
      "flags": 1,
      "label": "Pork Chop",
      "description": "Cook and eat a pork chop.",
      "howto": "Cook and eat a pork chop."
    },
    {
      "id": 36,
      "imageId": 157,
      "cred": 20,
      "flags": 1,
      "label": "Passing the Time",
      "description": "Play for 100 days.",
      "howto": "Play for 100 days."
    },
    {
      "id": 37,
      "imageId": 158,
      "cred": 10,
      "flags": 1,
      "label": "Archer",
      "description": "Kill a creeper with arrows.",
      "howto": "Kill a creeper with arrows."
    },
    {
      "id": 38,
      "imageId": 159,
      "cred": 20,
      "flags": 1,
      "label": "The Haggler",
      "description": "Mine or purchase 30 Emeralds.",
      "howto": "Mine or purchase 30 Emeralds."
    },
    {
      "id": 39,
      "imageId": 160,
      "cred": 15,
      "flags": 1,
      "label": "Pot Planter",
      "description": "Craft and place a Flower Pot.",
      "howto": "Craft and place a Flower Pot."
    },
    {
      "id": 40,
      "imageId": 161,
      "cred": 15,
      "flags": 1,
      "label": "It's a Sign!",
      "description": "Craft and place a Sign.",
      "howto": "Craft and place a Sign."
    },
    {
      "id": 41,
      "imageId": 162,
      "cred": 20,
      "flags": 1,
      "label": "Iron Belly",
      "description": "Stop starvation using Rotten Flesh",
      "howto": "Stop starvation using Rotten Flesh"
    },
    {
      "id": 42,
      "imageId": 163,
      "cred": 15,
      "flags": 1,
      "label": "Have a Shearful Day",
      "description": "Use Shears to obtain wool from a sheep.",
      "howto": "Use Shears to obtain wool from a sheep."
    },
    {
      "id": 43,
      "imageId": 164,
      "cred": 20,
      "flags": 1,
      "label": "Rainbow Collection",
      "description": "Gather all 16 colors of wool.",
      "howto": "Gather all 16 colors of wool."
    },
    {
      "id": 44,
      "imageId": 165,
      "cred": 20,
      "flags": 1,
      "label": "Stayin' Frosty",
      "description": "Swim in lava while having the Fire Resistance effect.",
      "howto": "Swim in lava while having the Fire Resistance effect."
    },
    {
      "id": 45,
      "imageId": 168,
      "cred": 20,
      "flags": 1,
      "label": "Chestful of Cobblestone",
      "description": "Mine 1,728 Cobblestone and place it in a chest.",
      "howto": "Mine 1,728 Cobblestone and place it in a chest."
    },
    {
      "id": 46,
      "imageId": 169,
      "cred": 10,
      "flags": 1,
      "label": "Renewable Energy",
      "description": "Smelt wood trunks using charcoal to make more charcoal.",
      "howto": "Smelt wood trunks using charcoal to make more charcoal."
    },
    {
      "id": 47,
      "imageId": 170,
      "cred": 20,
      "flags": 1,
      "label": "Music to my Ears",
      "description": "Play a music disc in a Jukebox.",
      "howto": "Play a music disc in a Jukebox."
    },
    {
      "id": 48,
      "imageId": 171,
      "cred": 20,
      "flags": 1,
      "label": "Body Guard",
      "description": "Create an Iron Golem.",
      "howto": "Create an Iron Golem."
    },
    {
      "id": 49,
      "imageId": 172,
      "cred": 15,
      "flags": 1,
      "label": "Iron Man",
      "description": "Wear a full suit of Iron Armour.",
      "howto": "Wear a full suit of Iron Armour."
    },
    {
      "id": 50,
      "imageId": 173,
      "cred": 20,
      "flags": 1,
      "label": "Zombie Doctor",
      "description": "Cure a Zombie Villager.",
      "howto": "Cure a Zombie Villager."
    },
    {
      "id": 51,
      "imageId": 174,
      "cred": 15,
      "flags": 1,
      "label": "Lion Tamer",
      "description": "Tame an Ocelot.",
      "howto": "Tame an Ocelot."
    },
    {
      "id": 52,
      "imageId": 175,
      "cred": 20,
      "flags": 1,
      "label": "The Beginning?",
      "description": "Spawn the Wither.",
      "howto": "Spawn the Wither."
    },
    {
      "id": 53,
      "imageId": 177,
      "cred": 40,
      "flags": 1,
      "label": "The Beginning.",
      "description": "Kill the Wither.",
      "howto": "Kill the Wither."
    },
    {
      "id": 54,
      "imageId": 178,
      "cred": 60,
      "flags": 1,
      "label": "Beaconator",
      "description": "Create and fully power a Beacon.",
      "howto": "Create and fully power a Beacon."
    },
    {
      "id": 55,
      "imageId": 179,
      "cred": 30,
      "flags": 1,
      "label": "Overpowered",
      "description": "Eat a Notch Apple.",
      "howto": "Eat a Notch Apple."
    },
    {
      "id": 56,
      "imageId": 180,
      "cred": 15,
      "flags": 1,
      "label": "Tie Dye Outfit",
      "description": "Dye all 4 unique pieces of Leather Armor.",
      "howto": "Dye all 4 unique pieces of Leather Armor."
    },
    {
      "id": 63,
      "imageId": 181,
      "cred": 15,
      "flags": 1,
      "label": "Trampoline",
      "description": "Bounce 30 blocks upward off a Slime Block.",
      "howto": "Bounce 30 blocks upward off a Slime Block."
    },
    {
      "id": 64,
      "imageId": 182,
      "cred": 25,
      "flags": 1,
      "label": "The Student...",
      "description": "Win a public Battle mini game.",
      "howto": "Win a public Battle mini game."
    },
    {
      "id": 65,
      "imageId": 183,
      "cred": 60,
      "flags": 1,
      "label": "...has become the master",
      "description": "Win 3 public Battle games in a row.",
      "howto": "Win 3 public Battle games in a row."
    },
    {
      "id": 66,
      "imageId": 184,
      "cred": 40,
      "flags": 1,
      "label": "'Tis but a scratch",
      "description": "Take 100 damage in a round of a public Battle mini game.",
      "howto": "Take 100 damage in a round of a public Battle mini game."
    },
    {
      "id": 67,
      "imageId": 185,
      "cred": 20,
      "flags": 1,
      "label": "Cupid",
      "description": "Kill 2 players in a round of a public Battle mini game using a bow and arrow.",
      "howto": "Kill 2 players in a round of a public Battle mini game using a bow and arrow."
    },
    {
      "id": 68,
      "imageId": 186,
      "cred": 20,
      "flags": 1,
      "label": "Hunger Pain",
      "description": "Kill a player while you are starving in a Battle mini game.",
      "howto": "Kill a player while you are starving in a Battle mini game."
    },
    {
      "id": 69,
      "imageId": 192,
      "cred": 15,
      "flags": 1,
      "label": "Mine!",
      "description": "Open every chest in a Battle mini game arena in one round.",
      "howto": "Open every chest in a Battle mini game arena in one round."
    },
    {
      "id": 70,
      "imageId": 195,
      "cred": 30,
      "flags": 1,
      "label": "The End... Again...",
      "description": "Respawn the Enderdragon.",
      "howto": "Respawn the Enderdragon."
    },
    {
      "id": 71,
      "imageId": 196,
      "cred": 30,
      "flags": 1,
      "label": "You Need a Mint",
      "description": "Collect Dragon's Breath in a Glass Bottle.",
      "howto": "Collect Dragon's Breath in a Glass Bottle."
    },
    {
      "id": 72,
      "imageId": 197,
      "cred": 60,
      "flags": 1,
      "label": "Super Sonic",
      "description": "Use an Elytra to fly through a 1 by 1 gap while moving faster than 40 m/s.",
      "howto": "Use an Elytra to fly through a 1 by 1 gap while moving faster than 40 m/s."
    },
    {
      "id": 73,
      "imageId": 198,
      "cred": 15,
      "flags": 1,
      "label": "Dry Spell",
      "description": "Dry a Sponge in a Furnace.",
      "howto": "Dry a Sponge in a Furnace."
    },
    {
      "id": 74,
      "imageId": 199,
      "cred": 30,
      "flags": 1,
      "label": "Free Diver",
      "description": "Stay underwater for 2 minutes.",
      "howto": "Stay underwater for 2 minutes."
    },
    {
      "id": 75,
      "imageId": 200,
      "cred": 20,
      "flags": 1,
      "label": "Super Fuel",
      "description": "Power a Furnace with Lava.",
      "howto": "Power a Furnace with Lava."
    },
    {
      "id": 77,
      "imageId": 201,
      "cred": 20,
      "flags": 1,
      "label": "Saddle Up",
      "description": "Tame a Horse.",
      "howto": "Tame a Horse."
    },
    {
      "id": 78,
      "imageId": 202,
      "cred": 20,
      "flags": 1,
      "label": "Taste of Your Own Medicine",
      "description": "Poison a Witch with a Splash Potion.",
      "howto": "Poison a Witch with a Splash Potion."
    },
    {
      "id": 79,
      "imageId": 203,
      "cred": 20,
      "flags": 1,
      "label": "Beam Me Up",
      "description": "Teleport over 100 meters from a single throw of an Ender Pearl.",
      "howto": "Teleport over 100 meters from a single throw of an Ender Pearl."
    },
    {
      "id": 80,
      "imageId": 204,
      "cred": 40,
      "flags": 1,
      "label": "Map Room",
      "description": "Place a fully explored Map into an Item Frame.",
      "howto": "Place a fully explored Map into an Item Frame."
    },
    {
      "id": 81,
      "imageId": 205,
      "cred": 30,
      "flags": 1,
      "label": "Camouflage",
      "description": "Kill a Mob while wearing the same type of Mob Head.",
      "howto": "Kill a Mob while wearing the same type of Mob Head."
    },
    {
      "id": 82,
      "imageId": 206,
      "cred": 15,
      "flags": 1,
      "label": "Back from the Dead",
      "description": "Win 3 rounds in a row after one of the opponents has won 2 rounds.",
      "howto": "Win 3 rounds in a row after one of the opponents has won 2 rounds."
    },
    {
      "id": 83,
      "imageId": 207,
      "cred": 40,
      "flags": 1,
      "label": "S-No Throw",
      "description": "Win a single round of Snowball Tumble without throwing any Snowballs.",
      "howto": "Win a single round of Snowball Tumble without throwing any Snowballs."
    },
    {
      "id": 84,
      "imageId": 208,
      "cred": 40,
      "flags": 1,
      "label": "Snow Storm",
      "description": "Hit a single Player with 25 Snowballs in a single public round.",
      "howto": "Hit a single Player with 25 Snowballs in a single public round."
    },
    {
      "id": 85,
      "imageId": 209,
      "cred": 40,
      "flags": 1,
      "label": "Hotshot",
      "description": "Hit a Player with a Snowball while falling into the Lava.",
      "howto": "Hit a Player with a Snowball while falling into the Lava."
    },
    {
      "id": 86,
      "imageId": 210,
      "cred": 15,
      "flags": 1,
      "label": "Snowplough",
      "description": "Push three Players into Lava using Snowballs.",
      "howto": "Push three Players into Lava using Snowballs."
    },
    {
      "id": 87,
      "imageId": 211,
      "cred": 15,
      "flags": 1,
      "label": "Overlord",
      "description": "Stay on the top layer while winning a round in a Snowball Tumble Mini Game.",
      "howto": "Stay on the top layer while winning a round in a Snowball Tumble Mini Game."
    },
    {
      "id": 88,
      "imageId": 212,
      "cred": 15,
      "flags": 1,
      "label": "Underdog",
      "description": "Win a Tumble game whilst on the lowest layer in a Snowball Tumble Mini Game.",
      "howto": "Win a Tumble game whilst on the lowest layer in a Snowball Tumble Mini Game."
    },
    {
      "id": 93,
      "imageId": 224,
      "cred": 30,
      "flags": 1,
      "label": "The Deep End",
      "description": "Defeat an Elder Guardian.",
      "howto": "Defeat an Elder Guardian."
    },
    {
      "id": 94,
      "imageId": 225,
      "cred": 20,
      "flags": 1,
      "label": "Great View From Up Here",
      "description": "Levitate up 50 blocks from the attacks of a Shulker.",
      "howto": "Levitate up 50 blocks from the attacks of a Shulker."
    },
    {
      "id": 95,
      "imageId": 226,
      "cred": 20,
      "flags": 1,
      "label": "Change of Sheets ",
      "description": "Dye your bed a different color.",
      "howto": "Dye your bed a different color."
    },
    {
      "id": 97,
      "imageId": 227,
      "cred": 30,
      "flags": 1,
      "label": "Cheating Death",
      "description": "Use the Totem of Undying to cheat death.",
      "howto": "Use the Totem of Undying to cheat death."
    },
    {
      "id": 98,
      "imageId": 228,
      "cred": 20,
      "flags": 1,
      "label": "So I Got That Going For Me...",
      "description": "Lead a Caravan containing at least 5 Llamas.",
      "howto": "Lead a Caravan containing at least 5 Llamas."
    },
    {
      "id": 99,
      "imageId": 229,
      "cred": 20,
      "flags": 1,
      "label": "Let It Go! ",
      "description": "Walk across the surface of a deep ocean by freezing the water with Frost Walker boots. ",
      "howto": "Walk across the surface of a deep ocean by freezing the water with Frost Walker boots. "
    },
    {
      "id": 100,
      "imageId": 230,
      "cred": 30,
      "flags": 1,
      "label": "Feeling Ill",
      "description": "Defeat an Evoker.",
      "howto": "Defeat an Evoker."
    },
    {
      "id": 101,
      "imageId": 232,
      "cred": 20,
      "flags": 1,
      "label": "1 Pickle, 2 Pickle, Sea Pickle 4",
      "description": "Place four Sea Pickles in one block.",
      "howto": "Place four Sea Pickles in one block."
    },
    {
      "id": 102,
      "imageId": 233,
      "cred": 20,
      "flags": 1,
      "label": "Alternative Fuel",
      "description": "Use a Dried Kelp block as fuel in a furnace.",
      "howto": "Use a Dried Kelp block as fuel in a furnace."
    },
    {
      "id": 103,
      "imageId": 234,
      "cred": 50,
      "flags": 1,
      "label": "Moskstraumen",
      "description": "Activate a Conduit.",
      "howto": "Activate a Conduit."
    },
    {
      "id": 104,
      "imageId": 235,
      "cred": 20,
      "flags": 1,
      "label": "Castaway",
      "description": "Eat nothing but Kelp for 3 days.",
      "howto": "Eat nothing but Kelp for 3 days."
    },
    {
      "id": 105,
      "imageId": 236,
      "cred": 30,
      "flags": 1,
      "label": "Sleep with the Fishes",
      "description": "Stay underwater for one full day without using potions.",
      "howto": "Stay underwater for one full day without using potions."
    },
    {
      "id": 107,
      "imageId": 237,
      "cred": 30,
      "flags": 1,
      "label": "Echolocation",
      "description": "Bribe a Dolphin.",
      "howto": "Bribe a Dolphin."
    }
  ]
}