{
  "avatarAssetsPossible": 5,
  "maleAvatarAssetsPossible": 2,
  "femaleAvatarAssetsPossible": 2,
  "avatarAssets": [
    {
      "id": "00000008-0001-0121-c7c5-b6d2584111f7",
      "imageId": 104,
      "subcategory": 0,
      "unknown": 0,
      "isMale": true,
      "isFemale": false,
      "isUnisex": false,
      "label": "The Pork Chop T-shirt",
      "description": "The classic Minecraft pork chop T-shirt.",
      "howto": "Eat a cooked pork chop."
    },
    {
      "id": "00000008-0001-d1e2-cd81-dda2584111f7",
      "imageId": 102,
      "subcategory": 0,
      "unknown": 2015221016,
      "isMale": false,
      "isFemale": true,
      "isUnisex": false,
      "label": "The Pork Chop T-shirt",
      "description": "The classic Minecraft pork chop T-shirt.",
      "howto": "Eat a cooked pork chop."
    },
    {
      "id": "00000200-0002-11c1-cefd-9d1e584111f7",
      "imageId": 107,
      "subcategory": 0,
      "unknown": 2015221016,
      "isMale": true,
      "isFemale": false,
      "isUnisex": false,
      "label": "A Minecraft Watch",
      "description": "Just like the the Minecraft in-game clock, but it fits on your wrist!",
      "howto": "Play the game for 100 day to night cycles."
    },
    {
      "id": "00000200-0002-1112-ccf0-bb3a584111f7",
      "imageId": 105,
      "subcategory": 0,
      "unknown": 2015221016,
      "isMale": false,
      "isFemale": true,
      "isUnisex": false,
      "label": "A Minecraft Watch",
      "description": "Just like the the Minecraft in-game clock, but it fits on your wrist!",
      "howto": "Play the game for 100 day to night cycles."
    },
    {
      "id": "00000040-0005-31c3-c71e-c89c584111f7",
      "imageId": 109,
      "subcategory": 0,
      "unknown": 2015221016,
      "isMale": false,
      "isFemale": false,
      "isUnisex": true,
      "label": "The Creeper Cap",
      "description": "A baseball cap with the Creeper face on it.",
      "howto": "Kill a creeper with arrows."
    }
  ]
}