[
  {
    "titleId": 1480659447,
    "largeId": 131084,
    "smallId": 65548,
    "commonId": 12
  },
  {
    "titleId": 1480659447,
    "largeId": 131085,
    "smallId": 65549,
    "commonId": 13
  },
  {
    "titleId": 1480659447,
    "largeId": 132096,
    "smallId": 66560,
    "commonId": 1024
  },
  {
    "titleId": 1480659447,
    "largeId": 132097,
    "smallId": 66561,
    "commonId": 1025
  },
  {
    "titleId": 1480659447,
    "largeId": 132098,
    "smallId": 66562,
    "commonId": 1026
  },
  {
    "titleId": 1480659447,
    "largeId": 132099,
    "smallId": 66563,
    "commonId": 1027
  },
  {
    "titleId": 1480659447,
    "largeId": 132100,
    "smallId": 66564,
    "commonId": 1028
  },
  {
    "titleId": 1480659447,
    "largeId": 132101,
    "smallId": 66565,
    "commonId": 1029
  },
  {
    "titleId": 1480659447,
    "largeId": 132102,
    "smallId": 66566,
    "commonId": 1030
  },
  {
    "titleId": 1480659447,
    "largeId": 132103,
    "smallId": 66567,
    "commonId": 1031
  },
  {
    "titleId": 1480659447,
    "largeId": 132104,
    "smallId": 66568,
    "commonId": 1032
  },
  {
    "titleId": 1480659447,
    "largeId": 132105,
    "smallId": 66569,
    "commonId": 1033
  },
  {
    "titleId": 1480659447,
    "largeId": 132106,
    "smallId": 66570,
    "commonId": 1034
  },
  {
    "titleId": 1480659447,
    "largeId": 132107,
    "smallId": 66571,
    "commonId": 1035
  },
  {
    "titleId": 1480659447,
    "largeId": 132108,
    "smallId": 66572,
    "commonId": 1036
  },
  {
    "titleId": 1480659447,
    "largeId": 132109,
    "smallId": 66573,
    "commonId": 1037
  },
  {
    "titleId": 1480659447,
    "largeId": 132110,
    "smallId": 66574,
    "commonId": 1038
  },
  {
    "titleId": 1480659447,
    "largeId": 132111,
    "smallId": 66575,
    "commonId": 1039
  },
  {
    "titleId": 1480659447,
    "largeId": 132112,
    "smallId": 66576,
    "commonId": 1040
  },
  {
    "titleId": 1480659447,
    "largeId": 132113,
    "smallId": 66577,
    "commonId": 1041
  },
  {
    "titleId": 1480659447,
    "largeId": 132114,
    "smallId": 66578,
    "commonId": 1042
  },
  {
    "titleId": 1480659447,
    "largeId": 132115,
    "smallId": 66579,
    "commonId": 1043
  },
  {
    "titleId": 1480659447,
    "largeId": 132116,
    "smallId": 66580,
    "commonId": 1044
  },
  {
    "titleId": 1480659447,
    "largeId": 132117,
    "smallId": 66581,
    "commonId": 1045
  },
  {
    "titleId": 1480659447,
    "largeId": 132118,
    "smallId": 66582,
    "commonId": 1046
  },
  {
    "titleId": 1480659447,
    "largeId": 132119,
    "smallId": 66583,
    "commonId": 1047
  },
  {
    "titleId": 1480659447,
    "largeId": 132120,
    "smallId": 66584,
    "commonId": 1048
  },
  {
    "titleId": 1480659447,
    "largeId": 132121,
    "smallId": 66585,
    "commonId": 1049
  },
  {
    "titleId": 1480659447,
    "largeId": 132122,
    "smallId": 66586,
    "commonId": 1050
  },
  {
    "titleId": 1480659447,
    "largeId": 132123,
    "smallId": 66587,
    "commonId": 1051
  },
  {
    "titleId": 1480659447,
    "largeId": 132124,
    "smallId": 66588,
    "commonId": 1052
  },
  {
    "titleId": 1480659447,
    "largeId": 132125,
    "smallId": 66589,
    "commonId": 1053
  },
  {
    "titleId": 1480659447,
    "largeId": 132126,
    "smallId": 66590,
    "commonId": 1054
  },
  {
    "titleId": 1480659447,
    "largeId": 132127,
    "smallId": 66591,
    "commonId": 1055
  },
  {
    "titleId": 1480659447,
    "largeId": 132128,
    "smallId": 66592,
    "commonId": 1056
  },
  {
    "titleId": 1480659447,
    "largeId": 132129,
    "smallId": 66593,
    "commonId": 1057
  },
  {
    "titleId": 1480659447,
    "largeId": 132130,
    "smallId": 66594,
    "commonId": 1058
  },
  {
    "titleId": 1480659447,
    "largeId": 132131,
    "smallId": 66595,
    "commonId": 1059
  },
  {
    "titleId": 1480659447,
    "largeId": 132132,
    "smallId": 66596,
    "commonId": 1060
  },
  {
    "titleId": 1480659447,
    "largeId": 132133,
    "smallId": 66597,
    "commonId": 1061
  },
  {
    "titleId": 1480659447,
    "largeId": 132134,
    "smallId": 66598,
    "commonId": 1062
  },
  {
    "titleId": 1480659447,
    "largeId": 132135,
    "smallId": 66599,
    "commonId": 1063
  },
  {
    "titleId": 1480659447,
    "largeId": 132136,
    "smallId": 66600,
    "commonId": 1064
  },
  {
    "titleId": 1480659447,
    "largeId": 132137,
    "smallId": 66601,
    "commonId": 1065
  },
  {
    "titleId": 1480659447,
    "largeId": 132138,
    "smallId": 66602,
    "commonId": 1066
  },
  {
    "titleId": 1480659447,
    "largeId": 132139,
    "smallId": 66603,
    "commonId": 1067
  },
  {
    "titleId": 1480659447,
    "largeId": 132140,
    "smallId": 66604,
    "commonId": 1068
  },
  {
    "titleId": 1480659447,
    "largeId": 132141,
    "smallId": 66605,
    "commonId": 1069
  },
  {
    "titleId": 1480659447,
    "largeId": 132142,
    "smallId": 66606,
    "commonId": 1070
  },
  {
    "titleId": 1480659447,
    "largeId": 132143,
    "smallId": 66607,
    "commonId": 1071
  },
  {
    "titleId": 1480659447,
    "largeId": 132144,
    "smallId": 66608,
    "commonId": 1072
  },
  {
    "titleId": 1480659447,
    "largeId": 132145,
    "smallId": 66609,
    "commonId": 1073
  },
  {
    "titleId": 1480659447,
    "largeId": 132146,
    "smallId": 66610,
    "commonId": 1074
  },
  {
    "titleId": 1480659447,
    "largeId": 132147,
    "smallId": 66611,
    "commonId": 1075
  },
  {
    "titleId": 1480659447,
    "largeId": 132148,
    "smallId": 66612,
    "commonId": 1076
  },
  {
    "titleId": 1480659447,
    "largeId": 132149,
    "smallId": 66613,
    "commonId": 1077
  },
  {
    "titleId": 1480659447,
    "largeId": 132150,
    "smallId": 66614,
    "commonId": 1078
  },
  {
    "titleId": 1480659447,
    "largeId": 132151,
    "smallId": 66615,
    "commonId": 1079
  },
  {
    "titleId": 1480659447,
    "largeId": 132152,
    "smallId": 66616,
    "commonId": 1080
  },
  {
    "titleId": 1480659447,
    "largeId": 132153,
    "smallId": 66617,
    "commonId": 1081
  },
  {
    "titleId": 1480659447,
    "largeId": 132154,
    "smallId": 66618,
    "commonId": 1082
  },
  {
    "titleId": 1480659447,
    "largeId": 132155,
    "smallId": 66619,
    "commonId": 1083
  },
  {
    "titleId": 1480659447,
    "largeId": 132156,
    "smallId": 66620,
    "commonId": 1084
  },
  {
    "titleId": 1480659447,
    "largeId": 132157,
    "smallId": 66621,
    "commonId": 1085
  },
  {
    "titleId": 1480659447,
    "largeId": 132158,
    "smallId": 66622,
    "commonId": 1086
  },
  {
    "titleId": 1480659447,
    "largeId": 132159,
    "smallId": 66623,
    "commonId": 1087
  },
  {
    "titleId": 1480659447,
    "largeId": 132160,
    "smallId": 66624,
    "commonId": 1088
  },
  {
    "titleId": 1480659447,
    "largeId": 132161,
    "smallId": 66625,
    "commonId": 1089
  },
  {
    "titleId": 1480659447,
    "largeId": 132162,
    "smallId": 66626,
    "commonId": 1090
  },
  {
    "titleId": 1480659447,
    "largeId": 132163,
    "smallId": 66627,
    "commonId": 1091
  },
  {
    "titleId": 1480659447,
    "largeId": 132164,
    "smallId": 66628,
    "commonId": 1092
  },
  {
    "titleId": 1480659447,
    "largeId": 132165,
    "smallId": 66629,
    "commonId": 1093
  },
  {
    "titleId": 1480659447,
    "largeId": 132166,
    "smallId": 66630,
    "commonId": 1094
  },
  {
    "titleId": 1480659447,
    "largeId": 132167,
    "smallId": 66631,
    "commonId": 1095
  },
  {
    "titleId": 1480659447,
    "largeId": 132168,
    "smallId": 66632,
    "commonId": 1096
  },
  {
    "titleId": 1480659447,
    "largeId": 132169,
    "smallId": 66633,
    "commonId": 1097
  },
  {
    "titleId": 1480659447,
    "largeId": 132170,
    "smallId": 66634,
    "commonId": 1098
  },
  {
    "titleId": 1480659447,
    "largeId": 132171,
    "smallId": 66635,
    "commonId": 1099
  },
  {
    "titleId": 1480659447,
    "largeId": 132172,
    "smallId": 66636,
    "commonId": 1100
  },
  {
    "titleId": 1480659447,
    "largeId": 132173,
    "smallId": 66637,
    "commonId": 1101
  },
  {
    "titleId": 1480659447,
    "largeId": 132174,
    "smallId": 66638,
    "commonId": 1102
  },
  {
    "titleId": 1480659447,
    "largeId": 132175,
    "smallId": 66639,
    "commonId": 1103
  }
]