{
  "avatarAssetsPossible": 5,
  "maleAvatarAssetsPossible": 2,
  "femaleAvatarAssetsPossible": 2,
  "avatarAssets": [
    {
      "id": "00000208-0001-f171-c122-dc1858410a1d",
      "imageId": 36,
      "subcategory": 0,
      "unknown": 0,
      "isMale": true,
      "isFemale": false,
      "isUnisex": false,
      "label": "Spandex top",
      "description": "The top part of the famous bathing suit",
      "howto": "Win China show"
    },
    {
      "id": "00000208-0001-c172-c33b-582f58410a1d",
      "imageId": 30,
      "subcategory": 0,
      "unknown": 2013287320,
      "isMale": false,
      "isFemale": true,
      "isUnisex": false,
      "label": "Spandex top",
      "description": "The top part of the famous bathing suit",
      "howto": "Win China show"
    },
    {
      "id": "00000010-0002-5161-cb5d-1bf058410a1d",
      "imageId": 34,
      "subcategory": 0,
      "unknown": 2013287320,
      "isMale": true,
      "isFemale": false,
      "isUnisex": false,
      "label": "Spandex trousers",
      "description": "The same bottom as in-game or in the TV show!",
      "howto": "Win Russia show"
    },
    {
      "id": "00000010-0002-8172-c6b2-d6dd58410a1d",
      "imageId": 28,
      "subcategory": 0,
      "unknown": 2013287320,
      "isMale": false,
      "isFemale": true,
      "isUnisex": false,
      "label": "Spandex trousers",
      "description": "The same bottom as in-game or in the TV show!",
      "howto": "Win Russia show"
    },
    {
      "id": "00000544-0004-0103-c0e8-b65958410a1d",
      "imageId": 32,
      "subcategory": 0,
      "unknown": 2013287320,
      "isMale": false,
      "isFemale": false,
      "isUnisex": true,
      "label": "Blue helmet",
      "description": "A water-proof helmet to protect your head when you fall into a pool",
      "howto": "Win USA show"
    }
  ]
}