{
  "achievementsPossible": 34,
  "credPossible": 1000,
  "achievements": [
    {
      "id": 1,
      "imageId": 1,
      "cred": 10,
      "flags": 6,
      "label": "All the Single",
      "description": "Completed a Solo dance",
      "howto": "Completed a Solo dance"
    },
    {
      "id": 2,
      "imageId": 2,
      "cred": 10,
      "flags": 4,
      "label": "It Takes Two",
      "description": "Completed a dance with two players",
      "howto": "Completed a dance with two players"
    },
    {
      "id": 3,
      "imageId": 3,
      "cred": 10,
      "flags": 4,
      "label": "She's Not That Scary",
      "description": "Completed a dance on stage with Mel, in Solo or 2 Player",
      "howto": "Completed a dance on stage with Mel, in Solo or 2 Player"
    },
    {
      "id": 4,
      "imageId": 4,
      "cred": 10,
      "flags": 4,
      "label": "I Will Survive",
      "description": "Completed 2 dances on a single Survival Mode session",
      "howto": "Completed 2 dances on a single Survival Mode session"
    },
    {
      "id": 5,
      "imageId": 5,
      "cred": 15,
      "flags": 4,
      "label": "Survivor",
      "description": "Completed 3 dances on a single Survival Mode session",
      "howto": "Completed 3 dances on a single Survival Mode session"
    },
    {
      "id": 6,
      "imageId": 6,
      "cred": 40,
      "flags": 4,
      "label": "Survival Honor",
      "description": "Completed 4 dances on a single Survival Mode session",
      "howto": "Completed 4 dances on a single Survival Mode session"
    },
    {
      "id": 7,
      "imageId": 7,
      "cred": 10,
      "flags": 4,
      "label": "Safety in Numbers",
      "description": "Completed a two player Survival Mode game",
      "howto": "Completed a two player Survival Mode game"
    },
    {
      "id": 8,
      "imageId": 8,
      "cred": 10,
      "flags": 6,
      "label": "Go Team!",
      "description": "Completed a Team Battle game",
      "howto": "Completed a Team Battle game"
    },
    {
      "id": 9,
      "imageId": 9,
      "cred": 10,
      "flags": 6,
      "label": "Pieces of 8",
      "description": "Completed an 8 player Dance Party game",
      "howto": "Completed an 8 player Dance Party game"
    },
    {
      "id": 10,
      "imageId": 10,
      "cred": 80,
      "flags": 4,
      "label": "Mellionaire",
      "description": "Accrued over 1 million points across all modes",
      "howto": "Accrued over 1 million points across all modes"
    },
    {
      "id": 11,
      "imageId": 11,
      "cred": 30,
      "flags": 6,
      "label": "50 Per-Cent",
      "description": "Danced and completed half the tracks in the game",
      "howto": "Danced and completed half the tracks in the game"
    },
    {
      "id": 12,
      "imageId": 12,
      "cred": 30,
      "flags": 1,
      "label": "Let's Dance",
      "description": "Danced and completed all tracks in the game",
      "howto": "Danced and completed all tracks in the game"
    },
    {
      "id": 13,
      "imageId": 13,
      "cred": 50,
      "flags": 4,
      "label": "Survival Instinct ",
      "description": "One player scored over 100,000 in a two player Survival Mode game",
      "howto": "One player scored over 100,000 in a two player Survival Mode game"
    },
    {
      "id": 14,
      "imageId": 14,
      "cred": 30,
      "flags": 4,
      "label": "Easy as 1 2 3",
      "description": "Received your first A rating in Solo",
      "howto": "Received your first A rating in Solo"
    },
    {
      "id": 15,
      "imageId": 15,
      "cred": 50,
      "flags": 4,
      "label": "A Minor",
      "description": "Received your first A+ rating in Solo",
      "howto": "Received your first A+ rating in Solo"
    },
    {
      "id": 16,
      "imageId": 16,
      "cred": 75,
      "flags": 4,
      "label": "A Major",
      "description": "Received A or above ratings for all full tracks ",
      "howto": "Received A or above ratings for all full tracks "
    },
    {
      "id": 17,
      "imageId": 17,
      "cred": 100,
      "flags": 4,
      "label": "A Sharp",
      "description": "Received A+ ratings for all full tracks ",
      "howto": "Received A+ ratings for all full tracks "
    },
    {
      "id": 18,
      "imageId": 18,
      "cred": 10,
      "flags": 4,
      "label": "Great Stuff",
      "description": "Hit a streak of 10 or more Great moves",
      "howto": "Hit a streak of 10 or more Great moves"
    },
    {
      "id": 19,
      "imageId": 19,
      "cred": 10,
      "flags": 4,
      "label": "Musical Score",
      "description": "Scored over 40,000 in a Normal Mode Solo game",
      "howto": "Scored over 40,000 in a Normal Mode Solo game"
    },
    {
      "id": 20,
      "imageId": 20,
      "cred": 10,
      "flags": 4,
      "label": "Perfect Harmony",
      "description": "Two dancers hit a streak of 10 Perfect moves at the same time ",
      "howto": "Two dancers hit a streak of 10 Perfect moves at the same time "
    },
    {
      "id": 21,
      "imageId": 21,
      "cred": 85,
      "flags": 4,
      "label": "Murder on the Dancefloor",
      "description": "Completed 3 songs on Survival Mode without losing a life",
      "howto": "Completed 3 songs on Survival Mode without losing a life"
    },
    {
      "id": 22,
      "imageId": 22,
      "cred": 10,
      "flags": 4,
      "label": "Served",
      "description": "A Team won Team Battle by 100,000 more points",
      "howto": "A Team won Team Battle by 100,000 more points"
    },
    {
      "id": 23,
      "imageId": 23,
      "cred": 20,
      "flags": 4,
      "label": "Poser",
      "description": "Hit 3 Perfect poses in one song",
      "howto": "Hit 3 Perfect poses in one song"
    },
    {
      "id": 24,
      "imageId": 24,
      "cred": 20,
      "flags": 4,
      "label": "Are We Dancer?",
      "description": "Hit a Perfect pose",
      "howto": "Hit a Perfect pose"
    },
    {
      "id": 25,
      "imageId": 25,
      "cred": 15,
      "flags": 6,
      "label": "Scary World",
      "description": "Danced to all tracks that Mel will join you on stage for, in Solo or 2 Player",
      "howto": "Danced to all tracks that Mel will join you on stage for, in Solo or 2 Player"
    },
    {
      "id": 26,
      "imageId": 26,
      "cred": 20,
      "flags": 4,
      "label": "Dance the Night Away",
      "description": "Completed a dance between Midnight and 6am",
      "howto": "Completed a dance between Midnight and 6am"
    },
    {
      "id": 27,
      "imageId": 27,
      "cred": 20,
      "flags": 6,
      "label": "Love for you",
      "description": "Received an A+ rating in all songs in 80s",
      "howto": "Received an A+ rating in all songs in 80s"
    },
    {
      "id": 28,
      "imageId": 28,
      "cred": 25,
      "flags": 6,
      "label": "Pop Perfection",
      "description": "Received an A+ rating in all songs in Pop",
      "howto": "Received an A+ rating in all songs in Pop"
    },
    {
      "id": 29,
      "imageId": 29,
      "cred": 15,
      "flags": 6,
      "label": "Smooth",
      "description": "Received an A+ rating in all songs in Latin",
      "howto": "Received an A+ rating in all songs in Latin"
    },
    {
      "id": 30,
      "imageId": 30,
      "cred": 20,
      "flags": 6,
      "label": "Dangerous",
      "description": "Received an A+ rating in all songs in Urban",
      "howto": "Received an A+ rating in all songs in Urban"
    },
    {
      "id": 31,
      "imageId": 31,
      "cred": 25,
      "flags": 6,
      "label": "Start The Party",
      "description": "Received an A+ rating in all songs in Party Classics",
      "howto": "Received an A+ rating in all songs in Party Classics"
    },
    {
      "id": 32,
      "imageId": 32,
      "cred": 25,
      "flags": 6,
      "label": "Big Fish Little Fish",
      "description": "Received an A+ rating in all songs in Club",
      "howto": "Received an A+ rating in all songs in Club"
    },
    {
      "id": 33,
      "imageId": 33,
      "cred": 99,
      "flags": 4,
      "label": "I Know This One Backwards",
      "description": "Received an A or above rating with the Dance Bar turned off",
      "howto": "Received an A or above rating with the Dance Bar turned off"
    },
    {
      "id": 34,
      "imageId": 34,
      "cred": 1,
      "flags": 7,
      "label": "Cash Credits",
      "description": "Viewed the credits",
      "howto": "Viewed the credits"
    }
  ]
}