{
  "achievementsPossible": 50,
  "credPossible": 1000,
  "achievements": [
    {
      "id": 1,
      "imageId": 5000,
      "cred": 5,
      "flags": 4,
      "label": "Down But Not Out",
      "description": "Get a hit with 2 strikes in a non-simulated game.",
      "howto": "Get a hit with 2 strikes in a non-simulated game."
    },
    {
      "id": 2,
      "imageId": 5001,
      "cred": 5,
      "flags": 4,
      "label": "Grab Some Pine",
      "description": "Get a strikeout to end the inning in a non-simulated game.",
      "howto": "Get a strikeout to end the inning in a non-simulated game."
    },
    {
      "id": 3,
      "imageId": 5002,
      "cred": 20,
      "flags": 4,
      "label": "Mr. Consistency",
      "description": "Get a hit in all 9 innings in a non-simulated game.",
      "howto": "Get a hit in all 9 innings in a non-simulated game."
    },
    {
      "id": 4,
      "imageId": 5003,
      "cred": 10,
      "flags": 4,
      "label": "A Pitcher's Best Friend",
      "description": "Turn a double play in a non-simulated game.",
      "howto": "Turn a double play in a non-simulated game."
    },
    {
      "id": 5,
      "imageId": 5004,
      "cred": 10,
      "flags": 4,
      "label": "To the Rescue",
      "description": "Get a save with the tying run on base in a non-simulated game.",
      "howto": "Get a save with the tying run on base in a non-simulated game."
    },
    {
      "id": 6,
      "imageId": 5005,
      "cred": 20,
      "flags": 4,
      "label": "A Virtue",
      "description": "Face 10 pitches as the batter in a non-simulated game.",
      "howto": "Face 10 pitches as the batter in a non-simulated game."
    },
    {
      "id": 7,
      "imageId": 5006,
      "cred": 10,
      "flags": 4,
      "label": "Don't Call it a Comeback",
      "description": "Win after being down by 4 after the 6th inning in a non-simulated game.",
      "howto": "Win after being down by 4 after the 6th inning in a non-simulated game."
    },
    {
      "id": 8,
      "imageId": 5007,
      "cred": 15,
      "flags": 4,
      "label": "Take That",
      "description": "Get an RBI after being brushed back off the plate in a non-simulated game.",
      "howto": "Get an RBI after being brushed back off the plate in a non-simulated game."
    },
    {
      "id": 9,
      "imageId": 5008,
      "cred": 15,
      "flags": 4,
      "label": "This is Why I'm Here",
      "description": "Be successful in a major league clutch moment in My Player Mode.",
      "howto": "Be successful in a major league clutch moment in My Player Mode."
    },
    {
      "id": 10,
      "imageId": 5009,
      "cred": 10,
      "flags": 4,
      "label": "Power Grab",
      "description": "Hit 50 HR with your user profile.",
      "howto": "Hit 50 HR with your user profile."
    },
    {
      "id": 11,
      "imageId": 5010,
      "cred": 80,
      "flags": 4,
      "label": "One Man Show",
      "description": "Throw a Perfect Game or a No-Hitter on Pro or higher in a 9 inning game, in a non-simulated game.",
      "howto": "Throw a Perfect Game or a No-Hitter on Pro or higher in a 9 inning game, in a non-simulated game."
    },
    {
      "id": 12,
      "imageId": 5011,
      "cred": 20,
      "flags": 4,
      "label": "Dual Threat",
      "description": "Steal base with pitcher in a non-simulated game.",
      "howto": "Steal base with pitcher in a non-simulated game."
    },
    {
      "id": 13,
      "imageId": 5012,
      "cred": 20,
      "flags": 4,
      "label": "I Came, I Saw...",
      "description": "Hit a Walk-off Home Run in a non-simulated game.",
      "howto": "Hit a Walk-off Home Run in a non-simulated game."
    },
    {
      "id": 14,
      "imageId": 5013,
      "cred": 10,
      "flags": 4,
      "label": "Stooges",
      "description": "Strikeout all three hitters in the inning in a non-simulated game.",
      "howto": "Strikeout all three hitters in the inning in a non-simulated game."
    },
    {
      "id": 15,
      "imageId": 5014,
      "cred": 20,
      "flags": 4,
      "label": "He Taketh Away",
      "description": "Rob a Home Run in a non-simulated game.",
      "howto": "Rob a Home Run in a non-simulated game."
    },
    {
      "id": 16,
      "imageId": 5015,
      "cred": 20,
      "flags": 4,
      "label": "I Like To Be Thorough",
      "description": "Hit for the Cycle in a non-simulated game.",
      "howto": "Hit for the Cycle in a non-simulated game."
    },
    {
      "id": 17,
      "imageId": 5016,
      "cred": 10,
      "flags": 4,
      "label": "No Hole Too Deep",
      "description": "Battle Back: Down 0-2, get walked in a non-simulated game.",
      "howto": "Battle Back: Down 0-2, get walked in a non-simulated game."
    },
    {
      "id": 18,
      "imageId": 5017,
      "cred": 15,
      "flags": 4,
      "label": "My Main Squeeze",
      "description": "Bunt the man home in a non-simulated game.",
      "howto": "Bunt the man home in a non-simulated game."
    },
    {
      "id": 19,
      "imageId": 5018,
      "cred": 20,
      "flags": 4,
      "label": "State Farm™- The Road to Victory",
      "description": "Get 3 consecutive batters on base in a non-simulated game.",
      "howto": "Get 3 consecutive batters on base in a non-simulated game."
    },
    {
      "id": 20,
      "imageId": 5019,
      "cred": 10,
      "flags": 4,
      "label": "Hawkeye",
      "description": "Draw a walk on a full count in a non-simulated game.",
      "howto": "Draw a walk on a full count in a non-simulated game."
    },
    {
      "id": 21,
      "imageId": 5020,
      "cred": 15,
      "flags": 4,
      "label": "You Did What?",
      "description": "Hit a HR with a pitcher in a non-simulated game.",
      "howto": "Hit a HR with a pitcher in a non-simulated game."
    },
    {
      "id": 22,
      "imageId": 5021,
      "cred": 10,
      "flags": 4,
      "label": "Throw First and Aim Later",
      "description": "Miss your throw to first base with 2 outs in a non-simulated game.",
      "howto": "Miss your throw to first base with 2 outs in a non-simulated game."
    },
    {
      "id": 23,
      "imageId": 5022,
      "cred": 10,
      "flags": 4,
      "label": "The Start of Something Special",
      "description": "Lead off an inning by hitting a triple in a non-simulated game.",
      "howto": "Lead off an inning by hitting a triple in a non-simulated game."
    },
    {
      "id": 24,
      "imageId": 5023,
      "cred": 20,
      "flags": 6,
      "label": "The Call",
      "description": "Get called up to the Majors in My Player Mode.",
      "howto": "Get called up to the Majors in My Player Mode."
    },
    {
      "id": 25,
      "imageId": 5024,
      "cred": 10,
      "flags": 6,
      "label": "The Goal",
      "description": "Accomplish a Team Season Goal in My Player Mode.",
      "howto": "Accomplish a Team Season Goal in My Player Mode."
    },
    {
      "id": 26,
      "imageId": 5025,
      "cred": 30,
      "flags": 6,
      "label": "The Top",
      "description": "Become the #1 ranked player in your My Player organization.",
      "howto": "Become the #1 ranked player in your My Player organization."
    },
    {
      "id": 27,
      "imageId": 5026,
      "cred": 40,
      "flags": 6,
      "label": "The Star",
      "description": "Make the All-Star team in My Player Mode.",
      "howto": "Make the All-Star team in My Player Mode."
    },
    {
      "id": 28,
      "imageId": 5027,
      "cred": 10,
      "flags": 4,
      "label": "Back To The Cage",
      "description": "Get a Golden Sombrero (strikeout 4 times in 1 game) in My Player Mode.",
      "howto": "Get a Golden Sombrero (strikeout 4 times in 1 game) in My Player Mode."
    },
    {
      "id": 29,
      "imageId": 5028,
      "cred": 15,
      "flags": 4,
      "label": "Payback",
      "description": "Hit a HR off a former team in My Player Mode.",
      "howto": "Hit a HR off a former team in My Player Mode."
    },
    {
      "id": 30,
      "imageId": 5029,
      "cred": 75,
      "flags": 1,
      "label": "The Hall",
      "description": "Make the Hall of Fame in My Player Mode.",
      "howto": "Make the Hall of Fame in My Player Mode."
    },
    {
      "id": 31,
      "imageId": 5030,
      "cred": 20,
      "flags": 4,
      "label": "The Champs",
      "description": "Win a World Series® in Franchise Mode. (play at least 20 games)",
      "howto": "Win a World Series® in Franchise Mode. (play at least 20 games)"
    },
    {
      "id": 32,
      "imageId": 5031,
      "cred": 80,
      "flags": 4,
      "label": "What's Your Ring Size?",
      "description": "Win a World Series® in My Player Mode.",
      "howto": "Win a World Series® in My Player Mode."
    },
    {
      "id": 33,
      "imageId": 5032,
      "cred": 20,
      "flags": 4,
      "label": "Remember Me",
      "description": "Break a record in Franchise Mode. (play at least 20 games)",
      "howto": "Break a record in Franchise Mode. (play at least 20 games)"
    },
    {
      "id": 34,
      "imageId": 5033,
      "cred": 20,
      "flags": 4,
      "label": "You're Special",
      "description": "Win a season award in Franchise Mode. (play at least 20 games)",
      "howto": "Win a Season award in Franchise Mode. (play at least 20 games)"
    },
    {
      "id": 35,
      "imageId": 5034,
      "cred": 10,
      "flags": 4,
      "label": "A Day in the Life",
      "description": "Play a game of MLB Today.",
      "howto": "Play a game of MLB Today."
    },
    {
      "id": 36,
      "imageId": 5035,
      "cred": 40,
      "flags": 4,
      "label": "Mid-Summer Classic",
      "description": "Play the All-Star game in MLB Today.",
      "howto": "Play the All-Star game in MLB Today."
    },
    {
      "id": 37,
      "imageId": 5036,
      "cred": 20,
      "flags": 4,
      "label": "King of the Hill",
      "description": "Get to the top of the Best of the Best ladder in Home Run Derby® Mode.",
      "howto": "Get to the top of the Best of the Best ladder in Home Run Derby® Mode."
    },
    {
      "id": 38,
      "imageId": 5037,
      "cred": 10,
      "flags": 4,
      "label": "My Fellow Man",
      "description": "Complete and win an online league game.",
      "howto": "Complete and win an online league game."
    },
    {
      "id": 39,
      "imageId": 5038,
      "cred": 15,
      "flags": 4,
      "label": "The Team to Beat",
      "description": "Beat the San Francisco Giants in a completed online match.",
      "howto": "Beat the San Francisco Giants in a completed online match."
    },
    {
      "id": 40,
      "imageId": 5039,
      "cred": 10,
      "flags": 4,
      "label": "Count it",
      "description": "Complete and win a ranked match.",
      "howto": "Complete and win a ranked match."
    },
    {
      "id": 41,
      "imageId": 5040,
      "cred": 20,
      "flags": 4,
      "label": "EpidemiK",
      "description": "Complete an online game against a 2K developer or a player who already has this achievement.",
      "howto": "Complete an online game against a 2K developer or a player who already has this achievement."
    },
    {
      "id": 42,
      "imageId": 5041,
      "cred": 10,
      "flags": 4,
      "label": "Upset Alert",
      "description": "Use the Pittsburgh Pirates in a completed ranked match.",
      "howto": "Use the Pittsburgh Pirates in a completed ranked match."
    },
    {
      "id": 43,
      "imageId": 5042,
      "cred": 20,
      "flags": 4,
      "label": "The Road to Greatness",
      "description": "Complete and win 3 ranked matches in a row.",
      "howto": "Complete and win 3 ranked matches in a row."
    },
    {
      "id": 44,
      "imageId": 5043,
      "cred": 10,
      "flags": 4,
      "label": "The Spice of Life",
      "description": "Play 10 ranked matches using 10 different teams.",
      "howto": "Play 10 ranked matches using 10 different teams."
    },
    {
      "id": 45,
      "imageId": 5044,
      "cred": 20,
      "flags": 4,
      "label": "Domination",
      "description": "Strikeout 200 batters with your user profile.",
      "howto": "Strikeout 200 batters with your user profile."
    },
    {
      "id": 46,
      "imageId": 5045,
      "cred": 20,
      "flags": 4,
      "label": "Production",
      "description": "Drive in 250 RBI with your user profile.",
      "howto": "Drive in 250 RBI with your user profile."
    },
    {
      "id": 48,
      "imageId": 5047,
      "cred": 10,
      "flags": 4,
      "label": "Learning the Ropes",
      "description": "Achieve gold in all the drills.",
      "howto": "Achieve gold in all the drills."
    },
    {
      "id": 51,
      "imageId": 5050,
      "cred": 15,
      "flags": 1,
      "label": "Your Day",
      "description": "Win player of the game in an MLB game in My Player Mode.",
      "howto": "Win player of the game in an MLB game in My Player Mode."
    },
    {
      "id": 52,
      "imageId": 5051,
      "cred": 25,
      "flags": 1,
      "label": "2-peat",
      "description": "Win Back to Back World Series® in My Player Mode.",
      "howto": "Win Back to Back World Series® in My Player Mode."
    },
    {
      "id": 53,
      "imageId": 5052,
      "cred": 25,
      "flags": 1,
      "label": "A Job Well Done",
      "description": "Win 100+ games in a season in My Player Mode.",
      "howto": "Win 100+ games in a season in My Player Mode."
    }
  ]
}