{
  "achievementsPossible": 39,
  "credPossible": 1000,
  "achievements": [
    {
      "id": 1,
      "imageId": 1,
      "cred": 15,
      "flags": 1,
      "label": "NEW ORDER 1-1 CLEAR",
      "description": "CLEARED STAGE 1-1 IN NEW ORDER MODE",
      "howto": "CLEAR STAGE 1-1 IN NEW ORDER MODE"
    },
    {
      "id": 2,
      "imageId": 2,
      "cred": 15,
      "flags": 1,
      "label": "NEW ORDER 1-2 CLEAR",
      "description": "CLEARED STAGE 1-2 IN NEW ORDER MODE",
      "howto": "CLEAR STAGE 1-2 IN NEW ORDER MODE"
    },
    {
      "id": 3,
      "imageId": 3,
      "cred": 15,
      "flags": 1,
      "label": "NEW ORDER 1-3 CLEAR",
      "description": "CLEARED STAGE 1-3 IN NEW ORDER MODE",
      "howto": "CLEAR STAGE 1-3 IN NEW ORDER MODE"
    },
    {
      "id": 4,
      "imageId": 4,
      "cred": 15,
      "flags": 1,
      "label": "NEW ORDER 1-4 CLEAR",
      "description": "CLEARED STAGE 1-4 IN NEW ORDER MODE",
      "howto": "CLEAR STAGE 1-4 IN NEW ORDER MODE"
    },
    {
      "id": 5,
      "imageId": 5,
      "cred": 15,
      "flags": 1,
      "label": "NEW ORDER 1-5 CLEAR",
      "description": "CLEARED STAGE 1-5 IN NEW ORDER MODE",
      "howto": "CLEAR STAGE 1-5 IN NEW ORDER MODE"
    },
    {
      "id": 6,
      "imageId": 6,
      "cred": 15,
      "flags": 1,
      "label": "NEW ORDER 2-1 CLEAR",
      "description": "CLEARED STAGE 2-1 IN NEW ORDER MODE",
      "howto": "CLEAR STAGE 2-1 IN NEW ORDER MODE"
    },
    {
      "id": 7,
      "imageId": 7,
      "cred": 15,
      "flags": 1,
      "label": "NEW ORDER 2-2 CLEAR",
      "description": "CLEARED STAGE 2-2 IN NEW ORDER MODE",
      "howto": "CLEAR STAGE 2-2 IN NEW ORDER MODE"
    },
    {
      "id": 8,
      "imageId": 8,
      "cred": 15,
      "flags": 1,
      "label": "NEW ORDER 2-3 CLEAR",
      "description": "CLEARED STAGE 2-3 IN NEW ORDER MODE",
      "howto": "CLEAR STAGE 2-3 IN NEW ORDER MODE"
    },
    {
      "id": 9,
      "imageId": 9,
      "cred": 15,
      "flags": 1,
      "label": "NEW ORDER 2-4 CLEAR",
      "description": "CLEARED STAGE 2-4 IN NEW ORDER MODE",
      "howto": "CLEAR STAGE 2-4 IN NEW ORDER MODE"
    },
    {
      "id": 10,
      "imageId": 10,
      "cred": 15,
      "flags": 1,
      "label": "NEW ORDER 2-5 CLEAR",
      "description": "CLEARED STAGE 2-5 IN NEW ORDER MODE",
      "howto": "CLEAR STAGE 2-5 IN NEW ORDER MODE"
    },
    {
      "id": 11,
      "imageId": 11,
      "cred": 15,
      "flags": 1,
      "label": "NEW ORDER EXTRA START",
      "description": "ENTERED THE NEW ORDER EXTRA MODE",
      "howto": "ENTER THE NEW ORDER EXTRA MODE"
    },
    {
      "id": 12,
      "imageId": 12,
      "cred": 30,
      "flags": 1,
      "label": "NEW ORDER NORMAL CLEAR",
      "description": "CLEARED NEW ORDER MODE",
      "howto": "CLEAR NEW ORDER MODE"
    },
    {
      "id": 13,
      "imageId": 17,
      "cred": 80,
      "flags": 1,
      "label": "NEW ORDER EXTRA CLEAR",
      "description": "CLEARED THE NEW ORDER EXTRA MODE",
      "howto": "CLEAR THE NEW ORDER EXTRA MODE"
    },
    {
      "id": 14,
      "imageId": 14,
      "cred": 15,
      "flags": 1,
      "label": "NEW ORDER EASY CLEAR",
      "description": "CLEARED NEW ORDER MODE IN EASY DIFFICULTY",
      "howto": "CLEAR NEW ORDER MODE IN EASY DIFFICULTY"
    },
    {
      "id": 15,
      "imageId": 15,
      "cred": 30,
      "flags": 1,
      "label": "NEW ORDER NORMAL CLEAR",
      "description": "CLEARED NEW ORDER MODE IN NORMAL DIFFICULTY",
      "howto": "CLEAR NEW ORDER MODE IN NORMAL DIFFICULTY"
    },
    {
      "id": 16,
      "imageId": 16,
      "cred": 80,
      "flags": 1,
      "label": "NEW ORDER HARD CLEAR",
      "description": "CLEARED NEW ORDER MODE IN HARD DIFFICULTY",
      "howto": "CLEAR NEW ORDER MODE IN HARD DIFFICULTY"
    },
    {
      "id": 17,
      "imageId": 13,
      "cred": 15,
      "flags": 1,
      "label": "ARCADE 1-1 CLEAR",
      "description": "CLEARED STAGE 1-1 IN ARCADE MODE",
      "howto": "CLEAR STAGE 1-1 IN ARCADE MODE"
    },
    {
      "id": 18,
      "imageId": 18,
      "cred": 15,
      "flags": 1,
      "label": "ARCADE 1-2 CLEAR",
      "description": "CLEARED STAGE 1-2 IN ARCADE MODE",
      "howto": "CLEAR STAGE 1-2 IN ARCADE MODE"
    },
    {
      "id": 19,
      "imageId": 19,
      "cred": 15,
      "flags": 1,
      "label": "ARCADE 1-3 CLEAR",
      "description": "CLEARED STAGE 1-3 IN ARCADE MODE",
      "howto": "CLEAR STAGE 1-3 IN ARCADE MODE"
    },
    {
      "id": 20,
      "imageId": 20,
      "cred": 15,
      "flags": 1,
      "label": "ARCADE 1-4 CLEAR",
      "description": "CLEARED STAGE 1-4 IN ARCADE MODE",
      "howto": "CLEAR STAGE 1-4 IN ARCADE MODE"
    },
    {
      "id": 21,
      "imageId": 21,
      "cred": 15,
      "flags": 1,
      "label": "ARCADE 1-5 CLEAR",
      "description": "CLEARED STAGE 1-5 IN ARCADE MODE",
      "howto": "CLEAR STAGE 1-5 IN ARCADE MODE"
    },
    {
      "id": 22,
      "imageId": 22,
      "cred": 15,
      "flags": 1,
      "label": "ARCADE 2-1 CLEAR",
      "description": "CLEARED STAGE 2-1 IN ARCADE MODE",
      "howto": "CLEAR STAGE 2-1 IN ARCADE MODE"
    },
    {
      "id": 23,
      "imageId": 23,
      "cred": 15,
      "flags": 1,
      "label": "ARCADE 2-2 CLEAR",
      "description": "CLEARED STAGE 2-2 IN ARCADE MODE",
      "howto": "CLEAR STAGE 2-2 IN ARCADE MODE"
    },
    {
      "id": 24,
      "imageId": 24,
      "cred": 15,
      "flags": 1,
      "label": "ARCADE 2-3 CLEAR",
      "description": "CLEARED STAGE 2-3 IN ARCADE MODE",
      "howto": "CLEAR STAGE 2-3 IN ARCADE MODE"
    },
    {
      "id": 25,
      "imageId": 25,
      "cred": 15,
      "flags": 1,
      "label": "ARCADE 2-4 CLEAR",
      "description": "CLEARED STAGE 2-4 IN ARCADE MODE",
      "howto": "CLEAR STAGE 2-4 IN ARCADE MODE"
    },
    {
      "id": 26,
      "imageId": 26,
      "cred": 15,
      "flags": 1,
      "label": "ARCADE 2-5 CLEAR",
      "description": "CLEARED STAGE 2-5 IN ARCADE MODE",
      "howto": "CLEAR STAGE 2-5 IN ARCADE MODE"
    },
    {
      "id": 27,
      "imageId": 27,
      "cred": 15,
      "flags": 1,
      "label": "ARCADE EXTRA START",
      "description": "ENTERED THE ARCADE EXTRA MODE",
      "howto": "ENTER THE ARCADE EXTRA MODE"
    },
    {
      "id": 28,
      "imageId": 28,
      "cred": 30,
      "flags": 1,
      "label": "ARCADE NORMAL CLEAR",
      "description": "CLEARED ARCADE MODE",
      "howto": "CLEAR ARCADE MODE"
    },
    {
      "id": 29,
      "imageId": 29,
      "cred": 80,
      "flags": 1,
      "label": "ARCADE EXTRA CLEAR",
      "description": "CLEARED THE ARCADE EXTRA MODE",
      "howto": "CLEAR THE ARCADE EXTRA MODE"
    },
    {
      "id": 30,
      "imageId": 30,
      "cred": 15,
      "flags": 1,
      "label": "ARCADE EASY CLEAR",
      "description": "CLEARED ARCADE MODE IN EASY DIFFICULTY",
      "howto": "CLEAR ARCADE MODE IN EASY DIFFICULTY"
    },
    {
      "id": 31,
      "imageId": 31,
      "cred": 30,
      "flags": 1,
      "label": "ARCADE NORMAL CLEAR",
      "description": "CLEARED ARCADE MODE IN NORMAL DIFFICULTY",
      "howto": "CLEAR ARCADE MODE IN NORMAL DIFFICULTY"
    },
    {
      "id": 32,
      "imageId": 32,
      "cred": 80,
      "flags": 1,
      "label": "ARCADE HARD CLEAR",
      "description": "CLEARED ARCADE MODE IN HARD DIFFICULTY",
      "howto": "CLEAR ARCADE MODE IN HARD DIFFICULTY"
    },
    {
      "id": 33,
      "imageId": 33,
      "cred": 15,
      "flags": 1,
      "label": "ENLISTMENT",
      "description": "ENTERED THE MENU SCREEN",
      "howto": "ENTER MENU SCREEN"
    },
    {
      "id": 34,
      "imageId": 34,
      "cred": 15,
      "flags": 1,
      "label": "RANK IN",
      "description": "PLACED IN THE LOCAL SCOREBOARD",
      "howto": "PLACE IN THE LOCAL SCOREBOARD"
    },
    {
      "id": 35,
      "imageId": 35,
      "cred": 30,
      "flags": 1,
      "label": "ACE SHOT",
      "description": "DESTROYED A SPECIFIC NUMBER OF ENEMIES WITH THE OPTION WEAPON",
      "howto": "DESTROY A SPECIFIC NUMBER OF ENEMIES WITH THE OPTION WEAPON"
    },
    {
      "id": 36,
      "imageId": 36,
      "cred": 15,
      "flags": 1,
      "label": "WAR CONTRIBUTION",
      "description": "EARNED RECOGNITION FOR HIGH CONTRIBUTION PERCENTAGE",
      "howto": "SCORE A SPECIFIC CONTRIBUTION PERCENTAGE OR HIGHER"
    },
    {
      "id": 37,
      "imageId": 37,
      "cred": 15,
      "flags": 1,
      "label": "TOP GUN",
      "description": "EARNED RECOGNITION FOR HIGH SCORING SKILL ASSESSMENT",
      "howto": "SCORE A SPECIFIC SKILL ASSESSMENT PERCENTAGE OR HIGHER"
    },
    {
      "id": 38,
      "imageId": 38,
      "cred": 30,
      "flags": 1,
      "label": "EARTH-FRIENDLY",
      "description": "EARNED RECOGNITION FOR FUEL CONSERVATION",
      "howto": "SCORE A SPECIFIC AMOUNT OR HIGHER FOR FUEL CONSERVATION"
    },
    {
      "id": 39,
      "imageId": 39,
      "cred": 80,
      "flags": 1,
      "label": "STOCKPILING ARMS",
      "description": "EARNED RECOGNITION FOR CONSERVING AMMUNITION",
      "howto": "SCORE A SPECIFIC AMOUNT OR HIGHER FOR AMMUNITION CONSERVATION"
    }
  ]
}