{
  "achievementsPossible": 12,
  "credPossible": 200,
  "achievements": [
    {
      "id": 1,
      "imageId": 6,
      "cred": 5,
      "flags": 1,
      "label": "Graduation Party",
      "description": "Complete the Interactive Tutorial and pass the test.",
      "howto": "Complete the Interactive Tutorial and pass the test."
    },
    {
      "id": 2,
      "imageId": 13,
      "cred": 5,
      "flags": 1,
      "label": "Victory Party",
      "description": "Successfully call UNO and win a round in the same turn in any mode.",
      "howto": "Successfully call UNO and win a round in the same turn in any mode."
    },
    {
      "id": 3,
      "imageId": 9,
      "cred": 5,
      "flags": 1,
      "label": "Surprise Party",
      "description": "Play 10 Scramble cards.",
      "howto": "Play 10 Scramble cards."
    },
    {
      "id": 4,
      "imageId": 5,
      "cred": 10,
      "flags": 1,
      "label": "Party of One",
      "description": "Win 10 rounds in Elimination mode by eliminating all other players.",
      "howto": "Win 10 rounds in Elimination mode by eliminating all other players."
    },
    {
      "id": 5,
      "imageId": 10,
      "cred": 20,
      "flags": 1,
      "label": "Private Party",
      "description": "Play 3 Skip cards in a single round in Partner mode.",
      "howto": "Play 3 Skip cards in a single round in Partner mode."
    },
    {
      "id": 6,
      "imageId": 4,
      "cred": 20,
      "flags": 1,
      "label": "Party Time",
      "description": "Win 5 games using the \"Fast\" house rule.",
      "howto": "Win 5 games using the \"Fast\" house rule."
    },
    {
      "id": 7,
      "imageId": 14,
      "cred": 20,
      "flags": 1,
      "label": "Party Platter",
      "description": "Play at least one of each command card in a single round.",
      "howto": "Play at least one of each command card in a single round."
    },
    {
      "id": 8,
      "imageId": 11,
      "cred": 20,
      "flags": 1,
      "label": "Block Party",
      "description": "Win 5 local four-player matches.",
      "howto": "Win 5 local four-player matches."
    },
    {
      "id": 9,
      "imageId": 12,
      "cred": 20,
      "flags": 1,
      "label": "Life of the Party",
      "description": "Win 10 Xbox LIVE matches in any game mode.",
      "howto": "Win 10 Xbox LIVE matches in any game mode."
    },
    {
      "id": 10,
      "imageId": 3,
      "cred": 20,
      "flags": 1,
      "label": "Party's Over",
      "description": "Score 250 points or more in a single round.",
      "howto": "Score 250 points or more in a single round."
    },
    {
      "id": 11,
      "imageId": 8,
      "cred": 25,
      "flags": 1,
      "label": "Party Planner",
      "description": "Discard 9 or more cards in one turn.",
      "howto": "Discard 9 or more cards in one turn."
    },
    {
      "id": 12,
      "imageId": 7,
      "cred": 30,
      "flags": 1,
      "label": "Party Decorations",
      "description": "Change the color of the discard pile 5 or more times in one turn.",
      "howto": "Change the color of the discard pile 5 or more times in one turn."
    }
  ]
}