{
  "achievementsPossible": 25,
  "credPossible": 1000,
  "achievements": [
    {
      "id": 14,
      "imageId": 3,
      "cred": 30,
      "flags": 1,
      "label": "シルバースター",
      "description": "全てのミッションをEASYでクリアせよ。\r\n",
      "howto": "全てのミッションをEASYでクリアせよ。\r\n"
    },
    {
      "id": 16,
      "imageId": 3,
      "cred": 30,
      "flags": 1,
      "label": "ゴールドスター",
      "description": "全てのミッションをNORMALでクリアせよ。\r\n",
      "howto": "全てのミッションをNORMALでクリアせよ。\r\n"
    },
    {
      "id": 19,
      "imageId": 3,
      "cred": 40,
      "flags": 4,
      "label": "アサルトマスター(シングル)",
      "description": "アサルト兵で、戦死せずに敵を30人倒せ。",
      "howto": "アサルト兵で、戦死せずに敵を30人倒せ。"
    },
    {
      "id": 20,
      "imageId": 3,
      "cred": 40,
      "flags": 4,
      "label": "マスタースナイパー(シングル)",
      "description": "スナイパー兵で、戦死せずに敵を30人倒せ。",
      "howto": "スナイパー兵で、戦死せずに敵を30人倒せ。"
    },
    {
      "id": 21,
      "imageId": 3,
      "cred": 40,
      "flags": 4,
      "label": "シングル卒業",
      "description": "シングルモードで一定の評価を得よ。",
      "howto": "シングルモードで一定の評価を得よ。"
    },
    {
      "id": 22,
      "imageId": 3,
      "cred": 20,
      "flags": 4,
      "label": "シャープシューター(シングル)",
      "description": "ヘッドショットで、戦死せずに敵を連続20人倒せ。",
      "howto": "ヘッドショットで、戦死せずに敵を連続20人倒せ。"
    },
    {
      "id": 23,
      "imageId": 3,
      "cred": 20,
      "flags": 4,
      "label": "エースパイロット(シングル)",
      "description": "MSに搭乗し、敵MSを30機撃破せよ。",
      "howto": "MSに搭乗し、敵MSを30機撃破せよ。"
    },
    {
      "id": 26,
      "imageId": 3,
      "cred": 20,
      "flags": 4,
      "label": "メインパイロット(シングル)",
      "description": "MSに搭乗し、敵MSを10機撃破せよ。",
      "howto": "MSに搭乗し、敵MSを10機撃破せよ。"
    },
    {
      "id": 27,
      "imageId": 3,
      "cred": 20,
      "flags": 1,
      "label": "キング オブ ハート(シングル)",
      "description": "MSに搭乗し、近接武器のみで敵兵器を10機撃破せよ。",
      "howto": "MSに搭乗し、近接武器のみで敵兵器を10機撃破せよ。"
    },
    {
      "id": 29,
      "imageId": 3,
      "cred": 50,
      "flags": 1,
      "label": "プラチナスター",
      "description": "全てのミッションをHARDでクリアせよ。",
      "howto": "全てのミッションをHARDでクリアせよ。"
    },
    {
      "id": 32,
      "imageId": 3,
      "cred": 100,
      "flags": 4,
      "label": "ニュータイプ(シングル)",
      "description": "MS搭乗時に一度も撃墜されず、敵MSを50機撃破せよ。",
      "howto": "MS搭乗時に一度も撃墜されず、敵MSを50機撃破せよ。"
    },
    {
      "id": 33,
      "imageId": 6,
      "cred": 30,
      "flags": 4,
      "label": "アサルトマスター(マルチ)",
      "description": "アサルト兵で、戦死せずに敵を10人倒せ。",
      "howto": "アサルト兵で、戦死せずに敵を10人倒せ。"
    },
    {
      "id": 34,
      "imageId": 6,
      "cred": 30,
      "flags": 4,
      "label": "マスタースナイパー(マルチ)",
      "description": "スナイパー兵で、戦死せずに敵を10人倒せ。",
      "howto": "スナイパー兵で、戦死せずに敵を10人倒せ。"
    },
    {
      "id": 35,
      "imageId": 6,
      "cred": 30,
      "flags": 4,
      "label": "コンバットマスター(マルチ)\r\n",
      "description": "アンチMS＆タンク兵で、戦死せずに敵を10人倒せ。",
      "howto": "アンチMS＆タンク兵で、戦死せずに敵を10人倒せ。"
    },
    {
      "id": 36,
      "imageId": 6,
      "cred": 60,
      "flags": 7,
      "label": "ベテラン",
      "description": "100回ゲームセッションに参加せよ。",
      "howto": "100回ゲームセッションに参加せよ。"
    },
    {
      "id": 37,
      "imageId": 6,
      "cred": 100,
      "flags": 7,
      "label": "マスター",
      "description": "500回ゲームセッションに参加せよ。",
      "howto": "500回ゲームセッションに参加せよ。"
    },
    {
      "id": 38,
      "imageId": 6,
      "cred": 20,
      "flags": 4,
      "label": "ビークルエキスパート(マルチ)",
      "description": "搭乗兵器を使い、戦死せずに敵を5人倒せ。",
      "howto": "搭乗兵器を使い、戦死せずに敵を5人倒せ。"
    },
    {
      "id": 39,
      "imageId": 6,
      "cred": 20,
      "flags": 4,
      "label": "シャープシューター(マルチ)",
      "description": "１ラウンド中に、ヘッドショットで敵を10人倒せ。",
      "howto": "１ラウンド中に、ヘッドショットで敵を10人倒せ。"
    },
    {
      "id": 40,
      "imageId": 6,
      "cred": 20,
      "flags": 4,
      "label": "エースパイロット(マルチ)",
      "description": "１ラウンド中にMSに搭乗状態で、敵MSを10機撃破せよ。",
      "howto": "１ラウンド中にMSに搭乗状態で、敵MSを10機撃破せよ。"
    },
    {
      "id": 41,
      "imageId": 6,
      "cred": 20,
      "flags": 4,
      "label": "MSハンター(マルチ)",
      "description": "１ラウンド中に、搭乗兵器を使用せず敵MSを3機撃破せよ。",
      "howto": "１ラウンド中に、搭乗兵器を使用せず敵MSを3機撃破せよ。"
    },
    {
      "id": 42,
      "imageId": 6,
      "cred": 20,
      "flags": 4,
      "label": "キング オブ ハート(マルチ)",
      "description": "１ラウンド中にMSに搭乗状態で、近接武器のみで敵兵器を10機撃破せよ。",
      "howto": "１ラウンド中にMSに搭乗状態で、近接武器のみで敵兵器を10機撃破せよ。"
    },
    {
      "id": 43,
      "imageId": 6,
      "cred": 30,
      "flags": 7,
      "label": "ドレッドノート",
      "description": "10回ゲームセッションをトップ成績で終了せよ。",
      "howto": "10回ゲームセッションをトップ成績で終了せよ。"
    },
    {
      "id": 53,
      "imageId": 6,
      "cred": 50,
      "flags": 7,
      "label": "プレデター",
      "description": "30回ゲームセッションをトップ成績で終了せよ。",
      "howto": "30回ゲームセッションをトップ成績で終了せよ。"
    },
    {
      "id": 54,
      "imageId": 6,
      "cred": 60,
      "flags": 4,
      "label": "MSキラー(マルチ)",
      "description": "搭乗兵器を使用せず、敵MSを累計50機撃破せよ。",
      "howto": "搭乗兵器を使用せず、敵MSを累計50機撃破せよ。"
    },
    {
      "id": 55,
      "imageId": 6,
      "cred": 100,
      "flags": 4,
      "label": "ニュータイプ(マルチ)",
      "description": "MS搭乗状態で一度も撃墜されず、敵MSを累計78機撃破せよ。",
      "howto": "MS搭乗状態で一度も撃墜されず、敵MSを累計78機撃破せよ。"
    }
  ]
}