{
  "achievementsPossible": 50,
  "credPossible": 1000,
  "achievements": [
    {
      "id": 1,
      "imageId": 10,
      "cred": 20,
      "flags": 1,
      "label": "Ain't No Thang",
      "description": "Dodge ten homing missiles without dying (Offline)",
      "howto": "Dodge ten homing missiles without dying (Offline)"
    },
    {
      "id": 2,
      "imageId": 36,
      "cred": 10,
      "flags": 1,
      "label": "Dodge This",
      "description": "Kill an enemy with a scoped bullet (Offline)",
      "howto": "Kill an enemy with a scoped bullet (Offline)"
    },
    {
      "id": 3,
      "imageId": 37,
      "cred": 10,
      "flags": 1,
      "label": "Catch!",
      "description": "Kill one enemy using physics (Offline)",
      "howto": "Kill one enemy using physics (Offline)"
    },
    {
      "id": 4,
      "imageId": 38,
      "cred": 10,
      "flags": 1,
      "label": "Getting Hairy",
      "description": "Perfectly deflect a scoped bullet (Offline)",
      "howto": "Perfectly deflect a scoped bullet (Offline)"
    },
    {
      "id": 5,
      "imageId": 50,
      "cred": 10,
      "flags": 1,
      "label": "One Inch Kick",
      "description": "Kill an enemy with your feet (Offline)",
      "howto": "Kill an enemy with your feet (Offline)"
    },
    {
      "id": 6,
      "imageId": 39,
      "cred": 10,
      "flags": 1,
      "label": "I Come From A Land Down Under",
      "description": "Kill an enemy with a Boomerang boosted by a Force Device (Offline)",
      "howto": "Kill an enemy with a Boomerang boosted by a Force Device (Offline)"
    },
    {
      "id": 7,
      "imageId": 51,
      "cred": 10,
      "flags": 1,
      "label": "They do Flash and Bang!",
      "description": "Blind one enemy with one flashbang (Offline)",
      "howto": "Blind one enemy with one flashbang (Offline)"
    },
    {
      "id": 8,
      "imageId": 11,
      "cred": 50,
      "flags": 1,
      "label": "Got the Moves",
      "description": "Reach level 10 dance (Offline)",
      "howto": "Reach level 10 dance (Offline)"
    },
    {
      "id": 9,
      "imageId": 12,
      "cred": 20,
      "flags": 1,
      "label": "Pogo Stick",
      "description": "Kill two enemies without touching the ground (Offline)",
      "howto": "Kill two enemies without touching the ground (Offline)"
    },
    {
      "id": 10,
      "imageId": 52,
      "cred": 10,
      "flags": 1,
      "label": "Kicking it Around",
      "description": "Kill an enemy with a kicked grenade (Offline)",
      "howto": "Kill an enemy with a kicked grenade (Offline)"
    },
    {
      "id": 11,
      "imageId": 13,
      "cred": 10,
      "flags": 1,
      "label": "Missed Me",
      "description": "Dodge a homing missile (Offline)",
      "howto": "Dodge a homing missile (Offline)"
    },
    {
      "id": 12,
      "imageId": 21,
      "cred": 20,
      "flags": 1,
      "label": "Team Spirit",
      "description": "Win one round of Team-Strike with whole team surviving (Offline)",
      "howto": "Win one round of Team-Strike with whole team surviving (Offline)"
    },
    {
      "id": 13,
      "imageId": 14,
      "cred": 20,
      "flags": 1,
      "label": "Stayin' Alive",
      "description": "Win a deathmatch without dying a single time (Offline)",
      "howto": "Win a deathmatch without dying a single time (Offline)"
    },
    {
      "id": 14,
      "imageId": 18,
      "cred": 10,
      "flags": 1,
      "label": "Sharing is Caring",
      "description": "Heal two players with one nano dispenser (Offline)",
      "howto": "Heal two players with one nano dispenser (Offline)"
    },
    {
      "id": 15,
      "imageId": 15,
      "cred": 10,
      "flags": 1,
      "label": "Stay Out Of Trouble Bopo",
      "description": "Protect Bopo in Survival (Offline)",
      "howto": "Protect Bopo in Survival (Offline)"
    },
    {
      "id": 16,
      "imageId": 16,
      "cred": 10,
      "flags": 1,
      "label": "Rolling has Many Uses",
      "description": "Kill an enemy with a deflected bullet (Offline)",
      "howto": "Kill an enemy with a deflected bullet (Offline)"
    },
    {
      "id": 17,
      "imageId": 17,
      "cred": 10,
      "flags": 1,
      "label": "Faster than Most",
      "description": "Complete a speed challenge under mountainhammer time (Offline)",
      "howto": "Complete a speed challenge under mountainhammer time (Offline)"
    },
    {
      "id": 18,
      "imageId": 19,
      "cred": 20,
      "flags": 1,
      "label": "Intergalactic rodeo",
      "description": "Tame a Sabretooth Hamster (Offline)",
      "howto": "Tame a Sabretooth Hamster (Offline)"
    },
    {
      "id": 19,
      "imageId": 47,
      "cred": 10,
      "flags": 1,
      "label": "Beating a Rock",
      "description": "Mine one block (Offline)",
      "howto": "Mine one block (Offline)"
    },
    {
      "id": 20,
      "imageId": 48,
      "cred": 10,
      "flags": 1,
      "label": "That's How I Roll",
      "description": "Kill an enemy while rolling (Offline)",
      "howto": "Kill an enemy while rolling (Offline)"
    },
    {
      "id": 21,
      "imageId": 49,
      "cred": 20,
      "flags": 1,
      "label": "18 months in Prison",
      "description": "Hack one Computer (Offline)",
      "howto": "Hack one Computer (Offline)"
    },
    {
      "id": 22,
      "imageId": 20,
      "cred": 10,
      "flags": 1,
      "label": "Keeping Cautious",
      "description": "Win two Team-Strike rounds in a row without dying (Offline)",
      "howto": "Win two Team-Strike rounds in a row without dying (Offline)"
    },
    {
      "id": 23,
      "imageId": 32,
      "cred": 70,
      "flags": 1,
      "label": "Brawn",
      "description": "Complete all combat challenge maps (Offline)",
      "howto": "Complete all combat challenge maps (Offline)"
    },
    {
      "id": 24,
      "imageId": 35,
      "cred": 10,
      "flags": 1,
      "label": "That's How I Punch",
      "description": "Kill an enemy with a punch to the head while rolling in the air (Offline)",
      "howto": "Kill an enemy with a punch to the head while rolling in the air (Offline)"
    },
    {
      "id": 25,
      "imageId": 56,
      "cred": 10,
      "flags": 1,
      "label": "Practice makes Perfect",
      "description": "Boost one reload (Offline)",
      "howto": "Boost one reload (Offline)"
    },
    {
      "id": 26,
      "imageId": 57,
      "cred": 10,
      "flags": 1,
      "label": "Two for One",
      "description": "Kill two enemies with one bullet (Offline)",
      "howto": "Kill two enemies with one bullet (Offline)"
    },
    {
      "id": 27,
      "imageId": 22,
      "cred": 10,
      "flags": 1,
      "label": "Faster Than Average",
      "description": "Complete a speed challenge under par time (Offline)",
      "howto": "Complete a speed challenge under par time (Offline)"
    },
    {
      "id": 28,
      "imageId": 23,
      "cred": 10,
      "flags": 1,
      "label": "Pacifist Commando",
      "description": "Beat a combat challenge without firing a weapon or throwable (Offline)",
      "howto": "Beat a combat challenge without firing a weapon or throwable (Offline)"
    },
    {
      "id": 29,
      "imageId": 58,
      "cred": 20,
      "flags": 1,
      "label": "Good Samaritan",
      "description": "Free one prisoner (Offline)",
      "howto": "Free one prisoner (Offline)"
    },
    {
      "id": 30,
      "imageId": 24,
      "cred": 70,
      "flags": 1,
      "label": "Making Darwin Proud",
      "description": "Win TS-match without dying (Offline)",
      "howto": "Win TS-match without dying (Offline)"
    },
    {
      "id": 31,
      "imageId": 25,
      "cred": 10,
      "flags": 1,
      "label": "Overcharged",
      "description": "Kill enemy with klonk (Offline)",
      "howto": "Kill enemy with klonk (Offline)"
    },
    {
      "id": 32,
      "imageId": 26,
      "cred": 100,
      "flags": 1,
      "label": "Respectable in all Aspects",
      "description": "Unlock all unlocks (Offline)",
      "howto": "Unlock all unlocks (Offline)"
    },
    {
      "id": 33,
      "imageId": 27,
      "cred": 70,
      "flags": 1,
      "label": "Blitz",
      "description": "Complete all speed challenge maps (Offline)",
      "howto": "Complete all speed challenge maps (Offline)"
    },
    {
      "id": 34,
      "imageId": 53,
      "cred": 10,
      "flags": 1,
      "label": "Timing is Everything",
      "description": "Perfectly deflect a bullet (Offline)",
      "howto": "Perfectly deflect a bullet (Offline)"
    },
    {
      "id": 35,
      "imageId": 54,
      "cred": 10,
      "flags": 1,
      "label": "Doublesplosion",
      "description": "Kill two enemies at once (Offline)",
      "howto": "Kill two enemies at once (Offline)"
    },
    {
      "id": 36,
      "imageId": 28,
      "cred": 10,
      "flags": 1,
      "label": "Keep It Secret, Keep It Safe",
      "description": "Find one secret (Offline)",
      "howto": "Find one secret (Offline)"
    },
    {
      "id": 37,
      "imageId": 55,
      "cred": 10,
      "flags": 1,
      "label": "Cerebral Player",
      "description": "Finish survival round as brain (Offline)",
      "howto": "Finish survival round as brain (Offline)"
    },
    {
      "id": 38,
      "imageId": 29,
      "cred": 10,
      "flags": 1,
      "label": "What Goes Around...",
      "description": "Kill an enemy with a punched grenade (Offline)",
      "howto": "Kill an enemy with a punched grenade (Offline)"
    },
    {
      "id": 39,
      "imageId": 40,
      "cred": 10,
      "flags": 1,
      "label": "Doing it Yourself",
      "description": "Buy one Upgrade (Offline)",
      "howto": "Buy one Upgrade (Offline)"
    },
    {
      "id": 40,
      "imageId": 30,
      "cred": 70,
      "flags": 1,
      "label": "Let Them Come",
      "description": "Complete survival game without dying (Offline)",
      "howto": "Complete survival game without dying (Offline)"
    },
    {
      "id": 41,
      "imageId": 31,
      "cred": 10,
      "flags": 1,
      "label": "Ace",
      "description": "Wiped the entire opposing team in Team-Strike (Offline)",
      "howto": "Wiped the entire opposing team in Team-Strike (Offline)"
    },
    {
      "id": 42,
      "imageId": 45,
      "cred": 10,
      "flags": 1,
      "label": "Forgot My Keys",
      "description": "Lockpick one door (Offline)",
      "howto": "Lockpick one door (Offline)"
    },
    {
      "id": 43,
      "imageId": 41,
      "cred": 10,
      "flags": 1,
      "label": "Petty Theif",
      "description": "Crack one Safe (Offline)",
      "howto": "Crack one Safe (Offline)"
    },
    {
      "id": 44,
      "imageId": 33,
      "cred": 10,
      "flags": 1,
      "label": "Unmatched, unscathed",
      "description": "Beat a combat challenge with 100% accuracy and 100% health (Offline)",
      "howto": "Beat a combat challenge with 100% accuracy and 100% health (Offline)"
    },
    {
      "id": 45,
      "imageId": 34,
      "cred": 10,
      "flags": 1,
      "label": "Surgical Strike",
      "description": "Complete combat challenge by only eliminating the targets (Offline)",
      "howto": "Complete combat challenge by only eliminating the targets (Offline)"
    },
    {
      "id": 46,
      "imageId": 43,
      "cred": 10,
      "flags": 1,
      "label": "You killed the radio star",
      "description": "Destroy one Radio (Offline)",
      "howto": "Destroy one Radio (Offline)"
    },
    {
      "id": 47,
      "imageId": 27,
      "cred": 70,
      "flags": 1,
      "label": "Brains",
      "description": "Complete all brain challenge maps under mountainhammer time (Offline)",
      "howto": "Complete all brain challenge maps under mountainhammer time (Offline)"
    },
    {
      "id": 48,
      "imageId": 42,
      "cred": 10,
      "flags": 1,
      "label": "So you can Dance?",
      "description": "Dance to the tune of a radio playing music (Offline)",
      "howto": "Dance to the tune of a radio playing music (Offline)"
    },
    {
      "id": 49,
      "imageId": 44,
      "cred": 10,
      "flags": 1,
      "label": "Italian Stallion",
      "description": "Complete survival wave without firing a weapon or throwing a grenade (Offline)",
      "howto": "Complete survival wave without firing a weapon or throwing a grenade (Offline)"
    },
    {
      "id": 50,
      "imageId": 46,
      "cred": 10,
      "flags": 1,
      "label": "Precious Cargo",
      "description": "Rescue all prisoners in a combat challenge without them recieving any damage (Offline)",
      "howto": "Rescue all prisoners in a combat challenge without them recieving any damage (Offline)"
    }
  ]
}