{
  "avatarAssetsPossible": 4,
  "maleAvatarAssetsPossible": 2,
  "femaleAvatarAssetsPossible": 2,
  "avatarAssets": [
    {
      "id": "00000008-0001-6151-c633-99b958410a34",
      "imageId": 13,
      "subcategory": 0,
      "unknown": 0,
      "isMale": true,
      "isFemale": false,
      "isUnisex": false,
      "label": "Vintage Crazy Taxi Tee",
      "description": "Show off your style with this Crazy Taxi throwback. 100％ Soft washed cotton for that vintage look.",
      "howto": "Play Crazy Taxi for 5 hours."
    },
    {
      "id": "00000008-0001-a142-cc5e-d27058410a34",
      "imageId": 15,
      "subcategory": 0,
      "unknown": 2015221016,
      "isMale": false,
      "isFemale": true,
      "isUnisex": false,
      "label": "Vintage Crazy Taxi Tee",
      "description": "Show off your style with this Crazy Taxi throwback. 100％ Soft washed cotton for that vintage look.",
      "howto": "Play Crazy Taxi for 5 hours."
    },
    {
      "id": "00000008-0002-a141-cc5e-d27058410a34",
      "imageId": 16,
      "subcategory": 0,
      "unknown": 2015221016,
      "isMale": true,
      "isFemale": false,
      "isUnisex": false,
      "label": "Axel's Hawaiian Shirt",
      "description": "Show off your style with this vintage Crazy Taxi throwback. 100％ Authentic, guaranteed.",
      "howto": "Play Crazy Taxi for 10 hours."
    },
    {
      "id": "00000008-0002-2132-c9b2-24df58410a34",
      "imageId": 17,
      "subcategory": 0,
      "unknown": 2015221016,
      "isMale": false,
      "isFemale": true,
      "isUnisex": false,
      "label": "Gena's Leopard Print Tank",
      "description": "Show off your style with this vintage Crazy Taxi throwback. 100％ Authentic, guaranteed.",
      "howto": "Play Crazy Taxi for 10 hours."
    }
  ]
}