{
  "achievementsPossible": 42,
  "credPossible": 1000,
  "achievements": [
    {
      "id": 3,
      "imageId": 2,
      "cred": 20,
      "flags": 1,
      "label": "Farmer Elmo",
      "description": "You threw Paul Ball to Elmo at the farm!",
      "howto": "Throw Paul Ball to Elmo at the farm!"
    },
    {
      "id": 4,
      "imageId": 3,
      "cred": 6,
      "flags": 1,
      "label": "Coconut Delivery Monster",
      "description": "You helped Grover get all six of his coconuts back!",
      "howto": "Grover dropped six coconuts. Help him get all his coconuts back!"
    },
    {
      "id": 5,
      "imageId": 4,
      "cred": 25,
      "flags": 1,
      "label": "Palindrome",
      "description": "Your jumping made a kayak fall from the Letter Tree!",
      "howto": "Jump until a palindrome falls from the Letter Tree!"
    },
    {
      "id": 6,
      "imageId": 5,
      "cred": 11,
      "flags": 1,
      "label": "Eleven - Ah ah ah!",
      "description": "You stood still like a statue so the Count could count to 11!",
      "howto": "Stand still so the Count can count to 11!"
    },
    {
      "id": 7,
      "imageId": 6,
      "cred": 30,
      "flags": 1,
      "label": "Gong Crazy",
      "description": "You jumped up and down to play Ernie's gongs!",
      "howto": "Ernie wants to play his gongs. Jump so he can hear them all!"
    },
    {
      "id": 8,
      "imageId": 8,
      "cred": 25,
      "flags": 1,
      "label": "Ringmaster",
      "description": "You threw Paul Ball to Elmo at the circus!",
      "howto": "Throw Paul Ball to Elmo at the circus!"
    },
    {
      "id": 9,
      "imageId": 9,
      "cred": 30,
      "flags": 1,
      "label": "Dolphin, Dirigible, Dentist",
      "description": "You got the right letters on the Letter D Show! Well clapped!",
      "howto": "Clap when you see the right letters on the Letter D Show!"
    },
    {
      "id": 10,
      "imageId": 10,
      "cred": 25,
      "flags": 1,
      "label": "Tingalingaling",
      "description": "You helped Ernie play his bells!",
      "howto": "Jump up and down to help Ernie play his bells!"
    },
    {
      "id": 11,
      "imageId": 11,
      "cred": 25,
      "flags": 1,
      "label": "Jump, Jump, Jump",
      "description": "You jumped lots and lots for the Letter Tree!",
      "howto": "Jump lots and lots for the Letter Tree!"
    },
    {
      "id": 12,
      "imageId": 12,
      "cred": 25,
      "flags": 1,
      "label": "Go Deep",
      "description": "You lobbed a high coconut to Grover!",
      "howto": "Lob a high coconut to Grover!"
    },
    {
      "id": 13,
      "imageId": 13,
      "cred": 30,
      "flags": 1,
      "label": "Maestro",
      "description": "You played all the notes on the piano in Elmo's World!",
      "howto": "Play all the notes on the piano in any Elmo's World!"
    },
    {
      "id": 14,
      "imageId": 14,
      "cred": 20,
      "flags": 1,
      "label": "Sun and Moon",
      "description": "You touched the sun and the moon in Elmo's World!",
      "howto": "Touch the sun and the moon in any Elmo's World!"
    },
    {
      "id": 15,
      "imageId": 15,
      "cred": 20,
      "flags": 1,
      "label": "Hang Ten",
      "description": "You went surfing in Elmo's World!",
      "howto": "Go surfing in Elmo's World!"
    },
    {
      "id": 16,
      "imageId": 16,
      "cred": 30,
      "flags": 1,
      "label": "Magnolia Dream",
      "description": "You touched all the frogs in Elmo's World Frogs!",
      "howto": "Touch all the frogs in Elmo's World Frogs!"
    },
    {
      "id": 17,
      "imageId": 41,
      "cred": 20,
      "flags": 1,
      "label": "Bubblefest",
      "description": "You watched all of the interactive episode: Bubblefest",
      "howto": "Watch all of the interactive episode: Bubblefest"
    },
    {
      "id": 18,
      "imageId": 18,
      "cred": 20,
      "flags": 1,
      "label": "Viva Piñata",
      "description": "You broke the piñata in Elmo's World!",
      "howto": "Break the piñata in Elmo's World!"
    },
    {
      "id": 19,
      "imageId": 19,
      "cred": 20,
      "flags": 1,
      "label": "Day at the Beach",
      "description": "You touched all the fun beach stuff in Elmo's World Beach!",
      "howto": "Touch all the fun beach stuff in Elmo's World Beach!"
    },
    {
      "id": 20,
      "imageId": 20,
      "cred": 20,
      "flags": 1,
      "label": "Greener Thumb",
      "description": "You watered all the seeds in all the jars in Elmo's World Flowers!",
      "howto": "Water all of the seeds in Elmo's World Flowers until all of the flowers have fully grown!"
    },
    {
      "id": 21,
      "imageId": 21,
      "cred": 30,
      "flags": 1,
      "label": "Music Lover",
      "description": "You hit all the notes in Elmo's World Violins!",
      "howto": "Hit all the notes in Elmo's World Violins!"
    },
    {
      "id": 22,
      "imageId": 22,
      "cred": 20,
      "flags": 1,
      "label": "Pool Playtime",
      "description": "You played with all the toys in the pool in Elmo's World Water!",
      "howto": "Play with all the toys in the pool in Elmo's World Water!"
    },
    {
      "id": 23,
      "imageId": 23,
      "cred": 30,
      "flags": 1,
      "label": "Rooaaarrr!",
      "description": "You touched all the wild animals in Elmo's World Wild Animals!",
      "howto": "Touch all the wild animals in Elmo's World Wild Animals!"
    },
    {
      "id": 24,
      "imageId": 24,
      "cred": 30,
      "flags": 1,
      "label": "Herd 'Em Cowboy",
      "description": "You touched all the horses and cows in Elmo's World Horses!",
      "howto": "Touch all the horses and cows in Elmo's World Horses!"
    },
    {
      "id": 25,
      "imageId": 25,
      "cred": 30,
      "flags": 1,
      "label": "Let's Be Friends",
      "description": "You joined in Elmo's World with another friend!",
      "howto": "Join in Elmo's World with another friend!"
    },
    {
      "id": 26,
      "imageId": 26,
      "cred": 30,
      "flags": 1,
      "label": "Ruler Mania",
      "description": "You found all the rulers in Elmozilla!",
      "howto": "Find all the rulers in Elmozilla!"
    },
    {
      "id": 27,
      "imageId": 27,
      "cred": 30,
      "flags": 1,
      "label": "Bottle Bear",
      "description": "You found all baby bottles in Baby Bear's Baby Doll!",
      "howto": "Find all baby bottles in Baby Bear's Baby Doll!"
    },
    {
      "id": 28,
      "imageId": 28,
      "cred": 30,
      "flags": 1,
      "label": "Bunny Bash",
      "description": "You found all the white bunnies in Goodbye Pacifier!",
      "howto": "Find all the white bunnies in Goodbye Pacifier!"
    },
    {
      "id": 29,
      "imageId": 29,
      "cred": 30,
      "flags": 1,
      "label": "Scribble Hunt",
      "description": "You found all the crayons in Siblings!",
      "howto": "Find all the crayons in Siblings!"
    },
    {
      "id": 30,
      "imageId": 30,
      "cred": 30,
      "flags": 1,
      "label": "All the King's Cartons",
      "description": "You found all the egg cartons in Humpty's Big Break!",
      "howto": "Find all the egg cartons in Humpty's Big Break!"
    },
    {
      "id": 31,
      "imageId": 31,
      "cred": 30,
      "flags": 1,
      "label": "Liftoff",
      "description": "You found all the launchers in Failure to Launch!",
      "howto": "Find all the launchers in Failure to Launch!"
    },
    {
      "id": 32,
      "imageId": 32,
      "cred": 30,
      "flags": 1,
      "label": "Float my Boat",
      "description": "You found all the toy boats in Rocco's Boat!",
      "howto": "Find all the toy boats in Rocco's Boat!"
    },
    {
      "id": 33,
      "imageId": 33,
      "cred": 30,
      "flags": 1,
      "label": "Bubble Raider",
      "description": "You found all the golden bubbles in Bubblefest!",
      "howto": "Find all the golden bubbles in Bubblefest!"
    },
    {
      "id": 34,
      "imageId": 34,
      "cred": 20,
      "flags": 1,
      "label": "Elmozilla",
      "description": "You watched all of the interactive episode: Elmozilla",
      "howto": "Watch all of the interactive episode: Elmozilla"
    },
    {
      "id": 35,
      "imageId": 35,
      "cred": 20,
      "flags": 1,
      "label": "Baby Bear's Baby Doll",
      "description": "You watched all of the interactive episode: Baby Bear's Baby Doll",
      "howto": "Watch all of the interactive episode: Baby Bear's Baby Doll"
    },
    {
      "id": 36,
      "imageId": 36,
      "cred": 20,
      "flags": 1,
      "label": "Goodbye Pacifier",
      "description": "You watched all of the interactive episode: Goodbye Pacifier",
      "howto": "Watch all of the interactive episode: Goodbye Pacifier"
    },
    {
      "id": 37,
      "imageId": 37,
      "cred": 20,
      "flags": 1,
      "label": "Siblings",
      "description": "You watched all of the interactive episode: Siblings",
      "howto": "Watch all of the interactive episode: Siblings"
    },
    {
      "id": 38,
      "imageId": 38,
      "cred": 20,
      "flags": 1,
      "label": "Humpty's Big Break",
      "description": "You watched all of the interactive episode: Humpty's Big Break",
      "howto": "Watch all of the interactive episode: Humpty's Big Break"
    },
    {
      "id": 39,
      "imageId": 39,
      "cred": 20,
      "flags": 1,
      "label": "Failure to Launch",
      "description": "You watched all of the interactive episode: Failure to Launch",
      "howto": "Watch all of the interactive episode: Failure to Launch"
    },
    {
      "id": 40,
      "imageId": 40,
      "cred": 20,
      "flags": 1,
      "label": "Rocco's Boat",
      "description": "You watched all of the interactive episode: Rocco's Boat",
      "howto": "Watch all of the interactive episode: Rocco's Boat"
    },
    {
      "id": 41,
      "imageId": 42,
      "cred": 30,
      "flags": 1,
      "label": "Fashionista",
      "description": "You stood in front of mirror and Cooper dressed like you!",
      "howto": "Stand in front of mirror so Cooper can dress like you!"
    },
    {
      "id": 42,
      "imageId": 43,
      "cred": 3,
      "flags": 1,
      "label": "Wind Down",
      "description": "You sat back, relaxed and enjoyed an Episode!",
      "howto": "Sit back, relax and enjoy an Episode!"
    },
    {
      "id": 51,
      "imageId": 7,
      "cred": 25,
      "flags": 1,
      "label": "Doggie Do",
      "description": "You helped Abby cut lots of doggie hair!",
      "howto": "Doggies need a haircut! Help Abby cut their hair!"
    },
    {
      "id": 52,
      "imageId": 17,
      "cred": 20,
      "flags": 1,
      "label": "Bubble Pop",
      "description": "You popped all the bubbles in Elmo's World Birthdays or Frogs!",
      "howto": "Pop all the bubbles in Elmo's World Birthdays or Frogs!"
    }
  ]
}