{
  "achievementsPossible": 12,
  "credPossible": 400,
  "achievements": [
    {
      "id": 1,
      "imageId": 2,
      "cred": 20,
      "flags": 1,
      "label": "Take a Break",
      "description": "You took a break from adventuring.",
      "howto": "Kids usually play close to home."
    },
    {
      "id": 2,
      "imageId": 3,
      "cred": 20,
      "flags": 1,
      "label": "Wishing Well",
      "description": "You threw someone's ball down a well… Shame on you.",
      "howto": "For your wish to come true, you need something to throw."
    },
    {
      "id": 3,
      "imageId": 4,
      "cred": 40,
      "flags": 1,
      "label": "Black Sheep",
      "description": "Every family's got one.",
      "howto": "It's a long walk."
    },
    {
      "id": 4,
      "imageId": 5,
      "cred": 20,
      "flags": 1,
      "label": "Bunny Buddies",
      "description": "You made the bunnies play nice.",
      "howto": "Are bunnies colorblind?"
    },
    {
      "id": 5,
      "imageId": 6,
      "cred": 20,
      "flags": 1,
      "label": "A Sad Tune",
      "description": "You made someone feel better.",
      "howto": "Give something back which was believed to be lost."
    },
    {
      "id": 6,
      "imageId": 7,
      "cred": 60,
      "flags": 1,
      "label": "Love Birds",
      "description": "You re-united the two love birds.",
      "howto": "A caged heart cannot love."
    },
    {
      "id": 7,
      "imageId": 8,
      "cred": 40,
      "flags": 1,
      "label": "Windpipe",
      "description": "You made the inventor dance.",
      "howto": "Find the right tone."
    },
    {
      "id": 8,
      "imageId": 9,
      "cred": 40,
      "flags": 1,
      "label": "Call of the giants",
      "description": "You sounded a giant horn.",
      "howto": "First take a deep breath."
    },
    {
      "id": 9,
      "imageId": 10,
      "cred": 40,
      "flags": 1,
      "label": "Behind the Curtain",
      "description": "You found a secret.",
      "howto": "On your feet you could never get here."
    },
    {
      "id": 10,
      "imageId": 11,
      "cred": 60,
      "flags": 1,
      "label": "Turtle Soup",
      "description": "You helped the turtles to the sea.",
      "howto": "Lift, Drop, Slide, Plop!"
    },
    {
      "id": 11,
      "imageId": 12,
      "cred": 20,
      "flags": 1,
      "label": "Whale Song",
      "description": "You practised singing.",
      "howto": "Rest and smile, sing for a while"
    },
    {
      "id": 12,
      "imageId": 13,
      "cred": 20,
      "flags": 1,
      "label": "Falling Star",
      "description": "Make a wish.",
      "howto": "Patience is a virtue"
    }
  ]
}