{
  "achievementsPossible": 65,
  "credPossible": 1500,
  "achievements": [
    {
      "id": 1,
      "imageId": 1,
      "cred": 5,
      "flags": 6,
      "label": "Off The Boat",
      "description": "You have completed the first mission.",
      "howto": "Complete the first mission."
    },
    {
      "id": 2,
      "imageId": 11,
      "cred": 10,
      "flags": 4,
      "label": "One Hundred And Eighty",
      "description": "You scored 180 with 3 darts.",
      "howto": "In a darts game score 180 with 3 darts."
    },
    {
      "id": 3,
      "imageId": 12,
      "cred": 10,
      "flags": 4,
      "label": "Pool Shark",
      "description": "You beat a friend at pool.",
      "howto": "Beat a friend at pool."
    },
    {
      "id": 4,
      "imageId": 13,
      "cred": 15,
      "flags": 5,
      "label": "King of QUB3D",
      "description": "You beat the high score in QUB3D.",
      "howto": "Beat the High Score in QUB3D."
    },
    {
      "id": 5,
      "imageId": 14,
      "cred": 15,
      "flags": 6,
      "label": "Finish Him",
      "description": "You completed 10 melee counters in 4 minutes.",
      "howto": "Complete 10 melee counters in 4 minutes."
    },
    {
      "id": 6,
      "imageId": 34,
      "cred": 25,
      "flags": 6,
      "label": "Genetically Superior",
      "description": "You came first in 20 singleplayer street races.",
      "howto": "Come first in 20 singleplayer street races."
    },
    {
      "id": 7,
      "imageId": 36,
      "cred": 30,
      "flags": 4,
      "label": "Wheelie Rider",
      "description": "You completed a 500 foot wheelie on a motorbike.",
      "howto": "Do a wheelie lasting at least 500 feet on a motorbike."
    },
    {
      "id": 8,
      "imageId": 10,
      "cred": 10,
      "flags": 4,
      "label": "Gobble Gobble",
      "description": "You got a turkey in 10-pin bowling.",
      "howto": "Score 3 strikes in a row, a turkey, in 10-pin bowling."
    },
    {
      "id": 9,
      "imageId": 40,
      "cred": 10,
      "flags": 3,
      "label": "Driving Mr. Bellic",
      "description": "You unlocked the special ability of Roman's taxi.",
      "howto": "Unlock the special ability of taxi."
    },
    {
      "id": 10,
      "imageId": 45,
      "cred": 30,
      "flags": 4,
      "label": "Rolled Over",
      "description": "You managed 5 car rolls in a row from one crash.",
      "howto": "Do 5 car rolls in a row from one crash."
    },
    {
      "id": 11,
      "imageId": 38,
      "cred": 50,
      "flags": 4,
      "label": "Walk Free",
      "description": "You successfully lost a 4 star wanted rating.",
      "howto": "Lose a 4 star wanted rating by outrunning the cops."
    },
    {
      "id": 12,
      "imageId": 16,
      "cred": 10,
      "flags": 1,
      "label": "Courier Service",
      "description": "You completed all 10 package delivery jobs.",
      "howto": "Complete all 10 package delivery jobs."
    },
    {
      "id": 13,
      "imageId": 42,
      "cred": 10,
      "flags": 3,
      "label": "Retail Therapy",
      "description": "You unlocked the special ability of buying guns from Little Jacob.",
      "howto": "Unlock the special ability of buying guns from a friend."
    },
    {
      "id": 14,
      "imageId": 50,
      "cred": 20,
      "flags": 1,
      "label": "Chain Reaction",
      "description": "You exploded 10 vehicles in 10 seconds.",
      "howto": "You must blow up 10 vehicles in 10 seconds."
    },
    {
      "id": 15,
      "imageId": 32,
      "cred": 40,
      "flags": 1,
      "label": "One Man Army",
      "description": "You survived a 6 star wanted level for a full 5 minutes.",
      "howto": "Survive 5 minutes on 6 star wanted level."
    },
    {
      "id": 16,
      "imageId": 2,
      "cred": 5,
      "flags": 6,
      "label": "Lowest Point",
      "description": "You completed the mission \"Roman's Sorrow\".",
      "howto": "Complete mission \"Roman's Sorrow\"."
    },
    {
      "id": 17,
      "imageId": 15,
      "cred": 10,
      "flags": 1,
      "label": "Order Fulfilled",
      "description": "You completed all 10 Exotic Export orders.",
      "howto": "Complete all 10 Exotic Export orders."
    },
    {
      "id": 18,
      "imageId": 17,
      "cred": 15,
      "flags": 1,
      "label": "Manhunt",
      "description": "You completed the most wanted side mission.",
      "howto": "Complete the most wanted side missions from the police computer."
    },
    {
      "id": 19,
      "imageId": 18,
      "cred": 20,
      "flags": 6,
      "label": "Cleaned The Mean Streets",
      "description": "You caught 20 criminals through the police computer.",
      "howto": "Capture 20 criminals through the police computer."
    },
    {
      "id": 20,
      "imageId": 35,
      "cred": 5,
      "flags": 6,
      "label": "Fed The Fish",
      "description": "You completed the mission \"Uncle Vlad\".",
      "howto": "Complete the mission \"Uncle Vlad\"."
    },
    {
      "id": 21,
      "imageId": 49,
      "cred": 5,
      "flags": 4,
      "label": "It'll Cost Ya",
      "description": "You made a taxi trip from one island to another without skipping.",
      "howto": "Complete a taxi ride without skipping from one island to another."
    },
    {
      "id": 22,
      "imageId": 46,
      "cred": 5,
      "flags": 4,
      "label": "Sightseer",
      "description": "You have taken all variations of the helicopter tours of Liberty City.",
      "howto": "Fly on all helicopter tours of Liberty City."
    },
    {
      "id": 23,
      "imageId": 9,
      "cred": 5,
      "flags": 3,
      "label": "Warm Coffee",
      "description": "You were invited into your girlfriend's house.",
      "howto": "Successfully date a girl to be invited into her house."
    },
    {
      "id": 24,
      "imageId": 41,
      "cred": 10,
      "flags": 3,
      "label": "That's How We Roll!",
      "description": "You unlocked the special ability of Brucie's helicopter ride.",
      "howto": "Unlock the special ability of helicopter."
    },
    {
      "id": 25,
      "imageId": 48,
      "cred": 55,
      "flags": 4,
      "label": "Half Million",
      "description": "You have amassed a fortune of $500,000.",
      "howto": "Reach a balance of $500,000."
    },
    {
      "id": 26,
      "imageId": 3,
      "cred": 10,
      "flags": 6,
      "label": "Impossible Trinity",
      "description": "You completed the mission \"Museum Piece\".",
      "howto": "Complete mission \"Museum Piece\"."
    },
    {
      "id": 27,
      "imageId": 6,
      "cred": 20,
      "flags": 3,
      "label": "Full Exploration",
      "description": "You unlocked all the islands.",
      "howto": "Unlock all the islands."
    },
    {
      "id": 28,
      "imageId": 19,
      "cred": 20,
      "flags": 1,
      "label": "You Got The Message",
      "description": "You delivered all 30 cars ordered through text message.",
      "howto": "Deliver all 30 cars ordered through text message."
    },
    {
      "id": 29,
      "imageId": 20,
      "cred": 30,
      "flags": 1,
      "label": "Dare Devil",
      "description": "You completed all the unique stunt jumps.",
      "howto": "Complete 100% of the unique stunt jumps."
    },
    {
      "id": 30,
      "imageId": 21,
      "cred": 20,
      "flags": 1,
      "label": "Assassin's Greed",
      "description": "You completed all 9 assassin missions.",
      "howto": "Complete all 9 assassin missions."
    },
    {
      "id": 31,
      "imageId": 30,
      "cred": 50,
      "flags": 4,
      "label": "Endangered Species",
      "description": "You collected every hidden package in the game.",
      "howto": "Collect every hidden package in the game."
    },
    {
      "id": 32,
      "imageId": 37,
      "cred": 40,
      "flags": 4,
      "label": "Under The Radar",
      "description": "You flew under all the main bridges in the game.",
      "howto": "Fly underneath the main bridges in the game that cross water with a helicopter."
    },
    {
      "id": 33,
      "imageId": 39,
      "cred": 10,
      "flags": 3,
      "label": "Dial B For Bomb",
      "description": "You unlocked the special ability of Packie's car bomb placement.",
      "howto": "Unlock the special ability of phoning for a bomb to be placed."
    },
    {
      "id": 34,
      "imageId": 4,
      "cred": 10,
      "flags": 6,
      "label": "Gracefully Taken",
      "description": "You completed the mission \"I'll Take Her\".",
      "howto": "Complete mission \"I'll Take Her\"."
    },
    {
      "id": 35,
      "imageId": 43,
      "cred": 20,
      "flags": 4,
      "label": "Liberty City (5)",
      "description": "Your friends all like you above 90%.",
      "howto": "After meeting all possible friends, the ones left alive all like you above 90%."
    },
    {
      "id": 36,
      "imageId": 33,
      "cred": 5,
      "flags": 4,
      "label": "No More Strangers",
      "description": "You've met all the random characters.",
      "howto": "Meet all random characters."
    },
    {
      "id": 37,
      "imageId": 5,
      "cred": 10,
      "flags": 6,
      "label": "That Special Someone",
      "description": "You completed the mission \"That Special Someone\".",
      "howto": "Complete mission \"That Special Someone\"."
    },
    {
      "id": 38,
      "imageId": 7,
      "cred": 60,
      "flags": 1,
      "label": "You Won!",
      "description": "You have completed the story.",
      "howto": "Complete the final mission."
    },
    {
      "id": 39,
      "imageId": 44,
      "cred": 30,
      "flags": 4,
      "label": "Liberty City Minute",
      "description": "You finished the story in less than 30 hours.",
      "howto": "Complete the story missions in less than 30 hours."
    },
    {
      "id": 40,
      "imageId": 8,
      "cred": 100,
      "flags": 1,
      "label": "Key To The City",
      "description": "You completed GTA IV to 100%.",
      "howto": "Achieve 100% in \"Game progress\" statistic."
    },
    {
      "id": 41,
      "imageId": 22,
      "cred": 10,
      "flags": 4,
      "label": "Teamplayer",
      "description": "You killed 5 opposing team members.",
      "howto": "Kill 5 players who are not in your team, in any ranked multiplayer team game."
    },
    {
      "id": 42,
      "imageId": 23,
      "cred": 5,
      "flags": 2,
      "label": "Cut Your Teeth",
      "description": "You were successfully promoted up a rank in multiplayer.",
      "howto": "Earn a personal rank promotion in multiplayer."
    },
    {
      "id": 43,
      "imageId": 24,
      "cred": 10,
      "flags": 4,
      "label": "Join The Midnight Club",
      "description": "You won a ranked multiplayer race without damaging your vehicle too much.",
      "howto": "Win a ranked multiplayer race without damaging your vehicle too much and with damage enabled."
    },
    {
      "id": 44,
      "imageId": 25,
      "cred": 15,
      "flags": 4,
      "label": "Fly The Co-op",
      "description": "You completed \"Deal Breaker\", \"Hangman's NOOSE\" and \"Bomb da Base II\" in time.",
      "howto": "Beat our time in ranked versions of \"Deal Breaker\", \"Hangman's NOOSE\" and \"Bomb da Base II\"."
    },
    {
      "id": 45,
      "imageId": 26,
      "cred": 10,
      "flags": 6,
      "label": "Taking It For The Team",
      "description": "You were on the winning team in all multiplayer team games.",
      "howto": "Be on the winning team in all ranked multiplayer team games."
    },
    {
      "id": 46,
      "imageId": 27,
      "cred": 10,
      "flags": 6,
      "label": "Top Of The Food Chain",
      "description": "You successfully killed 20 players with a pistol in a ranked deathmatch.",
      "howto": "Kill 20 players with a pistol in a ranked multiplayer deathmatch."
    },
    {
      "id": 47,
      "imageId": 28,
      "cred": 20,
      "flags": 6,
      "label": "Top The Midnight Club",
      "description": "You won 20 different multiplayer standard races.",
      "howto": "Come first in 20 different ranked standard multiplayer races."
    },
    {
      "id": 48,
      "imageId": 47,
      "cred": 20,
      "flags": 2,
      "label": "Wanted",
      "description": "You achieved the highest personal rank possible in multiplayer.",
      "howto": "Achieve the highest personal rank in multiplayer."
    },
    {
      "id": 49,
      "imageId": 29,
      "cred": 30,
      "flags": 1,
      "label": "Auf Wiedersehen Petrovic",
      "description": "You won in all variations of multiplayer games.",
      "howto": "Win all ranked multiplayer variations, all races and \"Cops 'n Crooks\", as both sides."
    },
    {
      "id": 50,
      "imageId": 31,
      "cred": 10,
      "flags": 4,
      "label": "Let Sleeping Rockstars Lie",
      "description": "You killed a Rockstar in multiplayer.",
      "howto": "Kill a Rockstar developer in a ranked multiplayer match."
    },
    {
      "id": 51,
      "imageId": 54,
      "cred": 5,
      "flags": 6,
      "label": "TLAD: One Percenter",
      "description": "Billy is back on his bike.",
      "howto": "Help Billy get his bike back. (The Lost and Damned)"
    },
    {
      "id": 52,
      "imageId": 51,
      "cred": 25,
      "flags": 4,
      "label": "TLAD: The Lost Boy",
      "description": "All hail the leader of The Lost!",
      "howto": "Become leader of The Lost. (The Lost and Damned)"
    },
    {
      "id": 53,
      "imageId": 53,
      "cred": 100,
      "flags": 1,
      "label": "TLAD: Easy Rider ",
      "description": "You have completed the story for 'The Lost and Damned'.",
      "howto": "Finish the story. (The Lost and Damned)"
    },
    {
      "id": 54,
      "imageId": 55,
      "cred": 50,
      "flags": 6,
      "label": "TLAD: Get Good Wood",
      "description": "You maimed 69 bikers while racing.",
      "howto": "In the bike races, whack off 69 bikers with a bat. (The Lost and Damned)"
    },
    {
      "id": 55,
      "imageId": 52,
      "cred": 70,
      "flags": 2,
      "label": "TLAD: Full Chat",
      "description": "Your backup are riding at their best!",
      "howto": "Build Terry and Clay's toughness to 100%. (The Lost and Damned)"
    },
    {
      "id": 56,
      "imageId": 58,
      "cred": 5,
      "flags": 5,
      "label": "TBoGT: Gone Down",
      "description": "You found and completed all base jumps.",
      "howto": "Complete all base jumps. (The Ballad of Gay Tony)"
    },
    {
      "id": 57,
      "imageId": 64,
      "cred": 5,
      "flags": 6,
      "label": "TBoGT: Diamonds Forever",
      "description": "You completed the Museum story.",
      "howto": "Complete the Trinity. (The Ballad of Gay Tony)"
    },
    {
      "id": 58,
      "imageId": 63,
      "cred": 10,
      "flags": 4,
      "label": "TBoGT: Four Play",
      "description": "You are a very good swinger.",
      "howto": "Hit a flag with a golf ball four times. (The Ballad of Gay Tony)"
    },
    {
      "id": 59,
      "imageId": 61,
      "cred": 15,
      "flags": 5,
      "label": "TBoGT: Bear Fight",
      "description": "You are the undisputed champion of L.C. Cage Fighters.",
      "howto": "Win the L.C. Cage Fighters championship. (The Ballad of Gay Tony)"
    },
    {
      "id": 60,
      "imageId": 59,
      "cred": 15,
      "flags": 5,
      "label": "TBoGT: Catch the Bus",
      "description": "Love your smoking hot moves!",
      "howto": "Dance perfectly in both Tony's nightclubs. (The Ballad of Gay Tony)"
    },
    {
      "id": 61,
      "imageId": 60,
      "cred": 20,
      "flags": 6,
      "label": "TBoGT: Snow Queen",
      "description": "You finished 25 drug wars.",
      "howto": "Complete 25 drug wars. (The Ballad of Gay Tony)"
    },
    {
      "id": 62,
      "imageId": 62,
      "cred": 25,
      "flags": 7,
      "label": "TBoGT: Adrenaline Junkie",
      "description": "You pulled your chute at the last possible moment from the highest freefall.",
      "howto": "Freefall for the longest possible time. (The Ballad of Gay Tony)"
    },
    {
      "id": 63,
      "imageId": 65,
      "cred": 30,
      "flags": 1,
      "label": "TBoGT: Maestro",
      "description": "You finished the story of The Ballad of Gay Tony.",
      "howto": "Finish the Ballad. (The Ballad of Gay Tony)"
    },
    {
      "id": 64,
      "imageId": 56,
      "cred": 45,
      "flags": 6,
      "label": "TBoGT: Past the Velvet Rope",
      "description": "You have a good flair for this.",
      "howto": "Score 80% or above in all missions. (The Ballad of Gay Tony)"
    },
    {
      "id": 65,
      "imageId": 57,
      "cred": 80,
      "flags": 1,
      "label": "TBoGT: Gold Star",
      "description": "You are now officially an expert in TBoGT, go strut!",
      "howto": "Score 100% in all missions. (The Ballad of Gay Tony)"
    }
  ]
}