{
  "achievementsPossible": 45,
  "credPossible": 1000,
  "achievements": [
    {
      "id": 1,
      "imageId": 2,
      "cred": 25,
      "flags": 1,
      "label": "The Geek",
      "description": "Complete the game on Recruits difficulty.",
      "howto": "Complete the game on Recruits difficulty."
    },
    {
      "id": 6,
      "imageId": 3,
      "cred": 50,
      "flags": 1,
      "label": "Shark Man of the Delta",
      "description": "Complete the game on Regulars difficulty.",
      "howto": "Complete the game on Regulars difficulty."
    },
    {
      "id": 7,
      "imageId": 4,
      "cred": 75,
      "flags": 1,
      "label": "Demo Dick",
      "description": "Complete the game on Elites difficulty.",
      "howto": "Complete the game on Elites difficulty."
    },
    {
      "id": 8,
      "imageId": 5,
      "cred": 5,
      "flags": 1,
      "label": "SNAFU",
      "description": "Complete mission 1 on any difficulty.",
      "howto": "Complete mission 1 on any difficulty."
    },
    {
      "id": 9,
      "imageId": 6,
      "cred": 5,
      "flags": 1,
      "label": "KISS",
      "description": "Complete mission 2 on any difficulty.",
      "howto": "Complete mission 2 on any difficulty."
    },
    {
      "id": 10,
      "imageId": 7,
      "cred": 5,
      "flags": 1,
      "label": "GNBN",
      "description": "Complete mission 3 on any difficulty.",
      "howto": "Complete mission 3 on any difficulty."
    },
    {
      "id": 11,
      "imageId": 8,
      "cred": 5,
      "flags": 1,
      "label": "PFDL",
      "description": "Complete mission 4 on any difficulty.",
      "howto": "Complete mission 4 on any difficulty."
    },
    {
      "id": 12,
      "imageId": 9,
      "cred": 5,
      "flags": 1,
      "label": "FUBAR",
      "description": "Complete mission 5 on any difficulty.",
      "howto": "Complete mission 5 on any difficulty."
    },
    {
      "id": 13,
      "imageId": 10,
      "cred": 5,
      "flags": 1,
      "label": "HUMINT",
      "description": "Complete mission 6 on any difficulty.",
      "howto": "Complete mission 6 on any difficulty."
    },
    {
      "id": 14,
      "imageId": 11,
      "cred": 5,
      "flags": 1,
      "label": "KATN",
      "description": "Complete mission 7 on any difficulty.",
      "howto": "Complete mission 7 on any difficulty."
    },
    {
      "id": 15,
      "imageId": 12,
      "cred": 5,
      "flags": 1,
      "label": "DOY",
      "description": "Complete mission 8 on any difficulty.",
      "howto": "Complete mission 8 on any difficulty."
    },
    {
      "id": 16,
      "imageId": 13,
      "cred": 30,
      "flags": 1,
      "label": "Double Tap",
      "description": "Complete an entire mission using only the pistol. (Single Player)",
      "howto": "Complete an entire mission using only the pistol. (Single Player)"
    },
    {
      "id": 17,
      "imageId": 14,
      "cred": 30,
      "flags": 1,
      "label": "Getting Your Gun Off",
      "description": "Kill at least one enemy with every weapon in the game. (Single Player)",
      "howto": "Kill at least one enemy with every weapon in the game. (Single Player)"
    },
    {
      "id": 18,
      "imageId": 15,
      "cred": 25,
      "flags": 1,
      "label": "Frag Out!",
      "description": "Kill 20 enemies using grenades. (Single Player)",
      "howto": "Kill 20 enemies using grenades. (Single Player)"
    },
    {
      "id": 19,
      "imageId": 16,
      "cred": 30,
      "flags": 1,
      "label": "Now THIS Is A Knife",
      "description": "Kill 30 enemies using kill moves. (Single Player)",
      "howto": "Kill 30 enemies using kill moves. (Single Player)"
    },
    {
      "id": 20,
      "imageId": 17,
      "cred": 20,
      "flags": 1,
      "label": "Never Knew What Hit Them",
      "description": "Kill 50 unalerted enemies. (Single Player)",
      "howto": "Kill 50 unalerted enemies. (Single Player)"
    },
    {
      "id": 21,
      "imageId": 18,
      "cred": 25,
      "flags": 1,
      "label": "Improv",
      "description": "Kill 20 enemies using explosive objects. (Single Player)",
      "howto": "Kill 20 enemies using explosive objects. (Single Player)"
    },
    {
      "id": 22,
      "imageId": 19,
      "cred": 25,
      "flags": 1,
      "label": "Guns Don't Kill People, SEALs Do",
      "description": "Kill 30 enemies using sniper rifles. (Single Player)",
      "howto": "Kill 30 enemies using sniper rifles. (Single Player)"
    },
    {
      "id": 23,
      "imageId": 20,
      "cred": 25,
      "flags": 1,
      "label": "Supressing Fire",
      "description": "Kill 20 enemies using blindfire. (Single Player)",
      "howto": "Kill 20 enemies using blindfire. (Single Player)"
    },
    {
      "id": 24,
      "imageId": 21,
      "cred": 30,
      "flags": 1,
      "label": "Are These Guys For Real?",
      "description": "Kill 50 Spetznaz. (Single Player)",
      "howto": "Kill 50 Spetznaz. (Single Player)"
    },
    {
      "id": 25,
      "imageId": 22,
      "cred": 25,
      "flags": 1,
      "label": "Health And Safety",
      "description": "Blow up 20 fire extinguishers. (Single Player)",
      "howto": "Blow up 20 fire extinguishers. (Single Player)"
    },
    {
      "id": 26,
      "imageId": 23,
      "cred": 50,
      "flags": 1,
      "label": "Migraine Breaker",
      "description": "Kill 50 enemies with head shots. (Single Player)",
      "howto": "Kill 50 enemies with head shots. (Single Player)"
    },
    {
      "id": 27,
      "imageId": 24,
      "cred": 35,
      "flags": 1,
      "label": "Gang-Bang",
      "description": "Kill a group of 4 enemies with a grenade. (Single Player)",
      "howto": "Kill a group of 4 enemies with a grenade. (Single Player)"
    },
    {
      "id": 28,
      "imageId": 25,
      "cred": 35,
      "flags": 1,
      "label": "Dick Would Be Proud",
      "description": "Complete a mission without dying. (Single Player)",
      "howto": "Complete a mission without dying. (Single Player)"
    },
    {
      "id": 29,
      "imageId": 26,
      "cred": 30,
      "flags": 1,
      "label": "Military Budget",
      "description": "Kill 5 enemies with an assault rifle without reloading or changing weapons. (Single Player)",
      "howto": "Kill 5 enemies with an assault rifle without reloading or changing weapons. (Single Player)"
    },
    {
      "id": 30,
      "imageId": 27,
      "cred": 20,
      "flags": 1,
      "label": "Come Get Some!",
      "description": "Kill 5 enemies with a shotgun without reloading or changing weapons. (Single Player)",
      "howto": "Kill 5 enemies with a shotgun without reloading or changing weapons. (Single Player)"
    },
    {
      "id": 31,
      "imageId": 28,
      "cred": 20,
      "flags": 1,
      "label": "Ninja",
      "description": "Perform 3 Kill moves in a row. (Single Player)",
      "howto": "Perform 3 Kill moves in a row. (Single Player)"
    },
    {
      "id": 32,
      "imageId": 29,
      "cred": 20,
      "flags": 1,
      "label": "Curb-Stomper",
      "description": "Perform 5 Finishing moves. (Single Player)",
      "howto": "Perform 5 Finishing moves. (Single Player)"
    },
    {
      "id": 33,
      "imageId": 30,
      "cred": 20,
      "flags": 1,
      "label": "Chop-shop",
      "description": "Destroy 10 vehicles. (Single Player)",
      "howto": "Destroy 10 vehicles. (Single Player)"
    },
    {
      "id": 34,
      "imageId": 31,
      "cred": 5,
      "flags": 1,
      "label": "Over The Top",
      "description": "Throw an enemy over a ledge. (Single Player)",
      "howto": "Throw an enemy over a ledge. (Single Player)"
    },
    {
      "id": 35,
      "imageId": 32,
      "cred": 5,
      "flags": 1,
      "label": "Not The Face",
      "description": "Smash an enemy's face into a wall. (Single Player)",
      "howto": "Smash an enemy's face into a wall. (Single Player)"
    },
    {
      "id": 36,
      "imageId": 33,
      "cred": 15,
      "flags": 1,
      "label": "Fresh Off The Boat",
      "description": "Play online once. (Multiplayer)",
      "howto": "Play online once. (Multiplayer)"
    },
    {
      "id": 37,
      "imageId": 34,
      "cred": 25,
      "flags": 1,
      "label": "THREATCON",
      "description": "Place first in a Ranked Deathmatch game. (Multiplayer)",
      "howto": "Place first in a Ranked Deathmatch game. (Multiplayer)"
    },
    {
      "id": 38,
      "imageId": 35,
      "cred": 15,
      "flags": 1,
      "label": "Spec Warrior",
      "description": "Kill 3 people in a row. (Multiplayer)",
      "howto": "Kill 3 people in a row. (Multiplayer)"
    },
    {
      "id": 39,
      "imageId": 36,
      "cred": 10,
      "flags": 1,
      "label": "SEAL Team Six",
      "description": "Play a Team Deathmatch to completion with at least 3 friends on your team. (Multiplayer)",
      "howto": "Play a Team Deathmatch to completion with at least 3 friends on your team. (Multiplayer)"
    },
    {
      "id": 40,
      "imageId": 37,
      "cred": 25,
      "flags": 1,
      "label": "Smack The Rogue",
      "description": "Come first in 10 Ranked Deathmatch games. (Multiplayer)",
      "howto": "Come first in 10 Ranked Deathmatch games. (Multiplayer)"
    },
    {
      "id": 41,
      "imageId": 38,
      "cred": 20,
      "flags": 1,
      "label": "Friendship Is For Suckers",
      "description": "Kill someone on your friends list. (Multiplayer)",
      "howto": "Kill someone on your friends list. (Multiplayer)"
    },
    {
      "id": 42,
      "imageId": 39,
      "cred": 20,
      "flags": 1,
      "label": "Keep Your Friends Close ...",
      "description": "Perform a kill move on a friend. (Multiplayer)",
      "howto": "Perform a kill move on a friend. (Multiplayer)"
    },
    {
      "id": 43,
      "imageId": 40,
      "cred": 20,
      "flags": 1,
      "label": "Decorated Veteran",
      "description": "Play 50 games online. (Multiplayer)",
      "howto": "Play 50 games online. (Multiplayer)"
    },
    {
      "id": 44,
      "imageId": 41,
      "cred": 20,
      "flags": 1,
      "label": "From Beyond The Grave",
      "description": "An enemy dies from your grenade … after you have been killed. (Multiplayer)",
      "howto": "An enemy dies from your grenade … after you have been killed. (Multiplayer)"
    },
    {
      "id": 45,
      "imageId": 42,
      "cred": 25,
      "flags": 1,
      "label": "POTUS",
      "description": "Place first in a Ranked Team Deathmatch. (Multiplayer)",
      "howto": "Place first in a Ranked Team Deathmatch. (Multiplayer)"
    },
    {
      "id": 46,
      "imageId": 43,
      "cred": 25,
      "flags": 1,
      "label": "Special Warfare Group ONE",
      "description": "Be on the winning team for 10 Team Deathmatch games. (Multiplayer)",
      "howto": "Be on the winning team for 10 Team Deathmatch games. (Multiplayer)"
    },
    {
      "id": 47,
      "imageId": 44,
      "cred": 5,
      "flags": 1,
      "label": "Host Me Up",
      "description": "Host a custom game to completion. (Multiplayer)",
      "howto": "Host a custom game to completion. (Multiplayer)"
    },
    {
      "id": 48,
      "imageId": 45,
      "cred": 50,
      "flags": 1,
      "label": "Legion Of Merit",
      "description": "Finish each map in 1st place. (Multiplayer)",
      "howto": "Finish each map in 1st place. (Multiplayer)"
    },
    {
      "id": 49,
      "imageId": 46,
      "cred": 30,
      "flags": 1,
      "label": "One Man Army",
      "description": "Kill 200 enemies. (Multiplayer)",
      "howto": "Kill 200 enemies. (Multiplayer)"
    }
  ]
}