{
  "achievementsPossible": 50,
  "credPossible": 1000,
  "achievements": [
    {
      "id": 101,
      "imageId": 49,
      "cred": 25,
      "flags": 4,
      "label": "1%'er",
      "description": "Earned a total of 1,000,000Cr.",
      "howto": "Earn a total of 1,000,000Cr."
    },
    {
      "id": 102,
      "imageId": 54,
      "cred": 5,
      "flags": 4,
      "label": "First Steps",
      "description": "Took part in a Career or Season Race.",
      "howto": "Take part in your first Career or Season Race."
    },
    {
      "id": 103,
      "imageId": 75,
      "cred": 10,
      "flags": 4,
      "label": "The Intimidator",
      "description": "Spun out an opponent.",
      "howto": "Spin out an opponent."
    },
    {
      "id": 104,
      "imageId": 89,
      "cred": 5,
      "flags": 4,
      "label": "Treat Yourself",
      "description": "Purchased an item from the Reward Store.",
      "howto": "Purchase an item from the Reward Store."
    },
    {
      "id": 105,
      "imageId": 44,
      "cred": 15,
      "flags": 4,
      "label": "Passing The Time",
      "description": "Flipped the Track Pass 500 times during loading.",
      "howto": "Flip the Track Pass 500 times during loading."
    },
    {
      "id": 106,
      "imageId": 50,
      "cred": 15,
      "flags": 4,
      "label": "Draft Dodger",
      "description": "Drafted a total of 1000 yards in a race.",
      "howto": "Draft a total of 1000 yards in a race."
    },
    {
      "id": 107,
      "imageId": 73,
      "cred": 5,
      "flags": 4,
      "label": "Newbie",
      "description": "Took part in a Public Online Race.",
      "howto": "Take part in your first Public Online Race."
    },
    {
      "id": 108,
      "imageId": 84,
      "cred": 10,
      "flags": 4,
      "label": "Upgrade Complete",
      "description": "Purchased an upgrade.",
      "howto": "Purchase your first upgrade."
    },
    {
      "id": 109,
      "imageId": 60,
      "cred": 25,
      "flags": 4,
      "label": "Speed Star",
      "description": "Won a Superspeedway race in Career or Season Mode.",
      "howto": "Win your first Superspeedway track race in Career or Season Mode."
    },
    {
      "id": 110,
      "imageId": 66,
      "cred": 30,
      "flags": 4,
      "label": "Day At The Beach",
      "description": "Won the Daytona 500.",
      "howto": "Win the Daytona 500."
    },
    {
      "id": 111,
      "imageId": 69,
      "cred": 15,
      "flags": 4,
      "label": "Startin' on Pole",
      "description": "Qualified on pole in Career or Season Mode.",
      "howto": "Qualify on pole for the first time in Career or Season Mode."
    },
    {
      "id": 112,
      "imageId": 91,
      "cred": 25,
      "flags": 4,
      "label": "Miles Away",
      "description": "Won an Intermediate track race in Career or Season Mode.",
      "howto": "Win your first Intermediate track race in Career or Season Mode."
    },
    {
      "id": 113,
      "imageId": 57,
      "cred": 25,
      "flags": 4,
      "label": "In The Chase",
      "description": "Made the Chase.",
      "howto": "Make the Chase."
    },
    {
      "id": 114,
      "imageId": 61,
      "cred": 15,
      "flags": 4,
      "label": "Chase Champion",
      "description": "Won the Sprint Cup in Chase Mode.",
      "howto": "Win the Sprint Cup in Chase Mode."
    },
    {
      "id": 115,
      "imageId": 59,
      "cred": 15,
      "flags": 4,
      "label": "Challenging",
      "description": "Completed a Head to Head Challenge.",
      "howto": "Complete a Head to Head Challenge."
    },
    {
      "id": 116,
      "imageId": 58,
      "cred": 25,
      "flags": 4,
      "label": "Short & Sweet",
      "description": "Won a Short track race in Career or Season Mode.",
      "howto": "Win your first Short track race in Career or Season Mode."
    },
    {
      "id": 117,
      "imageId": 56,
      "cred": 25,
      "flags": 4,
      "label": "Season Champion",
      "description": "Won the Sprint Cup in Single Season Mode.",
      "howto": "Win the Sprint Cup in Single Season Mode."
    },
    {
      "id": 118,
      "imageId": 90,
      "cred": 10,
      "flags": 4,
      "label": "Van Gogh",
      "description": "Created a custom paint scheme.",
      "howto": "Create a custom paint scheme."
    },
    {
      "id": 119,
      "imageId": 52,
      "cred": 25,
      "flags": 4,
      "label": "Turn Right?",
      "description": "Won a Road Course race in Career or Season Mode.",
      "howto": "Win your first Road Course race in Career or Season Mode."
    },
    {
      "id": 120,
      "imageId": 72,
      "cred": 25,
      "flags": 4,
      "label": "Last Man Standing",
      "description": "Won an Eliminator Invitational event.",
      "howto": "Win an Eliminator Invitational event."
    },
    {
      "id": 121,
      "imageId": 55,
      "cred": 5,
      "flags": 4,
      "label": "Snap Happy",
      "description": "Took a picture in Photo Mode.",
      "howto": "Take a picture in any Photo Mode."
    },
    {
      "id": 122,
      "imageId": 65,
      "cred": 20,
      "flags": 4,
      "label": "Trend Setter",
      "description": "Finished a race with the fastest lap 100 times.",
      "howto": "Finish a race with the fastest lap 100 times."
    },
    {
      "id": 123,
      "imageId": 64,
      "cred": 20,
      "flags": 4,
      "label": "Contender",
      "description": "Won a Public Online Race.",
      "howto": "Win your first Public Online Race."
    },
    {
      "id": 124,
      "imageId": 71,
      "cred": 25,
      "flags": 4,
      "label": "Ironman",
      "description": "Took part in and completed 250 races.",
      "howto": "Take part in and complete 250 races."
    },
    {
      "id": 125,
      "imageId": 42,
      "cred": 25,
      "flags": 4,
      "label": "Mano a Mano",
      "description": "Won a Driver Duel Invitational event.",
      "howto": "Win a Driver Duel Invitational event."
    },
    {
      "id": 126,
      "imageId": 85,
      "cred": 50,
      "flags": 4,
      "label": "Champion",
      "description": "Won the Sprint Cup in Career Mode.",
      "howto": "Win the Sprint Cup in Career Mode."
    },
    {
      "id": 127,
      "imageId": 53,
      "cred": 20,
      "flags": 4,
      "label": "Taking Care Of Business",
      "description": "Signed a sponsor to each location on the car.",
      "howto": "Sign a sponsor to each location on the car."
    },
    {
      "id": 128,
      "imageId": 79,
      "cred": 25,
      "flags": 4,
      "label": "Clock Watcher",
      "description": "Earned Gold at a Thunderlap Invitational event.",
      "howto": "Earn Gold at a Thunderlap Invitational event."
    },
    {
      "id": 129,
      "imageId": 83,
      "cred": 15,
      "flags": 4,
      "label": "Action Shot",
      "description": "Took a picture of the car with all four wheels off the track.",
      "howto": "Take a picture of your car with all four wheels off the track."
    },
    {
      "id": 130,
      "imageId": 81,
      "cred": 20,
      "flags": 4,
      "label": "Long Road Back",
      "description": "Won a Public Online Race after qualifying last.",
      "howto": "Win a Public Online Race after qualifying last."
    },
    {
      "id": 131,
      "imageId": 41,
      "cred": 25,
      "flags": 4,
      "label": "Consistent",
      "description": "Won a Gauntlet Invitational event.",
      "howto": "Win a Gauntlet Invitational event."
    },
    {
      "id": 132,
      "imageId": 48,
      "cred": 20,
      "flags": 4,
      "label": "Brainiac",
      "description": "Answered 150 trivia questions correctly.",
      "howto": "Answer 150 trivia questions correctly."
    },
    {
      "id": 133,
      "imageId": 88,
      "cred": 5,
      "flags": 4,
      "label": "Director",
      "description": "Saved a replay of a race.",
      "howto": "Save a replay of a race."
    },
    {
      "id": 134,
      "imageId": 63,
      "cred": 15,
      "flags": 4,
      "label": "Gear Head",
      "description": "Created a custom setup.",
      "howto": "Create your own custom setup."
    },
    {
      "id": 135,
      "imageId": 43,
      "cred": 20,
      "flags": 4,
      "label": "Lap It Up",
      "description": "Lapped an opponent in a Public Online Race.",
      "howto": "Lap an opponent in a Public Online Race."
    },
    {
      "id": 136,
      "imageId": 67,
      "cred": 25,
      "flags": 4,
      "label": "Maxed Out!",
      "description": "Fully upgraded the Career Car.",
      "howto": "Fully upgrade your Career Car."
    },
    {
      "id": 137,
      "imageId": 46,
      "cred": 15,
      "flags": 4,
      "label": "Serious",
      "description": "Won a race with no assists.",
      "howto": "Win a race with no assists."
    },
    {
      "id": 138,
      "imageId": 80,
      "cred": 20,
      "flags": 4,
      "label": "Collector",
      "description": "Purchased everything in the Reward Store.",
      "howto": "Purchase everything in the Reward Store."
    },
    {
      "id": 139,
      "imageId": 62,
      "cred": 25,
      "flags": 4,
      "label": "Hustler",
      "description": "Won a Public Online Race after passing 5 cars on the last lap.",
      "howto": "Win a Public Online Race after passing 5 cars on the last lap."
    },
    {
      "id": 140,
      "imageId": 78,
      "cred": 25,
      "flags": 4,
      "label": "Slippery",
      "description": "Completed a race without touching another car.",
      "howto": "Complete a race without touching another car."
    },
    {
      "id": 141,
      "imageId": 47,
      "cred": 15,
      "flags": 4,
      "label": "Shake & Bake",
      "description": "Slingshotted to victory in the final straight.",
      "howto": "Slingshot to victory in the final straight."
    },
    {
      "id": 142,
      "imageId": 70,
      "cred": 20,
      "flags": 4,
      "label": "Pass in the Grass",
      "description": "Won a race after overtaking on grass.",
      "howto": "Win a race after overtaking on grass."
    },
    {
      "id": 143,
      "imageId": 74,
      "cred": 50,
      "flags": 4,
      "label": "The King",
      "description": "Won the Sprint Cup in Career Mode while playing on Champion difficulty.",
      "howto": "Win the Sprint Cup in Career Mode while playing on Champion difficulty."
    },
    {
      "id": 144,
      "imageId": 77,
      "cred": 25,
      "flags": 4,
      "label": "Perfect Day",
      "description": "Qualified in pole, led all laps, won the race.",
      "howto": "Qualify in pole, lead all laps, win the race."
    },
    {
      "id": 145,
      "imageId": 45,
      "cred": 15,
      "flags": 4,
      "label": "Polish Victory Lap",
      "description": "Completed a victory lap driving the opposite direction around the track.",
      "howto": "Complete a victory lap driving the opposite direction around the track."
    },
    {
      "id": 146,
      "imageId": 86,
      "cred": 25,
      "flags": 4,
      "label": "Too Much!",
      "description": "Won the race after crossing the finishing line backwards.",
      "howto": "Win the race after crossing the finishing line backwards."
    },
    {
      "id": 147,
      "imageId": 76,
      "cred": 25,
      "flags": 4,
      "label": "Gambler",
      "description": "Ran out of fuel and coasted into pit road.",
      "howto": "Run out of fuel and coast into pit road."
    },
    {
      "id": 148,
      "imageId": 87,
      "cred": 15,
      "flags": 4,
      "label": "Photo Finish",
      "description": "Won an offline race by less than 0.02 seconds.",
      "howto": "Win an offline race by less than 0.02 seconds."
    },
    {
      "id": 149,
      "imageId": 2,
      "cred": 20,
      "flags": 4,
      "label": "Challenger",
      "description": "Completed an Inside Line Highlight Challenge.",
      "howto": "Complete an Inside Line Highlight Challenge."
    },
    {
      "id": 150,
      "imageId": 1,
      "cred": 20,
      "flags": 4,
      "label": "Challenge Complete",
      "description": "Completed all Inside Line Highlight Challenges.",
      "howto": "Complete all the Inside Line Highlight Challenges."
    }
  ]
}