{
  "achievementsPossible": 12,
  "credPossible": 1000,
  "achievements": [
    {
      "id": 1,
      "imageId": 1,
      "cred": 50,
      "flags": 1,
      "label": "Pants",
      "description": "First pants/skirt unlocked",
      "howto": "Play career mode to unlock items."
    },
    {
      "id": 2,
      "imageId": 2,
      "cred": 50,
      "flags": 1,
      "label": "Shirt",
      "description": "First shirt unlocked",
      "howto": "Play career mode to unlock items."
    },
    {
      "id": 3,
      "imageId": 3,
      "cred": 50,
      "flags": 1,
      "label": "Shoes",
      "description": "First shoes unlocked",
      "howto": "Play career mode to unlock items."
    },
    {
      "id": 4,
      "imageId": 4,
      "cred": 50,
      "flags": 1,
      "label": "Hat",
      "description": "First hat unlocked",
      "howto": "Play career mode to unlock items."
    },
    {
      "id": 5,
      "imageId": 5,
      "cred": 50,
      "flags": 1,
      "label": "Glasses",
      "description": "First glasses unlocked",
      "howto": "Play career mode to unlock items."
    },
    {
      "id": 6,
      "imageId": 6,
      "cred": 50,
      "flags": 1,
      "label": "Wrist Guard",
      "description": "First wrist guard unlocked",
      "howto": "Play career mode to unlock items."
    },
    {
      "id": 7,
      "imageId": 7,
      "cred": 100,
      "flags": 1,
      "label": "Ball",
      "description": "First ball unlocked",
      "howto": "Play career mode to unlock items."
    },
    {
      "id": 8,
      "imageId": 8,
      "cred": 100,
      "flags": 1,
      "label": "Online Winner",
      "description": "Online match winner",
      "howto": "Complete online match with highest score"
    },
    {
      "id": 9,
      "imageId": 9,
      "cred": 100,
      "flags": 1,
      "label": "Expert Champ",
      "description": "Expert league champion",
      "howto": "Win an expert league in career mode"
    },
    {
      "id": 10,
      "imageId": 10,
      "cred": 100,
      "flags": 1,
      "label": "Tournament Champ",
      "description": "Pro tournament champion",
      "howto": "Win a pro tournament in career mode"
    },
    {
      "id": 11,
      "imageId": 11,
      "cred": 100,
      "flags": 1,
      "label": "Rival Victor",
      "description": "Win rivalry game",
      "howto": "Defeat a rival opponent in career mode"
    },
    {
      "id": 12,
      "imageId": 12,
      "cred": 200,
      "flags": 1,
      "label": "Brunswick World Champ",
      "description": "World Tournament champion",
      "howto": "Win the world tournament in career mode"
    }
  ]
}