{
  "achievementsPossible": 41,
  "credPossible": 1000,
  "achievements": [
    {
      "id": 14,
      "imageId": 186,
      "cred": 15,
      "flags": 6,
      "label": "Welcome to Africa - Tutorial",
      "description": "Induction Completed",
      "howto": "Complete the Induction mission"
    },
    {
      "id": 15,
      "imageId": 185,
      "cred": 50,
      "flags": 6,
      "label": "Wind of change",
      "description": "Achieved all objectives in Africa",
      "howto": "Achieve all objectives in Africa"
    },
    {
      "id": 16,
      "imageId": 184,
      "cred": 20,
      "flags": 6,
      "label": "A very bad feeling",
      "description": "Survived K-8 Nemesis Widowmaker encounter",
      "howto": "Survive the first encounter with the Nemesis"
    },
    {
      "id": 17,
      "imageId": 183,
      "cred": 30,
      "flags": 6,
      "label": "Wishing this was Vegas",
      "description": "Achieved all objectives in Asia",
      "howto": "Achieve all objectives in Asia"
    },
    {
      "id": 18,
      "imageId": 146,
      "cred": 30,
      "flags": 6,
      "label": "You FTW",
      "description": "Broke down the enemy's door",
      "howto": "Break into The Target's Weapons Nexus"
    },
    {
      "id": 19,
      "imageId": 182,
      "cred": 50,
      "flags": 6,
      "label": "Sleep when I'm dead",
      "description": "Defeated K-8 Nemesis Widowmaker",
      "howto": "Defeat the K-8 Nemesis Widowmaker"
    },
    {
      "id": 20,
      "imageId": 181,
      "cred": 20,
      "flags": 1,
      "label": "Easy-peasy",
      "description": "Single player challenge complete on easy",
      "howto": "Complete Single player campaign on easy"
    },
    {
      "id": 21,
      "imageId": 180,
      "cred": 30,
      "flags": 1,
      "label": "Bullet dodger",
      "description": "Single player challenge complete on normal",
      "howto": "Complete Single player campaign on normal"
    },
    {
      "id": 22,
      "imageId": 179,
      "cred": 45,
      "flags": 1,
      "label": "Warmonger",
      "description": "Single player challenge complete on hard",
      "howto": "Complete Single player campaign on hard"
    },
    {
      "id": 23,
      "imageId": 178,
      "cred": 10,
      "flags": 4,
      "label": "Military intelligence",
      "description": "Highest value intel collected following multiple skillkills",
      "howto": "Collect highest value Intel following multiple skillkills"
    },
    {
      "id": 24,
      "imageId": 177,
      "cred": 50,
      "flags": 3,
      "label": "Finger on the pulse",
      "description": "OSB Pulse Wave upgraded",
      "howto": "Upgrade OSB Pulse Wave"
    },
    {
      "id": 25,
      "imageId": 176,
      "cred": 50,
      "flags": 3,
      "label": "Lighting their fire",
      "description": "OSB Explosive bullets upgraded",
      "howto": "Upgrade OSB Explosive bullets"
    },
    {
      "id": 26,
      "imageId": 175,
      "cred": 50,
      "flags": 3,
      "label": "Bullet Repellent",
      "description": "OSB Adrenaline upgraded",
      "howto": "Upgrade OSB Adrenaline"
    },
    {
      "id": 27,
      "imageId": 174,
      "cred": 50,
      "flags": 3,
      "label": "Planes and flames",
      "description": "OSB Airstrike upgraded",
      "howto": "Upgrade OSB Airstrike"
    },
    {
      "id": 28,
      "imageId": 173,
      "cred": 20,
      "flags": 4,
      "label": "Distance warfare",
      "description": "Achieved Sniper Distance Kill",
      "howto": "Take out a Sniper with a grenade"
    },
    {
      "id": 29,
      "imageId": 172,
      "cred": 20,
      "flags": 4,
      "label": "Stealing is wrong, kids!",
      "description": "Scavenger Population Diminished",
      "howto": "Take out 10 Scavengers"
    },
    {
      "id": 30,
      "imageId": 171,
      "cred": 20,
      "flags": 4,
      "label": "Bad medicine",
      "description": "Medic Population Diminished",
      "howto": "Take out 10 Medics"
    },
    {
      "id": 31,
      "imageId": 170,
      "cred": 5,
      "flags": 4,
      "label": "Hitman",
      "description": "Killed 10 enemies with a headshot",
      "howto": "Kill 10 enemies with a headshot"
    },
    {
      "id": 32,
      "imageId": 169,
      "cred": 5,
      "flags": 4,
      "label": "Nowhere to hide",
      "description": "killed 10 enemies through cover",
      "howto": "Kill 10 enemies through cover"
    },
    {
      "id": 34,
      "imageId": 167,
      "cred": 5,
      "flags": 4,
      "label": "Up close and personal",
      "description": "Killed 10 enemies using melee",
      "howto": "Kill 10 enemies using melee"
    },
    {
      "id": 35,
      "imageId": 190,
      "cred": 5,
      "flags": 4,
      "label": "Robert Ford style",
      "description": "Killed 10 enemies from behind",
      "howto": "Kill 10 enemies from behind"
    },
    {
      "id": 36,
      "imageId": 161,
      "cred": 5,
      "flags": 4,
      "label": "Boombastic",
      "description": "Killed 10 enemies with explosives",
      "howto": "Kill 10 enemies with explosives"
    },
    {
      "id": 37,
      "imageId": 160,
      "cred": 5,
      "flags": 4,
      "label": "Hot potato",
      "description": "Killed 10 enemies with grenades",
      "howto": "Kill 10 enemies with grenades"
    },
    {
      "id": 38,
      "imageId": 159,
      "cred": 5,
      "flags": 4,
      "label": "Leg frag",
      "description": "Killed 10 enemies with mines",
      "howto": "Kill 10 enemies with mines"
    },
    {
      "id": 39,
      "imageId": 158,
      "cred": 5,
      "flags": 4,
      "label": "Last breath death",
      "description": "Killed 10 enemies while health is low",
      "howto": "Kill 10 enemies while health is low"
    },
    {
      "id": 40,
      "imageId": 157,
      "cred": 5,
      "flags": 4,
      "label": "Bullet with their name on it",
      "description": "Killed 10 enemies with the last round in your weapon",
      "howto": "Kill 10 enemies with the last round in your weapon"
    },
    {
      "id": 41,
      "imageId": 156,
      "cred": 5,
      "flags": 4,
      "label": "Under their nose",
      "description": "10 surprise kills executed",
      "howto": "Surprise kill 10 enemies"
    },
    {
      "id": 42,
      "imageId": 155,
      "cred": 10,
      "flags": 4,
      "label": "Multiboom-doom",
      "description": "Killed 3 enemies at once with a single grenade",
      "howto": "Kill 3 enemies at once with a single grenade"
    },
    {
      "id": 45,
      "imageId": 152,
      "cred": 50,
      "flags": 4,
      "label": "Network weapon",
      "description": "Skillkill x10",
      "howto": "Skillkill 10 enemies in a row"
    },
    {
      "id": 46,
      "imageId": 189,
      "cred": 50,
      "flags": 4,
      "label": "The Professional",
      "description": "Skillkill x25",
      "howto": "Skillkill 25 enemies in a row"
    },
    {
      "id": 47,
      "imageId": 151,
      "cred": 30,
      "flags": 4,
      "label": "Rain of fire",
      "description": "Killed 5 enemies at once with a single Airstrike",
      "howto": "Kill 5 enemies at once with an Airstrike"
    },
    {
      "id": 48,
      "imageId": 150,
      "cred": 30,
      "flags": 4,
      "label": "Online can of whoop-ass",
      "description": "Achieved 50 co-op kills within a siege",
      "howto": "Kill 50 enemies in a co-op mode siege"
    },
    {
      "id": 49,
      "imageId": 149,
      "cred": 50,
      "flags": 4,
      "label": "Never say 'Die'",
      "description": "Achieved 100 co-op kills within a siege",
      "howto": "Kill 100 enemies in a co-op mode siege"
    },
    {
      "id": 50,
      "imageId": 148,
      "cred": 10,
      "flags": 1,
      "label": "Don't call a doctor",
      "description": "Survived the Militarised Compound siege",
      "howto": "Survive the Militarised Compound siege"
    },
    {
      "id": 51,
      "imageId": 162,
      "cred": 10,
      "flags": 1,
      "label": "Kept at bay",
      "description": "Survived the Pirate Bay siege",
      "howto": "Survive the Pirate Bay siege"
    },
    {
      "id": 52,
      "imageId": 147,
      "cred": 10,
      "flags": 1,
      "label": "Out of the darkness",
      "description": "Survived the Mine siege",
      "howto": "Survive the Mine siege"
    },
    {
      "id": 53,
      "imageId": 187,
      "cred": 10,
      "flags": 1,
      "label": "Beat the street",
      "description": "Survived the Street siege",
      "howto": "Survive the Street siege"
    },
    {
      "id": 54,
      "imageId": 164,
      "cred": 15,
      "flags": 4,
      "label": "2nd place equals death!",
      "description": "Won a Deathmatch",
      "howto": "Win a Deathmatch"
    },
    {
      "id": 55,
      "imageId": 188,
      "cred": 15,
      "flags": 4,
      "label": "Team Bodycount®!",
      "description": "Won a Team Deathmatch",
      "howto": "Win a Team Deathmatch"
    },
    {
      "id": 56,
      "imageId": 163,
      "cred": 50,
      "flags": 4,
      "label": "Killed 'em all",
      "description": "Won 10 Deathmatches of any type",
      "howto": "Win 10 Deathmatches of any type"
    },
    {
      "id": 57,
      "imageId": 165,
      "cred": 50,
      "flags": 4,
      "label": "Kilo-killer",
      "description": "1000 online kills",
      "howto": "Score 1000 online kills"
    }
  ]
}