{
  "achievementsPossible": 40,
  "credPossible": 600,
  "achievements": [
    {
      "id": 1,
      "imageId": 38,
      "cred": 5,
      "flags": 4,
      "label": "Quick Study",
      "description": "Earned your first medal",
      "howto": "Earn your first medal"
    },
    {
      "id": 2,
      "imageId": 40,
      "cred": 5,
      "flags": 4,
      "label": "What Challenge?",
      "description": "Collected 8 Shot and Action Icons on the first Challenge Map",
      "howto": "Collect 8 Shot and Action Icons on the first Challenge Map"
    },
    {
      "id": 3,
      "imageId": 107,
      "cred": 5,
      "flags": 4,
      "label": "Punctual",
      "description": "Got a Perfect Timing Bonus Icon",
      "howto": "Get a Perfect Timing Bonus Icon"
    },
    {
      "id": 4,
      "imageId": 108,
      "cred": 5,
      "flags": 4,
      "label": "Hit The Weak Spot",
      "description": "Got a Massive Damage Bonus Icon",
      "howto": "Get a Massive Damage Bonus Icon"
    },
    {
      "id": 5,
      "imageId": 109,
      "cred": 5,
      "flags": 4,
      "label": "I Want Them All",
      "description": "Got an Icon Collector Bonus Icon",
      "howto": "Get an Icon Collector Bonus Icon"
    },
    {
      "id": 6,
      "imageId": 93,
      "cred": 5,
      "flags": 4,
      "label": "Good Start",
      "description": "Earned at least a Bronze Medal on 20 levels",
      "howto": "Earn at least a Bronze Medal on 20 levels"
    },
    {
      "id": 7,
      "imageId": 94,
      "cred": 10,
      "flags": 4,
      "label": "Keep Rolling",
      "description": "Earned at least a Bronze Medal on 40 levels",
      "howto": "Earn at least a Bronze Medal on 40 levels"
    },
    {
      "id": 8,
      "imageId": 44,
      "cred": 10,
      "flags": 4,
      "label": "Crack Shot!",
      "description": "Earned 5 Bonus Icons in a single shot",
      "howto": "Earn 5 Bonus Icons in a single shot"
    },
    {
      "id": 9,
      "imageId": 112,
      "cred": 10,
      "flags": 4,
      "label": "Ghostride the Whip",
      "description": "Took the Hot Goblin for a ride 30 times",
      "howto": "Take the Hot Goblin for a ride 30 times"
    },
    {
      "id": 10,
      "imageId": 49,
      "cred": 10,
      "flags": 4,
      "label": "Building an Army",
      "description": "You've enlisted to help fight the good fight.",
      "howto": "Perform and hold a salute during the credits for 15 seconds."
    },
    {
      "id": 11,
      "imageId": 46,
      "cred": 10,
      "flags": 4,
      "label": "Split Decision",
      "description": "Collected 5 Shot Icons in a single shot with the Split Shot",
      "howto": "Collect 5 Shot Icons in a single shot with the Split Shot"
    },
    {
      "id": 12,
      "imageId": 113,
      "cred": 10,
      "flags": 4,
      "label": "Oh, you got tricks?",
      "description": "You have earned every Bonus Icon",
      "howto": "Get one of every Bonus Icon"
    },
    {
      "id": 13,
      "imageId": 101,
      "cred": 10,
      "flags": 4,
      "label": "Stay On Target",
      "description": "Got 10 Daredevil Icons with a single Flying Shot",
      "howto": "Get 10 Daredevil Icons with a single Flying Shot"
    },
    {
      "id": 14,
      "imageId": 102,
      "cred": 10,
      "flags": 4,
      "label": "Actual Historical Shot",
      "description": "Got Massive Damage, Earned A Mulligan, and Bank Shot Bonus Icons with a single shot",
      "howto": "Get Massive Damage, Earned A Mulligan, and Bank Shot Bonus Icons with a single shot"
    },
    {
      "id": 15,
      "imageId": 103,
      "cred": 10,
      "flags": 4,
      "label": "Surprise",
      "description": "Got Perfect Timing and Terrifying Bonus Icons with a single shot",
      "howto": "Get Perfect Timing and Terrifying Bonus Icons with a single shot"
    },
    {
      "id": 16,
      "imageId": 104,
      "cred": 10,
      "flags": 4,
      "label": "Red Baron",
      "description": "Got Low Power, Daredevil, and Dive Bomber Bonus Icons with a single shot",
      "howto": "Get Low Power, Daredevil, and Dive Bomber Bonus Icons with a single shot"
    },
    {
      "id": 17,
      "imageId": 105,
      "cred": 10,
      "flags": 4,
      "label": "Insult To Injury",
      "description": "Collected any Shot Icon and an In The Face Bonus Icon with a single shot",
      "howto": "Collect any Shot Icon and an In The Face Bonus Icon with a single shot"
    },
    {
      "id": 18,
      "imageId": 106,
      "cred": 10,
      "flags": 4,
      "label": "Buzz The Tower",
      "description": "Got a Daredevil Bonus Icon with a Flying Shot",
      "howto": "Get a Daredevil Bonus Icon with a Flying Shot"
    },
    {
      "id": 19,
      "imageId": 110,
      "cred": 10,
      "flags": 4,
      "label": "Once More With Feeling",
      "description": "Used 50 Mulligans",
      "howto": "Use 50 Mulligans"
    },
    {
      "id": 20,
      "imageId": 47,
      "cred": 15,
      "flags": 4,
      "label": "'Splosion Shot",
      "description": "Got a 125,000 point shot by Activating the Bomb Shot",
      "howto": "Get a 125,000 point shot by Activating the Bomb Shot"
    },
    {
      "id": 21,
      "imageId": 45,
      "cred": 15,
      "flags": 4,
      "label": "Flying High",
      "description": "Collected 10 Shot Icons in a single shot with the Flying Shot",
      "howto": "Collect 10 Shot Icons in a single shot with the Flying Shot"
    },
    {
      "id": 22,
      "imageId": 99,
      "cred": 15,
      "flags": 4,
      "label": "Bosslike",
      "description": "Earned at least a Silver Medal on all Challenge Maps",
      "howto": "Earn at least a Silver Medal on all Challenge Maps"
    },
    {
      "id": 23,
      "imageId": 41,
      "cred": 15,
      "flags": 4,
      "label": "Will Wreck for Food And Gold",
      "description": "Earned Gold Medals in 20 Levels",
      "howto": "Earn Gold Medals in 20 Levels"
    },
    {
      "id": 24,
      "imageId": 42,
      "cred": 20,
      "flags": 4,
      "label": "Sir Wrecks-a-lot",
      "description": "Earned Gold Medals in 40 Levels",
      "howto": "Earn Gold Medals in 40 Levels"
    },
    {
      "id": 25,
      "imageId": 48,
      "cred": 20,
      "flags": 4,
      "label": "Green is Good",
      "description": "You got to 1,000 Goblins destroyed in the Goblins Leaderboard",
      "howto": "Get to 1,000 Goblins destroyed in the Goblins Leaderboard"
    },
    {
      "id": 26,
      "imageId": 96,
      "cred": 15,
      "flags": 4,
      "label": "Respectable",
      "description": "Earned at least a Silver Medal on 40 levels",
      "howto": "Earn at least a Silver Medal on 40 levels"
    },
    {
      "id": 27,
      "imageId": 97,
      "cred": 25,
      "flags": 4,
      "label": "Serious Earner",
      "description": "Earned at least a Silver Medal on all Campaign Levels",
      "howto": "Earn at least a Silver Medal on all Campaign Levels"
    },
    {
      "id": 28,
      "imageId": 100,
      "cred": 25,
      "flags": 4,
      "label": "Wrecking With The Best",
      "description": "Earned 25,000,000 total points",
      "howto": "Earn 25,000,000 total points"
    },
    {
      "id": 29,
      "imageId": 43,
      "cred": 35,
      "flags": 4,
      "label": "Master of Destruction",
      "description": "Earned Gold Medals in all Levels, including Challenges",
      "howto": "Earn Gold Medals in all Levels, including Challenges"
    },
    {
      "id": 30,
      "imageId": 39,
      "cred": 40,
      "flags": 1,
      "label": "True Wreckateer",
      "description": "Completed all Campaign Levels",
      "howto": "Complete all Campaign Levels"
    },
    {
      "id": 31,
      "imageId": 200,
      "cred": 20,
      "flags": 1,
      "label": "Gold Miner",
      "description": "Got Gold on all Region 11 levels.",
      "howto": "Get Gold on all Region 11 levels."
    },
    {
      "id": 32,
      "imageId": 201,
      "cred": 20,
      "flags": 4,
      "label": "Who Needs Friends?",
      "description": "Surpassed a Rival after achieving a Gold Medal on a Region 11 level.",
      "howto": "Surpass a Rival after achieving a Gold Medal on a Region 11 level."
    },
    {
      "id": 33,
      "imageId": 202,
      "cred": 20,
      "flags": 4,
      "label": "Bank Loan",
      "description": "Bank shot for a 150,000 point shot score in Region 11.",
      "howto": "Bank shot for a 150,000 point shot score in Region 11."
    },
    {
      "id": 34,
      "imageId": 203,
      "cred": 20,
      "flags": 4,
      "label": "Dragon Slayer",
      "description": "Destroyed 5 Windmills in Region 11.",
      "howto": "Destroy 5 Windmills in Region 11."
    },
    {
      "id": 35,
      "imageId": 204,
      "cred": 20,
      "flags": 4,
      "label": "Super Combo",
      "description": "Got the Terrifying, Mulligan, and Do Over! Bonus Icons in a single shot in Region 11.",
      "howto": "Get the Terrifying, Mulligan, and Do Over! Bonus Icons in a single shot in Region 11."
    },
    {
      "id": 36,
      "imageId": 300,
      "cred": 20,
      "flags": 1,
      "label": "Gold Miner 2.0",
      "description": "Got Gold on all Region 12 levels.",
      "howto": "Get Gold on all Region 12 levels."
    },
    {
      "id": 37,
      "imageId": 301,
      "cred": 20,
      "flags": 4,
      "label": "The Frightening",
      "description": "Made 30 Goblins cower before your might in Region 12.",
      "howto": "Make 30 Goblins cower before your might in Region 12."
    },
    {
      "id": 38,
      "imageId": 302,
      "cred": 20,
      "flags": 4,
      "label": "Crack Shot 2.0",
      "description": "Got 7 or more Bonus Icons in a single shot in Region 12, no Flying or Lift Shots.",
      "howto": "Get 7 or more Bonus Icons in a single shot in Region 12, no Flying or Lift Shots."
    },
    {
      "id": 39,
      "imageId": 303,
      "cred": 20,
      "flags": 4,
      "label": "Stunt Lifting!",
      "description": "Collected 20 Daredevil Bonus Icons with the Lift Shot in Region 12.",
      "howto": "Collect 20 Daredevil Bonus Icons with the Lift Shot in Region 12."
    },
    {
      "id": 40,
      "imageId": 304,
      "cred": 20,
      "flags": 4,
      "label": "Mega Combo",
      "description": "Got Low Power, Daredevil, Bank Shot, and Terrifying Bonus Icons in a single shot in Region 12.",
      "howto": "Get Low Power, Daredevil, Bank Shot, and Terrifying Bonus Icons in a single shot in Region 12."
    }
  ]
}