{
  "achievementsPossible": 50,
  "credPossible": 1000,
  "achievements": [
    {
      "id": 63,
      "imageId": 54,
      "cred": 15,
      "flags": 1,
      "label": "Welcome to Forza Motorsport",
      "description": "Complete the very first race in the game.",
      "howto": "Complete the very first race in the game."
    },
    {
      "id": 64,
      "imageId": 2,
      "cred": 5,
      "flags": 4,
      "label": "Bottomed Out",
      "description": "Jump five feet.",
      "howto": "Jump five feet."
    },
    {
      "id": 65,
      "imageId": 46,
      "cred": 5,
      "flags": 4,
      "label": "Interior",
      "description": "Win a race using cockpit view.",
      "howto": "Win a race using cockpit view."
    },
    {
      "id": 67,
      "imageId": 11,
      "cred": 5,
      "flags": 4,
      "label": "Demon",
      "description": "Travel in excess of 200 mph.",
      "howto": "Travel in excess of 200 mph."
    },
    {
      "id": 68,
      "imageId": 13,
      "cred": 5,
      "flags": 4,
      "label": "Drifter",
      "description": "Earn over 1,000 points in a single drift section.",
      "howto": "Earn over 1,000 points in a single drift section."
    },
    {
      "id": 70,
      "imageId": 14,
      "cred": 5,
      "flags": 4,
      "label": "Drift Lap",
      "description": "Earn over 100,000 points in a single lap.",
      "howto": "Earn over 100,000 points in a single lap."
    },
    {
      "id": 72,
      "imageId": 15,
      "cred": 10,
      "flags": 2,
      "label": "Driver Level 1",
      "description": "Level 1 in Season Play",
      "howto": "Reach Driver Level 1 in Season Play mode."
    },
    {
      "id": 73,
      "imageId": 17,
      "cred": 10,
      "flags": 2,
      "label": "Driver Level 2",
      "description": "Level 2 in Season Play",
      "howto": "Reach Driver Level 2 in Season Play mode."
    },
    {
      "id": 75,
      "imageId": 18,
      "cred": 10,
      "flags": 2,
      "label": "Driver Level 3",
      "description": "Level 3 in Season Play",
      "howto": "Reach Driver Level 3 in Season Play mode."
    },
    {
      "id": 77,
      "imageId": 52,
      "cred": 10,
      "flags": 1,
      "label": "Weekday Event",
      "description": "Complete your first weekday event in Season Play mode.",
      "howto": "Complete your first weekday event in Season Play mode."
    },
    {
      "id": 79,
      "imageId": 21,
      "cred": 10,
      "flags": 2,
      "label": "Driver Level 4",
      "description": "Level 4 in Season Play",
      "howto": "Reach Driver Level 4 in Season Play mode."
    },
    {
      "id": 81,
      "imageId": 22,
      "cred": 10,
      "flags": 2,
      "label": "Driver Level 5",
      "description": "Level 5 in Season Play",
      "howto": "Reach Driver Level 5 in Season Play mode."
    },
    {
      "id": 83,
      "imageId": 53,
      "cred": 10,
      "flags": 1,
      "label": "Weekend",
      "description": "Complete your first weekend race in Season Play mode.",
      "howto": "Complete your first weekend race in Season Play mode."
    },
    {
      "id": 88,
      "imageId": 23,
      "cred": 10,
      "flags": 2,
      "label": "Driver Level 6",
      "description": "Level 6 in Season Play",
      "howto": "Reach Driver Level 6 in Season Play mode."
    },
    {
      "id": 89,
      "imageId": 24,
      "cred": 10,
      "flags": 2,
      "label": "Driver Level 7",
      "description": "Level 7 in Season Play",
      "howto": "Reach Driver Level 7 in Season Play mode."
    },
    {
      "id": 90,
      "imageId": 25,
      "cred": 10,
      "flags": 2,
      "label": "Driver Level 8",
      "description": "Level 8 in Season Play",
      "howto": "Reach Driver Level 8 in Season Play mode."
    },
    {
      "id": 91,
      "imageId": 26,
      "cred": 10,
      "flags": 2,
      "label": "Driver Level 9",
      "description": "Level 9 in Season Play",
      "howto": "Reach Driver Level 9 in Season Play mode."
    },
    {
      "id": 92,
      "imageId": 27,
      "cred": 10,
      "flags": 2,
      "label": "Driver Level 10",
      "description": "Reach Driver Level 10 in Season Play mode.",
      "howto": "Reach Driver Level 10 in Season Play mode."
    },
    {
      "id": 93,
      "imageId": 64,
      "cred": 15,
      "flags": 2,
      "label": "Driver Level 15",
      "description": "Level 15 in Season Play",
      "howto": "Reach Driver Level 15 in Season Play mode."
    },
    {
      "id": 94,
      "imageId": 28,
      "cred": 20,
      "flags": 2,
      "label": "Driver Level 20",
      "description": "Reach Driver Level 20 in Season Play mode.",
      "howto": "Reach Driver Level 20 in Season Play mode."
    },
    {
      "id": 95,
      "imageId": 29,
      "cred": 25,
      "flags": 2,
      "label": "Driver Level 25",
      "description": "Level 25 in Season Play",
      "howto": "Reach Driver Level 25 in Season Play mode."
    },
    {
      "id": 96,
      "imageId": 30,
      "cred": 30,
      "flags": 2,
      "label": "Driver Level 30",
      "description": "Reach Driver Level 30 in Season Play mode.",
      "howto": "Reach Driver Level 30 in Season Play mode."
    },
    {
      "id": 97,
      "imageId": 40,
      "cred": 35,
      "flags": 2,
      "label": "Driver Level 35",
      "description": "Level 35 in Season Play",
      "howto": "Reach Driver Level 35 in Season Play mode."
    },
    {
      "id": 98,
      "imageId": 41,
      "cred": 40,
      "flags": 2,
      "label": "Driver Level 40",
      "description": "Reach Driver Level 40 in Season Play mode.",
      "howto": "Reach Driver Level 40 in Season Play mode."
    },
    {
      "id": 99,
      "imageId": 42,
      "cred": 45,
      "flags": 2,
      "label": "Driver Level 45",
      "description": "Level 45 in Season Play",
      "howto": "Reach Driver Level 45 in Season Play mode."
    },
    {
      "id": 100,
      "imageId": 43,
      "cred": 50,
      "flags": 2,
      "label": "Driver Level 50",
      "description": "Reach Driver Level 50 in Season Play mode.",
      "howto": "Reach Driver Level 50 in Season Play mode."
    },
    {
      "id": 101,
      "imageId": 51,
      "cred": 80,
      "flags": 1,
      "label": "Solid Gold",
      "description": "Achieve a gold trophy in every single race in the Event List in Season Play mode.",
      "howto": "Achieve a gold trophy in every single race in the Event List in Season Play mode."
    },
    {
      "id": 102,
      "imageId": 55,
      "cred": 25,
      "flags": 1,
      "label": "World Traveler",
      "description": "Race at every track location in the world.",
      "howto": "Race at every track location in the world."
    },
    {
      "id": 103,
      "imageId": 3,
      "cred": 5,
      "flags": 2,
      "label": "Car Level 1",
      "description": "Achieve Car Level 1 in Season Play mode.",
      "howto": "Achieve Car Level 1 in Season Play mode."
    },
    {
      "id": 104,
      "imageId": 4,
      "cred": 5,
      "flags": 2,
      "label": "Car Level 2",
      "description": "Achieve Car Level 2 in Season Play mode.",
      "howto": "Achieve Car Level 2 in Season Play mode."
    },
    {
      "id": 105,
      "imageId": 5,
      "cred": 5,
      "flags": 2,
      "label": "Car Level 3",
      "description": "Achieve Car Level 3 in Season Play mode.",
      "howto": "Achieve Car Level 3 in Season Play mode."
    },
    {
      "id": 106,
      "imageId": 6,
      "cred": 5,
      "flags": 2,
      "label": "Car Level 4",
      "description": "Achieve Car Level 4 in Season Play mode.",
      "howto": "Achieve Car Level 4 in Season Play mode."
    },
    {
      "id": 107,
      "imageId": 7,
      "cred": 5,
      "flags": 2,
      "label": "Car Level 5",
      "description": "Achieve Car Level 5 in Season Play mode.",
      "howto": "Achieve Car Level 5 in Season Play mode."
    },
    {
      "id": 108,
      "imageId": 56,
      "cred": 50,
      "flags": 1,
      "label": "Year 1",
      "description": "Complete the first year of Season Play.",
      "howto": "Complete the first year of Season Play."
    },
    {
      "id": 109,
      "imageId": 57,
      "cred": 50,
      "flags": 1,
      "label": "Year 2",
      "description": "Complete the second year of Season Play.",
      "howto": "Complete the second year of Season Play."
    },
    {
      "id": 110,
      "imageId": 58,
      "cred": 50,
      "flags": 1,
      "label": "Year 3",
      "description": "Complete the third year of Season Play.",
      "howto": "Complete the third year of Season Play."
    },
    {
      "id": 111,
      "imageId": 59,
      "cred": 50,
      "flags": 1,
      "label": "Year 4",
      "description": "Complete the fourth year of Season Play.",
      "howto": "Complete the fourth year of Season Play."
    },
    {
      "id": 112,
      "imageId": 60,
      "cred": 50,
      "flags": 1,
      "label": "Year 5",
      "description": "Complete the fifth year of Season Play.",
      "howto": "Complete the fifth year of Season Play."
    },
    {
      "id": 113,
      "imageId": 61,
      "cred": 50,
      "flags": 1,
      "label": "Year 6",
      "description": "Complete the sixth year of Season Play.",
      "howto": "Complete the sixth year of Season Play."
    },
    {
      "id": 114,
      "imageId": 47,
      "cred": 10,
      "flags": 1,
      "label": "Lapper",
      "description": "Complete a Time Trial.",
      "howto": "Complete a Time Trial."
    },
    {
      "id": 115,
      "imageId": 1,
      "cred": 10,
      "flags": 7,
      "label": "Auctioneer",
      "description": "Sell a car in the Auction House.",
      "howto": "Sell a car in the Auction House."
    },
    {
      "id": 116,
      "imageId": 50,
      "cred": 10,
      "flags": 7,
      "label": "Sniper",
      "description": "Win an auction by outbidding someone.",
      "howto": "Win an auction by outbidding someone."
    },
    {
      "id": 117,
      "imageId": 49,
      "cred": 10,
      "flags": 7,
      "label": "Shutterbug",
      "description": "Take a photo of your car.",
      "howto": "Take a photo of your car."
    },
    {
      "id": 118,
      "imageId": 44,
      "cred": 10,
      "flags": 7,
      "label": "Grease Monkey",
      "description": "Create a car tuning file for your car.",
      "howto": "Create a car tuning file for your car."
    },
    {
      "id": 119,
      "imageId": 48,
      "cred": 10,
      "flags": 7,
      "label": "Painter",
      "description": "Create a paint job or vinyl group.",
      "howto": "Create a paint job or vinyl group."
    },
    {
      "id": 120,
      "imageId": 9,
      "cred": 10,
      "flags": 7,
      "label": "Curator",
      "description": "Upload a photo or movie to Forzamotorsport.net.",
      "howto": "Upload a photo or movie to Forzamotorsport.net."
    },
    {
      "id": 121,
      "imageId": 63,
      "cred": 10,
      "flags": 7,
      "label": "Entrepreneur",
      "description": "Sell a Tuning Setup, Design, or Vinyl Group from your storefront.",
      "howto": "Sell a Tuning Setup, Design, or Vinyl Group from your storefront."
    },
    {
      "id": 122,
      "imageId": 62,
      "cred": 10,
      "flags": 7,
      "label": "Buyer",
      "description": "Buy something using the storefront.",
      "howto": "Buy something using the storefront."
    },
    {
      "id": 123,
      "imageId": 12,
      "cred": 10,
      "flags": 7,
      "label": "Director",
      "description": "Complete your first Forza Motorsport movie.",
      "howto": "Complete your first Forza Motorsport movie."
    },
    {
      "id": 124,
      "imageId": 8,
      "cred": 50,
      "flags": 7,
      "label": "Connoisseur",
      "description": "Own (at least) one car from every manufacturer.",
      "howto": "Own (at least) one car from every manufacturer."
    }
  ]
}