[
  {
    "titleId": 1296173009,
    "largeId": 163840,
    "smallId": 98304,
    "commonId": 32768
  },
  {
    "titleId": 1296173009,
    "largeId": 163841,
    "smallId": 98305,
    "commonId": 32769
  },
  {
    "titleId": 1296173009,
    "largeId": 163842,
    "smallId": 98306,
    "commonId": 32770
  },
  {
    "titleId": 1296173009,
    "largeId": 163843,
    "smallId": 98307,
    "commonId": 32771
  },
  {
    "titleId": 1296173009,
    "largeId": 163844,
    "smallId": 98308,
    "commonId": 32772
  },
  {
    "titleId": 1296173009,
    "largeId": 163845,
    "smallId": 98309,
    "commonId": 32773
  },
  {
    "titleId": 1296173009,
    "largeId": 163846,
    "smallId": 98310,
    "commonId": 32774
  },
  {
    "titleId": 1296173009,
    "largeId": 163847,
    "smallId": 98311,
    "commonId": 32775
  },
  {
    "titleId": 1296173009,
    "largeId": 163848,
    "smallId": 98312,
    "commonId": 32776
  },
  {
    "titleId": 1296173009,
    "largeId": 163849,
    "smallId": 98313,
    "commonId": 32777
  },
  {
    "titleId": 1296173009,
    "largeId": 163850,
    "smallId": 98314,
    "commonId": 32778
  },
  {
    "titleId": 1296173009,
    "largeId": 163851,
    "smallId": 98315,
    "commonId": 32779
  },
  {
    "titleId": 1296173009,
    "largeId": 163852,
    "smallId": 98316,
    "commonId": 32780
  },
  {
    "titleId": 1296173009,
    "largeId": 163853,
    "smallId": 98317,
    "commonId": 32781
  },
  {
    "titleId": 1296173009,
    "largeId": 163854,
    "smallId": 98318,
    "commonId": 32782
  },
  {
    "titleId": 1296173009,
    "largeId": 163855,
    "smallId": 98319,
    "commonId": 32783
  },
  {
    "titleId": 1296173009,
    "largeId": 163856,
    "smallId": 98320,
    "commonId": 32784
  },
  {
    "titleId": 1296173009,
    "largeId": 163857,
    "smallId": 98321,
    "commonId": 32785
  },
  {
    "titleId": 1296173009,
    "largeId": 163858,
    "smallId": 98322,
    "commonId": 32786
  },
  {
    "titleId": 1296173009,
    "largeId": 163859,
    "smallId": 98323,
    "commonId": 32787
  },
  {
    "titleId": 1296173009,
    "largeId": 163860,
    "smallId": 98324,
    "commonId": 32788
  },
  {
    "titleId": 1296173009,
    "largeId": 163861,
    "smallId": 98325,
    "commonId": 32789
  },
  {
    "titleId": 1296173009,
    "largeId": 163862,
    "smallId": 98326,
    "commonId": 32790
  },
  {
    "titleId": 1296173009,
    "largeId": 163863,
    "smallId": 98327,
    "commonId": 32791
  },
  {
    "titleId": 1296173009,
    "largeId": 163864,
    "smallId": 98328,
    "commonId": 32792
  },
  {
    "titleId": 1296173009,
    "largeId": 163865,
    "smallId": 98329,
    "commonId": 32793
  },
  {
    "titleId": 1296173009,
    "largeId": 163866,
    "smallId": 98330,
    "commonId": 32794
  },
  {
    "titleId": 1296173009,
    "largeId": 163867,
    "smallId": 98331,
    "commonId": 32795
  },
  {
    "titleId": 1296173009,
    "largeId": 163868,
    "smallId": 98332,
    "commonId": 32796
  },
  {
    "titleId": 1296173009,
    "largeId": 163869,
    "smallId": 98333,
    "commonId": 32797
  },
  {
    "titleId": 1296173009,
    "largeId": 163870,
    "smallId": 98334,
    "commonId": 32798
  },
  {
    "titleId": 1296173009,
    "largeId": 163871,
    "smallId": 98335,
    "commonId": 32799
  },
  {
    "titleId": 1296173009,
    "largeId": 163872,
    "smallId": 98336,
    "commonId": 32800
  },
  {
    "titleId": 1296173009,
    "largeId": 163873,
    "smallId": 98337,
    "commonId": 32801
  },
  {
    "titleId": 1296173009,
    "largeId": 163874,
    "smallId": 98338,
    "commonId": 32802
  },
  {
    "titleId": 1296173009,
    "largeId": 163875,
    "smallId": 98339,
    "commonId": 32803
  },
  {
    "titleId": 1296173009,
    "largeId": 163876,
    "smallId": 98340,
    "commonId": 32804
  },
  {
    "titleId": 1296173009,
    "largeId": 163877,
    "smallId": 98341,
    "commonId": 32805
  },
  {
    "titleId": 1296173009,
    "largeId": 163878,
    "smallId": 98342,
    "commonId": 32806
  },
  {
    "titleId": 1296173009,
    "largeId": 163879,
    "smallId": 98343,
    "commonId": 32807
  },
  {
    "titleId": 1296173009,
    "largeId": 163880,
    "smallId": 98344,
    "commonId": 32808
  },
  {
    "titleId": 1296173009,
    "largeId": 163881,
    "smallId": 98345,
    "commonId": 32809
  },
  {
    "titleId": 1296173009,
    "largeId": 163882,
    "smallId": 98346,
    "commonId": 32810
  },
  {
    "titleId": 1296173009,
    "largeId": 163883,
    "smallId": 98347,
    "commonId": 32811
  },
  {
    "titleId": 1296173009,
    "largeId": 163884,
    "smallId": 98348,
    "commonId": 32812
  },
  {
    "titleId": 1296173009,
    "largeId": 163885,
    "smallId": 98349,
    "commonId": 32813
  },
  {
    "titleId": 1296173009,
    "largeId": 163886,
    "smallId": 98350,
    "commonId": 32814
  },
  {
    "titleId": 1296173009,
    "largeId": 163887,
    "smallId": 98351,
    "commonId": 32815
  },
  {
    "titleId": 1296173009,
    "largeId": 163888,
    "smallId": 98352,
    "commonId": 32816
  },
  {
    "titleId": 1296173009,
    "largeId": 163889,
    "smallId": 98353,
    "commonId": 32817
  },
  {
    "titleId": 1296173009,
    "largeId": 163890,
    "smallId": 98354,
    "commonId": 32818
  },
  {
    "titleId": 1296173009,
    "largeId": 163891,
    "smallId": 98355,
    "commonId": 32819
  },
  {
    "titleId": 1296173009,
    "largeId": 163892,
    "smallId": 98356,
    "commonId": 32820
  },
  {
    "titleId": 1296173009,
    "largeId": 163893,
    "smallId": 98357,
    "commonId": 32821
  },
  {
    "titleId": 1296173009,
    "largeId": 163894,
    "smallId": 98358,
    "commonId": 32822
  },
  {
    "titleId": 1296173009,
    "largeId": 163895,
    "smallId": 98359,
    "commonId": 32823
  },
  {
    "titleId": 1296173009,
    "largeId": 163896,
    "smallId": 98360,
    "commonId": 32824
  },
  {
    "titleId": 1296173009,
    "largeId": 163897,
    "smallId": 98361,
    "commonId": 32825
  },
  {
    "titleId": 1296173009,
    "largeId": 163898,
    "smallId": 98362,
    "commonId": 32826
  },
  {
    "titleId": 1296173009,
    "largeId": 163899,
    "smallId": 98363,
    "commonId": 32827
  },
  {
    "titleId": 1296173009,
    "largeId": 163900,
    "smallId": 98364,
    "commonId": 32828
  },
  {
    "titleId": 1296173009,
    "largeId": 163901,
    "smallId": 98365,
    "commonId": 32829
  },
  {
    "titleId": 1296173009,
    "largeId": 163902,
    "smallId": 98366,
    "commonId": 32830
  },
  {
    "titleId": 1296173009,
    "largeId": 163903,
    "smallId": 98367,
    "commonId": 32831
  },
  {
    "titleId": 1296173009,
    "largeId": 163904,
    "smallId": 98368,
    "commonId": 32832
  },
  {
    "titleId": 1296173009,
    "largeId": 163905,
    "smallId": 98369,
    "commonId": 32833
  },
  {
    "titleId": 1296173009,
    "largeId": 163906,
    "smallId": 98370,
    "commonId": 32834
  },
  {
    "titleId": 1296173009,
    "largeId": 163907,
    "smallId": 98371,
    "commonId": 32835
  },
  {
    "titleId": 1296173009,
    "largeId": 163908,
    "smallId": 98372,
    "commonId": 32836
  },
  {
    "titleId": 1296173009,
    "largeId": 163909,
    "smallId": 98373,
    "commonId": 32837
  },
  {
    "titleId": 1296173009,
    "largeId": 163910,
    "smallId": 98374,
    "commonId": 32838
  },
  {
    "titleId": 1296173009,
    "largeId": 163911,
    "smallId": 98375,
    "commonId": 32839
  },
  {
    "titleId": 1296173009,
    "largeId": 163912,
    "smallId": 98376,
    "commonId": 32840
  },
  {
    "titleId": 1296173009,
    "largeId": 163913,
    "smallId": 98377,
    "commonId": 32841
  },
  {
    "titleId": 1296173009,
    "largeId": 163914,
    "smallId": 98378,
    "commonId": 32842
  },
  {
    "titleId": 1296173009,
    "largeId": 163915,
    "smallId": 98379,
    "commonId": 32843
  },
  {
    "titleId": 1296173009,
    "largeId": 163916,
    "smallId": 98380,
    "commonId": 32844
  },
  {
    "titleId": 1296173009,
    "largeId": 163917,
    "smallId": 98381,
    "commonId": 32845
  },
  {
    "titleId": 1296173009,
    "largeId": 163918,
    "smallId": 98382,
    "commonId": 32846
  },
  {
    "titleId": 1296173009,
    "largeId": 163919,
    "smallId": 98383,
    "commonId": 32847
  },
  {
    "titleId": 1296173009,
    "largeId": 163920,
    "smallId": 98384,
    "commonId": 32848
  },
  {
    "titleId": 1296173009,
    "largeId": 163921,
    "smallId": 98385,
    "commonId": 32849
  },
  {
    "titleId": 1296173009,
    "largeId": 163922,
    "smallId": 98386,
    "commonId": 32850
  },
  {
    "titleId": 1296173009,
    "largeId": 163923,
    "smallId": 98387,
    "commonId": 32851
  },
  {
    "titleId": 1296173009,
    "largeId": 163924,
    "smallId": 98388,
    "commonId": 32852
  },
  {
    "titleId": 1296173009,
    "largeId": 163925,
    "smallId": 98389,
    "commonId": 32853
  },
  {
    "titleId": 1296173009,
    "largeId": 163926,
    "smallId": 98390,
    "commonId": 32854
  },
  {
    "titleId": 1296173009,
    "largeId": 163927,
    "smallId": 98391,
    "commonId": 32855
  },
  {
    "titleId": 1296173009,
    "largeId": 163928,
    "smallId": 98392,
    "commonId": 32856
  },
  {
    "titleId": 1296173009,
    "largeId": 163929,
    "smallId": 98393,
    "commonId": 32857
  },
  {
    "titleId": 1296173009,
    "largeId": 163930,
    "smallId": 98394,
    "commonId": 32858
  },
  {
    "titleId": 1296173009,
    "largeId": 163931,
    "smallId": 98395,
    "commonId": 32859
  },
  {
    "titleId": 1296173009,
    "largeId": 163932,
    "smallId": 98396,
    "commonId": 32860
  },
  {
    "titleId": 1296173009,
    "largeId": 163933,
    "smallId": 98397,
    "commonId": 32861
  },
  {
    "titleId": 1296173009,
    "largeId": 163934,
    "smallId": 98398,
    "commonId": 32862
  },
  {
    "titleId": 1296173009,
    "largeId": 163935,
    "smallId": 98399,
    "commonId": 32863
  },
  {
    "titleId": 1296173009,
    "largeId": 163936,
    "smallId": 98400,
    "commonId": 32864
  },
  {
    "titleId": 1296173009,
    "largeId": 163937,
    "smallId": 98401,
    "commonId": 32865
  },
  {
    "titleId": 1296173009,
    "largeId": 163938,
    "smallId": 98402,
    "commonId": 32866
  },
  {
    "titleId": 1296173009,
    "largeId": 163939,
    "smallId": 98403,
    "commonId": 32867
  },
  {
    "titleId": 1296173009,
    "largeId": 163940,
    "smallId": 98404,
    "commonId": 32868
  },
  {
    "titleId": 1296173009,
    "largeId": 163941,
    "smallId": 98405,
    "commonId": 32869
  },
  {
    "titleId": 1296173009,
    "largeId": 163942,
    "smallId": 98406,
    "commonId": 32870
  },
  {
    "titleId": 1296173009,
    "largeId": 163943,
    "smallId": 98407,
    "commonId": 32871
  },
  {
    "titleId": 1296173009,
    "largeId": 163944,
    "smallId": 98408,
    "commonId": 32872
  },
  {
    "titleId": 1296173009,
    "largeId": 163945,
    "smallId": 98409,
    "commonId": 32873
  },
  {
    "titleId": 1296173009,
    "largeId": 163946,
    "smallId": 98410,
    "commonId": 32874
  },
  {
    "titleId": 1296173009,
    "largeId": 163947,
    "smallId": 98411,
    "commonId": 32875
  },
  {
    "titleId": 1296173009,
    "largeId": 163948,
    "smallId": 98412,
    "commonId": 32876
  },
  {
    "titleId": 1296173009,
    "largeId": 163949,
    "smallId": 98413,
    "commonId": 32877
  },
  {
    "titleId": 1296173009,
    "largeId": 163950,
    "smallId": 98414,
    "commonId": 32878
  },
  {
    "titleId": 1296173009,
    "largeId": 163951,
    "smallId": 98415,
    "commonId": 32879
  },
  {
    "titleId": 1296173009,
    "largeId": 163952,
    "smallId": 98416,
    "commonId": 32880
  },
  {
    "titleId": 1296173009,
    "largeId": 163953,
    "smallId": 98417,
    "commonId": 32881
  },
  {
    "titleId": 1296173009,
    "largeId": 163954,
    "smallId": 98418,
    "commonId": 32882
  },
  {
    "titleId": 1296173009,
    "largeId": 163955,
    "smallId": 98419,
    "commonId": 32883
  },
  {
    "titleId": 1296173009,
    "largeId": 163956,
    "smallId": 98420,
    "commonId": 32884
  },
  {
    "titleId": 1296173009,
    "largeId": 163957,
    "smallId": 98421,
    "commonId": 32885
  },
  {
    "titleId": 1296173009,
    "largeId": 163958,
    "smallId": 98422,
    "commonId": 32886
  },
  {
    "titleId": 1296173009,
    "largeId": 163959,
    "smallId": 98423,
    "commonId": 32887
  },
  {
    "titleId": 1296173009,
    "largeId": 163960,
    "smallId": 98424,
    "commonId": 32888
  },
  {
    "titleId": 1296173009,
    "largeId": 163961,
    "smallId": 98425,
    "commonId": 32889
  },
  {
    "titleId": 1296173009,
    "largeId": 163962,
    "smallId": 98426,
    "commonId": 32890
  },
  {
    "titleId": 1296173009,
    "largeId": 163963,
    "smallId": 98427,
    "commonId": 32891
  },
  {
    "titleId": 1296173009,
    "largeId": 163964,
    "smallId": 98428,
    "commonId": 32892
  },
  {
    "titleId": 1296173009,
    "largeId": 163965,
    "smallId": 98429,
    "commonId": 32893
  },
  {
    "titleId": 1296173009,
    "largeId": 163966,
    "smallId": 98430,
    "commonId": 32894
  },
  {
    "titleId": 1296173009,
    "largeId": 163967,
    "smallId": 98431,
    "commonId": 32895
  },
  {
    "titleId": 1296173009,
    "largeId": 163968,
    "smallId": 98432,
    "commonId": 32896
  },
  {
    "titleId": 1296173009,
    "largeId": 163969,
    "smallId": 98433,
    "commonId": 32897
  },
  {
    "titleId": 1296173009,
    "largeId": 163970,
    "smallId": 98434,
    "commonId": 32898
  },
  {
    "titleId": 1296173009,
    "largeId": 163971,
    "smallId": 98435,
    "commonId": 32899
  },
  {
    "titleId": 1296173009,
    "largeId": 163972,
    "smallId": 98436,
    "commonId": 32900
  },
  {
    "titleId": 1296173009,
    "largeId": 163973,
    "smallId": 98437,
    "commonId": 32901
  },
  {
    "titleId": 1296173009,
    "largeId": 163974,
    "smallId": 98438,
    "commonId": 32902
  },
  {
    "titleId": 1296173009,
    "largeId": 163975,
    "smallId": 98439,
    "commonId": 32903
  },
  {
    "titleId": 1296173009,
    "largeId": 163976,
    "smallId": 98440,
    "commonId": 32904
  },
  {
    "titleId": 1296173009,
    "largeId": 163977,
    "smallId": 98441,
    "commonId": 32905
  },
  {
    "titleId": 1296173009,
    "largeId": 163978,
    "smallId": 98442,
    "commonId": 32906
  },
  {
    "titleId": 1296173009,
    "largeId": 163979,
    "smallId": 98443,
    "commonId": 32907
  },
  {
    "titleId": 1296173009,
    "largeId": 163980,
    "smallId": 98444,
    "commonId": 32908
  },
  {
    "titleId": 1296173009,
    "largeId": 163981,
    "smallId": 98445,
    "commonId": 32909
  },
  {
    "titleId": 1296173009,
    "largeId": 163982,
    "smallId": 98446,
    "commonId": 32910
  },
  {
    "titleId": 1296173009,
    "largeId": 163983,
    "smallId": 98447,
    "commonId": 32911
  },
  {
    "titleId": 1296173009,
    "largeId": 163984,
    "smallId": 98448,
    "commonId": 32912
  },
  {
    "titleId": 1296173009,
    "largeId": 163985,
    "smallId": 98449,
    "commonId": 32913
  },
  {
    "titleId": 1296173009,
    "largeId": 163986,
    "smallId": 98450,
    "commonId": 32914
  },
  {
    "titleId": 1296173009,
    "largeId": 163987,
    "smallId": 98451,
    "commonId": 32915
  },
  {
    "titleId": 1296173009,
    "largeId": 163988,
    "smallId": 98452,
    "commonId": 32916
  },
  {
    "titleId": 1296173009,
    "largeId": 163989,
    "smallId": 98453,
    "commonId": 32917
  },
  {
    "titleId": 1296173009,
    "largeId": 163990,
    "smallId": 98454,
    "commonId": 32918
  },
  {
    "titleId": 1296173009,
    "largeId": 163991,
    "smallId": 98455,
    "commonId": 32919
  },
  {
    "titleId": 1296173009,
    "largeId": 163992,
    "smallId": 98456,
    "commonId": 32920
  },
  {
    "titleId": 1296173009,
    "largeId": 163993,
    "smallId": 98457,
    "commonId": 32921
  },
  {
    "titleId": 1296173009,
    "largeId": 163994,
    "smallId": 98458,
    "commonId": 32922
  },
  {
    "titleId": 1296173009,
    "largeId": 163995,
    "smallId": 98459,
    "commonId": 32923
  },
  {
    "titleId": 1296173009,
    "largeId": 163996,
    "smallId": 98460,
    "commonId": 32924
  },
  {
    "titleId": 1296173009,
    "largeId": 163997,
    "smallId": 98461,
    "commonId": 32925
  },
  {
    "titleId": 1296173009,
    "largeId": 163998,
    "smallId": 98462,
    "commonId": 32926
  },
  {
    "titleId": 1296173009,
    "largeId": 163999,
    "smallId": 98463,
    "commonId": 32927
  },
  {
    "titleId": 1296173009,
    "largeId": 164000,
    "smallId": 98464,
    "commonId": 32928
  },
  {
    "titleId": 1296173009,
    "largeId": 164001,
    "smallId": 98465,
    "commonId": 32929
  },
  {
    "titleId": 1296173009,
    "largeId": 164002,
    "smallId": 98466,
    "commonId": 32930
  },
  {
    "titleId": 1296173009,
    "largeId": 164003,
    "smallId": 98467,
    "commonId": 32931
  },
  {
    "titleId": 1296173009,
    "largeId": 164004,
    "smallId": 98468,
    "commonId": 32932
  },
  {
    "titleId": 1296173009,
    "largeId": 164005,
    "smallId": 98469,
    "commonId": 32933
  },
  {
    "titleId": 1296173009,
    "largeId": 164006,
    "smallId": 98470,
    "commonId": 32934
  },
  {
    "titleId": 1296173009,
    "largeId": 164007,
    "smallId": 98471,
    "commonId": 32935
  },
  {
    "titleId": 1296173009,
    "largeId": 164008,
    "smallId": 98472,
    "commonId": 32936
  },
  {
    "titleId": 1296173009,
    "largeId": 164009,
    "smallId": 98473,
    "commonId": 32937
  },
  {
    "titleId": 1296173009,
    "largeId": 164010,
    "smallId": 98474,
    "commonId": 32938
  },
  {
    "titleId": 1296173009,
    "largeId": 164011,
    "smallId": 98475,
    "commonId": 32939
  },
  {
    "titleId": 1296173009,
    "largeId": 164012,
    "smallId": 98476,
    "commonId": 32940
  },
  {
    "titleId": 1296173009,
    "largeId": 164013,
    "smallId": 98477,
    "commonId": 32941
  },
  {
    "titleId": 1296173009,
    "largeId": 164014,
    "smallId": 98478,
    "commonId": 32942
  },
  {
    "titleId": 1296173009,
    "largeId": 164015,
    "smallId": 98479,
    "commonId": 32943
  },
  {
    "titleId": 1296173009,
    "largeId": 164016,
    "smallId": 98480,
    "commonId": 32944
  },
  {
    "titleId": 1296173009,
    "largeId": 164017,
    "smallId": 98481,
    "commonId": 32945
  },
  {
    "titleId": 1296173009,
    "largeId": 164018,
    "smallId": 98482,
    "commonId": 32946
  },
  {
    "titleId": 1296173009,
    "largeId": 164019,
    "smallId": 98483,
    "commonId": 32947
  },
  {
    "titleId": 1296173009,
    "largeId": 164020,
    "smallId": 98484,
    "commonId": 32948
  },
  {
    "titleId": 1296173009,
    "largeId": 164021,
    "smallId": 98485,
    "commonId": 32949
  },
  {
    "titleId": 1296173009,
    "largeId": 164022,
    "smallId": 98486,
    "commonId": 32950
  },
  {
    "titleId": 1296173009,
    "largeId": 164023,
    "smallId": 98487,
    "commonId": 32951
  },
  {
    "titleId": 1296173009,
    "largeId": 164024,
    "smallId": 98488,
    "commonId": 32952
  },
  {
    "titleId": 1296173009,
    "largeId": 164025,
    "smallId": 98489,
    "commonId": 32953
  },
  {
    "titleId": 1296173009,
    "largeId": 164026,
    "smallId": 98490,
    "commonId": 32954
  },
  {
    "titleId": 1296173009,
    "largeId": 164027,
    "smallId": 98491,
    "commonId": 32955
  },
  {
    "titleId": 1296173009,
    "largeId": 164028,
    "smallId": 98492,
    "commonId": 32956
  },
  {
    "titleId": 1296173009,
    "largeId": 164029,
    "smallId": 98493,
    "commonId": 32957
  },
  {
    "titleId": 1296173009,
    "largeId": 164030,
    "smallId": 98494,
    "commonId": 32958
  },
  {
    "titleId": 1296173009,
    "largeId": 164031,
    "smallId": 98495,
    "commonId": 32959
  },
  {
    "titleId": 1296173009,
    "largeId": 164032,
    "smallId": 98496,
    "commonId": 32960
  },
  {
    "titleId": 1296173009,
    "largeId": 164033,
    "smallId": 98497,
    "commonId": 32961
  },
  {
    "titleId": 1296173009,
    "largeId": 164034,
    "smallId": 98498,
    "commonId": 32962
  },
  {
    "titleId": 1296173009,
    "largeId": 164035,
    "smallId": 98499,
    "commonId": 32963
  },
  {
    "titleId": 1296173009,
    "largeId": 164036,
    "smallId": 98500,
    "commonId": 32964
  },
  {
    "titleId": 1296173009,
    "largeId": 164037,
    "smallId": 98501,
    "commonId": 32965
  },
  {
    "titleId": 1296173009,
    "largeId": 164038,
    "smallId": 98502,
    "commonId": 32966
  },
  {
    "titleId": 1296173009,
    "largeId": 164039,
    "smallId": 98503,
    "commonId": 32967
  },
  {
    "titleId": 1296173009,
    "largeId": 164040,
    "smallId": 98504,
    "commonId": 32968
  },
  {
    "titleId": 1296173009,
    "largeId": 164041,
    "smallId": 98505,
    "commonId": 32969
  },
  {
    "titleId": 1296173009,
    "largeId": 164042,
    "smallId": 98506,
    "commonId": 32970
  },
  {
    "titleId": 1296173009,
    "largeId": 164043,
    "smallId": 98507,
    "commonId": 32971
  },
  {
    "titleId": 1296173009,
    "largeId": 164044,
    "smallId": 98508,
    "commonId": 32972
  },
  {
    "titleId": 1296173009,
    "largeId": 164045,
    "smallId": 98509,
    "commonId": 32973
  },
  {
    "titleId": 1296173009,
    "largeId": 164046,
    "smallId": 98510,
    "commonId": 32974
  },
  {
    "titleId": 1296173009,
    "largeId": 164047,
    "smallId": 98511,
    "commonId": 32975
  },
  {
    "titleId": 1296173009,
    "largeId": 164048,
    "smallId": 98512,
    "commonId": 32976
  },
  {
    "titleId": 1296173009,
    "largeId": 164049,
    "smallId": 98513,
    "commonId": 32977
  },
  {
    "titleId": 1296173009,
    "largeId": 164050,
    "smallId": 98514,
    "commonId": 32978
  },
  {
    "titleId": 1296173009,
    "largeId": 164051,
    "smallId": 98515,
    "commonId": 32979
  },
  {
    "titleId": 1296173009,
    "largeId": 164052,
    "smallId": 98516,
    "commonId": 32980
  },
  {
    "titleId": 1296173009,
    "largeId": 164053,
    "smallId": 98517,
    "commonId": 32981
  },
  {
    "titleId": 1296173009,
    "largeId": 164054,
    "smallId": 98518,
    "commonId": 32982
  },
  {
    "titleId": 1296173009,
    "largeId": 164055,
    "smallId": 98519,
    "commonId": 32983
  },
  {
    "titleId": 1296173009,
    "largeId": 164056,
    "smallId": 98520,
    "commonId": 32984
  },
  {
    "titleId": 1296173009,
    "largeId": 164057,
    "smallId": 98521,
    "commonId": 32985
  },
  {
    "titleId": 1296173009,
    "largeId": 164058,
    "smallId": 98522,
    "commonId": 32986
  },
  {
    "titleId": 1296173009,
    "largeId": 164059,
    "smallId": 98523,
    "commonId": 32987
  },
  {
    "titleId": 1296173009,
    "largeId": 164060,
    "smallId": 98524,
    "commonId": 32988
  },
  {
    "titleId": 1296173009,
    "largeId": 164061,
    "smallId": 98525,
    "commonId": 32989
  },
  {
    "titleId": 1296173009,
    "largeId": 164062,
    "smallId": 98526,
    "commonId": 32990
  },
  {
    "titleId": 1296173009,
    "largeId": 164063,
    "smallId": 98527,
    "commonId": 32991
  },
  {
    "titleId": 1296173009,
    "largeId": 164064,
    "smallId": 98528,
    "commonId": 32992
  },
  {
    "titleId": 1296173009,
    "largeId": 164065,
    "smallId": 98529,
    "commonId": 32993
  },
  {
    "titleId": 1296173009,
    "largeId": 164066,
    "smallId": 98530,
    "commonId": 32994
  },
  {
    "titleId": 1296173009,
    "largeId": 164067,
    "smallId": 98531,
    "commonId": 32995
  },
  {
    "titleId": 1296173009,
    "largeId": 164068,
    "smallId": 98532,
    "commonId": 32996
  },
  {
    "titleId": 1296173009,
    "largeId": 164069,
    "smallId": 98533,
    "commonId": 32997
  },
  {
    "titleId": 1296173009,
    "largeId": 164070,
    "smallId": 98534,
    "commonId": 32998
  },
  {
    "titleId": 1296173009,
    "largeId": 164071,
    "smallId": 98535,
    "commonId": 32999
  },
  {
    "titleId": 1296173009,
    "largeId": 164072,
    "smallId": 98536,
    "commonId": 33000
  },
  {
    "titleId": 1296173009,
    "largeId": 164073,
    "smallId": 98537,
    "commonId": 33001
  },
  {
    "titleId": 1296173009,
    "largeId": 164074,
    "smallId": 98538,
    "commonId": 33002
  },
  {
    "titleId": 1296173009,
    "largeId": 164075,
    "smallId": 98539,
    "commonId": 33003
  },
  {
    "titleId": 1296173009,
    "largeId": 164076,
    "smallId": 98540,
    "commonId": 33004
  },
  {
    "titleId": 1296173009,
    "largeId": 164077,
    "smallId": 98541,
    "commonId": 33005
  },
  {
    "titleId": 1296173009,
    "largeId": 164078,
    "smallId": 98542,
    "commonId": 33006
  },
  {
    "titleId": 1296173009,
    "largeId": 164079,
    "smallId": 98543,
    "commonId": 33007
  },
  {
    "titleId": 1296173009,
    "largeId": 164080,
    "smallId": 98544,
    "commonId": 33008
  },
  {
    "titleId": 1296173009,
    "largeId": 164081,
    "smallId": 98545,
    "commonId": 33009
  },
  {
    "titleId": 1296173009,
    "largeId": 164082,
    "smallId": 98546,
    "commonId": 33010
  },
  {
    "titleId": 1296173009,
    "largeId": 164083,
    "smallId": 98547,
    "commonId": 33011
  },
  {
    "titleId": 1296173009,
    "largeId": 164084,
    "smallId": 98548,
    "commonId": 33012
  },
  {
    "titleId": 1296173009,
    "largeId": 164085,
    "smallId": 98549,
    "commonId": 33013
  },
  {
    "titleId": 1296173009,
    "largeId": 164086,
    "smallId": 98550,
    "commonId": 33014
  },
  {
    "titleId": 1296173009,
    "largeId": 164087,
    "smallId": 98551,
    "commonId": 33015
  },
  {
    "titleId": 1296173009,
    "largeId": 164088,
    "smallId": 98552,
    "commonId": 33016
  },
  {
    "titleId": 1296173009,
    "largeId": 164089,
    "smallId": 98553,
    "commonId": 33017
  },
  {
    "titleId": 1296173009,
    "largeId": 164090,
    "smallId": 98554,
    "commonId": 33018
  },
  {
    "titleId": 1296173009,
    "largeId": 164091,
    "smallId": 98555,
    "commonId": 33019
  },
  {
    "titleId": 1296173009,
    "largeId": 164092,
    "smallId": 98556,
    "commonId": 33020
  },
  {
    "titleId": 1296173009,
    "largeId": 164093,
    "smallId": 98557,
    "commonId": 33021
  },
  {
    "titleId": 1296173009,
    "largeId": 164094,
    "smallId": 98558,
    "commonId": 33022
  },
  {
    "titleId": 1296173009,
    "largeId": 164095,
    "smallId": 98559,
    "commonId": 33023
  },
  {
    "titleId": 1296173009,
    "largeId": 164096,
    "smallId": 98560,
    "commonId": 33024
  },
  {
    "titleId": 1296173009,
    "largeId": 164097,
    "smallId": 98561,
    "commonId": 33025
  },
  {
    "titleId": 1296173009,
    "largeId": 164098,
    "smallId": 98562,
    "commonId": 33026
  },
  {
    "titleId": 1296173009,
    "largeId": 164099,
    "smallId": 98563,
    "commonId": 33027
  },
  {
    "titleId": 1296173009,
    "largeId": 164100,
    "smallId": 98564,
    "commonId": 33028
  },
  {
    "titleId": 1296173009,
    "largeId": 164101,
    "smallId": 98565,
    "commonId": 33029
  },
  {
    "titleId": 1296173009,
    "largeId": 164102,
    "smallId": 98566,
    "commonId": 33030
  },
  {
    "titleId": 1296173009,
    "largeId": 164103,
    "smallId": 98567,
    "commonId": 33031
  },
  {
    "titleId": 1296173009,
    "largeId": 164104,
    "smallId": 98568,
    "commonId": 33032
  },
  {
    "titleId": 1296173009,
    "largeId": 164105,
    "smallId": 98569,
    "commonId": 33033
  },
  {
    "titleId": 1296173009,
    "largeId": 164106,
    "smallId": 98570,
    "commonId": 33034
  },
  {
    "titleId": 1296173009,
    "largeId": 164107,
    "smallId": 98571,
    "commonId": 33035
  },
  {
    "titleId": 1296173009,
    "largeId": 164108,
    "smallId": 98572,
    "commonId": 33036
  },
  {
    "titleId": 1296173009,
    "largeId": 164109,
    "smallId": 98573,
    "commonId": 33037
  },
  {
    "titleId": 1296173009,
    "largeId": 164110,
    "smallId": 98574,
    "commonId": 33038
  },
  {
    "titleId": 1296173009,
    "largeId": 164111,
    "smallId": 98575,
    "commonId": 33039
  },
  {
    "titleId": 1296173009,
    "largeId": 164112,
    "smallId": 98576,
    "commonId": 33040
  },
  {
    "titleId": 1296173009,
    "largeId": 164113,
    "smallId": 98577,
    "commonId": 33041
  },
  {
    "titleId": 1296173009,
    "largeId": 164114,
    "smallId": 98578,
    "commonId": 33042
  },
  {
    "titleId": 1296173009,
    "largeId": 164115,
    "smallId": 98579,
    "commonId": 33043
  },
  {
    "titleId": 1296173009,
    "largeId": 164116,
    "smallId": 98580,
    "commonId": 33044
  },
  {
    "titleId": 1296173009,
    "largeId": 164117,
    "smallId": 98581,
    "commonId": 33045
  },
  {
    "titleId": 1296173009,
    "largeId": 164118,
    "smallId": 98582,
    "commonId": 33046
  },
  {
    "titleId": 1296173009,
    "largeId": 164119,
    "smallId": 98583,
    "commonId": 33047
  },
  {
    "titleId": 1296173009,
    "largeId": 164120,
    "smallId": 98584,
    "commonId": 33048
  },
  {
    "titleId": 1296173009,
    "largeId": 164121,
    "smallId": 98585,
    "commonId": 33049
  },
  {
    "titleId": 1296173009,
    "largeId": 164122,
    "smallId": 98586,
    "commonId": 33050
  },
  {
    "titleId": 1296173009,
    "largeId": 164123,
    "smallId": 98587,
    "commonId": 33051
  },
  {
    "titleId": 1296173009,
    "largeId": 164124,
    "smallId": 98588,
    "commonId": 33052
  },
  {
    "titleId": 1296173009,
    "largeId": 164125,
    "smallId": 98589,
    "commonId": 33053
  },
  {
    "titleId": 1296173009,
    "largeId": 164126,
    "smallId": 98590,
    "commonId": 33054
  },
  {
    "titleId": 1296173009,
    "largeId": 164127,
    "smallId": 98591,
    "commonId": 33055
  },
  {
    "titleId": 1296173009,
    "largeId": 164128,
    "smallId": 98592,
    "commonId": 33056
  },
  {
    "titleId": 1296173009,
    "largeId": 164129,
    "smallId": 98593,
    "commonId": 33057
  },
  {
    "titleId": 1296173009,
    "largeId": 164130,
    "smallId": 98594,
    "commonId": 33058
  },
  {
    "titleId": 1296173009,
    "largeId": 164131,
    "smallId": 98595,
    "commonId": 33059
  },
  {
    "titleId": 1296173009,
    "largeId": 164132,
    "smallId": 98596,
    "commonId": 33060
  },
  {
    "titleId": 1296173009,
    "largeId": 164133,
    "smallId": 98597,
    "commonId": 33061
  },
  {
    "titleId": 1296173009,
    "largeId": 164134,
    "smallId": 98598,
    "commonId": 33062
  },
  {
    "titleId": 1296173009,
    "largeId": 164135,
    "smallId": 98599,
    "commonId": 33063
  },
  {
    "titleId": 1296173009,
    "largeId": 164136,
    "smallId": 98600,
    "commonId": 33064
  },
  {
    "titleId": 1296173009,
    "largeId": 164137,
    "smallId": 98601,
    "commonId": 33065
  },
  {
    "titleId": 1296173009,
    "largeId": 164138,
    "smallId": 98602,
    "commonId": 33066
  },
  {
    "titleId": 1296173009,
    "largeId": 164139,
    "smallId": 98603,
    "commonId": 33067
  },
  {
    "titleId": 1296173009,
    "largeId": 164140,
    "smallId": 98604,
    "commonId": 33068
  },
  {
    "titleId": 1296173009,
    "largeId": 164141,
    "smallId": 98605,
    "commonId": 33069
  },
  {
    "titleId": 1296173009,
    "largeId": 164142,
    "smallId": 98606,
    "commonId": 33070
  },
  {
    "titleId": 1296173009,
    "largeId": 164143,
    "smallId": 98607,
    "commonId": 33071
  },
  {
    "titleId": 1296173009,
    "largeId": 164144,
    "smallId": 98608,
    "commonId": 33072
  },
  {
    "titleId": 1296173009,
    "largeId": 164145,
    "smallId": 98609,
    "commonId": 33073
  },
  {
    "titleId": 1296173009,
    "largeId": 164146,
    "smallId": 98610,
    "commonId": 33074
  },
  {
    "titleId": 1296173009,
    "largeId": 164147,
    "smallId": 98611,
    "commonId": 33075
  },
  {
    "titleId": 1296173009,
    "largeId": 164148,
    "smallId": 98612,
    "commonId": 33076
  },
  {
    "titleId": 1296173009,
    "largeId": 164149,
    "smallId": 98613,
    "commonId": 33077
  },
  {
    "titleId": 1296173009,
    "largeId": 164150,
    "smallId": 98614,
    "commonId": 33078
  },
  {
    "titleId": 1296173009,
    "largeId": 164151,
    "smallId": 98615,
    "commonId": 33079
  },
  {
    "titleId": 1296173009,
    "largeId": 164152,
    "smallId": 98616,
    "commonId": 33080
  },
  {
    "titleId": 1296173009,
    "largeId": 164153,
    "smallId": 98617,
    "commonId": 33081
  },
  {
    "titleId": 1296173009,
    "largeId": 164154,
    "smallId": 98618,
    "commonId": 33082
  },
  {
    "titleId": 1296173009,
    "largeId": 164155,
    "smallId": 98619,
    "commonId": 33083
  },
  {
    "titleId": 1296173009,
    "largeId": 164156,
    "smallId": 98620,
    "commonId": 33084
  },
  {
    "titleId": 1296173009,
    "largeId": 164157,
    "smallId": 98621,
    "commonId": 33085
  },
  {
    "titleId": 1296173009,
    "largeId": 164158,
    "smallId": 98622,
    "commonId": 33086
  },
  {
    "titleId": 1296173009,
    "largeId": 164159,
    "smallId": 98623,
    "commonId": 33087
  },
  {
    "titleId": 1296173009,
    "largeId": 164160,
    "smallId": 98624,
    "commonId": 33088
  },
  {
    "titleId": 1296173009,
    "largeId": 164161,
    "smallId": 98625,
    "commonId": 33089
  },
  {
    "titleId": 1296173009,
    "largeId": 164162,
    "smallId": 98626,
    "commonId": 33090
  },
  {
    "titleId": 1296173009,
    "largeId": 164163,
    "smallId": 98627,
    "commonId": 33091
  },
  {
    "titleId": 1296173009,
    "largeId": 164164,
    "smallId": 98628,
    "commonId": 33092
  },
  {
    "titleId": 1296173009,
    "largeId": 164165,
    "smallId": 98629,
    "commonId": 33093
  },
  {
    "titleId": 1296173009,
    "largeId": 164166,
    "smallId": 98630,
    "commonId": 33094
  },
  {
    "titleId": 1296173009,
    "largeId": 164167,
    "smallId": 98631,
    "commonId": 33095
  },
  {
    "titleId": 1296173009,
    "largeId": 164168,
    "smallId": 98632,
    "commonId": 33096
  },
  {
    "titleId": 1296173009,
    "largeId": 164169,
    "smallId": 98633,
    "commonId": 33097
  },
  {
    "titleId": 1296173009,
    "largeId": 164170,
    "smallId": 98634,
    "commonId": 33098
  },
  {
    "titleId": 1296173009,
    "largeId": 164171,
    "smallId": 98635,
    "commonId": 33099
  },
  {
    "titleId": 1296173009,
    "largeId": 164172,
    "smallId": 98636,
    "commonId": 33100
  },
  {
    "titleId": 1296173009,
    "largeId": 164173,
    "smallId": 98637,
    "commonId": 33101
  },
  {
    "titleId": 1296173009,
    "largeId": 164174,
    "smallId": 98638,
    "commonId": 33102
  },
  {
    "titleId": 1296173009,
    "largeId": 164175,
    "smallId": 98639,
    "commonId": 33103
  },
  {
    "titleId": 1296173009,
    "largeId": 164176,
    "smallId": 98640,
    "commonId": 33104
  },
  {
    "titleId": 1296173009,
    "largeId": 164177,
    "smallId": 98641,
    "commonId": 33105
  },
  {
    "titleId": 1296173009,
    "largeId": 164178,
    "smallId": 98642,
    "commonId": 33106
  },
  {
    "titleId": 1296173009,
    "largeId": 164179,
    "smallId": 98643,
    "commonId": 33107
  },
  {
    "titleId": 1296173009,
    "largeId": 164180,
    "smallId": 98644,
    "commonId": 33108
  },
  {
    "titleId": 1296173009,
    "largeId": 164181,
    "smallId": 98645,
    "commonId": 33109
  },
  {
    "titleId": 1296173009,
    "largeId": 164182,
    "smallId": 98646,
    "commonId": 33110
  },
  {
    "titleId": 1296173009,
    "largeId": 164183,
    "smallId": 98647,
    "commonId": 33111
  },
  {
    "titleId": 1296173009,
    "largeId": 164184,
    "smallId": 98648,
    "commonId": 33112
  },
  {
    "titleId": 1296173009,
    "largeId": 164185,
    "smallId": 98649,
    "commonId": 33113
  },
  {
    "titleId": 1296173009,
    "largeId": 164186,
    "smallId": 98650,
    "commonId": 33114
  },
  {
    "titleId": 1296173009,
    "largeId": 164187,
    "smallId": 98651,
    "commonId": 33115
  },
  {
    "titleId": 1296173009,
    "largeId": 164188,
    "smallId": 98652,
    "commonId": 33116
  },
  {
    "titleId": 1296173009,
    "largeId": 164189,
    "smallId": 98653,
    "commonId": 33117
  },
  {
    "titleId": 1296173009,
    "largeId": 164190,
    "smallId": 98654,
    "commonId": 33118
  },
  {
    "titleId": 1296173009,
    "largeId": 164191,
    "smallId": 98655,
    "commonId": 33119
  },
  {
    "titleId": 1296173009,
    "largeId": 164192,
    "smallId": 98656,
    "commonId": 33120
  },
  {
    "titleId": 1296173009,
    "largeId": 164193,
    "smallId": 98657,
    "commonId": 33121
  },
  {
    "titleId": 1296173009,
    "largeId": 164194,
    "smallId": 98658,
    "commonId": 33122
  },
  {
    "titleId": 1296173009,
    "largeId": 164195,
    "smallId": 98659,
    "commonId": 33123
  },
  {
    "titleId": 1296173009,
    "largeId": 164196,
    "smallId": 98660,
    "commonId": 33124
  },
  {
    "titleId": 1296173009,
    "largeId": 164197,
    "smallId": 98661,
    "commonId": 33125
  },
  {
    "titleId": 1296173009,
    "largeId": 164198,
    "smallId": 98662,
    "commonId": 33126
  },
  {
    "titleId": 1296173009,
    "largeId": 164199,
    "smallId": 98663,
    "commonId": 33127
  },
  {
    "titleId": 1296173009,
    "largeId": 164200,
    "smallId": 98664,
    "commonId": 33128
  },
  {
    "titleId": 1296173009,
    "largeId": 164201,
    "smallId": 98665,
    "commonId": 33129
  },
  {
    "titleId": 1296173009,
    "largeId": 164202,
    "smallId": 98666,
    "commonId": 33130
  },
  {
    "titleId": 1296173009,
    "largeId": 164203,
    "smallId": 98667,
    "commonId": 33131
  },
  {
    "titleId": 1296173009,
    "largeId": 164204,
    "smallId": 98668,
    "commonId": 33132
  },
  {
    "titleId": 1296173009,
    "largeId": 164205,
    "smallId": 98669,
    "commonId": 33133
  },
  {
    "titleId": 1296173009,
    "largeId": 164206,
    "smallId": 98670,
    "commonId": 33134
  },
  {
    "titleId": 1296173009,
    "largeId": 164207,
    "smallId": 98671,
    "commonId": 33135
  },
  {
    "titleId": 1296173009,
    "largeId": 164208,
    "smallId": 98672,
    "commonId": 33136
  },
  {
    "titleId": 1296173009,
    "largeId": 164209,
    "smallId": 98673,
    "commonId": 33137
  },
  {
    "titleId": 1296173009,
    "largeId": 164210,
    "smallId": 98674,
    "commonId": 33138
  },
  {
    "titleId": 1296173009,
    "largeId": 164211,
    "smallId": 98675,
    "commonId": 33139
  },
  {
    "titleId": 1296173009,
    "largeId": 164212,
    "smallId": 98676,
    "commonId": 33140
  },
  {
    "titleId": 1296173009,
    "largeId": 164213,
    "smallId": 98677,
    "commonId": 33141
  },
  {
    "titleId": 1296173009,
    "largeId": 164214,
    "smallId": 98678,
    "commonId": 33142
  }
]