{
  "achievementsPossible": 70,
  "credPossible": 1500,
  "achievements": [
    {
      "id": 7,
      "imageId": 1,
      "cred": 5,
      "flags": 6,
      "label": "使い魔の進化",
      "description": "使い魔を操作しました。",
      "howto": "使い魔を操作しよう！"
    },
    {
      "id": 8,
      "imageId": 2,
      "cred": 5,
      "flags": 1,
      "label": "戦いの火蓋",
      "description": "ゲームを初プレイしました。",
      "howto": "ゲームをプレイしよう！アーケードorXbox 360モード限定。"
    },
    {
      "id": 9,
      "imageId": 3,
      "cred": 5,
      "flags": 1,
      "label": "復活",
      "description": "コンテニューを使用しました。",
      "howto": "プレイ中にコンテニューをしよう！"
    },
    {
      "id": 10,
      "imageId": 4,
      "cred": 5,
      "flags": 1,
      "label": "地獄の鎌",
      "description": "デスサイズを倒しました。",
      "howto": "デスサイズを倒しましょう！"
    },
    {
      "id": 11,
      "imageId": 5,
      "cred": 5,
      "flags": 1,
      "label": "大地に喘ぐ者",
      "description": "ジョルダンを倒しました。",
      "howto": "ジョルダンを倒しましょう！"
    },
    {
      "id": 12,
      "imageId": 6,
      "cred": 5,
      "flags": 1,
      "label": "根を下ろし立つ者",
      "description": "ウローンを倒しました。",
      "howto": "ウローンを倒しましょう！"
    },
    {
      "id": 13,
      "imageId": 7,
      "cred": 15,
      "flags": 1,
      "label": "継し者",
      "description": "サキュラを倒しました。",
      "howto": "サキュラを倒しましょう！"
    },
    {
      "id": 14,
      "imageId": 8,
      "cred": 10,
      "flags": 1,
      "label": "羊羊羊",
      "description": "メリーを倒しました。",
      "howto": "メリーを倒しましょう！"
    },
    {
      "id": 15,
      "imageId": 9,
      "cred": 10,
      "flags": 1,
      "label": "炎を司る双竜",
      "description": "バヴァリアを倒しました。",
      "howto": "バヴァリアを倒しましょう！"
    },
    {
      "id": 16,
      "imageId": 10,
      "cred": 10,
      "flags": 1,
      "label": "双子の竜王",
      "description": "デヴァリア・ギヴァリアを倒しました。",
      "howto": "デヴァリア・ギヴァリアを倒しましょう！"
    },
    {
      "id": 17,
      "imageId": 11,
      "cred": 20,
      "flags": 1,
      "label": "次元の扉で叫びし者",
      "description": "ジルバを倒しました。",
      "howto": "ジルバを倒しましょう！"
    },
    {
      "id": 18,
      "imageId": 12,
      "cred": 50,
      "flags": 1,
      "label": "闇の帝王",
      "description": "ティラノサタンを倒しました。",
      "howto": "ティラノサタンを倒しましょう！"
    },
    {
      "id": 19,
      "imageId": 13,
      "cred": 20,
      "flags": 1,
      "label": "地獄への入り口",
      "description": "デスモードへ突入しましょう！",
      "howto": "プレイ中にレベル3を5回選択しましょう！"
    },
    {
      "id": 20,
      "imageId": 14,
      "cred": 50,
      "flags": 1,
      "label": "地獄の洗浄",
      "description": "全てのステージをLv3を選択後、峡谷を通過して古城をクリアしました。",
      "howto": "全てのステージでLv3を選択し、峡谷を通過して古城をクリアしましょう！"
    },
    {
      "id": 21,
      "imageId": 15,
      "cred": 30,
      "flags": 1,
      "label": "任務完全遂行",
      "description": "1プレイでゲームをクリアしました。",
      "howto": "ゲームをクリアしましょう。（コンテニュー不可）"
    },
    {
      "id": 22,
      "imageId": 16,
      "cred": 20,
      "flags": 1,
      "label": "爆発物禁止",
      "description": "ボムを使用せずにクリアしました。",
      "howto": "ボムを使わずにクリアしましょう！"
    },
    {
      "id": 23,
      "imageId": 17,
      "cred": 10,
      "flags": 1,
      "label": "長女",
      "description": "ローザでクリアしました。",
      "howto": "ローザでゲームをクリアしましょう！"
    },
    {
      "id": 24,
      "imageId": 18,
      "cred": 20,
      "flags": 1,
      "label": "長女の実力",
      "description": "ローザでノーコンテニューでクリアしました。",
      "howto": "ローザでノーコンテニューでクリアしましょう！"
    },
    {
      "id": 25,
      "imageId": 19,
      "cred": 10,
      "flags": 1,
      "label": "二女",
      "description": "フォレットでクリアしました。",
      "howto": "フォレットでゲームをクリアしましょう！"
    },
    {
      "id": 26,
      "imageId": 20,
      "cred": 20,
      "flags": 1,
      "label": "二女の実力",
      "description": "フォレットでノーコンテニューでクリアしました。",
      "howto": "フォレットでノーコンテニューでクリアしましょう！"
    },
    {
      "id": 27,
      "imageId": 21,
      "cred": 10,
      "flags": 1,
      "label": "三女",
      "description": "ウィンディアでクリアしました。",
      "howto": "ウィンディアでゲームをクリアしましょう！"
    },
    {
      "id": 28,
      "imageId": 22,
      "cred": 20,
      "flags": 1,
      "label": "三女の実力",
      "description": "ウィンディアでノーコンテニューでクリアしました。",
      "howto": "ウィンディアでノーコンテニューでクリアしましょう！"
    },
    {
      "id": 29,
      "imageId": 23,
      "cred": 10,
      "flags": 1,
      "label": "四女",
      "description": "キャスパーでクリアしました。",
      "howto": "キャスパーでゲームをクリアしましょう！"
    },
    {
      "id": 30,
      "imageId": 24,
      "cred": 20,
      "flags": 1,
      "label": "四女の実力",
      "description": "キャスパーでノーコンテニューでクリアしました。",
      "howto": "キャスパーでノーコンテニューでクリアしましょう！"
    },
    {
      "id": 31,
      "imageId": 25,
      "cred": 100,
      "flags": 1,
      "label": "デイオール四姉妹",
      "description": "全てのキャラクターでクリアしました。",
      "howto": "全てのキャラクターでクリアしましょう！"
    },
    {
      "id": 32,
      "imageId": 26,
      "cred": 5,
      "flags": 1,
      "label": "家族との再会",
      "description": "ウィンディアで現世界に帰りました。",
      "howto": "ウィンディアで現世界に帰ろう！"
    },
    {
      "id": 33,
      "imageId": 27,
      "cred": 5,
      "flags": 1,
      "label": "私の友人",
      "description": "ウィンディアでジルバラードに残りました。",
      "howto": "ウィンディアでジルバラードに残ろう！\r\n"
    },
    {
      "id": 34,
      "imageId": 28,
      "cred": 5,
      "flags": 1,
      "label": "仕返しはほどほどに",
      "description": "キャスパーで現世界に帰りました。",
      "howto": "キャスパーで現世界に帰りましょう！"
    },
    {
      "id": 35,
      "imageId": 29,
      "cred": 5,
      "flags": 1,
      "label": "おなかいっぱい",
      "description": "キャスパーでジルバラードに残りました。",
      "howto": "キャスパーでジルバラードに残りましょう！\r\n"
    },
    {
      "id": 36,
      "imageId": 30,
      "cred": 5,
      "flags": 1,
      "label": "ただいま",
      "description": "フォレットで現世界に帰りました。",
      "howto": "フォレットで現世界に帰りましょう！"
    },
    {
      "id": 37,
      "imageId": 31,
      "cred": 5,
      "flags": 1,
      "label": "みんなでお風呂",
      "description": "フォレットでジルバラードに残りました。",
      "howto": "フォレットでジルバラードに残りましょう！\r\n"
    },
    {
      "id": 38,
      "imageId": 32,
      "cred": 5,
      "flags": 1,
      "label": "看板娘",
      "description": "ローザで現世界に帰りました。",
      "howto": "ローザで現世界に帰りましょう！"
    },
    {
      "id": 39,
      "imageId": 33,
      "cred": 5,
      "flags": 1,
      "label": "長女の憂鬱",
      "description": "ローザでジルバラードに残りましょう。",
      "howto": "ローザでジルバラードに残りましょう！"
    },
    {
      "id": 40,
      "imageId": 34,
      "cred": 100,
      "flags": 1,
      "label": "デススマイルズを究めし者",
      "description": "デススマイルズVer1.1を全てのMAPをLv3で通過しクリアしました。（コンテニュー不可・ExMAP含む）\r\n",
      "howto": "デススマイルズVer1.1を全てのMAPをLv3で通過しクリアしましょう！（コンテニュー不可・ExMAP含む）\r\n"
    },
    {
      "id": 41,
      "imageId": 35,
      "cred": 80,
      "flags": 1,
      "label": "究めたエンジェル",
      "description": "デススマイルズVer1.1をクリアしました。",
      "howto": "デススマイルズVer1.1をクリアしましょう！"
    },
    {
      "id": 42,
      "imageId": 36,
      "cred": 25,
      "flags": 1,
      "label": "大食漢",
      "description": "使い魔が打ち返し弾を累計、６５５３５発吸収しました。(秘密の実績）",
      "howto": ""
    },
    {
      "id": 43,
      "imageId": 37,
      "cred": 15,
      "flags": 1,
      "label": "廃車処理のお仕事",
      "description": "沼地にあるジルバの自家用車を累計１０台破壊しました。(秘密の実績）",
      "howto": ""
    },
    {
      "id": 44,
      "imageId": 38,
      "cred": 10,
      "flags": 1,
      "label": "あぶねぇあぶねぇ",
      "description": "残りライフ０．５の状態かつボムが0の状態で任意のステージクリアしました。(秘密の実績）",
      "howto": ""
    },
    {
      "id": 45,
      "imageId": 39,
      "cred": 25,
      "flags": 1,
      "label": "食いしん坊",
      "description": "１回のプレイでライフ回復アイテムを４個入手しました。(秘密の実績）",
      "howto": ""
    },
    {
      "id": 46,
      "imageId": 40,
      "cred": 10,
      "flags": 1,
      "label": "友達に手を上げるなんてっ！",
      "description": "ウィンディアプレイ時でサキュラの自爆を待ちました。(秘密の実績）",
      "howto": ""
    },
    {
      "id": 47,
      "imageId": 41,
      "cred": 20,
      "flags": 1,
      "label": "弾幕薄いよ！",
      "description": "一切の攻撃をせずにボスまで辿り着きました。\r\n（ボム・パワーアップも使用不可）(秘密の実績）",
      "howto": ""
    },
    {
      "id": 48,
      "imageId": 42,
      "cred": 5,
      "flags": 1,
      "label": "止まって見えるわ！",
      "description": "任意のステージ中にポーズボタンを押しました。(秘密の実績）",
      "howto": ""
    },
    {
      "id": 49,
      "imageId": 43,
      "cred": 25,
      "flags": 1,
      "label": "Heroine of justice",
      "description": "全てのボスをボムでトドメをさしました。（累計）(秘密の実績）",
      "howto": ""
    },
    {
      "id": 50,
      "imageId": 44,
      "cred": 25,
      "flags": 1,
      "label": "お金持ちが好き",
      "description": "任意の１ステージで王冠（大）を500個取得しました。(秘密の実績）",
      "howto": ""
    },
    {
      "id": 51,
      "imageId": 45,
      "cred": 25,
      "flags": 1,
      "label": "お風呂マニア",
      "description": "1人プレイでフォレットを使い、ジルバラードに残るを10回選択しました。(秘密の実績）",
      "howto": ""
    },
    {
      "id": 52,
      "imageId": 46,
      "cred": 10,
      "flags": 1,
      "label": "白馬の王子様",
      "description": "いずれかのボスを１体、ボムのみで倒しました。(秘密の実績）",
      "howto": ""
    },
    {
      "id": 53,
      "imageId": 47,
      "cred": 10,
      "flags": 1,
      "label": "億万長者",
      "description": "スコアが1億点を突破しました。(秘密の実績）",
      "howto": ""
    },
    {
      "id": 54,
      "imageId": 48,
      "cred": 20,
      "flags": 1,
      "label": "もっと億万長者",
      "description": "スコアが２億点を突破しました。(秘密の実績）",
      "howto": ""
    },
    {
      "id": 55,
      "imageId": 49,
      "cred": 50,
      "flags": 1,
      "label": "もっともっと億万長者",
      "description": "スコアが３億点を突破しました。(秘密の実績）",
      "howto": ""
    },
    {
      "id": 56,
      "imageId": 50,
      "cred": 20,
      "flags": 1,
      "label": "大復活",
      "description": "コンテニューを50回しました。(秘密の実績）",
      "howto": ""
    },
    {
      "id": 68,
      "imageId": 51,
      "cred": 5,
      "flags": 4,
      "label": "実力の半分",
      "description": "500でパワーアップをしました。",
      "howto": "500でパワーアップをする。"
    },
    {
      "id": 69,
      "imageId": 52,
      "cred": 15,
      "flags": 1,
      "label": "私の生きる道",
      "description": "サキュラで現世界に帰りました。",
      "howto": "サキュラで現世界に帰りましょう。"
    },
    {
      "id": 70,
      "imageId": 53,
      "cred": 15,
      "flags": 1,
      "label": "新しい家族",
      "description": "サキュラでジルバラードに残りましょう。\r\n",
      "howto": "サキュラでジルバラードに残りました。"
    },
    {
      "id": 71,
      "imageId": 54,
      "cred": 15,
      "flags": 1,
      "label": "忘れられし番人",
      "description": "オジールを倒しました。",
      "howto": "オジールを倒しましょう。"
    },
    {
      "id": 72,
      "imageId": 55,
      "cred": 50,
      "flags": 1,
      "label": "CAVEからの挑戦状",
      "description": "１プレイ中に全てLv999でクリアしました！\r\n（コンティニュー可）",
      "howto": "１プレイ中に全てLv999でクリアしましょう！\r\n（コンティニュー可）"
    },
    {
      "id": 73,
      "imageId": 56,
      "cred": 100,
      "flags": 1,
      "label": "真の強者",
      "description": "ブラッディージルバを倒しました。(秘密の実績）",
      "howto": ""
    },
    {
      "id": 74,
      "imageId": 57,
      "cred": 25,
      "flags": 6,
      "label": "欲張りもん",
      "description": "累計カウンタを50000以上にしました。",
      "howto": "累計カウンタを50000以上にしましょう。"
    },
    {
      "id": 75,
      "imageId": 58,
      "cred": 5,
      "flags": 4,
      "label": "地獄の扉",
      "description": "Lv999を選択しました。",
      "howto": "Lv999を選択しましょう。"
    },
    {
      "id": 76,
      "imageId": 59,
      "cred": 15,
      "flags": 6,
      "label": "急がば回れ",
      "description": "EXMAPを２つとも選択後、古城に向かいました。",
      "howto": "EXMAPを２つとも選択後、古城に向かいましょう。"
    },
    {
      "id": 77,
      "imageId": 60,
      "cred": 5,
      "flags": 6,
      "label": "せっかち",
      "description": "EXMAPを選択せずに古城へ向かいました。",
      "howto": "EXMAPを選択せずに古城へ向かいましょう。"
    },
    {
      "id": 88,
      "imageId": 61,
      "cred": 10,
      "flags": 1,
      "label": "特大！！",
      "description": "１プレイ中に特大王冠を１０００個取りました。（MBL Ver1.1限定）",
      "howto": "１プレイ中に特大王冠を１０００個取りましょう！（MBL Ver1.1限定）"
    },
    {
      "id": 89,
      "imageId": 62,
      "cred": 25,
      "flags": 1,
      "label": "似非",
      "description": "ブラッディージルバを倒しました。（MBL Ver1.1限定）",
      "howto": "ブラッディージルバを倒しましょう！（MBL Ver1.1限定）"
    },
    {
      "id": 90,
      "imageId": 63,
      "cred": 5,
      "flags": 1,
      "label": "１０億の扉",
      "description": "スコアを１０億点稼ぎました。（MBL Ver1.1限定）",
      "howto": "スコアを１０億点稼ぎましょう！（MBL Ver1.1限定）"
    },
    {
      "id": 91,
      "imageId": 64,
      "cred": 20,
      "flags": 1,
      "label": "２５億の扉",
      "description": "スコアを２５億点稼ぎました。（MBL Ver1.1限定）",
      "howto": "スコアを２５億点稼ぎましょう！（MBL Ver1.1限定）"
    },
    {
      "id": 92,
      "imageId": 65,
      "cred": 50,
      "flags": 1,
      "label": "５０億の扉",
      "description": "スコアを５０億点稼ぎました。（MBL Ver1.1限定）",
      "howto": "スコアを５０億点稼ぎましょう！（MBL Ver1.1限定）"
    },
    {
      "id": 93,
      "imageId": 66,
      "cred": 30,
      "flags": 1,
      "label": "すご～い",
      "description": "ＭＢＬアレンジ版をノーコンティニューでクリアしました。（MBL Ver1.1限定）",
      "howto": "ＭＢＬアレンジ版をノーコンティニューでクリアしましょう！（MBL Ver1.1限定）"
    },
    {
      "id": 94,
      "imageId": 67,
      "cred": 5,
      "flags": 1,
      "label": "ぱわーあっぷ",
      "description": "ぱわーあっぷ中にボスを倒しました。（MBL Ver1.1限定）",
      "howto": "ぱわーあっぷ中にボスを倒しましょう！（MBL Ver1.1限定）"
    },
    {
      "id": 95,
      "imageId": 68,
      "cred": 50,
      "flags": 1,
      "label": "メガブラックレーベルVer1.1を究めし強者",
      "description": "全てのステージをレベル９９９進行でブラッディージルバをコンティニューせず倒しました。（MBL Ver1.1限定）(秘密の実績）\r\n",
      "howto": ""
    },
    {
      "id": 96,
      "imageId": 69,
      "cred": 15,
      "flags": 1,
      "label": "メガブラックレーベルVer1.1でもやっぱりお風呂大好き",
      "description": "フォレットでノーコンティニュークリアをして、選択肢でジルバラードへ残るを選択しました。（MBL Ver1.1限定）(秘密の実績）\r\n",
      "howto": ""
    },
    {
      "id": 97,
      "imageId": 70,
      "cred": 40,
      "flags": 1,
      "label": "１００億を超えし者",
      "description": "スコアを１００億点稼ぎました。（MBL Ver1.1限定）(秘密の実績）",
      "howto": ""
    }
  ]
}