{
  "achievementsPossible": 41,
  "credPossible": 1000,
  "achievements": [
    {
      "id": 69,
      "imageId": 2,
      "cred": 5,
      "flags": 2,
      "label": "Learned 5 Skills",
      "description": "Learned 5 different skills.",
      "howto": "Learn 5 different skills."
    },
    {
      "id": 78,
      "imageId": 3,
      "cred": 10,
      "flags": 2,
      "label": "Learned 10 Skills",
      "description": "Learned 10 different skills.",
      "howto": "Learn 10 different skills."
    },
    {
      "id": 79,
      "imageId": 6,
      "cred": 20,
      "flags": 2,
      "label": "Learned 20 Skills",
      "description": "Learned 20 different skills.",
      "howto": "Learn 20 different skills."
    },
    {
      "id": 80,
      "imageId": 7,
      "cred": 50,
      "flags": 2,
      "label": "Learned All Skills",
      "description": "Learned all the skills in the game.",
      "howto": "Learn all the skills in the game."
    },
    {
      "id": 81,
      "imageId": 8,
      "cred": 20,
      "flags": 2,
      "label": "Reached Skill Level 10",
      "description": "Reached level 10 in one skill.",
      "howto": "Reach level 10 in one skill."
    },
    {
      "id": 82,
      "imageId": 9,
      "cred": 5,
      "flags": 2,
      "label": "Reached Character Level 5",
      "description": "Reached character level 5.",
      "howto": "Reach character level 5."
    },
    {
      "id": 83,
      "imageId": 10,
      "cred": 10,
      "flags": 2,
      "label": "Reached Character Level 10",
      "description": "Reached character level 10.",
      "howto": "Reach character level 10."
    },
    {
      "id": 84,
      "imageId": 11,
      "cred": 10,
      "flags": 2,
      "label": "Reached Character Level 20",
      "description": "Reached character level 20.",
      "howto": "Reach character level 20."
    },
    {
      "id": 85,
      "imageId": 12,
      "cred": 20,
      "flags": 2,
      "label": "Reached Character Level 35",
      "description": "Reached character level 35.",
      "howto": "Reach character level 35."
    },
    {
      "id": 86,
      "imageId": 13,
      "cred": 50,
      "flags": 2,
      "label": "Reached Character Level 50",
      "description": "Reached character level 50.",
      "howto": "Reach character level 50."
    },
    {
      "id": 87,
      "imageId": 14,
      "cred": 10,
      "flags": 4,
      "label": "Discovered 10 Locations",
      "description": "Discovered 10 different locations in the game.",
      "howto": "Discover 10 different locations."
    },
    {
      "id": 88,
      "imageId": 15,
      "cred": 10,
      "flags": 4,
      "label": "Discovered 20 Locations",
      "description": "Discovered 20 different locations in the game.",
      "howto": "Discover 20 different locations."
    },
    {
      "id": 89,
      "imageId": 16,
      "cred": 20,
      "flags": 4,
      "label": "Discovered 50 Locations",
      "description": "Discovered 50 different locations in the game.",
      "howto": "Discover 50 different locations."
    },
    {
      "id": 90,
      "imageId": 17,
      "cred": 5,
      "flags": 4,
      "label": "Visited All Black Towers",
      "description": "Visited all the Black Towers in the game.",
      "howto": "Visit all the Black Towers in the game."
    },
    {
      "id": 91,
      "imageId": 18,
      "cred": 10,
      "flags": 4,
      "label": "Visited all Graveyards",
      "description": "Visited all the graveyards in the game.",
      "howto": "Visit all the graveyards in the game."
    },
    {
      "id": 92,
      "imageId": 19,
      "cred": 10,
      "flags": 4,
      "label": "Visited 10 Undergrounds",
      "description": "Visited 10 different underground locations in the game.",
      "howto": "Visit 10 different underground locations."
    },
    {
      "id": 93,
      "imageId": 20,
      "cred": 20,
      "flags": 4,
      "label": "Visited 20 Undergrounds",
      "description": "Visited 20 different underground locations in the game.",
      "howto": "Visit 20 different underground locations."
    },
    {
      "id": 94,
      "imageId": 22,
      "cred": 20,
      "flags": 4,
      "label": "Visited All Undergrounds",
      "description": "Visited all the underground locations in the game.",
      "howto": "Visit all the underground locations in the game."
    },
    {
      "id": 95,
      "imageId": 21,
      "cred": 50,
      "flags": 4,
      "label": "Visited All Locations",
      "description": "Visited all the locations in the game.",
      "howto": "Visit all the locations in the game."
    },
    {
      "id": 96,
      "imageId": 23,
      "cred": 5,
      "flags": 7,
      "label": "Rode a Horse",
      "description": "Rode a horse at least once.",
      "howto": "Ride a horse at least once."
    },
    {
      "id": 97,
      "imageId": 24,
      "cred": 5,
      "flags": 7,
      "label": "Made Successfull Teleportation",
      "description": "Made at least one successful teleportation.",
      "howto": "Make at least one successful teleportation."
    },
    {
      "id": 98,
      "imageId": 25,
      "cred": 5,
      "flags": 7,
      "label": "Created a Potion",
      "description": "Created at least one potion.",
      "howto": "Create at least one potion."
    },
    {
      "id": 99,
      "imageId": 26,
      "cred": 20,
      "flags": 7,
      "label": "Created a Permanent Potion",
      "description": "Created at least one permanent potion.",
      "howto": "Create at least one permanent potion."
    },
    {
      "id": 100,
      "imageId": 27,
      "cred": 10,
      "flags": 7,
      "label": "Created a Bomb",
      "description": "Created at least one bomb.",
      "howto": "Create at least one bomb."
    },
    {
      "id": 101,
      "imageId": 28,
      "cred": 15,
      "flags": 7,
      "label": "Created a Weapon Enchancer",
      "description": "Created at least one weapon enchancer.",
      "howto": "Create at least one weapon enchancer."
    },
    {
      "id": 102,
      "imageId": 29,
      "cred": 5,
      "flags": 7,
      "label": "Created Class 2 Item",
      "description": "Created at least one item with quality class 2.",
      "howto": "Create at least one item with quality class 2."
    },
    {
      "id": 103,
      "imageId": 30,
      "cred": 15,
      "flags": 7,
      "label": "Created Class 10 Item",
      "description": "Created at least one item with quality class 10.",
      "howto": "Create at least one item with quality class 10."
    },
    {
      "id": 104,
      "imageId": 31,
      "cred": 10,
      "flags": 7,
      "label": "Opened Master Lock",
      "description": "Opened at least one Master Lock.",
      "howto": "Open at least one Master Lock."
    },
    {
      "id": 105,
      "imageId": 32,
      "cred": 10,
      "flags": 7,
      "label": "Killed a Dragon",
      "description": "Killed a Dragon.",
      "howto": "Kill a Dragon."
    },
    {
      "id": 106,
      "imageId": 33,
      "cred": 10,
      "flags": 7,
      "label": "Killed a Stone Golem",
      "description": "Killed a Stone Golem.",
      "howto": "Kill a Stone Golem."
    },
    {
      "id": 107,
      "imageId": 34,
      "cred": 5,
      "flags": 7,
      "label": "Used a Boosted Spell",
      "description": "Used a spell enchanced with special booster cards.",
      "howto": "Use a spell enchanced with special booster cards."
    },
    {
      "id": 108,
      "imageId": 35,
      "cred": 10,
      "flags": 7,
      "label": "Cast Chamber 5 Spell",
      "description": "Cast a Chamber 5 spell.",
      "howto": "Cast a Chamber 5 spell."
    },
    {
      "id": 109,
      "imageId": 36,
      "cred": 5,
      "flags": 7,
      "label": "Summoned a Creature",
      "description": "Summoned at least one creature.",
      "howto": "Summon at least one creature."
    },
    {
      "id": 110,
      "imageId": 37,
      "cred": 20,
      "flags": 6,
      "label": "Found the Relic Frame",
      "description": "Found the Relic Frame in the main storyline.",
      "howto": "Find the Relic Frame in the main storyline."
    },
    {
      "id": 111,
      "imageId": 38,
      "cred": 20,
      "flags": 6,
      "label": "Found the Water Element",
      "description": "Found the Water Element in the main storyline.",
      "howto": "Find the Water Element in the main storyline."
    },
    {
      "id": 112,
      "imageId": 39,
      "cred": 20,
      "flags": 6,
      "label": "Found the Air Element",
      "description": "Found the Air Element in the main storyline.",
      "howto": "Find the Air Element in the main storyline."
    },
    {
      "id": 113,
      "imageId": 40,
      "cred": 20,
      "flags": 6,
      "label": "Found the Fire Element",
      "description": "Found the Fire Element in the main storyline.",
      "howto": "Find the Fire Element in the main storyline."
    },
    {
      "id": 114,
      "imageId": 41,
      "cred": 20,
      "flags": 6,
      "label": "Found the Earth Element",
      "description": "Found the Earth Element in the main storyline.",
      "howto": "Find the Earth Element in the main storyline."
    },
    {
      "id": 115,
      "imageId": 42,
      "cred": 20,
      "flags": 6,
      "label": "Delivered the Relic to Qudinar",
      "description": "Delivered the assembled Relic to Qudinar in the main storyline.",
      "howto": "Deliver the assembled Relic to Qudinar in the main storyline."
    },
    {
      "id": 116,
      "imageId": 43,
      "cred": 25,
      "flags": 6,
      "label": "Destroyed the Great Pentagram",
      "description": "Destroyed the Great Pentagram in the main storyline.",
      "howto": "Destroy the Great Pentagram in the main storyline."
    },
    {
      "id": 117,
      "imageId": 44,
      "cred": 370,
      "flags": 6,
      "label": "Defeated the Grand Enemy",
      "description": "Defeated the Grand Enemy in the main storyline.",
      "howto": "Defeat the Grand Enemy in the main storyline."
    }
  ]
}