{
  "avatarAssetsPossible": 4,
  "maleAvatarAssetsPossible": 2,
  "femaleAvatarAssetsPossible": 2,
  "avatarAssets": [
    {
      "id": "00000208-0001-e1f1-c354-035e58410b19",
      "imageId": 13,
      "subcategory": 0,
      "unknown": 0,
      "isMale": true,
      "isFemale": false,
      "isUnisex": false,
      "label": "Twisted Pixel Hoodie",
      "description": "Sell off your individualism by wearing our Authentic Twisted Pixel apparel.",
      "howto": "Earn this item by purchasing it in The Mall."
    },
    {
      "id": "00000008-0001-d1e2-c972-bca658410b19",
      "imageId": 14,
      "subcategory": 0,
      "unknown": 2015221016,
      "isMale": false,
      "isFemale": true,
      "isUnisex": false,
      "label": "Ms. Splosion Man Shirt",
      "description": "Sell off your individualism by wearing our Authentic Twisted Pixel apparel.",
      "howto": "Earn this item by purchasing it in The Mall."
    },
    {
      "id": "00000544-0002-51e1-cdf5-3aa658410b19",
      "imageId": 17,
      "subcategory": 0,
      "unknown": 2015221016,
      "isMale": true,
      "isFemale": false,
      "isUnisex": false,
      "label": "Splosion Man Giant Head",
      "description": "Giant heads of our characters are cooler than those creepy avatar faces.",
      "howto": "Earn this item by purchasing it in The Mall."
    },
    {
      "id": "00000544-0002-9172-cae1-f54958410b19",
      "imageId": 18,
      "subcategory": 0,
      "unknown": 2015221016,
      "isMale": false,
      "isFemale": true,
      "isUnisex": false,
      "label": "Ms. Splosion Man Giant Head",
      "description": "Giant heads of our characters are cooler than those creepy avatar faces.",
      "howto": "Earn this item by purchasing it in The Mall."
    }
  ]
}