{
  "achievementsPossible": 20,
  "credPossible": 400,
  "achievements": [
    {
      "id": 1,
      "imageId": 3,
      "cred": 10,
      "flags": 1,
      "label": "Upgrade",
      "description": "Upgrade a weapon",
      "howto": "Upgrade a weapon"
    },
    {
      "id": 2,
      "imageId": 4,
      "cred": 30,
      "flags": 1,
      "label": "Fully Upgraded",
      "description": "Upgrade all weapons",
      "howto": "Upgrade all weapons"
    },
    {
      "id": 3,
      "imageId": 5,
      "cred": 10,
      "flags": 1,
      "label": "Some Like it Hot",
      "description": "Kill 20 enemies with grenades",
      "howto": "Kill 20 enemies with grenades"
    },
    {
      "id": 4,
      "imageId": 6,
      "cred": 30,
      "flags": 1,
      "label": "Pieces of You",
      "description": "Kill 6 enemies with a single grenade",
      "howto": "Kill 6 enemies with a single grenade"
    },
    {
      "id": 5,
      "imageId": 7,
      "cred": 10,
      "flags": 1,
      "label": "Starting a collection",
      "description": "Find 5 collectables",
      "howto": "Find 5 collectables"
    },
    {
      "id": 6,
      "imageId": 8,
      "cred": 30,
      "flags": 1,
      "label": "The Collector",
      "description": "Find all the collectables",
      "howto": "Find all the collectables"
    },
    {
      "id": 7,
      "imageId": 9,
      "cred": 30,
      "flags": 1,
      "label": "It's done",
      "description": "Complete the game on any difficulty",
      "howto": "Complete the game on any difficulty"
    },
    {
      "id": 8,
      "imageId": 10,
      "cred": 40,
      "flags": 1,
      "label": "Hardcore",
      "description": "Complete the game on hardcode difficulty",
      "howto": "Complete the game on hardcode difficulty"
    },
    {
      "id": 9,
      "imageId": 11,
      "cred": 10,
      "flags": 1,
      "label": "Warm up",
      "description": "Complete Mission 01",
      "howto": "Complete Mission 01"
    },
    {
      "id": 10,
      "imageId": 12,
      "cred": 10,
      "flags": 1,
      "label": "Welcome to the Jungle",
      "description": "Get to South America",
      "howto": "Get to South America"
    },
    {
      "id": 11,
      "imageId": 13,
      "cred": 20,
      "flags": 1,
      "label": "BFFs",
      "description": "Play Co-Op mode for 5 minutes",
      "howto": "Play Co-Op mode for 5 minutes"
    },
    {
      "id": 12,
      "imageId": 14,
      "cred": 30,
      "flags": 1,
      "label": "A Taste of Blood",
      "description": "Kill 150 enemies",
      "howto": "Kill 150 enemies"
    },
    {
      "id": 13,
      "imageId": 15,
      "cred": 10,
      "flags": 1,
      "label": "Don't get close",
      "description": "Melee kill 10 enemies",
      "howto": "Melee kill 10 enemies"
    },
    {
      "id": 14,
      "imageId": 16,
      "cred": 30,
      "flags": 1,
      "label": "Unpopular",
      "description": "Kill 3,000 enemies in total",
      "howto": "Kill 3,000 enemies in total"
    },
    {
      "id": 15,
      "imageId": 17,
      "cred": 10,
      "flags": 1,
      "label": "Bombing Run",
      "description": "Destroy 5 ground enemies with your aircraft",
      "howto": "Destroy 5 ground enemies with your aircraft"
    },
    {
      "id": 16,
      "imageId": 18,
      "cred": 20,
      "flags": 1,
      "label": "Invincible",
      "description": "Complete a vehicle minigame without getting hit",
      "howto": "Complete a vehicle minigame without getting hit"
    },
    {
      "id": 17,
      "imageId": 20,
      "cred": 10,
      "flags": 1,
      "label": "Old Friends",
      "description": "Meet Delgado for the first time",
      "howto": "Meet Delgado for the first time"
    },
    {
      "id": 18,
      "imageId": 21,
      "cred": 20,
      "flags": 1,
      "label": "A Fistful of Dollars",
      "description": "Earn 15,000 dollars",
      "howto": "Earn 15,000 dollars"
    },
    {
      "id": 19,
      "imageId": 22,
      "cred": 20,
      "flags": 1,
      "label": "The Specialist",
      "description": "Use all special ammo and weapons",
      "howto": "Use all special ammo and weapons"
    },
    {
      "id": 20,
      "imageId": 23,
      "cred": 20,
      "flags": 1,
      "label": "I hope you have insurance",
      "description": "Destroy 50 vehicles",
      "howto": "Destroy 50 vehicles"
    }
  ]
}