{
  "achievementsPossible": 40,
  "credPossible": 1000,
  "achievements": [
    {
      "id": 1,
      "imageId": 47,
      "cred": 10,
      "flags": 1,
      "label": "First Dance",
      "description": "Complete your First Song",
      "howto": "Complete your First Song"
    },
    {
      "id": 2,
      "imageId": 48,
      "cred": 15,
      "flags": 1,
      "label": "3 Star Performance",
      "description": "Get 3 Stars on a Song",
      "howto": "Get 3 Stars on a Song"
    },
    {
      "id": 3,
      "imageId": 49,
      "cred": 20,
      "flags": 1,
      "label": "Highway to the Stars",
      "description": "Get 3 Stars on 5 Songs",
      "howto": "Get 3 Stars on 5 Songs"
    },
    {
      "id": 4,
      "imageId": 50,
      "cred": 20,
      "flags": 1,
      "label": "5 Star Performance",
      "description": "Get 5 Stars on a Song",
      "howto": "Get 5 Stars on a Song"
    },
    {
      "id": 5,
      "imageId": 51,
      "cred": 30,
      "flags": 1,
      "label": "Rising Star",
      "description": "Get 5 Stars on 5 Songs",
      "howto": "Get 5 Stars on 5 Songs"
    },
    {
      "id": 6,
      "imageId": 53,
      "cred": 15,
      "flags": 1,
      "label": "Golden!",
      "description": "Perform all Gold Moves in a Song",
      "howto": "Perform all Gold Moves in a Song"
    },
    {
      "id": 7,
      "imageId": 54,
      "cred": 25,
      "flags": 1,
      "label": "Solid Gold Baby!",
      "description": "Perform all Gold Moves in 5 Songs",
      "howto": "Perform all Gold Moves in 5 Songs"
    },
    {
      "id": 8,
      "imageId": 55,
      "cred": 25,
      "flags": 1,
      "label": "Looking Good",
      "description": "Perform only Good Moves or better in a Song",
      "howto": "Perform only Good Moves or better in a Song"
    },
    {
      "id": 9,
      "imageId": 56,
      "cred": 40,
      "flags": 1,
      "label": "You got the Moves!",
      "description": "Perform only Good Moves or better in 5 Songs",
      "howto": "Perform only Good Moves or better in 5 Songs"
    },
    {
      "id": 10,
      "imageId": 57,
      "cred": 10,
      "flags": 1,
      "label": "Perfect Finish",
      "description": "Get a Perfect on the Last Move of a Song",
      "howto": "Get a Perfect on the Last Move of a Song"
    },
    {
      "id": 11,
      "imageId": 58,
      "cred": 20,
      "flags": 1,
      "label": "Streaker!",
      "description": "Get 10 Perfect Moves in a row in any Song",
      "howto": "Get 10 Perfect Moves in a row in any Song"
    },
    {
      "id": 12,
      "imageId": 59,
      "cred": 30,
      "flags": 1,
      "label": "Reflection of Perfection",
      "description": "Complete a Song with 80% or more Perfect Moves",
      "howto": "Complete a Song with 80% or more Perfect Moves"
    },
    {
      "id": 13,
      "imageId": 60,
      "cred": 20,
      "flags": 1,
      "label": "There's no I in Dance ",
      "description": "In any Dance Crew Song, All Four Players Get 3 Stars or better (Four Coaches)",
      "howto": "In any Dance Crew Song, All Four Players Get 3 Stars or better (Four Coaches)"
    },
    {
      "id": 14,
      "imageId": 61,
      "cred": 35,
      "flags": 1,
      "label": "In-Sync",
      "description": "In any Dance Crew Song, All Four Players Get 5 Stars (Four Coaches)",
      "howto": "In any Dance Crew Song, All Four Players Get 5 Stars (Four Coaches)"
    },
    {
      "id": 15,
      "imageId": 62,
      "cred": 25,
      "flags": 1,
      "label": "Dynamic Duo",
      "description": "Finish a Duet with 2 players getting 5 Stars on both choreographies",
      "howto": "Finish a Duet with 2 players getting 5 Stars on both choreographies"
    },
    {
      "id": 16,
      "imageId": 63,
      "cred": 20,
      "flags": 1,
      "label": "Mixing it up",
      "description": "Get 5 Stars on any Mash-Up",
      "howto": "Get 5 Stars on any Mash-Up"
    },
    {
      "id": 17,
      "imageId": 64,
      "cred": 20,
      "flags": 1,
      "label": "On a Quest",
      "description": "Complete 5 Dance Quests",
      "howto": "Complete 5 Dance Quests"
    },
    {
      "id": 18,
      "imageId": 65,
      "cred": 30,
      "flags": 1,
      "label": "Superstar!",
      "description": "Get 3 Stars on All Songs (No Alternate Versions, Mash-Ups or Battles)",
      "howto": "Get 3 Stars on All Songs (No Alternate Versions, Mash-Ups or Battles)"
    },
    {
      "id": 19,
      "imageId": 66,
      "cred": 50,
      "flags": 1,
      "label": "Megastar!",
      "description": "Get 5 Stars on All Songs (No Alternate Versions, Mash-Ups or Battles)",
      "howto": "Get 5 Stars on All Songs (No Alternate Versions, Mash-Ups or Battles)"
    },
    {
      "id": 20,
      "imageId": 67,
      "cred": 20,
      "flags": 1,
      "label": "Winning!",
      "description": "Win a Battle",
      "howto": "Win a Battle"
    },
    {
      "id": 21,
      "imageId": 68,
      "cred": 30,
      "flags": 1,
      "label": "Epic Winning!",
      "description": "Win each Battle Once",
      "howto": "Win each Battle Once"
    },
    {
      "id": 22,
      "imageId": 69,
      "cred": 10,
      "flags": 1,
      "label": "Wheel… of… Gifts!",
      "description": "Unlock an Item from the Wheel of Gifts",
      "howto": "Unlock an Item from the Wheel of Gifts"
    },
    {
      "id": 23,
      "imageId": 70,
      "cred": 5,
      "flags": 1,
      "label": "Just Sweatin'",
      "description": "Complete a Sweat Class",
      "howto": "Complete a Sweat Class"
    },
    {
      "id": 24,
      "imageId": 71,
      "cred": 10,
      "flags": 1,
      "label": "I Work Out",
      "description": "Complete a full 10 Minute Sweat Class",
      "howto": "Complete a full 10 Minute Sweat Class"
    },
    {
      "id": 25,
      "imageId": 72,
      "cred": 20,
      "flags": 1,
      "label": "Bring it on!",
      "description": "Complete a full 25 Minute Sweat Class",
      "howto": "Complete a full 25 Minute Sweat Class"
    },
    {
      "id": 26,
      "imageId": 73,
      "cred": 45,
      "flags": 1,
      "label": "Spartan",
      "description": "Complete a full 45 Minute Sweat Class",
      "howto": "Complete a full 45 Minute Sweat Class"
    },
    {
      "id": 27,
      "imageId": 74,
      "cred": 25,
      "flags": 1,
      "label": "Getting Warmed Up",
      "description": "Burn 500 Calories in Sweat Mode",
      "howto": "Burn 500 Calories in Sweat Mode"
    },
    {
      "id": 28,
      "imageId": 75,
      "cred": 50,
      "flags": 1,
      "label": "Feel the Burn",
      "description": "Burn 1000 Calories in Sweat Mode",
      "howto": "Burn 1000 Calories in Sweat Mode"
    },
    {
      "id": 29,
      "imageId": 76,
      "cred": 100,
      "flags": 1,
      "label": "Burn Baby Burn!",
      "description": "Burn 2000 Calories in Sweat Mode",
      "howto": "Burn 2000 Calories in Sweat Mode"
    },
    {
      "id": 30,
      "imageId": 77,
      "cred": 50,
      "flags": 1,
      "label": "The Complete Package",
      "description": "Complete at least one Class from each of the 5 Sweat Programs",
      "howto": "Complete at least one Class from each of the 5 Sweat Programs"
    },
    {
      "id": 37,
      "imageId": 78,
      "cred": 15,
      "flags": 1,
      "label": "Stuck on Replay",
      "description": "Dance to the Same song 3 times in a row",
      "howto": "Dance to the Same song 3 times in a row"
    },
    {
      "id": 40,
      "imageId": 79,
      "cred": 25,
      "flags": 1,
      "label": "Blind Ambition",
      "description": "Get 5 Stars on a Song with Pictograms Disabled",
      "howto": "Get 5 Stars on a Song with Pictograms Disabled"
    },
    {
      "id": 41,
      "imageId": 80,
      "cred": 25,
      "flags": 1,
      "label": "New Sheriff in Town",
      "description": "Get 5 Stars on the Extreme Version of Wild Wild West",
      "howto": "Get 5 Stars on the Extreme Version of Wild Wild West"
    },
    {
      "id": 42,
      "imageId": 81,
      "cred": 20,
      "flags": 1,
      "label": "Baby is in the Corner",
      "description": "Dance to (I've Had) The Time of my Life Alone",
      "howto": "Dance to (I've Had) The Time of my Life Alone"
    },
    {
      "id": 43,
      "imageId": 82,
      "cred": 20,
      "flags": 1,
      "label": "Dancing Friends!",
      "description": "Dance to We No Speak Americano with 3 Others ",
      "howto": "Dance to We No Speak Americano with 3 Others "
    },
    {
      "id": 44,
      "imageId": 83,
      "cred": 15,
      "flags": 1,
      "label": "Let's do the Time Warp Again",
      "description": "Dance to Time Warp Twice in a Row",
      "howto": "Dance to Time Warp Twice in a Row"
    },
    {
      "id": 45,
      "imageId": 84,
      "cred": 15,
      "flags": 1,
      "label": "RickRoll'd",
      "description": "Win a Battle as the Never Gonna Give You Up Coach",
      "howto": "Win a Battle as the Never Gonna Give You Up Coach"
    },
    {
      "id": 46,
      "imageId": 85,
      "cred": 30,
      "flags": 1,
      "label": "Musical Statues",
      "description": "In any Dance Crew Song, All Four Players Stay Still for 30 seconds",
      "howto": "In any Dance Crew Song, All Four Players Stay Still for 30 seconds"
    },
    {
      "id": 47,
      "imageId": 86,
      "cred": 5,
      "flags": 1,
      "label": "Spin me Right Round",
      "description": "Spin the Carousel at its Maximum Speed",
      "howto": "Spin the Carousel at its Maximum Speed"
    },
    {
      "id": 49,
      "imageId": 87,
      "cred": 5,
      "flags": 1,
      "label": "Look Ma, Both Hands!",
      "description": "Use Each hand at least Once to Navigate the Menus ",
      "howto": "Use Each hand at least Once to Navigate the Menus "
    }
  ]
}