{
  "achievementsPossible": 43,
  "credPossible": 1000,
  "achievements": [
    {
      "id": 54,
      "imageId": 1,
      "cred": 25,
      "flags": 1,
      "label": "Golden Gloves",
      "description": "Threw 1000 punches in Cardio Boxing",
      "howto": "Throw 1000 punches in Cardio Boxing"
    },
    {
      "id": 55,
      "imageId": 2,
      "cred": 25,
      "flags": 1,
      "label": "Trail Blazer",
      "description": "Ran 1000km/621.4 mi. in Fitness Trail",
      "howto": "Run 1000km/621.4 mi. in Fitness Trail"
    },
    {
      "id": 56,
      "imageId": 3,
      "cred": 25,
      "flags": 1,
      "label": "Pedal Power",
      "description": "Biked 1000km/621.4 mi. in Mountain Biking",
      "howto": "Bike 1000km/621.4 mi. in Mountain Biking"
    },
    {
      "id": 57,
      "imageId": 4,
      "cred": 25,
      "flags": 1,
      "label": "Brick Wall",
      "description": "Made 1000 saves in Soccer",
      "howto": "Make 1000 saves in Soccer"
    },
    {
      "id": 58,
      "imageId": 5,
      "cred": 25,
      "flags": 1,
      "label": "Hot Stepper",
      "description": "Completed 1000 steps in Step Aerobics",
      "howto": "Complete 1000 steps in Step Aerobics"
    },
    {
      "id": 59,
      "imageId": 6,
      "cred": 25,
      "flags": 1,
      "label": "Dodge Master",
      "description": "Dodged 1000 balls in Dodgeball",
      "howto": "Dodge 1000 balls in Dodgeball"
    },
    {
      "id": 60,
      "imageId": 7,
      "cred": 10,
      "flags": 1,
      "label": "100 Calories",
      "description": "Burned 100 Calories",
      "howto": "Burn 100 Calories"
    },
    {
      "id": 61,
      "imageId": 8,
      "cred": 25,
      "flags": 1,
      "label": "1000 Calories",
      "description": "Burned 1000 Calories",
      "howto": "Burn 1000 Calories"
    },
    {
      "id": 62,
      "imageId": 9,
      "cred": 100,
      "flags": 1,
      "label": "10000 Calories",
      "description": "Burned 10000 Calories",
      "howto": "Burn 10000 Calories"
    },
    {
      "id": 63,
      "imageId": 10,
      "cred": 30,
      "flags": 1,
      "label": "Push it to the Limit",
      "description": "Completed 1000 Pushups",
      "howto": "Complete 1000 Pushups"
    },
    {
      "id": 64,
      "imageId": 11,
      "cred": 10,
      "flags": 1,
      "label": "GOAL!",
      "description": "Completed 1 goal with 100% completion",
      "howto": "Complete 1 goal with 100% completion"
    },
    {
      "id": 65,
      "imageId": 12,
      "cred": 5,
      "flags": 1,
      "label": "1 Hour",
      "description": "Completed 1 Hour of exercise",
      "howto": "Complete 1 Hour of exercise"
    },
    {
      "id": 66,
      "imageId": 13,
      "cred": 5,
      "flags": 1,
      "label": "Working It",
      "description": "Completed 1 Workout",
      "howto": "Complete 1 Workout"
    },
    {
      "id": 67,
      "imageId": 14,
      "cred": 20,
      "flags": 1,
      "label": "Fitness Enthusiast",
      "description": "Completed 10 Workouts",
      "howto": "Complete 10 Workouts"
    },
    {
      "id": 68,
      "imageId": 15,
      "cred": 100,
      "flags": 1,
      "label": "Fitness Pro",
      "description": "Completed 100 Workouts",
      "howto": "Complete 100 Workouts"
    },
    {
      "id": 69,
      "imageId": 16,
      "cred": 20,
      "flags": 1,
      "label": "Pumping Iron",
      "description": "Completed 1000 Arm Curls",
      "howto": "Complete 1000 Arm Curls"
    },
    {
      "id": 70,
      "imageId": 17,
      "cred": 20,
      "flags": 1,
      "label": "Lunge Expert",
      "description": "Completed 1000 Lunges",
      "howto": "Complete 1000 Lunges"
    },
    {
      "id": 71,
      "imageId": 18,
      "cred": 20,
      "flags": 1,
      "label": "Squat Master",
      "description": "Completed 1000 Squats",
      "howto": "Complete 1000 Squats"
    },
    {
      "id": 72,
      "imageId": 19,
      "cred": 10,
      "flags": 1,
      "label": "Fitness 101",
      "description": "Completed 101 Exercises",
      "howto": "Complete 101 Exercises"
    },
    {
      "id": 73,
      "imageId": 20,
      "cred": 5,
      "flags": 1,
      "label": "Goal Getter",
      "description": "Completed 3 goals with over 80% completion",
      "howto": "Complete 3 goals with over 80% completion"
    },
    {
      "id": 74,
      "imageId": 21,
      "cred": 20,
      "flags": 1,
      "label": "Trend Setter",
      "description": "Completed 5 scheduled workouts in a row",
      "howto": "Complete 5 scheduled workouts in a row"
    },
    {
      "id": 75,
      "imageId": 22,
      "cred": 50,
      "flags": 1,
      "label": "Fitness Expert",
      "description": "Completed 50 Workouts",
      "howto": "Complete 50 Workouts"
    },
    {
      "id": 76,
      "imageId": 23,
      "cred": 10,
      "flags": 1,
      "label": "Workout Buddies",
      "description": "Completed a Multiplayer Workout",
      "howto": "Complete a Multiplayer Workout"
    },
    {
      "id": 77,
      "imageId": 24,
      "cred": 5,
      "flags": 1,
      "label": "Perfect Score",
      "description": "Completed a workout with 100% completion",
      "howto": "Complete a workout with 100% completion"
    },
    {
      "id": 78,
      "imageId": 25,
      "cred": 30,
      "flags": 1,
      "label": "Perfect Attendance",
      "description": "Completed a Program with over 80% in all workouts",
      "howto": "Complete a Program with over 80% in all workouts"
    },
    {
      "id": 79,
      "imageId": 26,
      "cred": 10,
      "flags": 1,
      "label": "Fitness Sampler",
      "description": "Completed 50 unique exercises",
      "howto": "Complete 50 unique exercises"
    },
    {
      "id": 80,
      "imageId": 27,
      "cred": 5,
      "flags": 1,
      "label": "Getting Results",
      "description": "Completed first Fitness Tracker Report",
      "howto": "Complete first Fitness Tracker Report"
    },
    {
      "id": 81,
      "imageId": 28,
      "cred": 25,
      "flags": 1,
      "label": "Cardio Kick Start",
      "description": "Completed 80% of the Cardio Kick Start Program workouts",
      "howto": "Complete 80% of the Cardio Kick Start Program workouts"
    },
    {
      "id": 82,
      "imageId": 29,
      "cred": 20,
      "flags": 1,
      "label": "Phase 1 Complete",
      "description": "Completed all Phase 1 workouts in The 9 Week Program",
      "howto": "Complete all Phase 1 workouts in The 9 Week Program"
    },
    {
      "id": 83,
      "imageId": 30,
      "cred": 50,
      "flags": 1,
      "label": "Phase 2 Complete",
      "description": "Completed all Phase 2 workouts in The 9 Week Program",
      "howto": "Complete all Phase 2 workouts in The 9 Week Program"
    },
    {
      "id": 84,
      "imageId": 31,
      "cred": 50,
      "flags": 1,
      "label": "Phase 3 Complete",
      "description": "Completed all Phase 3 workouts in The 9 Week Program",
      "howto": "Complete all Phase 3 workouts in The 9 Week Program"
    },
    {
      "id": 85,
      "imageId": 32,
      "cred": 35,
      "flags": 1,
      "label": "Making it Mine",
      "description": "Created and Completed a Custom Workout",
      "howto": "Create and Complete a Custom Workout"
    },
    {
      "id": 86,
      "imageId": 33,
      "cred": 5,
      "flags": 1,
      "label": "Dear Diary",
      "description": "Earned 3 checkmarks on a Journal Entry",
      "howto": "Earn 3 checkmarks on a Journal Entry"
    },
    {
      "id": 87,
      "imageId": 34,
      "cred": 10,
      "flags": 1,
      "label": "Survey Says",
      "description": "Filled in 5 Lifestyle and Nutrition Surveys",
      "howto": "Fill in 5 Lifestyle and Nutrition Surveys"
    },
    {
      "id": 88,
      "imageId": 35,
      "cred": 10,
      "flags": 1,
      "label": "Staying Active",
      "description": "Filled in 5 Other Activity Surveys",
      "howto": "Fill in 5 Other Activity Surveys"
    },
    {
      "id": 89,
      "imageId": 36,
      "cred": 5,
      "flags": 1,
      "label": "Checking In",
      "description": "Filled in the Lifestyle & Nutrition Survey",
      "howto": "Fill in the Lifestyle & Nutrition Survey"
    },
    {
      "id": 90,
      "imageId": 37,
      "cred": 5,
      "flags": 1,
      "label": "Getting Out",
      "description": "Filled in the Other Activity Survey",
      "howto": "Fill in the Other Activity Survey"
    },
    {
      "id": 91,
      "imageId": 38,
      "cred": 5,
      "flags": 1,
      "label": "Ready to go!",
      "description": "Finished setting up your EA SPORTS Active 2 profile",
      "howto": "Set up your EA SPORTS Active 2 profile"
    },
    {
      "id": 92,
      "imageId": 39,
      "cred": 10,
      "flags": 1,
      "label": "Making Friends",
      "description": "Joined or created a Workout Group",
      "howto": "Join or create a Workout Group"
    },
    {
      "id": 93,
      "imageId": 40,
      "cred": 15,
      "flags": 1,
      "label": "500 Calories",
      "description": "Burned 500 Calories",
      "howto": "Burn 500 Calories"
    },
    {
      "id": 94,
      "imageId": 41,
      "cred": 35,
      "flags": 1,
      "label": "5000 Calories",
      "description": "Burned 5000 Calories",
      "howto": "Burn 5000 Calories"
    },
    {
      "id": 95,
      "imageId": 42,
      "cred": 10,
      "flags": 1,
      "label": "12 Hours",
      "description": "12 Hours of exercise time",
      "howto": "12 Hours of exercise time"
    },
    {
      "id": 96,
      "imageId": 43,
      "cred": 50,
      "flags": 1,
      "label": "24 Hours",
      "description": "24 Hours of exercise time",
      "howto": "24 Hours of exercise time"
    }
  ]
}