{
  "achievementsPossible": 32,
  "credPossible": 1000,
  "achievements": [
    {
      "id": 8,
      "imageId": 1,
      "cred": 20,
      "flags": 1,
      "label": "Walter's Keepsake",
      "description": "Finish the game with Kendal.",
      "howto": "Finish the game with Kendal."
    },
    {
      "id": 9,
      "imageId": 2,
      "cred": 20,
      "flags": 1,
      "label": "End of Pain",
      "description": "Finish the game with Regnier.",
      "howto": "Finish the game with Regnier."
    },
    {
      "id": 10,
      "imageId": 3,
      "cred": 20,
      "flags": 3,
      "label": "Awakened Lover",
      "description": "Finish the game with Celine.",
      "howto": "Finish the game with Celine."
    },
    {
      "id": 11,
      "imageId": 4,
      "cred": 20,
      "flags": 1,
      "label": "Rebuilding the Empire",
      "description": "Finish the game with Leinhart.",
      "howto": "Finish the game with Leinhart."
    },
    {
      "id": 12,
      "imageId": 5,
      "cred": 20,
      "flags": 1,
      "label": "Marguerite, My Love",
      "description": "Raise Marguerite's favor to 100%",
      "howto": "Raise Marguerite's favor to 100%"
    },
    {
      "id": 13,
      "imageId": 6,
      "cred": 20,
      "flags": 1,
      "label": "Purpose of the Journey",
      "description": "Finish the game with Curian.",
      "howto": "Finish the game with Curian."
    },
    {
      "id": 14,
      "imageId": 7,
      "cred": 30,
      "flags": 1,
      "label": "Protecting the Age",
      "description": "Complete all of Kendal's story quests.",
      "howto": "Complete all of Kendal's story quests."
    },
    {
      "id": 15,
      "imageId": 8,
      "cred": 30,
      "flags": 1,
      "label": "Destroying the Age",
      "description": "Complete all of Regnier's story quests.",
      "howto": "Complete all of Regnier's story quests."
    },
    {
      "id": 16,
      "imageId": 9,
      "cred": 30,
      "flags": 1,
      "label": "Everlasting Love",
      "description": "Complete all of Celine's story quests.",
      "howto": "Complete all of Celine's story quests."
    },
    {
      "id": 17,
      "imageId": 10,
      "cred": 30,
      "flags": 1,
      "label": "Ambition and Ability",
      "description": "Complete all of Leinhart's story quests.",
      "howto": "Complete all of Leinhart's story quests."
    },
    {
      "id": 18,
      "imageId": 11,
      "cred": 20,
      "flags": 1,
      "label": "The Timid Developer",
      "description": "Watch all of the starting staff roll AND the ending staff roll credits!",
      "howto": "Watch all of the starting staff roll AND the ending staff roll credits!"
    },
    {
      "id": 19,
      "imageId": 12,
      "cred": 20,
      "flags": 1,
      "label": "Misery Loves Company",
      "description": "Have a heartwarming talk with Bertrand.",
      "howto": "Have a heartwarming talk with Bertrand."
    },
    {
      "id": 20,
      "imageId": 13,
      "cred": 20,
      "flags": 1,
      "label": "Dueling Is My Life",
      "description": "Raise Marguerite's favor to 50%!",
      "howto": "Raise Marguerite's favor to 50%!"
    },
    {
      "id": 21,
      "imageId": 14,
      "cred": 10,
      "flags": 1,
      "label": "The Fallen Forest",
      "description": "Defeat the Forest Guardian.",
      "howto": "Defeat the Forest Guardian."
    },
    {
      "id": 22,
      "imageId": 15,
      "cred": 20,
      "flags": 1,
      "label": "End of Mutation",
      "description": "Defeat Mutant Curian.",
      "howto": "Defeat Mutant Curian."
    },
    {
      "id": 23,
      "imageId": 16,
      "cred": 10,
      "flags": 1,
      "label": "Pride and Imprudence",
      "description": "Defeat Loki.",
      "howto": "Defeat Loki."
    },
    {
      "id": 24,
      "imageId": 17,
      "cred": 10,
      "flags": 1,
      "label": "Catch Me If You Can",
      "description": "Hunt down Loki's head.",
      "howto": "Hunt down Loki's head."
    },
    {
      "id": 25,
      "imageId": 18,
      "cred": 10,
      "flags": 1,
      "label": "End of Cold Love",
      "description": "Defeat the Ice Maiden.",
      "howto": "Defeat the Ice Maiden."
    },
    {
      "id": 26,
      "imageId": 19,
      "cred": 10,
      "flags": 1,
      "label": "End of Frenzy",
      "description": "Defeat the Balrog.",
      "howto": "Defeat the Balrog."
    },
    {
      "id": 27,
      "imageId": 20,
      "cred": 10,
      "flags": 1,
      "label": "End of the Dimension",
      "description": "Defeat Encablossa.",
      "howto": "Defeat Encablossa."
    },
    {
      "id": 28,
      "imageId": 21,
      "cred": 20,
      "flags": 1,
      "label": "Gluttony",
      "description": "Pick up all items dropped by a boss.",
      "howto": "Pick up all items dropped by a boss."
    },
    {
      "id": 29,
      "imageId": 22,
      "cred": 10,
      "flags": 1,
      "label": "A Friendly Game",
      "description": "Complete the tutorial.",
      "howto": "Complete the tutorial."
    },
    {
      "id": 30,
      "imageId": 23,
      "cred": 10,
      "flags": 1,
      "label": "Origin of Obsession",
      "description": "Succeed in Item Synthesis.",
      "howto": "Succeed in Item Synthesis."
    },
    {
      "id": 31,
      "imageId": 24,
      "cred": 40,
      "flags": 1,
      "label": "Master Alchemist",
      "description": "Synthesize the same piece of equipment 10 times.",
      "howto": "Synthesize the same piece of equipment 10 times."
    },
    {
      "id": 32,
      "imageId": 25,
      "cred": 80,
      "flags": 1,
      "label": "The Master's Mentor",
      "description": "Synthesize the same piece of equipment 20 times.",
      "howto": "Synthesize the same piece of equipment 20 times."
    },
    {
      "id": 33,
      "imageId": 26,
      "cred": 20,
      "flags": 1,
      "label": "Stranger to the Dimension",
      "description": "Reach Level 10 with any character.",
      "howto": "Reach Level 10 with any character."
    },
    {
      "id": 34,
      "imageId": 27,
      "cred": 40,
      "flags": 1,
      "label": "Adventurer of the Dimension",
      "description": "Reach Level 40 with any character.",
      "howto": "Reach Level 40 with any character."
    },
    {
      "id": 35,
      "imageId": 28,
      "cred": 80,
      "flags": 1,
      "label": "Lord of the Dimension",
      "description": "Reach Level 120 with any character.",
      "howto": "Reach Level 120 with any character."
    },
    {
      "id": 36,
      "imageId": 29,
      "cred": 200,
      "flags": 1,
      "label": "Curse of the Developer",
      "description": "Reach Level 80 with ALL characters.",
      "howto": "Reach Level 80 with ALL characters."
    },
    {
      "id": 37,
      "imageId": 30,
      "cred": 10,
      "flags": 1,
      "label": "Beginning of Wisdom",
      "description": "Learn an Ability.",
      "howto": "Learn an Ability."
    },
    {
      "id": 38,
      "imageId": 31,
      "cred": 30,
      "flags": 1,
      "label": "Where Is the Stone Golem?",
      "description": "Hunt down a Stone Golem.",
      "howto": "Hunt down a Stone Golem."
    },
    {
      "id": 39,
      "imageId": 32,
      "cred": 80,
      "flags": 1,
      "label": "King of Bloodlust",
      "description": "Successfully execute a 20 combo attack with a Bloodlust enhanced weapon!",
      "howto": "Successfully execute a 20 combo attack with a Bloodlust enhanced weapon!"
    }
  ]
}