{
  "achievementsPossible": 25,
  "credPossible": 1000,
  "achievements": [
    {
      "id": 1,
      "imageId": 2,
      "cred": 40,
      "flags": 1,
      "label": "Frigidigiwhatsis?",
      "description": "Unlock Chapter 2.",
      "howto": "Unlock Chapter 2."
    },
    {
      "id": 2,
      "imageId": 3,
      "cred": 40,
      "flags": 1,
      "label": "Temple-rary Detour",
      "description": "Unlock Chapter 3.",
      "howto": "Unlock Chapter 3."
    },
    {
      "id": 3,
      "imageId": 4,
      "cred": 40,
      "flags": 1,
      "label": "What a Drag(on)!",
      "description": "Unlock Chapter 4.",
      "howto": "Unlock Chapter 4."
    },
    {
      "id": 4,
      "imageId": 10,
      "cred": 40,
      "flags": 1,
      "label": "An Icy Reception",
      "description": "Unlock Chapter 5.",
      "howto": "Unlock Chapter 5."
    },
    {
      "id": 5,
      "imageId": 5,
      "cred": 40,
      "flags": 1,
      "label": "Repossessed",
      "description": "Unlock Chapter 6.",
      "howto": "Unlock Chapter 6."
    },
    {
      "id": 6,
      "imageId": 6,
      "cred": 40,
      "flags": 1,
      "label": "A Ghost of a Chance",
      "description": "Complete the final level of the game.",
      "howto": "Complete the final level of the game."
    },
    {
      "id": 7,
      "imageId": 7,
      "cred": 60,
      "flags": 1,
      "label": "Bonus Pac",
      "description": "Complete all bonus levels.",
      "howto": "Complete all bonus levels."
    },
    {
      "id": 8,
      "imageId": 8,
      "cred": 20,
      "flags": 3,
      "label": "Slimy Temple",
      "description": "Collect enough Globe Energy orbs to unlock the Temple of Slime.",
      "howto": "Collect enough Globe Energy orbs to unlock the Temple of Slime."
    },
    {
      "id": 9,
      "imageId": 9,
      "cred": 20,
      "flags": 3,
      "label": "Icy Temple",
      "description": "Collect enough Globe Energy orbs to unlock the Temple of Ice.",
      "howto": "Collect enough Globe Energy orbs to unlock the Temple of Ice."
    },
    {
      "id": 10,
      "imageId": 11,
      "cred": 20,
      "flags": 3,
      "label": "Mysterious Temple",
      "description": "Collect enough Globe Energy orbs to unlock the Temple of Mystery.",
      "howto": "Collect enough Globe Energy orbs to unlock the Temple of Mystery."
    },
    {
      "id": 11,
      "imageId": 12,
      "cred": 40,
      "flags": 1,
      "label": "Chillin'",
      "description": "Defeat 100 enemies as Ice Pac.",
      "howto": "Defeat 100 enemies as Ice Pac."
    },
    {
      "id": 12,
      "imageId": 13,
      "cred": 40,
      "flags": 1,
      "label": "Fire-Man",
      "description": "Defeat 100 enemies as Fire Pac.",
      "howto": "Defeat 100 enemies as Fire Pac."
    },
    {
      "id": 13,
      "imageId": 14,
      "cred": 30,
      "flags": 1,
      "label": "Thwap!",
      "description": "Defeat 100 enemies as Chameleon Pac.",
      "howto": "Defeat 100 enemies as Chameleon Pac."
    },
    {
      "id": 14,
      "imageId": 15,
      "cred": 40,
      "flags": 1,
      "label": "Heavy Metal",
      "description": "Defeat 100 enemies as Metal Pac.",
      "howto": "Defeat 100 enemies as Metal Pac."
    },
    {
      "id": 15,
      "imageId": 16,
      "cred": 40,
      "flags": 1,
      "label": "Roll Model",
      "description": "Defeat 100 enemies as Granite Ball Pac.",
      "howto": "Defeat 100 enemies as Granite Ball Pac."
    },
    {
      "id": 16,
      "imageId": 17,
      "cred": 60,
      "flags": 1,
      "label": "Oooo! Scary!",
      "description": "Defeat 300 Blue (Scared) Ghosts.",
      "howto": "Defeat 300 Blue (Scared) Ghosts."
    },
    {
      "id": 17,
      "imageId": 18,
      "cred": 20,
      "flags": 1,
      "label": "Trash-Man",
      "description": "Chomp 50 recycling bins over the course of the game.",
      "howto": "Chomp 50 recycling bins over the course of the game."
    },
    {
      "id": 18,
      "imageId": 19,
      "cred": 40,
      "flags": 3,
      "label": "Lemon Rocketeer",
      "description": "Complete all levels of the Lemon Rocket arcade mini-game.",
      "howto": "Complete all levels of the Lemon Rocket arcade mini-game."
    },
    {
      "id": 19,
      "imageId": 21,
      "cred": 40,
      "flags": 3,
      "label": "Cherries Jubilee",
      "description": "Complete all levels of the Cherry Copter arcade mini-game.",
      "howto": "Complete all levels of the Cherry Copter arcade mini-game."
    },
    {
      "id": 20,
      "imageId": 22,
      "cred": 40,
      "flags": 3,
      "label": "Pacerchini Unlimited",
      "description": "Complete all levels of the Pacerchini arcade mini-game.",
      "howto": "Complete all levels of the Pacerchini arcade mini-game."
    },
    {
      "id": 21,
      "imageId": 23,
      "cred": 40,
      "flags": 3,
      "label": "Tanks A Lot",
      "description": "Complete all levels of the Pineapple Tank arcade mini-game.",
      "howto": "Complete all levels of the Pineapple Tank arcade mini-game."
    },
    {
      "id": 22,
      "imageId": 24,
      "cred": 60,
      "flags": 1,
      "label": "Token Effort",
      "description": "Collect at least one Arcade Token in every level.",
      "howto": "Collect at least one Arcade Token in every level."
    },
    {
      "id": 23,
      "imageId": 25,
      "cred": 30,
      "flags": 1,
      "label": "Pac-ed with Health",
      "description": "Increase Pac's maximum Health to 6.",
      "howto": "Increase Pac's maximum Health to 6."
    },
    {
      "id": 24,
      "imageId": 26,
      "cred": 60,
      "flags": 1,
      "label": "Pacberry Pie Hog",
      "description": "Increase Pac's total lives to 50 or more.",
      "howto": "Increase Pac's total lives to 50 or more."
    },
    {
      "id": 25,
      "imageId": 27,
      "cred": 60,
      "flags": 1,
      "label": "Super Pac-Man",
      "description": "Complete an entire level without losing a life.",
      "howto": "Complete an entire level without losing a life."
    }
  ]
}