{
  "achievementsPossible": 12,
  "credPossible": 200,
  "achievements": [
    {
      "id": 31,
      "imageId": 1,
      "cred": 10,
      "flags": 1,
      "label": "Annihilator",
      "description": "Capture all your opponent's pieces in Classic Chess (Single Player).",
      "howto": "Capture all your opponent's pieces in Classic Chess (Single Player)."
    },
    {
      "id": 32,
      "imageId": 2,
      "cred": 5,
      "flags": 1,
      "label": "Apprentice",
      "description": "Win 1 game (Single Player).",
      "howto": "Win 1 game (Single Player)."
    },
    {
      "id": 33,
      "imageId": 3,
      "cred": 20,
      "flags": 1,
      "label": "Blitzkrieger",
      "description": "Win 1 game (Single Player) in less than 5 minutes (personal time).",
      "howto": "Win 1 game (Single Player) in less than 5 minutes (personal time)."
    },
    {
      "id": 34,
      "imageId": 4,
      "cred": 25,
      "flags": 1,
      "label": "Champ",
      "description": "Defeat a chess personality with an ELO rating of 1000 or more.",
      "howto": "Defeat a chess personality with an ELO rating of 1000 or more."
    },
    {
      "id": 35,
      "imageId": 5,
      "cred": 10,
      "flags": 1,
      "label": "Chess Regular",
      "description": "Play 20 online games.",
      "howto": "Play 20 online games."
    },
    {
      "id": 36,
      "imageId": 6,
      "cred": 15,
      "flags": 1,
      "label": "Glorious",
      "description": "Achieve an online rating of 1200 in any type of chess.",
      "howto": "Achieve an online rating of 1200 in any type of chess."
    },
    {
      "id": 37,
      "imageId": 7,
      "cred": 20,
      "flags": 1,
      "label": "Grand Strategist",
      "description": "Complete 30 puzzles.",
      "howto": "Complete 30 puzzles."
    },
    {
      "id": 38,
      "imageId": 8,
      "cred": 15,
      "flags": 1,
      "label": "Jack of all Trades",
      "description": "Win 1 online game in all chess variants.",
      "howto": "Win 1 online game in all chess variants."
    },
    {
      "id": 39,
      "imageId": 9,
      "cred": 25,
      "flags": 1,
      "label": "Master",
      "description": "Win 20 games (Single Player).",
      "howto": "Win 20 games (Single Player)."
    },
    {
      "id": 40,
      "imageId": 10,
      "cred": 25,
      "flags": 1,
      "label": "Pro Player",
      "description": "Win 10 ranked online games.",
      "howto": "Win 10 ranked online games."
    },
    {
      "id": 41,
      "imageId": 11,
      "cred": 15,
      "flags": 1,
      "label": "Rising Star",
      "description": "Win online against a higher ranked player.",
      "howto": "Win online against a higher ranked player."
    },
    {
      "id": 42,
      "imageId": 12,
      "cred": 15,
      "flags": 1,
      "label": "Veteran",
      "description": "Play 100 games (Single Player).",
      "howto": "Play 100 games (Single Player)."
    }
  ]
}