{
  "achievementsPossible": 30,
  "credPossible": 400,
  "achievements": [
    {
      "id": 35,
      "imageId": 2,
      "cred": 30,
      "flags": 6,
      "label": "Eye for an Eye",
      "description": "Be the last thing Balor ever sees",
      "howto": "Be the last thing Balor ever sees"
    },
    {
      "id": 36,
      "imageId": 3,
      "cred": 20,
      "flags": 6,
      "label": "God of the Dead",
      "description": "Splatter Wodan's skull across the altar",
      "howto": "Splatter Wodan's skull across the altar"
    },
    {
      "id": 37,
      "imageId": 4,
      "cred": 20,
      "flags": 6,
      "label": "Storm and Disease",
      "description": "Break Cailleach's heart",
      "howto": "Break Cailleach's heart"
    },
    {
      "id": 38,
      "imageId": 5,
      "cred": 20,
      "flags": 6,
      "label": "Showdown",
      "description": "Make the prophecy come true",
      "howto": "Make the prophecy come true"
    },
    {
      "id": 39,
      "imageId": 6,
      "cred": 20,
      "flags": 6,
      "label": "Shadow Blade",
      "description": "Kill the messenger",
      "howto": "Kill the messenger"
    },
    {
      "id": 40,
      "imageId": 7,
      "cred": 40,
      "flags": 6,
      "label": "Weavers of Fate",
      "description": "Take control of Fate",
      "howto": "Take control of Fate"
    },
    {
      "id": 41,
      "imageId": 8,
      "cred": 5,
      "flags": 4,
      "label": "Guts And Glory",
      "description": "Destroyed 10 deadly warriors of the gods",
      "howto": "Destroy 10 deadly warriors of the gods"
    },
    {
      "id": 42,
      "imageId": 9,
      "cred": 10,
      "flags": 4,
      "label": "Carnage",
      "description": "Tear 25 enemies to pieces",
      "howto": "Tear 25 enemies to pieces"
    },
    {
      "id": 43,
      "imageId": 10,
      "cred": 10,
      "flags": 4,
      "label": "Killing Spree",
      "description": "Kill 5 enemies while completely enraged",
      "howto": "Kill 5 enemies while completely enraged"
    },
    {
      "id": 44,
      "imageId": 11,
      "cred": 5,
      "flags": 4,
      "label": "Now that's magic",
      "description": "Discover the power of magic",
      "howto": "Discover the power of magic"
    },
    {
      "id": 45,
      "imageId": 12,
      "cred": 10,
      "flags": 4,
      "label": "Total Consumption",
      "description": "Ingest 25 runes of power",
      "howto": "Ingest 25 runes of power"
    },
    {
      "id": 46,
      "imageId": 13,
      "cred": 10,
      "flags": 4,
      "label": "Tear it up",
      "description": "Gruesomely kill an enemy while completey enraged",
      "howto": "Gruesomely kill an enemy while completey enraged"
    },
    {
      "id": 47,
      "imageId": 34,
      "cred": 15,
      "flags": 4,
      "label": "Killing the one trick pony",
      "description": "Use 5 different attack moves during an enemy encounter",
      "howto": "Use 5 different attack moves during an enemy encounter"
    },
    {
      "id": 48,
      "imageId": 35,
      "cred": 15,
      "flags": 4,
      "label": "Ripping a new one",
      "description": "Perform a perfect Rage Kill",
      "howto": "Perform a perfect Rage Kill"
    },
    {
      "id": 49,
      "imageId": 36,
      "cred": 15,
      "flags": 4,
      "label": "Float like a butterfly...",
      "description": "Use the crossbow to link two attack chains together",
      "howto": "Use the crossbow to link two attack chains together"
    },
    {
      "id": 50,
      "imageId": 37,
      "cred": 10,
      "flags": 4,
      "label": "Like A Boss",
      "description": "Kill 10 enemies while they are bound with Crystals",
      "howto": "Kill 10 enemies while they are bound with Crystals"
    },
    {
      "id": 51,
      "imageId": 38,
      "cred": 10,
      "flags": 4,
      "label": "Web of death",
      "description": "Perform a 75-hit combination attack",
      "howto": "Perform a 75-hit combination attack"
    },
    {
      "id": 52,
      "imageId": 39,
      "cred": 10,
      "flags": 4,
      "label": "Untouchable",
      "description": "Defeat a Risen Fomoiri Tank without being hit.",
      "howto": "Defeat a Risen Fomoiri Tank without being hit."
    },
    {
      "id": 53,
      "imageId": 40,
      "cred": 10,
      "flags": 4,
      "label": "Unstoppable",
      "description": "Obtain 3 consecutive perfect battle ranks",
      "howto": "Obtain 3 consecutive perfect battle ranks"
    },
    {
      "id": 54,
      "imageId": 41,
      "cred": 10,
      "flags": 1,
      "label": "Go for Broke",
      "description": "Defeat a challenge of the gods",
      "howto": "Defeat a challenge of the gods"
    },
    {
      "id": 55,
      "imageId": 42,
      "cred": 10,
      "flags": 4,
      "label": "Care to step outside?..",
      "description": "Challenge a friend",
      "howto": "Challenge a friend"
    },
    {
      "id": 56,
      "imageId": 43,
      "cred": 10,
      "flags": 1,
      "label": "Ah yeah!",
      "description": "Decimate a friend's challenge",
      "howto": "Decimate a friend's challenge"
    },
    {
      "id": 57,
      "imageId": 44,
      "cred": 15,
      "flags": 4,
      "label": "Who's your daddy?",
      "description": "Destroy 10 friend's challenges",
      "howto": "Destroy 10 friend's challenges"
    },
    {
      "id": 58,
      "imageId": 45,
      "cred": 15,
      "flags": 4,
      "label": "Leader of the pack",
      "description": "Hold the top rank amongst all friends on 3 battles",
      "howto": "Hold the top rank amongst all friends on 3 battles"
    },
    {
      "id": 59,
      "imageId": 46,
      "cred": 15,
      "flags": 1,
      "label": "Hail to the King baby!",
      "description": "Complete all challenge arenas",
      "howto": "Complete all challenge arenas"
    },
    {
      "id": 60,
      "imageId": 47,
      "cred": 10,
      "flags": 4,
      "label": "Wizbit!",
      "description": "Collect all Rune Attacks",
      "howto": "Collect all Rune Attacks"
    },
    {
      "id": 61,
      "imageId": 48,
      "cred": 10,
      "flags": 4,
      "label": "Weapons of mass destruction",
      "description": "Collect all weapon upgrades",
      "howto": "Collect all weapon upgrades"
    },
    {
      "id": 62,
      "imageId": 49,
      "cred": 10,
      "flags": 4,
      "label": "Inventarium Maximum",
      "description": "Collect all health and mana upgrades",
      "howto": "Collect all health and mana upgrades"
    },
    {
      "id": 63,
      "imageId": 50,
      "cred": 5,
      "flags": 4,
      "label": "Collateral Damage",
      "description": "Allow Balor to kill 15 of his own troops",
      "howto": "Allow Balor to kill 15 of his own troops"
    },
    {
      "id": 64,
      "imageId": 51,
      "cred": 5,
      "flags": 4,
      "label": "Doing it wrong",
      "description": "Resurrect Aerten 10 times.",
      "howto": "Resurrect Aerten 10 times."
    }
  ]
}