{
  "avatarAssetsPossible": 5,
  "maleAvatarAssetsPossible": 2,
  "femaleAvatarAssetsPossible": 2,
  "avatarAssets": [
    {
      "id": "00000544-0001-91a3-c9be-aea558410b7a",
      "imageId": 71,
      "subcategory": 0,
      "unknown": 0,
      "isMale": false,
      "isFemale": false,
      "isUnisex": true,
      "label": "Crom's Helmet",
      "description": "Make your Avatar's head look like Crom",
      "howto": "Perform a Kill Move"
    },
    {
      "id": "00000a88-0002-61c1-c7a5-b38658410b7a",
      "imageId": 75,
      "subcategory": 0,
      "unknown": 2015221016,
      "isMale": true,
      "isFemale": false,
      "isUnisex": false,
      "label": "Crom's Top (M)",
      "description": "Make your Avatar's top look like Crom",
      "howto": "Collect the gauntlet"
    },
    {
      "id": "00000a88-0002-b122-ce40-070b58410b7a",
      "imageId": 74,
      "subcategory": 0,
      "unknown": 2015221016,
      "isMale": false,
      "isFemale": true,
      "isUnisex": false,
      "label": "Crom's Top (F)",
      "description": "Make your Avatar's top look like Crom",
      "howto": "Collect the gauntlet"
    },
    {
      "id": "00000030-0003-4161-c78e-b16558410b7a",
      "imageId": 73,
      "subcategory": 0,
      "unknown": 2015221016,
      "isMale": true,
      "isFemale": false,
      "isUnisex": false,
      "label": "Crom's Bottom (M)",
      "description": "Make your Avatar's bottom look like Crom",
      "howto": "Self Sacrifice"
    },
    {
      "id": "00000030-0003-6172-ce14-e3c858410b7a",
      "imageId": 72,
      "subcategory": 0,
      "unknown": 2015221016,
      "isMale": false,
      "isFemale": true,
      "isUnisex": false,
      "label": "Crom's Bottom (F)",
      "description": "Make your Avatar's bottom look like Crom",
      "howto": "Self Sacrifice"
    }
  ]
}