{
  "achievementsPossible": 50,
  "credPossible": 1000,
  "achievements": [
    {
      "id": 1,
      "imageId": 61,
      "cred": 20,
      "flags": 1,
      "label": "Crow Carrion",
      "description": "Defeat the Crowfather",
      "howto": "Defeat the Crowfather"
    },
    {
      "id": 2,
      "imageId": 63,
      "cred": 20,
      "flags": 1,
      "label": "Dust to Dust",
      "description": "Defeat the Guardian",
      "howto": "Defeat the Guardian"
    },
    {
      "id": 3,
      "imageId": 60,
      "cred": 20,
      "flags": 1,
      "label": "Clipped Wings",
      "description": "Defeat Archon",
      "howto": "Defeat Archon"
    },
    {
      "id": 4,
      "imageId": 75,
      "cred": 20,
      "flags": 1,
      "label": "It's Not Over",
      "description": "Defeat Samael",
      "howto": "Defeat Samael"
    },
    {
      "id": 5,
      "imageId": 85,
      "cred": 20,
      "flags": 1,
      "label": "Soul Crushing",
      "description": "Defeat The Wailing Host",
      "howto": "Defeat The Wailing Host"
    },
    {
      "id": 6,
      "imageId": 90,
      "cred": 20,
      "flags": 1,
      "label": "The Big Boss",
      "description": "Defeat Absalom",
      "howto": "Defeat Absalom"
    },
    {
      "id": 7,
      "imageId": 53,
      "cred": 30,
      "flags": 1,
      "label": "A Stroll In The Demonic Park",
      "description": "Complete the game on any difficulty setting",
      "howto": "Complete the game on any difficulty setting"
    },
    {
      "id": 8,
      "imageId": 68,
      "cred": 90,
      "flags": 1,
      "label": "Four My Brother",
      "description": "Complete the game on NORMAL",
      "howto": "Complete the game on NORMAL"
    },
    {
      "id": 9,
      "imageId": 54,
      "cred": 90,
      "flags": 1,
      "label": "A True Horseman",
      "description": "Complete the game on APOCALYPTIC",
      "howto": "Complete the game on APOCALYPTIC"
    },
    {
      "id": 10,
      "imageId": 108,
      "cred": 10,
      "flags": 1,
      "label": "Pathfinder",
      "description": "First use of Fast Travel",
      "howto": "First use of Fast Travel"
    },
    {
      "id": 11,
      "imageId": 97,
      "cred": 10,
      "flags": 1,
      "label": "The Spectral Touch",
      "description": "Collect Deathgrip",
      "howto": "Collect Deathgrip"
    },
    {
      "id": 12,
      "imageId": 58,
      "cred": 10,
      "flags": 1,
      "label": "I Can Has Cake?",
      "description": "Collect the Voidwalker",
      "howto": "Collect the Voidwalker"
    },
    {
      "id": 13,
      "imageId": 87,
      "cred": 10,
      "flags": 1,
      "label": "Tearing Time A New One",
      "description": "Collect the Phasewalker",
      "howto": "Collect the Phasewalker"
    },
    {
      "id": 14,
      "imageId": 79,
      "cred": 10,
      "flags": 1,
      "label": "Looks Familiar",
      "description": "Collect Redemption",
      "howto": "Collect Redemption"
    },
    {
      "id": 15,
      "imageId": 62,
      "cred": 10,
      "flags": 1,
      "label": "Death Will Tear Us Apart",
      "description": "Collect the Soul Splitter",
      "howto": "Collect the Soul Splitter"
    },
    {
      "id": 16,
      "imageId": 57,
      "cred": 10,
      "flags": 1,
      "label": "By Your Command",
      "description": "Collect the Interdiction Stone ",
      "howto": "Collect the Interdiction Stone"
    },
    {
      "id": 17,
      "imageId": 110,
      "cred": 10,
      "flags": 1,
      "label": "The Triple Lindy",
      "description": "Complete 3 different high dives in the Foundry",
      "howto": "Complete 3 different high dives in the Foundry"
    },
    {
      "id": 18,
      "imageId": 67,
      "cred": 10,
      "flags": 1,
      "label": "Fire of the Mountain",
      "description": "Complete Fire of the Mountain",
      "howto": "Complete Fire of the Mountain"
    },
    {
      "id": 19,
      "imageId": 88,
      "cred": 10,
      "flags": 1,
      "label": "Tears of the Mountain",
      "description": "Complete Tears of the Mountain",
      "howto": "Complete Tears of the Mountain"
    },
    {
      "id": 20,
      "imageId": 107,
      "cred": 40,
      "flags": 1,
      "label": "Gnomad",
      "description": "Complete GnoMAD",
      "howto": "Complete GnoMAD"
    },
    {
      "id": 21,
      "imageId": 98,
      "cred": 10,
      "flags": 1,
      "label": "To Move a Mountain",
      "description": "Complete To Move a Mountain",
      "howto": "Complete To Move a Mountain"
    },
    {
      "id": 22,
      "imageId": 71,
      "cred": 10,
      "flags": 1,
      "label": "Heart of the Mountain",
      "description": "Complete Heart of the Mountain",
      "howto": "Complete Heart of the Mountain"
    },
    {
      "id": 23,
      "imageId": 99,
      "cred": 10,
      "flags": 1,
      "label": "Tree of Life",
      "description": "Complete Tree of Life",
      "howto": "Complete Tree of Life"
    },
    {
      "id": 24,
      "imageId": 92,
      "cred": 10,
      "flags": 1,
      "label": "The Lord of Bones",
      "description": "Complete The Lord of Bones",
      "howto": "Complete The Lord of Bones"
    },
    {
      "id": 25,
      "imageId": 93,
      "cred": 10,
      "flags": 1,
      "label": "The Toll of Kings",
      "description": "Complete The Toll of Kings",
      "howto": "Complete The Toll of Kings"
    },
    {
      "id": 26,
      "imageId": 91,
      "cred": 10,
      "flags": 1,
      "label": "The Court of Bones",
      "description": "Defeat Basileus",
      "howto": "Defeat Basileus"
    },
    {
      "id": 27,
      "imageId": 56,
      "cred": 10,
      "flags": 1,
      "label": "The Book of the Dead",
      "description": "Complete The Book of the Dead",
      "howto": "Complete The Book of the Dead"
    },
    {
      "id": 28,
      "imageId": 59,
      "cred": 10,
      "flags": 1,
      "label": "City of the Dead",
      "description": "Complete City of the Dead",
      "howto": "Complete City of the Dead"
    },
    {
      "id": 29,
      "imageId": 100,
      "cred": 10,
      "flags": 1,
      "label": "The Root Of Corruption",
      "description": "Open The Well Of Souls",
      "howto": "Open The Well Of Souls"
    },
    {
      "id": 30,
      "imageId": 84,
      "cred": 10,
      "flags": 1,
      "label": "The Rod of Arafel",
      "description": "Complete The Rod of Arafel",
      "howto": "Complete The Rod of Arafel"
    },
    {
      "id": 31,
      "imageId": 103,
      "cred": 10,
      "flags": 1,
      "label": "Diamond Geezertron",
      "description": "Unlock the final skill in either skill tree",
      "howto": "Unlock the final skill in either skill tree"
    },
    {
      "id": 32,
      "imageId": 106,
      "cred": 10,
      "flags": 1,
      "label": "Mass Ruckus",
      "description": "Equip elite items to all slots",
      "howto": "Equip elite items to all slots"
    },
    {
      "id": 33,
      "imageId": 86,
      "cred": 10,
      "flags": 1,
      "label": "Stains of Heresy",
      "description": "Complete Stains of Heresy",
      "howto": "Complete Stains of Heresy"
    },
    {
      "id": 34,
      "imageId": 94,
      "cred": 10,
      "flags": 1,
      "label": "The Mad Queen",
      "description": "Complete The Mad Queen",
      "howto": "Complete The Mad Queen"
    },
    {
      "id": 35,
      "imageId": 80,
      "cred": 10,
      "flags": 1,
      "label": "Lord of the Black Stone",
      "description": "Complete Lord of the Black Stone",
      "howto": "Complete Lord of the Black Stone"
    },
    {
      "id": 36,
      "imageId": 96,
      "cred": 50,
      "flags": 1,
      "label": "The Secondary Adventure",
      "description": "Complete all Secondary Quests",
      "howto": "Complete all Secondary Quests"
    },
    {
      "id": 37,
      "imageId": 70,
      "cred": 30,
      "flags": 1,
      "label": "Grim Reaping",
      "description": "Unlock Reaper Form",
      "howto": "Unlock Reaper Form"
    },
    {
      "id": 38,
      "imageId": 102,
      "cred": 20,
      "flags": 1,
      "label": "Bravo Old Chap",
      "description": "Defeat Wicked K",
      "howto": "Defeat Wicked K"
    },
    {
      "id": 39,
      "imageId": 109,
      "cred": 20,
      "flags": 1,
      "label": "Respec Yourself",
      "description": "Your First Respec",
      "howto": "Your First Respec"
    },
    {
      "id": 40,
      "imageId": 74,
      "cred": 30,
      "flags": 1,
      "label": "Is There Anyone Else?",
      "description": "Complete The Crucible",
      "howto": "Complete The Crucible"
    },
    {
      "id": 41,
      "imageId": 105,
      "cred": 30,
      "flags": 1,
      "label": "Like a Noss",
      "description": "Defeat the four creatures named by Thane",
      "howto": "Defeat the four creatures named by Thane"
    },
    {
      "id": 42,
      "imageId": 51,
      "cred": 30,
      "flags": 1,
      "label": "Abracadabra",
      "description": "Open all Death Tombs",
      "howto": "Open all Death Tombs"
    },
    {
      "id": 43,
      "imageId": 101,
      "cred": 30,
      "flags": 1,
      "label": "Antiquing",
      "description": "Complete Lost Relics",
      "howto": "Complete Lost Relics"
    },
    {
      "id": 44,
      "imageId": 76,
      "cred": 30,
      "flags": 1,
      "label": "I've Brought You A Gift",
      "description": "Defeat the Soul Arbiter",
      "howto": "Defeat the Soul Arbiter"
    },
    {
      "id": 45,
      "imageId": 104,
      "cred": 10,
      "flags": 1,
      "label": "Epic!",
      "description": "Death Reaches Level 30",
      "howto": "Death Reaches Level 30"
    },
    {
      "id": 46,
      "imageId": 66,
      "cred": 20,
      "flags": 1,
      "label": "Feeding Time",
      "description": "Level Up Your 1st Possessed Weapon",
      "howto": "Level Up Your 1st Possessed Weapon"
    },
    {
      "id": 47,
      "imageId": 81,
      "cred": 10,
      "flags": 1,
      "label": "Pay It Forward",
      "description": "Gift An Item To A Friend",
      "howto": "Gift An Item To A Friend"
    },
    {
      "id": 48,
      "imageId": 52,
      "cred": 30,
      "flags": 1,
      "label": "All You Can Eat Buffet",
      "description": "Complete Sticks and Stones",
      "howto": "Complete Sticks and Stones"
    },
    {
      "id": 49,
      "imageId": 69,
      "cred": 30,
      "flags": 1,
      "label": "Full Potential",
      "description": "Unlock All Combat Moves & Upgrades",
      "howto": "Unlock All Combat Moves & Upgrades"
    },
    {
      "id": 50,
      "imageId": 55,
      "cred": 10,
      "flags": 1,
      "label": "BFA",
      "description": "Unlock Everything",
      "howto": "Unlock Everything"
    }
  ]
}