{
  "achievementsPossible": 12,
  "credPossible": 200,
  "achievements": [
    {
      "id": 1,
      "imageId": 1,
      "cred": 10,
      "flags": 6,
      "label": "D-Day Ribbon",
      "description": "Successfully complete the Campaign Mission One - Utah Beach.",
      "howto": "Successfully complete the Campaign Mission One - Utah Beach."
    },
    {
      "id": 2,
      "imageId": 2,
      "cred": 10,
      "flags": 6,
      "label": "Normandy Ribbon",
      "description": "Successfully complete the first six Campaign missions.",
      "howto": "Successfully complete the first six Campaign missions."
    },
    {
      "id": 3,
      "imageId": 3,
      "cred": 10,
      "flags": 1,
      "label": "Battle of the Bulge Ribbon",
      "description": "Successfully complete the entire Campaign.",
      "howto": "Successfully complete the entire Campaign."
    },
    {
      "id": 4,
      "imageId": 4,
      "cred": 15,
      "flags": 4,
      "label": "Training Ribbon",
      "description": "Win your first Multiplayer game on Xbox LIVE.",
      "howto": "Win your first Multiplayer game on Xbox LIVE."
    },
    {
      "id": 5,
      "imageId": 5,
      "cred": 15,
      "flags": 4,
      "label": "Bronze Star",
      "description": "Win a total of 15 Multiplayer games on Xbox LIVE.",
      "howto": "Win a total of 15 Multiplayer games on Xbox LIVE."
    },
    {
      "id": 6,
      "imageId": 6,
      "cred": 20,
      "flags": 4,
      "label": "Fifty Mission Crush",
      "description": "Win a total of 50 Multiplayer games on Xbox LIVE.",
      "howto": "Win a total of 50 Multiplayer games on Xbox LIVE."
    },
    {
      "id": 7,
      "imageId": 7,
      "cred": 15,
      "flags": 4,
      "label": "Silver Star",
      "description": "Destroy a unit with 6 or more health in one combat.",
      "howto": "Destroy a unit with 6 or more health in one combat."
    },
    {
      "id": 8,
      "imageId": 8,
      "cred": 15,
      "flags": 4,
      "label": "Air Commander",
      "description": "Play 6 or more \"Air\" cards in one game.",
      "howto": "Play 6 or more \"Air\" cards in one game."
    },
    {
      "id": 9,
      "imageId": 9,
      "cred": 20,
      "flags": 4,
      "label": "Artillery Commander",
      "description": "Use 4 or more artillery units in support of a single combat in one game.",
      "howto": "Use 4 or more artillery units in support of a single combat in one game."
    },
    {
      "id": 10,
      "imageId": 10,
      "cred": 15,
      "flags": 4,
      "label": "Iron Cross",
      "description": "Have a single unit be promoted 3 times by victory during combat in one game.",
      "howto": "Have a single unit be promoted 3 times by victory during combat in one game."
    },
    {
      "id": 11,
      "imageId": 11,
      "cred": 25,
      "flags": 4,
      "label": "Panzer General",
      "description": "Destroy 12 or more units in a single game.",
      "howto": "Destroy 12 or more units in a single game."
    },
    {
      "id": 12,
      "imageId": 12,
      "cred": 30,
      "flags": 4,
      "label": "Legendary Commander",
      "description": "Win any game with 3 or more Victory Conditions simultaneously.",
      "howto": "Win any game with 3 or more Victory Conditions simultaneously."
    }
  ]
}