{
  "achievementsPossible": 49,
  "credPossible": 1000,
  "achievements": [
    {
      "id": 7,
      "imageId": 6,
      "cred": 20,
      "flags": 4,
      "label": "My Availability",
      "description": "Set up your \"My Availability\" settings online.",
      "howto": "Set up your \"My Availability\" settings online."
    },
    {
      "id": 8,
      "imageId": 7,
      "cred": 15,
      "flags": 4,
      "label": "1 Online Ranked Win",
      "description": "Win one online ranked match.",
      "howto": "Win one online ranked match."
    },
    {
      "id": 9,
      "imageId": 1,
      "cred": 20,
      "flags": 4,
      "label": "10 Online Ranked Win",
      "description": "Win ten online ranked matches.",
      "howto": "Win ten online ranked matches."
    },
    {
      "id": 10,
      "imageId": 2,
      "cred": 25,
      "flags": 4,
      "label": "20 Online Ranked Wins",
      "description": "Win twenty online ranked matches.",
      "howto": "Win twenty online ranked matches."
    },
    {
      "id": 11,
      "imageId": 3,
      "cred": 15,
      "flags": 4,
      "label": "Streak of 3 Ranked Wins",
      "description": "Get three consecutive wins in Online Ranked Matches.  Must play at least two unique opponents.",
      "howto": "Get three consecutive wins in Online Ranked Matches.  Must play at least two unique opponents."
    },
    {
      "id": 12,
      "imageId": 4,
      "cred": 20,
      "flags": 4,
      "label": "Streak of 5 Ranked Wins",
      "description": "Get five consecutive wins in Online Ranked Matches.  Must play at least three unique opponents.",
      "howto": "Get five consecutive wins in Online Ranked Matches.  Must play at least three unique opponents."
    },
    {
      "id": 13,
      "imageId": 5,
      "cred": 25,
      "flags": 4,
      "label": "Streak of 7 Ranked Wins",
      "description": "Get seven consecutive wins in Online Ranked Matches.  Must play at least three unique opponents.",
      "howto": "Get seven consecutive wins in Online Ranked Matches.  Must play at least three unique opponents."
    },
    {
      "id": 14,
      "imageId": 8,
      "cred": 15,
      "flags": 4,
      "label": "Congenial Award",
      "description": "Achieve an 80% or better feedback rating with at least 10 feedbacks.",
      "howto": "Achieve an 80% or better feedback rating with at least 10 feedbacks."
    },
    {
      "id": 15,
      "imageId": 9,
      "cred": 20,
      "flags": 4,
      "label": "Super Congenial Award",
      "description": "Achieve an 85% or better feedback rating with at least 20 feedbacks.",
      "howto": "Achieve an 85% or better feedback rating with at least 20 feedbacks."
    },
    {
      "id": 16,
      "imageId": 10,
      "cred": 15,
      "flags": 4,
      "label": "Online Guru",
      "description": "Accumulate 10+ online hours of playing time from online gameplay.",
      "howto": "Accumulate 10+ online hours of playing time from online gameplay."
    },
    {
      "id": 17,
      "imageId": 11,
      "cred": 20,
      "flags": 4,
      "label": "Hard-earned Win",
      "description": "Finish and win an Online Ranked Match w/ a school rated 65 or lower, against a school rated 80+.",
      "howto": "Finish and win an Online Ranked Match w/ a school rated 65 or lower, against a school rated 80+."
    },
    {
      "id": 18,
      "imageId": 12,
      "cred": 15,
      "flags": 4,
      "label": "Big Game Hunt",
      "description": "Beat an opponent that is currently ranked in the Top 300 on the Overall Leaderboard (complete game).",
      "howto": "Beat an opponent that is currently ranked in the Top 300 on the Overall Leaderboard (complete game)."
    },
    {
      "id": 19,
      "imageId": 13,
      "cred": 20,
      "flags": 4,
      "label": "Bigger Game Hunt",
      "description": "Beat an opponent that is currently ranked in the Top 100 on the Overall Leaderboard (complete game).",
      "howto": "Beat an opponent that is currently ranked in the Top 100 on the Overall Leaderboard (complete game)."
    },
    {
      "id": 20,
      "imageId": 14,
      "cred": 15,
      "flags": 4,
      "label": "Cruel \"D\"",
      "description": "Hold an opponent to 40 points or less in an Online Ranked Match (complete game).",
      "howto": "Hold an opponent to 40 points or less in an Online Ranked Match (complete game)."
    },
    {
      "id": 21,
      "imageId": 15,
      "cred": 20,
      "flags": 4,
      "label": "Merciless \"D\"",
      "description": "Hold an opponent to 25 points or less in an Online Ranked Match (complete game).",
      "howto": "Hold an opponent to 25 points or less in an Online Ranked Match (complete game)."
    },
    {
      "id": 22,
      "imageId": 16,
      "cred": 15,
      "flags": 4,
      "label": "Online Tourney Win",
      "description": "Win an Online Tournament game.",
      "howto": "Win an Online Tournament game."
    },
    {
      "id": 23,
      "imageId": 17,
      "cred": 25,
      "flags": 4,
      "label": "Online Tourney Champ",
      "description": "Be crowned the overall Champion in an Online Tournament.",
      "howto": "Be crowned the overall Champion in an Online Tournament."
    },
    {
      "id": 24,
      "imageId": 20,
      "cred": 15,
      "flags": 4,
      "label": "Online League Win",
      "description": "Win an Online League game.",
      "howto": "Win an Online League game."
    },
    {
      "id": 25,
      "imageId": 21,
      "cred": 20,
      "flags": 4,
      "label": "Pontiac (Online)",
      "description": "Qualify for the Pontiac Virtual® Final 4® and complete at least one game in the tournament.\r\n",
      "howto": "Qualify for the Pontiac Virtual® Final 4® and complete at least one game in the tournament.\r\n"
    },
    {
      "id": 26,
      "imageId": 22,
      "cred": 20,
      "flags": 4,
      "label": "Dish It Out",
      "description": "Get 25 or more assists in a game with any team.",
      "howto": "Get 25 or more assists in a game with any team."
    },
    {
      "id": 27,
      "imageId": 23,
      "cred": 20,
      "flags": 4,
      "label": "Rejections",
      "description": "Get 15 or more blocks in a game with any team.",
      "howto": "Get 15 or more blocks in a game with any team."
    },
    {
      "id": 28,
      "imageId": 24,
      "cred": 20,
      "flags": 4,
      "label": "Sneaky",
      "description": "Get 15 or more steals in a game with any team.",
      "howto": "Get 15 or more steals in a game with any team."
    },
    {
      "id": 29,
      "imageId": 25,
      "cred": 20,
      "flags": 4,
      "label": "Long Distance",
      "description": "Make at least 15 3PT field goals in a game with any team.",
      "howto": "Make at least 15 3PT field goals in a game with any team."
    },
    {
      "id": 30,
      "imageId": 26,
      "cred": 20,
      "flags": 4,
      "label": "Bench Help",
      "description": "Score 40 or more points in a game with your bench players.",
      "howto": "Score 40 or more points in a game with your bench players."
    },
    {
      "id": 31,
      "imageId": 27,
      "cred": 20,
      "flags": 4,
      "label": "Dish It Out Carefully",
      "description": "Get 25 or more assists in a game and commit 10 or fewer turnovers.",
      "howto": "Get 25 or more assists in a game and commit 10 or fewer turnovers."
    },
    {
      "id": 32,
      "imageId": 28,
      "cred": 20,
      "flags": 4,
      "label": "Accuracy",
      "description": "Attempt at least 35 FG and make at least 65% of your shots.",
      "howto": "Attempt at least 35 FG and make at least 65% of your shots."
    },
    {
      "id": 33,
      "imageId": 29,
      "cred": 20,
      "flags": 4,
      "label": "Long Range Accuracy",
      "description": "Attempt at least 15 3PT shots, and make at least 60% of your shots.",
      "howto": "Attempt at least 15 3PT shots, and make at least 60% of your shots."
    },
    {
      "id": 34,
      "imageId": 30,
      "cred": 20,
      "flags": 4,
      "label": "Inside Game",
      "description": "Score 50 or more points in the paint with any team.",
      "howto": "Score 50 or more points in the paint with any team."
    },
    {
      "id": 35,
      "imageId": 31,
      "cred": 20,
      "flags": 4,
      "label": "Clutch Factor",
      "description": "Win a game with a buzzer beater shot.",
      "howto": "Win a game with a buzzer beater shot."
    },
    {
      "id": 36,
      "imageId": 32,
      "cred": 15,
      "flags": 4,
      "label": "Duke vs. North Carolina Rivalry",
      "description": "Win this rivalry as either Duke or North Carolina in MOP difficulty setting.",
      "howto": "Win this rivalry as either Duke or North Carolina in MOP difficulty setting."
    },
    {
      "id": 37,
      "imageId": 33,
      "cred": 15,
      "flags": 4,
      "label": "Kentucky vs. Louisville Rivalry",
      "description": "Win this rivalry as either Kentucky or Louisville in MOP difficulty setting.",
      "howto": "Win this rivalry as either Kentucky or Louisville in MOP difficulty setting."
    },
    {
      "id": 38,
      "imageId": 34,
      "cred": 15,
      "flags": 4,
      "label": "Arizona vs. UCLA Rivalry",
      "description": "Win this rivalry as either Arizona or UCLA in MOP difficulty setting.",
      "howto": "Win this rivalry as either Arizona or UCLA in MOP difficulty setting."
    },
    {
      "id": 39,
      "imageId": 35,
      "cred": 20,
      "flags": 4,
      "label": "David and Goliath",
      "description": "Beat the CPU school rated 80+ using a school rated 65 or lower.  MOP difficulty, 10 minute half.",
      "howto": "Beat the CPU school rated 80+ using a school rated 65 or lower.  MOP difficulty, 10 minute half."
    },
    {
      "id": 40,
      "imageId": 36,
      "cred": 25,
      "flags": 4,
      "label": "Free Throws Are Easy",
      "description": "Shoot 90% or better in Free Throw Practice Mode. Minimum of 100 shots.",
      "howto": "Shoot 90% or better in Free Throw Practice Mode. Minimum of 100 shots."
    },
    {
      "id": 41,
      "imageId": 37,
      "cred": 15,
      "flags": 4,
      "label": "Coaching Talent",
      "description": "Beat CPU in Coach Mode. All-Conf difficulty and 10 minute half. Both teams within 5 rating points.",
      "howto": "Beat CPU in Coach Mode. All-Conf difficulty and 10 minute half. Both teams within 5 rating points."
    },
    {
      "id": 42,
      "imageId": 38,
      "cred": 20,
      "flags": 4,
      "label": "Coaching Master",
      "description": "Beat CPU in Coach Mode. All-Am difficulty and 10 minute half. Both teams within 5 rating points.",
      "howto": "Beat CPU in Coach Mode. All-Am difficulty and 10 minute half. Both teams within 5 rating points."
    },
    {
      "id": 43,
      "imageId": 39,
      "cred": 25,
      "flags": 4,
      "label": "Coaching Guru",
      "description": "Beat CPU in Coach Mode. MOP difficulty and 10 minute half. Both teams within 5 rating points.",
      "howto": "Beat CPU in Coach Mode. MOP difficulty and 10 minute half. Both teams within 5 rating points."
    },
    {
      "id": 44,
      "imageId": 40,
      "cred": 25,
      "flags": 4,
      "label": "Campus Collector",
      "description": "Buy every item in the Campus Store.",
      "howto": "Buy every item in the Campus Store."
    },
    {
      "id": 45,
      "imageId": 41,
      "cred": 25,
      "flags": 4,
      "label": "Individual Record Breaker",
      "description": "Break all NCAA individual single-game records.",
      "howto": "Break all NCAA individual single-game records."
    },
    {
      "id": 46,
      "imageId": 42,
      "cred": 25,
      "flags": 4,
      "label": "Team Record Breaker",
      "description": "Break all NCAA school single-game records.",
      "howto": "Break all NCAA school single-game records."
    },
    {
      "id": 47,
      "imageId": 43,
      "cred": 25,
      "flags": 4,
      "label": "Beat 'em All",
      "description": "Beat all schools in the game.  Any game mode or settings.",
      "howto": "Beat all schools in the game.  Any game mode or settings."
    },
    {
      "id": 48,
      "imageId": 44,
      "cred": 25,
      "flags": 4,
      "label": "Career Winner",
      "description": "Get through 5 years in Career Legacy mode, and achieve a win percentage of 75% or higher.",
      "howto": "Get through 5 years in Career Legacy mode, and achieve a win percentage of 75% or higher."
    },
    {
      "id": 49,
      "imageId": 45,
      "cred": 25,
      "flags": 4,
      "label": "Conquered Legacy",
      "description": "Complete all Legacy Goals in Legacy Career Mode.",
      "howto": "Complete all Legacy Goals in Legacy Career Mode."
    },
    {
      "id": 50,
      "imageId": 46,
      "cred": 25,
      "flags": 4,
      "label": "Ranked in the Polls",
      "description": "In Legacy Career mode, earn a spot in the Top 25 polls in your first year.",
      "howto": "In Legacy Career mode, earn a spot in the Top 25 polls in your first year."
    },
    {
      "id": 51,
      "imageId": 47,
      "cred": 15,
      "flags": 4,
      "label": "Legacy Champion",
      "description": "Win a National Championship in Legacy Mode (Career only)",
      "howto": "Win a National Championship in Legacy Mode (Career only)"
    },
    {
      "id": 52,
      "imageId": 48,
      "cred": 20,
      "flags": 4,
      "label": "Legacy Champion 2x",
      "description": "Win 2 National Championships in Legacy Mode (Career only)",
      "howto": "Win 2 National Championships in Legacy Mode (Career only)"
    },
    {
      "id": 53,
      "imageId": 49,
      "cred": 25,
      "flags": 4,
      "label": "Legacy Champion 3x",
      "description": "Win 3 National Championships in Legacy Mode (Career only)",
      "howto": "Win 3 National Championships in Legacy Mode (Career only)"
    },
    {
      "id": 54,
      "imageId": 50,
      "cred": 20,
      "flags": 4,
      "label": "Pontiac Tournament (Offline)",
      "description": "Complete and win a Pontiac NCAA® Tournament. Must play all games as the same school w/o simulating.",
      "howto": "Complete and win a Pontiac NCAA® Tournament. Must play all games as the same school w/o simulating."
    },
    {
      "id": 55,
      "imageId": 19,
      "cred": 40,
      "flags": 4,
      "label": "Online League Champ",
      "description": "Be crowned the overall Champion in an Online League.",
      "howto": "Be crowned the overall Champion in an Online League."
    }
  ]
}