{
  "achievementsPossible": 26,
  "credPossible": 1000,
  "achievements": [
    {
      "id": 1,
      "imageId": 4,
      "cred": 30,
      "flags": 6,
      "label": "人生の宝物を探しにいこう",
      "description": "プロローグをクリアしました",
      "howto": "プロローグをクリアすると解除されます"
    },
    {
      "id": 2,
      "imageId": 5,
      "cred": 100,
      "flags": 1,
      "label": "It's a Wonderful Life",
      "description": "本編をクリアしました",
      "howto": "本編をクリアすると解除されます"
    },
    {
      "id": 3,
      "imageId": 12,
      "cred": 20,
      "flags": 1,
      "label": "ひとつの結末",
      "description": "バッドエンドのどれかをクリアしました",
      "howto": ""
    },
    {
      "id": 4,
      "imageId": 6,
      "cred": 50,
      "flags": 4,
      "label": "いよっしゃああぁぁーーーっ！！",
      "description": "智代先生の出題に全て正解しました",
      "howto": ""
    },
    {
      "id": 5,
      "imageId": 1,
      "cred": 50,
      "flags": 4,
      "label": "森のパンダさん",
      "description": "『森のぱんださん』を作詞しました",
      "howto": ""
    },
    {
      "id": 6,
      "imageId": 9,
      "cred": 50,
      "flags": 4,
      "label": "がくがくがくがくがく…",
      "description": "智代と一日で百回キスをしました",
      "howto": ""
    },
    {
      "id": 7,
      "imageId": 8,
      "cred": 50,
      "flags": 4,
      "label": "みんなであそんでたの？",
      "description": "ともに嘘を信用してもらえました",
      "howto": ""
    },
    {
      "id": 8,
      "imageId": 10,
      "cred": 50,
      "flags": 1,
      "label": "名探偵とも",
      "description": "河南子脚本のドラマ『名探偵とも』を全て演じました",
      "howto": ""
    },
    {
      "id": 9,
      "imageId": 11,
      "cred": 50,
      "flags": 4,
      "label": "ツイニキマシター、ニポンキマシター",
      "description": "全ての外人鷹文に遭遇しました",
      "howto": ""
    },
    {
      "id": 10,
      "imageId": 25,
      "cred": 10,
      "flags": 4,
      "label": "ラッキー鷹文",
      "description": "ラッキー鷹文に遭遇しました、ほら、ラッキー",
      "howto": ""
    },
    {
      "id": 11,
      "imageId": 7,
      "cred": 50,
      "flags": 4,
      "label": "急ぎすぎた人生",
      "description": "金髪の鷹文に遭遇しました",
      "howto": ""
    },
    {
      "id": 12,
      "imageId": 24,
      "cred": 10,
      "flags": 4,
      "label": "全ての感情を司る０５４番",
      "description": "全ての感情を司る０５４番に遭遇しました",
      "howto": ""
    },
    {
      "id": 13,
      "imageId": 19,
      "cred": 10,
      "flags": 4,
      "label": "“憂鬱”の感情を司る０６８番",
      "description": "“憂鬱”の感情を司る０６８番に遭遇しました…",
      "howto": ""
    },
    {
      "id": 14,
      "imageId": 20,
      "cred": 10,
      "flags": 4,
      "label": "“愉快”の感情を司る０７１番",
      "description": "“愉快”の感情を司る０７１番に遭遇しました、はは、おかしいっ",
      "howto": ""
    },
    {
      "id": 15,
      "imageId": 21,
      "cred": 10,
      "flags": 4,
      "label": "“驚愕”の感情を司る０７５番",
      "description": "“驚愕”の感情を司る０７５番に遭遇しました、まじっ！？",
      "howto": ""
    },
    {
      "id": 16,
      "imageId": 22,
      "cred": 10,
      "flags": 4,
      "label": "“焦燥”の感情を司る０８１番",
      "description": "“焦燥”の感情を司る０８１番に遭遇しました、うわ、やばい…",
      "howto": ""
    },
    {
      "id": 17,
      "imageId": 23,
      "cred": 10,
      "flags": 4,
      "label": "“どん引き”の感情を司る０９０番",
      "description": "“どん引き”の感情を司る０９0番に遭遇しました、えぇぇぇぇ～～～！",
      "howto": ""
    },
    {
      "id": 19,
      "imageId": 13,
      "cred": 100,
      "flags": 1,
      "label": "おかえり、鷹文",
      "description": "D&Tをクリアしました",
      "howto": ""
    },
    {
      "id": 22,
      "imageId": 18,
      "cred": 50,
      "flags": 1,
      "label": "風子マスター",
      "description": "D&Tを風子と共にクリアしました",
      "howto": ""
    },
    {
      "id": 23,
      "imageId": 16,
      "cred": 60,
      "flags": 1,
      "label": "神の領域",
      "description": "D&TでSランクを獲得しました",
      "howto": "D&TでSランクを獲得すると解除されます"
    },
    {
      "id": 24,
      "imageId": 15,
      "cred": 60,
      "flags": 1,
      "label": "歴戦の証",
      "description": "パーティの誰かがLv.99に到達しました",
      "howto": "D&Tでパーティの誰かがLv.99に到達すると解除されます"
    },
    {
      "id": 25,
      "imageId": 14,
      "cred": 60,
      "flags": 1,
      "label": "免許皆伝",
      "description": "全てのJOBスキルを覚えました",
      "howto": "D&Tで全てのJOBスキルを覚えると解除されます"
    },
    {
      "id": 27,
      "imageId": 17,
      "cred": 10,
      "flags": 4,
      "label": "惚れるでないぞ？",
      "description": "ともが『成体化』した状態で、戦闘に勝利しました",
      "howto": ""
    },
    {
      "id": 28,
      "imageId": 26,
      "cred": 10,
      "flags": 1,
      "label": "海星を入手",
      "description": "レアアイテム『海星』を入手しました",
      "howto": "D&Tでレアアイテム「海星」を入手すると解除されます"
    },
    {
      "id": 29,
      "imageId": 27,
      "cred": 10,
      "flags": 1,
      "label": "エクスカリバーを入手",
      "description": "レアアイテム『エクスカリバー』を入手しました",
      "howto": "D&Tで最強の武器「エクスカリバー」を入手すると解除されます"
    },
    {
      "id": 37,
      "imageId": 2,
      "cred": 70,
      "flags": 3,
      "label": "DUNGEONS&TAKAFUMIS",
      "description": "D&Tをプレイしました",
      "howto": "D&Tをプレイすると解除されます"
    }
  ]
}