{
  "achievementsPossible": 12,
  "credPossible": 200,
  "achievements": [
    {
      "id": 1,
      "imageId": 2,
      "cred": 25,
      "flags": 1,
      "label": "The Best of the Best",
      "description": "Single player completed on Elite difficulty",
      "howto": "Complete all single player levels 1-5 on Elite difficulty"
    },
    {
      "id": 2,
      "imageId": 3,
      "cred": 20,
      "flags": 1,
      "label": "Old Soldier",
      "description": "Single player completed",
      "howto": "Complete all single player levels 1-5"
    },
    {
      "id": 3,
      "imageId": 4,
      "cred": 10,
      "flags": 1,
      "label": "Co-op Campaigner",
      "description": "Multiplayer Level completed",
      "howto": "Complete any multiplayer level"
    },
    {
      "id": 4,
      "imageId": 5,
      "cred": 20,
      "flags": 4,
      "label": "War of Attrition",
      "description": "Killed 1000 aliens",
      "howto": "Kill 1000 aliens in single player"
    },
    {
      "id": 5,
      "imageId": 6,
      "cred": 25,
      "flags": 1,
      "label": "Vital Statistics",
      "description": "'Primed' completed with a score greater than 300,000",
      "howto": "Finish 'Primed' single player level with a score greater than 300,000"
    },
    {
      "id": 6,
      "imageId": 7,
      "cred": 40,
      "flags": 1,
      "label": "Indestructible",
      "description": "Multiplayer level 'Cargo' completed without taking any damage",
      "howto": "Finish multiplayer level 'Cargo' without taking any damage"
    },
    {
      "id": 7,
      "imageId": 8,
      "cred": 10,
      "flags": 4,
      "label": "Praemonitus Praemunitus",
      "description": "Picked up all the logs",
      "howto": "Collect all the logs throughout the game"
    },
    {
      "id": 8,
      "imageId": 9,
      "cred": 10,
      "flags": 4,
      "label": "Survivor",
      "description": "Lasted more than 8 minutes on a Single Player Survivor level",
      "howto": "Stay alive for 8 minutes on any of the Survival mode single player levels"
    },
    {
      "id": 9,
      "imageId": 10,
      "cred": 10,
      "flags": 1,
      "label": "Rapid Deployment",
      "description": "Completed multiplayer level 'Cargo' in 10:00 or less",
      "howto": "Complete multiplayer level 'Cargo' in 10:00 or less"
    },
    {
      "id": 10,
      "imageId": 11,
      "cred": 10,
      "flags": 4,
      "label": "Super-Sleuth",
      "description": "Found all secret collectibles",
      "howto": "Find all secret collectibles"
    },
    {
      "id": 11,
      "imageId": 12,
      "cred": 10,
      "flags": 4,
      "label": "Deadly Assassin",
      "description": "Killed 50 aliens in a row in single player without taking damage",
      "howto": "Kill 50 aliens in a row in single player without taking damage"
    },
    {
      "id": 12,
      "imageId": 13,
      "cred": 10,
      "flags": 4,
      "label": "Cash is King",
      "description": "Achieved a balance of 20000 credits",
      "howto": "Achieve a balance of 20000 credits or more"
    }
  ]
}