{
  "achievementsPossible": 20,
  "credPossible": 400,
  "achievements": [
    {
      "id": 1,
      "imageId": 21,
      "cred": 20,
      "flags": 1,
      "label": "Spiritual Awakening",
      "description": "Discover the Spirit Monkey",
      "howto": "Discover the Spirit Monkey"
    },
    {
      "id": 2,
      "imageId": 22,
      "cred": 20,
      "flags": 1,
      "label": "One with Nature",
      "description": "Fully level up one Spirit Animal",
      "howto": "Fully level up one Spirit Animal"
    },
    {
      "id": 3,
      "imageId": 40,
      "cred": 20,
      "flags": 1,
      "label": "Nature’s Friend",
      "description": "Fully level up two Spirit Animals",
      "howto": "Fully level up two Spirit Animals"
    },
    {
      "id": 4,
      "imageId": 23,
      "cred": 20,
      "flags": 1,
      "label": "Beast Master",
      "description": "Unleash your full froggy potential by fully leveling up all four Spirit Animals!",
      "howto": "Unleash your full froggy potential by fully leveling up all four Spirit Animals!"
    },
    {
      "id": 5,
      "imageId": 24,
      "cred": 30,
      "flags": 1,
      "label": "Jaw Breaker",
      "description": "Defeat the Gluttonous Kahtiki Khan",
      "howto": "Defeat the Gluttonous Kahtiki Khan"
    },
    {
      "id": 6,
      "imageId": 25,
      "cred": 30,
      "flags": 1,
      "label": "Tiki Trampler",
      "description": "Defeat Maga Maga and his Tiki Minions",
      "howto": "Defeat Maga Maga and his Tiki Minions"
    },
    {
      "id": 7,
      "imageId": 26,
      "cred": 30,
      "flags": 1,
      "label": "Bone Picker",
      "description": "Defeat Baron Digo and his Skeleton Crew",
      "howto": "Defeat Baron Digo and his Skeleton Crew"
    },
    {
      "id": 8,
      "imageId": 27,
      "cred": 30,
      "flags": 1,
      "label": "Pestilence Pacifier",
      "description": "Defeat Kolo Kamari and his Swarm of Bugs",
      "howto": "Defeat Kolo Kamari and his Swarm of Bugs"
    },
    {
      "id": 9,
      "imageId": 28,
      "cred": 30,
      "flags": 1,
      "label": "Cephalopod Smasher",
      "description": "Defeat Cephalo Ka and his Inky Ink Attack",
      "howto": "Defeat Cephalo Ka and his Inky Ink Attack"
    },
    {
      "id": 10,
      "imageId": 29,
      "cred": 0,
      "flags": 1,
      "label": "You Win!",
      "description": "You didn't think it would be that easy would you?",
      "howto": "You didn't think it would be that easy would you?"
    },
    {
      "id": 11,
      "imageId": 30,
      "cred": 50,
      "flags": 1,
      "label": "Time for Tadpoles!",
      "description": "Defeat Zhaka Mu and discover the secret of the island!",
      "howto": "Defeat Zhaka Mu and discover the secret of the island!"
    },
    {
      "id": 12,
      "imageId": 31,
      "cred": 10,
      "flags": 1,
      "label": "Thread the Needle",
      "description": "Make a match by shooting a ball through a gap in the curve",
      "howto": "Make a match by shooting a ball through a gap in the curve"
    },
    {
      "id": 13,
      "imageId": 32,
      "cred": 10,
      "flags": 1,
      "label": "C-C-C-Chain Bonus!",
      "description": "Shoot 15 balls and make 15 matches… in a row!",
      "howto": "Shoot 15 balls and make 15 matches… in a row!"
    },
    {
      "id": 14,
      "imageId": 33,
      "cred": 10,
      "flags": 1,
      "label": "Power Player",
      "description": "Build your score multiplier up to 5x",
      "howto": "Build your score multiplier up to 5x"
    },
    {
      "id": 15,
      "imageId": 34,
      "cred": 10,
      "flags": 1,
      "label": "Hoarder",
      "description": "Earn all three Spirit Badges on at least 10 levels",
      "howto": "Earn all three Spirit Badges on at least 10 levels"
    },
    {
      "id": 16,
      "imageId": 35,
      "cred": 10,
      "flags": 1,
      "label": "Frozen Frog",
      "description": "Beat a regular rail level without moving the frog",
      "howto": "Beat a regular rail level without moving the frog"
    },
    {
      "id": 17,
      "imageId": 36,
      "cred": 10,
      "flags": 1,
      "label": "Frog Statue",
      "description": "Beat a lily pad level without jumping lily pads",
      "howto": "Beat a lily pad level without jumping lily pads"
    },
    {
      "id": 18,
      "imageId": 37,
      "cred": 40,
      "flags": 1,
      "label": "Challenge Accepted",
      "description": "Play five different weekly challenges",
      "howto": "Play five different weekly challenges"
    },
    {
      "id": 19,
      "imageId": 38,
      "cred": 10,
      "flags": 1,
      "label": "Fe Frog",
      "description": "Complete Iron Frog Mode",
      "howto": "Complete Iron Frog Mode"
    },
    {
      "id": 20,
      "imageId": 39,
      "cred": 10,
      "flags": 1,
      "label": "Amphibian Assassin",
      "description": "Complete Boss Rush Mode without losing",
      "howto": "Complete Boss Rush Mode without losing"
    }
  ]
}