{
  "achievementsPossible": 60,
  "credPossible": 1205,
  "achievements": [
    {
      "id": 11,
      "imageId": 1,
      "cred": 25,
      "flags": 1,
      "label": "Extermination",
      "description": "Kill 50 aliens",
      "howto": "Kill 50 aliens"
    },
    {
      "id": 12,
      "imageId": 2,
      "cred": 40,
      "flags": 1,
      "label": "Annihilation",
      "description": "Kill 100 aliens",
      "howto": "Kill 100 aliens"
    },
    {
      "id": 13,
      "imageId": 3,
      "cred": 50,
      "flags": 1,
      "label": "Nuclear Devastation",
      "description": "Kill 250 aliens",
      "howto": "Kill 250 aliens"
    },
    {
      "id": 14,
      "imageId": 4,
      "cred": 20,
      "flags": 1,
      "label": "Hippy-Stomper",
      "description": "Foot stomp 12 aliens",
      "howto": "Foot stomp 12 aliens"
    },
    {
      "id": 15,
      "imageId": 5,
      "cred": 20,
      "flags": 1,
      "label": "Judge, Jury, Executioner",
      "description": "Execute 20 aliens",
      "howto": "Execute 20 aliens"
    },
    {
      "id": 17,
      "imageId": 6,
      "cred": 20,
      "flags": 1,
      "label": "Trapper",
      "description": "Kill 10 aliens with Trip Mines",
      "howto": "Kill 10 aliens with Trip Mines"
    },
    {
      "id": 18,
      "imageId": 7,
      "cred": 20,
      "flags": 1,
      "label": "Freeze Well!",
      "description": "Kill 15 frozen aliens",
      "howto": "Kill 15 frozen aliens"
    },
    {
      "id": 24,
      "imageId": 8,
      "cred": 20,
      "flags": 1,
      "label": "Road Rage",
      "description": "Kill 15 aliens with the monster truck",
      "howto": "Kill 15 aliens with the monster truck"
    },
    {
      "id": 25,
      "imageId": 9,
      "cred": 10,
      "flags": 1,
      "label": "Fork the Pork",
      "description": "Kill 6 aliens with the forklift",
      "howto": "Kill 6 aliens with the forklift"
    },
    {
      "id": 26,
      "imageId": 10,
      "cred": 15,
      "flags": 1,
      "label": "Dead Useful",
      "description": "Kill 10 aliens with environmental explosives",
      "howto": "Kill 10 aliens with environmental explosives"
    },
    {
      "id": 27,
      "imageId": 11,
      "cred": 15,
      "flags": 1,
      "label": "Downtown Barrel Beatdown",
      "description": "Kill 10 aliens with tossed objects",
      "howto": "Kill 10 aliens with tossed objects"
    },
    {
      "id": 28,
      "imageId": 12,
      "cred": 20,
      "flags": 1,
      "label": "Duke Angry, Duke Smash!",
      "description": "Kill 15 aliens with melee attacks while on steroids",
      "howto": "Kill 15 aliens with melee attacks while on steroids"
    },
    {
      "id": 29,
      "imageId": 13,
      "cred": 10,
      "flags": 1,
      "label": "Noms",
      "description": "Eat 10 pieces of food during the SP campaign",
      "howto": "Eat 10 pieces of food during the SP campaign"
    },
    {
      "id": 30,
      "imageId": 48,
      "cred": 25,
      "flags": 1,
      "label": "On the Noggin",
      "description": "Kill 30 aliens with headshots",
      "howto": "Kill 30 aliens with headshots"
    },
    {
      "id": 33,
      "imageId": 14,
      "cred": 10,
      "flags": 1,
      "label": "Natural Disaster 3x",
      "description": "Kill 3 aliens at once",
      "howto": "Kill 3 aliens at once"
    },
    {
      "id": 36,
      "imageId": 15,
      "cred": 10,
      "flags": 1,
      "label": "FBT",
      "description": "Get knocked down 10 times",
      "howto": "Get knocked down 10 times"
    },
    {
      "id": 38,
      "imageId": 16,
      "cred": 10,
      "flags": 1,
      "label": "Turd Burglar",
      "description": "Find and steal a piece of poo",
      "howto": "Find and steal a piece of poo"
    },
    {
      "id": 42,
      "imageId": 17,
      "cred": 10,
      "flags": 1,
      "label": "I Need a Towel",
      "description": "Get hit by 10 Pregnator bombs",
      "howto": "Get hit by 10 Pregnator bombs"
    },
    {
      "id": 48,
      "imageId": 18,
      "cred": 20,
      "flags": 1,
      "label": "Baron von Nukem",
      "description": "Shoot down 20 alien fighters",
      "howto": "Shoot down 20 alien fighters"
    },
    {
      "id": 50,
      "imageId": 19,
      "cred": 5,
      "flags": 1,
      "label": "I Need a Date",
      "description": "Look at every page of a calendar",
      "howto": "Look at every page of a calendar in SP"
    },
    {
      "id": 51,
      "imageId": 20,
      "cred": 10,
      "flags": 1,
      "label": "Sticky Bomb Like You!",
      "description": "Put a Trip Mine on a live alien",
      "howto": "Put a Trip Mine on a live alien"
    },
    {
      "id": 55,
      "imageId": 21,
      "cred": 10,
      "flags": 1,
      "label": "Big Guns, Big Ships",
      "description": "Blow up 5 enemy gunships or dropships",
      "howto": "Blow up 5 enemy gunships or dropships"
    },
    {
      "id": 56,
      "imageId": 22,
      "cred": 30,
      "flags": 1,
      "label": "Air-Duke",
      "description": "Win air hockey with a score of 7-0 in the strip club",
      "howto": "Win air hockey with a score of 7-0 in the strip club"
    },
    {
      "id": 57,
      "imageId": 23,
      "cred": 25,
      "flags": 1,
      "label": "Balls of Steel",
      "description": "Earn a 1,000,000 pinball score in SP",
      "howto": "Earn a 1,000,000 pinball score in SP"
    },
    {
      "id": 58,
      "imageId": 24,
      "cred": 5,
      "flags": 1,
      "label": "Flagon of Chuckles",
      "description": "Drink a beer in SP",
      "howto": "Drink a beer in SP"
    },
    {
      "id": 59,
      "imageId": 25,
      "cred": 5,
      "flags": 1,
      "label": "Juiced",
      "description": "Take steroids in SP",
      "howto": "Take steroids in SP"
    },
    {
      "id": 61,
      "imageId": 26,
      "cred": 5,
      "flags": 1,
      "label": "He's Got a Hologram!",
      "description": "Use a Holoduke in SP",
      "howto": "Use a Holoduke in SP"
    },
    {
      "id": 63,
      "imageId": 49,
      "cred": 10,
      "flags": 1,
      "label": "Drawrings",
      "description": "Doodle something on the whiteboard in SP",
      "howto": "Doodle something on the whiteboard in SP"
    },
    {
      "id": 64,
      "imageId": 50,
      "cred": 10,
      "flags": 1,
      "label": "Substance Abuser",
      "description": "Drink beer while on steroids or vice versa in SP",
      "howto": "Drink beer while on steroids or vice versa in SP"
    },
    {
      "id": 65,
      "imageId": 27,
      "cred": 40,
      "flags": 1,
      "label": "I Am All That Is Man",
      "description": "Discover all Ego cap awards",
      "howto": "Discover all Ego cap awards"
    },
    {
      "id": 66,
      "imageId": 28,
      "cred": 50,
      "flags": 1,
      "label": "Gunslinger",
      "description": "Carry the gold pistol through the whole SP campaign",
      "howto": "Carry the gold pistol through the whole SP campaign"
    },
    {
      "id": 67,
      "imageId": 29,
      "cred": 20,
      "flags": 1,
      "label": "Piece of Cake",
      "description": "Complete the SP campaign on Easy Difficulty",
      "howto": "Complete the SP campaign on Easy Difficulty"
    },
    {
      "id": 68,
      "imageId": 30,
      "cred": 30,
      "flags": 1,
      "label": "Let's Rock",
      "description": "Complete the SP campaign on Normal Difficulty",
      "howto": "Complete the SP campaign on Normal Difficulty"
    },
    {
      "id": 69,
      "imageId": 31,
      "cred": 40,
      "flags": 1,
      "label": "Come Get Some",
      "description": "Complete the SP campaign on Hard Difficulty",
      "howto": "Complete the SP campaign on Hard Difficulty"
    },
    {
      "id": 70,
      "imageId": 32,
      "cred": 50,
      "flags": 1,
      "label": "Damn, I'm Good",
      "description": "Complete the SP campaign on Insane Difficulty",
      "howto": "Complete the SP campaign on Insane Difficulty"
    },
    {
      "id": 71,
      "imageId": 33,
      "cred": 5,
      "flags": 1,
      "label": "Special Thanks",
      "description": "Watch the credits all the way through",
      "howto": "Watch the credits all the way through"
    },
    {
      "id": 72,
      "imageId": 34,
      "cred": 30,
      "flags": 1,
      "label": "Bucket Head",
      "description": "Find all 3 helmets in the SP campaign",
      "howto": "Find all 3 helmets in the SP campaign"
    },
    {
      "id": 76,
      "imageId": 35,
      "cred": 25,
      "flags": 1,
      "label": "Call Waiting",
      "description": "Listen to all phone messages",
      "howto": "Listen to all phone messages"
    },
    {
      "id": 77,
      "imageId": 36,
      "cred": 10,
      "flags": 1,
      "label": "Party Animal",
      "description": "Drink all of the beers in the strip club",
      "howto": "Drink all of the beers in the strip club"
    },
    {
      "id": 79,
      "imageId": 37,
      "cred": 10,
      "flags": 1,
      "label": "Pescaphobe",
      "description": "Kill all the catfish in the underwater level",
      "howto": "Kill all the catfish in the underwater level"
    },
    {
      "id": 80,
      "imageId": 38,
      "cred": 5,
      "flags": 1,
      "label": "Sunday, Black Sunday",
      "description": "Shoot down the blimp above the stadium",
      "howto": "Shoot down the blimp above the stadium"
    },
    {
      "id": 81,
      "imageId": 39,
      "cred": 5,
      "flags": 1,
      "label": "Nobody Likes a Whiner",
      "description": "Knock out the talent at the talk show",
      "howto": "Knock out the talent at the talk show"
    },
    {
      "id": 82,
      "imageId": 40,
      "cred": 25,
      "flags": 1,
      "label": "Lots of Whacking",
      "description": "Win a game of Alien Abortion in the strip club",
      "howto": "Win a game of Alien Abortion in the strip club"
    },
    {
      "id": 83,
      "imageId": 41,
      "cred": 10,
      "flags": 1,
      "label": "Companion Barrel",
      "description": "Unlock the secret closet at the end of the Forkstop",
      "howto": "Unlock the secret closet at the end of the Forkstop"
    },
    {
      "id": 84,
      "imageId": 42,
      "cred": 10,
      "flags": 1,
      "label": "One-Eyed Freak",
      "description": "Defeat the Cycloid",
      "howto": "Defeat the Cycloid"
    },
    {
      "id": 85,
      "imageId": 43,
      "cred": 25,
      "flags": 1,
      "label": "Pit Champion",
      "description": "Defeat the Battlelord in Las Vegas",
      "howto": "Defeat the Battlelord in Las Vegas"
    },
    {
      "id": 86,
      "imageId": 44,
      "cred": 40,
      "flags": 1,
      "label": "Not Bad for a Human",
      "description": "Defeat the Alien Queen",
      "howto": "Defeat the Alien Queen"
    },
    {
      "id": 88,
      "imageId": 45,
      "cred": 25,
      "flags": 1,
      "label": "A Good Dam Fight",
      "description": "Defeat the Battlelord on the Hoover Dam",
      "howto": "Defeat the Battlelord on the Hoover Dam"
    },
    {
      "id": 89,
      "imageId": 46,
      "cred": 25,
      "flags": 1,
      "label": "Octacide",
      "description": "Defeat the Octaking",
      "howto": "Defeat the Octaking"
    },
    {
      "id": 90,
      "imageId": 47,
      "cred": 35,
      "flags": 1,
      "label": "Beating the One-Eyed Worm",
      "description": "Defeat the Energy Leech",
      "howto": "Defeat the Energy Leech"
    },
    {
      "id": 91,
      "imageId": 51,
      "cred": 10,
      "flags": 1,
      "label": "Bubble Buster",
      "description": "Kill 10 expanded enemies with melee attacks",
      "howto": "Kill 10 expanded enemies with melee attacks"
    },
    {
      "id": 92,
      "imageId": 52,
      "cred": 10,
      "flags": 1,
      "label": "Threesome",
      "description": "Kill 3 enemies within 3 seconds with the Impregnader",
      "howto": "Kill 3 enemies within 3 seconds with the Impregnader"
    },
    {
      "id": 94,
      "imageId": 54,
      "cred": 10,
      "flags": 1,
      "label": "Bloody Red Rover",
      "description": "Kill 30 enemies with the moon rover",
      "howto": "Kill 30 enemies with the moon rover"
    },
    {
      "id": 95,
      "imageId": 55,
      "cred": 10,
      "flags": 1,
      "label": "Scientits",
      "description": "Earn a 1,000,000 pinball score on the Scientits pinball machine",
      "howto": "Earn a 1,000,000 pinball score on the Scientits pinball machine"
    },
    {
      "id": 96,
      "imageId": 56,
      "cred": 20,
      "flags": 1,
      "label": "Heart to Heart",
      "description": "Finish Doctor Proton",
      "howto": "Finish Doctor Proton"
    },
    {
      "id": 99,
      "imageId": 59,
      "cred": 20,
      "flags": 1,
      "label": "Another Piece of Cake",
      "description": "Beat The Doctor Who Cloned Me campaign on Easy Difficulty",
      "howto": "Beat The Doctor Who Cloned Me campaign on Easy Difficulty"
    },
    {
      "id": 100,
      "imageId": 60,
      "cred": 30,
      "flags": 1,
      "label": "Let's Rock Out",
      "description": "Beat The Doctor Who Cloned Me campaign on Normal Difficulty",
      "howto": "Beat The Doctor Who Cloned Me campaign on Normal Difficulty"
    },
    {
      "id": 101,
      "imageId": 61,
      "cred": 35,
      "flags": 1,
      "label": "Come Get A Little More",
      "description": "Beat The Doctor Who Cloned Me campaign on Hard Difficulty",
      "howto": "Beat The Doctor Who Cloned Me campaign on Hard Difficulty"
    },
    {
      "id": 102,
      "imageId": 62,
      "cred": 40,
      "flags": 1,
      "label": "Damn, I'm REALLY Good",
      "description": "Beat The Doctor Who Cloned Me campaign on Insane Difficulty",
      "howto": "Beat The Doctor Who Cloned Me campaign on Insane Difficulty"
    },
    {
      "id": 103,
      "imageId": 63,
      "cred": 20,
      "flags": 1,
      "label": "I Am All That Is Man - Again!",
      "description": "Discover all Ego cap rewards in The Doctor Who Cloned Me campaign",
      "howto": "Discover all Ego cap rewards in The Doctor Who Cloned Me campaign"
    }
  ]
}