{
  "achievementsPossible": 33,
  "credPossible": 1000,
  "achievements": [
    {
      "id": 32,
      "imageId": 1,
      "cred": 30,
      "flags": 1,
      "label": "Open Season",
      "description": "Finished your first hunting mission",
      "howto": "Finish your first hunting mission"
    },
    {
      "id": 33,
      "imageId": 2,
      "cred": 30,
      "flags": 1,
      "label": "Mutant Deer",
      "description": "Downed at least one Albino Deer",
      "howto": "Take down at least one Albino Deer"
    },
    {
      "id": 34,
      "imageId": 3,
      "cred": 30,
      "flags": 1,
      "label": "Best Thanksgiving Ever",
      "description": "Hunted 2 toms",
      "howto": "Hunt 2 toms"
    },
    {
      "id": 35,
      "imageId": 4,
      "cred": 30,
      "flags": 1,
      "label": "Mutant Elk",
      "description": "Downed at least one Albino Elk",
      "howto": "Take down at least one Albino Elk"
    },
    {
      "id": 36,
      "imageId": 5,
      "cred": 30,
      "flags": 1,
      "label": "Ringneck Warrior",
      "description": "Hunted at least 10 pheasants",
      "howto": "Hunt at least 10 pheasants"
    },
    {
      "id": 75,
      "imageId": 6,
      "cred": 30,
      "flags": 1,
      "label": "Wingman",
      "description": "Downed at least 40 ducks",
      "howto": "Take down at least 40 ducks"
    },
    {
      "id": 76,
      "imageId": 7,
      "cred": 30,
      "flags": 1,
      "label": "Undercover Hunter",
      "description": "Taken down at least 3 trophies from a Blind",
      "howto": "Take down at least 3 trophies from a Blind"
    },
    {
      "id": 77,
      "imageId": 8,
      "cred": 30,
      "flags": 1,
      "label": "Master Quacker",
      "description": "Made at least 3 Awesome Duck calls",
      "howto": "Make at least 3 Awesome Duck calls"
    },
    {
      "id": 78,
      "imageId": 9,
      "cred": 30,
      "flags": 1,
      "label": "Trophy Sniper",
      "description": "Downed 5 trophies with one shot each",
      "howto": "Take down 5 trophies with one shot each"
    },
    {
      "id": 79,
      "imageId": 10,
      "cred": 30,
      "flags": 1,
      "label": "Out of Sight!",
      "description": "Hunted a Big Game Trophy from more than 80 yards",
      "howto": "Hunt a Big Game Trophy from more than 80 yards"
    },
    {
      "id": 80,
      "imageId": 11,
      "cred": 30,
      "flags": 1,
      "label": "Film Expert",
      "description": "Filmed at least 2 episodes worth more than 100 points",
      "howto": "Film at least 2 episodes worth more than 100 points"
    },
    {
      "id": 81,
      "imageId": 12,
      "cred": 30,
      "flags": 1,
      "label": "Gun Smith",
      "description": "All your rifles and shotguns in the Gun Builder are made up from unlocked parts",
      "howto": "Make all your rifles and shotguns in the Gun Builder from unlocked parts"
    },
    {
      "id": 82,
      "imageId": 13,
      "cred": 30,
      "flags": 1,
      "label": "Them's the Brakes",
      "description": "Unlocked all muzzle brakes in the game",
      "howto": "Unlock all muzzle brakes in the game"
    },
    {
      "id": 83,
      "imageId": 14,
      "cred": 30,
      "flags": 1,
      "label": "To Give is to Receive",
      "description": "Unlocked all the receivers in the game",
      "howto": "Unlock all the receivers in the game"
    },
    {
      "id": 84,
      "imageId": 15,
      "cred": 30,
      "flags": 1,
      "label": "Fully Stocked",
      "description": "Unlocked all the stocks in the game",
      "howto": "Unlock all the stocks in the game"
    },
    {
      "id": 85,
      "imageId": 16,
      "cred": 30,
      "flags": 1,
      "label": "A Barrel of Fun",
      "description": "Unlocked all the barrels in the game",
      "howto": "Unlock all the barrels in the game"
    },
    {
      "id": 86,
      "imageId": 17,
      "cred": 30,
      "flags": 1,
      "label": "I See You",
      "description": "Unlocked all the scopes in the game",
      "howto": "Unlock all the scopes in the game"
    },
    {
      "id": 87,
      "imageId": 18,
      "cred": 30,
      "flags": 1,
      "label": "Fabulous!",
      "description": "Unlocked all the paint schemes in the game",
      "howto": "Unlock all the paint schemes in the game"
    },
    {
      "id": 88,
      "imageId": 19,
      "cred": 30,
      "flags": 1,
      "label": "Full Arsenal",
      "description": "Unlocked all custom gun parts in the game",
      "howto": "Unlock all custom gun parts in the game"
    },
    {
      "id": 89,
      "imageId": 20,
      "cred": 30,
      "flags": 1,
      "label": "One with your Gun",
      "description": "Downed a trophy with a fully customized firearm",
      "howto": "Take down a trophy with a fully customized firearm"
    },
    {
      "id": 90,
      "imageId": 21,
      "cred": 30,
      "flags": 1,
      "label": "I Love My Gun",
      "description": "Downed at least 10 different big-game species with a custom rifle",
      "howto": "Shoot down at least 10 different big-game species with a custom rifle"
    },
    {
      "id": 91,
      "imageId": 22,
      "cred": 30,
      "flags": 1,
      "label": "Quit Diggin' in my Yard",
      "description": "Obtained Gold medals in all Prairie Dog Shoot Courses",
      "howto": "Obtain Gold medals in all Prairie Dog Shoot Courses"
    },
    {
      "id": 92,
      "imageId": 23,
      "cred": 30,
      "flags": 1,
      "label": "Hunting for Gold",
      "description": "Obtained Gold medals in all Hunters Challenge Courses",
      "howto": "Obtain Gold medals in all Hunters Challenge Courses"
    },
    {
      "id": 93,
      "imageId": 24,
      "cred": 30,
      "flags": 1,
      "label": "Blood Hound",
      "description": "Found 10 animal tracks",
      "howto": "Find 10 animal tracks"
    },
    {
      "id": 94,
      "imageId": 25,
      "cred": 30,
      "flags": 1,
      "label": "Crack Shot",
      "description": "Obtained Gold medals for all Courses in the Shooting Galleries",
      "howto": "Obtain Gold medals for all Courses in the Shooting Galleries"
    },
    {
      "id": 95,
      "imageId": 26,
      "cred": 40,
      "flags": 1,
      "label": "A Real Hunting Story",
      "description": "Finished the Career on Pro Hunter difficulty setting",
      "howto": "Finish the Career on Pro Hunter difficulty setting"
    },
    {
      "id": 96,
      "imageId": 36,
      "cred": 30,
      "flags": 1,
      "label": "A Sportsman Hunting Story",
      "description": "Finished the Career on Sportsman difficulty setting",
      "howto": "Finish the Career on Sportsman difficulty setting"
    },
    {
      "id": 100,
      "imageId": 30,
      "cred": 30,
      "flags": 1,
      "label": "Sharp Shooter",
      "description": "Finished an Online Match with at least 70% Accuracy",
      "howto": "Finish an Online Match with at least 70% Accuracy"
    },
    {
      "id": 101,
      "imageId": 31,
      "cred": 30,
      "flags": 1,
      "label": "Dirty Player",
      "description": "Used at least 4 different Perks against opponents in an Online Match",
      "howto": "Use at least 4 different Perks against opponents in an Online Match"
    },
    {
      "id": 102,
      "imageId": 32,
      "cred": 30,
      "flags": 1,
      "label": "Griefmaster",
      "description": "Used at least 8 different Perks against opponents in an Online Match",
      "howto": "Use at least 8 different Perks against opponents in an Online Match"
    },
    {
      "id": 103,
      "imageId": 33,
      "cred": 30,
      "flags": 1,
      "label": "The Mission Comes First",
      "description": "Completed 5 collected objectives in Online Matches",
      "howto": "Complete 5 collected objectives in Online Matches"
    },
    {
      "id": 104,
      "imageId": 34,
      "cred": 30,
      "flags": 1,
      "label": "Kill Stealer",
      "description": "Killed an animal wounded by an opponent during an Online Match",
      "howto": "Kill an animal wounded by an opponent during an Online Match"
    },
    {
      "id": 105,
      "imageId": 35,
      "cred": 30,
      "flags": 1,
      "label": "Season Premiere",
      "description": "Successfully completed your first episode",
      "howto": "Successfully complete your first episode"
    }
  ]
}