{
  "achievementsPossible": 70,
  "credPossible": 1750,
  "achievements": [
    {
      "id": 19,
      "imageId": 55,
      "cred": 5,
      "flags": 1,
      "label": "Been to Get Music",
      "description": "Entered Get Music for the first time",
      "howto": "Entered Get Music for the first time"
    },
    {
      "id": 21,
      "imageId": 58,
      "cred": 5,
      "flags": 1,
      "label": "Welcome to My Lips",
      "description": "Entered My Lips for the first time",
      "howto": "Entered My Lips for the first time"
    },
    {
      "id": 25,
      "imageId": 59,
      "cred": 5,
      "flags": 1,
      "label": "Try Freestyle Mode Out",
      "description": "Played Freestyle mode for the first time",
      "howto": "Played Freestyle mode for the first time"
    },
    {
      "id": 26,
      "imageId": 60,
      "cred": 5,
      "flags": 1,
      "label": "Fight for the first time",
      "description": "Sent a song challenge to a friend for the first time",
      "howto": "Sent a song challenge to a friend for the first time"
    },
    {
      "id": 27,
      "imageId": 54,
      "cred": 5,
      "flags": 1,
      "label": "One Hit Wonder",
      "description": "Sang 1 song in short or full",
      "howto": "Sang 1 song in short or full"
    },
    {
      "id": 28,
      "imageId": 10,
      "cred": 25,
      "flags": 1,
      "label": "Platinum Artist",
      "description": "Sang 10 different songs",
      "howto": "Sang 10 different songs"
    },
    {
      "id": 30,
      "imageId": 13,
      "cred": 30,
      "flags": 1,
      "label": "Lips Anthology",
      "description": "Sang 40 different songs",
      "howto": "Sang 40 different songs"
    },
    {
      "id": 32,
      "imageId": 15,
      "cred": 40,
      "flags": 1,
      "label": "I'm Kind Of A Big Deal",
      "description": "Achieved the rank of \"Infinity\"",
      "howto": "Achieved the rank of \"Infinity\""
    },
    {
      "id": 35,
      "imageId": 18,
      "cred": 30,
      "flags": 1,
      "label": "Wishing on a Star",
      "description": "Gained 5,000 total stars",
      "howto": "Gained 5,000 total stars"
    },
    {
      "id": 36,
      "imageId": 47,
      "cred": 40,
      "flags": 1,
      "label": "I'm full of stars",
      "description": "Gained 50,000 total stars",
      "howto": "Gained 50,000 total stars"
    },
    {
      "id": 38,
      "imageId": 4,
      "cred": 40,
      "flags": 1,
      "label": "Superstar!",
      "description": "Gained 100,000 total stars",
      "howto": "Gained 100,000 total stars"
    },
    {
      "id": 39,
      "imageId": 19,
      "cred": 30,
      "flags": 1,
      "label": "100x Medalist",
      "description": "Awarded 100 total medals",
      "howto": "Awarded 100 total medals"
    },
    {
      "id": 41,
      "imageId": 20,
      "cred": 40,
      "flags": 1,
      "label": "500x Medalist",
      "description": "Awarded 500 total medals",
      "howto": "Awarded 500 total medals"
    },
    {
      "id": 42,
      "imageId": 21,
      "cred": 30,
      "flags": 1,
      "label": "Perfect Pitch",
      "description": "Awarded 30 Pitch medals",
      "howto": "Awarded 30 Pitch medals"
    },
    {
      "id": 43,
      "imageId": 48,
      "cred": 30,
      "flags": 1,
      "label": "Time Machine",
      "description": "Awarded 30 Rhythm medals",
      "howto": "Awarded 30 Rhythm medals"
    },
    {
      "id": 44,
      "imageId": 49,
      "cred": 30,
      "flags": 1,
      "label": "Like A Rock",
      "description": "Awarded 30 Stability medals",
      "howto": "Awarded 30 Stability medals"
    },
    {
      "id": 46,
      "imageId": 50,
      "cred": 30,
      "flags": 1,
      "label": "Technician",
      "description": "Awarded 30 Technique medals",
      "howto": "Awarded 30 Technique medals"
    },
    {
      "id": 47,
      "imageId": 51,
      "cred": 30,
      "flags": 1,
      "label": "Ham Star",
      "description": "Awarded 30 Performance medals",
      "howto": "Awarded 30 Performance medals"
    },
    {
      "id": 48,
      "imageId": 52,
      "cred": 30,
      "flags": 1,
      "label": "Life of the Party",
      "description": "Awarded 30 Party medals",
      "howto": "Awarded 30 Party medals"
    },
    {
      "id": 53,
      "imageId": 22,
      "cred": 30,
      "flags": 1,
      "label": "Rebirth of Cool",
      "description": "Got \"Cool\" 10 times in a row",
      "howto": "Got \"Cool\" 10 times in a row"
    },
    {
      "id": 54,
      "imageId": 23,
      "cred": 30,
      "flags": 1,
      "label": "What's Cooler Than Being Cool?",
      "description": "Got \"Cool\" in every page",
      "howto": "Got \"Cool\" in every page"
    },
    {
      "id": 55,
      "imageId": 25,
      "cred": 5,
      "flags": 1,
      "label": "I Got You Babe",
      "description": "Participated in Co-op mode for the first time",
      "howto": "Participated in Co-op mode for the first time"
    },
    {
      "id": 56,
      "imageId": 26,
      "cred": 25,
      "flags": 1,
      "label": "In Synch",
      "description": "Scored 1,000,000 pts in Co-op mode (Awarded to all signed in players)",
      "howto": "Scored 1,000,000 pts in Co-op mode (Awarded to all signed in players)"
    },
    {
      "id": 57,
      "imageId": 27,
      "cred": 10,
      "flags": 1,
      "label": "Battle Tested",
      "description": "Played VS mode 10 times in different songs",
      "howto": "Played VS mode 10 times in different songs"
    },
    {
      "id": 60,
      "imageId": 28,
      "cred": 25,
      "flags": 1,
      "label": "Figure 8",
      "description": "Got 8 medals total in one song (Awarded to all signed in players)",
      "howto": "Got 8 medals total in one song (Awarded to all signed in players)"
    },
    {
      "id": 61,
      "imageId": 30,
      "cred": 40,
      "flags": 1,
      "label": "Full Medal Panic!",
      "description": "Got 12 medals total in one song (Awarded to all signed in players)",
      "howto": "Got 12 medals total in one song (Awarded to all signed in players)"
    },
    {
      "id": 62,
      "imageId": 31,
      "cred": 25,
      "flags": 1,
      "label": "Clap Your Hands Everybody",
      "description": "Noisemakers were perfectly in sync (Awarded to all signed in players)",
      "howto": "Noisemakers were perfectly in sync (Awarded to all signed in players)"
    },
    {
      "id": 63,
      "imageId": 32,
      "cred": 30,
      "flags": 1,
      "label": "Gotta Have More Cowbell",
      "description": "Used the cowbell 50 times (Awarded to all signed in players)",
      "howto": "Used the cowbell 50 times (Awarded to all signed in players)"
    },
    {
      "id": 64,
      "imageId": 35,
      "cred": 5,
      "flags": 1,
      "label": "One Small Step For Man",
      "description": "Added a song to Lips from external sources",
      "howto": "Added a song to Lips from external sources"
    },
    {
      "id": 65,
      "imageId": 36,
      "cred": 10,
      "flags": 1,
      "label": "One Giant Leap for Mankind",
      "description": "Added 20 songs to Lips from external sources",
      "howto": "Added 20 songs to Lips from external sources"
    },
    {
      "id": 66,
      "imageId": 1,
      "cred": 20,
      "flags": 1,
      "label": "This is madness!",
      "description": "Added 300 songs to Lips from external sources",
      "howto": "Added 300 songs to Lips from external sources"
    },
    {
      "id": 67,
      "imageId": 43,
      "cred": 5,
      "flags": 1,
      "label": "Throw Your Hands Up",
      "description": "Triggered a gesture in the Virtual Music Video",
      "howto": "Triggered a gesture in the Virtual Music Video"
    },
    {
      "id": 68,
      "imageId": 45,
      "cred": 40,
      "flags": 1,
      "label": "Rising Star",
      "description": "Achieved a Grand Ranking of \"Lounge Act\"",
      "howto": "Achieved a Grand Ranking of \"Lounge Act\""
    },
    {
      "id": 69,
      "imageId": 2,
      "cred": 40,
      "flags": 1,
      "label": "Big Name in Lips",
      "description": "Achieved a Grand Ranking of \"Hit Maker\"",
      "howto": "Achieved a Grand Ranking of \"Hit Maker\""
    },
    {
      "id": 70,
      "imageId": 46,
      "cred": 40,
      "flags": 1,
      "label": "Call Me Superstar",
      "description": "Achieved a Grand Ranking of \"Superstar\"",
      "howto": "Achieved a Grand Ranking of \"Superstar\""
    },
    {
      "id": 72,
      "imageId": 3,
      "cred": 25,
      "flags": 1,
      "label": "Defending Champion",
      "description": "Got 20 challenge wins",
      "howto": "Got 20 challenge wins"
    },
    {
      "id": 73,
      "imageId": 37,
      "cred": 10,
      "flags": 1,
      "label": "Let's Get This Party Started",
      "description": "Activated Jukebox mode. Will be awarded to all players who are signed in",
      "howto": "Activated Jukebox mode. Will be awarded to all players who are signed in"
    },
    {
      "id": 74,
      "imageId": 33,
      "cred": 35,
      "flags": 1,
      "label": "First Kiss",
      "description": "Participated in 2P Kiss game ranked as \"Match Made in Heaven\" (Except in Freestyle mode)",
      "howto": "Participated in 2P Kiss game ranked as \"Match Made in Heaven\" (Except in Freestyle mode)"
    },
    {
      "id": 75,
      "imageId": 34,
      "cred": 35,
      "flags": 1,
      "label": "Nice Duds",
      "description": "Successfully stopped the bomb from exploding in Time Bomb (Except in Freestyle or Short mode)",
      "howto": "Successfully stopped the bomb from exploding in Time Bomb (Except in Freestyle or Short mode)"
    },
    {
      "id": 81,
      "imageId": 53,
      "cred": 35,
      "flags": 1,
      "label": "Fan Service",
      "description": "Participated in a Vocal Fighters game with a 4 point difference (Except in Freestyle mode)",
      "howto": "Participated in a Vocal Fighters game with a 4 point difference (Except in Freestyle mode)"
    },
    {
      "id": 83,
      "imageId": 24,
      "cred": 10,
      "flags": 1,
      "label": "Smokin'",
      "description": "Got 50 Combos",
      "howto": "Get 50 Combos"
    },
    {
      "id": 85,
      "imageId": 38,
      "cred": 40,
      "flags": 1,
      "label": "The Great Ball of Fire",
      "description": "Got 200 Combos",
      "howto": "Get 200 Combos"
    },
    {
      "id": 87,
      "imageId": 40,
      "cred": 30,
      "flags": 1,
      "label": "Shake It Like You Mean It",
      "description": "Hit all Timed Noisemakers in 1 song",
      "howto": "Hit all Timed Noisemakers in 1 song"
    },
    {
      "id": 88,
      "imageId": 41,
      "cred": 30,
      "flags": 1,
      "label": "All Mime",
      "description": "Triggered all Timed Gestures in 1 song",
      "howto": "Trigger all Timed Gestures in 1 song"
    },
    {
      "id": 89,
      "imageId": 42,
      "cred": 20,
      "flags": 1,
      "label": "You've Got Talent",
      "description": "Earned a Bronze Cup or better on 1 song",
      "howto": "Earn a Bronze Cup or better on 1 song"
    },
    {
      "id": 90,
      "imageId": 44,
      "cred": 40,
      "flags": 1,
      "label": "Legendary Performer",
      "description": "Earned a Bronze Cup or better on 20 songs",
      "howto": "Earn a Bronze Cup or better on 20 songs"
    },
    {
      "id": 112,
      "imageId": 75,
      "cred": 10,
      "flags": 1,
      "label": "Perfect Harmony",
      "description": "Sang 20 songs in Duet mode",
      "howto": "Sing 20 songs in Duet mode"
    },
    {
      "id": 113,
      "imageId": 76,
      "cred": 40,
      "flags": 1,
      "label": "Star Struck",
      "description": "Gained 150,000 total stars",
      "howto": "Gain 150,000 total stars"
    },
    {
      "id": 114,
      "imageId": 77,
      "cred": 30,
      "flags": 1,
      "label": "Medal Rush",
      "description": "Earned 1,000 total medals",
      "howto": "Earn 1,000 total medals"
    },
    {
      "id": 115,
      "imageId": 7,
      "cred": 30,
      "flags": 1,
      "label": "Two Cool",
      "description": "Got \"Cool\" in every page for a song in Co-op mode",
      "howto": "Get \"Cool\" in every page for a song in Co-op mode"
    },
    {
      "id": 116,
      "imageId": 8,
      "cred": 30,
      "flags": 1,
      "label": "Bang Bang!",
      "description": "Earned a Big Bang rating in Co-op mode",
      "howto": "Earn a Big Bang rating in Co-op mode"
    },
    {
      "id": 117,
      "imageId": 56,
      "cred": 30,
      "flags": 1,
      "label": "Party Monster",
      "description": "Scored points in all 40 Lips Party Classics songs",
      "howto": "Score points in all 40 Lips Party Classics songs"
    },
    {
      "id": 118,
      "imageId": 57,
      "cred": 20,
      "flags": 1,
      "label": "Party Animal",
      "description": "Scored points in 20 or more Lips Party Classics songs",
      "howto": "Score points in 20 or more Lips Party Classics songs"
    },
    {
      "id": 119,
      "imageId": 61,
      "cred": 20,
      "flags": 1,
      "label": "Party Starter",
      "description": "Scored points in 10 or more Lips Party Classics songs",
      "howto": "Score points in 10 or more Lips Party Classics songs"
    },
    {
      "id": 120,
      "imageId": 62,
      "cred": 20,
      "flags": 1,
      "label": "Recording Artist",
      "description": "Recorded and viewed 3 songs with Performance Recording",
      "howto": "Record and view three songs with Performance Recording"
    },
    {
      "id": 121,
      "imageId": 63,
      "cred": 30,
      "flags": 1,
      "label": "Got My Style",
      "description": "Sang 10 songs in Freestyle",
      "howto": "Sing 10 songs in Freestyle"
    },
    {
      "id": 122,
      "imageId": 64,
      "cred": 40,
      "flags": 1,
      "label": "Let's Get it STAR-ted",
      "description": "Gained 200,000 total stars",
      "howto": "Gain 200,000 total stars"
    },
    {
      "id": 123,
      "imageId": 65,
      "cred": 30,
      "flags": 1,
      "label": "Heavy Medal",
      "description": "Awarded 1,500 total medals",
      "howto": "Earn 1,500 total medals"
    },
    {
      "id": 124,
      "imageId": 70,
      "cred": 30,
      "flags": 1,
      "label": "Thrashin' '80s ('80s disc)",
      "description": "Scored points in all 40 Lips I <Heart> the '80s songs",
      "howto": "Score points in all 40 Lips I <Heart> the '80s songs"
    },
    {
      "id": 125,
      "imageId": 71,
      "cred": 20,
      "flags": 1,
      "label": "Rockin' '80s ('80s disc)",
      "description": "Scored points in 20 or more Lips I <Heart> the '80s songs",
      "howto": "Score points in 20 or more Lips I <Heart> the '80s songs"
    },
    {
      "id": 126,
      "imageId": 72,
      "cred": 20,
      "flags": 1,
      "label": "Poppin' '80s ('80s disc)",
      "description": "Scored points in 10 or more Lips I <Heart> the '80s songs",
      "howto": "Score points in 10 or more Lips I <Heart> the '80s songs"
    },
    {
      "id": 127,
      "imageId": 73,
      "cred": 20,
      "flags": 1,
      "label": "A Little Respect ('80s disc)",
      "description": "Earned a Pitch medal in the song \"A Little Respect\"",
      "howto": "Earn a Pitch medal in the song \"A Little Respect\""
    },
    {
      "id": 128,
      "imageId": 74,
      "cred": 20,
      "flags": 1,
      "label": "Rhythm in The House! ('80s disc)",
      "description": "Earned a Rhythm medal in the song \"Our House\" ",
      "howto": "Earn a Rhythm medal in the song \"Our House\" "
    },
    {
      "id": 129,
      "imageId": 78,
      "cred": 20,
      "flags": 1,
      "label": "You're Gold ('80s disc)",
      "description": "Earned a Stability medal in the song \"Gold\" ",
      "howto": "Earn a Stability medal in the song \"Gold\" "
    },
    {
      "id": 130,
      "imageId": 79,
      "cred": 20,
      "flags": 1,
      "label": "Tech & Shout ('80s disc)",
      "description": "Earned  a Technique medal in the song \"Shout\" ",
      "howto": "Earn a Technique medal in the song \"Shout\" "
    },
    {
      "id": 131,
      "imageId": 80,
      "cred": 20,
      "flags": 1,
      "label": "Too Bold ('80s disc)",
      "description": "Earned a Performance medal in the song \"Too Shy\" ",
      "howto": "Earn a Performance medal in the song \"Too Shy\" "
    },
    {
      "id": 132,
      "imageId": 81,
      "cred": 20,
      "flags": 1,
      "label": "It's a Celebration ('80s disc)",
      "description": "Earned a Party medal in the song \"Celebration\" ",
      "howto": "Earn a Party medal in the song \"Celebration\" "
    },
    {
      "id": 133,
      "imageId": 82,
      "cred": 20,
      "flags": 1,
      "label": "Make Me Cry ('80s disc)",
      "description": "Won in Vocal Fighters with a 4-point difference on the song \"Do You Really Want To Hurt Me\"",
      "howto": "Win in Vocal Fighters with a 4-point difference on the song \"Do You Really Want To Hurt Me\""
    },
    {
      "id": 134,
      "imageId": 83,
      "cred": 20,
      "flags": 1,
      "label": "Relax Explosion ('80s disc)",
      "description": "Earned a Big Bang rating in the song \"Relax\"",
      "howto": "Earn a Big Bang rating in the song \"Relax\""
    },
    {
      "id": 135,
      "imageId": 84,
      "cred": 20,
      "flags": 1,
      "label": "Power Of Love ('80s disc)",
      "description": "Ranked \"Match Made in Heaven\" in the Kiss minigame on the song \"The Power of Love\"",
      "howto": "Rank \"Match Made in Heaven\" in the Kiss minigame on the song \"The Power of Love\""
    }
  ]
}