{
  "achievementsPossible": 50,
  "credPossible": 1000,
  "achievements": [
    {
      "id": 1,
      "imageId": 96,
      "cred": 100,
      "flags": 1,
      "label": "Couch Potato ",
      "description": "Beat Story Mode",
      "howto": "Beat Story Mode"
    },
    {
      "id": 2,
      "imageId": 97,
      "cred": 10,
      "flags": 1,
      "label": "Chowder Fan",
      "description": "Finished the Chowder theme in story mode",
      "howto": "Finish the Chowder theme in story mode"
    },
    {
      "id": 3,
      "imageId": 98,
      "cred": 10,
      "flags": 1,
      "label": "Ben 10 Fan",
      "description": "Finished the Ben 10 theme in story mode",
      "howto": "Finish the Ben 10 theme in story mode"
    },
    {
      "id": 4,
      "imageId": 99,
      "cred": 10,
      "flags": 1,
      "label": "Flapjack Fan",
      "description": "Finished the Flapjack theme in story mode",
      "howto": "Finish the Flapjack theme in story mode"
    },
    {
      "id": 5,
      "imageId": 100,
      "cred": 15,
      "flags": 1,
      "label": "KND Fan",
      "description": "Finished the KND theme in story mode",
      "howto": "Finish the KND theme in story mode"
    },
    {
      "id": 6,
      "imageId": 101,
      "cred": 15,
      "flags": 1,
      "label": "PPG Fan",
      "description": "Finished the Powerpuff Girls theme in story mode",
      "howto": "Finish the Powerpuff Girls theme in story mode"
    },
    {
      "id": 7,
      "imageId": 102,
      "cred": 15,
      "flags": 1,
      "label": "Foster’s Fan",
      "description": "Finished the Foster’s Home theme in story mode",
      "howto": "Finish the Foster’s Home theme in story mode"
    },
    {
      "id": 8,
      "imageId": 103,
      "cred": 20,
      "flags": 1,
      "label": "Dexter’s Lab Fan",
      "description": "Finished the Dexter’s Lab theme in story mode",
      "howto": "Finish the Dexter’s Lab theme in story mode"
    },
    {
      "id": 9,
      "imageId": 104,
      "cred": 20,
      "flags": 1,
      "label": "Billy & Mandy Fan",
      "description": "Finished the Grim Adventure’s theme in story mode",
      "howto": "Finish the Grim Adventure’s theme in story mode"
    },
    {
      "id": 10,
      "imageId": 105,
      "cred": 20,
      "flags": 1,
      "label": "Samurai Jack Fan",
      "description": "Finished the Samurai Jack theme in story mode",
      "howto": "Finish the Samurai Jack theme in story mode"
    },
    {
      "id": 11,
      "imageId": 106,
      "cred": 50,
      "flags": 1,
      "label": "No Big Deal",
      "description": "Beat Story Mode on the Hard difficulty setting",
      "howto": "Beat Story Mode on the Hard difficulty setting"
    },
    {
      "id": 12,
      "imageId": 107,
      "cred": 50,
      "flags": 1,
      "label": "Cartoon Collector",
      "description": "Unlocked all characters",
      "howto": "Unlock all characters"
    },
    {
      "id": 13,
      "imageId": 108,
      "cred": 30,
      "flags": 1,
      "label": "Costume Collector",
      "description": "Unlocked all costumes",
      "howto": "Unlock all costumes"
    },
    {
      "id": 14,
      "imageId": 109,
      "cred": 40,
      "flags": 1,
      "label": "Unreal Estate Collector",
      "description": "Unlocked all arenas",
      "howto": "Unlock all arenas"
    },
    {
      "id": 15,
      "imageId": 110,
      "cred": 20,
      "flags": 1,
      "label": "Big Money!",
      "description": "Collected 1000 points from a single level",
      "howto": "Collect 1000 points from a single level"
    },
    {
      "id": 16,
      "imageId": 111,
      "cred": 25,
      "flags": 1,
      "label": "It’s over 9000!",
      "description": "Collected 9001 points",
      "howto": "Collect 9001 points"
    },
    {
      "id": 17,
      "imageId": 112,
      "cred": 30,
      "flags": 1,
      "label": "Frenemies",
      "description": "Defeated Kevin boss using Ben without dying",
      "howto": "Defeat Kevin boss using Ben without dying"
    },
    {
      "id": 18,
      "imageId": 113,
      "cred": 35,
      "flags": 1,
      "label": "Samurai’s Journey",
      "description": "Defeated Aku boss using Jack without dying",
      "howto": "Defeat Aku boss using Jack without dying"
    },
    {
      "id": 19,
      "imageId": 114,
      "cred": 50,
      "flags": 1,
      "label": "Professional Hero",
      "description": "Defeated the Final boss without dying",
      "howto": "Defeat the Final boss without dying"
    },
    {
      "id": 20,
      "imageId": 115,
      "cred": 5,
      "flags": 1,
      "label": "“Yes!”",
      "description": "Activated Ben’s synergy assist",
      "howto": "Activate Ben’s synergy assist"
    },
    {
      "id": 21,
      "imageId": 116,
      "cred": 20,
      "flags": 1,
      "label": "It’s Hero Time!",
      "description": "Won the Bellwood fight in story mode with Ben or Young Ben in under a minute",
      "howto": "Win the Bellwood fight in story mode with Ben or Young Ben in under a minute"
    },
    {
      "id": 22,
      "imageId": 117,
      "cred": 5,
      "flags": 1,
      "label": "Vengeance of Vilgax",
      "description": "Won five fights as Vilgax against Ben and Young Ben",
      "howto": "Win five fights as Vilgax against Ben and Young Ben"
    },
    {
      "id": 23,
      "imageId": 118,
      "cred": 20,
      "flags": 1,
      "label": "Ugly Finish",
      "description": "Scored four consecutive knockouts using Kevin’s PTE",
      "howto": "Score four consecutive knockouts using Kevin’s PTE"
    },
    {
      "id": 24,
      "imageId": 120,
      "cred": 20,
      "flags": 1,
      "label": "Chicken Ball Z",
      "description": "Scored four knockouts after using Billy and Mandy’s PTE",
      "howto": "Score four knockouts after using Billy and Mandy’s PTE"
    },
    {
      "id": 25,
      "imageId": 121,
      "cred": 20,
      "flags": 1,
      "label": "Freedom!!!",
      "description": "Won the Toadblatt’s level in story mode with Grim in under two minutes",
      "howto": "Win the Toadblatt’s level in story mode with Grim in under two minutes"
    },
    {
      "id": 26,
      "imageId": 122,
      "cred": 30,
      "flags": 1,
      "label": "Like a Hoss",
      "description": "Won the Endsville Cemetery level in story mode with Hoss Delgado without dying",
      "howto": "Win the Endsville Cemetery level in story mode with Hoss Delgado without dying"
    },
    {
      "id": 27,
      "imageId": 123,
      "cred": 5,
      "flags": 1,
      "label": "I am not your Boyfriend",
      "description": "Activated Panini’s assist while fighting against Chowder",
      "howto": "Activate Panini’s assist while fighting against Chowder"
    },
    {
      "id": 28,
      "imageId": 124,
      "cred": 30,
      "flags": 1,
      "label": "Adventure!",
      "description": "Won the first Flapjack Pier level in story mode with Flapjack and K’nuckles in under three minutes",
      "howto": "Win the first Flapjack Pier level in story mode with Flapjack and K’nuckles in under three minutes"
    },
    {
      "id": 29,
      "imageId": 125,
      "cred": 10,
      "flags": 1,
      "label": "Dexo Robo 2000",
      "description": "Scored two knockouts using Dexter’s PTE",
      "howto": "Score two knockouts using Dexter’s PTE"
    },
    {
      "id": 30,
      "imageId": 126,
      "cred": 5,
      "flags": 1,
      "label": "What Does This Button Do?",
      "description": "Activated DeeDee’s assist while fighting against Dexter",
      "howto": "Activate DeeDee’s assist while fighting against Dexter"
    },
    {
      "id": 31,
      "imageId": 127,
      "cred": 5,
      "flags": 1,
      "label": "AH-ha-ha! AH-ha-HA ha-ha!",
      "description": "Activated Mandark’s assist while fighting against Dexter",
      "howto": "Activate Mandark’s assist while fighting against Dexter"
    },
    {
      "id": 32,
      "imageId": 129,
      "cred": 15,
      "flags": 1,
      "label": "Dial M for Monkey",
      "description": "Won ten fights as Monkey in his alternate costume",
      "howto": "Win ten fights as Monkey in his alternate costume"
    },
    {
      "id": 33,
      "imageId": 130,
      "cred": 25,
      "flags": 1,
      "label": "Way of the Samurai",
      "description": "Scored five knockouts after activating Jack’s PTE",
      "howto": "Score five knockouts after activating Jack’s PTE"
    },
    {
      "id": 34,
      "imageId": 131,
      "cred": 10,
      "flags": 1,
      "label": "Ninjas Beat Pirates",
      "description": "Won a fight as Jack in his alternate costume with Flapjack and K’nuckles as opponents",
      "howto": "Win a fight as Jack in his alternate costume with Flapjack and K’nuckles as opponents"
    },
    {
      "id": 35,
      "imageId": 132,
      "cred": 10,
      "flags": 1,
      "label": "Master of Darkness",
      "description": "Won five fights as Aku with Jack as an opponent",
      "howto": "Win five fights as Aku with Jack as an opponent"
    },
    {
      "id": 36,
      "imageId": 133,
      "cred": 15,
      "flags": 1,
      "label": "Viking God of Rock",
      "description": "Scored two consecutive knockouts with Aku’s synergy assist",
      "howto": "Score two consecutive knockouts with Aku’s synergy assist"
    },
    {
      "id": 37,
      "imageId": 134,
      "cred": 15,
      "flags": 1,
      "label": "Meet My Beautiful Wife",
      "description": "Activated Scotsman's PTE and Peppermint Larry’s Assist in the same fight",
      "howto": "Activate Scotsman's PTE and Peppermint Larry’s Assist in the same fight"
    },
    {
      "id": 38,
      "imageId": 136,
      "cred": 15,
      "flags": 1,
      "label": "Go Mac Go",
      "description": "Won ten fights as Mac and Bloo in their alternate costumes",
      "howto": "Win ten fights as Mac and Bloo in their alternate costumes"
    },
    {
      "id": 39,
      "imageId": 137,
      "cred": 20,
      "flags": 1,
      "label": "S.E.C.T.O.R. V.",
      "description": "Completed Kids Next Door Platformer under 5 minutes",
      "howto": "Complete Kids Next Door Platformer under 5 minutes"
    },
    {
      "id": 40,
      "imageId": 138,
      "cred": 10,
      "flags": 1,
      "label": "Father is Number One",
      "description": "Won five fights as Father with Numbuh One as an opponent",
      "howto": "Win five fights as Father with Numbuh One as an opponent"
    },
    {
      "id": 41,
      "imageId": 139,
      "cred": 10,
      "flags": 1,
      "label": "Flame Broiled",
      "description": "Scored a knockout using Father’s synergy assist",
      "howto": "Score a knockout using Father’s synergy assist"
    },
    {
      "id": 42,
      "imageId": 140,
      "cred": 15,
      "flags": 1,
      "label": "Flushed",
      "description": "Scored two simultaneous knockouts using Toiletnator’s PTE ",
      "howto": "Score two simultaneous knockouts using Toiletnator’s PTE "
    },
    {
      "id": 43,
      "imageId": 143,
      "cred": 5,
      "flags": 1,
      "label": "A great Big Hug",
      "description": "Activated Bubbles’ synergy assist ",
      "howto": "Activate Bubbles’ synergy assist "
    },
    {
      "id": 44,
      "imageId": 144,
      "cred": 20,
      "flags": 1,
      "label": "Not Powerpuff, Rowdyruff!",
      "description": "Won a fight with each Powerpuff in alternate costume against a Powerpuff in normal outfit",
      "howto": "Win a fight with each Powerpuff in alternate costume against a Powerpuff in normal outfit"
    },
    {
      "id": 45,
      "imageId": 145,
      "cred": 15,
      "flags": 1,
      "label": "Planet of the Ape",
      "description": "Won ten fights as Mojo Jojo against a Powerpuff girl",
      "howto": "Win ten fights as Mojo Jojo against a Powerpuff girl"
    },
    {
      "id": 46,
      "imageId": 146,
      "cred": 15,
      "flags": 1,
      "label": "Him Diddle Riddle",
      "description": "Won ten fights as Him against a Powerpuff girl",
      "howto": "Win ten fights as Him against a Powerpuff girl"
    },
    {
      "id": 47,
      "imageId": 147,
      "cred": 15,
      "flags": 1,
      "label": "P90 Him ",
      "description": "Won nine fights as Him in his alternate costume",
      "howto": "Win nine fights as Him in his alternate costume"
    },
    {
      "id": 48,
      "imageId": 148,
      "cred": 15,
      "flags": 1,
      "label": "The power is yours!",
      "description": "Scored three simultaneous knockouts using Captain Planet’s PTE",
      "howto": "Score three simultaneous knockouts using Captain Planet’s PTE"
    },
    {
      "id": 49,
      "imageId": 149,
      "cred": 10,
      "flags": 1,
      "label": "Disco Fever",
      "description": "Scored two consecutive knockouts using Captain Planet’s synergy assist",
      "howto": "Score two consecutive knockouts using Captain Planet’s synergy assist"
    },
    {
      "id": 50,
      "imageId": 95,
      "cred": 5,
      "flags": 1,
      "label": "Do the Monkey ",
      "description": "Activated Johnny’s synergy assist",
      "howto": "Activate Johnny’s synergy assist"
    }
  ]
}