{
  "achievementsPossible": 50,
  "credPossible": 1000,
  "achievements": [
    {
      "id": 1,
      "imageId": 1,
      "cred": 20,
      "flags": 6,
      "label": "Celestial Wolf",
      "description": "Completed Galen's story.",
      "howto": "Battle your way through the game with a hero."
    },
    {
      "id": 2,
      "imageId": 2,
      "cred": 20,
      "flags": 6,
      "label": "Guardian of the Elders",
      "description": "Completed Sephia's story.",
      "howto": "Battle your way through the game with a hero."
    },
    {
      "id": 3,
      "imageId": 3,
      "cred": 20,
      "flags": 6,
      "label": "Surveillant",
      "description": "Completed Zazi's story.",
      "howto": "Battle your way through the game with a hero."
    },
    {
      "id": 4,
      "imageId": 4,
      "cred": 20,
      "flags": 6,
      "label": "Alcor",
      "description": "Completed Levv's story.",
      "howto": "Battle your way through the game with a hero."
    },
    {
      "id": 5,
      "imageId": 5,
      "cred": 20,
      "flags": 6,
      "label": "King of Thieves",
      "description": "Completed Maggni's story.",
      "howto": "Battle your way through the game with a hero."
    },
    {
      "id": 6,
      "imageId": 6,
      "cred": 100,
      "flags": 1,
      "label": "Hero",
      "description": "Completed all the characters' stories.",
      "howto": "Battle your way through the game with all the heroes."
    },
    {
      "id": 7,
      "imageId": 7,
      "cred": 20,
      "flags": 4,
      "label": "Berserker",
      "description": "Completed all the stages in Hard mode.",
      "howto": "Battle your way through the game with the difficulty set at high"
    },
    {
      "id": 8,
      "imageId": 8,
      "cred": 10,
      "flags": 4,
      "label": "Squire",
      "description": "Achieved 20% of Result Rank A.",
      "howto": "Achieve several top ranks."
    },
    {
      "id": 9,
      "imageId": 9,
      "cred": 20,
      "flags": 4,
      "label": "Knight",
      "description": "Achieved 50% of Result Rank A.",
      "howto": "Achieve a numerous top ranks."
    },
    {
      "id": 10,
      "imageId": 10,
      "cred": 20,
      "flags": 4,
      "label": "Lord",
      "description": "Achieved 80% of Result Rank A.",
      "howto": "Achieve a majority of the top ranks."
    },
    {
      "id": 11,
      "imageId": 11,
      "cred": 10,
      "flags": 7,
      "label": "Master Performer",
      "description": "Equipped accessories in all active slots first.",
      "howto": "Equip all active slots."
    },
    {
      "id": 12,
      "imageId": 12,
      "cred": 10,
      "flags": 7,
      "label": "Mind Over Matter",
      "description": "Equipped accessories in all passive slots first.",
      "howto": "Equip all passive slots"
    },
    {
      "id": 13,
      "imageId": 13,
      "cred": 10,
      "flags": 7,
      "label": "Fully Armed",
      "description": "Equipped accessories in all slots.",
      "howto": "Equip accessories in all accessory slots."
    },
    {
      "id": 14,
      "imageId": 14,
      "cred": 10,
      "flags": 4,
      "label": "Chameleon Apprentice",
      "description": "Obtained a character color variation.",
      "howto": "<Translated text>"
    },
    {
      "id": 15,
      "imageId": 15,
      "cred": 20,
      "flags": 4,
      "label": "Master Chameleon",
      "description": "Obtained character color variations for all characters.",
      "howto": "<Translated text>"
    },
    {
      "id": 16,
      "imageId": 16,
      "cred": 20,
      "flags": 4,
      "label": "Guardian",
      "description": "Obtained Galen's level 5 weapon.",
      "howto": "<Translated text>"
    },
    {
      "id": 17,
      "imageId": 17,
      "cred": 20,
      "flags": 4,
      "label": "Light Dancer",
      "description": "Obtained Sephia's level 5 weapon.",
      "howto": "<Translated text>"
    },
    {
      "id": 18,
      "imageId": 18,
      "cred": 20,
      "flags": 4,
      "label": "Shadow Dancer",
      "description": "Obtained Zazi's level 5 weapon.",
      "howto": "<Translated text>"
    },
    {
      "id": 19,
      "imageId": 19,
      "cred": 20,
      "flags": 4,
      "label": "Servant of Destruction",
      "description": "Obtained Levv's level 5 weapon.",
      "howto": "<Translated text>"
    },
    {
      "id": 20,
      "imageId": 20,
      "cred": 20,
      "flags": 4,
      "label": "Fist of Judgment",
      "description": "Obtained Maggni's level 5 weapon.",
      "howto": "<Translated text>"
    },
    {
      "id": 21,
      "imageId": 21,
      "cred": 30,
      "flags": 4,
      "label": "Five Weapons of Lore",
      "description": "Obtained all level 5 weapons.",
      "howto": "<Translated text>"
    },
    {
      "id": 22,
      "imageId": 22,
      "cred": 10,
      "flags": 4,
      "label": "Light Collector",
      "description": "Obtained 20% of accessories.",
      "howto": "Obtain 20% of all accessories."
    },
    {
      "id": 23,
      "imageId": 23,
      "cred": 20,
      "flags": 4,
      "label": "Moderate Collector",
      "description": "Obtained 50% of accessories.",
      "howto": "Obtain 50% of all accessories."
    },
    {
      "id": 24,
      "imageId": 24,
      "cred": 20,
      "flags": 4,
      "label": "Avid Collector",
      "description": "Obtained 80% of accessories.",
      "howto": "Obtain 80% of all accessories."
    },
    {
      "id": 25,
      "imageId": 25,
      "cred": 10,
      "flags": 2,
      "label": "Level Up!",
      "description": "Increased a character's level for the first time.",
      "howto": "Raise your character's experience."
    },
    {
      "id": 26,
      "imageId": 26,
      "cred": 10,
      "flags": 2,
      "label": "Blacksmith Apprentice",
      "description": "Increased a weapon's level for the first time.",
      "howto": "Raise your weapon level."
    },
    {
      "id": 27,
      "imageId": 27,
      "cred": 10,
      "flags": 2,
      "label": "Master Blacksmith",
      "description": "Achieved the highest weapon level for the first time.",
      "howto": "Raise your weapon level to the maximum level."
    },
    {
      "id": 28,
      "imageId": 28,
      "cred": 10,
      "flags": 2,
      "label": "Designer Apprentice",
      "description": "Increased an accessory's level for the first time.",
      "howto": "Raise your accessory level."
    },
    {
      "id": 29,
      "imageId": 29,
      "cred": 10,
      "flags": 2,
      "label": "Master Designer",
      "description": "Achieved the highest accessory level for the first time.",
      "howto": "Raise your accessory level to the maximum level."
    },
    {
      "id": 30,
      "imageId": 30,
      "cred": 20,
      "flags": 4,
      "label": "Ground Fighter",
      "description": "Achieved 1000 land combo hits.",
      "howto": "Score 1000 hits."
    },
    {
      "id": 31,
      "imageId": 31,
      "cred": 30,
      "flags": 4,
      "label": "Ground Master",
      "description": "Achieved 3,000 land combo hits.",
      "howto": "Score 3,000 hits."
    },
    {
      "id": 32,
      "imageId": 32,
      "cred": 20,
      "flags": 4,
      "label": "Air Fighter",
      "description": "Achieved a total of 1000 air combo hits.",
      "howto": "Score 1000 hits while in the air."
    },
    {
      "id": 33,
      "imageId": 33,
      "cred": 30,
      "flags": 4,
      "label": "Air Master",
      "description": "Achieved a total of 3,000 air combo hits.",
      "howto": "Score 3,000 hits while in the air."
    },
    {
      "id": 34,
      "imageId": 34,
      "cred": 20,
      "flags": 7,
      "label": "Wail of Wrath",
      "description": "Defeated an enemy with Orb Spark level 3.",
      "howto": "Defeat an enemy with the highest orb spark level."
    },
    {
      "id": 35,
      "imageId": 35,
      "cred": 20,
      "flags": 7,
      "label": "Dance of Delusion",
      "description": "Defeated an enemy with Orb Attack level 3.",
      "howto": "Defeat an enemy with the highest orb attack level."
    },
    {
      "id": 36,
      "imageId": 36,
      "cred": 10,
      "flags": 7,
      "label": "Respect for Individuality",
      "description": "Used a unique character action for the first time.",
      "howto": "Use a unique character action."
    },
    {
      "id": 37,
      "imageId": 37,
      "cred": 10,
      "flags": 7,
      "label": "Learning Skills",
      "description": "Used a skill for the first time.",
      "howto": "Execute a skill attack."
    },
    {
      "id": 38,
      "imageId": 38,
      "cred": 20,
      "flags": 4,
      "label": "Chain of Skills",
      "description": "Used skills a total of 100 times.",
      "howto": "Use your skills 100 times."
    },
    {
      "id": 39,
      "imageId": 39,
      "cred": 30,
      "flags": 4,
      "label": "Transcended Technique",
      "description": "Used skills a total of 500 times.",
      "howto": "Use your skills 500 times."
    },
    {
      "id": 40,
      "imageId": 40,
      "cred": 20,
      "flags": 4,
      "label": "Observant Eye",
      "description": "Flash attack 100 times.",
      "howto": "Perform 100 flash attacks."
    },
    {
      "id": 41,
      "imageId": 41,
      "cred": 30,
      "flags": 4,
      "label": "Master of Insight",
      "description": "Flash attack 300 times.",
      "howto": "Perform 300 flash attacks."
    },
    {
      "id": 42,
      "imageId": 42,
      "cred": 20,
      "flags": 4,
      "label": "Iron Clad",
      "description": "Guard against 100 attacks.",
      "howto": "Block 100 attacks."
    },
    {
      "id": 43,
      "imageId": 43,
      "cred": 30,
      "flags": 4,
      "label": "Impregnable",
      "description": "Guard against 300 attacks.",
      "howto": "Block 300 attacks."
    },
    {
      "id": 44,
      "imageId": 44,
      "cred": 20,
      "flags": 4,
      "label": "Hair's Breadth",
      "description": "Evade 100 attacks.",
      "howto": "Evade 100 attacks."
    },
    {
      "id": 45,
      "imageId": 45,
      "cred": 30,
      "flags": 4,
      "label": "Untouchable",
      "description": "Evade 300 attacks.",
      "howto": "Evade 300 attacks."
    },
    {
      "id": 46,
      "imageId": 46,
      "cred": 5,
      "flags": 7,
      "label": "Payday",
      "description": "Opened a treasure chest for the first time.",
      "howto": "Break open a treasure chest."
    },
    {
      "id": 47,
      "imageId": 47,
      "cred": 5,
      "flags": 7,
      "label": "Time Out",
      "description": "Obtained an item from a recovery jar.",
      "howto": "Obtain a recovery item."
    },
    {
      "id": 48,
      "imageId": 48,
      "cred": 20,
      "flags": 7,
      "label": "Enter the Maze",
      "description": "Completed the first chapter in network mode.",
      "howto": "Complete a stage in network mode."
    },
    {
      "id": 49,
      "imageId": 49,
      "cred": 20,
      "flags": 4,
      "label": "Eternal Maze",
      "description": "Completed 50% of the total number of stages in network mode.",
      "howto": "Battle your way through network mode."
    },
    {
      "id": 50,
      "imageId": 50,
      "cred": 30,
      "flags": 7,
      "label": "Full-Fledged Adventurer",
      "description": "Uploaded results to the leaderboard for the first time.",
      "howto": "Use the leaderboard."
    }
  ]
}