[
  {
    "titleId": 1180043229,
    "largeId": 131106,
    "smallId": 65570,
    "commonId": 34
  },
  {
    "titleId": 1180043229,
    "largeId": 131117,
    "smallId": 65581,
    "commonId": 45
  },
  {
    "titleId": 1180043229,
    "largeId": 131118,
    "smallId": 65582,
    "commonId": 46
  },
  {
    "titleId": 1180043229,
    "largeId": 131119,
    "smallId": 65583,
    "commonId": 47
  },
  {
    "titleId": 1180043229,
    "largeId": 131120,
    "smallId": 65584,
    "commonId": 48
  },
  {
    "titleId": 1180043229,
    "largeId": 131121,
    "smallId": 65585,
    "commonId": 49
  },
  {
    "titleId": 1180043229,
    "largeId": 131122,
    "smallId": 65586,
    "commonId": 50
  },
  {
    "titleId": 1180043229,
    "largeId": 131123,
    "smallId": 65587,
    "commonId": 51
  },
  {
    "titleId": 1180043229,
    "largeId": 131124,
    "smallId": 65588,
    "commonId": 52
  },
  {
    "titleId": 1180043229,
    "largeId": 131125,
    "smallId": 65589,
    "commonId": 53
  },
  {
    "titleId": 1180043229,
    "largeId": 131126,
    "smallId": 65590,
    "commonId": 54
  },
  {
    "titleId": 1180043229,
    "largeId": 163840,
    "smallId": 98304,
    "commonId": 32768
  },
  {
    "titleId": 1180043229,
    "largeId": 163841,
    "smallId": 98305,
    "commonId": 32769
  },
  {
    "titleId": 1180043229,
    "largeId": 163842,
    "smallId": 98306,
    "commonId": 32770
  },
  {
    "titleId": 1180043229,
    "largeId": 163843,
    "smallId": 98307,
    "commonId": 32771
  },
  {
    "titleId": 1180043229,
    "largeId": 163844,
    "smallId": 98308,
    "commonId": 32772
  },
  {
    "titleId": 1180043229,
    "largeId": 163845,
    "smallId": 98309,
    "commonId": 32773
  },
  {
    "titleId": 1180043229,
    "largeId": 163846,
    "smallId": 98310,
    "commonId": 32774
  },
  {
    "titleId": 1180043229,
    "largeId": 163847,
    "smallId": 98311,
    "commonId": 32775
  },
  {
    "titleId": 1180043229,
    "largeId": 163848,
    "smallId": 98312,
    "commonId": 32776
  },
  {
    "titleId": 1180043229,
    "largeId": 163849,
    "smallId": 98313,
    "commonId": 32777
  },
  {
    "titleId": 1180043229,
    "largeId": 163850,
    "smallId": 98314,
    "commonId": 32778
  },
  {
    "titleId": 1180043229,
    "largeId": 163851,
    "smallId": 98315,
    "commonId": 32779
  },
  {
    "titleId": 1180043229,
    "largeId": 163852,
    "smallId": 98316,
    "commonId": 32780
  },
  {
    "titleId": 1180043229,
    "largeId": 163853,
    "smallId": 98317,
    "commonId": 32781
  },
  {
    "titleId": 1180043229,
    "largeId": 163854,
    "smallId": 98318,
    "commonId": 32782
  },
  {
    "titleId": 1180043229,
    "largeId": 163855,
    "smallId": 98319,
    "commonId": 32783
  },
  {
    "titleId": 1180043229,
    "largeId": 163856,
    "smallId": 98320,
    "commonId": 32784
  },
  {
    "titleId": 1180043229,
    "largeId": 163857,
    "smallId": 98321,
    "commonId": 32785
  },
  {
    "titleId": 1180043229,
    "largeId": 163858,
    "smallId": 98322,
    "commonId": 32786
  },
  {
    "titleId": 1180043229,
    "largeId": 163859,
    "smallId": 98323,
    "commonId": 32787
  },
  {
    "titleId": 1180043229,
    "largeId": 163860,
    "smallId": 98324,
    "commonId": 32788
  },
  {
    "titleId": 1180043229,
    "largeId": 163861,
    "smallId": 98325,
    "commonId": 32789
  },
  {
    "titleId": 1180043229,
    "largeId": 163862,
    "smallId": 98326,
    "commonId": 32790
  },
  {
    "titleId": 1180043229,
    "largeId": 163863,
    "smallId": 98327,
    "commonId": 32791
  },
  {
    "titleId": 1180043229,
    "largeId": 163864,
    "smallId": 98328,
    "commonId": 32792
  },
  {
    "titleId": 1180043229,
    "largeId": 163865,
    "smallId": 98329,
    "commonId": 32793
  },
  {
    "titleId": 1180043229,
    "largeId": 163866,
    "smallId": 98330,
    "commonId": 32794
  },
  {
    "titleId": 1180043229,
    "largeId": 163867,
    "smallId": 98331,
    "commonId": 32795
  },
  {
    "titleId": 1180043229,
    "largeId": 163868,
    "smallId": 98332,
    "commonId": 32796
  },
  {
    "titleId": 1180043229,
    "largeId": 163869,
    "smallId": 98333,
    "commonId": 32797
  },
  {
    "titleId": 1180043229,
    "largeId": 163870,
    "smallId": 98334,
    "commonId": 32798
  },
  {
    "titleId": 1180043229,
    "largeId": 163871,
    "smallId": 98335,
    "commonId": 32799
  },
  {
    "titleId": 1180043229,
    "largeId": 163872,
    "smallId": 98336,
    "commonId": 32800
  },
  {
    "titleId": 1180043229,
    "largeId": 163873,
    "smallId": 98337,
    "commonId": 32801
  },
  {
    "titleId": 1180043229,
    "largeId": 163874,
    "smallId": 98338,
    "commonId": 32802
  },
  {
    "titleId": 1180043229,
    "largeId": 163875,
    "smallId": 98339,
    "commonId": 32803
  },
  {
    "titleId": 1180043229,
    "largeId": 163876,
    "smallId": 98340,
    "commonId": 32804
  },
  {
    "titleId": 1180043229,
    "largeId": 163877,
    "smallId": 98341,
    "commonId": 32805
  },
  {
    "titleId": 1180043229,
    "largeId": 163878,
    "smallId": 98342,
    "commonId": 32806
  },
  {
    "titleId": 1180043229,
    "largeId": 163879,
    "smallId": 98343,
    "commonId": 32807
  },
  {
    "titleId": 1180043229,
    "largeId": 163880,
    "smallId": 98344,
    "commonId": 32808
  },
  {
    "titleId": 1180043229,
    "largeId": 163881,
    "smallId": 98345,
    "commonId": 32809
  },
  {
    "titleId": 1180043229,
    "largeId": 163882,
    "smallId": 98346,
    "commonId": 32810
  },
  {
    "titleId": 1180043229,
    "largeId": 163883,
    "smallId": 98347,
    "commonId": 32811
  },
  {
    "titleId": 1180043229,
    "largeId": 163884,
    "smallId": 98348,
    "commonId": 32812
  }
]