{
  "achievementsPossible": 50,
  "credPossible": 1000,
  "achievements": [
    {
      "id": 1,
      "imageId": 1,
      "cred": 10,
      "flags": 4,
      "label": "Connection",
      "description": "Complete your first online race",
      "howto": "Complete your first online race"
    },
    {
      "id": 2,
      "imageId": 2,
      "cred": 20,
      "flags": 4,
      "label": "Digital Championship",
      "description": "Complete an Online Championship",
      "howto": "Complete an Online Championship"
    },
    {
      "id": 3,
      "imageId": 3,
      "cred": 10,
      "flags": 4,
      "label": "Friends will be friends",
      "description": "Enroll one of your friends in the team",
      "howto": "Enroll one of your friends in the team"
    },
    {
      "id": 4,
      "imageId": 4,
      "cred": 20,
      "flags": 4,
      "label": "Tag Team",
      "description": "Win a gold medal in a Team Race event of the World Tour",
      "howto": "Win a gold medal in a Team Race event of the World Tour"
    },
    {
      "id": 5,
      "imageId": 5,
      "cred": 20,
      "flags": 4,
      "label": "Bite my dust!",
      "description": "Win a gold medal in a Drag Race event of the World Tour",
      "howto": "Win a gold medal in a Drag Race event of the World Tour"
    },
    {
      "id": 6,
      "imageId": 6,
      "cred": 20,
      "flags": 4,
      "label": "Against the clock",
      "description": "Win a gold medal in a Time Attack event of the World Tour",
      "howto": "Win a gold medal in a Time Attack event of the World Tour"
    },
    {
      "id": 7,
      "imageId": 7,
      "cred": 20,
      "flags": 4,
      "label": "Give way!",
      "description": "Win a gold medal in a Track Day event of the World Tour",
      "howto": "Win a gold medal in a Track Day event of the World Tour"
    },
    {
      "id": 8,
      "imageId": 8,
      "cred": 20,
      "flags": 4,
      "label": "Durable",
      "description": "Win a gold medal in an Endurance event of the World Tour",
      "howto": "Win a gold medal in an Endurance event of the World Tour"
    },
    {
      "id": 9,
      "imageId": 9,
      "cred": 10,
      "flags": 3,
      "label": "Be a racer",
      "description": "Buy an Aprilia bike",
      "howto": "Buy an Aprilia bike"
    },
    {
      "id": 10,
      "imageId": 10,
      "cred": 10,
      "flags": 3,
      "label": "Handmade perfection",
      "description": "Buy a Bimota bike",
      "howto": "Buy a Bimota bike"
    },
    {
      "id": 11,
      "imageId": 11,
      "cred": 10,
      "flags": 3,
      "label": "Ultimate riding machine",
      "description": "Buy a BMW bike",
      "howto": "Buy a BMW bike"
    },
    {
      "id": 12,
      "imageId": 12,
      "cred": 10,
      "flags": 3,
      "label": "True red passion",
      "description": "Buy a Ducati bike",
      "howto": "Buy a Ducati bike"
    },
    {
      "id": 13,
      "imageId": 13,
      "cred": 10,
      "flags": 3,
      "label": "The power of a dream",
      "description": "Buy a Honda bike",
      "howto": "Buy a Honda bike"
    },
    {
      "id": 14,
      "imageId": 14,
      "cred": 10,
      "flags": 3,
      "label": "I'm a Ninja not a turtle",
      "description": "Buy a Kawasaki bike",
      "howto": "Buy a Kawasaki bike"
    },
    {
      "id": 15,
      "imageId": 15,
      "cred": 10,
      "flags": 3,
      "label": "I'm ready to race",
      "description": "Buy a KTM bike",
      "howto": "Buy a KTM bike"
    },
    {
      "id": 16,
      "imageId": 16,
      "cred": 10,
      "flags": 3,
      "label": "Italian Motorcycle Art",
      "description": "Buy a MV Agusta bike",
      "howto": "Buy a MV Agusta bike"
    },
    {
      "id": 17,
      "imageId": 17,
      "cred": 10,
      "flags": 3,
      "label": "The Way of Life",
      "description": "Buy a Suzuki bike",
      "howto": "Buy a Suzuki bike"
    },
    {
      "id": 18,
      "imageId": 18,
      "cred": 10,
      "flags": 3,
      "label": "British Pride",
      "description": "Buy a Triumph bike",
      "howto": "Buy a Triumph bike"
    },
    {
      "id": 19,
      "imageId": 19,
      "cred": 10,
      "flags": 3,
      "label": "Electrifying",
      "description": "Buy an Energica bike or a Lightning bike",
      "howto": "Buy an Energica bike or a Lightning bike"
    },
    {
      "id": 20,
      "imageId": 20,
      "cred": 10,
      "flags": 3,
      "label": "Rev up your heart",
      "description": "Buy a Yamaha bike",
      "howto": "Buy a Yamaha bike"
    },
    {
      "id": 21,
      "imageId": 21,
      "cred": 10,
      "flags": 3,
      "label": "American Muscles",
      "description": "Buy an EBR Bike",
      "howto": "Buy an EBR Bike"
    },
    {
      "id": 22,
      "imageId": 22,
      "cred": 10,
      "flags": 4,
      "label": "This is Ride!",
      "description": "Enter the World Tour game mode",
      "howto": "Enter the World Tour game mode"
    },
    {
      "id": 23,
      "imageId": 23,
      "cred": 10,
      "flags": 2,
      "label": "Starting from the bottom",
      "description": "Reach the 300th position in the Ranking of the World Tour",
      "howto": "Reach the 300th position in the Ranking of the World Tour"
    },
    {
      "id": 24,
      "imageId": 24,
      "cred": 10,
      "flags": 2,
      "label": "Step by step",
      "description": "Reach the 200th position in the Ranking of the World Tour",
      "howto": "Reach the 200th position in the Ranking of the World Tour"
    },
    {
      "id": 25,
      "imageId": 25,
      "cred": 20,
      "flags": 2,
      "label": "Top 100",
      "description": "Reach the 100th position in the Ranking of the World Tour",
      "howto": "Reach the 100th position in the Ranking of the World Tour"
    },
    {
      "id": 26,
      "imageId": 26,
      "cred": 20,
      "flags": 2,
      "label": "Keep Going!",
      "description": "Reach the 50th position in the Ranking of the World Tour",
      "howto": "Reach the 50th position in the Ranking of the World Tour"
    },
    {
      "id": 27,
      "imageId": 27,
      "cred": 20,
      "flags": 2,
      "label": "High Society",
      "description": "Reach the 25th position in the Ranking of the World Tour",
      "howto": "Reach the 25th position in the Ranking of the World Tour"
    },
    {
      "id": 28,
      "imageId": 28,
      "cred": 20,
      "flags": 2,
      "label": "Top 10",
      "description": "Reach the 10th position in the Ranking of the World Tour",
      "howto": "Reach the 10th position in the Ranking of the World Tour"
    },
    {
      "id": 29,
      "imageId": 29,
      "cred": 20,
      "flags": 6,
      "label": "Monocycle",
      "description": "Pull a continuous wheelie for 8 seconds in any game mode",
      "howto": "Pull a continuous wheelie for 8 seconds in any game mode"
    },
    {
      "id": 30,
      "imageId": 30,
      "cred": 20,
      "flags": 6,
      "label": "For the fans",
      "description": "Pull a stoppie for 2 seconds in any game mode",
      "howto": "Pull a stoppie for 2 seconds in any game mode"
    },
    {
      "id": 31,
      "imageId": 31,
      "cred": 10,
      "flags": 6,
      "label": "They used to call me McFly",
      "description": "Use a Rewind in any game mode",
      "howto": "Use a Rewind in any game mode"
    },
    {
      "id": 32,
      "imageId": 32,
      "cred": 20,
      "flags": 4,
      "label": "Try and get me",
      "description": "Reach 280 Km/h (174 mph) in any game mode",
      "howto": "Reach 280 Km/h (174 mph) in any game mode"
    },
    {
      "id": 33,
      "imageId": 33,
      "cred": 20,
      "flags": 4,
      "label": "A ghost has appeared",
      "description": "Complete a valid lap in Time Trial game mode",
      "howto": "Complete a valid lap in Time Trial game mode"
    },
    {
      "id": 34,
      "imageId": 34,
      "cred": 10,
      "flags": 4,
      "label": "Men at work",
      "description": "Enter the bike settings menu",
      "howto": "Enter the bike settings menu"
    },
    {
      "id": 35,
      "imageId": 35,
      "cred": 10,
      "flags": 4,
      "label": "Admiring",
      "description": "Enter the Free Camera menu from the pause of any race",
      "howto": "Enter the Free Camera menu from the pause of any race"
    },
    {
      "id": 36,
      "imageId": 36,
      "cred": 10,
      "flags": 3,
      "label": "Just the beginning",
      "description": "Reach a total of 5 bikes in your collection",
      "howto": "Reach a total of 5 bikes in your collection"
    },
    {
      "id": 37,
      "imageId": 37,
      "cred": 10,
      "flags": 3,
      "label": "One bike leads to another",
      "description": "Reach a total of 10 bikes in your collection",
      "howto": "Reach a total of 10 bikes in your collection"
    },
    {
      "id": 38,
      "imageId": 38,
      "cred": 20,
      "flags": 3,
      "label": "Spacious garage",
      "description": "Reach a total of 15 bikes in your collection",
      "howto": "Reach a total of 15 bikes in your collection"
    },
    {
      "id": 39,
      "imageId": 58,
      "cred": 30,
      "flags": 3,
      "label": "The Aristocrat",
      "description": "Change the \"Title\" of your rider",
      "howto": "Change the \"Title\" of your rider"
    },
    {
      "id": 40,
      "imageId": 40,
      "cred": 10,
      "flags": 3,
      "label": "Personal touch",
      "description": "Buy a new component for one of your bikes",
      "howto": "Buy a new component for one of your bikes"
    },
    {
      "id": 41,
      "imageId": 41,
      "cred": 10,
      "flags": 3,
      "label": "Swag!",
      "description": "Change your rider's gear",
      "howto": "Change your rider's gear"
    },
    {
      "id": 42,
      "imageId": 42,
      "cred": 10,
      "flags": 4,
      "label": "Half you, half me",
      "description": "Complete a race in the Split Screen game mode",
      "howto": "Complete a race in the Split Screen game mode"
    },
    {
      "id": 43,
      "imageId": 43,
      "cred": 30,
      "flags": 4,
      "label": "It's better with friends",
      "description": "Complete 20 online races",
      "howto": "Complete 20 online races"
    },
    {
      "id": 51,
      "imageId": 51,
      "cred": 30,
      "flags": 4,
      "label": "Halfway",
      "description": "Win a Bronze medal in 4 different Elite Trophies of the World Tour",
      "howto": "Win a Bronze medal in 4 different Elite Trophies of the World Tour"
    },
    {
      "id": 52,
      "imageId": 52,
      "cred": 30,
      "flags": 3,
      "label": "I've lost count",
      "description": "Reach a total of 25 bikes in your collection",
      "howto": "Reach a total of 25 bikes in your collection"
    },
    {
      "id": 53,
      "imageId": 53,
      "cred": 30,
      "flags": 3,
      "label": "The Collector",
      "description": "Reach a total of 50 bikes in your collection",
      "howto": "Reach a total of 50 bikes in your collection"
    },
    {
      "id": 54,
      "imageId": 54,
      "cred": 20,
      "flags": 4,
      "label": "Last one, I swear!",
      "description": "Reach a total of 20 bikes in your collection",
      "howto": "Reach a total of 20 bikes in your collection"
    },
    {
      "id": 55,
      "imageId": 55,
      "cred": 90,
      "flags": 4,
      "label": "The world is yours",
      "description": "Win a Gold medal in each Elite Trophy of the World Tour",
      "howto": "Win a Gold medal in each Elite Trophy of the World Tour"
    },
    {
      "id": 56,
      "imageId": 56,
      "cred": 90,
      "flags": 2,
      "label": "Best in the World",
      "description": "Reach the 1st position in the Ranking of the World Tour",
      "howto": "Reach the 1st position in the Ranking of the World Tour"
    },
    {
      "id": 57,
      "imageId": 57,
      "cred": 90,
      "flags": 2,
      "label": "Moneybags",
      "description": "Reach a balance of 100,000 credits",
      "howto": "Reach a balance of 100,000 credits"
    }
  ]
}