{
  "achievementsPossible": 46,
  "credPossible": 1000,
  "achievements": [
    {
      "id": 200,
      "imageId": 2,
      "cred": 10,
      "flags": 1,
      "label": "Soda Saver",
      "description": "Complete Chapter 1",
      "howto": "Complete Chapter 1"
    },
    {
      "id": 201,
      "imageId": 3,
      "cred": 10,
      "flags": 1,
      "label": "Now YOU Know It All",
      "description": "Complete Chapter 2",
      "howto": "Complete Chapter 2"
    },
    {
      "id": 202,
      "imageId": 4,
      "cred": 10,
      "flags": 1,
      "label": "Chompy Champ",
      "description": "Complete Chapter 3",
      "howto": "Complete Chapter 3"
    },
    {
      "id": 203,
      "imageId": 5,
      "cred": 10,
      "flags": 1,
      "label": "Bird Buddy",
      "description": "Complete Chapter 4",
      "howto": "Complete Chapter 4"
    },
    {
      "id": 204,
      "imageId": 6,
      "cred": 10,
      "flags": 1,
      "label": "Master of Chefs",
      "description": "Complete Chapter 5",
      "howto": "Complete Chapter 5"
    },
    {
      "id": 205,
      "imageId": 7,
      "cred": 10,
      "flags": 1,
      "label": "Squid Seeker",
      "description": "Complete Chapter 6",
      "howto": "Complete Chapter 6"
    },
    {
      "id": 206,
      "imageId": 8,
      "cred": 10,
      "flags": 1,
      "label": "Swamp Survivor",
      "description": "Complete Chapter 7",
      "howto": "Complete Chapter 7"
    },
    {
      "id": 207,
      "imageId": 9,
      "cred": 10,
      "flags": 1,
      "label": "Dreamcatcher Catcher",
      "description": "Complete Chapter 8",
      "howto": "Complete Chapter 8"
    },
    {
      "id": 208,
      "imageId": 10,
      "cred": 10,
      "flags": 1,
      "label": "Lumber Liberator",
      "description": "Complete Chapter 9",
      "howto": "Complete Chapter 9"
    },
    {
      "id": 209,
      "imageId": 11,
      "cred": 10,
      "flags": 1,
      "label": "Aroma Avenger",
      "description": "Complete Chapter 10",
      "howto": "Complete Chapter 10"
    },
    {
      "id": 210,
      "imageId": 12,
      "cred": 10,
      "flags": 1,
      "label": "Krankcase Kapturer",
      "description": "Complete Chapter 11",
      "howto": "Complete Chapter 11"
    },
    {
      "id": 211,
      "imageId": 13,
      "cred": 10,
      "flags": 1,
      "label": "Clock Crusader",
      "description": "Complete Chapter 12",
      "howto": "Complete Chapter 12"
    },
    {
      "id": 212,
      "imageId": 14,
      "cred": 10,
      "flags": 1,
      "label": "Back From the Future",
      "description": "Complete Chapter 13",
      "howto": "Complete Chapter 13"
    },
    {
      "id": 213,
      "imageId": 15,
      "cred": 10,
      "flags": 1,
      "label": "Rocket Recoverer",
      "description": "Complete Chapter 14",
      "howto": "Complete Chapter 14"
    },
    {
      "id": 214,
      "imageId": 16,
      "cred": 10,
      "flags": 1,
      "label": "Squadron Star",
      "description": "Complete Chapter 15",
      "howto": "Complete Chapter 15"
    },
    {
      "id": 215,
      "imageId": 17,
      "cred": 10,
      "flags": 1,
      "label": "Desert Dominator",
      "description": "Complete Chapter 16",
      "howto": "Complete Chapter 16"
    },
    {
      "id": 216,
      "imageId": 18,
      "cred": 10,
      "flags": 1,
      "label": "Royal Flusher",
      "description": "Complete Chapter 17",
      "howto": "Complete Chapter 17"
    },
    {
      "id": 217,
      "imageId": 19,
      "cred": 10,
      "flags": 1,
      "label": "Kaos Komeuppance",
      "description": "Complete Chapter 18",
      "howto": "Complete Chapter 18"
    },
    {
      "id": 218,
      "imageId": 20,
      "cred": 10,
      "flags": 1,
      "label": "Statue Smasher",
      "description": "Chapter 3: Destroy 4 stone Chompy heads",
      "howto": "Chapter 3: Destroy 4 stone Chompy heads"
    },
    {
      "id": 219,
      "imageId": 21,
      "cred": 10,
      "flags": 1,
      "label": "Preemptive Power",
      "description": "Chapter 4: Destroy 1 Dropship",
      "howto": "Chapter 4: Destroy 1 Dropship"
    },
    {
      "id": 220,
      "imageId": 22,
      "cred": 10,
      "flags": 1,
      "label": "Cannon Completest",
      "description": "Chapter 5: Destroy 8 Troll Transports during the flying sequence",
      "howto": "Chapter 5: Destroy 8 Troll Transports during the flying sequence"
    },
    {
      "id": 221,
      "imageId": 23,
      "cred": 10,
      "flags": 1,
      "label": "Pipe Down",
      "description": "Chapter 6: Destroy 4 stacks of pipes using the crane on Dredger’s Yacht",
      "howto": "Chapter 6: Destroy 4 stacks of pipes using the crane on Dredger’s Yacht"
    },
    {
      "id": 222,
      "imageId": 24,
      "cred": 10,
      "flags": 1,
      "label": "No Coins Left Behind",
      "description": "Chapter 7:  Collect 20 coins while following Marsha through the mist",
      "howto": "Chapter 7:  Collect 20 coins while following Marsha through the mist"
    },
    {
      "id": 223,
      "imageId": 25,
      "cred": 40,
      "flags": 1,
      "label": "Ball Sprawler",
      "description": "Chapter 8: Knock 12 Golden Balls off the waterfall in the Meditative Pool area",
      "howto": "Chapter 8: Knock 12 Golden Balls off the waterfall in the Meditative Pool area"
    },
    {
      "id": 224,
      "imageId": 26,
      "cred": 10,
      "flags": 1,
      "label": "Evilikin Eliminator",
      "description": "Chapter 9: Shoot 20 Evilikin Runner during the flying sequence",
      "howto": "Chapter 9: Shoot 20 Evilikin Runner during the flying sequence"
    },
    {
      "id": 225,
      "imageId": 27,
      "cred": 10,
      "flags": 1,
      "label": "No Goo For You!",
      "description": "Chapter 10:  Travel to Splash Station without taking any damage from goo",
      "howto": "Chapter 10:  Travel to Splash Station without taking any damage from goo"
    },
    {
      "id": 226,
      "imageId": 28,
      "cred": 10,
      "flags": 1,
      "label": "Ride the Rails",
      "description": "Chapter 11: Ride the train to the end of the line",
      "howto": "Chapter 11: Ride the train to the end of the line"
    },
    {
      "id": 227,
      "imageId": 29,
      "cred": 10,
      "flags": 1,
      "label": "Da Pinchy Defacer",
      "description": "Chapter 12: Destroy 5 Da Pinchy statues",
      "howto": "Chapter 12: Destroy 5 Da Pinchy statues"
    },
    {
      "id": 228,
      "imageId": 30,
      "cred": 10,
      "flags": 1,
      "label": "Just to be Safe",
      "description": "Chapter 13: Take down every shield unit during the flying sequence",
      "howto": "Chapter 13: Take down every shield unit during the flying sequence"
    },
    {
      "id": 229,
      "imageId": 31,
      "cred": 10,
      "flags": 1,
      "label": "Exhaust All Possibilities",
      "description": "Chapter 14: Complete the arena battle without getting hit by rocket exhaust",
      "howto": "Chapter 14: Complete the arena battle without getting hit by rocket exhaust"
    },
    {
      "id": 230,
      "imageId": 32,
      "cred": 40,
      "flags": 1,
      "label": "Look Ma, No Rockets!",
      "description": "Chapter 15:  Shoot down 30 Air Pirates without using rockets",
      "howto": "Chapter 15:  Shoot down 30 Air Pirates without using rockets"
    },
    {
      "id": 231,
      "imageId": 33,
      "cred": 10,
      "flags": 1,
      "label": "Garden Gladiator",
      "description": "Chapter 16: Destroy 10 cacti",
      "howto": "Chapter 16: Destroy 10 cacti"
    },
    {
      "id": 232,
      "imageId": 34,
      "cred": 10,
      "flags": 1,
      "label": "Highwire Act",
      "description": "Chapter 17:  Complete all the tile floor puzzles without falling",
      "howto": "Chapter 17:  Complete all the tile floor puzzles without falling"
    },
    {
      "id": 233,
      "imageId": 35,
      "cred": 10,
      "flags": 1,
      "label": "Do a Barrel Roll",
      "description": "Chapter 18: Collect 9 coins while falling down the Machine Heart",
      "howto": "Chapter 18: Collect 9 coins while falling down the Machine Heart"
    },
    {
      "id": 234,
      "imageId": 36,
      "cred": 150,
      "flags": 1,
      "label": "Savior of Skylands IV",
      "description": "Complete Story Mode on any difficulty setting",
      "howto": "Complete Story Mode on any difficulty setting"
    },
    {
      "id": 235,
      "imageId": 37,
      "cred": 150,
      "flags": 1,
      "label": "Dream a Little Nightmare",
      "description": "Complete Story Mode on the Nightmare difficulty setting",
      "howto": "Complete Story Mode on the Nightmare difficulty setting"
    },
    {
      "id": 236,
      "imageId": 38,
      "cred": 20,
      "flags": 1,
      "label": "Kaos Mode Master",
      "description": "Defeat 100 enemies in Kaos Mode",
      "howto": "Defeat 100 enemies in Kaos Mode"
    },
    {
      "id": 237,
      "imageId": 39,
      "cred": 75,
      "flags": 1,
      "label": "Star Star",
      "description": "Earn 50 Stars in Kaos Mode",
      "howto": "Earn 50 Stars in Kaos Mode"
    },
    {
      "id": 238,
      "imageId": 40,
      "cred": 10,
      "flags": 1,
      "label": "Arena Mogul",
      "description": "Unlock Brock's special arena",
      "howto": "Unlock Brock's special arena"
    },
    {
      "id": 239,
      "imageId": 41,
      "cred": 75,
      "flags": 1,
      "label": "Chairman of the Rumble Club",
      "description": "Complete all Arena levels",
      "howto": "Complete all Arena levels"
    },
    {
      "id": 240,
      "imageId": 42,
      "cred": 10,
      "flags": 1,
      "label": "Not Out of Your Element",
      "description": "Unlock your first Elemental area",
      "howto": "Unlock your first Elemental area"
    },
    {
      "id": 241,
      "imageId": 43,
      "cred": 30,
      "flags": 1,
      "label": "Hero Hunter",
      "description": "Capture 10 Villains",
      "howto": "Capture 10 Villains"
    },
    {
      "id": 242,
      "imageId": 44,
      "cred": 20,
      "flags": 1,
      "label": "Skystones Scavenger",
      "description": "Collect 20 Skystones",
      "howto": "Collect 20 Skystones"
    },
    {
      "id": 243,
      "imageId": 45,
      "cred": 30,
      "flags": 1,
      "label": "All the Way Up!",
      "description": "Level up any Skylander to level 20",
      "howto": "Level up any Skylander to level 20"
    },
    {
      "id": 244,
      "imageId": 46,
      "cred": 20,
      "flags": 1,
      "label": "Wow, That's Tough!",
      "description": "Achieve Portal Master Rank 5",
      "howto": "Achieve Portal Master Rank 5"
    },
    {
      "id": 245,
      "imageId": 1,
      "cred": 10,
      "flags": 1,
      "label": "Road to Redemption",
      "description": "Complete a captured Villain's quest",
      "howto": "Complete a captured Villain's quest"
    }
  ]
}