{
  "achievementsPossible": 40,
  "credPossible": 1000,
  "achievements": [
    {
      "id": 1,
      "imageId": 23,
      "cred": 25,
      "flags": 6,
      "label": "Battle Formations",
      "description": "Performed Battle Formation 50 times",
      "howto": "Performed Battle Formation 50 times"
    },
    {
      "id": 2,
      "imageId": 25,
      "cred": 25,
      "flags": 1,
      "label": "Total Enemies Defeated",
      "description": "Defeated 500 total enemies",
      "howto": "Defeated 500 total enemies"
    },
    {
      "id": 3,
      "imageId": 21,
      "cred": 25,
      "flags": 1,
      "label": "Max Combo Hits",
      "description": "Dealt 100 hits or more in a combo during a mission",
      "howto": "Dealt 100 hits or more in a combo during a mission"
    },
    {
      "id": 4,
      "imageId": 24,
      "cred": 25,
      "flags": 1,
      "label": "Total Damage",
      "description": "Dealt 10,000 or more total damage in a combo during a mission",
      "howto": "Dealt 10,000 or more total damage in a combo during a mission"
    },
    {
      "id": 5,
      "imageId": 22,
      "cred": 25,
      "flags": 1,
      "label": "S Rank",
      "description": "Earn an S rank in a mission",
      "howto": "Earn an S rank in a mission"
    },
    {
      "id": 6,
      "imageId": 6,
      "cred": 25,
      "flags": 1,
      "label": "Special Character 1",
      "description": "Recruited Special Character 1",
      "howto": "Recruited Special Character 1"
    },
    {
      "id": 7,
      "imageId": 7,
      "cred": 25,
      "flags": 1,
      "label": "Zakifon",
      "description": "Recruited Zakifon",
      "howto": "Recruited Zakifon"
    },
    {
      "id": 8,
      "imageId": 8,
      "cred": 25,
      "flags": 1,
      "label": "Chic",
      "description": "Recruited Chic",
      "howto": "Recruited Chic"
    },
    {
      "id": 9,
      "imageId": 9,
      "cred": 25,
      "flags": 1,
      "label": "Chris",
      "description": "Recruited Chris",
      "howto": "Recruited Chris"
    },
    {
      "id": 10,
      "imageId": 10,
      "cred": 25,
      "flags": 1,
      "label": "Langeais",
      "description": "Recruited Langeais",
      "howto": "Recruited Langeais"
    },
    {
      "id": 11,
      "imageId": 11,
      "cred": 25,
      "flags": 1,
      "label": "Mayura",
      "description": "Recruited Mayura",
      "howto": "Recruited Mayura"
    },
    {
      "id": 12,
      "imageId": 12,
      "cred": 25,
      "flags": 1,
      "label": "Sugata",
      "description": "Recruited Sugata",
      "howto": "Recruited Sugata"
    },
    {
      "id": 13,
      "imageId": 13,
      "cred": 25,
      "flags": 1,
      "label": "Lamia",
      "description": "Recruited Lamia",
      "howto": "Recruited Lamia"
    },
    {
      "id": 14,
      "imageId": 14,
      "cred": 25,
      "flags": 1,
      "label": "Orochimaru",
      "description": "Recruited Orochimaru",
      "howto": "Recruited Orochimaru"
    },
    {
      "id": 15,
      "imageId": 15,
      "cred": 25,
      "flags": 1,
      "label": "Rengeki",
      "description": "Recruited Rengeki",
      "howto": "Recruited Rengeki"
    },
    {
      "id": 16,
      "imageId": 16,
      "cred": 25,
      "flags": 1,
      "label": "Hototogisu",
      "description": "Recruited Hototogisu",
      "howto": "Recruited Hototogisu"
    },
    {
      "id": 17,
      "imageId": 17,
      "cred": 25,
      "flags": 1,
      "label": "Special Character II",
      "description": "Recruited Special Character II.",
      "howto": "Recruited Special Character II."
    },
    {
      "id": 18,
      "imageId": 18,
      "cred": 25,
      "flags": 1,
      "label": "Little Snow",
      "description": "Recruited Little Snow",
      "howto": "Recruited Little Snow"
    },
    {
      "id": 19,
      "imageId": 19,
      "cred": 25,
      "flags": 1,
      "label": "Al",
      "description": "Recruited Al",
      "howto": "Recruited Al"
    },
    {
      "id": 20,
      "imageId": 20,
      "cred": 25,
      "flags": 1,
      "label": "Break",
      "description": "Recruited Break",
      "howto": "Recruited Break"
    },
    {
      "id": 21,
      "imageId": 26,
      "cred": 25,
      "flags": 1,
      "label": "Culcha",
      "description": "Recruited Culcha",
      "howto": "Recruited Culcha"
    },
    {
      "id": 22,
      "imageId": 27,
      "cred": 25,
      "flags": 1,
      "label": "Regal Lily",
      "description": "Recruited Regal Lily",
      "howto": "Recruited Regal Lily"
    },
    {
      "id": 23,
      "imageId": 28,
      "cred": 25,
      "flags": 1,
      "label": "Lilia Ple",
      "description": "Recruited Lilia Ple",
      "howto": "Recruited Lilia Ple"
    },
    {
      "id": 24,
      "imageId": 29,
      "cred": 25,
      "flags": 1,
      "label": "Primrose",
      "description": "Recruited Primrose",
      "howto": "Recruited Primrose"
    },
    {
      "id": 25,
      "imageId": 30,
      "cred": 25,
      "flags": 1,
      "label": "Margaret",
      "description": "Recruited Margaret",
      "howto": "Recruited Margaret"
    },
    {
      "id": 26,
      "imageId": 31,
      "cred": 25,
      "flags": 1,
      "label": "Folt",
      "description": "Recruited Folt",
      "howto": "Recruited Folt"
    },
    {
      "id": 27,
      "imageId": 32,
      "cred": 25,
      "flags": 1,
      "label": "Tina",
      "description": "Recruited Tina",
      "howto": "Recruited Tina"
    },
    {
      "id": 28,
      "imageId": 33,
      "cred": 25,
      "flags": 1,
      "label": "Rato",
      "description": "Recruited Rato",
      "howto": "Recruited Rato"
    },
    {
      "id": 29,
      "imageId": 34,
      "cred": 25,
      "flags": 1,
      "label": "Rimm",
      "description": "Recruited Rimm",
      "howto": "Recruited Rimm"
    },
    {
      "id": 30,
      "imageId": 35,
      "cred": 25,
      "flags": 1,
      "label": "Anita",
      "description": "Recruited Anita",
      "howto": "Recruited Anita"
    },
    {
      "id": 31,
      "imageId": 36,
      "cred": 25,
      "flags": 1,
      "label": "Kiratt",
      "description": "Recruited Kiratt",
      "howto": "Recruited Kiratt"
    },
    {
      "id": 32,
      "imageId": 37,
      "cred": 25,
      "flags": 1,
      "label": "The 7th Hamaou",
      "description": "Recruited The 7th Hamaou",
      "howto": "Recruited The 7th Hamaou"
    },
    {
      "id": 33,
      "imageId": 38,
      "cred": 25,
      "flags": 1,
      "label": "Trick Blue",
      "description": "Recruited Trick Blue",
      "howto": "Recruited Trick Blue"
    },
    {
      "id": 34,
      "imageId": 39,
      "cred": 25,
      "flags": 1,
      "label": "Inuou",
      "description": "Recruited Inuou",
      "howto": "Recruited Inuou"
    },
    {
      "id": 35,
      "imageId": 40,
      "cred": 25,
      "flags": 1,
      "label": "Luche",
      "description": "Recruited Luche",
      "howto": "Recruited Luche"
    },
    {
      "id": 36,
      "imageId": 41,
      "cred": 25,
      "flags": 1,
      "label": "Gyufee II",
      "description": "Recruited Gyufee II",
      "howto": "Recruited Gyufee II"
    },
    {
      "id": 37,
      "imageId": 42,
      "cred": 25,
      "flags": 1,
      "label": "Shimazwei",
      "description": "Recruited Shimazwei",
      "howto": "Recruited Shimazwei"
    },
    {
      "id": 38,
      "imageId": 43,
      "cred": 25,
      "flags": 1,
      "label": "Malimar",
      "description": "Recruited Malimar",
      "howto": "Recruited Malimar"
    },
    {
      "id": 39,
      "imageId": 44,
      "cred": 25,
      "flags": 1,
      "label": "Fuya",
      "description": "Recruited Fuya",
      "howto": "Recruited Fuya"
    },
    {
      "id": 40,
      "imageId": 45,
      "cred": 25,
      "flags": 1,
      "label": "Nyan",
      "description": "Recruited Nyan",
      "howto": "Recruited Nyan"
    }
  ]
}