{
  "achievementsPossible": 12,
  "credPossible": 200,
  "achievements": [
    {
      "id": 1,
      "imageId": 1,
      "cred": 5,
      "flags": 1,
      "label": "Amateur Yankee Driller",
      "description": "Complete the America Stage [500m].",
      "howto": "Complete the America Stage [500m]."
    },
    {
      "id": 2,
      "imageId": 2,
      "cred": 10,
      "flags": 1,
      "label": "Pro Mummy Driller",
      "description": "Complete the Egypt Stage [1,000m].",
      "howto": "Complete the Egypt Stage [1,000m]."
    },
    {
      "id": 3,
      "imageId": 3,
      "cred": 15,
      "flags": 1,
      "label": "King of Moscow Drillers",
      "description": "Complete the Russia Stage [3,000m].",
      "howto": "Complete the Russia Stage [3,000m]."
    },
    {
      "id": 4,
      "imageId": 4,
      "cred": 25,
      "flags": 6,
      "label": "God of Arctic Drillers",
      "description": "Dig 5,000m in the North Pole Stage.",
      "howto": "Dig 5,000m in the North Pole Stage."
    },
    {
      "id": 5,
      "imageId": 5,
      "cred": 20,
      "flags": 4,
      "label": "Brainy Quest Genius",
      "description": "Complete 10 consecutive Quests.",
      "howto": "Complete 10 consecutive Quests."
    },
    {
      "id": 6,
      "imageId": 6,
      "cred": 5,
      "flags": 4,
      "label": "Lifesaving Air Maestro",
      "description": "Obtain 50 Air Capsules.",
      "howto": "Obtain 50 Air Capsules."
    },
    {
      "id": 7,
      "imageId": 7,
      "cred": 15,
      "flags": 4,
      "label": "Tireless Block Destroyer",
      "description": "Drill 5,000 Blocks.",
      "howto": "Drill 5,000 Blocks."
    },
    {
      "id": 8,
      "imageId": 8,
      "cred": 25,
      "flags": 4,
      "label": "Continuous Chain Linker",
      "description": "Chain 30 Blocks in a row.",
      "howto": "Chain 30 Blocks in a row."
    },
    {
      "id": 9,
      "imageId": 9,
      "cred": 15,
      "flags": 4,
      "label": "Fighting Battle Warrior",
      "description": "Win 10 consecutive Solo Battles.",
      "howto": "Win 10 consecutive Solo Battles."
    },
    {
      "id": 10,
      "imageId": 10,
      "cred": 15,
      "flags": 4,
      "label": "Friendly Tag Champion",
      "description": "Win 10 consecutive Tag Battles.",
      "howto": "Win 10 consecutive Tag Battles."
    },
    {
      "id": 11,
      "imageId": 11,
      "cred": 20,
      "flags": 4,
      "label": "Supreme Point Master",
      "description": "Beat the opposing team in Tag Battle by 200,000 points.",
      "howto": "Beat the opposing team in Tag Battle by 200,000 points."
    },
    {
      "id": 12,
      "imageId": 12,
      "cred": 30,
      "flags": 4,
      "label": "Infinite Drilling Conqueror",
      "description": "Win 20 consecutive Solo and Tag Battles.",
      "howto": "Win 20 consecutive Solo and Tag Battles."
    }
  ]
}