{
  "avatarAssetsPossible": 3,
  "maleAvatarAssetsPossible": 1,
  "femaleAvatarAssetsPossible": 1,
  "avatarAssets": [
    {
      "id": "00000008-0001-9141-c0a0-5be258410987",
      "imageId": 16,
      "subcategory": 0,
      "unknown": 0,
      "isMale": true,
      "isFemale": false,
      "isUnisex": false,
      "label": "An awesome Scrap Metal T-Shirt",
      "description": "An awesome Scrap Metal T-Shirt",
      "howto": "Win this T-Shirt by completing all missions of the Single Player Garage map."
    },
    {
      "id": "00000008-0001-0122-c137-57c258410987",
      "imageId": 15,
      "subcategory": 0,
      "unknown": 2015221016,
      "isMale": false,
      "isFemale": true,
      "isUnisex": false,
      "label": "An awesome Scrap Metal T-Shirt",
      "description": "An awesome Scrap Metal T-Shirt",
      "howto": "Win this T-Shirt by completing all missions of the Single Player Garage map."
    },
    {
      "id": "00001000-0003-5163-cd5c-ddc958410987",
      "imageId": 17,
      "subcategory": 0,
      "unknown": 2015221016,
      "isMale": false,
      "isFemale": false,
      "isUnisex": true,
      "label": "A Scrap Metal RC car!",
      "description": "A Scrap Metal remote controlled car! How cool is that?",
      "howto": "Complete all missions in the single player game to win this costume!"
    }
  ]
}