{
  "achievementsPossible": 50,
  "credPossible": 1000,
  "achievements": [
    {
      "id": 1,
      "imageId": 1,
      "cred": 25,
      "flags": 1,
      "label": "Only a Ninja Can Stop a Ninja",
      "description": "Completed Mission 001 on any difficulty.",
      "howto": "Complete Mission 001 on any difficulty."
    },
    {
      "id": 2,
      "imageId": 2,
      "cred": 25,
      "flags": 1,
      "label": "Two-Wheel Daredevil",
      "description": "Completed Mission 002 on any difficulty.",
      "howto": "Complete Mission 002 on any difficulty."
    },
    {
      "id": 3,
      "imageId": 3,
      "cred": 25,
      "flags": 1,
      "label": "Family Ties",
      "description": "Completed Mission 003 on any difficulty.",
      "howto": "Complete Mission 003 on any difficulty."
    },
    {
      "id": 4,
      "imageId": 4,
      "cred": 25,
      "flags": 1,
      "label": "In the Event of an Emergency...",
      "description": "Completed Mission 004 on any difficulty.",
      "howto": "Complete Mission 004 on any difficulty."
    },
    {
      "id": 5,
      "imageId": 5,
      "cred": 25,
      "flags": 1,
      "label": "There's Always a Bigger Bug",
      "description": "Completed Mission 005 on any difficulty.",
      "howto": "Complete Mission 005 on any difficulty."
    },
    {
      "id": 6,
      "imageId": 6,
      "cred": 25,
      "flags": 1,
      "label": "Oni Hanzo",
      "description": "Completed Mission 006 on any difficulty.",
      "howto": "Complete Mission 006 on any difficulty."
    },
    {
      "id": 7,
      "imageId": 7,
      "cred": 25,
      "flags": 1,
      "label": "Déjà Vu",
      "description": "Completed Mission 007 on any difficulty.",
      "howto": "Complete Mission 007 on any difficulty."
    },
    {
      "id": 8,
      "imageId": 8,
      "cred": 25,
      "flags": 1,
      "label": "Prepare for Glory",
      "description": "Completed Mission 008 on any difficulty.",
      "howto": "Complete Mission 008 on any difficulty."
    },
    {
      "id": 9,
      "imageId": 9,
      "cred": 25,
      "flags": 1,
      "label": "Pass the Torch",
      "description": "Completed Mission 009 on any difficulty.",
      "howto": "Complete Mission 009 on any difficulty."
    },
    {
      "id": 10,
      "imageId": 10,
      "cred": 40,
      "flags": 1,
      "label": "Good Job",
      "description": "Completed all missions on Normal or higher game difficulty.",
      "howto": "Complete all missions on Normal or higher game difficulty."
    },
    {
      "id": 11,
      "imageId": 11,
      "cred": 10,
      "flags": 1,
      "label": "It Slices! It Dices! ",
      "description": "Upgraded a sword.",
      "howto": "Upgrade a sword."
    },
    {
      "id": 12,
      "imageId": 12,
      "cred": 10,
      "flags": 1,
      "label": "Enter the Way of the Ninja",
      "description": "Upgraded Ninjutsu.",
      "howto": "Upgrade Ninjutsu."
    },
    {
      "id": 13,
      "imageId": 13,
      "cred": 10,
      "flags": 1,
      "label": "How Ya Like Me Now?!",
      "description": "Completed a Todomé attack.",
      "howto": "Complete a Todomé attack."
    },
    {
      "id": 14,
      "imageId": 14,
      "cred": 10,
      "flags": 1,
      "label": "Yes, I Am That Good.",
      "description": "Achieved a 10 Hit Combo.",
      "howto": "Achieve a 10 Hit Combo."
    },
    {
      "id": 15,
      "imageId": 15,
      "cred": 10,
      "flags": 1,
      "label": "Not Too Shabby",
      "description": "Achieved a 3 Kill Combo.",
      "howto": "Achieve a 3 Kill Combo."
    },
    {
      "id": 16,
      "imageId": 16,
      "cred": 10,
      "flags": 1,
      "label": "Let Off Some Steam",
      "description": "Used the Cyclone Shuriken to put out a fire.",
      "howto": "Use the Cyclone Shuriken to put out a fire."
    },
    {
      "id": 17,
      "imageId": 17,
      "cred": 10,
      "flags": 1,
      "label": "Burn, Baby, Burn",
      "description": "Used the Flame Shuriken to set an enemy on fire.",
      "howto": "Use the Flame Shuriken to set an enemy on fire."
    },
    {
      "id": 18,
      "imageId": 18,
      "cred": 10,
      "flags": 1,
      "label": "Lightning Strikes Twice",
      "description": "Used the Lightning Shuriken to charge the surface of water and shock an enemy.",
      "howto": "Use the Lightning Shuriken to charge the surface of water and shock an enemy."
    },
    {
      "id": 19,
      "imageId": 19,
      "cred": 10,
      "flags": 1,
      "label": "I'm Rubber and You're Glue",
      "description": "Deflected an enemy's projectile.",
      "howto": "Deflect an enemy's projectile."
    },
    {
      "id": 20,
      "imageId": 20,
      "cred": 10,
      "flags": 1,
      "label": "Nothing Left But the Dying",
      "description": "Completed a Finish Attack.",
      "howto": "Complete a Finish Attack."
    },
    {
      "id": 21,
      "imageId": 21,
      "cred": 10,
      "flags": 1,
      "label": "Chewy on the Inside",
      "description": "Destroyed a piece of armor.",
      "howto": "Destroy a piece of armor."
    },
    {
      "id": 22,
      "imageId": 22,
      "cred": 10,
      "flags": 1,
      "label": "Gotta Get Them All",
      "description": "Found a Shinobi Moji.",
      "howto": "Find a Shinobi Moji."
    },
    {
      "id": 23,
      "imageId": 23,
      "cred": 10,
      "flags": 1,
      "label": "Sharp Dressed Man",
      "description": "Found an outfit.",
      "howto": "Find an outfit."
    },
    {
      "id": 24,
      "imageId": 24,
      "cred": 10,
      "flags": 1,
      "label": "Bling or Flair?",
      "description": "Found an emblem.",
      "howto": "Find an emblem."
    },
    {
      "id": 25,
      "imageId": 25,
      "cred": 20,
      "flags": 1,
      "label": "Hattori Hanzo Achievement Award",
      "description": "Upgrade all swords to their maximum level.",
      "howto": "Upgraded all swords to their maximum level."
    },
    {
      "id": 26,
      "imageId": 26,
      "cred": 20,
      "flags": 1,
      "label": "Snatch the Pebble",
      "description": "Upgrade all Ninjutsu to their maximum level.",
      "howto": "Upgraded all Ninjutsu to their maximum level."
    },
    {
      "id": 27,
      "imageId": 27,
      "cred": 30,
      "flags": 1,
      "label": "I Think I'll Go for a Walk",
      "description": "Maxed out the Health Gauge.",
      "howto": "Max out the Health Gauge.」"
    },
    {
      "id": 28,
      "imageId": 28,
      "cred": 30,
      "flags": 1,
      "label": "\"Feel it flow through you.\"",
      "description": "Maxed out the Chi Gauge.",
      "howto": "Max out the Chi Gauge."
    },
    {
      "id": 29,
      "imageId": 29,
      "cred": 15,
      "flags": 1,
      "label": "Almost There",
      "description": "Found 50% of the Shinobi Moji.",
      "howto": "Find 50% of the Shinobi Moji."
    },
    {
      "id": 30,
      "imageId": 30,
      "cred": 30,
      "flags": 1,
      "label": "Complete Set",
      "description": "Found all the Shinobi Moji.",
      "howto": "Find all the Shinobi Moji."
    },
    {
      "id": 31,
      "imageId": 31,
      "cred": 30,
      "flags": 1,
      "label": "Walk-in Closet",
      "description": "Collected all the outfits.",
      "howto": "Collect all the outfits."
    },
    {
      "id": 32,
      "imageId": 32,
      "cred": 30,
      "flags": 1,
      "label": "Brings Out Your Eyes",
      "description": "Collected all the emblems.",
      "howto": "Collect all emblems."
    },
    {
      "id": 33,
      "imageId": 33,
      "cred": 15,
      "flags": 1,
      "label": "Ya Can't Touch This",
      "description": "Deflected 20 projectiles.",
      "howto": "Deflect 20 projectiles."
    },
    {
      "id": 34,
      "imageId": 34,
      "cred": 15,
      "flags": 1,
      "label": "One with the Blade",
      "description": "Killed 25 enemies with the Finish Attack move.",
      "howto": "Kill 25 enemies with the Finish Attack move."
    },
    {
      "id": 35,
      "imageId": 35,
      "cred": 15,
      "flags": 1,
      "label": "Mission.001: Speed Demon",
      "description": "Completed Mission 001 within 30 minutes.",
      "howto": "Complete Mission 001 within 30 minutes."
    },
    {
      "id": 36,
      "imageId": 36,
      "cred": 15,
      "flags": 1,
      "label": "Mission.002: Master of Style",
      "description": "Completed Mission 002 with more than 20 Finish Attacks.",
      "howto": "Complete Mission 002 with more than 20 Finish Attacks."
    },
    {
      "id": 37,
      "imageId": 37,
      "cred": 15,
      "flags": 1,
      "label": "Mission.003: Hit Combo Fever",
      "description": "Completed Mission 003 with a Max Hit Combo above 30.",
      "howto": "Complete Mission 003 with a Max Hit Combo above 30."
    },
    {
      "id": 38,
      "imageId": 38,
      "cred": 15,
      "flags": 1,
      "label": "Mission.004: Ninja Sky Marshall ",
      "description": "Completed Mission 004 with less than 30% jet plane damage.",
      "howto": "Complete Mission 004 with less than 30% jet plane damage."
    },
    {
      "id": 39,
      "imageId": 39,
      "cred": 15,
      "flags": 1,
      "label": "Mission.005: Nick of Time",
      "description": "Completed Mission 005 within 40 minutes.",
      "howto": "Complete Mission 005 within 40 minutes."
    },
    {
      "id": 40,
      "imageId": 40,
      "cred": 15,
      "flags": 1,
      "label": "Mission.006: You Want Some?",
      "description": "Completed Mission 006 with a Max Kill Combo above 10.",
      "howto": "Complete Mission 006 with a Max Kill Combo above 10."
    },
    {
      "id": 41,
      "imageId": 41,
      "cred": 15,
      "flags": 1,
      "label": "Mission.007: Back in a Flash",
      "description": "Completed Mission 007 within 50 minutes.",
      "howto": "Complete Mission 007 within 50 minutes."
    },
    {
      "id": 42,
      "imageId": 42,
      "cred": 15,
      "flags": 1,
      "label": "Mission.008: Only a Flesh Wound",
      "description": "Completed Mission 008 without taking 1000 points of damage.",
      "howto": "Complete Mission 008 without taking 1000 points of damage."
    },
    {
      "id": 43,
      "imageId": 43,
      "cred": 15,
      "flags": 1,
      "label": "Mission.009: That Just Happened!",
      "description": "Completed Mission 009 without retrying.",
      "howto": "Complete Mission 009 without retrying."
    },
    {
      "id": 44,
      "imageId": 44,
      "cred": 75,
      "flags": 1,
      "label": "Ninja School Valedictorian",
      "description": "Achieved a Total Play Result A+ ranking.",
      "howto": "Achieve a Total Play Result A+ ranking."
    },
    {
      "id": 45,
      "imageId": 45,
      "cred": 50,
      "flags": 1,
      "label": "Musashi's Way",
      "description": "Completed all missions on Hard or higher game difficulty.",
      "howto": "Complete all missions on Hard or higher game difficulty."
    },
    {
      "id": 46,
      "imageId": 46,
      "cred": 20,
      "flags": 1,
      "label": "Your Work Is Done",
      "description": "Completed all missions without retrying.",
      "howto": "Complete all missions without retrying."
    },
    {
      "id": 47,
      "imageId": 47,
      "cred": 20,
      "flags": 1,
      "label": "A Perfect 10",
      "description": "Achieved 10 \"Perfect\" button presses in a row during a Quick Time Event.",
      "howto": "Achieve 10 \"Perfect\" button presses in a row during a Quick Time Event."
    },
    {
      "id": 48,
      "imageId": 48,
      "cred": 20,
      "flags": 1,
      "label": "\"...And that's all I need.\"",
      "description": "Completed all missions using only one of the swords to attack.",
      "howto": "Complete all missions using only one of the swords to attack."
    },
    {
      "id": 49,
      "imageId": 49,
      "cred": 20,
      "flags": 1,
      "label": "Showboat",
      "description": "Achieved a 100 Hit Combo.",
      "howto": "Achieve a 100 Hit Combo."
    },
    {
      "id": 50,
      "imageId": 50,
      "cred": 20,
      "flags": 1,
      "label": "Show-off",
      "description": "Achieved a 50 Kill Combo.",
      "howto": "Achieve a 50 Kill Combo."
    }
  ]
}