{
  "achievementsPossible": 50,
  "credPossible": 1000,
  "achievements": [
    {
      "id": 2,
      "imageId": 32768,
      "cred": 25,
      "flags": 4,
      "label": "要石破壊のイベントを見た",
      "description": "要石破壊のイベントを見た",
      "howto": ""
    },
    {
      "id": 3,
      "imageId": 32768,
      "cred": 25,
      "flags": 4,
      "label": "強門を倒した",
      "description": "強門を倒した",
      "howto": ""
    },
    {
      "id": 4,
      "imageId": 32768,
      "cred": 12,
      "flags": 4,
      "label": "稲荷女とのバトル終了",
      "description": "稲荷女とのバトル終了",
      "howto": ""
    },
    {
      "id": 5,
      "imageId": 32768,
      "cred": 13,
      "flags": 4,
      "label": "玉藻姫を倒した",
      "description": "玉藻姫を倒した",
      "howto": ""
    },
    {
      "id": 6,
      "imageId": 32768,
      "cred": 12,
      "flags": 4,
      "label": "白河城の絵図面を入手",
      "description": "白河城の絵図面を入手",
      "howto": ""
    },
    {
      "id": 7,
      "imageId": 32768,
      "cred": 13,
      "flags": 4,
      "label": "キュウビを倒した",
      "description": "キュウビを倒した",
      "howto": ""
    },
    {
      "id": 8,
      "imageId": 32768,
      "cred": 16,
      "flags": 4,
      "label": "江戸城での密会のイベントを見た",
      "description": "江戸城での密会のイベントを見た",
      "howto": ""
    },
    {
      "id": 9,
      "imageId": 32768,
      "cred": 18,
      "flags": 4,
      "label": "綱手との出会いのイベントを見た",
      "description": "綱手との出会いのイベントを見た",
      "howto": ""
    },
    {
      "id": 10,
      "imageId": 32768,
      "cred": 16,
      "flags": 4,
      "label": "コウモリ夜太とのバトル終了",
      "description": "コウモリ夜太とのバトル終了",
      "howto": ""
    },
    {
      "id": 11,
      "imageId": 32768,
      "cred": 16,
      "flags": 4,
      "label": "鬼道仙（多賀城）を倒した",
      "description": "鬼道仙（多賀城）を倒した",
      "howto": ""
    },
    {
      "id": 12,
      "imageId": 32768,
      "cred": 18,
      "flags": 4,
      "label": "弾正（米沢城）を倒した",
      "description": "弾正（米沢城）を倒した",
      "howto": ""
    },
    {
      "id": 13,
      "imageId": 32768,
      "cred": 16,
      "flags": 4,
      "label": "ハーメルンを倒した",
      "description": "ハーメルンを倒した",
      "howto": ""
    },
    {
      "id": 14,
      "imageId": 32768,
      "cred": 10,
      "flags": 4,
      "label": "キングワームを倒した",
      "description": "キングワームを倒した",
      "howto": ""
    },
    {
      "id": 15,
      "imageId": 32768,
      "cred": 10,
      "flags": 4,
      "label": "マントー１を倒した",
      "description": "マントー１を倒した",
      "howto": ""
    },
    {
      "id": 16,
      "imageId": 32768,
      "cred": 10,
      "flags": 4,
      "label": "カーメンカーメンを倒した",
      "description": "カーメンカーメンを倒した",
      "howto": ""
    },
    {
      "id": 17,
      "imageId": 32768,
      "cred": 10,
      "flags": 4,
      "label": "カーメンカーメン（変身）を倒した",
      "description": "カーメンカーメン（変身）を倒した",
      "howto": ""
    },
    {
      "id": 18,
      "imageId": 32768,
      "cred": 10,
      "flags": 4,
      "label": "マントー２を倒した",
      "description": "マントー２を倒した",
      "howto": ""
    },
    {
      "id": 19,
      "imageId": 32768,
      "cred": 25,
      "flags": 4,
      "label": "ヌエを倒した",
      "description": "ヌエを倒した",
      "howto": ""
    },
    {
      "id": 20,
      "imageId": 32768,
      "cred": 25,
      "flags": 4,
      "label": "ドーマンを倒した",
      "description": "ドーマンを倒した",
      "howto": ""
    },
    {
      "id": 21,
      "imageId": 32768,
      "cred": 12,
      "flags": 4,
      "label": "糸姫を倒した",
      "description": "糸姫を倒した",
      "howto": ""
    },
    {
      "id": 22,
      "imageId": 32768,
      "cred": 13,
      "flags": 4,
      "label": "アラクネーを倒した",
      "description": "アラクネーを倒した",
      "howto": ""
    },
    {
      "id": 23,
      "imageId": 32768,
      "cred": 12,
      "flags": 4,
      "label": "南蛮屋を倒した",
      "description": "南蛮屋を倒した",
      "howto": ""
    },
    {
      "id": 24,
      "imageId": 32768,
      "cred": 13,
      "flags": 4,
      "label": "ゴーヨックを倒した",
      "description": "ゴーヨックを倒した",
      "howto": ""
    },
    {
      "id": 25,
      "imageId": 32768,
      "cred": 16,
      "flags": 4,
      "label": "カラクリ兵（小田原城）を倒した",
      "description": "カラクリ兵（小田原城）を倒した",
      "howto": ""
    },
    {
      "id": 26,
      "imageId": 32768,
      "cred": 18,
      "flags": 4,
      "label": "カーミラを倒した",
      "description": "カーミラを倒した",
      "howto": ""
    },
    {
      "id": 27,
      "imageId": 32768,
      "cred": 16,
      "flags": 4,
      "label": "獄門島に送られた",
      "description": "獄門島に送られた",
      "howto": ""
    },
    {
      "id": 28,
      "imageId": 32768,
      "cred": 12,
      "flags": 4,
      "label": "土偶ロボを手に入れた",
      "description": "土偶ロボを手に入れた",
      "howto": ""
    },
    {
      "id": 29,
      "imageId": 32768,
      "cred": 13,
      "flags": 4,
      "label": "ムテキオーを倒した",
      "description": "ムテキオーを倒した",
      "howto": ""
    },
    {
      "id": 30,
      "imageId": 32768,
      "cred": 12,
      "flags": 4,
      "label": "水王丸を倒した",
      "description": "水王丸を倒した",
      "howto": ""
    },
    {
      "id": 31,
      "imageId": 32768,
      "cred": 13,
      "flags": 4,
      "label": "クラーケンを倒した",
      "description": "クラーケンを倒した",
      "howto": ""
    },
    {
      "id": 32,
      "imageId": 32768,
      "cred": 4,
      "flags": 4,
      "label": "土偶ロボ（前橋町）を倒した",
      "description": "土偶ロボ（前橋町）を倒した",
      "howto": ""
    },
    {
      "id": 33,
      "imageId": 32768,
      "cred": 4,
      "flags": 4,
      "label": "泥黒鬼を倒した",
      "description": "泥黒鬼を倒した",
      "howto": ""
    },
    {
      "id": 34,
      "imageId": 32768,
      "cred": 4,
      "flags": 4,
      "label": "暗鉄鬼を倒した",
      "description": "暗鉄鬼を倒した",
      "howto": ""
    },
    {
      "id": 35,
      "imageId": 32768,
      "cred": 4,
      "flags": 4,
      "label": "銀老鬼を倒した",
      "description": "銀老鬼を倒した",
      "howto": ""
    },
    {
      "id": 36,
      "imageId": 32768,
      "cred": 4,
      "flags": 4,
      "label": "金剛鬼を倒した",
      "description": "金剛鬼を倒した",
      "howto": ""
    },
    {
      "id": 37,
      "imageId": 32768,
      "cred": 4,
      "flags": 4,
      "label": "幻王丸を倒した",
      "description": "幻王丸を倒した",
      "howto": ""
    },
    {
      "id": 38,
      "imageId": 32768,
      "cred": 4,
      "flags": 4,
      "label": "ベリエルを倒した",
      "description": "ベリエルを倒した",
      "howto": ""
    },
    {
      "id": 39,
      "imageId": 32768,
      "cred": 5,
      "flags": 4,
      "label": "ビッグアイを倒した",
      "description": "ビッグアイを倒した",
      "howto": ""
    },
    {
      "id": 40,
      "imageId": 32768,
      "cred": 4,
      "flags": 4,
      "label": "邪神斎を倒した",
      "description": "邪神斎を倒した",
      "howto": ""
    },
    {
      "id": 41,
      "imageId": 32768,
      "cred": 4,
      "flags": 4,
      "label": "マサカドの霊を倒した",
      "description": "マサカドの霊を倒した",
      "howto": ""
    },
    {
      "id": 42,
      "imageId": 32768,
      "cred": 4,
      "flags": 4,
      "label": "バールダイモンの目を倒した",
      "description": "バールダイモンの目を倒した",
      "howto": ""
    },
    {
      "id": 43,
      "imageId": 32768,
      "cred": 5,
      "flags": 4,
      "label": "バールダイモンを倒した",
      "description": "バールダイモンを倒した",
      "howto": ""
    },
    {
      "id": 97,
      "imageId": 32768,
      "cred": 50,
      "flags": 1,
      "label": "戦神の紋章を入手した",
      "description": "戦神の紋章を入手した",
      "howto": ""
    },
    {
      "id": 98,
      "imageId": 32768,
      "cred": 50,
      "flags": 1,
      "label": "闘神の紋章を入手した",
      "description": "闘神の紋章を入手した",
      "howto": ""
    },
    {
      "id": 99,
      "imageId": 32768,
      "cred": 50,
      "flags": 1,
      "label": "鬼神の紋章を入手した",
      "description": "鬼神の紋章を入手した",
      "howto": ""
    },
    {
      "id": 100,
      "imageId": 32768,
      "cred": 25,
      "flags": 1,
      "label": "全ての巻物を入手した",
      "description": "全ての巻物を入手した",
      "howto": ""
    },
    {
      "id": 101,
      "imageId": 32768,
      "cred": 25,
      "flags": 1,
      "label": "全ての奥義を習得した",
      "description": "全ての奥義を習得した",
      "howto": ""
    },
    {
      "id": 102,
      "imageId": 32768,
      "cred": 50,
      "flags": 1,
      "label": "全ての連携技を習得した",
      "description": "全ての連携技を習得した",
      "howto": ""
    },
    {
      "id": 103,
      "imageId": 32768,
      "cred": 100,
      "flags": 1,
      "label": "全てのアイテムを入手した",
      "description": "全てのアイテムを入手した",
      "howto": ""
    },
    {
      "id": 104,
      "imageId": 32768,
      "cred": 150,
      "flags": 1,
      "label": "闇闘鬼会ランキングで入賞した",
      "description": "闇闘鬼会ランキングで入賞した",
      "howto": ""
    }
  ]
}