{
  "achievementsPossible": 42,
  "credPossible": 1000,
  "achievements": [
    {
      "id": 4,
      "imageId": 34,
      "cred": 20,
      "flags": 6,
      "label": "High Roller",
      "description": "Completed all story missions in Las Paradiso.",
      "howto": "Complete all story missions in Las Paradiso."
    },
    {
      "id": 5,
      "imageId": 19,
      "cred": 20,
      "flags": 4,
      "label": "Destroy All Humans!",
      "description": "Destroyed 1,979 Humans.",
      "howto": "Destroy 1,979 Humans."
    },
    {
      "id": 6,
      "imageId": 3,
      "cred": 20,
      "flags": 6,
      "label": "A-Lister",
      "description": "Completed all story missions in Sunnywood.",
      "howto": "Complete all story missions in Sunnywood."
    },
    {
      "id": 9,
      "imageId": 59,
      "cred": 25,
      "flags": 6,
      "label": "Zen Master",
      "description": "Completed all Missions in Shen Long.",
      "howto": "Complete all story missions in Shen Long."
    },
    {
      "id": 10,
      "imageId": 9,
      "cred": 30,
      "flags": 6,
      "label": "Big Fromage",
      "description": "Completed all story missions in Belleville.",
      "howto": "Complete all story missions in Belleville."
    },
    {
      "id": 11,
      "imageId": 29,
      "cred": 35,
      "flags": 1,
      "label": "Furon Commander",
      "description": "Completed all story missions on the 4th Ring of Furon.",
      "howto": "Complete all story missions on the 4th Ring of Furon."
    },
    {
      "id": 20,
      "imageId": 45,
      "cred": 20,
      "flags": 1,
      "label": "Pox's Apprentice",
      "description": "Completed half of the Odd Jobs in the game.",
      "howto": "Complete half of the Odd Jobs in the game."
    },
    {
      "id": 27,
      "imageId": 21,
      "cred": 40,
      "flags": 1,
      "label": "The Emperor's Agent",
      "description": "Completed all odd jobs in the game.",
      "howto": "Complete all odd jobs in the game."
    },
    {
      "id": 29,
      "imageId": 49,
      "cred": 30,
      "flags": 1,
      "label": "Sacred Son of Arkvoodle",
      "description": "Activated all of the Landing Zones in each Invasion Site.",
      "howto": "Activate all of the landing zones in every invasion site."
    },
    {
      "id": 30,
      "imageId": 4,
      "cred": 90,
      "flags": 1,
      "label": "Apocalypse Right Now",
      "description": "Completed all Missions, Odd Jobs, Challenges, and unlocked all Landing Zones.",
      "howto": "Complete all Missions, Odd Jobs, Challenges, and unlock all Landing Zones."
    },
    {
      "id": 31,
      "imageId": 11,
      "cred": 20,
      "flags": 4,
      "label": "Biologist",
      "description": "Collected 10000 Furon DNA.",
      "howto": "Collect 10000 Furon DNA."
    },
    {
      "id": 32,
      "imageId": 10,
      "cred": 25,
      "flags": 4,
      "label": "Biochemist",
      "description": "Collected 1000000 Furon DNA.",
      "howto": "Collect 1000000 Furon DNA."
    },
    {
      "id": 42,
      "imageId": 13,
      "cred": 30,
      "flags": 4,
      "label": "Brain Surgeon",
      "description": "Collected 5000000 Furon DNA.",
      "howto": "Collect 5000000 Furon DNA."
    },
    {
      "id": 44,
      "imageId": 52,
      "cred": 20,
      "flags": 4,
      "label": "Sleeps with the Fishes",
      "description": "Destroyed 15 Mobsters in Las Paradiso.",
      "howto": "Destroy 15 Mobsters in Las Paradiso."
    },
    {
      "id": 45,
      "imageId": 57,
      "cred": 20,
      "flags": 4,
      "label": "THQ 1138",
      "description": "Destroyed 15 Lunarian Thugs in Sunnywood.",
      "howto": "Destroy 15 Lunarian Thugs in Sunnywood."
    },
    {
      "id": 46,
      "imageId": 23,
      "cred": 20,
      "flags": 4,
      "label": "Fist of Furon",
      "description": "Destroyed 15 Triads in Shen Long.",
      "howto": "Destroy 15 Triads in Shen Long."
    },
    {
      "id": 47,
      "imageId": 55,
      "cred": 25,
      "flags": 4,
      "label": "The Francodyne Connection",
      "description": "Destroyed 15 Francodyne Guards.",
      "howto": "Destroy 15 Francodyne Guards."
    },
    {
      "id": 48,
      "imageId": 48,
      "cred": 35,
      "flags": 4,
      "label": "Red Scare",
      "description": "Destroyed 25 Red Nexosporidium Warriors on the 4th Ring of Furon.",
      "howto": "Destroy 25 Red Nexosporidium Warriors on the 4th Ring of Furon."
    },
    {
      "id": 49,
      "imageId": 38,
      "cred": 20,
      "flags": 4,
      "label": "Massive Damage",
      "description": "Trashed 500 vehicles.",
      "howto": "Trash 500 vehicles."
    },
    {
      "id": 50,
      "imageId": 43,
      "cred": 20,
      "flags": 4,
      "label": "Paradiso Pursuer",
      "description": "Found all the Furon Crash Test Dummies in Las Paradiso.",
      "howto": "Find all the Furon Crash Test Dummies in Las Paradiso."
    },
    {
      "id": 51,
      "imageId": 54,
      "cred": 20,
      "flags": 4,
      "label": "Sunnywood Seeker",
      "description": "Found all the Furon Emperor Statues in Sunnywood.",
      "howto": "Find all the Furon Emperor Statues in Sunnywood"
    },
    {
      "id": 52,
      "imageId": 50,
      "cred": 20,
      "flags": 4,
      "label": "Shen Long Scout",
      "description": "Found all of Pox's Record Collection in Shen Long.",
      "howto": "Find all of Pox's Record Collection in Shen Long."
    },
    {
      "id": 53,
      "imageId": 8,
      "cred": 20,
      "flags": 4,
      "label": "Belleville Beneficiary",
      "description": "Found all the Furon Nails in Belleville.",
      "howto": "Find all the Furon Nails in Belleville."
    },
    {
      "id": 54,
      "imageId": 30,
      "cred": 20,
      "flags": 4,
      "label": "Furon Factfinder",
      "description": "Found all the Lava Lamps on the 4th Ring of Furon.",
      "howto": "Find all the Lava Lamps on the 4th Ring of Furon."
    },
    {
      "id": 55,
      "imageId": 22,
      "cred": 20,
      "flags": 4,
      "label": "Fist Master",
      "description": "Used the Temporal Fist 75 times.",
      "howto": "Use the Temporal Fist 75 times."
    },
    {
      "id": 57,
      "imageId": 14,
      "cred": 20,
      "flags": 4,
      "label": "Carnie",
      "description": "Beat the Furon Librarian's high score in all of the Humania Games.",
      "howto": "Beat the Furon Librarian's high score in all of the Humania Games."
    },
    {
      "id": 58,
      "imageId": 51,
      "cred": 20,
      "flags": 4,
      "label": "Shock Trooper",
      "description": "Shocked 100 humans with the Zap-O-Matic.",
      "howto": "Shock 100 humans with the Zap-O-Matic."
    },
    {
      "id": 60,
      "imageId": 46,
      "cred": 20,
      "flags": 4,
      "label": "Proctologist",
      "description": "Probed 100 humans with the Anal Probe.",
      "howto": "Probe 100 humans with the Anal Probe."
    },
    {
      "id": 63,
      "imageId": 35,
      "cred": 20,
      "flags": 4,
      "label": "Horticulturist",
      "description": "Fed 100 humans to the Venus Human Trap.",
      "howto": "Feed 100 humans to the Venus Human Trap."
    },
    {
      "id": 65,
      "imageId": 27,
      "cred": 20,
      "flags": 4,
      "label": "Furoball Dribbler",
      "description": "Bounced 100 humans with the Superballer.",
      "howto": "Bounce 100 humans with the Superballer."
    },
    {
      "id": 66,
      "imageId": 32,
      "cred": 20,
      "flags": 4,
      "label": "Furon in the Sky",
      "description": "Liquified 100 buildings with the Death Ray.",
      "howto": "Liquify 100 buildings with the Death Ray."
    },
    {
      "id": 67,
      "imageId": 24,
      "cred": 20,
      "flags": 4,
      "label": "Flyswatter",
      "description": "Took down 100 airborne enemies with the Seeker Drones.",
      "howto": "Take down 100 airborne enemies with the Seeker Drones."
    },
    {
      "id": 69,
      "imageId": 16,
      "cred": 25,
      "flags": 4,
      "label": "DAHM Master",
      "description": "Found all 8 DAHMs.",
      "howto": "Find all 8 DAHMs."
    },
    {
      "id": 70,
      "imageId": 47,
      "cred": 10,
      "flags": 4,
      "label": "Pro-Pain",
      "description": "Las Paradiso - Shot a Propane tank cluster to blow up a building.",
      "howto": "Las Paradiso - Shoot a Propane tank cluster to blow up a building."
    },
    {
      "id": 72,
      "imageId": 56,
      "cred": 10,
      "flags": 4,
      "label": "The 'Wood",
      "description": "Sunnywood - Destroyed \"SUNNY\" on the Sunnywood sign .",
      "howto": "Sunnywood - Destroy \"SUNNY\" on the Sunnywood sign ."
    },
    {
      "id": 73,
      "imageId": 33,
      "cred": 10,
      "flags": 4,
      "label": "Globeclotter",
      "description": "Sunnywood - Destroyed several humans within 3 seconds with the globe.",
      "howto": "Sunnywood - Destroy several humans within 3 seconds with the globe."
    },
    {
      "id": 75,
      "imageId": 20,
      "cred": 10,
      "flags": 4,
      "label": "Donut Holed",
      "description": "Sunnywood - Threw a civilian through the donut hole.",
      "howto": "Sunnywood - Throw a civilian through the donut hole."
    },
    {
      "id": 76,
      "imageId": 17,
      "cred": 10,
      "flags": 4,
      "label": "Definitely Not in Kansas",
      "description": "Shen Long - Unleashed the Tornadotron to throw tons of shipyard crates in the air.",
      "howto": "Shen Long - Unleash the Tornadotron to throw tons of shipyard crates in the air."
    },
    {
      "id": 77,
      "imageId": 40,
      "cred": 10,
      "flags": 4,
      "label": "Monkish Bowling",
      "description": "Shen Long - Used the bowling ball to bowl over at least 3 monks with a single throw.",
      "howto": "Shen Long - Use the bowling ball to bowl over at least 3 monks with a single throw."
    },
    {
      "id": 78,
      "imageId": 7,
      "cred": 10,
      "flags": 4,
      "label": "Barge Boomer",
      "description": "Belleville - Destroyed the barges.",
      "howto": "Belleville - Destroy the barges."
    },
    {
      "id": 79,
      "imageId": 5,
      "cred": 10,
      "flags": 4,
      "label": "Arc de Umph",
      "description": "Belleville - Threw a human above the Arc.",
      "howto": "Belleville - Throw a human above the Arc."
    },
    {
      "id": 88,
      "imageId": 1,
      "cred": 90,
      "flags": 1,
      "label": "Crypto Sutra",
      "description": "Completed all Paths of Enlightenment.",
      "howto": "Complete all Paths of Enlightenment."
    }
  ]
}