{
  "achievementsPossible": 45,
  "credPossible": 1000,
  "achievements": [
    {
      "id": 1,
      "imageId": 1,
      "cred": 5,
      "flags": 7,
      "label": "Back to business",
      "description": "You support the local weapon trade. That's... well, nice of you.",
      "howto": "Trade an item"
    },
    {
      "id": 2,
      "imageId": 17,
      "cred": 10,
      "flags": 6,
      "label": "King of the arena",
      "description": "You fought like a lion and ended up victorious in the Row.",
      "howto": "Survive the Row"
    },
    {
      "id": 3,
      "imageId": 41,
      "cred": 15,
      "flags": 6,
      "label": "Nobody's perfect",
      "description": "The Imperial officer in the Monastery seemed to be of good faith. Just to be safe, you offed him.",
      "howto": "Kill the Imperial officer in the Monastery"
    },
    {
      "id": 4,
      "imageId": 21,
      "cred": 50,
      "flags": 1,
      "label": "Warrior",
      "description": "You have valiantly dealt with all the trials in Of Orcs and Men",
      "howto": "Finish Of Orcs and Men at Hard level"
    },
    {
      "id": 5,
      "imageId": 27,
      "cred": 30,
      "flags": 4,
      "label": "I'm a killer",
      "description": "You slit 47 throats and they never saw it coming. So you dig?",
      "howto": "Assassinate 47 enemies"
    },
    {
      "id": 6,
      "imageId": 28,
      "cred": 30,
      "flags": 4,
      "label": "You crack me up",
      "description": "You have a delicate tendency to break the bones of people who get in your way, so congratulations.",
      "howto": "Break 15 spinal columns while Berserk"
    },
    {
      "id": 7,
      "imageId": 23,
      "cred": 75,
      "flags": 4,
      "label": "Big chest lover",
      "description": "So you went digging around in every corner to find at least twenty chests to empty, huh?",
      "howto": "Find and empty 20 chests"
    },
    {
      "id": 8,
      "imageId": 24,
      "cred": 30,
      "flags": 4,
      "label": "Jack of all blades",
      "description": "You hit eight enemies with a single blow. Huh, not bad.",
      "howto": "Hit eight enemies with a single attack"
    },
    {
      "id": 9,
      "imageId": 29,
      "cred": 15,
      "flags": 4,
      "label": "Guidance counselor",
      "description": "You were able to find the best people for your squad for the assault on the Pillar.",
      "howto": "Put together the best squad possible to assault the Pillar "
    },
    {
      "id": 10,
      "imageId": 2,
      "cred": 5,
      "flags": 7,
      "label": "Smart and smarter",
      "description": "You chose to improve one of your Skills before you learned another one. Kudos for that.",
      "howto": "Upgrade a Skill"
    },
    {
      "id": 11,
      "imageId": 3,
      "cred": 10,
      "flags": 7,
      "label": "Poisoner",
      "description": "You don't like wasting perfectly good poison, so you cleaned your blade off on 3 different enemies.",
      "howto": "Poison three different enemies at the same time"
    },
    {
      "id": 12,
      "imageId": 4,
      "cred": 15,
      "flags": 7,
      "label": "Go bling-bling",
      "description": "You only wear upgraded equipment. It's a matter of reputation.",
      "howto": "Equip a full set of upgraded equipment (weapons and armor)"
    },
    {
      "id": 13,
      "imageId": 5,
      "cred": 5,
      "flags": 7,
      "label": "I know a shortcut",
      "description": "The good thing with shortcuts is that they are faster. It would seem you got that right.",
      "howto": "Bind Skills to both of each character's shortcut keys"
    },
    {
      "id": 14,
      "imageId": 32,
      "cred": 15,
      "flags": 6,
      "label": "Deratizator",
      "description": "You cut short the Goblin invasion in the shantytown. Pretty violently.",
      "howto": "Deal with the Scourge issue in the shantytown"
    },
    {
      "id": 15,
      "imageId": 34,
      "cred": 15,
      "flags": 6,
      "label": "A hair too late",
      "description": "You pulled your girlfriend Brune out of trouble. She owes you a massage for that.",
      "howto": "Save a brunette in distress"
    },
    {
      "id": 16,
      "imageId": 33,
      "cred": 15,
      "flags": 6,
      "label": "Well trained",
      "description": "You got even with the Trainer. And he got dead.",
      "howto": "Kill Dorek the Trainer"
    },
    {
      "id": 17,
      "imageId": 35,
      "cred": 15,
      "flags": 6,
      "label": "One less nutcase",
      "description": "You avenged your friend and killed the mad Shaman. He'll guide the dead himself. ",
      "howto": "Put an end to the madness of the Shaman of the Bowels"
    },
    {
      "id": 18,
      "imageId": 31,
      "cred": 15,
      "flags": 6,
      "label": "Hand shake",
      "description": "You showed those Black Hands who's the boss.",
      "howto": "Win the Black Hand challenge"
    },
    {
      "id": 19,
      "imageId": 6,
      "cred": 50,
      "flags": 6,
      "label": "Off the Wall",
      "description": "You finally got past that damn Wall ! Well done !",
      "howto": "Complete Chapter 1 on any difficulty setting"
    },
    {
      "id": 20,
      "imageId": 36,
      "cred": 15,
      "flags": 6,
      "label": "Class struggle",
      "description": "You avoided a miners' revolt. Thanks to you, they will be able to die for a nobler cause.",
      "howto": "Prevent a miners' revolt in the Mire"
    },
    {
      "id": 21,
      "imageId": 37,
      "cred": 15,
      "flags": 6,
      "label": "Throat-slitter",
      "description": "You sent Styx to introduce his daggers to the sentinels of the Mire. He thanks you.",
      "howto": "Let Styx take out the Imperial sentinels of the Mire on his own"
    },
    {
      "id": 22,
      "imageId": 43,
      "cred": 5,
      "flags": 6,
      "label": "I don't like chit-chat",
      "description": "You didn't feel like letting Gorkash bore you with his bull, so you cut him off.",
      "howto": "Kill Gorkash the head Foreman without further ado"
    },
    {
      "id": 23,
      "imageId": 38,
      "cred": 15,
      "flags": 6,
      "label": "No quarter",
      "description": "You have imposed your authority by taking out all opposing Orcs. An age-old method that still works.",
      "howto": "Kill all the dug-in foremen and guards"
    },
    {
      "id": 24,
      "imageId": 42,
      "cred": 15,
      "flags": 6,
      "label": "Samaritan",
      "description": "In a spirit of forgiveness as heroic as it was delusional, you decided to spare Dakath the traitor.",
      "howto": "Spare Dakath the repentant"
    },
    {
      "id": 25,
      "imageId": 39,
      "cred": 15,
      "flags": 6,
      "label": "All this for that",
      "description": "You had to put up with a pile of enraged Goblins, but you got your flask of water!",
      "howto": "Take pure water to the Shaman of the Mire"
    },
    {
      "id": 26,
      "imageId": 44,
      "cred": 5,
      "flags": 6,
      "label": "The beast and the beast",
      "description": "Garok is now your friend for life. Now that's a sign of upcoming great conversations!",
      "howto": "Be buddy-buddy with a force of nature"
    },
    {
      "id": 27,
      "imageId": 45,
      "cred": 5,
      "flags": 6,
      "label": "You mythed!",
      "description": "You showed that big-mouth Braggart that when he blows his own horn he's talking to the wrong guy!",
      "howto": "Confront Braggart with his lies"
    },
    {
      "id": 28,
      "imageId": 40,
      "cred": 15,
      "flags": 6,
      "label": "Team spirit",
      "description": "You made sure to put together a special team to assault the Pillar from the Mire.",
      "howto": "Put together a special squad to assault the Pillar"
    },
    {
      "id": 29,
      "imageId": 7,
      "cred": 50,
      "flags": 6,
      "label": "In open air",
      "description": "You managed to escape the Mire. With the chick, too.",
      "howto": "Finish Chapter 2 at any difficulty level"
    },
    {
      "id": 30,
      "imageId": 13,
      "cred": 10,
      "flags": 6,
      "label": "Slicer-Dicer",
      "description": "You decided to forget your past to devote yourself to a career as an Assassin. Enjoy.",
      "howto": "Follow the path of the Assassin"
    },
    {
      "id": 31,
      "imageId": 14,
      "cred": 10,
      "flags": 6,
      "label": "Into the shadow",
      "description": "You decided that black magic isn't so bad, especially when you're the only one who knows it.",
      "howto": "Follow the way of the Shadowgoblin"
    },
    {
      "id": 32,
      "imageId": 11,
      "cred": 10,
      "flags": 6,
      "label": "Inner rage",
      "description": "You turned Arkail into a berserk monster. More than before, that is. And it went well. For some.",
      "howto": "Follow the path of the Berserker"
    },
    {
      "id": 33,
      "imageId": 12,
      "cred": 10,
      "flags": 6,
      "label": "Anger management",
      "description": "You helped Arkail control his rage. Those of his friends and family who are still alive thank you.",
      "howto": "Follow the path of the Master"
    },
    {
      "id": 34,
      "imageId": 8,
      "cred": 50,
      "flags": 6,
      "label": "I've got my friends in my head",
      "description": "You've gone through nightmares, but now you're finally setting off for the Island of Laments.",
      "howto": "Finish Chapter 3 at any difficulty level"
    },
    {
      "id": 35,
      "imageId": 18,
      "cred": 10,
      "flags": 6,
      "label": "Regicide the first ",
      "description": "You’ve killed Emperor Damocles. Which is nice to hear, ‘cause that was the idea in the first place.",
      "howto": "Kill Emperor Damocles"
    },
    {
      "id": 36,
      "imageId": 9,
      "cred": 50,
      "flags": 6,
      "label": "Your sister too",
      "description": "You have taken on the most formidable warriors in the Empire. Apart from you, of course.",
      "howto": "Finish Chapter 4 at any difficulty level"
    },
    {
      "id": 37,
      "imageId": 10,
      "cred": 50,
      "flags": 6,
      "label": "Repeat offender",
      "description": "You killed the Emperor again, and set fire to the Tower. Maybe you should stop now.",
      "howto": "Finish Chapter 5 at any difficulty level"
    },
    {
      "id": 38,
      "imageId": 19,
      "cred": 20,
      "flags": 1,
      "label": "Rakash",
      "description": "You have smoothly dealt with all the trials in Of Orcs and Men",
      "howto": "Finish Of Orcs and Men at Easy level"
    },
    {
      "id": 39,
      "imageId": 20,
      "cred": 30,
      "flags": 1,
      "label": "Mercenary",
      "description": "You have bravely dealt with all the trials in Of Orcs and Men",
      "howto": "Finish Of Orcs and Men at Normal level"
    },
    {
      "id": 40,
      "imageId": 22,
      "cred": 100,
      "flags": 1,
      "label": "Bloodjaw",
      "description": "You dealt with all the trials in Of Orcs and Men like a berserker.",
      "howto": "Finish Of Orcs and Men at the highest difficulty level"
    },
    {
      "id": 41,
      "imageId": 15,
      "cred": 5,
      "flags": 6,
      "label": "The hard way",
      "description": "You handled your first quarrel like... an Orc. Well, you sure got into your character!",
      "howto": "Answer Sork's provocation in a language he understands"
    },
    {
      "id": 42,
      "imageId": 16,
      "cred": 5,
      "flags": 6,
      "label": "Talk it out",
      "description": "You allowed Styx to calm things down before Arkail went berserk. Literally.",
      "howto": "Have Styx calm things down a bit"
    },
    {
      "id": 43,
      "imageId": 30,
      "cred": 5,
      "flags": 4,
      "label": "Manual worker",
      "description": "Nice move, you sliced up a boss without a single auto attack!",
      "howto": "Defeat a boss without using an automatic attack (assassinations excluded)"
    },
    {
      "id": 44,
      "imageId": 25,
      "cred": 10,
      "flags": 2,
      "label": "To each his branch",
      "description": "As a good specialist, you've decided to learn every skill in a single tree.",
      "howto": "Learn every Skill in a single tree."
    },
    {
      "id": 45,
      "imageId": 26,
      "cred": 50,
      "flags": 2,
      "label": "My house!",
      "description": "As a good master, you've decided to learn and perfect each Skill in a single tree.",
      "howto": "Learn and improve every Skill in a single tree."
    }
  ]
}