{
  "achievementsPossible": 50,
  "credPossible": 1000,
  "achievements": [
    {
      "id": 1,
      "imageId": 9,
      "cred": 10,
      "flags": 1,
      "label": "Winter is coming",
      "description": "Finish chapter 1",
      "howto": "Finish chapter 1"
    },
    {
      "id": 2,
      "imageId": 10,
      "cred": 10,
      "flags": 1,
      "label": "Family is hope...",
      "description": "Finish chapter 2",
      "howto": "Finish chapter 2"
    },
    {
      "id": 3,
      "imageId": 11,
      "cred": 10,
      "flags": 1,
      "label": "Dark wings, dark words",
      "description": "Finish chapter 3",
      "howto": "Finish chapter 3"
    },
    {
      "id": 4,
      "imageId": 12,
      "cred": 10,
      "flags": 1,
      "label": "Hear me roar",
      "description": "Finish chapter 4",
      "howto": "Finish chapter 4"
    },
    {
      "id": 5,
      "imageId": 13,
      "cred": 10,
      "flags": 1,
      "label": "Proud to be faithful",
      "description": "Finish chapter 5",
      "howto": "Finish chapter 5"
    },
    {
      "id": 6,
      "imageId": 14,
      "cred": 10,
      "flags": 1,
      "label": "Dead men sing no songs",
      "description": "Finish chapter 6",
      "howto": "Finish chapter 6"
    },
    {
      "id": 7,
      "imageId": 15,
      "cred": 10,
      "flags": 1,
      "label": "Here we stand",
      "description": "Finish chapter 7",
      "howto": "Finish chapter 7"
    },
    {
      "id": 8,
      "imageId": 16,
      "cred": 10,
      "flags": 1,
      "label": "Family, duty, honor",
      "description": "Finish chapter 8",
      "howto": "Finish chapter 8"
    },
    {
      "id": 9,
      "imageId": 17,
      "cred": 10,
      "flags": 1,
      "label": "Unbowed, unbent, unbroken",
      "description": "Finish chapter 9",
      "howto": "Finish chapter 9"
    },
    {
      "id": 10,
      "imageId": 18,
      "cred": 10,
      "flags": 1,
      "label": "Fire and blood",
      "description": "Finish chapter 10",
      "howto": "Finish chapter 10"
    },
    {
      "id": 11,
      "imageId": 19,
      "cred": 10,
      "flags": 1,
      "label": "Come try me",
      "description": "Finish chapter 11",
      "howto": "Finish chapter 11"
    },
    {
      "id": 12,
      "imageId": 20,
      "cred": 10,
      "flags": 1,
      "label": "As high as honor",
      "description": "Finish chapter 12",
      "howto": "Finish chapter 12"
    },
    {
      "id": 13,
      "imageId": 21,
      "cred": 10,
      "flags": 1,
      "label": "Growing strong",
      "description": "Finish chapter 13",
      "howto": "Finish chapter 13"
    },
    {
      "id": 14,
      "imageId": 22,
      "cred": 10,
      "flags": 1,
      "label": "Valar morghulis",
      "description": "Finish chapter 14",
      "howto": "Finish chapter 14"
    },
    {
      "id": 15,
      "imageId": 23,
      "cred": 10,
      "flags": 1,
      "label": "The night is dark...",
      "description": "Finish chapter 15",
      "howto": "Finish chapter 15"
    },
    {
      "id": 16,
      "imageId": 24,
      "cred": 10,
      "flags": 1,
      "label": "Red priest of R'hllor",
      "description": "Finish Alester's story",
      "howto": "Finish Alester's story"
    },
    {
      "id": 17,
      "imageId": 25,
      "cred": 10,
      "flags": 1,
      "label": "Sworn brother",
      "description": "Finish Mors' Story",
      "howto": "Finish Mors' Story"
    },
    {
      "id": 18,
      "imageId": 26,
      "cred": 10,
      "flags": 1,
      "label": "Disciplinarian",
      "description": "Chapter 1: confront the four recruits during the training session with Mors",
      "howto": "Chapter 1: confront the four recruits during the training session with Mors"
    },
    {
      "id": 19,
      "imageId": 27,
      "cred": 15,
      "flags": 1,
      "label": "Know your place",
      "description": "Chapter 2: protect the nobility with Alester",
      "howto": "Chapter 2: protect the nobility with Alester"
    },
    {
      "id": 20,
      "imageId": 28,
      "cred": 15,
      "flags": 1,
      "label": "Man of the people",
      "description": "Chapter 2: protect the people with Alester",
      "howto": "Chapter 2: protect the people with Alester"
    },
    {
      "id": 21,
      "imageId": 29,
      "cred": 20,
      "flags": 1,
      "label": "End of the line",
      "description": "Chapter 6: don't lose pursuit of the bastard",
      "howto": "Chapter 6: don't lose pursuit of the bastard"
    },
    {
      "id": 22,
      "imageId": 30,
      "cred": 25,
      "flags": 1,
      "label": "Bloodhound",
      "description": "Chapter 7: find all the corrupt brothers of the Night's Watch",
      "howto": "Chapter 7: find all the corrupt brothers of the Night's Watch"
    },
    {
      "id": 23,
      "imageId": 31,
      "cred": 35,
      "flags": 1,
      "label": "Once more unto the breach",
      "description": "Chapter 7: attack the camp without killing the sentries at the start",
      "howto": "Chapter 7: attack the camp without killing the sentries at the start"
    },
    {
      "id": 24,
      "imageId": 32,
      "cred": 15,
      "flags": 1,
      "label": "Am I not merciful?",
      "description": "Chapter 8: save Orys from the City Watch",
      "howto": "Chapter 8: save Orys from the City Watch"
    },
    {
      "id": 25,
      "imageId": 33,
      "cred": 15,
      "flags": 1,
      "label": "Desecration",
      "description": "Chapter 8: find the key in Alester's father's tomb",
      "howto": "Chapter 8: find the key in Alester's father's tomb"
    },
    {
      "id": 26,
      "imageId": 34,
      "cred": 35,
      "flags": 1,
      "label": "The butcher comes to dinner",
      "description": "Chapter 9: kill 6 of Lord Harlton's soldiers during the fight at dinner",
      "howto": "Chapter 9: kill 6 of Lord Harlton's soldiers during the fight at dinner"
    },
    {
      "id": 27,
      "imageId": 35,
      "cred": 20,
      "flags": 1,
      "label": "'Tis but a scratch !",
      "description": "Chapter 9: suffer all the physical abuse during the torture sequence",
      "howto": "Chapter 9: suffer all the physical abuse during the torture sequence"
    },
    {
      "id": 28,
      "imageId": 36,
      "cred": 35,
      "flags": 1,
      "label": "Swift and deadly",
      "description": "Chapter 11: bring an end to the trial by combat in under 2 minutes",
      "howto": "Chapter 11: bring an end to the trial by combat in under 2 minutes"
    },
    {
      "id": 29,
      "imageId": 37,
      "cred": 35,
      "flags": 1,
      "label": "Unrivaled strategist",
      "description": "Chapter 12: take back Riverspring with a total victory",
      "howto": "Chapter 12: take back Riverspring with a total victory"
    },
    {
      "id": 30,
      "imageId": 38,
      "cred": 35,
      "flags": 1,
      "label": "Quiet as a shadow",
      "description": "Chapter 13: reach Jeyne's room without ever being seen",
      "howto": "Chapter 13: reach Jeyne's room without ever being seen"
    },
    {
      "id": 31,
      "imageId": 39,
      "cred": 15,
      "flags": 1,
      "label": "Lesser of two evils",
      "description": "Chapter 14: come to the aid of the Reapers",
      "howto": "Chapter 14: come to the aid of the Reapers"
    },
    {
      "id": 32,
      "imageId": 40,
      "cred": 10,
      "flags": 1,
      "label": "My darkest hour",
      "description": "Chapter 15: execute the judgement passed down on the Westfords",
      "howto": "Chapter 15: execute the judgement passed down on the Westfords"
    },
    {
      "id": 33,
      "imageId": 41,
      "cred": 10,
      "flags": 1,
      "label": "The true face of the Spider",
      "description": "Lose the final battle",
      "howto": "Lose the final battle"
    },
    {
      "id": 34,
      "imageId": 42,
      "cred": 40,
      "flags": 1,
      "label": "Thorough",
      "description": "Complete all the secondary objectives of the story",
      "howto": "Complete all the secondary objectives of the story"
    },
    {
      "id": 35,
      "imageId": 43,
      "cred": 30,
      "flags": 1,
      "label": "The Greatest",
      "description": "Emerge triumphant in the final arena combat",
      "howto": "Emerge triumphant in the final arena combat"
    },
    {
      "id": 36,
      "imageId": 44,
      "cred": 30,
      "flags": 1,
      "label": "Endless watch",
      "description": "Send 10 recruits to the Wall with Mors",
      "howto": "Send 10 recruits to the Wall with Mors"
    },
    {
      "id": 37,
      "imageId": 45,
      "cred": 30,
      "flags": 1,
      "label": "Collector",
      "description": "Seize the three objects of value from the Collector with Alester",
      "howto": "Seize the three objects of value from the Collector with Alester"
    },
    {
      "id": 38,
      "imageId": 46,
      "cred": 30,
      "flags": 1,
      "label": "Pimp",
      "description": "Convince Bethany to return to Chataya's brothel with Alester",
      "howto": "Convince Bethany to return to Chataya's brothel with Alester"
    },
    {
      "id": 39,
      "imageId": 47,
      "cred": 30,
      "flags": 1,
      "label": "Devout follower",
      "description": "Find all the statues of the Seven",
      "howto": "Find all the statues of the Seven"
    },
    {
      "id": 40,
      "imageId": 48,
      "cred": 30,
      "flags": 1,
      "label": "Fetch!",
      "description": "Use Mors' dog's sense of smell to find 5 secret objects",
      "howto": "Use Mors' dog's sense of smell to find 5 secret objects"
    },
    {
      "id": 41,
      "imageId": 49,
      "cred": 30,
      "flags": 1,
      "label": "R'hllor sees all",
      "description": "Find 10 secrets with the vision of R'hllor",
      "howto": "Find 10 secrets with the vision of R'hllor"
    },
    {
      "id": 42,
      "imageId": 50,
      "cred": 30,
      "flags": 1,
      "label": "Golden touch",
      "description": "Acquire 1 golden dragon",
      "howto": "Acquire 1 golden dragon"
    },
    {
      "id": 43,
      "imageId": 51,
      "cred": 20,
      "flags": 1,
      "label": "Man's best friend",
      "description": "Kill 10 enemies with Mors' dog in skinchanger mode",
      "howto": "Kill 10 enemies with Mors' dog in skinchanger mode"
    },
    {
      "id": 44,
      "imageId": 52,
      "cred": 20,
      "flags": 1,
      "label": "True warrior",
      "description": "Kill 400 enemies",
      "howto": "Kill 400 enemies"
    },
    {
      "id": 45,
      "imageId": 53,
      "cred": 20,
      "flags": 1,
      "label": "Merciless",
      "description": "Mete out 5 deathblows",
      "howto": "Mete out 5 deathblows"
    },
    {
      "id": 46,
      "imageId": 54,
      "cred": 30,
      "flags": 1,
      "label": "Great teamwork",
      "description": "Finish the game without a single ally (except Mors and Alester) being KO'd",
      "howto": "Finish the game without a single ally (except Mors and Alester) being KO'd"
    },
    {
      "id": 47,
      "imageId": 55,
      "cred": 30,
      "flags": 1,
      "label": "Warlord",
      "description": "Reach the maximum level",
      "howto": "Reach the maximum level"
    },
    {
      "id": 48,
      "imageId": 56,
      "cred": 25,
      "flags": 1,
      "label": "Master-at-arms",
      "description": "Learn all skills within a character's stance tree",
      "howto": "Learn all skills within a character's stance tree"
    },
    {
      "id": 49,
      "imageId": 57,
      "cred": 30,
      "flags": 1,
      "label": "Master of light and flame",
      "description": "Gain all the skills linked to R'hllor's fire with Alester",
      "howto": "Gain all the skills linked to R'hllor's fire with Alester"
    },
    {
      "id": 50,
      "imageId": 59,
      "cred": 30,
      "flags": 1,
      "label": "Clever dog",
      "description": "Gain all the skills linked to the dog with Mors",
      "howto": "Gain all the skills linked to the dog with Mors"
    }
  ]
}