{
  "achievementsPossible": 50,
  "credPossible": 1000,
  "achievements": [
    {
      "id": 49,
      "imageId": 78,
      "cred": 5,
      "flags": 4,
      "label": "Welcome to HQ",
      "description": "Launch the game for the first time.",
      "howto": "Launch the game for the first time."
    },
    {
      "id": 54,
      "imageId": 181,
      "cred": 10,
      "flags": 4,
      "label": "First Party",
      "description": "Start a game mode for several players.",
      "howto": "Start a game mode for several players."
    },
    {
      "id": 55,
      "imageId": 82,
      "cred": 10,
      "flags": 4,
      "label": "Big party",
      "description": "Start a game mode for 16 players.",
      "howto": "Start a game mode for 16 players."
    },
    {
      "id": 56,
      "imageId": 83,
      "cred": 10,
      "flags": 2,
      "label": "Minor squaddie",
      "description": "Get 1 star in a game.",
      "howto": "Get 1 star in a game."
    },
    {
      "id": 57,
      "imageId": 86,
      "cred": 20,
      "flags": 2,
      "label": "Sergeant Major",
      "description": "Get 3 stars in a game.",
      "howto": "Get 3 stars in a game."
    },
    {
      "id": 58,
      "imageId": 84,
      "cred": 50,
      "flags": 2,
      "label": "Colonel Major",
      "description": "Get 1 star in all games.",
      "howto": "Get 1 star in all games."
    },
    {
      "id": 59,
      "imageId": 87,
      "cred": 100,
      "flags": 2,
      "label": "Major-General",
      "description": "Get 3 stars in all games.",
      "howto": "Get 3 stars in all games."
    },
    {
      "id": 60,
      "imageId": 88,
      "cred": 20,
      "flags": 4,
      "label": "King of TP",
      "description": "Accumulate 20,000 TP DollarZ in your kitty.",
      "howto": "Accumulate 20,000 TP DollarZ in your kitty."
    },
    {
      "id": 61,
      "imageId": 89,
      "cred": 50,
      "flags": 4,
      "label": "TP Emperor",
      "description": "Accumulate 50,000 TP DollarZ for your kitty.",
      "howto": "Accumulate 50,000 TP DollarZ for your kitty."
    },
    {
      "id": 62,
      "imageId": 184,
      "cred": 10,
      "flags": 4,
      "label": "1 Kilo-rab-Bit",
      "description": "Hit, flatten or make 1,024 Rabbids explode in the various games.",
      "howto": "Hit, flatten or make 1,024 Rabbids explode in the various games."
    },
    {
      "id": 63,
      "imageId": 182,
      "cred": 30,
      "flags": 1,
      "label": "5 Kilo-rab-Bits",
      "description": "Hit, flatten or make 5,120 Rabbids explode in the various games.",
      "howto": "Hit, flatten or make 5,120 Rabbids explode in the various games."
    },
    {
      "id": 64,
      "imageId": 183,
      "cred": 50,
      "flags": 1,
      "label": "10 Kilo-rab-Bits",
      "description": "Hit, flatten or make 10,240 Rabbids explode in the various games.",
      "howto": "Hit, flatten or make 10,240 Rabbids explode in the various games."
    },
    {
      "id": 65,
      "imageId": 91,
      "cred": 30,
      "flags": 4,
      "label": "Marathon",
      "description": "Play for 2 hours, 3 minutes and 59 seconds in one session.",
      "howto": "Play for 2 hours, 3 minutes and 59 seconds in one session."
    },
    {
      "id": 66,
      "imageId": 92,
      "cred": 30,
      "flags": 4,
      "label": "Round the clock",
      "description": "Clock up 24 hours of total play time.",
      "howto": "Clock up 24 hours of total play time."
    },
    {
      "id": 67,
      "imageId": 93,
      "cred": 30,
      "flags": 4,
      "label": "Still at it?",
      "description": "Play 6 months after your first game.",
      "howto": "Play 6 months after your first game."
    },
    {
      "id": 68,
      "imageId": 94,
      "cred": 10,
      "flags": 4,
      "label": "Insomniac",
      "description": "The name says it all.",
      "howto": "The name says it all."
    },
    {
      "id": 69,
      "imageId": 95,
      "cred": 20,
      "flags": 4,
      "label": "Social netnerd",
      "description": "Upload a photo to the Rabbids site.",
      "howto": "Upload a photo to the Rabbids site."
    },
    {
      "id": 70,
      "imageId": 80,
      "cred": 10,
      "flags": 4,
      "label": "You're completely Uplay",
      "description": "Launch Uplay and sign up.",
      "howto": "Launch Uplay and sign up."
    },
    {
      "id": 71,
      "imageId": 96,
      "cred": 20,
      "flags": 4,
      "label": "Show-off",
      "description": "Do 100 headbutts in Rabbzilla.",
      "howto": "Do 100 headbutts in Rabbzilla."
    },
    {
      "id": 72,
      "imageId": 97,
      "cred": 10,
      "flags": 4,
      "label": "Olé!",
      "description": "In Hot Dogs in Danger, let all the Rabbids through without leaving the play space.",
      "howto": "In Hot Dogs in Danger, let all the Rabbids through without leaving the play space."
    },
    {
      "id": 73,
      "imageId": 101,
      "cred": 15,
      "flags": 1,
      "label": "Udder slapper",
      "description": "In the Slapping Station game, slap 4 cows during a game.",
      "howto": "In the Slapping Station game, slap 4 cows during a game."
    },
    {
      "id": 74,
      "imageId": 102,
      "cred": 10,
      "flags": 4,
      "label": "Ibiza",
      "description": "Make the Rabbids dance in Life's a Beach.",
      "howto": "Make the Rabbids dance in Life's a Beach."
    },
    {
      "id": 75,
      "imageId": 103,
      "cred": 15,
      "flags": 4,
      "label": "Thank you, friend!",
      "description": "In the Rabbid-o-matic game, get the Rabbid to the end without it falling into a trap.",
      "howto": "In the Rabbid-o-matic game, get the Rabbid to the end without it falling into a trap."
    },
    {
      "id": 76,
      "imageId": 104,
      "cred": 20,
      "flags": 4,
      "label": "Pump 'n' Pose",
      "description": "Do 200 successful poses in Pumped Up.",
      "howto": "Do 200 successful poses in Pumped Up."
    },
    {
      "id": 77,
      "imageId": 105,
      "cred": 10,
      "flags": 4,
      "label": "Six machine",
      "description": "In the Big Brother game, play as a team of 6 players.",
      "howto": "In the Big Brother game, play as a team of 6 players."
    },
    {
      "id": 78,
      "imageId": 106,
      "cred": 10,
      "flags": 4,
      "label": "Snotput slinger",
      "description": "During Snot Funny, steal the snot from the other player.",
      "howto": "During Snot Funny, steal the snot from the other player."
    },
    {
      "id": 79,
      "imageId": 107,
      "cred": 10,
      "flags": 4,
      "label": "Talk to the hand",
      "description": "In the Whack a Rabbid game, smash a Rabbid with your hand.",
      "howto": "In the Whack a Rabbid game, smash a Rabbid with your hand."
    },
    {
      "id": 80,
      "imageId": 108,
      "cred": 15,
      "flags": 4,
      "label": "Flaming friends",
      "description": "In the Flaming balls of fire game, earn 180 points during a rally against another player.",
      "howto": "In the Flaming balls of fire game, earn 180 points during a rally against another player."
    },
    {
      "id": 81,
      "imageId": 109,
      "cred": 20,
      "flags": 4,
      "label": "Psycho",
      "description": "Successfully make 90 shapes in Silhou-wet.",
      "howto": "Successfully make 90 shapes in Silhou-wet."
    },
    {
      "id": 82,
      "imageId": 98,
      "cred": 15,
      "flags": 4,
      "label": "Slashed prices",
      "description": "In the Crazy Sales game, fire at all the special offer signs on the sides.",
      "howto": "In the Crazy Sales game, fire at all the special offer signs on the sides."
    },
    {
      "id": 83,
      "imageId": 99,
      "cred": 20,
      "flags": 4,
      "label": "Lumberjack",
      "description": "Saw through 90 blocks in Hacked Off!",
      "howto": "Saw through 90 blocks in Hacked Off!"
    },
    {
      "id": 84,
      "imageId": 185,
      "cred": 10,
      "flags": 4,
      "label": "Cinderella",
      "description": "In the Sauce Wars game, mop up the floor with your hands.",
      "howto": "In the Sauce Wars game, mop up the floor with your hands."
    },
    {
      "id": 85,
      "imageId": 110,
      "cred": 10,
      "flags": 4,
      "label": "Showbiz star",
      "description": "Let all the spotlights hit you in Now You See Me…",
      "howto": "Let all the spotlights hit you in Now You See Me…"
    },
    {
      "id": 86,
      "imageId": 111,
      "cred": 20,
      "flags": 4,
      "label": "Copycow",
      "description": "Get 100 moves right in Udder Nonsense.",
      "howto": "Get 100 moves right in Udder Nonsense."
    },
    {
      "id": 87,
      "imageId": 112,
      "cred": 20,
      "flags": 4,
      "label": "Hop you can do it",
      "description": "Play an entire game of Tenderfoot Dance on just one foot.",
      "howto": "Play an entire game of Tenderfoot Dance on just one foot."
    },
    {
      "id": 88,
      "imageId": 114,
      "cred": 20,
      "flags": 4,
      "label": "Super sushi",
      "description": "Jump 120 times in Salmon Rush Day.",
      "howto": "Jump 120 times in Salmon Rush Day."
    },
    {
      "id": 89,
      "imageId": 113,
      "cred": 10,
      "flags": 4,
      "label": "No mean feet!",
      "description": "In Rabbids-in-the-Hole, play using your feet.",
      "howto": "In Rabbids-in-the-Hole, play using your feet."
    },
    {
      "id": 90,
      "imageId": 119,
      "cred": 15,
      "flags": 4,
      "label": "Rock Star",
      "description": "Finish Guitar Zero with 35 correctly played notes in a row.",
      "howto": "Finish Guitar Zero with 35 correctly played notes in a row."
    },
    {
      "id": 92,
      "imageId": 115,
      "cred": 10,
      "flags": 4,
      "label": "Super Suppository",
      "description": "In Inner Journey, maintain maximum speed for 20 seconds.",
      "howto": "In Inner Journey, maintain maximum speed for 20 seconds."
    },
    {
      "id": 93,
      "imageId": 116,
      "cred": 20,
      "flags": 4,
      "label": "They help you see in the dark",
      "description": "In Carrot Juice, drink 10 glasses in infinite mode.",
      "howto": "In Carrot Juice, drink 10 glasses in infinite mode."
    },
    {
      "id": 94,
      "imageId": 118,
      "cred": 20,
      "flags": 4,
      "label": "Jackpot",
      "description": "In The Kitty game mode, bank the highest possible amount.",
      "howto": "In The Kitty game mode, bank the highest possible amount."
    },
    {
      "id": 95,
      "imageId": 120,
      "cred": 10,
      "flags": 4,
      "label": "Harakiri",
      "description": "In Forfeits!, get 100% negative opinions for a forfeit.",
      "howto": "In Forfeits!, get 100% negative opinions for a forfeit."
    },
    {
      "id": 96,
      "imageId": 121,
      "cred": 10,
      "flags": 4,
      "label": "You should take a break",
      "description": "Chalk up 100 failures in the cartoon games.",
      "howto": "Chalk up 100 failures in the cartoon games."
    },
    {
      "id": 97,
      "imageId": 122,
      "cred": 10,
      "flags": 4,
      "label": "Break the piggy bank",
      "description": "Buy something in My Raving Rabbid.",
      "howto": "Buy something in My Raving Rabbid."
    },
    {
      "id": 98,
      "imageId": 123,
      "cred": 50,
      "flags": 4,
      "label": "Spendthrift",
      "description": "Buy everything in My Raving Rabbid.",
      "howto": "Buy everything in My Raving Rabbid."
    },
    {
      "id": 99,
      "imageId": 124,
      "cred": 10,
      "flags": 4,
      "label": "Monkey!",
      "description": "In My Raving Rabbid, take a photo while doing a pose.",
      "howto": "In My Raving Rabbid, take a photo while doing a pose."
    },
    {
      "id": 100,
      "imageId": 125,
      "cred": 10,
      "flags": 4,
      "label": "Missing",
      "description": "In My Raving Rabbid, stay out of the sensor's line of sight for 30 seconds.",
      "howto": "In My Raving Rabbid, stay out of the sensor's line of sight for 30 seconds."
    },
    {
      "id": 104,
      "imageId": 126,
      "cred": 30,
      "flags": 4,
      "label": "Babysitter",
      "description": "In My Raving Rabbid, find 7 different ways to interact with the Rabbid without using an object.",
      "howto": "In My Raving Rabbid, find 7 different ways to interact with the Rabbid without using an object."
    },
    {
      "id": 105,
      "imageId": 127,
      "cred": 10,
      "flags": 4,
      "label": "Pacifist",
      "description": "In My Raving Rabbid, don't hit the Rabbid for 2 minutes.",
      "howto": "In My Raving Rabbid, don't hit the Rabbid for 2 minutes."
    },
    {
      "id": 106,
      "imageId": 128,
      "cred": 20,
      "flags": 4,
      "label": "Close-up",
      "description": "In My Raving Rabbid, take a photo of the Rabbid that crashes into your screen.",
      "howto": "In My Raving Rabbid, take a photo of the Rabbid that crashes into your screen."
    }
  ]
}