{
  "achievementsPossible": 12,
  "credPossible": 200,
  "achievements": [
    {
      "id": 1,
      "imageId": 1,
      "cred": 10,
      "flags": 4,
      "label": "200,000 Points",
      "description": "Score 200,000 points!",
      "howto": "Score 200,000 points!"
    },
    {
      "id": 2,
      "imageId": 2,
      "cred": 30,
      "flags": 4,
      "label": "400,000 Points",
      "description": "Score 400,000 points!",
      "howto": "Score 400,000 points!"
    },
    {
      "id": 3,
      "imageId": 3,
      "cred": 5,
      "flags": 4,
      "label": "Sparkster",
      "description": "Emit sparks for 1 second!",
      "howto": "Emit sparks for 1 second!"
    },
    {
      "id": 4,
      "imageId": 4,
      "cred": 5,
      "flags": 4,
      "label": "8 Ghosts",
      "description": "Eat 8 ghosts in succession!",
      "howto": "Eat 8 ghosts in succession!"
    },
    {
      "id": 5,
      "imageId": 5,
      "cred": 20,
      "flags": 1,
      "label": "Championship Mode",
      "description": "Complete Championship Mode!",
      "howto": "Complete Championship Mode!"
    },
    {
      "id": 6,
      "imageId": 6,
      "cred": 20,
      "flags": 1,
      "label": "Challenge Mode 1",
      "description": "Complete Challenge Mode 1!",
      "howto": "Complete Challenge Mode 1!"
    },
    {
      "id": 7,
      "imageId": 7,
      "cred": 20,
      "flags": 1,
      "label": "Challenge Mode 2",
      "description": "Complete Challenge Mode 2!",
      "howto": "Complete Challenge Mode 2!"
    },
    {
      "id": 8,
      "imageId": 8,
      "cred": 20,
      "flags": 1,
      "label": "Extra Mode 1",
      "description": "Complete Extra Mode 1!",
      "howto": "Complete Extra Mode 1!"
    },
    {
      "id": 9,
      "imageId": 9,
      "cred": 20,
      "flags": 1,
      "label": "Extra Mode 2",
      "description": "Complete Extra Mode 2!",
      "howto": "Complete Extra Mode 2!"
    },
    {
      "id": 10,
      "imageId": 10,
      "cred": 20,
      "flags": 1,
      "label": "Extra Mode 3",
      "description": "Complete Extra Mode 3!",
      "howto": "Complete Extra Mode 3!"
    },
    {
      "id": 11,
      "imageId": 11,
      "cred": 10,
      "flags": 4,
      "label": "Key",
      "description": "Eat the Key!",
      "howto": "Eat the Key!"
    },
    {
      "id": 12,
      "imageId": 12,
      "cred": 20,
      "flags": 4,
      "label": "Crown",
      "description": "Eat the Crown!",
      "howto": "Eat the Crown!"
    }
  ]
}