{
  "achievementsPossible": 38,
  "credPossible": 1000,
  "achievements": [
    {
      "id": 6,
      "imageId": 1,
      "cred": 10,
      "flags": 6,
      "label": "Prologue",
      "description": "Completed Chapter 1.",
      "howto": "Complete Chapter 1."
    },
    {
      "id": 7,
      "imageId": 2,
      "cred": 10,
      "flags": 6,
      "label": "Exposure",
      "description": "Completed Chapter 2.",
      "howto": "Complete Chapter 2."
    },
    {
      "id": 8,
      "imageId": 3,
      "cred": 10,
      "flags": 6,
      "label": "Baggage Claim",
      "description": "Completed Chapter 3.",
      "howto": "Complete Chapter 3."
    },
    {
      "id": 9,
      "imageId": 4,
      "cred": 10,
      "flags": 6,
      "label": "Moths To The Flame",
      "description": "Completed Chapter 4.",
      "howto": "Complete Chapter 4."
    },
    {
      "id": 10,
      "imageId": 5,
      "cred": 10,
      "flags": 6,
      "label": "The Shipment",
      "description": "Completed Chapter 5.",
      "howto": "Complete Chapter 5."
    },
    {
      "id": 11,
      "imageId": 6,
      "cred": 10,
      "flags": 6,
      "label": "The Bait",
      "description": "Completed Chapter 6.",
      "howto": "Complete Chapter 6."
    },
    {
      "id": 12,
      "imageId": 7,
      "cred": 10,
      "flags": 6,
      "label": "Industrial Evolution",
      "description": "Completed Chapter 7.",
      "howto": "Complete Chapter 7."
    },
    {
      "id": 13,
      "imageId": 8,
      "cred": 10,
      "flags": 6,
      "label": "Unnatural History",
      "description": "Completed Chapter 8.",
      "howto": "Complete Chapter 8."
    },
    {
      "id": 14,
      "imageId": 9,
      "cred": 10,
      "flags": 6,
      "label": "Threshold Guardian",
      "description": "Completed Chapter 9.",
      "howto": "Complete Chapter 9."
    },
    {
      "id": 15,
      "imageId": 10,
      "cred": 100,
      "flags": 1,
      "label": "The Dark Sector",
      "description": "Completed the Game.",
      "howto": "Complete the Game."
    },
    {
      "id": 16,
      "imageId": 11,
      "cred": 110,
      "flags": 1,
      "label": "Dark Sector - Brutal Difficulty",
      "description": "Completed the Game on Brutal Difficulty.",
      "howto": "Complete the Game on Brutal Difficulty."
    },
    {
      "id": 17,
      "imageId": 12,
      "cred": 50,
      "flags": 4,
      "label": "Colossus",
      "description": "Defeated the Colossus.",
      "howto": ""
    },
    {
      "id": 18,
      "imageId": 13,
      "cred": 65,
      "flags": 4,
      "label": "Stalker",
      "description": "Defeated the Stalker.",
      "howto": ""
    },
    {
      "id": 19,
      "imageId": 14,
      "cred": 85,
      "flags": 4,
      "label": "Nemesis",
      "description": "Defeated the Nemesis.",
      "howto": ""
    },
    {
      "id": 20,
      "imageId": 16,
      "cred": 10,
      "flags": 4,
      "label": "Headhunter",
      "description": "Decapitated 30 Enemies.",
      "howto": "Decapitate 30 Enemies."
    },
    {
      "id": 21,
      "imageId": 27,
      "cred": 10,
      "flags": 4,
      "label": "Incinerator",
      "description": "Incinerated 30 Enemies.",
      "howto": "Incinerate 30 Enemies."
    },
    {
      "id": 22,
      "imageId": 18,
      "cred": 10,
      "flags": 4,
      "label": "Electrician",
      "description": "Electrocuted 30 Enemies.",
      "howto": "Electrocute 30 Enemies."
    },
    {
      "id": 23,
      "imageId": 23,
      "cred": 10,
      "flags": 4,
      "label": "Jack Frost",
      "description": "Killed 30 Frozen Enemies.",
      "howto": "Kill 30 Frozen Enemies."
    },
    {
      "id": 24,
      "imageId": 15,
      "cred": 40,
      "flags": 3,
      "label": "Finesse",
      "description": "30 Aftertouch Kills.",
      "howto": "Kill 30 enemies with Aftertouch."
    },
    {
      "id": 25,
      "imageId": 30,
      "cred": 35,
      "flags": 3,
      "label": "Hardball",
      "description": "30 Power-throw Kills.",
      "howto": "Kill 30 enemies with Power-throw."
    },
    {
      "id": 26,
      "imageId": 26,
      "cred": 10,
      "flags": 4,
      "label": "Sharpshooter",
      "description": "30 Headshots.",
      "howto": "Get 30 Headshots."
    },
    {
      "id": 27,
      "imageId": 24,
      "cred": 10,
      "flags": 4,
      "label": "Glaive Master",
      "description": "Completed a Level by Only Using the Glaive.",
      "howto": "Complete a Level by Only Using the Glaive."
    },
    {
      "id": 28,
      "imageId": 22,
      "cred": 10,
      "flags": 4,
      "label": "The Finisher",
      "description": "Performed 30 Finishers.",
      "howto": "Perform 30 Finishers."
    },
    {
      "id": 29,
      "imageId": 17,
      "cred": 15,
      "flags": 4,
      "label": "Double Decap Latte",
      "description": "Two Decapitations In One Shot.",
      "howto": "Get Two Decapitations In One Shot."
    },
    {
      "id": 30,
      "imageId": 28,
      "cred": 35,
      "flags": 4,
      "label": "Jack the Jackal",
      "description": "Took the Jackal for a Ride.",
      "howto": ""
    },
    {
      "id": 31,
      "imageId": 34,
      "cred": 10,
      "flags": 4,
      "label": "Skeet Shooter",
      "description": "Shot 10 Projectiles in Mid-flight.",
      "howto": "Shoot 10 Projectiles in Mid-flight."
    },
    {
      "id": 32,
      "imageId": 38,
      "cred": 10,
      "flags": 4,
      "label": "Weaponsmith",
      "description": "Applied 5 Upgrades in the Black Market.",
      "howto": "Apply 5 Upgrades in the Black Market."
    },
    {
      "id": 33,
      "imageId": 25,
      "cred": 10,
      "flags": 4,
      "label": "Greed",
      "description": "Collected over 50,000 rubles.",
      "howto": "Collect over 50,000 rubles."
    },
    {
      "id": 34,
      "imageId": 32,
      "cred": 10,
      "flags": 4,
      "label": "Researcher",
      "description": "Collected 10 Weapon Upgrades.",
      "howto": "Collect 10 Weapon Upgrades."
    },
    {
      "id": 35,
      "imageId": 29,
      "cred": 15,
      "flags": 4,
      "label": "Master Researcher",
      "description": "Collected All the Weapon Upgrades.",
      "howto": "Collect All the Weapon Upgrades."
    },
    {
      "id": 36,
      "imageId": 31,
      "cred": 15,
      "flags": 4,
      "label": "Rebound",
      "description": "Killed an Enemy With a Reflected Projectile.",
      "howto": "Kill an Enemy With a Reflected Projectile."
    },
    {
      "id": 37,
      "imageId": 33,
      "cred": 35,
      "flags": 4,
      "label": "Ghost",
      "description": "Used Shifting to Get a Finisher.",
      "howto": "Use Shifting to Get a Finisher."
    },
    {
      "id": 38,
      "imageId": 21,
      "cred": 30,
      "flags": 5,
      "label": "Glory",
      "description": "Finished Best Overall in a Ranked Infection Match (Multiplayer).",
      "howto": "Finish Best Overall in a Ranked Infection Match (Multiplayer)."
    },
    {
      "id": 39,
      "imageId": 20,
      "cred": 30,
      "flags": 5,
      "label": "Veteran",
      "description": "Scored 500 Points in Ranked Infection Games (Multiplayer).",
      "howto": "Score 500 Points in Ranked Infection Games (Multiplayer)."
    },
    {
      "id": 40,
      "imageId": 19,
      "cred": 40,
      "flags": 5,
      "label": "Hero",
      "description": "Scored 2000 Points in Ranked Infection Games (Multiplayer).",
      "howto": "Score 2000 Points in Ranked Infection Games (Multiplayer)."
    },
    {
      "id": 41,
      "imageId": 37,
      "cred": 30,
      "flags": 5,
      "label": "Champion",
      "description": "Best Overall in a Ranked Epidemic Match (Multiplayer).",
      "howto": "Finish Best Overall in a Ranked Epidemic Match (Multiplayer)."
    },
    {
      "id": 42,
      "imageId": 36,
      "cred": 30,
      "flags": 5,
      "label": "Comrade",
      "description": "Scored 500 Points in Ranked Epidemic Games (Multiplayer).",
      "howto": "Score 500 Points in Ranked Epidemic Games (Multiplayer)."
    },
    {
      "id": 43,
      "imageId": 35,
      "cred": 40,
      "flags": 5,
      "label": "Hero of the People",
      "description": "Scored 2000 Points in Ranked Epidemic Games.",
      "howto": "Score 2000 Points in Ranked Epidemic Games (Multiplayer)."
    }
  ]
}