{
  "achievementsPossible": 49,
  "credPossible": 1000,
  "achievements": [
    {
      "id": 1,
      "imageId": 60,
      "cred": 15,
      "flags": 6,
      "label": "Arena Designer",
      "description": "Create one arena in Create-An-Arena.",
      "howto": "Create one arena in Create-An-Arena."
    },
    {
      "id": 2,
      "imageId": 61,
      "cred": 15,
      "flags": 6,
      "label": "Look! Look at my Titantron!",
      "description": "Use a movie created in Custom Entrance Video in an entrance scene (Single Player)",
      "howto": "Use a movie created in Custom Entrance Video in an entrance scene (Single Player)"
    },
    {
      "id": 3,
      "imageId": 62,
      "cred": 15,
      "flags": 6,
      "label": "Unique Original Story",
      "description": "Create a story that includes a Custom Superstar or Custom Arena",
      "howto": "Create a story that includes a Custom Superstar or Custom Arena"
    },
    {
      "id": 4,
      "imageId": 63,
      "cred": 15,
      "flags": 6,
      "label": "Custom Logo Wizard",
      "description": "Apply a Custom Logo to a Custom Superstar, Video, or Arena",
      "howto": "Apply a Custom Logo to a Custom Superstar, Video, or Arena"
    },
    {
      "id": 5,
      "imageId": 64,
      "cred": 15,
      "flags": 6,
      "label": "Creative With The Moves",
      "description": "Create a front, top rope and corner finishing move in Custom Finisher Move",
      "howto": "Create a front, top rope and corner finishing move in Custom Finisher Move"
    },
    {
      "id": 6,
      "imageId": 65,
      "cred": 30,
      "flags": 1,
      "label": "Finished VILLAIN Episode!",
      "description": "Complete VILLAIN episode in ROAD TO WrestleMania (Single Player)",
      "howto": "Complete VILLAIN episode in ROAD TO WrestleMania (Single Player)"
    },
    {
      "id": 7,
      "imageId": 66,
      "cred": 30,
      "flags": 1,
      "label": "Finished OUTSIDER Episode!!",
      "description": "Complete OUTSIDER episode in ROAD TO WrestleMania (Single Player)",
      "howto": "Complete OUTSIDER episode in ROAD TO WrestleMania (Single Player)"
    },
    {
      "id": 8,
      "imageId": 67,
      "cred": 50,
      "flags": 1,
      "label": "Finished HERO Episode!!!",
      "description": "Complete HERO episode in ROAD TO WrestleMania (Single Player)",
      "howto": "Complete HERO episode in ROAD TO WrestleMania (Single Player)"
    },
    {
      "id": 9,
      "imageId": 68,
      "cred": 15,
      "flags": 1,
      "label": "COMEBACK!!!",
      "description": "Use COMEBACK ability to increase momentum to MAX (Single Player)",
      "howto": "Use COMEBACK ability to increase momentum to MAX (Single Player)"
    },
    {
      "id": 10,
      "imageId": 69,
      "cred": 15,
      "flags": 1,
      "label": "The WWE Arrives at a New Arena!",
      "description": "Hold an Exhibition at a Custom Arena (Single Player)",
      "howto": "Hold an Exhibition at a Custom Arena (Single Player)"
    },
    {
      "id": 11,
      "imageId": 70,
      "cred": 15,
      "flags": 1,
      "label": "Destroyer",
      "description": "Inflict heavy damage to opponent's head, arms, and legs (Single Player)",
      "howto": "Inflict heavy damage to opponent's head, arms, and legs (Single Player)"
    },
    {
      "id": 12,
      "imageId": 71,
      "cred": 30,
      "flags": 1,
      "label": "Submission Specialist",
      "description": "Win 20 times with submissions in one session (Single Player)",
      "howto": "Win 20 times with submissions in one session (Single Player)"
    },
    {
      "id": 13,
      "imageId": 72,
      "cred": 15,
      "flags": 1,
      "label": "The Art of Submission",
      "description": "Win by applying a submission to a heavily damaged body part (Single Player)",
      "howto": "Win by applying a submission to a heavily damaged body part (Single Player)"
    },
    {
      "id": 14,
      "imageId": 73,
      "cred": 15,
      "flags": 1,
      "label": "Well Scouted",
      "description": "Reverse an opponent's finishing move (Single Player)",
      "howto": "Reverse an opponent's finishing move (Single Player)"
    },
    {
      "id": 15,
      "imageId": 74,
      "cred": 15,
      "flags": 1,
      "label": "Wildman of the Ring",
      "description": "Break 20 tables, ladders, or chairs in one session (Single Player)",
      "howto": "Break 20 tables, ladders, or chairs in one session (Single Player)"
    },
    {
      "id": 16,
      "imageId": 75,
      "cred": 30,
      "flags": 1,
      "label": "Berserker",
      "description": "Break 50 tables, ladders, or chairs in one session (Single Player)",
      "howto": "Break 50 tables, ladders, or chairs in one session (Single Player)"
    },
    {
      "id": 17,
      "imageId": 77,
      "cred": 15,
      "flags": 1,
      "label": "For Whom the Bell Tolls",
      "description": "Pin or submit Undertaker in the WrestleMania arena on Legend difficulty (Single Player)",
      "howto": "Pin or submit Undertaker in the WrestleMania arena on Legend difficulty (Single Player)"
    },
    {
      "id": 18,
      "imageId": 78,
      "cred": 20,
      "flags": 1,
      "label": "Challenger",
      "description": "Win at least once on Hard difficulty or higher (Single Player)",
      "howto": "Win at least once on Hard difficulty or higher (Single Player)"
    },
    {
      "id": 19,
      "imageId": 79,
      "cred": 30,
      "flags": 1,
      "label": "Professional Material",
      "description": "Win 20 times on Hard difficulty or higher in one session (Single Player)",
      "howto": "Win 20 times on Hard difficulty or higher in one session (Single Player)"
    },
    {
      "id": 20,
      "imageId": 80,
      "cred": 50,
      "flags": 1,
      "label": "Legend Status Accomplishments",
      "description": "Win 50 times on Hard difficulty or higher in one session (Single Player)",
      "howto": "Win 50 times on Hard difficulty or higher in one session (Single Player)"
    },
    {
      "id": 21,
      "imageId": 81,
      "cred": 15,
      "flags": 1,
      "label": "Thank You Edge",
      "description": "Win 37 times with Edge in one session (Single Player)",
      "howto": "Win 37 times with Edge in one session (Single Player)"
    },
    {
      "id": 22,
      "imageId": 82,
      "cred": 15,
      "flags": 1,
      "label": "Start as a Pro",
      "description": "Win using a Custom Superstar in WWE UNIVERSE (Single Player)",
      "howto": "Win using a Custom Superstar in WWE UNIVERSE (Single Player)"
    },
    {
      "id": 23,
      "imageId": 83,
      "cred": 15,
      "flags": 1,
      "label": "Rolling Now!",
      "description": "Build momentum up to 75% in WWE UNIVERSE using a Custom Superstar (Single Player)",
      "howto": "Build momentum up to 75% in WWE UNIVERSE using a Custom Superstar (Single Player)"
    },
    {
      "id": 24,
      "imageId": 84,
      "cred": 15,
      "flags": 1,
      "label": "I Ain't Losing to Anyone!",
      "description": "Build momentum up to 100% in WWE UNIVERSE using a Custom Superstar (Single Player)",
      "howto": "Build momentum up to 100% in WWE UNIVERSE using a Custom Superstar (Single Player)"
    },
    {
      "id": 25,
      "imageId": 85,
      "cred": 15,
      "flags": 1,
      "label": "I'm Gonna be Champion",
      "description": "Become #1 Contender for a Championship in WWE UNIVERSE using a Custom Superstar (Single Player)",
      "howto": "Become #1 Contender for a Championship in WWE UNIVERSE using a Custom Superstar (Single Player)"
    },
    {
      "id": 26,
      "imageId": 86,
      "cred": 20,
      "flags": 1,
      "label": "First Step of a Glorious Career",
      "description": "Win one Championship title in WWE UNIVERSE using a Custom Superstar (Single Player)",
      "howto": "Win one Championship title in WWE UNIVERSE using a Custom Superstar (Single Player)"
    },
    {
      "id": 27,
      "imageId": 87,
      "cred": 30,
      "flags": 1,
      "label": "I Like Titles",
      "description": "Win 3 championship titles in WWE UNIVERSE using a Custom Superstar (Single Player)",
      "howto": "Win 3 championship titles in WWE UNIVERSE using a Custom Superstar (Single Player)"
    },
    {
      "id": 28,
      "imageId": 88,
      "cred": 50,
      "flags": 1,
      "label": "Grand Slam Champion",
      "description": "Win 5 championship titles in WWE UNIVERSE using a Custom Superstar (Single Player)",
      "howto": "Win 5 championship titles in WWE UNIVERSE using a Custom Superstar (Single Player)"
    },
    {
      "id": 29,
      "imageId": 89,
      "cred": 15,
      "flags": 1,
      "label": "The Birth of a Historic Tag Team",
      "description": "Win or defend one Tag Team Championship in WWE UNIVERSE using a Custom Superstar (Single Player)",
      "howto": "Win or defend one Tag Team Championship in WWE UNIVERSE using a Custom Superstar (Single Player)"
    },
    {
      "id": 30,
      "imageId": 90,
      "cred": 15,
      "flags": 1,
      "label": "Mr. Money in the Bank",
      "description": "Win the Money In The Bank match in WWE UNIVERSE using a Custom Superstar (Single Player)",
      "howto": "Win the Money In The Bank match in WWE UNIVERSE using a Custom Superstar (Single Player)"
    },
    {
      "id": 31,
      "imageId": 91,
      "cred": 15,
      "flags": 1,
      "label": "A Successful Cash In",
      "description": "Cash in Money In The Bank in WWE UNIVERSE and win using a Custom Superstar (Single Player)",
      "howto": "Cash in Money In The Bank in WWE UNIVERSE and win using a Custom Superstar (Single Player)"
    },
    {
      "id": 32,
      "imageId": 92,
      "cred": 15,
      "flags": 1,
      "label": "Merciless Attack",
      "description": "Injure an opponent in WWE UNIVERSE (Single Player)",
      "howto": "Injure an opponent in WWE UNIVERSE (Single Player)"
    },
    {
      "id": 33,
      "imageId": 93,
      "cred": 30,
      "flags": 1,
      "label": "WrestleMania's My Destiny!",
      "description": "Win a Royal Rumble match at Royal Rumble PPV in WWE UNIVERSE (Single Player)",
      "howto": "Win a Royal Rumble match at Royal Rumble PPV in WWE UNIVERSE (Single Player)"
    },
    {
      "id": 34,
      "imageId": 94,
      "cred": 15,
      "flags": 1,
      "label": "My target at WrestleMania is...!",
      "description": "As WWE UNIVERSE Royal Rumble winner, participate in the Royal Rumble Winner's Event",
      "howto": "As WWE UNIVERSE Royal Rumble winner, participate in the Royal Rumble Winner's Event"
    },
    {
      "id": 35,
      "imageId": 95,
      "cred": 15,
      "flags": 1,
      "label": "A Man Destined to Be a Champion",
      "description": "Win the final match at WWE UNIVERSE WrestleMania PPV (Single Player)",
      "howto": "Win the final match at WWE UNIVERSE WrestleMania PPV (Single Player)"
    },
    {
      "id": 36,
      "imageId": 96,
      "cred": 15,
      "flags": 1,
      "label": "Superstar Contender",
      "description": "Win a Superstar match at the WWE UNIVERSE Draft Event (Single Player)",
      "howto": "Win a Superstar match at the WWE UNIVERSE Draft Event (Single Player)"
    },
    {
      "id": 37,
      "imageId": 97,
      "cred": 15,
      "flags": 1,
      "label": "Declaration of War",
      "description": "Interfere in an AI vs AI WWE UNIVERSE fight and beat one opponent (Single Player)",
      "howto": "Interfere in an AI vs AI WWE UNIVERSE fight and beat one opponent (Single Player)"
    },
    {
      "id": 38,
      "imageId": 98,
      "cred": 15,
      "flags": 1,
      "label": "Pandemonium",
      "description": "Interfere in an AI vs AI WWE UNIVERSE fight and beat all opponents (Single Player)",
      "howto": "Interfere in an AI vs AI WWE UNIVERSE fight and beat all opponents (Single Player)"
    },
    {
      "id": 39,
      "imageId": 99,
      "cred": 15,
      "flags": 1,
      "label": "Start Xbox LIVE NXT!",
      "description": "Play in an Xbox LIVE match (Player match/Ranked match)",
      "howto": "Play in an Xbox LIVE match (Player match/Ranked match)"
    },
    {
      "id": 42,
      "imageId": 100,
      "cred": 15,
      "flags": 1,
      "label": "A Creator is Born",
      "description": "Upload one creation to the WWE Community Creations",
      "howto": "Upload one creation to the WWE Community Creations"
    },
    {
      "id": 43,
      "imageId": 101,
      "cred": 30,
      "flags": 1,
      "label": "You've Got Fans!",
      "description": "Content you uploaded to Community Creations is downloaded 5 or more times by other players",
      "howto": "Content you uploaded to Community Creations is downloaded 5 or more times by other players"
    },
    {
      "id": 44,
      "imageId": 102,
      "cred": 15,
      "flags": 1,
      "label": "Critic",
      "description": "Review 5 or more items on Community Creations",
      "howto": "Review 5 or more items on Community Creations"
    },
    {
      "id": 45,
      "imageId": 103,
      "cred": 15,
      "flags": 1,
      "label": "That's gotta hurt!",
      "description": "Win a FREE BRAWL by throwing your opponent through the window (Single Player)",
      "howto": "Win a FREE BRAWL by throwing your opponent through the window (Single Player)"
    },
    {
      "id": 46,
      "imageId": 104,
      "cred": 15,
      "flags": 1,
      "label": "Holla!",
      "description": "Create your own show in WWE Universe",
      "howto": "Create your own show in WWE Universe"
    },
    {
      "id": 47,
      "imageId": 105,
      "cred": 30,
      "flags": 1,
      "label": "This Combo is Lethal!",
      "description": "Perform a Wake-Up taunt, hit your finisher, and then win via pinfall (Single Player)",
      "howto": "Perform a Wake-Up taunt, hit your finisher, and then win via pinfall (Single Player)"
    },
    {
      "id": 48,
      "imageId": 106,
      "cred": 15,
      "flags": 1,
      "label": "Reach the Ropes!",
      "description": "Crawl to the ropes during a submission (Single Player)",
      "howto": "Crawl to the ropes during a submission (Single Player)"
    },
    {
      "id": 49,
      "imageId": 107,
      "cred": 15,
      "flags": 1,
      "label": "Against the Odds",
      "description": "Win a ONE ON THREE FREE BRAWL (Single Player)",
      "howto": "Win a ONE ON THREE FREE BRAWL (Single Player)"
    },
    {
      "id": 50,
      "imageId": 108,
      "cred": 30,
      "flags": 1,
      "label": "Master of the Brawl",
      "description": "Execute a Finisher against all 44 areas in FREE BRAWL (Single Player)",
      "howto": "Execute a Finisher against all 44 areas in FREE BRAWL (Single Player)"
    },
    {
      "id": 51,
      "imageId": 109,
      "cred": 15,
      "flags": 1,
      "label": "Worked the Limb",
      "description": "Use the limb targeting system to attack the same part 10 times in one match (Single Player)",
      "howto": "Use the limb targeting system to attack the same part 10 times in one match (Single Player)"
    }
  ]
}