{
  "achievementsPossible": 50,
  "credPossible": 1000,
  "achievements": [
    {
      "id": 1,
      "imageId": 1,
      "cred": 5,
      "flags": 4,
      "label": "ゼンイチ",
      "description": "レッドホットスカルに搭乗した",
      "howto": "レッドホットスカルに搭乗する"
    },
    {
      "id": 2,
      "imageId": 2,
      "cred": 5,
      "flags": 4,
      "label": "ユン",
      "description": "FA-98 スティンガーに搭乗した",
      "howto": "FA-98 スティンガーに搭乗する"
    },
    {
      "id": 3,
      "imageId": 3,
      "cred": 5,
      "flags": 4,
      "label": "サダハール",
      "description": "タートル10000に搭乗した",
      "howto": "タートル10000に搭乗する"
    },
    {
      "id": 4,
      "imageId": 4,
      "cred": 5,
      "flags": 4,
      "label": "ループ",
      "description": "ピースオブケークに搭乗した",
      "howto": "ピースオブケークに搭乗する"
    },
    {
      "id": 5,
      "imageId": 5,
      "cred": 10,
      "flags": 6,
      "label": "ステージ1クリア（ノーマル）",
      "description": "ノーマルモード・ステージ1をクリアした",
      "howto": "ノーマルモード・ステージ1をクリアする"
    },
    {
      "id": 6,
      "imageId": 6,
      "cred": 20,
      "flags": 6,
      "label": "ステージ2クリア（ノーマル）",
      "description": "ノーマルモード・ステージ2をクリアした",
      "howto": "ノーマルモード・ステージ2をクリアする"
    },
    {
      "id": 7,
      "imageId": 7,
      "cred": 30,
      "flags": 6,
      "label": "ステージ3クリア（ノーマル）",
      "description": "ノーマルモード・ステージ3をクリアした",
      "howto": "ノーマルモード・ステージ3をクリアする"
    },
    {
      "id": 8,
      "imageId": 8,
      "cred": 40,
      "flags": 6,
      "label": "ステージ4クリア（ノーマル）",
      "description": "ノーマルモード・ステージ4をクリアした",
      "howto": "ノーマルモード・ステージ4をクリアする"
    },
    {
      "id": 9,
      "imageId": 9,
      "cred": 50,
      "flags": 6,
      "label": "ステージ5クリア（ノーマル）",
      "description": "ノーマルモード・ステージ5をクリアした",
      "howto": "ノーマルモード・ステージ5をクリアする"
    },
    {
      "id": 10,
      "imageId": 10,
      "cred": 10,
      "flags": 6,
      "label": "ステージ1クリア（バースト）",
      "description": "バーストモード・ステージ1をクリアした",
      "howto": "バーストモード・ステージ1をクリアする"
    },
    {
      "id": 11,
      "imageId": 11,
      "cred": 20,
      "flags": 6,
      "label": "ステージ2クリア（バースト）",
      "description": "バーストモード・ステージ2をクリアした",
      "howto": "バーストモード・ステージ2をクリアする"
    },
    {
      "id": 12,
      "imageId": 12,
      "cred": 30,
      "flags": 6,
      "label": "ステージ3クリア（バースト）",
      "description": "バーストモード・ステージ3をクリアした",
      "howto": "バーストモード・ステージ3をクリアする"
    },
    {
      "id": 13,
      "imageId": 13,
      "cred": 40,
      "flags": 6,
      "label": "ステージ4クリア（バースト）",
      "description": "バーストモード・ステージ4をクリアした",
      "howto": "バーストモード・ステージ4をクリアする"
    },
    {
      "id": 14,
      "imageId": 14,
      "cred": 50,
      "flags": 6,
      "label": "ステージ5クリア（バースト）",
      "description": "バーストモード・ステージ5をクリアした",
      "howto": "バーストモード・ステージ5をクリアする"
    },
    {
      "id": 15,
      "imageId": 15,
      "cred": 5,
      "flags": 6,
      "label": "キャラバンクリア",
      "description": "キャラバンモードをクリアした",
      "howto": "キャラバンモードをクリアする"
    },
    {
      "id": 16,
      "imageId": 16,
      "cred": 5,
      "flags": 4,
      "label": "捨てゲー",
      "description": "キャラバンモードでリトライした",
      "howto": "キャラバンモードでリトライする"
    },
    {
      "id": 17,
      "imageId": 17,
      "cred": 15,
      "flags": 6,
      "label": "超えるのは自分",
      "description": "キャラバンモードで自分の達成したハイスコアを塗りかえた",
      "howto": "キャラバンモード自分の達成したハイスコアを塗りかえる"
    },
    {
      "id": 18,
      "imageId": 18,
      "cred": 5,
      "flags": 6,
      "label": "狙いすぎ",
      "description": "キャラバンモードでミスをした",
      "howto": "キャラバンモードでミスをする"
    },
    {
      "id": 19,
      "imageId": 19,
      "cred": 10,
      "flags": 6,
      "label": "生きろ！",
      "description": "キャラバンモードをノーミスクリアした",
      "howto": "キャラバンモードをノーミスクリアする"
    },
    {
      "id": 20,
      "imageId": 20,
      "cred": 10,
      "flags": 6,
      "label": "無双転生",
      "description": "無双モードを解禁した",
      "howto": "隠しモードを解禁する"
    },
    {
      "id": 21,
      "imageId": 21,
      "cred": 10,
      "flags": 6,
      "label": "ステージ1クリア（無双）",
      "description": "無双モード・ステージ1をクリアした",
      "howto": "無双モード・ステージ1をクリアする"
    },
    {
      "id": 22,
      "imageId": 22,
      "cred": 20,
      "flags": 6,
      "label": "ステージ2クリア（無双）",
      "description": "無双モード・ステージ2をクリアした",
      "howto": "無双モード・ステージ2をクリアする"
    },
    {
      "id": 23,
      "imageId": 23,
      "cred": 30,
      "flags": 6,
      "label": "ステージ3クリア（無双）",
      "description": "無双モード・ステージ3をクリアした",
      "howto": "無双モード・ステージ3をクリアす"
    },
    {
      "id": 24,
      "imageId": 24,
      "cred": 40,
      "flags": 6,
      "label": "ステージ4クリア（無双）",
      "description": "無双モード・ステージ4をクリアした",
      "howto": "無双モード・ステージ4をクリアする"
    },
    {
      "id": 25,
      "imageId": 25,
      "cred": 50,
      "flags": 6,
      "label": "ステージ5クリア（無双）",
      "description": "無双モード・ステージ5をクリアした",
      "howto": "無双モード・ステージ5をクリアする"
    },
    {
      "id": 26,
      "imageId": 26,
      "cred": 30,
      "flags": 1,
      "label": "親父、仇はとったぜ！",
      "description": "ゼンイチでエンディングをみた",
      "howto": "ゼンイチでエンディングをみる"
    },
    {
      "id": 27,
      "imageId": 27,
      "cred": 30,
      "flags": 1,
      "label": "やれやれ、ようやく帰れるわ",
      "description": "ユンでエンディングをみた",
      "howto": "ユンでエンディングをみる"
    },
    {
      "id": 28,
      "imageId": 28,
      "cred": 30,
      "flags": 1,
      "label": "わしを許してくれるであろうか",
      "description": "サダハールでエンディングをみた",
      "howto": "サダハールでエンディングをみる"
    },
    {
      "id": 29,
      "imageId": 29,
      "cred": 30,
      "flags": 1,
      "label": "Pay back timeです",
      "description": "ループでエンディングを見た",
      "howto": "ループでエンディングを見る"
    },
    {
      "id": 30,
      "imageId": 30,
      "cred": 5,
      "flags": 7,
      "label": "合体承認！",
      "description": "バーストを発動した",
      "howto": "バーストを発動する"
    },
    {
      "id": 31,
      "imageId": 31,
      "cred": 5,
      "flags": 7,
      "label": "ここまでか！",
      "description": "バーストを手動で解除した",
      "howto": "バースト発動中に手動で解除する"
    },
    {
      "id": 32,
      "imageId": 32,
      "cred": 5,
      "flags": 7,
      "label": "前方不注意",
      "description": "バースト発動中に敵機に接触した",
      "howto": "バースト発動中に敵機に接触する"
    },
    {
      "id": 33,
      "imageId": 33,
      "cred": 10,
      "flags": 7,
      "label": "ノックアウト！",
      "description": "バーストモードでボスを瞬殺した",
      "howto": "バーストモードでボスを瞬殺する"
    },
    {
      "id": 34,
      "imageId": 34,
      "cred": 5,
      "flags": 7,
      "label": "もういっちょ！",
      "description": "1ステージ中に2回バーストを発動した",
      "howto": "1ステージ中に2回バーストを発動する"
    },
    {
      "id": 35,
      "imageId": 35,
      "cred": 10,
      "flags": 7,
      "label": "まだまだ続くんじゃ！",
      "description": "バーストを30秒以上継続した",
      "howto": "バーストを30秒以上継続する"
    },
    {
      "id": 36,
      "imageId": 36,
      "cred": 5,
      "flags": 7,
      "label": "そう簡単に墜ちるかよ！",
      "description": "HPを回復した",
      "howto": "HPを回復する"
    },
    {
      "id": 37,
      "imageId": 37,
      "cred": 20,
      "flags": 7,
      "label": "満タン王",
      "description": "ノーダメージ時にHPアイテムを累計100個獲得した",
      "howto": "ノーダメージ時にHPアイテムを累計100個獲得する"
    },
    {
      "id": 38,
      "imageId": 38,
      "cred": 10,
      "flags": 7,
      "label": "コインレート",
      "description": "コインのスコアレートを100,000点まで上げた",
      "howto": "コインのスコアレートを100,000点まで上げる"
    },
    {
      "id": 39,
      "imageId": 39,
      "cred": 15,
      "flags": 7,
      "label": "コレクションボーナス",
      "description": "コレクションボーナスを累計100回達成した",
      "howto": "コレクションボーナスを累計100回達成する"
    },
    {
      "id": 40,
      "imageId": 40,
      "cred": 20,
      "flags": 7,
      "label": "コイン王",
      "description": "コインアイテムを累計100,000個獲得した",
      "howto": "コインアイテムを累計100,000個獲得する"
    },
    {
      "id": 41,
      "imageId": 41,
      "cred": 30,
      "flags": 7,
      "label": "1面番長",
      "description": "番長モードで1面でプラチナメダル獲得した",
      "howto": "番長モードで1面でプラチナメダル獲得する"
    },
    {
      "id": 42,
      "imageId": 42,
      "cred": 30,
      "flags": 7,
      "label": "2面番長",
      "description": "番長モードで2面でプラチナメダル獲得した",
      "howto": "番長モードで2面でプラチナメダル獲得する"
    },
    {
      "id": 43,
      "imageId": 43,
      "cred": 30,
      "flags": 7,
      "label": "3面番長",
      "description": "番長モードで3面でプラチナメダル獲得した",
      "howto": "番長モードで3面でプラチナメダル獲得する"
    },
    {
      "id": 44,
      "imageId": 44,
      "cred": 30,
      "flags": 7,
      "label": "4面番長",
      "description": "番長モードで4面でプラチナメダル獲得した",
      "howto": "番長モードで4面でプラチナメダル獲得する"
    },
    {
      "id": 45,
      "imageId": 45,
      "cred": 30,
      "flags": 7,
      "label": "5面番長",
      "description": "番長モードで5面でプラチナメダル獲得した",
      "howto": "番長モードで5面でプラチナメダル獲得する"
    },
    {
      "id": 46,
      "imageId": 46,
      "cred": 25,
      "flags": 7,
      "label": "ソウル王",
      "description": "魂ゲージを倍率累計3,000獲得した",
      "howto": "魂ゲージを倍率累計3,000獲得する"
    },
    {
      "id": 47,
      "imageId": 47,
      "cred": 25,
      "flags": 7,
      "label": "稼ぎ王",
      "description": "各種ボーナスを累計で1000回獲得した",
      "howto": "各種ボーナスを累計で1000回獲得する"
    },
    {
      "id": 48,
      "imageId": 48,
      "cred": 25,
      "flags": 7,
      "label": "撃墜王",
      "description": "累計で100,000機撃墜した",
      "howto": "累計で100,000機撃墜する"
    },
    {
      "id": 49,
      "imageId": 49,
      "cred": 25,
      "flags": 7,
      "label": "メダル王",
      "description": "累計でメダルを100個獲得した",
      "howto": "累計でメダルを100個獲得する"
    },
    {
      "id": 50,
      "imageId": 50,
      "cred": 0,
      "flags": 1,
      "label": "実績王",
      "description": "全ての実績を解除した",
      "howto": "全ての実績を解除する"
    }
  ]
}