{
  "achievementsPossible": 8,
  "credPossible": 50,
  "achievements": [
    {
      "id": 3,
      "imageId": 7,
      "cred": 5,
      "flags": 1,
      "label": "Getting To Know You",
      "description": "Discovered all of your buddy's behaviors",
      "howto": "Discover all of your buddy's behaviors"
    },
    {
      "id": 5,
      "imageId": 2,
      "cred": 5,
      "flags": 1,
      "label": "Buddy, You're A Star!",
      "description": "Shared a video to KinectShare.com",
      "howto": "Share a video to KinectShare.com"
    },
    {
      "id": 6,
      "imageId": 3,
      "cred": 10,
      "flags": 1,
      "label": "Buddy, Can You Spare A Dime?",
      "description": "Shared 10 times",
      "howto": "Share 10 times"
    },
    {
      "id": 7,
      "imageId": 4,
      "cred": 5,
      "flags": 1,
      "label": "Multiple Personalities",
      "description": "Built all eight buddy personalities",
      "howto": "Build all eight buddy personalities"
    },
    {
      "id": 8,
      "imageId": 10,
      "cred": 5,
      "flags": 1,
      "label": "Toot Toot!",
      "description": "Held a crouch for 5 seconds",
      "howto": "Have your buddy crouch for 5 seconds"
    },
    {
      "id": 9,
      "imageId": 6,
      "cred": 10,
      "flags": 1,
      "label": "Build A Buddy Pro",
      "description": "Built 25 buddies",
      "howto": "Build 25 buddies"
    },
    {
      "id": 10,
      "imageId": 8,
      "cred": 5,
      "flags": 1,
      "label": "It's ALIVE!",
      "description": "Brought an object to life",
      "howto": "Bring an object to life"
    },
    {
      "id": 11,
      "imageId": 1,
      "cred": 5,
      "flags": 1,
      "label": "Meet My Buddy",
      "description": "Shared a video on your Friends Feed",
      "howto": "Share a video on your Friends Feed"
    }
  ]
}