{
  "achievementsPossible": 46,
  "credPossible": 1000,
  "achievements": [
    {
      "id": 3,
      "imageId": 1,
      "cred": 10,
      "flags": 6,
      "label": "冒険者",
      "description": "不思議な少女メイに出会いました。",
      "howto": "フィールド上でサーチを行うと、イベントポイント等を発見できます。"
    },
    {
      "id": 4,
      "imageId": 4,
      "cred": 50,
      "flags": 6,
      "label": "記憶のために",
      "description": "エトナ、プリニー戦（３戦目）に勝利しました。",
      "howto": "３戦目"
    },
    {
      "id": 5,
      "imageId": 5,
      "cred": 100,
      "flags": 6,
      "label": "卑怯なあいつ",
      "description": "ラザラスとの死闘を制し、オギュスタンも退けました。",
      "howto": "一騎打ちで勝ちましょう"
    },
    {
      "id": 6,
      "imageId": 6,
      "cred": 100,
      "flags": 6,
      "label": "ひとつに…",
      "description": "命とメイが一つになることを決意しました。",
      "howto": "命とメイは一つに…"
    },
    {
      "id": 7,
      "imageId": 7,
      "cred": 100,
      "flags": 6,
      "label": "大いなるもの",
      "description": "悪意の獏を倒しました。",
      "howto": "悪意の獏を倒しましょう。"
    },
    {
      "id": 8,
      "imageId": 8,
      "cred": 30,
      "flags": 6,
      "label": "True Ending",
      "description": "真のエンディングに到達しました。",
      "howto": "真のエンディングを目指しましょう。"
    },
    {
      "id": 9,
      "imageId": 9,
      "cred": 5,
      "flags": 6,
      "label": "初称号",
      "description": "称号を獲得しました。\r\nコンプリートを目指してみましょう！",
      "howto": "称号のチェックをお忘れなく。"
    },
    {
      "id": 10,
      "imageId": 10,
      "cred": 50,
      "flags": 1,
      "label": "L.O.X",
      "description": "全ての称号を獲得しました。",
      "howto": "全ての称号を獲得しましょう。\r\n"
    },
    {
      "id": 11,
      "imageId": 11,
      "cred": 10,
      "flags": 6,
      "label": "ソウルの解放",
      "description": "ソウル（アイテム）を30個解放しました。\r\n解放できるソウルはまだまだあります。",
      "howto": "ソウルを開放しましょう。"
    },
    {
      "id": 12,
      "imageId": 12,
      "cred": 25,
      "flags": 6,
      "label": "全ソウルの解放",
      "description": "すべてのソウル（アイテム）を開放しました。",
      "howto": "すべてのソウルの解放"
    },
    {
      "id": 13,
      "imageId": 13,
      "cred": 5,
      "flags": 6,
      "label": "フォームチェンジ",
      "description": "フォームチェンジを行いました。",
      "howto": "フォームをチェンジをしてみましょう。"
    },
    {
      "id": 14,
      "imageId": 14,
      "cred": 10,
      "flags": 6,
      "label": "フォームマスター",
      "description": "データベースで手に入る全てのフォームを手に入れました。",
      "howto": "すべてのフォーム"
    },
    {
      "id": 15,
      "imageId": 15,
      "cred": 10,
      "flags": 6,
      "label": "セーフルームの発見",
      "description": "すべてのセーフルームを見つけました。",
      "howto": "すべてのセーフルームを見つけましょう。"
    },
    {
      "id": 16,
      "imageId": 16,
      "cred": 15,
      "flags": 6,
      "label": "強者",
      "description": "レベルが101まで到達しました。\r\n（限界はまだまだ先ですよ）",
      "howto": "レベルを101まで上げましょう。\r\n（キャラクターは問いません）"
    },
    {
      "id": 17,
      "imageId": 17,
      "cred": 5,
      "flags": 6,
      "label": "EX Combination",
      "description": "戦闘でエクストラコンビネーションを決めました。",
      "howto": "エクストラコンビネーション"
    },
    {
      "id": 18,
      "imageId": 18,
      "cred": 15,
      "flags": 6,
      "label": "OVER KILL",
      "description": "OVERKILLを333回達成しました。",
      "howto": "OVERKILLで敵を倒しましょう。"
    },
    {
      "id": 19,
      "imageId": 19,
      "cred": 10,
      "flags": 6,
      "label": "感覚",
      "description": "サーチレベルが最高になりました。",
      "howto": "サーチレベルのMAX"
    },
    {
      "id": 20,
      "imageId": 20,
      "cred": 10,
      "flags": 6,
      "label": "錬金術師",
      "description": "マリーの錬金レベルが最高まで上がりました。\r\nこれで彼女も立派な錬金術師です。\r\n",
      "howto": "マリーの錬金レベルを上げましょう。"
    },
    {
      "id": 21,
      "imageId": 21,
      "cred": 35,
      "flags": 6,
      "label": "モンスター図鑑",
      "description": "モンスター図鑑の項目が全て埋まりました。",
      "howto": "モンスター図鑑を完成させましょう。"
    },
    {
      "id": 22,
      "imageId": 22,
      "cred": 25,
      "flags": 6,
      "label": "破壊神を超えた者",
      "description": "敵の撃破数が4000を超えました。",
      "howto": "撃破数4000\r\n"
    },
    {
      "id": 23,
      "imageId": 23,
      "cred": 25,
      "flags": 6,
      "label": "闘神を超えた者",
      "description": "戦闘回数が1500回を突破しました。",
      "howto": "戦闘回数1500"
    },
    {
      "id": 24,
      "imageId": 24,
      "cred": 20,
      "flags": 6,
      "label": "狩人",
      "description": "あなたは10体のリュイットを狩りました。",
      "howto": "リュイットを10体倒す"
    },
    {
      "id": 25,
      "imageId": 25,
      "cred": 10,
      "flags": 6,
      "label": "イデア2制覇",
      "description": "イデアの階層2を制覇しました。",
      "howto": "エリア5-2すべてのポイントクリア"
    },
    {
      "id": 26,
      "imageId": 26,
      "cred": 20,
      "flags": 6,
      "label": "イデア3制覇",
      "description": "イデアの階層3を制覇しました。",
      "howto": "エリア5-3すべてのポイントクリア"
    },
    {
      "id": 27,
      "imageId": 27,
      "cred": 10,
      "flags": 6,
      "label": "最初の難関？",
      "description": "焦燥の末路にてプリニーをOVERKILLで倒しました。",
      "howto": "プリニーOVERKILL"
    },
    {
      "id": 28,
      "imageId": 28,
      "cred": 10,
      "flags": 6,
      "label": "おさかな食べたい",
      "description": "エールの泉で大王イカをOVERKILLで倒しました。",
      "howto": "ネコです"
    },
    {
      "id": 29,
      "imageId": 29,
      "cred": 10,
      "flags": 6,
      "label": "腕だめし",
      "description": "ヘリエンド歴史会館での戦闘を全て勝ち抜きました。",
      "howto": "５連戦"
    },
    {
      "id": 30,
      "imageId": 30,
      "cred": 10,
      "flags": 6,
      "label": "温泉めぐり",
      "description": "すべての温泉イベントを見ました。",
      "howto": "全部の温泉イベント"
    },
    {
      "id": 31,
      "imageId": 31,
      "cred": 10,
      "flags": 6,
      "label": "問答無用",
      "description": "道連れサントギーニにて冬夜をOVERKILLで倒しました。",
      "howto": "冬夜OVERKILL"
    },
    {
      "id": 32,
      "imageId": 32,
      "cred": 15,
      "flags": 6,
      "label": "ヴァンパイア",
      "description": "デミトリ、リリスの2人がパーティに加わりました。",
      "howto": "デミとリリス"
    },
    {
      "id": 33,
      "imageId": 33,
      "cred": 15,
      "flags": 6,
      "label": "覚悟",
      "description": "ヴィヴィが合流しパーティに加わりました。",
      "howto": "ヴィヴィが仲間になると解除"
    },
    {
      "id": 34,
      "imageId": 34,
      "cred": 30,
      "flags": 6,
      "label": "オールメンバー",
      "description": "すべてのメンバーが仲間になりました。",
      "howto": "全キャラクター"
    },
    {
      "id": 35,
      "imageId": 35,
      "cred": 10,
      "flags": 6,
      "label": "ヘルザイト",
      "description": "ヘルザイト入口にてボルドを倒しました。（HARD)",
      "howto": "ボルド撃破"
    },
    {
      "id": 36,
      "imageId": 36,
      "cred": 10,
      "flags": 6,
      "label": "アルカディア",
      "description": "アルカディア入口にて雷禅を倒しました。",
      "howto": "雷禅撃破"
    },
    {
      "id": 37,
      "imageId": 37,
      "cred": 10,
      "flags": 6,
      "label": "朽ちたムイムイの羨望",
      "description": "朽ちたムイムイの羨望にてアネーシャを倒しました。",
      "howto": "アネーシャ撃破"
    },
    {
      "id": 38,
      "imageId": 38,
      "cred": 10,
      "flags": 6,
      "label": "落日怠惰",
      "description": "落日怠惰にてルゥリッヒを倒しました。（HARD）",
      "howto": "ルゥの撃破"
    },
    {
      "id": 39,
      "imageId": 39,
      "cred": 10,
      "flags": 6,
      "label": "隠悪落胆",
      "description": "隠悪落胆にてボルドを倒しました。（HARD）",
      "howto": "ボルドの撃破"
    },
    {
      "id": 40,
      "imageId": 40,
      "cred": 10,
      "flags": 6,
      "label": "驕臣憎悪",
      "description": "驕臣憎悪にてオギュスタンとズーを同時に倒しました。（HARD）",
      "howto": "オギュの撃破"
    },
    {
      "id": 41,
      "imageId": 41,
      "cred": 10,
      "flags": 6,
      "label": "地盤調査区域",
      "description": "地盤調査区域にてジェダを撃破しました。",
      "howto": "ジェダの撃破"
    },
    {
      "id": 42,
      "imageId": 42,
      "cred": 5,
      "flags": 6,
      "label": "初勝利",
      "description": "コロシアムで勝利しました。\r\n全部のランクをクリア目指してがんばってね。",
      "howto": "コロシアムに挑戦してみましょう。"
    },
    {
      "id": 43,
      "imageId": 43,
      "cred": 15,
      "flags": 6,
      "label": "爆炎の申し子",
      "description": "爆炎の申し子に勝利しました。",
      "howto": "ヒロ撃破"
    },
    {
      "id": 44,
      "imageId": 44,
      "cred": 15,
      "flags": 6,
      "label": "コア・エレメンタル",
      "description": "ゼロスに勝利しました。",
      "howto": "ゼロス撃破"
    },
    {
      "id": 45,
      "imageId": 45,
      "cred": 15,
      "flags": 6,
      "label": "ロンロンピアの魔法使い",
      "description": "たこ焼き好きの魔法少女に勝利しました。",
      "howto": "ころん撃破"
    },
    {
      "id": 46,
      "imageId": 46,
      "cred": 20,
      "flags": 6,
      "label": "チャンピオン",
      "description": "コロシアムをランク４０までクリアしました。",
      "howto": "コロシアムクリア"
    },
    {
      "id": 47,
      "imageId": 47,
      "cred": 20,
      "flags": 6,
      "label": "魔粧覚醒",
      "description": "覚醒した爆炎の申し子に勝利しました。",
      "howto": "ヒロ覚醒版撃破"
    },
    {
      "id": 48,
      "imageId": 48,
      "cred": 35,
      "flags": 6,
      "label": "コロシアム制覇",
      "description": "コロシアムの全ランクをクリアしました。\r\n",
      "howto": "コロシアム全クリア"
    }
  ]
}