{
  "achievementsPossible": 41,
  "credPossible": 1000,
  "achievements": [
    {
      "id": 6,
      "imageId": 1,
      "cred": 20,
      "flags": 6,
      "label": "アケボノハゼの卵が孵化。",
      "description": "アケボノハゼの稚魚が誕生しました。",
      "howto": ""
    },
    {
      "id": 7,
      "imageId": 2,
      "cred": 20,
      "flags": 6,
      "label": "バイカラー・ドティーバッグの卵が孵化。",
      "description": "バイカラー・ドティーバッグの稚魚が誕生しました。",
      "howto": ""
    },
    {
      "id": 8,
      "imageId": 3,
      "cred": 20,
      "flags": 6,
      "label": "ゴールデン・バタフライフィッシュの卵が孵化。",
      "description": "ゴールデン・バタフライフィッシュの稚魚が誕生しました。",
      "howto": ""
    },
    {
      "id": 9,
      "imageId": 4,
      "cred": 20,
      "flags": 6,
      "label": "ゴールドリム・タングの卵が孵化。",
      "description": "ゴールドリム・タングの稚魚が誕生しました。",
      "howto": ""
    },
    {
      "id": 10,
      "imageId": 5,
      "cred": 20,
      "flags": 6,
      "label": "ハマクマノミの卵が孵化。",
      "description": "ハマクマノミの稚魚が誕生しました。",
      "howto": ""
    },
    {
      "id": 11,
      "imageId": 6,
      "cred": 20,
      "flags": 6,
      "label": "ハナビラクマノミの卵が孵化。",
      "description": "ハナビラクマノミの稚魚が誕生しました。",
      "howto": ""
    },
    {
      "id": 12,
      "imageId": 7,
      "cred": 20,
      "flags": 6,
      "label": "ハタタテハゼの卵が孵化。",
      "description": "ハタタテハゼの稚魚が誕生しました。",
      "howto": ""
    },
    {
      "id": 13,
      "imageId": 8,
      "cred": 20,
      "flags": 6,
      "label": "カクレクマノミの卵が孵化。",
      "description": "カクレクマノミの稚魚が誕生しました。",
      "howto": ""
    },
    {
      "id": 14,
      "imageId": 9,
      "cred": 20,
      "flags": 6,
      "label": "カクレクマノミ（黒）の卵が孵化。",
      "description": "カクレクマノミ（黒）の稚魚が誕生しました。",
      "howto": ""
    },
    {
      "id": 15,
      "imageId": 10,
      "cred": 20,
      "flags": 6,
      "label": "キイロハギの卵が孵化。",
      "description": "キイロハギの稚魚が誕生しました。",
      "howto": ""
    },
    {
      "id": 16,
      "imageId": 11,
      "cred": 20,
      "flags": 6,
      "label": "コンゴウフグの卵が孵化。",
      "description": "コンゴウフグの稚魚が誕生しました。",
      "howto": ""
    },
    {
      "id": 17,
      "imageId": 12,
      "cred": 20,
      "flags": 6,
      "label": "クマノミの卵が孵化。",
      "description": "クマノミの稚魚が誕生しました。",
      "howto": ""
    },
    {
      "id": 18,
      "imageId": 13,
      "cred": 20,
      "flags": 6,
      "label": "クレナイニセスズメの卵が孵化。",
      "description": "クレナイニセスズメの稚魚が誕生しました。",
      "howto": ""
    },
    {
      "id": 19,
      "imageId": 14,
      "cred": 20,
      "flags": 6,
      "label": "ミツボシクロスズメダイの卵が孵化。",
      "description": "ミツボシクロスズメダイの稚魚が誕生しました。",
      "howto": ""
    },
    {
      "id": 20,
      "imageId": 15,
      "cred": 20,
      "flags": 6,
      "label": "ナンヨウハギの卵が孵化。",
      "description": "ナンヨウハギの稚魚が誕生しました。",
      "howto": ""
    },
    {
      "id": 21,
      "imageId": 16,
      "cred": 20,
      "flags": 6,
      "label": "パウダーブルーの卵が孵化。",
      "description": "パウダーブルーの稚魚が誕生しました。",
      "howto": ""
    },
    {
      "id": 22,
      "imageId": 17,
      "cred": 20,
      "flags": 6,
      "label": "ルリスズメダイの卵が孵化。",
      "description": "ルリスズメダイの稚魚が誕生しました。",
      "howto": ""
    },
    {
      "id": 23,
      "imageId": 18,
      "cred": 20,
      "flags": 6,
      "label": "セバエアネモネフィッシュの卵が孵化。",
      "description": "セバエアネモネフィッシュの稚魚が誕生しました。",
      "howto": ""
    },
    {
      "id": 24,
      "imageId": 19,
      "cred": 20,
      "flags": 6,
      "label": "シリキルリスズメダイの卵が孵化。",
      "description": "シリキルリスズメダイの稚魚が誕生しました。",
      "howto": ""
    },
    {
      "id": 25,
      "imageId": 20,
      "cred": 20,
      "flags": 6,
      "label": "スミレナガハナダイの卵が孵化。",
      "description": "スミレナガハナダイの稚魚が誕生しました。",
      "howto": ""
    },
    {
      "id": 26,
      "imageId": 21,
      "cred": 20,
      "flags": 6,
      "label": "トゲチョウチョウウオの卵が孵化。",
      "description": "トゲチョウチョウウオの稚魚が誕生しました。",
      "howto": ""
    },
    {
      "id": 27,
      "imageId": 22,
      "cred": 20,
      "flags": 6,
      "label": "トウアカクマノミの卵が孵化。",
      "description": "トウアカクマノミの稚魚が誕生しました。",
      "howto": ""
    },
    {
      "id": 28,
      "imageId": 23,
      "cred": 20,
      "flags": 6,
      "label": "ホワイトバードボックスの卵が孵化。",
      "description": "ホワイトバードボックスの稚魚が誕生しました。",
      "howto": ""
    },
    {
      "id": 29,
      "imageId": 24,
      "cred": 20,
      "flags": 6,
      "label": "ヨスジリュウキュウスズメダイの卵が孵化。",
      "description": "ヨスジリュウキュウスズメダイの稚魚が誕生しました。",
      "howto": ""
    },
    {
      "id": 30,
      "imageId": 25,
      "cred": 20,
      "flags": 6,
      "label": "コリドラス・アエネウスの卵が孵化。",
      "description": "コリドラス・アエネウスの稚魚が誕生しました。",
      "howto": ""
    },
    {
      "id": 31,
      "imageId": 26,
      "cred": 20,
      "flags": 6,
      "label": "エンゼルフィッシュの卵が孵化。",
      "description": "エンゼルフィッシュの稚魚が誕生しました。",
      "howto": ""
    },
    {
      "id": 32,
      "imageId": 27,
      "cred": 20,
      "flags": 6,
      "label": "アジアアロワナの卵が孵化。",
      "description": "アジアアロワナの稚魚が誕生しました。",
      "howto": ""
    },
    {
      "id": 33,
      "imageId": 28,
      "cred": 20,
      "flags": 6,
      "label": "ブラックネオンテトラの卵が孵化。",
      "description": "ブラックネオンテトラの稚魚が誕生しました。",
      "howto": ""
    },
    {
      "id": 34,
      "imageId": 29,
      "cred": 20,
      "flags": 6,
      "label": "ブルーエンペラーの卵が孵化。",
      "description": "ブルーエンペラーの稚魚が誕生しました。",
      "howto": ""
    },
    {
      "id": 35,
      "imageId": 30,
      "cred": 20,
      "flags": 6,
      "label": "カージナルテトラの卵が孵化。",
      "description": "カージナルテトラの稚魚が誕生しました。",
      "howto": ""
    },
    {
      "id": 36,
      "imageId": 31,
      "cred": 20,
      "flags": 6,
      "label": "トランスルーセントグラスキャットの卵が孵化。",
      "description": "トランスルーセントグラスキャットの稚魚が誕生しました。",
      "howto": ""
    },
    {
      "id": 37,
      "imageId": 32,
      "cred": 20,
      "flags": 6,
      "label": "グローライトテトラの卵が孵化。",
      "description": "グローライトテトラの稚魚が誕生しました。",
      "howto": ""
    },
    {
      "id": 38,
      "imageId": 33,
      "cred": 20,
      "flags": 6,
      "label": "グリーンネオンの卵が孵化。",
      "description": "グリーンネオンの稚魚が誕生しました。",
      "howto": ""
    },
    {
      "id": 39,
      "imageId": 34,
      "cred": 20,
      "flags": 6,
      "label": "コリドラス・ジュリーの卵が孵化。",
      "description": "コリドラス・ジュリーの稚魚が誕生しました。",
      "howto": ""
    },
    {
      "id": 40,
      "imageId": 35,
      "cred": 20,
      "flags": 6,
      "label": "ネオンテトラの卵が孵化。",
      "description": "ネオンテトラの稚魚が誕生しました。",
      "howto": ""
    },
    {
      "id": 41,
      "imageId": 36,
      "cred": 20,
      "flags": 6,
      "label": "コリドラス・パンダの卵が孵化。",
      "description": "コリドラス・パンダの稚魚が誕生しました。",
      "howto": ""
    },
    {
      "id": 42,
      "imageId": 37,
      "cred": 20,
      "flags": 6,
      "label": "ペンギンテトラの卵が孵化。",
      "description": "ペンギンテトラの稚魚が誕生しました。",
      "howto": ""
    },
    {
      "id": 43,
      "imageId": 38,
      "cred": 20,
      "flags": 6,
      "label": "レッドファントムテトラの卵が孵化。",
      "description": "レッドファントムテトラの稚魚が誕生しました。",
      "howto": ""
    },
    {
      "id": 44,
      "imageId": 39,
      "cred": 20,
      "flags": 6,
      "label": "ラミーノーズテトラの卵が孵化。",
      "description": "ラミーノーズテトラの稚魚が誕生しました。",
      "howto": ""
    },
    {
      "id": 45,
      "imageId": 40,
      "cred": 20,
      "flags": 1,
      "label": "ミドリフグの卵が孵化。",
      "description": "ミドリフグの稚魚が誕生しました。",
      "howto": ""
    },
    {
      "id": 207,
      "imageId": 32768,
      "cred": 200,
      "flags": 6,
      "label": "１００日達成",
      "description": "水槽を作成して１００日が経ちました。",
      "howto": ""
    }
  ]
}