{
  "achievementsPossible": 25,
  "credPossible": 1000,
  "achievements": [
    {
      "id": 1,
      "imageId": 5,
      "cred": 30,
      "flags": 6,
      "label": "Flash Baked",
      "description": "Completed Case 1: Flash Baked.",
      "howto": "Complete Case 1: Flash Baked."
    },
    {
      "id": 2,
      "imageId": 8,
      "cred": 30,
      "flags": 6,
      "label": "Planting Evidence",
      "description": "Completed Case 2: Planting Evidence.",
      "howto": "Complete Case 2: Planting Evidence."
    },
    {
      "id": 3,
      "imageId": 11,
      "cred": 30,
      "flags": 6,
      "label": "Tapped Out",
      "description": "Completed Case 3: Tapped Out.",
      "howto": "Complete Case 3: Tapped Out."
    },
    {
      "id": 4,
      "imageId": 14,
      "cred": 30,
      "flags": 6,
      "label": "All Washed Up",
      "description": "Completed Case 4: All Washed Up.",
      "howto": "Complete Case 4: All Washed Up."
    },
    {
      "id": 5,
      "imageId": 17,
      "cred": 30,
      "flags": 6,
      "label": "Boss Fight",
      "description": "Completed Case 5: Boss Fight.",
      "howto": "Complete Case 5: Boss Fight."
    },
    {
      "id": 6,
      "imageId": 23,
      "cred": 15,
      "flags": 4,
      "label": "Fool Me Once",
      "description": "Completed a case with at least 65% Cunning.",
      "howto": "Complete a case with at least 65% Cunning."
    },
    {
      "id": 7,
      "imageId": 24,
      "cred": 30,
      "flags": 4,
      "label": "Can't Get Fooled Again",
      "description": "Completed a case with at least 90% Cunning.",
      "howto": "Complete a case with at least 90% Cunning."
    },
    {
      "id": 8,
      "imageId": 25,
      "cred": 90,
      "flags": 4,
      "label": "Human Polygraph",
      "description": "Completed a case with 100% Cunning.",
      "howto": "Complete a case with 100% Cunning."
    },
    {
      "id": 9,
      "imageId": 19,
      "cred": 90,
      "flags": 1,
      "label": "CSI: Fatal Conspiracy",
      "description": "Completed CSI: Fatal Conspiracy.",
      "howto": "Complete CSI: Fatal Conspiracy."
    },
    {
      "id": 10,
      "imageId": 6,
      "cred": 30,
      "flags": 4,
      "label": "Not up to Code",
      "description": "Confronted Pete Baxa about asbestos in the spa.",
      "howto": "Confront Pete Baxa about asbestos in the spa."
    },
    {
      "id": 11,
      "imageId": 9,
      "cred": 30,
      "flags": 4,
      "label": "Scavenger Hunt",
      "description": "Found all evidence in Case 2: Planting Evidence",
      "howto": "Find all evidence in Case 2: Planting Evidence"
    },
    {
      "id": 12,
      "imageId": 12,
      "cred": 30,
      "flags": 4,
      "label": "A Tough Job",
      "description": "Identified both samples of DNA on the garment from John Barrett's room.",
      "howto": "Identify both samples of DNA on the garment from John Barrett's room."
    },
    {
      "id": 13,
      "imageId": 13,
      "cred": 90,
      "flags": 4,
      "label": "Sunday, Sunday, Sunday!",
      "description": "Noticed the discrepancy in Jayne Barrett's security records.",
      "howto": "Notice the discrepancy in Jayne Barrett's security records."
    },
    {
      "id": 14,
      "imageId": 15,
      "cred": 30,
      "flags": 4,
      "label": "He Said, She Said",
      "description": "Asked Will Rice about Veronica's real alibi.",
      "howto": "Ask Will Rice about Veronica's real alibi."
    },
    {
      "id": 15,
      "imageId": 18,
      "cred": 90,
      "flags": 4,
      "label": "Smoke the Hive",
      "description": "Found enough evidence to destroy Beatriz Salazar's drug empire.",
      "howto": "Find enough evidence to destroy Beatriz Salazar's drug empire."
    },
    {
      "id": 16,
      "imageId": 3,
      "cred": 15,
      "flags": 6,
      "label": "Reading Is Fun",
      "description": "Opened the Case File.",
      "howto": "Open the Case File."
    },
    {
      "id": 17,
      "imageId": 4,
      "cred": 15,
      "flags": 6,
      "label": "I Like to Watch",
      "description": "Watched a movie from the Case File.",
      "howto": "Watch a movie from the Case File."
    },
    {
      "id": 18,
      "imageId": 1,
      "cred": 10,
      "flags": 6,
      "label": "Thanks For Playing",
      "description": "Watched the opening sequence.",
      "howto": "Watch the opening sequence."
    },
    {
      "id": 19,
      "imageId": 2,
      "cred": 15,
      "flags": 6,
      "label": "Under the Hood",
      "description": "Visited the Options Menu.",
      "howto": "Visit the Options Menu."
    },
    {
      "id": 20,
      "imageId": 26,
      "cred": 15,
      "flags": 4,
      "label": "Test Tube Washer",
      "description": "Completed a case with at least 65% Skill.",
      "howto": "Complete a case with at least 65% Skill."
    },
    {
      "id": 21,
      "imageId": 27,
      "cred": 30,
      "flags": 4,
      "label": "Research Grant",
      "description": "Completed a case with at least 90% Skill.",
      "howto": "Complete a case with at least 90% Skill."
    },
    {
      "id": 22,
      "imageId": 28,
      "cred": 90,
      "flags": 4,
      "label": "Technically Perfect",
      "description": "Completed a case with 100% Skill.",
      "howto": "Complete a case with 100% Skill."
    },
    {
      "id": 23,
      "imageId": 20,
      "cred": 15,
      "flags": 4,
      "label": "Thorough Enough, Darn It",
      "description": "Completed a case with at least 65% Thoroughness.",
      "howto": "Complete a case with at least 65% Thoroughness."
    },
    {
      "id": 24,
      "imageId": 21,
      "cred": 30,
      "flags": 4,
      "label": "Close Enough Counts After All",
      "description": "Completed a case with at least 90% Thoroughness.",
      "howto": "Complete a case with at least 90% Thoroughness."
    },
    {
      "id": 25,
      "imageId": 22,
      "cred": 90,
      "flags": 4,
      "label": "No Stone Unturned",
      "description": "Completed a case with 100% Thoroughness.",
      "howto": "Complete a case with 100% Thoroughness."
    }
  ]
}