{
  "achievementsPossible": 12,
  "credPossible": 200,
  "achievements": [
    {
      "id": 1,
      "imageId": 45,
      "cred": 20,
      "flags": 1,
      "label": "Parting Waves",
      "description": "Complete all single player Tackle Alley challenges",
      "howto": "Complete all single player Tackle Alley challenges"
    },
    {
      "id": 5,
      "imageId": 46,
      "cred": 20,
      "flags": 1,
      "label": "Tackle Master",
      "description": "Complete all single player Vengeance challenges",
      "howto": "Complete all single player Vengeance challenges"
    },
    {
      "id": 12,
      "imageId": 47,
      "cred": 20,
      "flags": 1,
      "label": "Born Winner",
      "description": "Complete all single player Supremacy challenges",
      "howto": "Complete all single player Supremacy challenges"
    },
    {
      "id": 16,
      "imageId": 48,
      "cred": 10,
      "flags": 4,
      "label": "Multiply and Conquer",
      "description": "Reach 10 combo multiplier in Tackle Alley",
      "howto": "Reach 10 combo multiplier in Tackle Alley"
    },
    {
      "id": 18,
      "imageId": 49,
      "cred": 10,
      "flags": 4,
      "label": "The Jester",
      "description": "Showboat down the field for 30 yards in one wave in Tackle Alley",
      "howto": "Showboat down the field for 30 yards in one wave in Tackle Alley"
    },
    {
      "id": 22,
      "imageId": 50,
      "cred": 20,
      "flags": 4,
      "label": "Cleaning Up",
      "description": "Collect 5 score patches in one wave in Tackle Alley",
      "howto": "Collect 5 score patches in one wave in Tackle Alley"
    },
    {
      "id": 24,
      "imageId": 51,
      "cred": 20,
      "flags": 1,
      "label": "Relentless",
      "description": "Complete an entire single player Vengeance challenge without giving up a score",
      "howto": "Complete an entire single player Vengeance challenge without giving up a score"
    },
    {
      "id": 25,
      "imageId": 52,
      "cred": 20,
      "flags": 1,
      "label": "Pole Position",
      "description": "Score highest on every wave of a single player Supremacy challenge",
      "howto": "Score highest on every wave of a single player Supremacy challenge"
    },
    {
      "id": 26,
      "imageId": 53,
      "cred": 20,
      "flags": 1,
      "label": "The Immortal",
      "description": "Complete a single player Tackle Alley challenge without losing a life",
      "howto": "Complete a single player Tackle Alley challenge without losing a life"
    },
    {
      "id": 27,
      "imageId": 54,
      "cred": 10,
      "flags": 4,
      "label": "Headbanger",
      "description": "Collide 2 defenders into each other",
      "howto": "Collide 2 defenders into each other"
    },
    {
      "id": 32,
      "imageId": 55,
      "cred": 20,
      "flags": 1,
      "label": "Jack of all Trades",
      "description": "In Tackle Alley use jump, barge and slide on all of the appropriate tacklers in a wave.",
      "howto": "In Tackle Alley use jump, barge and slide on all of the appropriate tacklers in a wave."
    },
    {
      "id": 33,
      "imageId": 56,
      "cred": 10,
      "flags": 1,
      "label": "It Begins",
      "description": "Complete a wave",
      "howto": "Complete a wave"
    }
  ]
}