{
  "achievementsPossible": 12,
  "credPossible": 400,
  "achievements": [
    {
      "id": 1,
      "imageId": 14,
      "cred": 20,
      "flags": 1,
      "label": "Breaking the Ice",
      "description": "Answer the first question correctly (single player game) ",
      "howto": "Answer the first question correctly (single player game) "
    },
    {
      "id": 8,
      "imageId": 15,
      "cred": 20,
      "flags": 1,
      "label": "That's what they are there for",
      "description": "Use a lifeline (single player game)",
      "howto": "Use a lifeline (single player game)"
    },
    {
      "id": 9,
      "imageId": 17,
      "cred": 10,
      "flags": 1,
      "label": "It's easy when you know...",
      "description": "Walk away with nothing (single player game)",
      "howto": "Walk away with nothing (single player game)"
    },
    {
      "id": 10,
      "imageId": 16,
      "cred": 10,
      "flags": 1,
      "label": "Fall at the first post...",
      "description": "Get the first question wrong (single player game)",
      "howto": "Get the first question wrong (single player game)"
    },
    {
      "id": 11,
      "imageId": 18,
      "cred": 10,
      "flags": 1,
      "label": "Not going home empty handed!",
      "description": "Reach 1000 (single player game)",
      "howto": "Reach 1000 (single player game)"
    },
    {
      "id": 12,
      "imageId": 19,
      "cred": 20,
      "flags": 1,
      "label": "You're a brave contestant!",
      "description": "Choose to \"Walk Away\" between 32,000 and 250,000 (single player game)",
      "howto": "Choose to \"Walk Away\" between 32,000 and 250,000 (single player game)"
    },
    {
      "id": 13,
      "imageId": 20,
      "cred": 40,
      "flags": 1,
      "label": "So Close!",
      "description": "Choose to \"Walk Away\" with 500,000 (single player game)",
      "howto": "Choose to \"Walk Away\" with 500,000 (single player game)"
    },
    {
      "id": 14,
      "imageId": 21,
      "cred": 40,
      "flags": 1,
      "label": "...and yet so far!",
      "description": "Fail to answer the Million - dropping to 32,000 (single player game)",
      "howto": "Fail to answer the Million - dropping to 32,000 (single player game)"
    },
    {
      "id": 15,
      "imageId": 22,
      "cred": 50,
      "flags": 1,
      "label": "The million dollar question!",
      "description": "Get to the Million Question - Tier 15 (single player game)",
      "howto": "Get to the Million Question - Tier 15 (single player game)"
    },
    {
      "id": 16,
      "imageId": 23,
      "cred": 100,
      "flags": 1,
      "label": "All too EASY!!",
      "description": "Win 1,000,000 with all three lifelines remaining (single player game)",
      "howto": "Win 1,000,000 with all three lifelines remaining (single player game)"
    },
    {
      "id": 17,
      "imageId": 24,
      "cred": 60,
      "flags": 1,
      "label": "You're a Millionaire!!",
      "description": "Win 1,000,000 (single player game)",
      "howto": "Win 1,000,000 (single player game)"
    },
    {
      "id": 19,
      "imageId": 13,
      "cred": 20,
      "flags": 1,
      "label": "Lightning Reactions...",
      "description": "Win \"Fastest Finger First\" Round in under 4 seconds (single player game) ",
      "howto": "Win \"Fastest Finger First\" Round in under 4 seconds (single player game) "
    }
  ]
}