{
  "avatarAssetsPossible": 6,
  "maleAvatarAssetsPossible": 2,
  "femaleAvatarAssetsPossible": 2,
  "avatarAssets": [
    {
      "id": "00000008-0007-9181-c996-fd0e54510869",
      "imageId": 45,
      "subcategory": 0,
      "unknown": 0,
      "isMale": true,
      "isFemale": false,
      "isUnisex": false,
      "label": "A classy men's T-shirt",
      "description": "Your torso will never be cold again.",
      "howto": "Play any episode and score over $0 to win this stylish yet sensible YDKJ T-shirt!\r\n"
    },
    {
      "id": "00000008-0007-01a2-c323-9b1b54510869",
      "imageId": 46,
      "subcategory": 0,
      "unknown": 2015221016,
      "isMale": false,
      "isFemale": true,
      "isUnisex": false,
      "label": "A trendy ladies' T-shirt",
      "description": "Your torso will never be cold again.",
      "howto": "Play any episode and score over $0 to win this stylish yet sensible YDKJ T-shirt!\r\n"
    },
    {
      "id": "00000010-0008-9181-cc6f-1a1f54510869",
      "imageId": 47,
      "subcategory": 0,
      "unknown": 2015221016,
      "isMale": true,
      "isFemale": false,
      "isUnisex": false,
      "label": "A fashionable men's pant",
      "description": "Just remember: You don't look ridiculous, everybody else does.",
      "howto": "Play Episode 9 and score over $0 to win this attractive pant. Wear it with the rest of your clothe."
    },
    {
      "id": "00000010-0008-01b2-c9d5-d43b54510869",
      "imageId": 48,
      "subcategory": 0,
      "unknown": 2015221016,
      "isMale": false,
      "isFemale": true,
      "isUnisex": false,
      "label": "A beautiful ladies' pant",
      "description": "Just remember: You don't look ridiculous, everybody else does.",
      "howto": "Play Episode 9 and score over $0 to win this attractive pant. Wear it with the rest of your clothe."
    },
    {
      "id": "00000544-0009-4183-cd67-875d54510869",
      "imageId": 49,
      "subcategory": 0,
      "unknown": 2015221016,
      "isMale": false,
      "isFemale": false,
      "isUnisex": true,
      "label": "A \"bald-headed\" ski mask",
      "description": "Now you can look bald from a distance while maintaining head warmth.",
      "howto": "Play Episode 58 and score over $0 to win this functional headwear."
    },
    {
      "id": "00001000-000a-f143-ccff-be8f54510869",
      "imageId": 50,
      "subcategory": 0,
      "unknown": 2015221016,
      "isMale": false,
      "isFemale": false,
      "isUnisex": true,
      "label": "Billy O'Brien replica dummy",
      "description": "Please do not take Billy O'Brien to parties.",
      "howto": "Find the Episode 73 Wrong Answer of the Game & win a limited-edition Billy O'Brien replica dummy!"
    }
  ]
}