{
  "achievementsPossible": 15,
  "credPossible": 250,
  "achievements": [
    {
      "id": 1,
      "imageId": 1,
      "cred": 10,
      "flags": 3,
      "label": "Miles \"Tails\" Prower",
      "description": "Tails is your friend now.",
      "howto": "Become friends with Tails."
    },
    {
      "id": 2,
      "imageId": 2,
      "cred": 10,
      "flags": 3,
      "label": "Knuckles the Echidna",
      "description": "Knuckles is your friend now.",
      "howto": "Become friends with Knuckles."
    },
    {
      "id": 3,
      "imageId": 3,
      "cred": 10,
      "flags": 3,
      "label": "Amy Rose",
      "description": "Amy is your friend now.",
      "howto": "Become friends with Amy."
    },
    {
      "id": 4,
      "imageId": 4,
      "cred": 10,
      "flags": 3,
      "label": "E-102 \"γ\"",
      "description": "E-102 is your friend now.",
      "howto": "Become friends with E-102."
    },
    {
      "id": 5,
      "imageId": 5,
      "cred": 10,
      "flags": 3,
      "label": "Big the Cat",
      "description": "Big is your friend now.",
      "howto": "Become friends with Big."
    },
    {
      "id": 6,
      "imageId": 6,
      "cred": 10,
      "flags": 1,
      "label": "Sonic the Hedgehog",
      "description": "You cleared the Sonic story.",
      "howto": "Clear the Sonic story."
    },
    {
      "id": 7,
      "imageId": 7,
      "cred": 20,
      "flags": 1,
      "label": "Super Sonic",
      "description": "You cleared all characters stories.",
      "howto": "Clear all characters stories."
    },
    {
      "id": 8,
      "imageId": 8,
      "cred": 20,
      "flags": 4,
      "label": "The Fastest & Strongest",
      "description": "You got Level A on all the Action Stages.",
      "howto": "Get Level A on all the Action Stages."
    },
    {
      "id": 9,
      "imageId": 10,
      "cred": 20,
      "flags": 4,
      "label": "Sub Game Master",
      "description": "You got all Emblems of the Sub Games.",
      "howto": "Get all Emblems of the Sub Games."
    },
    {
      "id": 10,
      "imageId": 9,
      "cred": 20,
      "flags": 4,
      "label": "Chao's Best Friend",
      "description": "You got all Emblems of the Chao Race.",
      "howto": "Get all Emblems of the Chao Race."
    },
    {
      "id": 11,
      "imageId": 11,
      "cred": 20,
      "flags": 4,
      "label": "The Adventurer",
      "description": "You got all Emblems in the Adventure Field.",
      "howto": "Get all Emblems in the Adventure Field."
    },
    {
      "id": 12,
      "imageId": 12,
      "cred": 40,
      "flags": 4,
      "label": "The Perfect Adventurer",
      "description": "You got 130 Emblems.",
      "howto": "Get all 130 Emblems."
    },
    {
      "id": 84,
      "imageId": 15,
      "cred": 15,
      "flags": 3,
      "label": "Metal Sonic",
      "description": "You can use Metal Sonic now.",
      "howto": "Get all 130 Emblems by playing Sonic Adventure DX."
    },
    {
      "id": 85,
      "imageId": 18,
      "cred": 15,
      "flags": 4,
      "label": "Metal Sonic Master",
      "description": "You got Level A on all the Action Stages by using Metal Sonic.",
      "howto": "Get Level A on all the Action Stages by using Metal Sonic."
    },
    {
      "id": 86,
      "imageId": 19,
      "cred": 20,
      "flags": 4,
      "label": "Mission All Accomplished",
      "description": "You cleared all 60 missions.",
      "howto": "Clear all 60 missions."
    }
  ]
}