{
  "achievementsPossible": 25,
  "credPossible": 1000,
  "achievements": [
    {
      "id": 1,
      "imageId": 1,
      "cred": 20,
      "flags": 6,
      "label": "Story Designer",
      "description": "Create an original story using WWE STORY DESIGNER Mode.",
      "howto": "Create an original story using WWE STORY DESIGNER Mode."
    },
    {
      "id": 2,
      "imageId": 2,
      "cred": 15,
      "flags": 6,
      "label": "An Original Design",
      "description": "Create an original image using the PAINT TOOL.",
      "howto": "Create an original image using the PAINT TOOL."
    },
    {
      "id": 3,
      "imageId": 3,
      "cred": 100,
      "flags": 6,
      "label": "2010 Hall of Fame Nominee",
      "description": "Induct a Superstar into the HALL OF FAME.",
      "howto": "Induct a Superstar into the HALL OF FAME."
    },
    {
      "id": 4,
      "imageId": 4,
      "cred": 50,
      "flags": 6,
      "label": "A Showman Like No Other",
      "description": "Have a total of 20 or more 5-star rated matches in your overall match history.",
      "howto": "Have a total of 20 or more 5-star rated matches in your overall match history."
    },
    {
      "id": 5,
      "imageId": 5,
      "cred": 20,
      "flags": 6,
      "label": "Mickie James Story",
      "description": "Complete the MICKIE JAMES story in ROAD TO WRESTLEMANIA mode.",
      "howto": "Complete the MICKIE JAMES story in ROAD TO WRESTLEMANIA mode."
    },
    {
      "id": 6,
      "imageId": 6,
      "cred": 20,
      "flags": 6,
      "label": "Edge Story",
      "description": "Complete the EDGE story in ROAD TO WRESTLEMANIA mode.",
      "howto": "Complete the EDGE story in ROAD TO WRESTLEMANIA mode."
    },
    {
      "id": 7,
      "imageId": 7,
      "cred": 20,
      "flags": 6,
      "label": "HBK Story",
      "description": "Complete the HBK story in ROAD TO WRESTLEMANIA mode.",
      "howto": "Complete the HBK story in ROAD TO WRESTLEMANIA mode."
    },
    {
      "id": 8,
      "imageId": 8,
      "cred": 20,
      "flags": 6,
      "label": "Orton Story",
      "description": "Complete the ORTON story in ROAD TO WRESTLEMANIA mode.",
      "howto": "Complete the ORTON story in ROAD TO WRESTLEMANIA mode."
    },
    {
      "id": 9,
      "imageId": 9,
      "cred": 20,
      "flags": 6,
      "label": "Brand Warfare Story",
      "description": "Complete the BRAND WARFARE story in ROAD TO WRESTLEMANIA mode.",
      "howto": "Complete the BRAND WARFARE story in ROAD TO WRESTLEMANIA mode."
    },
    {
      "id": 10,
      "imageId": 10,
      "cred": 20,
      "flags": 6,
      "label": "Created Superstar Story",
      "description": "Complete the CREATE A SUPERSTAR story in ROAD TO WRESTLEMANIA mode.",
      "howto": "Complete the CREATE A SUPERSTAR story in ROAD TO WRESTLEMANIA mode."
    },
    {
      "id": 11,
      "imageId": 11,
      "cred": 100,
      "flags": 6,
      "label": "Nothing More to Collect",
      "description": "Unlock all the playable characters and bonus items.",
      "howto": "Unlock all the playable characters and bonus items."
    },
    {
      "id": 12,
      "imageId": 12,
      "cred": 15,
      "flags": 6,
      "label": "Face on the Big Screen",
      "description": "Convert a HIGHLIGHT REEL into an entrance movie.",
      "howto": "Convert a HIGHLIGHT REEL into an entrance movie."
    },
    {
      "id": 13,
      "imageId": 13,
      "cred": 50,
      "flags": 6,
      "label": "Developmental Graduate",
      "description": "Complete the TRAINING CHECKLIST.",
      "howto": "Complete the TRAINING CHECKLIST."
    },
    {
      "id": 14,
      "imageId": 14,
      "cred": 50,
      "flags": 6,
      "label": "Career Growth",
      "description": "Increase the overall rating of a CREATED SUPERSTAR character to a 90 or above.",
      "howto": "Increase the overall rating of a CREATED SUPERSTAR character to a 90 or above."
    },
    {
      "id": 15,
      "imageId": 15,
      "cred": 15,
      "flags": 6,
      "label": "Check Out the New Threads",
      "description": "Create ALTERNATE ATTIRE for a CREATED SUPERSTAR and new THREADS for a WWE SUPERSTAR.",
      "howto": "Create ALTERNATE ATTIRE for a CREATED SUPERSTAR and new THREADS for a WWE SUPERSTAR."
    },
    {
      "id": 16,
      "imageId": 16,
      "cred": 15,
      "flags": 6,
      "label": "New Superstar Initiative",
      "description": "Create a SUPERSTAR in CREATE A SUPERSTAR Mode.",
      "howto": "Create a SUPERSTAR in CREATE A SUPERSTAR Mode."
    },
    {
      "id": 17,
      "imageId": 17,
      "cred": 20,
      "flags": 6,
      "label": "Finisher of the Year Candidate",
      "description": "Create a dive finisher, in Create A Finisher mode, and use it in a match (single player only).",
      "howto": "Create a dive finisher, in Create A Finisher mode, and use it in a match (single player only)."
    },
    {
      "id": 18,
      "imageId": 18,
      "cred": 20,
      "flags": 6,
      "label": "Ask Him Ref!",
      "description": "Win 10 matches by submission (single player only).",
      "howto": "Win 10 matches by submission (single player only)."
    },
    {
      "id": 19,
      "imageId": 19,
      "cred": 20,
      "flags": 6,
      "label": "Intermediate Technician",
      "description": "Succeed at a cumulative total of 50 reversals (single player only).",
      "howto": "Succeed at a cumulative total of 50 reversals (single player only)."
    },
    {
      "id": 20,
      "imageId": 20,
      "cred": 100,
      "flags": 6,
      "label": "Technical Wizardry",
      "description": "Succeed at a cumulative total of 100 reversals (single player only).",
      "howto": "Succeed at a cumulative total of 100 reversals (single player only)."
    },
    {
      "id": 21,
      "imageId": 21,
      "cred": 50,
      "flags": 6,
      "label": "Ahead of the Pack",
      "description": "Win as tentative Champion from start to end in CHAMPIONSHIP SCRAMBLE. (single player only)",
      "howto": "Win as tentative Champion from start to end in CHAMPIONSHIP SCRAMBLE. (single player only)"
    },
    {
      "id": 22,
      "imageId": 22,
      "cred": 100,
      "flags": 6,
      "label": "Royal Rumble Specialist",
      "description": "Win a 30-Man ROYAL RUMBLE as the first entrant without changing Superstars (single player only).",
      "howto": "Win a 30-Man ROYAL RUMBLE as the first entrant without changing Superstars (single player only)."
    },
    {
      "id": 23,
      "imageId": 23,
      "cred": 100,
      "flags": 6,
      "label": "And STILL Champion...",
      "description": "Defend a Title in a Championship Scramble match on Legend difficulty (single player only).",
      "howto": "Defend a Title in a Championship Scramble match on Legend difficulty (single player only)."
    },
    {
      "id": 24,
      "imageId": 24,
      "cred": 20,
      "flags": 6,
      "label": "Shoulders to the Mat",
      "description": "Win 50 matches by pinfall (single player only).",
      "howto": "Win 50 matches by pinfall (single player only)."
    },
    {
      "id": 25,
      "imageId": 25,
      "cred": 20,
      "flags": 6,
      "label": "A Grappling Machine",
      "description": "In one match, perform all 16 STRONG GRAPPLE moves on your opponent (single player only).",
      "howto": "In one match, perform all 16 STRONG GRAPPLE moves on your opponent (single player only)."
    }
  ]
}