{
  "achievementsPossible": 50,
  "credPossible": 1000,
  "achievements": [
    {
      "id": 3,
      "imageId": 1,
      "cred": 40,
      "flags": 4,
      "label": "Two maps for the price of one",
      "description": "Unlock all twelve tracks in 1 player",
      "howto": "Unlock all twelve tracks in 1 player"
    },
    {
      "id": 4,
      "imageId": 2,
      "cred": 40,
      "flags": 4,
      "label": "Magical slideshow extravaganza!",
      "description": "Unlock all challenges in 1 player",
      "howto": "Unlock all challenges in 1 player"
    },
    {
      "id": 5,
      "imageId": 3,
      "cred": 15,
      "flags": 4,
      "label": "The best stars ever!",
      "description": "Earn 1/3 of all stars in 1 player",
      "howto": "Earn 1/3 of all stars in 1 player"
    },
    {
      "id": 6,
      "imageId": 4,
      "cred": 25,
      "flags": 4,
      "label": "Look at the shiny stars!",
      "description": "Earn 2/3 of all stars in 1 player",
      "howto": "Earn 2/3 of all stars in 1 player"
    },
    {
      "id": 7,
      "imageId": 5,
      "cred": 35,
      "flags": 4,
      "label": "It's full of stars!",
      "description": "Earn all stars in 1 player",
      "howto": "Earn all stars in 1 player"
    },
    {
      "id": 8,
      "imageId": 6,
      "cred": 5,
      "flags": 4,
      "label": "A Spongetastic victory!",
      "description": "Complete any race as SpongeBob",
      "howto": "Complete any race as SpongeBob"
    },
    {
      "id": 9,
      "imageId": 7,
      "cred": 5,
      "flags": 4,
      "label": "I think I got sand in my shorts",
      "description": "Complete any race as Patrick",
      "howto": "Complete any race as Patrick"
    },
    {
      "id": 10,
      "imageId": 8,
      "cred": 20,
      "flags": 4,
      "label": "Show the clock who's boss!",
      "description": "Three Star rating for any Against the Clock",
      "howto": "Three Star rating for any Against the Clock"
    },
    {
      "id": 11,
      "imageId": 9,
      "cred": 20,
      "flags": 4,
      "label": "Getting there in style!",
      "description": "Three Star Rating for any Superscore! Challenge",
      "howto": "Three Star Rating for any Superscore! Challenge"
    },
    {
      "id": 12,
      "imageId": 10,
      "cred": 20,
      "flags": 4,
      "label": "Out of harm's way!",
      "description": "Three Star Rating for any Danger Dash Challenge",
      "howto": "Three Star Rating for any Danger Dash Challenge"
    },
    {
      "id": 13,
      "imageId": 11,
      "cred": 20,
      "flags": 4,
      "label": "A test of skill!",
      "description": "Three Star Rating for any Red Gate Challenge",
      "howto": "Three Star Rating for any Red Gate Challenge"
    },
    {
      "id": 14,
      "imageId": 12,
      "cred": 20,
      "flags": 4,
      "label": "An easygoing tour!",
      "description": "Three Star Rating for any Green Gate Tour",
      "howto": "Three Star Rating for any Green Gate Tour"
    },
    {
      "id": 15,
      "imageId": 13,
      "cred": 20,
      "flags": 1,
      "label": "As fast as you can!",
      "description": "Three Star Rating for any Accelerator! Challenge",
      "howto": "Three Star Rating for any Accelerator! Challenge"
    },
    {
      "id": 16,
      "imageId": 15,
      "cred": 20,
      "flags": 1,
      "label": "MAXIMUM Awesome!",
      "description": "Three Star Rating for any MAXIMUM Awesome Challenge",
      "howto": "Three Star Rating for any MAXIMUM Awesome Challenge"
    },
    {
      "id": 17,
      "imageId": 16,
      "cred": 15,
      "flags": 1,
      "label": "Pineapple Salad",
      "description": "Smash 75 pineapples in one playthrough of Pineapple Farm",
      "howto": "Smash 75 pineapples in one playthrough of Pineapple Farm"
    },
    {
      "id": 18,
      "imageId": 17,
      "cred": 15,
      "flags": 1,
      "label": "Yo-ho-ho!",
      "description": "Smash 25 XX barrels in one playthrough of Floater's Peak",
      "howto": "Smash 25 XX barrels in one playthrough of Floater's Peak"
    },
    {
      "id": 19,
      "imageId": 20,
      "cred": 30,
      "flags": 1,
      "label": "Nearly Explodilicious!",
      "description": "Complete a Danger Dash Challenge without hitting a single trap",
      "howto": "Complete a Danger Dash Challenge without hitting a single trap"
    },
    {
      "id": 20,
      "imageId": 21,
      "cred": 30,
      "flags": 1,
      "label": "Extreme Extremeness!",
      "description": "ROCKET MASTER: Finish a Rocket race without losing speed",
      "howto": "ROCKET MASTER: Finish a Rocket race without losing speed"
    },
    {
      "id": 21,
      "imageId": 22,
      "cred": 30,
      "flags": 1,
      "label": "Super-Maximum Awesomeness!",
      "description": "AWESOME MASTER: Max out the awesome meter during an Awesome race",
      "howto": "AWESOME MASTER: Max out the awesome meter during an Awesome race"
    },
    {
      "id": 22,
      "imageId": 23,
      "cred": 5,
      "flags": 1,
      "label": "Spongeriffic!",
      "description": "Reach XP rank 5",
      "howto": "Reach XP rank 5"
    },
    {
      "id": 23,
      "imageId": 24,
      "cred": 10,
      "flags": 1,
      "label": "Spongeadelic!!",
      "description": "Reach XP rank 10",
      "howto": "Reach XP rank 10"
    },
    {
      "id": 24,
      "imageId": 25,
      "cred": 15,
      "flags": 1,
      "label": "Spongetronic!!!",
      "description": "Reach XP rank 15",
      "howto": "Reach XP rank 15"
    },
    {
      "id": 25,
      "imageId": 26,
      "cred": 25,
      "flags": 1,
      "label": "Spongelicious!!!!",
      "description": "Reach XP rank 25",
      "howto": "Reach XP rank 25"
    },
    {
      "id": 26,
      "imageId": 27,
      "cred": 35,
      "flags": 1,
      "label": "Spongetacular!!!!!",
      "description": "Reach XP rank 35",
      "howto": "Reach XP rank 35"
    },
    {
      "id": 27,
      "imageId": 28,
      "cred": 45,
      "flags": 1,
      "label": "Spongesplosion!!!!!!!",
      "description": "Reach XP rank 45",
      "howto": "Reach XP rank 45"
    },
    {
      "id": 28,
      "imageId": 29,
      "cred": 55,
      "flags": 1,
      "label": "SpongeSTRAVAGANZA!!!!!!",
      "description": "Reach XP rank 55",
      "howto": "Reach XP rank 55"
    },
    {
      "id": 29,
      "imageId": 30,
      "cred": 20,
      "flags": 1,
      "label": "Danger! Leviathan!",
      "description": "Get a 3-star rating playing Danger Dash on O'Buoy Bay with The Leviathan",
      "howto": "Get a 3-star rating playing Danger Dash on O'Buoy Bay with The Leviathan"
    },
    {
      "id": 30,
      "imageId": 31,
      "cred": 20,
      "flags": 1,
      "label": "All the Seaweed you can eat!",
      "description": "Get a 3-star rating playing Green Gate Tour on Seaweed Alley with The Seaweed",
      "howto": "Get a 3-star rating playing Green Gate Tour on Seaweed Alley with The Seaweed"
    },
    {
      "id": 31,
      "imageId": 32,
      "cred": 20,
      "flags": 1,
      "label": "Tastes like salty rain!",
      "description": "Get a 3-star rating playing Against the Clock on O'Buoy Bay with The Big Wave",
      "howto": "Get a 3-star rating playing Against the Clock on O'Buoy Bay with The Big Wave"
    },
    {
      "id": 32,
      "imageId": 33,
      "cred": 20,
      "flags": 1,
      "label": "The Royal Sand Castle",
      "description": "Get a 3-star rating playing Green Gate Tour on Sand Castle with the Royal Tapa",
      "howto": "Get a 3-star rating playing Green Gate Tour on Sand Castle with the Royal Tapa"
    },
    {
      "id": 33,
      "imageId": 34,
      "cred": 20,
      "flags": 1,
      "label": "Pineapples mean Prizes!",
      "description": "Get a 3-star rating playing Superscore on Pineapple Farm with the Flower Power",
      "howto": "Get a 3-star rating playing Superscore on Pineapple Farm with the Flower Power"
    },
    {
      "id": 34,
      "imageId": 35,
      "cred": 20,
      "flags": 1,
      "label": "Clamstravanza!",
      "description": "Get a 3-star rating playing Danger Dash on Clam Mountain with the Pink Clam",
      "howto": "Get a 3-star rating playing Danger Dash on Clam Mountain with the Pink Clam"
    },
    {
      "id": 35,
      "imageId": 36,
      "cred": 35,
      "flags": 1,
      "label": "Big Red Skate Master",
      "description": "Get a 3-star rating playing Red Gate Challenge on Cephalapod Alley with The Shivering Timber",
      "howto": "Get a 3-star rating playing Red Gate Challenge on Cephalapod Alley with The Shivering Timber"
    },
    {
      "id": 36,
      "imageId": 37,
      "cred": 35,
      "flags": 1,
      "label": "Big Red Surf Master",
      "description": "Get a 3-star rating playing Red Gate Challenge on Rudder Reef with The Sharkbite",
      "howto": "Get a 3-star rating playing Red Gate Challenge on Rudder Reef with The Sharkbite"
    },
    {
      "id": 37,
      "imageId": 38,
      "cred": 15,
      "flags": 1,
      "label": "A karate master does not smash",
      "description": "Complete a track without smashing a single obstacle",
      "howto": "Complete a track without smashing a single obstacle"
    },
    {
      "id": 38,
      "imageId": 39,
      "cred": 20,
      "flags": 1,
      "label": "Lucky Dip",
      "description": "Score at least a Two Star Rating in a one player Quick Play match",
      "howto": "Score at least a Two Star Rating in a one player Quick Play match"
    },
    {
      "id": 39,
      "imageId": 40,
      "cred": 20,
      "flags": 1,
      "label": "Gas Guzzler",
      "description": "Collect 4 refuel pickups in one Accelerator! Challenge",
      "howto": "Collect 4 refuel pickups in one Accelerator! Challenge"
    },
    {
      "id": 40,
      "imageId": 41,
      "cred": 5,
      "flags": 1,
      "label": "The giant wheels are invading!",
      "description": "Get your photo taken in front of a ferris wheel",
      "howto": "Get your photo taken in front of a ferris wheel"
    },
    {
      "id": 41,
      "imageId": 42,
      "cred": 5,
      "flags": 1,
      "label": "Oh Duuuutchy, you home?",
      "description": "Get your photo taken in front of a wrecked pirate ship",
      "howto": "Get your photo taken in front of a wrecked pirate ship"
    },
    {
      "id": 42,
      "imageId": 43,
      "cred": 5,
      "flags": 1,
      "label": "Playing to the crowd",
      "description": "Get your photo taken beside some fish folk",
      "howto": "Get your photo taken beside some fish folk"
    },
    {
      "id": 43,
      "imageId": 44,
      "cred": 10,
      "flags": 1,
      "label": "Coach Pincers would be proud!",
      "description": "Complete 5 grind rails without falling over on a single track",
      "howto": "Complete 5 grind rails without falling over on a single track"
    },
    {
      "id": 44,
      "imageId": 45,
      "cred": 10,
      "flags": 1,
      "label": "SpongeBob SpeedyPants",
      "description": "Maintain awesome boost for 45 seconds uninterrupted",
      "howto": "Maintain awesome boost for 45 seconds uninterrupted"
    },
    {
      "id": 45,
      "imageId": 46,
      "cred": 10,
      "flags": 1,
      "label": "SpongeBob SandPants",
      "description": "Ride over 10 seconds of slow surface at boost speed in one track",
      "howto": "Ride over 10 seconds of slow surface at boost speed in one track"
    },
    {
      "id": 46,
      "imageId": 47,
      "cred": 10,
      "flags": 1,
      "label": "SpongeBob SkyPants",
      "description": "Spend 15 seconds in the air total in one track",
      "howto": "Spend 15 seconds in the air total in one track"
    },
    {
      "id": 47,
      "imageId": 49,
      "cred": 5,
      "flags": 1,
      "label": "Gravity Schmavity",
      "description": "Turn 360 degrees round the walls of a tunnel",
      "howto": "Turn 360 degrees round the walls of a tunnel"
    },
    {
      "id": 48,
      "imageId": 48,
      "cred": 20,
      "flags": 1,
      "label": "Lucky Dip for Two",
      "description": "Come first in a multiplayer Quick Play match",
      "howto": "Come first in a multiplayer Quick Play match"
    },
    {
      "id": 49,
      "imageId": 50,
      "cred": 20,
      "flags": 1,
      "label": "I've been dizzy before!",
      "description": "Survive a 'swap your controls' multiplayer attack without crashing",
      "howto": "Survive a 'swap your controls' multiplayer attack without crashing"
    },
    {
      "id": 50,
      "imageId": 51,
      "cred": 20,
      "flags": 1,
      "label": "Shockproof!",
      "description": "Survive a 'crazy handling' multiplayer attack without crashing",
      "howto": "Survive a 'crazy handling' multiplayer attack without crashing"
    },
    {
      "id": 51,
      "imageId": 52,
      "cred": 10,
      "flags": 1,
      "label": "Dizzier than a dizzy thing",
      "description": "Make another player crash by using a 'swap their controls' attack",
      "howto": "Make another player crash by using a 'swap their controls' attack"
    },
    {
      "id": 52,
      "imageId": 53,
      "cred": 10,
      "flags": 1,
      "label": "Shockier than a giant jellyfish",
      "description": "Make another player crash by using a 'crazy handling' attack",
      "howto": "Make another player crash by using a 'crazy handling' attack"
    }
  ]
}