{
  "achievementsPossible": 13,
  "credPossible": 1000,
  "achievements": [
    {
      "id": 1,
      "imageId": 1,
      "cred": 40,
      "flags": 1,
      "label": "Doctor Walker",
      "description": "Take Hans to the Patriarch",
      "howto": "Take Hans to the Patriarch"
    },
    {
      "id": 2,
      "imageId": 2,
      "cred": 50,
      "flags": 1,
      "label": "Beastmaster",
      "description": "Get a Youki friend",
      "howto": "Get a Youki friend"
    },
    {
      "id": 3,
      "imageId": 3,
      "cred": 50,
      "flags": 1,
      "label": "Flying Kate",
      "description": "Use Boris's plane",
      "howto": "Use Boris's plane"
    },
    {
      "id": 4,
      "imageId": 4,
      "cred": 50,
      "flags": 1,
      "label": "Hansception",
      "description": "Enter the dream",
      "howto": "Enter the dream"
    },
    {
      "id": 5,
      "imageId": 5,
      "cred": 50,
      "flags": 1,
      "label": "Heartless",
      "description": "Witness Oscar's sacrifice",
      "howto": "Witness Oscar's sacrifice"
    },
    {
      "id": 6,
      "imageId": 6,
      "cred": 50,
      "flags": 1,
      "label": "At the edge of the world",
      "description": "Find Syberia",
      "howto": "Find Syberia"
    },
    {
      "id": 7,
      "imageId": 7,
      "cred": 50,
      "flags": 1,
      "label": "Phone Game",
      "description": "Call everyone on the phone",
      "howto": "Call everyone on the phone"
    },
    {
      "id": 8,
      "imageId": 8,
      "cred": 80,
      "flags": 1,
      "label": "Memory from Aralbad",
      "description": "Read what happened to Helena Romanski",
      "howto": "Read what happened to Helena Romanski"
    },
    {
      "id": 9,
      "imageId": 9,
      "cred": 80,
      "flags": 1,
      "label": "Trick or Treat",
      "description": "Get Candyroff phone number",
      "howto": "Get Candyroff phone number"
    },
    {
      "id": 10,
      "imageId": 10,
      "cred": 100,
      "flags": 1,
      "label": "On the way to Syberia",
      "description": "Finish the game",
      "howto": "Finish the game"
    },
    {
      "id": 11,
      "imageId": 11,
      "cred": 100,
      "flags": 1,
      "label": "Gossip",
      "description": "Talk with every character",
      "howto": "Talk with every character"
    },
    {
      "id": 12,
      "imageId": 12,
      "cred": 100,
      "flags": 1,
      "label": "Snoop",
      "description": "Find all the game items",
      "howto": "Find all the game items"
    },
    {
      "id": 14,
      "imageId": 21,
      "cred": 200,
      "flags": 1,
      "label": "Old School",
      "description": "Finish the game in difficult mode in less than 6 hours",
      "howto": "Finish the game in difficult mode in less than 6 hours"
    }
  ]
}