{
  "achievementsPossible": 15,
  "credPossible": 250,
  "achievements": [
    {
      "id": 1,
      "imageId": 15,
      "cred": 5,
      "flags": 1,
      "label": "Long Live Chief Berni-ni",
      "description": "Revive the Fire Chief, Berni-ni.",
      "howto": "Revive the Fire Chief, Berni-ni."
    },
    {
      "id": 2,
      "imageId": 14,
      "cred": 10,
      "flags": 1,
      "label": "A Shocking Development",
      "description": "Use the Harvest Chief, Diggi-dodo's power on a Booli.",
      "howto": "Use the Harvest Chief, Diggi-dodo's power on a Booli."
    },
    {
      "id": 3,
      "imageId": 13,
      "cred": 15,
      "flags": 1,
      "label": "Sober the Stinkers",
      "description": "Get the stinkers off slugs.",
      "howto": "Get the stinkers off slugs."
    },
    {
      "id": 4,
      "imageId": 12,
      "cred": 20,
      "flags": 1,
      "label": "Abracadabra, Alakazam!",
      "description": "Transform a Booli using the Animal Chief, Ali-mali.",
      "howto": "Transform a Booli using the Animal Chief, Ali-mali."
    },
    {
      "id": 5,
      "imageId": 11,
      "cred": 25,
      "flags": 1,
      "label": "Flotsam and Jetsam",
      "description": "Completely flood a level using the Swimmer Chief, Fini-ni.",
      "howto": "Completely flood a level using the Swimmer Chief, Fini-ni."
    },
    {
      "id": 6,
      "imageId": 10,
      "cred": 30,
      "flags": 1,
      "label": "The Way the Booli Crumbles",
      "description": "Shatter a Booli into pieces using the Stone Chief, Te-tera.",
      "howto": "Shatter a Booli into pieces using the Stone Chief, Te-tera."
    },
    {
      "id": 7,
      "imageId": 9,
      "cred": 35,
      "flags": 1,
      "label": "Dibs on the Drumstick",
      "description": "Make a feast for the flappers.",
      "howto": "Make a feast for the flappers."
    },
    {
      "id": 8,
      "imageId": 8,
      "cred": 10,
      "flags": 1,
      "label": "And Stay Out!",
      "description": "Kick the Boolis out of Ooga.",
      "howto": "Kick the Boolis out of Ooga."
    },
    {
      "id": 9,
      "imageId": 7,
      "cred": 5,
      "flags": 1,
      "label": "Taste Tester",
      "description": "Swallow 15 unique items.",
      "howto": "Swallow 15 unique items."
    },
    {
      "id": 10,
      "imageId": 6,
      "cred": 5,
      "flags": 1,
      "label": "Death Defier",
      "description": "Complete 22 levels without dying.",
      "howto": "Complete 22 levels without dying."
    },
    {
      "id": 11,
      "imageId": 5,
      "cred": 35,
      "flags": 1,
      "label": "Bone Collection",
      "description": "Collect all of the bones of the Ancient One.",
      "howto": "Collect all of the bones of the Ancient One."
    },
    {
      "id": 12,
      "imageId": 4,
      "cred": 5,
      "flags": 1,
      "label": "Join the Revolt",
      "description": "Complete a split screen cooperative level.",
      "howto": "Complete a split screen cooperative level."
    },
    {
      "id": 13,
      "imageId": 22,
      "cred": 15,
      "flags": 1,
      "label": "Super Spear Hero",
      "description": "Kill the baddest tuska in all the land. (DLC)",
      "howto": "Kill the baddest tuska in all the land. (DLC)"
    },
    {
      "id": 14,
      "imageId": 23,
      "cred": 15,
      "flags": 1,
      "label": "Comrade Crate",
      "description": "Open the crate to discover the contents.  You monster. (DLC)",
      "howto": "Open the crate to discover the contents.  You monster. (DLC)"
    },
    {
      "id": 15,
      "imageId": 24,
      "cred": 20,
      "flags": 1,
      "label": "The New Boss",
      "description": "Get the Glow Stone. (DLC)",
      "howto": "Get the Glow Stone. (DLC)"
    }
  ]
}