{
  "avatarAssetsPossible": 2,
  "maleAvatarAssetsPossible": 0,
  "femaleAvatarAssetsPossible": 0,
  "avatarAssets": [
    {
      "id": "00000544-0000-31b3-c718-199a5841095e",
      "imageId": 2,
      "subcategory": 0,
      "unknown": 0,
      "isMale": false,
      "isFemale": false,
      "isUnisex": true,
      "label": "Healer's Mask",
      "description": "Mask of the Healer.",
      "howto": "This is awarded to you by the healer for your sacrifice."
    },
    {
      "id": "00000544-0001-31b3-c718-199a5841095e",
      "imageId": 16,
      "subcategory": 0,
      "unknown": 2015221016,
      "isMale": false,
      "isFemale": false,
      "isUnisex": true,
      "label": "Fireling's Mask",
      "description": "Mask of the Fire Tribe.",
      "howto": "Revive the Ancient One after completing all levels to unlock the fireling's mask."
    }
  ]
}