{
  "achievementsPossible": 12,
  "credPossible": 200,
  "achievements": [
    {
      "id": 1,
      "imageId": 1,
      "cred": 5,
      "flags": 1,
      "label": "Nascentes Morimur",
      "description": "Promoted to Airman",
      "howto": "Promoted to Airman"
    },
    {
      "id": 2,
      "imageId": 2,
      "cred": 10,
      "flags": 1,
      "label": "Lex Talionis",
      "description": "Promoted to Sergeant",
      "howto": "Promoted to Sergeant"
    },
    {
      "id": 3,
      "imageId": 3,
      "cred": 10,
      "flags": 1,
      "label": "Tempus Neminem Manet",
      "description": "Promoted to Master Sergeant",
      "howto": "Promoted to Master Sergeant"
    },
    {
      "id": 4,
      "imageId": 13,
      "cred": 15,
      "flags": 1,
      "label": "Salva Veritate",
      "description": "Promoted to Lieutenant",
      "howto": "Promoted to Lieutenant"
    },
    {
      "id": 5,
      "imageId": 4,
      "cred": 20,
      "flags": 1,
      "label": "Repetitio Est Mater Memoriae",
      "description": "Promoted to First Lieutenant",
      "howto": "Promoted to First Lieutenant"
    },
    {
      "id": 6,
      "imageId": 6,
      "cred": 20,
      "flags": 1,
      "label": "Inter Caecos Regnat Strabo",
      "description": "Promoted to Captain",
      "howto": "Promoted to Captain"
    },
    {
      "id": 7,
      "imageId": 7,
      "cred": 20,
      "flags": 1,
      "label": "Melius Frangi Quam Flecti",
      "description": "Promoted to Major",
      "howto": "Promoted to Major"
    },
    {
      "id": 8,
      "imageId": 8,
      "cred": 20,
      "flags": 1,
      "label": "Suaviter In Modo",
      "description": "Promoted to Colonel",
      "howto": "Promoted to Colonel"
    },
    {
      "id": 9,
      "imageId": 9,
      "cred": 20,
      "flags": 1,
      "label": "Fortiter Fideliter Feliciter",
      "description": "Promoted to Major General",
      "howto": "Promoted to Major General"
    },
    {
      "id": 10,
      "imageId": 10,
      "cred": 50,
      "flags": 1,
      "label": "Dies Irae",
      "description": "Promoted to General of the Air Force",
      "howto": "Promoted to General of the Air Force"
    },
    {
      "id": 11,
      "imageId": 11,
      "cred": 5,
      "flags": 1,
      "label": "Stercus Accidit",
      "description": "Fail the Prologue",
      "howto": "Fail the Prologue"
    },
    {
      "id": 12,
      "imageId": 12,
      "cred": 5,
      "flags": 1,
      "label": "Sine Mora",
      "description": "Destroy everything in the Prologue and remain unharmed",
      "howto": "Destroy everything in the Prologue and remain unharmed"
    }
  ]
}