{
  "achievementsPossible": 50,
  "credPossible": 1000,
  "achievements": [
    {
      "id": 1,
      "imageId": 1,
      "cred": 10,
      "flags": 1,
      "label": "Beginner's Luck Complete",
      "description": "Completed the Beginner's Luck circuit in third place or higher.",
      "howto": "Complete the Beginner's Luck circuit in third place or higher."
    },
    {
      "id": 2,
      "imageId": 2,
      "cred": 10,
      "flags": 1,
      "label": "Freezeway Jungle Complete",
      "description": "Completed the Freezeway Jungle circuit in third place or higher.",
      "howto": "Complete the Freezeway Jungle circuit in third place or higher."
    },
    {
      "id": 3,
      "imageId": 3,
      "cred": 10,
      "flags": 1,
      "label": "Wet Wasteland Complete",
      "description": "Completed the Wet Wasteland circuit in third place or higher.",
      "howto": "Complete the Wet Wasteland circuit in third place or higher."
    },
    {
      "id": 4,
      "imageId": 4,
      "cred": 10,
      "flags": 1,
      "label": "Null Prime Complete",
      "description": "Completed the Null Prime circuit in third place or higher.",
      "howto": "Complete the Null Prime circuit in third place or higher."
    },
    {
      "id": 5,
      "imageId": 5,
      "cred": 10,
      "flags": 1,
      "label": "Volcano Void Complete",
      "description": "Completed the Volcano Void circuit in third place or higher.",
      "howto": "Complete the Volcano Void circuit in third place or higher."
    },
    {
      "id": 6,
      "imageId": 6,
      "cred": 10,
      "flags": 1,
      "label": "Ice Water Expanse Complete",
      "description": "Completed the Ice Water Expanse circuit in third place or higher.",
      "howto": "Complete the Ice Water Expanse circuit in third place or higher."
    },
    {
      "id": 7,
      "imageId": 7,
      "cred": 15,
      "flags": 1,
      "label": "Infinity Circuit Complete",
      "description": "Completed the Infinity Circuit in third place or higher.",
      "howto": "Complete the Infinity Circuit in third place or higher."
    },
    {
      "id": 8,
      "imageId": 8,
      "cred": 25,
      "flags": 1,
      "label": "Primus Dominus Complete",
      "description": "Completed the Primus Dominus circuit in third place or higher.",
      "howto": "Complete the Primus Dominus circuit in third place or higher."
    },
    {
      "id": 9,
      "imageId": 9,
      "cred": 10,
      "flags": 4,
      "label": "Snow Drifter",
      "description": "Beat the Track Best time in a Time Trial on any Kylmyys track.",
      "howto": "Beat the Track Best time in a Time Trial on any Kylmyys track."
    },
    {
      "id": 10,
      "imageId": 10,
      "cred": 10,
      "flags": 4,
      "label": "Trash Truckin'",
      "description": "Beat the Track Best time in a Time Trial on any Vulpin Track.",
      "howto": "Beat the Track Best time in a Time Trial on any Vulpin Track."
    },
    {
      "id": 11,
      "imageId": 11,
      "cred": 15,
      "flags": 4,
      "label": "Driverus Primus",
      "description": "Beat the Track Best time in a Time Trial on any Primus track.",
      "howto": "Beat the Track Best time in a Time Trial on any Primus track."
    },
    {
      "id": 12,
      "imageId": 12,
      "cred": 15,
      "flags": 4,
      "label": "Wave Runner",
      "description": "Beat the Track Best time in a Time Trial on any Piscciss track.",
      "howto": "Beat the Track Best time in a Time Trial on any Piscciss track."
    },
    {
      "id": 13,
      "imageId": 13,
      "cred": 15,
      "flags": 4,
      "label": "Warp Driver",
      "description": "Beat the Track Best time in a Time Trial on any Null Void track.",
      "howto": "Beat the Track Best time in a Time Trial on any Null Void track."
    },
    {
      "id": 14,
      "imageId": 14,
      "cred": 10,
      "flags": 4,
      "label": "Got Skillz",
      "description": "Beat the Track Best time in a Time Trial on any track by 10 seconds or more.",
      "howto": "Beat the Track Best time in a Time Trial on any track by 10 seconds or more."
    },
    {
      "id": 15,
      "imageId": 15,
      "cred": 20,
      "flags": 4,
      "label": "Tag! I'm It!",
      "description": "Won 10 individual Omni-Tag showdowns in Single Player mode.",
      "howto": "Win 10 individual Omni-Tag showdowns in Single Player mode."
    },
    {
      "id": 16,
      "imageId": 16,
      "cred": 20,
      "flags": 4,
      "label": "Tag! We're It!",
      "description": "Won 10 Team Omni-Tag showdowns in Single Player mode.",
      "howto": "Win 10 Team Omni-Tag showdowns in Single Player mode."
    },
    {
      "id": 17,
      "imageId": 17,
      "cred": 20,
      "flags": 4,
      "label": "Ultimate Alienator",
      "description": "Won 10 Ultimate Alienation showdowns in Single Player mode.",
      "howto": "Win 10 Ultimate Alienation showdowns in Single Player mode."
    },
    {
      "id": 18,
      "imageId": 18,
      "cred": 10,
      "flags": 4,
      "label": "Beat the Clock",
      "description": "Escaped elimination in an Ultimate Elimination with less than 10 on the clock in Single Player mode.",
      "howto": "Escaped elimination in an Ultimate Elimination with less than 10 on the clock in Single Player mode."
    },
    {
      "id": 19,
      "imageId": 19,
      "cred": 10,
      "flags": 4,
      "label": "Shattered",
      "description": "Destroyed 10 Shard Mines using the EMP power-up in Single Player mode.",
      "howto": "Destroy 10 Shard Mines using the EMP power-up in Single Player mode."
    },
    {
      "id": 20,
      "imageId": 20,
      "cred": 10,
      "flags": 4,
      "label": "Counter Measure",
      "description": "Destroyed an incoming attack by firing an attack of your own in Single Player mode.",
      "howto": "Destroy an incoming attack by firing an attack of your own in Single Player mode."
    },
    {
      "id": 21,
      "imageId": 21,
      "cred": 10,
      "flags": 4,
      "label": "Nothin' But Skill",
      "description": "Won a race on any Basic track without using an Omni-Node or Offensive Power in Single Player mode.",
      "howto": "Win a race on any Basic track without using an Omni-Node or Offensive Power in Single Player mode."
    },
    {
      "id": 22,
      "imageId": 22,
      "cred": 20,
      "flags": 4,
      "label": "Nothin' But More Skill",
      "description": "Won a race on any Intermediate track without using an Omni-Node or Offensive Power in Single Player.",
      "howto": "Win a race on any Intermediate track without using an Omni-Node or Offensive Power in Single Player."
    },
    {
      "id": 23,
      "imageId": 23,
      "cred": 40,
      "flags": 4,
      "label": "Nothin' But Maximum Skill",
      "description": "Won a race on an Advanced track without using an Omni-Node or Offensive Power in Single Player mode.",
      "howto": "Win a race on an Advanced track without using an Omni-Node or Offensive Power in Single Player mode."
    },
    {
      "id": 24,
      "imageId": 24,
      "cred": 30,
      "flags": 4,
      "label": "Boom! Winning!",
      "description": "Successfully hit every opponent in a race at least once with any Power-Up in Single Player mode.",
      "howto": "Successfully hit every opponent in a race at least once with any Power-Up in Single Player mode."
    },
    {
      "id": 25,
      "imageId": 25,
      "cred": 30,
      "flags": 4,
      "label": "Omni-Node Master",
      "description": "Picked up 8 different Omni-Node types in each of 10 different races in Single Player mode.",
      "howto": "Pick up 8 different Omni-Node types in each of 10 different races in Single Player mode."
    },
    {
      "id": 26,
      "imageId": 26,
      "cred": 20,
      "flags": 4,
      "label": "Missed Me!",
      "description": "Finished a race in the top three without being affected by an enemy attack in Single Player mode.",
      "howto": "Finish a race in the top three without being affected by an enemy attack in Single Player mode."
    },
    {
      "id": 27,
      "imageId": 27,
      "cred": 15,
      "flags": 4,
      "label": "Not Even a Scratch",
      "description": "Blocked/avoided 100 attacks using your Defensive Power in Single Player mode.",
      "howto": "Block/avoid 100 attacks using your Defensive Power in Single Player mode."
    },
    {
      "id": 28,
      "imageId": 28,
      "cred": 10,
      "flags": 4,
      "label": "Bumper Karts",
      "description": "Successfully bumped 25 karts in Single Player mode.",
      "howto": "Successfully bump 25 karts in Single Player mode."
    },
    {
      "id": 29,
      "imageId": 29,
      "cred": 20,
      "flags": 4,
      "label": "Alien Force",
      "description": "Successfully bumped 50 karts in Single Player mode.",
      "howto": "Successfully bump 50 karts in Single Player mode."
    },
    {
      "id": 30,
      "imageId": 30,
      "cred": 25,
      "flags": 4,
      "label": "Outta My Way!!!!!",
      "description": "Successfully bumped 100 karts in Single Player mode.",
      "howto": "Successfully bump 100 karts in Single Player mode."
    },
    {
      "id": 31,
      "imageId": 31,
      "cred": 5,
      "flags": 4,
      "label": "Get My Drift?",
      "description": "Executed a 500-meter drift in a race in Single Player mode.",
      "howto": "Execute a 500-meter drift in a race in Single Player mode."
    },
    {
      "id": 32,
      "imageId": 32,
      "cred": 20,
      "flags": 4,
      "label": "Kineceleration",
      "description": "Executed a continuous boost of 8 seconds or more in a race in Single Player mode.",
      "howto": "Execute a continuous boost of 8 seconds or more in a race in Single Player mode."
    },
    {
      "id": 33,
      "imageId": 33,
      "cred": 20,
      "flags": 4,
      "label": "Prime Drifter",
      "description": "Executed a 750-meter drift in a race in Single Player mode.",
      "howto": "Execute a 750-meter drift in a race in Single Player mode."
    },
    {
      "id": 34,
      "imageId": 34,
      "cred": 10,
      "flags": 4,
      "label": "Big Air",
      "description": "Completed a jump with an air time of 3 seconds in a race in Single Player mode.",
      "howto": "Complete a jump with an air time of 3 seconds in a race in Single Player mode."
    },
    {
      "id": 35,
      "imageId": 35,
      "cred": 15,
      "flags": 4,
      "label": "Way Bigger Air",
      "description": "Completed a jump with an air time of 4 seconds or more in a race in Single Player mode.",
      "howto": "Complete a jump with an air time of 4 seconds or more in a race in Single Player mode."
    },
    {
      "id": 36,
      "imageId": 36,
      "cred": 40,
      "flags": 3,
      "label": "On the Right Track",
      "description": "Unlocked all of the grand prix tracks.",
      "howto": "Unlock all of the grand prix tracks."
    },
    {
      "id": 37,
      "imageId": 37,
      "cred": 20,
      "flags": 3,
      "label": "Showdowns Galore",
      "description": "Unlocked all of the arena tracks.",
      "howto": "Unlock all of the arena tracks."
    },
    {
      "id": 38,
      "imageId": 38,
      "cred": 10,
      "flags": 4,
      "label": "Double Trouble",
      "description": "Completed 10 2X stunt combos while racing in Single Player mode.",
      "howto": "Complete 10 2X stunt combos while racing in Single Player mode."
    },
    {
      "id": 39,
      "imageId": 39,
      "cred": 20,
      "flags": 4,
      "label": "Triple Threat",
      "description": "Completed 10 3X stunt combos while racing in Single Player mode.",
      "howto": "Complete 10 3X stunt combos while racing in Single Player mode."
    },
    {
      "id": 40,
      "imageId": 40,
      "cred": 60,
      "flags": 4,
      "label": "Omni-Trickster",
      "description": "Completed 10 4X stunt combos while racing in Single Player mode.",
      "howto": "Complete 10 4X stunt combos while racing in Single Player mode."
    },
    {
      "id": 41,
      "imageId": 41,
      "cred": 20,
      "flags": 4,
      "label": "Air Show",
      "description": "Took out an opponent with a power-up while the opponent was airborne in Single Player mode.",
      "howto": "Take out an opponent with a power-up while the opponent is airborne in Single Player mode."
    },
    {
      "id": 42,
      "imageId": 42,
      "cred": 10,
      "flags": 4,
      "label": "Leapfrog",
      "description": "Passed an opponent by jumping over/past them in Single Player mode.",
      "howto": "Pass an opponent by jumping over/past them in Single Player mode."
    },
    {
      "id": 43,
      "imageId": 43,
      "cred": 10,
      "flags": 4,
      "label": "Absolutely Smashing",
      "description": "Successfully bumped an opponent by landing on him in Single Player mode.",
      "howto": "Successfully bump an opponent by landing on him in Single Player mode."
    },
    {
      "id": 44,
      "imageId": 44,
      "cred": 15,
      "flags": 4,
      "label": "Unstoppable!",
      "description": "Won a race by tumbling or spinning over the finish line in Single Player mode.",
      "howto": "Win a race by tumbling or spinning over the finish line in Single Player mode."
    },
    {
      "id": 45,
      "imageId": 45,
      "cred": 10,
      "flags": 4,
      "label": "Close Call",
      "description": "Won a race by less than a second in Single Player mode.",
      "howto": "Win a race by less than a second in Single Player mode."
    },
    {
      "id": 46,
      "imageId": 46,
      "cred": 10,
      "flags": 4,
      "label": "Give 'Em the Slip",
      "description": "Passed an opponent while drifting in Single Player mode.",
      "howto": "Pass an opponent while drifting in Single Player mode."
    },
    {
      "id": 47,
      "imageId": 47,
      "cred": 40,
      "flags": 3,
      "label": "Codon Infusion",
      "description": "Unlocked all of the characters in the game.",
      "howto": "Unlock all of the characters in the game."
    },
    {
      "id": 48,
      "imageId": 48,
      "cred": 30,
      "flags": 3,
      "label": "Kart Collector",
      "description": "Unlocked all of the karts in the game.",
      "howto": "Unlock all of the karts in the game."
    },
    {
      "id": 49,
      "imageId": 49,
      "cred": 50,
      "flags": 1,
      "label": "Galactic Racing Champion",
      "description": "Won a trophy on every Grand Prix circuit.",
      "howto": "Win a trophy on every Grand Prix circuit."
    },
    {
      "id": 50,
      "imageId": 50,
      "cred": 100,
      "flags": 1,
      "label": "Ultimate Trophy Room",
      "description": "Won a first place trophy on every Grand Prix circuit.",
      "howto": "Win a first place trophy on every Grand Prix circuit."
    }
  ]
}