{
  "achievementsPossible": 46,
  "credPossible": 1000,
  "achievements": [
    {
      "id": 1,
      "imageId": 1,
      "cred": 20,
      "flags": 4,
      "label": "Army Cross: Campaign",
      "description": "Kill 10 enemies using land based vehicles without losing the multiplier.",
      "howto": "Kill 10 enemies using land based vehicles without losing the multiplier."
    },
    {
      "id": 2,
      "imageId": 2,
      "cred": 20,
      "flags": 4,
      "label": "Air Force Cross: Campaign",
      "description": "Kill 10 enemies using air based vehicles without losing the multiplier.",
      "howto": "Kill 10 enemies using air based vehicles without losing the multiplier."
    },
    {
      "id": 3,
      "imageId": 3,
      "cred": 20,
      "flags": 4,
      "label": "Marksman: Campaign",
      "description": "Kill 4 enemies with one clip of a sniper rifle.",
      "howto": "Kill 4 enemies with one clip of a sniper rifle."
    },
    {
      "id": 4,
      "imageId": 4,
      "cred": 20,
      "flags": 4,
      "label": "Mechanic: Campaign",
      "description": "Repair 5 allied vehicles in a mission using the Blowtorch - at least 1/3rd armour must be repaired.",
      "howto": "Repair 5 allied vehicles in a mission using the Blowtorch - at least 1/3rd armour must be repaired."
    },
    {
      "id": 5,
      "imageId": 5,
      "cred": 20,
      "flags": 4,
      "label": "Medic: Campaign",
      "description": "Heal 4 allies without dying using the Auto Injector - at least 1/3rd health must be restored.",
      "howto": "Heal 4 allies without dying using the Auto Injector - at least 1/3rd health must be restored."
    },
    {
      "id": 6,
      "imageId": 6,
      "cred": 20,
      "flags": 4,
      "label": "Navy Cross: Campaign",
      "description": "Kill 5 enemies using water based vehicles without losing the multiplier.",
      "howto": "Kill 5 enemies using water based vehicles without losing the multiplier."
    },
    {
      "id": 7,
      "imageId": 7,
      "cred": 25,
      "flags": 4,
      "label": "Expert Assault: Campaign",
      "description": "Kill 10 enemies using Assault Kit weapons without losing the multiplier.",
      "howto": "Kill 10 enemies using Assault Kit weapons without losing the multiplier."
    },
    {
      "id": 8,
      "imageId": 8,
      "cred": 25,
      "flags": 4,
      "label": "Expert Sniper: Campaign",
      "description": "Kill 10 enemies using Sniper Kit weapons without losing the multiplier.",
      "howto": "Kill 10 enemies using Sniper Kit weapons without losing the multiplier."
    },
    {
      "id": 9,
      "imageId": 9,
      "cred": 25,
      "flags": 4,
      "label": "Expert Special Ops: Campaign",
      "description": "Kill 10 enemies using Special Ops Kit weapons without losing the multiplier.",
      "howto": "Kill 10 enemies using Special Ops Kit weapons without losing the multiplier."
    },
    {
      "id": 10,
      "imageId": 10,
      "cred": 25,
      "flags": 4,
      "label": "Expert Engineer: Campaign",
      "description": "Kill 10 enemies using Engineer Kit weapons without losing the multiplier.",
      "howto": "Kill 10 enemies using Engineer Kit weapons without losing the multiplier."
    },
    {
      "id": 11,
      "imageId": 11,
      "cred": 25,
      "flags": 4,
      "label": "Expert Support: Campaign",
      "description": "Kill 10 enemies using Support Kit weapons without losing the multiplier.",
      "howto": "Kill 10 enemies using Support Kit weapons without losing the multiplier."
    },
    {
      "id": 12,
      "imageId": 12,
      "cred": 20,
      "flags": 4,
      "label": "Grenadier: Campaign",
      "description": "Kill 20 enemies with grenades in a single mission.",
      "howto": "Kill 20 enemies with grenades in a single mission."
    },
    {
      "id": 13,
      "imageId": 13,
      "cred": 20,
      "flags": 4,
      "label": "Commando: Campaign",
      "description": "Kill 4 enemies in a mission using a Knife.",
      "howto": "Kill 4 enemies in a mission using a Knife."
    },
    {
      "id": 14,
      "imageId": 14,
      "cred": 20,
      "flags": 4,
      "label": "Sapper: Campaign",
      "description": "Kill 20 enemies using C4 or Landmines in a single mission.",
      "howto": "Kill 20 enemies using C4 or Landmines in a single mission."
    },
    {
      "id": 15,
      "imageId": 15,
      "cred": 20,
      "flags": 4,
      "label": "Expert Use Of Mortar: Campaign",
      "description": "Kill 3 enemies and no allies with a single Mortar Strike.",
      "howto": "Kill 3 enemies and no allies with a single Mortar Strike."
    },
    {
      "id": 16,
      "imageId": 1,
      "cred": 20,
      "flags": 4,
      "label": "Army Cross: Online",
      "description": "Kill 10 enemies without dying using land based vehicles.",
      "howto": "Kill 10 enemies without dying using land based vehicles."
    },
    {
      "id": 17,
      "imageId": 2,
      "cred": 20,
      "flags": 4,
      "label": "Air Force Cross: Online",
      "description": "Kill 10 enemies without dying using air based vehicles.",
      "howto": "Kill 10 enemies without dying using air based vehicles."
    },
    {
      "id": 18,
      "imageId": 3,
      "cred": 20,
      "flags": 4,
      "label": "Marksman: Online",
      "description": "Kill 4 enemies with one clip of a sniper rifle.",
      "howto": "Kill 4 enemies with one clip of a sniper rifle."
    },
    {
      "id": 19,
      "imageId": 4,
      "cred": 20,
      "flags": 4,
      "label": "Mechanic: Online",
      "description": "Repair 5 allied vehicles without dying using the Blowtorch - at least 1/3rd armour must be repaired.",
      "howto": "Repair 5 allied vehicles without dying using the Blowtorch - at least 1/3rd armour must be repaired."
    },
    {
      "id": 20,
      "imageId": 5,
      "cred": 20,
      "flags": 4,
      "label": "Medic: Online",
      "description": "Heal 4 allies without dying using the Auto Injector - at least 1/3rd health must be restored.",
      "howto": "Heal 4 allies without dying using the Auto Injector - at least 1/3rd health must be restored."
    },
    {
      "id": 21,
      "imageId": 6,
      "cred": 20,
      "flags": 4,
      "label": "Navy Cross: Online",
      "description": "Kill 5 enemies without dying using water based vehicles.",
      "howto": "Kill 5 enemies without dying using water based vehicles."
    },
    {
      "id": 22,
      "imageId": 7,
      "cred": 25,
      "flags": 4,
      "label": "Expert Assault: Online",
      "description": "Kill 10 enemies without dying using Assault Kit weapons.",
      "howto": "Kill 10 enemies without dying using Assault Kit weapons."
    },
    {
      "id": 23,
      "imageId": 8,
      "cred": 25,
      "flags": 4,
      "label": "Expert Sniper: Online",
      "description": "Kill 10 enemies without dying using Sniper Kit weapons.",
      "howto": "Kill 10 enemies without dying using Sniper Kit weapons."
    },
    {
      "id": 24,
      "imageId": 9,
      "cred": 25,
      "flags": 4,
      "label": "Expert Special Ops: Online",
      "description": "Kill 10 enemies without dying using Special Ops Kit weapons.",
      "howto": "Kill 10 enemies without dying using Special Ops Kit weapons."
    },
    {
      "id": 25,
      "imageId": 10,
      "cred": 25,
      "flags": 4,
      "label": "Expert Engineer: Online",
      "description": "Kill 10 enemies without dying using Engineer Kit weapons.",
      "howto": "Kill 10 enemies without dying using Engineer Kit weapons."
    },
    {
      "id": 26,
      "imageId": 11,
      "cred": 25,
      "flags": 4,
      "label": "Expert Support: Online",
      "description": "Kill 10 enemies without dying using Support Kit weapons.",
      "howto": "Kill 10 enemies without dying using Support Kit weapons."
    },
    {
      "id": 27,
      "imageId": 12,
      "cred": 20,
      "flags": 4,
      "label": "Grenadier: Online",
      "description": "Kill 20 enemies with grenades in a single round.",
      "howto": "Kill 20 enemies with grenades in a single round."
    },
    {
      "id": 28,
      "imageId": 13,
      "cred": 20,
      "flags": 4,
      "label": "Commando: Online",
      "description": "Kill 4 enemies without dying using a Knife.",
      "howto": "Kill 4 enemies without dying using a Knife."
    },
    {
      "id": 29,
      "imageId": 14,
      "cred": 20,
      "flags": 4,
      "label": "Sapper: Online",
      "description": "Kill 20 enemies using C4 or Landmines in a single round.",
      "howto": "Kill 20 enemies using C4 or Landmines in a single round."
    },
    {
      "id": 30,
      "imageId": 15,
      "cred": 20,
      "flags": 4,
      "label": "Expert Use Of Mortar: Online",
      "description": "Kill 5 enemies and no allies with a single Mortar Strike.",
      "howto": "Kill 5 enemies and no allies with a single Mortar Strike."
    },
    {
      "id": 31,
      "imageId": 16,
      "cred": 5,
      "flags": 6,
      "label": "Almaty Veteran",
      "description": "Complete all missions in the Almaty region.",
      "howto": "Complete all missions in the Almaty region."
    },
    {
      "id": 32,
      "imageId": 17,
      "cred": 10,
      "flags": 6,
      "label": "Mangystau Veteran",
      "description": "Complete all missions in the Mangystau region.",
      "howto": "Complete all missions in the Mangystau region."
    },
    {
      "id": 33,
      "imageId": 18,
      "cred": 25,
      "flags": 6,
      "label": "Qyzylorda Veteran",
      "description": "Complete all missions in the Qyzylorda region.",
      "howto": "Complete all missions in the Qyzylorda region."
    },
    {
      "id": 34,
      "imageId": 19,
      "cred": 5,
      "flags": 5,
      "label": "Admirable",
      "description": "Achieve the maximum star rating in 5 missions or challenges.",
      "howto": "Achieve the maximum star rating in 5 missions or challenges."
    },
    {
      "id": 35,
      "imageId": 20,
      "cred": 20,
      "flags": 5,
      "label": "Meritorious",
      "description": "Achieve the maximum star rating in 20 missions or challenges.",
      "howto": "Achieve the maximum star rating in 20 missions or challenges."
    },
    {
      "id": 36,
      "imageId": 21,
      "cred": 50,
      "flags": 5,
      "label": "Exemplary",
      "description": "Achieve the maximum star rating in all missions and challenges.",
      "howto": "Achieve the maximum star rating in all missions and challenges."
    },
    {
      "id": 37,
      "imageId": 22,
      "cred": 30,
      "flags": 1,
      "label": "Victorious China",
      "description": "Complete all China missions.",
      "howto": "Complete all China missions."
    },
    {
      "id": 38,
      "imageId": 23,
      "cred": 30,
      "flags": 1,
      "label": "Victorious NATO",
      "description": "Complete all NATO missions.",
      "howto": "Complete all NATO missions."
    },
    {
      "id": 39,
      "imageId": 16,
      "cred": 5,
      "flags": 6,
      "label": "Practiced",
      "description": "Participate in 50 game sessions.",
      "howto": "Participate in 50 game sessions."
    },
    {
      "id": 40,
      "imageId": 17,
      "cred": 20,
      "flags": 6,
      "label": "Seasoned",
      "description": "Participate in 200 game sessions.",
      "howto": "Participate in 200 game sessions."
    },
    {
      "id": 41,
      "imageId": 18,
      "cred": 50,
      "flags": 6,
      "label": "Veteran",
      "description": "Participate in 500 game sessions.",
      "howto": "Participate in 500 game sessions."
    },
    {
      "id": 42,
      "imageId": 19,
      "cred": 5,
      "flags": 5,
      "label": "Team",
      "description": "Complete 5 major victories.",
      "howto": "Complete 5 major victories."
    },
    {
      "id": 43,
      "imageId": 20,
      "cred": 20,
      "flags": 5,
      "label": "Alliance",
      "description": "Complete 20 major victories.",
      "howto": "Complete 20 major victories."
    },
    {
      "id": 44,
      "imageId": 21,
      "cred": 50,
      "flags": 5,
      "label": "Coalition",
      "description": "Complete 50 major victories.",
      "howto": "Complete 50 major victories."
    },
    {
      "id": 45,
      "imageId": 22,
      "cred": 5,
      "flags": 5,
      "label": "Conqueror",
      "description": "Finish top in 5 games.",
      "howto": "Finish top in 5 games."
    },
    {
      "id": 46,
      "imageId": 23,
      "cred": 20,
      "flags": 5,
      "label": "Dominator",
      "description": "Finish top in 20 games.",
      "howto": "Finish top in 20 games."
    }
  ]
}