{
  "achievementsPossible": 70,
  "credPossible": 1500,
  "achievements": [
    {
      "id": 1,
      "imageId": 1,
      "cred": 5,
      "flags": 4,
      "label": "レッドホットスカル",
      "description": "ゼンイチでゲームをプレイした",
      "howto": "ゼンイチでゲームを始める"
    },
    {
      "id": 2,
      "imageId": 2,
      "cred": 5,
      "flags": 4,
      "label": "FA-98 スティンガー",
      "description": "ユンでゲームをプレイした",
      "howto": "ユンでゲームを始める"
    },
    {
      "id": 3,
      "imageId": 3,
      "cred": 5,
      "flags": 4,
      "label": "タートル10000",
      "description": "サダハールでゲームをプレイした",
      "howto": "サダハールでゲームを始める"
    },
    {
      "id": 4,
      "imageId": 4,
      "cred": 5,
      "flags": 6,
      "label": "キャプテンイーグル撃破",
      "description": "キャプテンイーグルを撃破した",
      "howto": "1面中ボスAを撃破する"
    },
    {
      "id": 5,
      "imageId": 5,
      "cred": 5,
      "flags": 6,
      "label": "キャプテンタイタン撃破",
      "description": "キャプテンタイタンを撃破した",
      "howto": "1面中ボスBを撃破する"
    },
    {
      "id": 6,
      "imageId": 6,
      "cred": 20,
      "flags": 6,
      "label": "キャプテンフェニックス撃破",
      "description": "キャプテンフェニックスを撃破した",
      "howto": "1面ボスを撃破する"
    },
    {
      "id": 7,
      "imageId": 7,
      "cred": 5,
      "flags": 6,
      "label": "ビッグデカローン撃破",
      "description": "ビッグデカローンを撃破した",
      "howto": "2面中ボスを撃破する"
    },
    {
      "id": 8,
      "imageId": 8,
      "cred": 30,
      "flags": 6,
      "label": "カイザーナブーン撃破",
      "description": "カイザーナブーンを撃破した",
      "howto": "2面ボスを撃破する"
    },
    {
      "id": 9,
      "imageId": 9,
      "cred": 5,
      "flags": 6,
      "label": "バギラ撃破",
      "description": "バギラを撃破した",
      "howto": "3面中ボスを撃破する"
    },
    {
      "id": 10,
      "imageId": 10,
      "cred": 40,
      "flags": 6,
      "label": "ボルボッタ撃破",
      "description": "ボルボッタを撃破した",
      "howto": "3面ボスを撃破する"
    },
    {
      "id": 11,
      "imageId": 11,
      "cred": 5,
      "flags": 6,
      "label": "デスマンタ－ラ撃破",
      "description": "デスマンタ－ラを撃破した",
      "howto": "4面中ボスを撃破する"
    },
    {
      "id": 12,
      "imageId": 12,
      "cred": 50,
      "flags": 6,
      "label": "ブラッディータンポーポ撃破",
      "description": "ブラッディータンポーポを撃破した",
      "howto": "4面ボスを撃破する"
    },
    {
      "id": 13,
      "imageId": 13,
      "cred": 5,
      "flags": 6,
      "label": "ジェネラルポイズーン撃破",
      "description": "ジェネラルポイズーンを撃破した",
      "howto": "5面中ボスを撃破する"
    },
    {
      "id": 14,
      "imageId": 14,
      "cred": 60,
      "flags": 6,
      "label": "メッチャーブレイン撃破",
      "description": "メッチャーブレインを撃破した",
      "howto": "5面ボスを撃破する"
    },
    {
      "id": 15,
      "imageId": 15,
      "cred": 20,
      "flags": 1,
      "label": "不倶戴天",
      "description": "ゼンイチでエンディングをみた",
      "howto": "ゼンイチでエンディングをみる"
    },
    {
      "id": 16,
      "imageId": 16,
      "cred": 20,
      "flags": 1,
      "label": "天馬行空",
      "description": "ユンでエンディングをみた",
      "howto": "ユンでエンディングをみる"
    },
    {
      "id": 17,
      "imageId": 17,
      "cred": 20,
      "flags": 1,
      "label": "王道楽土",
      "description": "サダハールでエンディングをみた",
      "howto": "サダハールでエンディングをみる"
    },
    {
      "id": 18,
      "imageId": 18,
      "cred": 5,
      "flags": 7,
      "label": "メダル初獲得",
      "description": "ステージクリアのメダルを初獲得した",
      "howto": "ステージクリアのメダルを初獲得する"
    },
    {
      "id": 19,
      "imageId": 19,
      "cred": 10,
      "flags": 7,
      "label": "シルバーメダル5",
      "description": "シルバーメダルを5個以上獲得した",
      "howto": "シルバーメダルを5個以上獲得する"
    },
    {
      "id": 20,
      "imageId": 20,
      "cred": 20,
      "flags": 7,
      "label": "ゴールドメダル5",
      "description": "ゴールドメダル5個以上獲得した",
      "howto": "ゴールドメダル5個以上獲得する"
    },
    {
      "id": 21,
      "imageId": 21,
      "cred": 30,
      "flags": 7,
      "label": "プラチナメダル5",
      "description": "プラチナメダル5個以上獲得した",
      "howto": "プラチナメダル5個以上獲得する"
    },
    {
      "id": 22,
      "imageId": 22,
      "cred": 50,
      "flags": 6,
      "label": "2周目突入",
      "description": "2周目をプレイした",
      "howto": "2周目をプレイする"
    },
    {
      "id": 23,
      "imageId": 23,
      "cred": 120,
      "flags": 6,
      "label": "メッチャワール撃破",
      "description": "メッチャワールを撃破した",
      "howto": "真ボスを撃破する"
    },
    {
      "id": 24,
      "imageId": 24,
      "cred": 30,
      "flags": 7,
      "label": "1面番長",
      "description": "番長モードで1面でプラチナメダル獲得した",
      "howto": "番長モードで1面でプラチナメダル獲得する"
    },
    {
      "id": 25,
      "imageId": 25,
      "cred": 30,
      "flags": 7,
      "label": "2面番長",
      "description": "番長モードで2面でプラチナメダル獲得した",
      "howto": "番長モードで2面でプラチナメダル獲得する"
    },
    {
      "id": 26,
      "imageId": 26,
      "cred": 30,
      "flags": 7,
      "label": "3面番長",
      "description": "番長モードで3面でプラチナメダル獲得した",
      "howto": "番長モードで3面でプラチナメダル獲得する"
    },
    {
      "id": 27,
      "imageId": 27,
      "cred": 30,
      "flags": 7,
      "label": "4面番長",
      "description": "番長モードで4面でプラチナメダル獲得した",
      "howto": "番長モードで4面でプラチナメダル獲得する"
    },
    {
      "id": 28,
      "imageId": 28,
      "cred": 30,
      "flags": 7,
      "label": "5面番長",
      "description": "番長モードで5面でプラチナメダル獲得した",
      "howto": "番長モードで5面でプラチナメダル獲得する"
    },
    {
      "id": 29,
      "imageId": 29,
      "cred": 5,
      "flags": 7,
      "label": "クロスショットの使い手",
      "description": "クロスショットで累計500機撃破した",
      "howto": "クロスショットで累計500機撃破する"
    },
    {
      "id": 30,
      "imageId": 30,
      "cred": 5,
      "flags": 7,
      "label": "ロックの使い手",
      "description": "ロックオン可能の機体で１つの対象に30秒ロック攻撃をし続けた",
      "howto": "ロックオン可能の機体で１つの対象に30秒ロック攻撃をし続ける"
    },
    {
      "id": 31,
      "imageId": 31,
      "cred": 20,
      "flags": 1,
      "label": "ノーボムクリア",
      "description": "ノーボムクリアした",
      "howto": "ボムを使用せずにクリアする"
    },
    {
      "id": 32,
      "imageId": 32,
      "cred": 5,
      "flags": 4,
      "label": "ナイスボム",
      "description": "ナイスボム！",
      "howto": "敵弾に当たる寸前でボムを使用する"
    },
    {
      "id": 33,
      "imageId": 33,
      "cred": 10,
      "flags": 4,
      "label": "ビル倒壊",
      "description": "1面でビルを倒してボーナス獲得",
      "howto": "秘密"
    },
    {
      "id": 34,
      "imageId": 34,
      "cred": 10,
      "flags": 4,
      "label": "同時破壊",
      "description": "ジャグレオンを同時破壊をしてボーナス獲得",
      "howto": "秘密"
    },
    {
      "id": 35,
      "imageId": 35,
      "cred": 10,
      "flags": 4,
      "label": "基地分断",
      "description": "2面で基地の各ブロックを全て分断させてボーナス獲得",
      "howto": "秘密"
    },
    {
      "id": 36,
      "imageId": 36,
      "cred": 10,
      "flags": 4,
      "label": "その名は「乙」！",
      "description": "ノーミスで「乙」を全滅させてボーナス獲得",
      "howto": "秘密"
    },
    {
      "id": 37,
      "imageId": 37,
      "cred": 5,
      "flags": 4,
      "label": "皮剥ぎ",
      "description": "3面でゲルゲの甲羅を全て剥ぎ取ってから倒した",
      "howto": "秘密"
    },
    {
      "id": 38,
      "imageId": 38,
      "cred": 5,
      "flags": 4,
      "label": "屍に鞭打つ",
      "description": "3面でガンフロッグの残骸を破壊した",
      "howto": "秘密"
    },
    {
      "id": 39,
      "imageId": 39,
      "cred": 10,
      "flags": 4,
      "label": "完ペキ主義",
      "description": "4面で戦艦のパーツを全て破壊してボーナス獲得",
      "howto": "秘密"
    },
    {
      "id": 40,
      "imageId": 40,
      "cred": 10,
      "flags": 4,
      "label": "橋落とし",
      "description": "5面で橋を全て落としてボーナス獲得",
      "howto": "秘密"
    },
    {
      "id": 41,
      "imageId": 41,
      "cred": 20,
      "flags": 7,
      "label": "早回し王",
      "description": "1度の早回しで70機以上の敵機を発生させた",
      "howto": "秘密"
    },
    {
      "id": 42,
      "imageId": 42,
      "cred": 20,
      "flags": 7,
      "label": "撃ち込み王",
      "description": "１つの敵から1,000万点以上の撃ち込み点を得た",
      "howto": "秘密"
    },
    {
      "id": 43,
      "imageId": 43,
      "cred": 20,
      "flags": 7,
      "label": "得点王",
      "description": "1回のプレイで1億点以上獲得した",
      "howto": "秘密"
    },
    {
      "id": 44,
      "imageId": 44,
      "cred": 20,
      "flags": 7,
      "label": "撃墜王",
      "description": "1回のプレイで1,000機以上撃墜した",
      "howto": "秘密"
    },
    {
      "id": 45,
      "imageId": 45,
      "cred": 20,
      "flags": 7,
      "label": "ボーナス王",
      "description": "1つのステージで10以上のボーナスを獲得した",
      "howto": "秘密"
    },
    {
      "id": 46,
      "imageId": 46,
      "cred": 5,
      "flags": 4,
      "label": "チェンバーイズエンプティ",
      "description": "ボムがない状態でボムボタンを押した",
      "howto": "秘密"
    },
    {
      "id": 47,
      "imageId": 47,
      "cred": 50,
      "flags": 7,
      "label": "稼いだ証",
      "description": "各種ボーナスを累計で500回獲得した",
      "howto": "各種ボーナスを累計で500回獲得する"
    },
    {
      "id": 48,
      "imageId": 48,
      "cred": 50,
      "flags": 7,
      "label": "攻めた証",
      "description": "魂ゲージを倍率累計2,000獲得した",
      "howto": "魂ゲージを倍率累計2,000獲得する"
    },
    {
      "id": 49,
      "imageId": 49,
      "cred": 0,
      "flags": 7,
      "label": "プラチナ番長",
      "description": "番長モードの全てのステージでプラチナメダルを獲得した",
      "howto": "番長モードの全てのステージでプラチナメダルを獲得する"
    },
    {
      "id": 50,
      "imageId": 50,
      "cred": 0,
      "flags": 1,
      "label": "弾魂",
      "description": "ノーコンティニューで2周クリアした",
      "howto": "ノーコンティニューで2周クリアする"
    },
    {
      "id": 51,
      "imageId": 51,
      "cred": 5,
      "flags": 7,
      "label": "キャラバンきたら本気出す",
      "description": "お買い上げありがとうございました",
      "howto": "お買い上げありがとうございます"
    },
    {
      "id": 52,
      "imageId": 52,
      "cred": 25,
      "flags": 4,
      "label": "ガシャーン！？",
      "description": "合体前にガシャーンを撃破してボーナスを獲得した",
      "howto": "秘密"
    },
    {
      "id": 53,
      "imageId": 53,
      "cred": 25,
      "flags": 4,
      "label": "「乙」再び",
      "description": "キャラバンモードの全ての乙をノーミスで破壊する",
      "howto": "秘密"
    },
    {
      "id": 54,
      "imageId": 54,
      "cred": 25,
      "flags": 4,
      "label": "ツインマワール撃破",
      "description": "ツインマワールをどちらも撃破した",
      "howto": "秘密"
    },
    {
      "id": 55,
      "imageId": 55,
      "cred": 25,
      "flags": 4,
      "label": "2分耐えれば",
      "description": "キャラバンモードをノーミスでクリアした",
      "howto": "秘密"
    },
    {
      "id": 56,
      "imageId": 56,
      "cred": 25,
      "flags": 4,
      "label": "キャラバン番長",
      "description": "プラチナメダルを獲得した。だが、まだ真の番長とはいえない",
      "howto": "キャラバンモードでプラチナメダル獲得する"
    },
    {
      "id": 57,
      "imageId": 57,
      "cred": 25,
      "flags": 1,
      "label": "初陣",
      "description": "キャラバンモードをプレイして記録を残した",
      "howto": "キャラバンモードをプレイして記録を残す"
    },
    {
      "id": 58,
      "imageId": 58,
      "cred": 25,
      "flags": 4,
      "label": "どれがお好み？",
      "description": "全ての機体でキャラバンモードをプレイして記録を残した",
      "howto": "全ての機体でキャラバンモードをプレイして記録を残す"
    },
    {
      "id": 59,
      "imageId": 59,
      "cred": 20,
      "flags": 7,
      "label": "研究熱心",
      "description": "キャラバンモードのリプレイを見て研究をした",
      "howto": "キャラバンモードのリプレイを見て研究をする"
    },
    {
      "id": 60,
      "imageId": 60,
      "cred": 50,
      "flags": 7,
      "label": "己に勝て！",
      "description": "キャラバンモードで1機体のベストスコアを3回更新する",
      "howto": "キャラバンモードで1機体のベストスコアを3回更新する"
    },
    {
      "id": 61,
      "imageId": 61,
      "cred": 5,
      "flags": 4,
      "label": "ピースオブケーク",
      "description": "ループでゲームをプレイした",
      "howto": "ループでゲームを始める"
    },
    {
      "id": 62,
      "imageId": 62,
      "cred": 15,
      "flags": 4,
      "label": "死ぬ時は前のめり",
      "description": "画面上方に連続して15秒以上とどまったが撃墜された",
      "howto": "画面上方に連続して15秒以上とどまったが撃墜される"
    },
    {
      "id": 63,
      "imageId": 63,
      "cred": 30,
      "flags": 4,
      "label": "命あっての物種",
      "description": "画面上方に連続して30秒以上とどまった",
      "howto": "画面上方に連続して30秒以上とどまる"
    },
    {
      "id": 64,
      "imageId": 64,
      "cred": 15,
      "flags": 4,
      "label": "また抱え死に",
      "description": "ボムを使わずに撃墜された挙げ句、ゲームオーバーになった",
      "howto": "ボムを使わずに撃墜された挙げ句、ゲームオーバーになる"
    },
    {
      "id": 65,
      "imageId": 65,
      "cred": 15,
      "flags": 4,
      "label": "開幕決めボム、連続ボム",
      "description": "ボス戦開幕直後から、ボムのみでダメージを一定値以上与えた",
      "howto": "ボス戦開幕直後から、ボムのみでダメージを一定値以上与える"
    },
    {
      "id": 66,
      "imageId": 66,
      "cred": 20,
      "flags": 1,
      "label": "勇往邁進",
      "description": "ループでエンディングを見た",
      "howto": "ループでエンディングを見る"
    },
    {
      "id": 67,
      "imageId": 67,
      "cred": 50,
      "flags": 4,
      "label": "メダルキング",
      "description": "Version Bでメダルを50個以上獲得した（累計）",
      "howto": "Version Bでメダルを50個以上獲得する（累計）"
    },
    {
      "id": 68,
      "imageId": 68,
      "cred": 10,
      "flags": 7,
      "label": "改めてプラチナメダル5",
      "description": "改めてプラチナメダルを5個以上獲得した",
      "howto": "改めてプラチナメダルを5個以上獲得する"
    },
    {
      "id": 69,
      "imageId": 69,
      "cred": 40,
      "flags": 6,
      "label": "改めてメッチャワール撃破",
      "description": "改めてメッチャワールを撃破した",
      "howto": "改めて真ボスを撃破する"
    },
    {
      "id": 70,
      "imageId": 70,
      "cred": 50,
      "flags": 1,
      "label": "改めてエンディング4",
      "description": "改めて全員のエンディングを見た",
      "howto": "改めて全員のエンディングを見る"
    }
  ]
}