{
  "achievementsPossible": 12,
  "credPossible": 200,
  "achievements": [
    {
      "id": 1,
      "imageId": 1,
      "cred": 5,
      "flags": 1,
      "label": "The Bitter End",
      "description": "Complete the challenge “The Bitter End”.",
      "howto": "Complete the challenge “The Bitter End”."
    },
    {
      "id": 2,
      "imageId": 2,
      "cred": 5,
      "flags": 1,
      "label": "Big Finish",
      "description": "Complete the first tier of the challenge “Big Finish” in any mode.",
      "howto": "Complete the first tier of the challenge “Big Finish” in any mode."
    },
    {
      "id": 3,
      "imageId": 3,
      "cred": 10,
      "flags": 1,
      "label": "Sharing Is Caring",
      "description": "Complete the challenge “Sharing Is Caring”.",
      "howto": "Complete the challenge “Sharing Is Caring”."
    },
    {
      "id": 4,
      "imageId": 4,
      "cred": 10,
      "flags": 1,
      "label": "Couch Potato",
      "description": "Complete the first tier of the challenge “Couch Potato”.",
      "howto": "Complete the first tier of the challenge “Couch Potato”."
    },
    {
      "id": 5,
      "imageId": 5,
      "cred": 20,
      "flags": 1,
      "label": "EX-ceptional",
      "description": "Complete the third tier of the challenge “EX-ceptional” in any mode.",
      "howto": "Complete the third tier of the challenge “EX-ceptional” in any mode."
    },
    {
      "id": 6,
      "imageId": 6,
      "cred": 20,
      "flags": 1,
      "label": "Wax On, Wax Off",
      "description": "Complete the third tier of the challenge “Wax On, Wax Off” in any mode.",
      "howto": "Complete the third tier of the challenge “Wax On, Wax Off” in any mode."
    },
    {
      "id": 7,
      "imageId": 7,
      "cred": 20,
      "flags": 1,
      "label": "Super Artist",
      "description": "Complete the third tier of the challenge “Super Artist” in any mode.",
      "howto": "Complete the third tier of the challenge “Super Artist” in any mode."
    },
    {
      "id": 8,
      "imageId": 8,
      "cred": 20,
      "flags": 1,
      "label": "Going Streaking",
      "description": "Complete the second tier of the challenge “Going Streaking” in ranked online mode.",
      "howto": "Complete the second tier of the challenge “Going Streaking” in ranked online mode."
    },
    {
      "id": 9,
      "imageId": 9,
      "cred": 20,
      "flags": 1,
      "label": "Practice Makes Perfect",
      "description": "Complete the challenge “Practice Makes Perfect”.",
      "howto": "Complete the challenge “Practice Makes Perfect”."
    },
    {
      "id": 10,
      "imageId": 10,
      "cred": 20,
      "flags": 1,
      "label": "Sticks & Stones",
      "description": "Complete the first tier of the challenge “Sticks & Stones” in any mode.",
      "howto": "Complete the first tier of the challenge “Sticks & Stones” in any mode."
    },
    {
      "id": 11,
      "imageId": 11,
      "cred": 30,
      "flags": 1,
      "label": "Pocket Full Of Quarters",
      "description": "Complete the challenge “Pocket Full Of Quarters”.",
      "howto": "Complete the challenge “Pocket Full Of Quarters”."
    },
    {
      "id": 12,
      "imageId": 12,
      "cred": 20,
      "flags": 1,
      "label": "Mystery Man",
      "description": "Complete the challenge “Mystery Man”.",
      "howto": "Complete the challenge “Mystery Man”."
    }
  ]
}