{
  "avatarAssetsPossible": 5,
  "maleAvatarAssetsPossible": 2,
  "femaleAvatarAssetsPossible": 2,
  "avatarAssets": [
    {
      "id": "00000040-0001-8143-cca7-bfdf58411266",
      "imageId": 39,
      "subcategory": 0,
      "unknown": 0,
      "isMale": false,
      "isFemale": false,
      "isUnisex": true,
      "label": "Home Run Stars League Hat",
      "description": "Earned for defeating \"Lucky Lee\" in the Home Run League.",
      "howto": "Defeat \"Lucky Lee\" in the Home Run League to unlock this Avatar Award."
    },
    {
      "id": "00000008-0002-8131-ce56-352a58411266",
      "imageId": 43,
      "subcategory": 0,
      "unknown": 2015221016,
      "isMale": true,
      "isFemale": false,
      "isUnisex": false,
      "label": "Home Run Stars League Shirt",
      "description": "Earned for defeating \"Pistol Pete\" in the Home Run League.",
      "howto": "Defeat \"Pistol Pete\" in the Home Run League to unlock this Avatar Award."
    },
    {
      "id": "00000008-0002-e102-cca4-fa5158411266",
      "imageId": 44,
      "subcategory": 0,
      "unknown": 2015221016,
      "isMale": false,
      "isFemale": true,
      "isUnisex": false,
      "label": "Home Run Stars League Shirt",
      "description": "Earned for defeating \"Pistol Pete\" in the Home Run League.",
      "howto": "Defeat \"Pistol Pete\" in the Home Run League to unlock this Avatar Award."
    },
    {
      "id": "00000010-0003-31e1-cbf1-bf7958411266",
      "imageId": 47,
      "subcategory": 0,
      "unknown": 2015221016,
      "isMale": true,
      "isFemale": false,
      "isUnisex": false,
      "label": "Home Run Stars League Pants",
      "description": "Earned for defeating “Cyclone Williams” in the Home Run League.",
      "howto": "Defeat “Cyclone Williams” in the Home Run League to unlock this Avatar Award."
    },
    {
      "id": "00000010-0003-5152-c6d8-1ff158411266",
      "imageId": 48,
      "subcategory": 0,
      "unknown": 2015221016,
      "isMale": false,
      "isFemale": true,
      "isUnisex": false,
      "label": "Home Run Stars League Pants",
      "description": "Earned for defeating “Cyclone Williams” in the Home Run League.",
      "howto": "Defeat “Cyclone Williams” in the Home Run League to unlock this Avatar Award."
    }
  ]
}