{
  "achievementsPossible": 30,
  "credPossible": 400,
  "achievements": [
    {
      "id": 1,
      "imageId": 50,
      "cred": 5,
      "flags": 1,
      "label": "The Sword is Mightier",
      "description": "KO 100 enemies with Leo.",
      "howto": "Knock out 100 enemies while playing as Leonardo."
    },
    {
      "id": 2,
      "imageId": 15,
      "cred": 10,
      "flags": 1,
      "label": "Lean, Green, Fighting Machine",
      "description": "Max out Leo's special weapon rank.",
      "howto": "Achieve Level 3 with Leonardo’s Blade Staff."
    },
    {
      "id": 3,
      "imageId": 16,
      "cred": 10,
      "flags": 1,
      "label": "Wind Walker",
      "description": "Shoulder run off 100 enemies with Leo.",
      "howto": "Shoulder run off 100 enemies while playing as Leonardo."
    },
    {
      "id": 4,
      "imageId": 49,
      "cred": 5,
      "flags": 1,
      "label": "Do Not Pass Bo",
      "description": "KO 100 enemies with Don.",
      "howto": "Knock out 100 enemies while playing as Donatello."
    },
    {
      "id": 5,
      "imageId": 17,
      "cred": 10,
      "flags": 1,
      "label": "Teched Out",
      "description": "Max out Don's special weapon rank.",
      "howto": "Achieve Level 3 with Donatello’s Gravity Gauntlet."
    },
    {
      "id": 6,
      "imageId": 18,
      "cred": 10,
      "flags": 1,
      "label": "Strong Kata",
      "description": "Hit 25 enemies with Don's special pose attack.",
      "howto": "Hit 25 enemies with Donatello’s special pose attacks."
    },
    {
      "id": 7,
      "imageId": 51,
      "cred": 5,
      "flags": 1,
      "label": "Chuck it Out!",
      "description": "KO 100 enemies with Mikey.",
      "howto": "Knock out 100 enemies while playing as Michelangelo."
    },
    {
      "id": 8,
      "imageId": 19,
      "cred": 10,
      "flags": 1,
      "label": "Maxin' Out!",
      "description": "Max out Mikey's special weapon rank.",
      "howto": "Achieve Level 3 with Michelangelo’s Kusarigama."
    },
    {
      "id": 9,
      "imageId": 20,
      "cred": 10,
      "flags": 1,
      "label": "I Got Moves",
      "description": "Special taunt 100 times with Mikey.",
      "howto": "Taunt 100 enemies with Michelangelo’s special taunt."
    },
    {
      "id": 10,
      "imageId": 52,
      "cred": 5,
      "flags": 1,
      "label": "Sai-onara",
      "description": "KO 100 enemies with Raph.",
      "howto": "Knock out 100 enemies while playing as Raphael."
    },
    {
      "id": 11,
      "imageId": 21,
      "cred": 10,
      "flags": 1,
      "label": "Turtle with Iron Fist",
      "description": "Max out Raph's special weapon rank.",
      "howto": "Achieve Level 3 with Raphael’s Iron Fists."
    },
    {
      "id": 12,
      "imageId": 22,
      "cred": 10,
      "flags": 1,
      "label": "Uncle!",
      "description": "Tapout 25 enemies with Raph.",
      "howto": "Use Raphael’s Counter Submissions 25 times."
    },
    {
      "id": 13,
      "imageId": 23,
      "cred": 5,
      "flags": 1,
      "label": "Stickin it to 'em",
      "description": "KO 25 enemies with a Special Attack.",
      "howto": "Knock out 25 enemies with special attacks."
    },
    {
      "id": 14,
      "imageId": 24,
      "cred": 5,
      "flags": 1,
      "label": "Done and Done",
      "description": "Perform a double counter 25 times.",
      "howto": "Perform a double counter 25 times."
    },
    {
      "id": 15,
      "imageId": 25,
      "cred": 5,
      "flags": 1,
      "label": "Mad Skillz",
      "description": "Perform a special counter 25 times",
      "howto": "Perform a special counter 25 times."
    },
    {
      "id": 16,
      "imageId": 26,
      "cred": 5,
      "flags": 1,
      "label": "All For One",
      "description": "Perform a team attack 50 times.",
      "howto": "Perform a team attack 50 times."
    },
    {
      "id": 17,
      "imageId": 28,
      "cred": 10,
      "flags": 1,
      "label": "Turtle Power",
      "description": "Perform a TPKO on 100 enemies.",
      "howto": "Use a Turtle Power Knock Out on 100 enemies."
    },
    {
      "id": 18,
      "imageId": 29,
      "cred": 10,
      "flags": 1,
      "label": "Shell Shock",
      "description": "Perform a Shell Shock 100 times.",
      "howto": "Perform a Shell Shock attack 100 times."
    },
    {
      "id": 19,
      "imageId": 30,
      "cred": 10,
      "flags": 1,
      "label": "Ninjutsu Power",
      "description": "Perform a stealth KO 25 times.",
      "howto": "Knock out 25 enemies using a stealth attack."
    },
    {
      "id": 20,
      "imageId": 31,
      "cred": 5,
      "flags": 1,
      "label": "Shell Yeah!",
      "description": "Perform a 4 turtle TPKO.",
      "howto": "Perform a 4-Turtle Turtle Power Knock Out."
    },
    {
      "id": 21,
      "imageId": 32,
      "cred": 40,
      "flags": 1,
      "label": "Splinter Is Proud",
      "description": "Perform a 99-hit combo.",
      "howto": "Perform a 99-hit combo."
    },
    {
      "id": 22,
      "imageId": 33,
      "cred": 10,
      "flags": 1,
      "label": "Epic Combo",
      "description": "Perform 12 attack variations in one combo.",
      "howto": "Perform 12 attack variations in a single combo."
    },
    {
      "id": 23,
      "imageId": 36,
      "cred": 40,
      "flags": 1,
      "label": "Hero in a Half Shell",
      "description": "Complete all challenges.",
      "howto": "Complete all Challenge levels."
    },
    {
      "id": 24,
      "imageId": 37,
      "cred": 40,
      "flags": 1,
      "label": "Extra Anchovies",
      "description": "Complete round 20 in Survival Mode.",
      "howto": "Complete round 20 in Survival mode."
    },
    {
      "id": 25,
      "imageId": 39,
      "cred": 40,
      "flags": 1,
      "label": "Old School",
      "description": "Complete the Arcade Mode.",
      "howto": "Complete all Arcade levels."
    },
    {
      "id": 26,
      "imageId": 13,
      "cred": 10,
      "flags": 1,
      "label": "Black and Blue Dragons",
      "description": "Complete Chapter 1.",
      "howto": "Complete Chapter One of the story campaign."
    },
    {
      "id": 27,
      "imageId": 12,
      "cred": 10,
      "flags": 1,
      "label": "Mouser Mayhem",
      "description": "Complete Chapter 2.",
      "howto": "Complete Chapter Two of the story campaign."
    },
    {
      "id": 28,
      "imageId": 11,
      "cred": 10,
      "flags": 1,
      "label": "Stinking Foot",
      "description": "Complete Chapter 3.",
      "howto": "Complete Chapter Three of the story campaign."
    },
    {
      "id": 29,
      "imageId": 10,
      "cred": 40,
      "flags": 1,
      "label": "Shredhead",
      "description": "Complete Chapter 4.",
      "howto": "Complete Chapter Four of the story campaign."
    },
    {
      "id": 30,
      "imageId": 43,
      "cred": 5,
      "flags": 1,
      "label": "Classic Mode",
      "description": "Unlock Classic Mode.",
      "howto": "Unlock Classic Mode by reaching level 10."
    }
  ]
}