{
  "achievementsPossible": 50,
  "credPossible": 1000,
  "achievements": [
    {
      "id": 1,
      "imageId": 4,
      "cred": 10,
      "flags": 6,
      "label": "Chapter 1 Training",
      "description": "Complete Chapter 1 Training.",
      "howto": "Complete Chapter 1 Training."
    },
    {
      "id": 2,
      "imageId": 5,
      "cred": 10,
      "flags": 6,
      "label": "Chapter 2 Training",
      "description": "Complete Chapter 2 Training.",
      "howto": "Complete Chapter 2 Training."
    },
    {
      "id": 3,
      "imageId": 6,
      "cred": 10,
      "flags": 6,
      "label": "Chapter 3 Training",
      "description": "Complete Chapter 3 Training.",
      "howto": "Complete Chapter 3 Training."
    },
    {
      "id": 4,
      "imageId": 7,
      "cred": 10,
      "flags": 6,
      "label": "Chapter 4 Training",
      "description": "Complete Chapter 4 Training.",
      "howto": "Complete Chapter 4 Training."
    },
    {
      "id": 5,
      "imageId": 8,
      "cred": 10,
      "flags": 6,
      "label": "Chapter 5 Training",
      "description": "Complete Chapter 5 Training.",
      "howto": "Complete Chapter 5 Training."
    },
    {
      "id": 6,
      "imageId": 9,
      "cred": 10,
      "flags": 6,
      "label": "Chapter 6 Training",
      "description": "Complete Chapter 6 Training.",
      "howto": "Complete Chapter 6 Training."
    },
    {
      "id": 7,
      "imageId": 43,
      "cred": 10,
      "flags": 4,
      "label": "That's One Frustrated Sniper",
      "description": "Block ten sniper shots with Wired Reflexes.",
      "howto": "Block ten sniper shots with Wired Reflexes."
    },
    {
      "id": 8,
      "imageId": 44,
      "cred": 20,
      "flags": 4,
      "label": "Brother From Another Mother",
      "description": "Performed a cross-platform Resurrection.",
      "howto": "Perform a cross-platform Resurrection."
    },
    {
      "id": 9,
      "imageId": 49,
      "cred": 50,
      "flags": 4,
      "label": "Mine Is The Superior Platform",
      "description": "Kill 100 enemies on the opposite platform.",
      "howto": "Kill 100 enemies on the opposite platform."
    },
    {
      "id": 10,
      "imageId": 46,
      "cred": 10,
      "flags": 4,
      "label": "Healer",
      "description": "Save your allies with the Tree of Life.",
      "howto": "Save your allies with the Tree of Life."
    },
    {
      "id": 11,
      "imageId": 21,
      "cred": 100,
      "flags": 4,
      "label": "Master Ninja",
      "description": "Inflict one hundred mortal wounds on enemies with the Katana.",
      "howto": ""
    },
    {
      "id": 12,
      "imageId": 15,
      "cred": 10,
      "flags": 4,
      "label": "Runner",
      "description": "Carry the Artifact all the way to the delivery point.",
      "howto": "Carry the Artifact all the way to the delivery point."
    },
    {
      "id": 13,
      "imageId": 41,
      "cred": 10,
      "flags": 4,
      "label": "Winning Streak",
      "description": "Win ten consecutive rounds.",
      "howto": ""
    },
    {
      "id": 14,
      "imageId": 38,
      "cred": 50,
      "flags": 4,
      "label": "Unstoppable",
      "description": "Kill ten enemies in a row without being killed.",
      "howto": "Kill ten enemies in a row without being killed."
    },
    {
      "id": 15,
      "imageId": 16,
      "cred": 25,
      "flags": 4,
      "label": "Godlike",
      "description": "Kill all enemy players while taking no damage yourself.",
      "howto": ""
    },
    {
      "id": 16,
      "imageId": 45,
      "cred": 20,
      "flags": 4,
      "label": "BFF",
      "description": "Play Public Match in a Party with players on both XBox 360 and Windows Vista.",
      "howto": "Play Public Match in a Party with players on both XBox 360 and Windows Vista."
    },
    {
      "id": 17,
      "imageId": 13,
      "cred": 10,
      "flags": 1,
      "label": "Elf Player",
      "description": "Play as an Elf for one hundred games.",
      "howto": "Play as an Elf for one hundred games."
    },
    {
      "id": 18,
      "imageId": 11,
      "cred": 10,
      "flags": 4,
      "label": "Dwarf Player",
      "description": "Play as a Dwarf for one hundred games.",
      "howto": "Play as a Dwarf for one hundred games."
    },
    {
      "id": 19,
      "imageId": 36,
      "cred": 10,
      "flags": 4,
      "label": "Troll Player",
      "description": "Play as a Troll for one hundred games.",
      "howto": "Play as a Troll for one hundred games."
    },
    {
      "id": 20,
      "imageId": 18,
      "cred": 10,
      "flags": 4,
      "label": "Human Player",
      "description": "Play as a Human for one hundred games.",
      "howto": "Play as a Human for one hundred games."
    },
    {
      "id": 21,
      "imageId": 17,
      "cred": 10,
      "flags": 4,
      "label": "Heavy Smoker",
      "description": "Ignore a great deal of damage using Smoke.",
      "howto": "Ignore a great deal of damage using Smoke."
    },
    {
      "id": 22,
      "imageId": 30,
      "cred": 10,
      "flags": 4,
      "label": "Summoner",
      "description": "Kill one hundred enemies with your Minions.",
      "howto": "Kill one hundred enemies with your Minions."
    },
    {
      "id": 23,
      "imageId": 32,
      "cred": 10,
      "flags": 4,
      "label": "Teleporter",
      "description": "Teleport one hundred times.",
      "howto": "Teleport one hundred times."
    },
    {
      "id": 24,
      "imageId": 3,
      "cred": 10,
      "flags": 4,
      "label": "Blowhard",
      "description": "Gust 5 enemies to their deaths.",
      "howto": "Gust 5 enemies to their deaths."
    },
    {
      "id": 25,
      "imageId": 47,
      "cred": 25,
      "flags": 4,
      "label": "Master Gardener",
      "description": "Kill 5 enemies with Strangle.",
      "howto": ""
    },
    {
      "id": 26,
      "imageId": 24,
      "cred": 10,
      "flags": 4,
      "label": "Resurrector",
      "description": "Bring back one hundred allies from the dead.",
      "howto": "Bring back one hundred allies from the dead."
    },
    {
      "id": 27,
      "imageId": 35,
      "cred": 10,
      "flags": 4,
      "label": "Triple Rez!",
      "description": "Resurrect three allies at once.",
      "howto": ""
    },
    {
      "id": 28,
      "imageId": 50,
      "cred": 10,
      "flags": 4,
      "label": "Target Lock",
      "description": "Kill one hundred enemies with SmartLink active.",
      "howto": "Kill one hundred enemies with SmartLink active."
    },
    {
      "id": 29,
      "imageId": 37,
      "cred": 10,
      "flags": 4,
      "label": "Trollhammer",
      "description": "Kill one hundred enemy Trolls.",
      "howto": "Kill one hundred enemy Trolls."
    },
    {
      "id": 30,
      "imageId": 14,
      "cred": 10,
      "flags": 4,
      "label": "Elf Bane",
      "description": "Kill one hundred enemy Elves.",
      "howto": "Kill one hundred enemy Elves."
    },
    {
      "id": 31,
      "imageId": 12,
      "cred": 10,
      "flags": 4,
      "label": "Dwarf Scourge",
      "description": "Kill one hundred enemy Dwarves.",
      "howto": "Kill one hundred enemy Dwarves."
    },
    {
      "id": 32,
      "imageId": 29,
      "cred": 20,
      "flags": 4,
      "label": "Street Samurai",
      "description": "Kill one hundred enemies with the Katana.",
      "howto": "Kill one hundred enemies with the Katana."
    },
    {
      "id": 33,
      "imageId": 23,
      "cred": 20,
      "flags": 4,
      "label": "Popgun",
      "description": "Kill one hundred enemies with the Pistol.",
      "howto": "Kill one hundred enemies with the Pistol."
    },
    {
      "id": 34,
      "imageId": 19,
      "cred": 20,
      "flags": 4,
      "label": "Lead Hose",
      "description": "Kill one hundred enemies with the Minigun.",
      "howto": "Kill one hundred enemies with the Minigun."
    },
    {
      "id": 35,
      "imageId": 31,
      "cred": 20,
      "flags": 4,
      "label": "Tatter Tatter",
      "description": "Kill one hundred enemies with the Rifle.",
      "howto": "Kill one hundred enemies with the Rifle."
    },
    {
      "id": 36,
      "imageId": 27,
      "cred": 20,
      "flags": 4,
      "label": "Sniper",
      "description": "Kill one hundred enemies with the Sniper Rifle.",
      "howto": "Kill one hundred enemies with the Sniper Rifle."
    },
    {
      "id": 37,
      "imageId": 26,
      "cred": 20,
      "flags": 4,
      "label": "Shotty",
      "description": "Kill one hundred enemies with the Shotgun.",
      "howto": "Kill one hundred enemies with the Shotgun."
    },
    {
      "id": 38,
      "imageId": 28,
      "cred": 20,
      "flags": 4,
      "label": "Special Delivery",
      "description": "Kill one hundred enemies with Grenades.",
      "howto": "Kill one hundred enemies with Grenades."
    },
    {
      "id": 39,
      "imageId": 20,
      "cred": 10,
      "flags": 4,
      "label": "Master Blaster",
      "description": "Kill one hundred enemies with the Rocket Launcher.",
      "howto": "Kill one hundred enemies with the Rocket Launcher."
    },
    {
      "id": 40,
      "imageId": 56,
      "cred": 100,
      "flags": 4,
      "label": "100 Wins",
      "description": "Win 100 games during your Shadowrun career.",
      "howto": "Win 100 games during your Shadowrun career."
    },
    {
      "id": 41,
      "imageId": 39,
      "cred": 20,
      "flags": 4,
      "label": "Well-Rounded",
      "description": "Win a Public Match game as each race.",
      "howto": "Win a Public Match game as each race."
    },
    {
      "id": 42,
      "imageId": 40,
      "cred": 20,
      "flags": 4,
      "label": "Well-Traveled",
      "description": "Play a Public Match on each map.",
      "howto": "Play a Public Match on each map."
    },
    {
      "id": 43,
      "imageId": 25,
      "cred": 25,
      "flags": 4,
      "label": "Shadowrun Fever",
      "description": "Catch it!",
      "howto": ""
    },
    {
      "id": 44,
      "imageId": 34,
      "cred": 25,
      "flags": 4,
      "label": "3 for the Price of 1",
      "description": "Kill three enemies with one grenade.",
      "howto": "Kill three enemies with one grenade."
    },
    {
      "id": 45,
      "imageId": 42,
      "cred": 20,
      "flags": 4,
      "label": "Zombie Scores!",
      "description": "Deliver the Artifact while bleeding out.",
      "howto": "Deliver the Artifact while bleeding out."
    },
    {
      "id": 46,
      "imageId": 1,
      "cred": 20,
      "flags": 4,
      "label": "Assistant",
      "description": "Get a 5:1 damage-to-kill ratio.",
      "howto": "Get a 5:1 damage-to-kill ratio."
    },
    {
      "id": 47,
      "imageId": 33,
      "cred": 20,
      "flags": 4,
      "label": "That Was Close",
      "description": "Kill the Artifact carrier less than ten meters from the delivery point, and win the round.\r\n",
      "howto": "Kill the Artifact carrier less than ten meters from the delivery point, and win the round.\r\n"
    },
    {
      "id": 48,
      "imageId": 48,
      "cred": 20,
      "flags": 4,
      "label": "Small World",
      "description": "Play Public Match with players on both XBox 360 and Windows Vista.",
      "howto": "Play Public Match with players on both XBox 360 and Windows Vista."
    },
    {
      "id": 49,
      "imageId": 22,
      "cred": 25,
      "flags": 4,
      "label": "Master Thief",
      "description": "Deliver the Artifact untouched despite heavy defense.",
      "howto": "Deliver the Artifact untouched despite heavy defense."
    },
    {
      "id": 50,
      "imageId": 10,
      "cred": 25,
      "flags": 4,
      "label": "You're Coming With Me",
      "description": "Avenge your own death!",
      "howto": "Avenge your own death!"
    }
  ]
}