{
  "achievementsPossible": 50,
  "credPossible": 1000,
  "achievements": [
    {
      "id": 0,
      "imageId": 1,
      "cred": 5,
      "flags": 6,
      "label": "You Go To Hell",
      "description": "Start a new game for the first time. (any difficulty setting)",
      "howto": "Start a new game for the first time. (any difficulty setting)"
    },
    {
      "id": 1,
      "imageId": 2,
      "cred": 15,
      "flags": 6,
      "label": "An Ordinary Life",
      "description": "Story Progression in Act 1 - Chapter 1 (any difficulty setting)",
      "howto": "Story Progression in Act 1 - Chapter 1 (any difficulty setting)"
    },
    {
      "id": 2,
      "imageId": 3,
      "cred": 15,
      "flags": 6,
      "label": "Take Me To Hell",
      "description": "Story Progression in Act 2 - Chapter 1 (any difficulty setting)",
      "howto": "Story Progression in Act 2 - Chapter 1 (any difficulty setting)"
    },
    {
      "id": 3,
      "imageId": 4,
      "cred": 15,
      "flags": 6,
      "label": "Cannibal Carnival",
      "description": "Story Progression in Act 2 - Chapter 2 (any difficulty setting)",
      "howto": "Story Progression in Act 2 - Chapter 2 (any difficulty setting)"
    },
    {
      "id": 4,
      "imageId": 5,
      "cred": 15,
      "flags": 6,
      "label": "What a Wonderful World",
      "description": "Story Progression in Act 2 - Chapter 3 (any difficulty setting)",
      "howto": "Story Progression in Act 2 - Chapter 3 (any difficulty setting)"
    },
    {
      "id": 5,
      "imageId": 6,
      "cred": 15,
      "flags": 6,
      "label": "Riders of the Lost Heart",
      "description": "Story Progression in Act 2 - Chapter 4 (any difficulty setting)",
      "howto": "Story Progression in Act 2 - Chapter 4 (any difficulty setting)"
    },
    {
      "id": 6,
      "imageId": 7,
      "cred": 15,
      "flags": 6,
      "label": "It's a Bughunt",
      "description": "Story Progression in Act 3 - Chapter 1 (any difficulty setting)",
      "howto": "Story Progression in Act 3 - Chapter 1 (any difficulty setting)"
    },
    {
      "id": 7,
      "imageId": 8,
      "cred": 15,
      "flags": 6,
      "label": "My Dying Concubine",
      "description": "Story Progression in Act 3 - Chapter 2 (any difficulty setting)",
      "howto": "Story Progression in Act 3 - Chapter 2 (any difficulty setting)"
    },
    {
      "id": 8,
      "imageId": 9,
      "cred": 15,
      "flags": 6,
      "label": "As Evil As Dead",
      "description": "Story Progression in Act 3 - Chapter 3 (any difficulty setting)",
      "howto": "Story Progression in Act 3 - Chapter 3 (any difficulty setting)"
    },
    {
      "id": 9,
      "imageId": 10,
      "cred": 15,
      "flags": 6,
      "label": "The Bird's Nest",
      "description": "Story Progression in Act 3 - Chapter 4 (any difficulty setting)",
      "howto": "Story Progression in Act 3 - Chapter 4 (any difficulty setting)"
    },
    {
      "id": 10,
      "imageId": 11,
      "cred": 15,
      "flags": 6,
      "label": "The Big Boner",
      "description": "Story Progression in Act 4 - Chapter 1 (any difficulty setting)",
      "howto": "Story Progression in Act 4 - Chapter 1 (any difficulty setting)"
    },
    {
      "id": 11,
      "imageId": 12,
      "cred": 15,
      "flags": 6,
      "label": "Great Demon World Village",
      "description": "Story Progression in Act 4 - Chapter 2 (any difficulty setting)",
      "howto": "Story Progression in Act 4 - Chapter 2 (any difficulty setting)"
    },
    {
      "id": 12,
      "imageId": 13,
      "cred": 15,
      "flags": 6,
      "label": "Ghost Hunter",
      "description": "Story Progression in Act 4 - Chapter 3 (any difficulty setting)",
      "howto": "Story Progression in Act 4 - Chapter 3 (any difficulty setting)"
    },
    {
      "id": 13,
      "imageId": 14,
      "cred": 15,
      "flags": 6,
      "label": "Great Demon World Forest",
      "description": "Story Progression in Act 4 - Chapter 4 (any difficulty setting)",
      "howto": "Story Progression in Act 4 - Chapter 4 (any difficulty setting)"
    },
    {
      "id": 14,
      "imageId": 15,
      "cred": 15,
      "flags": 6,
      "label": "Suburban Nightmares",
      "description": "Story Progression in Act 4 - Chapter 5 (any difficulty setting)",
      "howto": "Story Progression in Act 4 - Chapter 5 (any difficulty setting)"
    },
    {
      "id": 15,
      "imageId": 16,
      "cred": 15,
      "flags": 6,
      "label": "Justine For All",
      "description": "Story Progression in Act 4 - Chapter 6 (any difficulty setting)",
      "howto": "Story Progression in Act 4 - Chapter 6 (any difficulty setting)"
    },
    {
      "id": 16,
      "imageId": 17,
      "cred": 15,
      "flags": 6,
      "label": "Twelve Feet Under",
      "description": "Story Progression in Act 5 - Chapter 1 (any difficulty setting)",
      "howto": "Story Progression in Act 5 - Chapter 1 (any difficulty setting)"
    },
    {
      "id": 17,
      "imageId": 19,
      "cred": 15,
      "flags": 6,
      "label": "Different Perspectives",
      "description": "Story Progression in Act 5 - Chapter 2 (any difficulty setting)",
      "howto": "Story Progression in Act 5 - Chapter 2 (any difficulty setting)"
    },
    {
      "id": 18,
      "imageId": 18,
      "cred": 15,
      "flags": 6,
      "label": "The Castle of Hassle",
      "description": "Story Progression in Act 5 - Chapter 3 (any difficulty setting)",
      "howto": "Story Progression in Act 5 - Chapter 3 (any difficulty setting)"
    },
    {
      "id": 19,
      "imageId": 20,
      "cred": 15,
      "flags": 6,
      "label": "The Final Chapter",
      "description": "Story Progression in Act 5 - Chapter 4 (any difficulty setting)",
      "howto": "Story Progression in Act 5 - Chapter 4 (any difficulty setting)"
    },
    {
      "id": 20,
      "imageId": 21,
      "cred": 15,
      "flags": 6,
      "label": "Til Death Do Us Part",
      "description": "Story Progression in Act 5 - Chapter 5 (any difficulty setting)",
      "howto": "Story Progression in Act 5 - Chapter 5 (any difficulty setting)"
    },
    {
      "id": 21,
      "imageId": 22,
      "cred": 20,
      "flags": 4,
      "label": "Adios George (Human form)",
      "description": "Defeat George Human Boss",
      "howto": "Defeat George Human Boss"
    },
    {
      "id": 22,
      "imageId": 23,
      "cred": 20,
      "flags": 4,
      "label": "Adios George (Beast form)",
      "description": "Defeat George Beast Boss",
      "howto": "Defeat George Beast Boss"
    },
    {
      "id": 23,
      "imageId": 24,
      "cred": 20,
      "flags": 4,
      "label": "Don't Fear the Reaper 1",
      "description": "Defeat Maras Grim (Sister Grim) Boss",
      "howto": "Defeat Maras Grim (Sister Grim) Boss"
    },
    {
      "id": 24,
      "imageId": 25,
      "cred": 20,
      "flags": 4,
      "label": "Don't Fear the Reaper 2",
      "description": "Defeat Kauline Grim (Sister Grim) Boss",
      "howto": "Defeat Kauline Grim (Sister Grim) Boss"
    },
    {
      "id": 25,
      "imageId": 26,
      "cred": 20,
      "flags": 4,
      "label": "Annoying Mosquito",
      "description": "Defeat Elliot Beast Boss",
      "howto": "Defeat Elliot Beast Boss"
    },
    {
      "id": 26,
      "imageId": 27,
      "cred": 20,
      "flags": 4,
      "label": "Don't Fear the Reaper 3",
      "description": "Defeat Giltine Grim (Sister Grim) Boss",
      "howto": "Defeat Giltine Grim (Sister Grim) Boss"
    },
    {
      "id": 27,
      "imageId": 28,
      "cred": 20,
      "flags": 4,
      "label": "Flat Lust",
      "description": "Defeat Justine Boss",
      "howto": "Defeat Justine Boss"
    },
    {
      "id": 28,
      "imageId": 29,
      "cred": 20,
      "flags": 4,
      "label": "I Defeated the Last Big Boss!",
      "description": "Defeat Fleming Boss",
      "howto": "Defeat Fleming Boss"
    },
    {
      "id": 29,
      "imageId": 30,
      "cred": 20,
      "flags": 4,
      "label": "Love Suicide",
      "description": "Defeat Paula Boss",
      "howto": "Secret"
    },
    {
      "id": 30,
      "imageId": 31,
      "cred": 20,
      "flags": 1,
      "label": "Lemon Hunter",
      "description": "Complete all chapters on Easy difficulty setting",
      "howto": "Complete all chapters on Easy difficulty setting"
    },
    {
      "id": 31,
      "imageId": 32,
      "cred": 50,
      "flags": 1,
      "label": "Demon Hunter",
      "description": "Complete all chapters on Medium difficulty setting",
      "howto": "Complete all chapters on Medium difficulty setting"
    },
    {
      "id": 32,
      "imageId": 33,
      "cred": 100,
      "flags": 1,
      "label": "Legion Hunter",
      "description": "Complete all chapters on Hard difficulty setting",
      "howto": "Complete all chapters on Hard difficulty setting"
    },
    {
      "id": 33,
      "imageId": 34,
      "cred": 15,
      "flags": 4,
      "label": "Blood On The Dance Floor",
      "description": "Defeat 10 enemies with the Stomp Attack",
      "howto": "Defeat 10 enemies with the Stomp Attack"
    },
    {
      "id": 34,
      "imageId": 35,
      "cred": 15,
      "flags": 4,
      "label": "The Talkative One",
      "description": "Defeat 20 enemies with the TEETHER",
      "howto": "Defeat 20 enemies with the TEETHER"
    },
    {
      "id": 35,
      "imageId": 36,
      "cred": 15,
      "flags": 4,
      "label": "Meatballs Lover",
      "description": "Defeat 30 enemies with the SKULLCUSSIONER",
      "howto": "Defeat 30 enemies with the SKULLCUSSIONER"
    },
    {
      "id": 36,
      "imageId": 37,
      "cred": 15,
      "flags": 4,
      "label": "That's So Hot!",
      "description": "Defeat 20 enemies with the HOTBONER",
      "howto": "Defeat 20 enemies with the HOTBONER"
    },
    {
      "id": 37,
      "imageId": 38,
      "cred": 15,
      "flags": 4,
      "label": "The Orthodontist",
      "description": "Defeat 30 enemies with the TEETHGRINDER",
      "howto": "Defeat 30 enemies with the TEETHGRINDER"
    },
    {
      "id": 38,
      "imageId": 39,
      "cred": 15,
      "flags": 4,
      "label": "Now That's a Big Fuckin' Gun",
      "description": "Defeat 40 enemies with the SKULLFEST 9000",
      "howto": "Defeat 40 enemies with the SKULLFEST 9000"
    },
    {
      "id": 39,
      "imageId": 40,
      "cred": 20,
      "flags": 4,
      "label": "A Hole in your Head",
      "description": "Perform 5 headshots in a row with the BIG BONER",
      "howto": "Perform 5 headshots in a row with the BIG BONER"
    },
    {
      "id": 40,
      "imageId": 41,
      "cred": 15,
      "flags": 4,
      "label": "Orthodontic Pleasures",
      "description": "Defeat 50 enemies with THE DENTIST",
      "howto": "Defeat 50 enemies with THE DENTIST"
    },
    {
      "id": 41,
      "imageId": 42,
      "cred": 15,
      "flags": 4,
      "label": "Skullblaster Master",
      "description": "Defeat 50 enemies with the SKULLBLASTER",
      "howto": "Defeat 50 enemies with the SKULLBLASTER"
    },
    {
      "id": 42,
      "imageId": 43,
      "cred": 20,
      "flags": 4,
      "label": "Nasty Headache",
      "description": "Perform 5 Head Shots in a row with any weapon except Big Boner",
      "howto": "Perform 5 Head Shots in a row with any weapon except Big Boner"
    },
    {
      "id": 43,
      "imageId": 44,
      "cred": 30,
      "flags": 4,
      "label": "The Puppeteer",
      "description": "Perform a Head Shot right after a Leg Mutilation when the enemy is flying back in the air",
      "howto": "Perform a Head Shot right after a Leg Mutilation when the enemy is flying back in the air"
    },
    {
      "id": 44,
      "imageId": 45,
      "cred": 15,
      "flags": 4,
      "label": "Fire in the Hole!",
      "description": "Defeat 3 enemies at once using the Barrels of Light",
      "howto": "Defeat 3 enemies at once using the Barrels of Light"
    },
    {
      "id": 45,
      "imageId": 46,
      "cred": 30,
      "flags": 4,
      "label": "Fiesta Caliente!",
      "description": "Defeat 5 enemies at once using the Hot Boner",
      "howto": "Defeat 5 enemies at once using the Hot Boner"
    },
    {
      "id": 46,
      "imageId": 47,
      "cred": 15,
      "flags": 4,
      "label": "Trash'em while they're out!",
      "description": "Perform all 5 brutal kills on Normal Demons frozen by the Light Shot",
      "howto": "Perform all 5 brutal kills on Normal Demons frozen by the Light Shot"
    },
    {
      "id": 47,
      "imageId": 48,
      "cred": 10,
      "flags": 4,
      "label": "Drunk in Public",
      "description": "Knock back 3 drinks in a row",
      "howto": "Knock back 3 drinks in a row"
    },
    {
      "id": 48,
      "imageId": 49,
      "cred": 10,
      "flags": 4,
      "label": "Stingy Bastard",
      "description": "Save more than 300 White Gems in your inventory",
      "howto": "Save more than 300 White Gems in your inventory"
    },
    {
      "id": 49,
      "imageId": 50,
      "cred": 75,
      "flags": 4,
      "label": "High in Las Vegas",
      "description": "Recover all available Red Gems in the game.",
      "howto": "Recover all available Red Gems in the game."
    }
  ]
}