{
  "achievementsPossible": 47,
  "credPossible": 1250,
  "achievements": [
    {
      "id": 7,
      "imageId": 30,
      "cred": 30,
      "flags": 1,
      "label": "Mission 1 Complete",
      "description": "Completed Mission 1 as Contractor or higher.",
      "howto": "Continue playing to unlock this secret achievement."
    },
    {
      "id": 8,
      "imageId": 31,
      "cred": 30,
      "flags": 6,
      "label": "Mission 2 Complete",
      "description": "Completed Mission 2 as Contractor or higher.",
      "howto": "Continue playing to unlock this secret achievement."
    },
    {
      "id": 9,
      "imageId": 32,
      "cred": 15,
      "flags": 6,
      "label": "Mission 3 Complete",
      "description": "Completed Mission 3 as Contractor or higher.",
      "howto": "Continue playing to unlock this secret achievement."
    },
    {
      "id": 10,
      "imageId": 33,
      "cred": 15,
      "flags": 6,
      "label": "Mission 4 Complete",
      "description": "Completed Mission 4 as Contractor or higher.",
      "howto": "Continue playing to unlock this secret achievement."
    },
    {
      "id": 11,
      "imageId": 34,
      "cred": 15,
      "flags": 6,
      "label": "Mission 5 Complete",
      "description": "Completed Mission 5 as Contractor or higher.",
      "howto": "Continue playing to unlock this secret achievement."
    },
    {
      "id": 12,
      "imageId": 35,
      "cred": 15,
      "flags": 6,
      "label": "Mission 6 Complete",
      "description": "Completed Mission 6 as Contractor or higher.",
      "howto": "Continue playing to unlock this secret achievement."
    },
    {
      "id": 15,
      "imageId": 24,
      "cred": 50,
      "flags": 1,
      "label": "Elite PMC",
      "description": "Complete all missions as a Professional.",
      "howto": "Complete all missions as a Professional."
    },
    {
      "id": 17,
      "imageId": 27,
      "cred": 35,
      "flags": 1,
      "label": "My Virtual Friend",
      "description": "Complete all missions with the Partner AI.",
      "howto": "Complete all missions with the Partner AI."
    },
    {
      "id": 20,
      "imageId": 20,
      "cred": 45,
      "flags": 4,
      "label": "Say Hello to my Little Friends",
      "description": "Purchase the MP7, M134, DAO-X Protecta, MGL MK-X, and the M107 Light Fifty.",
      "howto": "Purchase the MP7, M134, DAO-X Protecta, MGL MK-X, and the M107 Light Fifty."
    },
    {
      "id": 21,
      "imageId": 21,
      "cred": 50,
      "flags": 4,
      "label": "Man of Many Masks",
      "description": "Purchase every mask variant.",
      "howto": "Purchase every mask variant."
    },
    {
      "id": 22,
      "imageId": 28,
      "cred": 40,
      "flags": 4,
      "label": "If I Were a Rich Man",
      "description": "Earn one million dollars in total over the course of campaign mode.",
      "howto": "Earn one million dollars in total over the course of campaign mode."
    },
    {
      "id": 24,
      "imageId": 29,
      "cred": 45,
      "flags": 4,
      "label": "Fear is The Mind Killer",
      "description": "Spend 1 minute straight at full Aggro.",
      "howto": "Spend 1 minute straight at full Aggro."
    },
    {
      "id": 26,
      "imageId": 13,
      "cred": 30,
      "flags": 4,
      "label": "Starting a Riot",
      "description": "Kill 50 enemies total in Co-op Riot Shield.",
      "howto": "Kill 50 enemies total in Co-op Riot Shield."
    },
    {
      "id": 27,
      "imageId": 5,
      "cred": 35,
      "flags": 4,
      "label": "Two Eyes are Better Than One",
      "description": "Kill 5 enemies total using Co-op Snipe.",
      "howto": "Kill 5 enemies total using Co-op Snipe."
    },
    {
      "id": 30,
      "imageId": 9,
      "cred": 20,
      "flags": 4,
      "label": "Seven-six-two Millimeter",
      "description": "Kill 250 enemies total using Assault Rifles.",
      "howto": "Kill 250 enemies total using Assault Rifles."
    },
    {
      "id": 31,
      "imageId": 15,
      "cred": 20,
      "flags": 4,
      "label": "This is my Boom Stick!",
      "description": "Kill 250 enemies total using Shotguns.",
      "howto": "Kill 250 enemies total using Shotguns."
    },
    {
      "id": 32,
      "imageId": 11,
      "cred": 20,
      "flags": 4,
      "label": "Spray and Pray",
      "description": "Kill 250 enemies total using Machine Guns.",
      "howto": "Kill 250 enemies total using Machine Guns."
    },
    {
      "id": 33,
      "imageId": 10,
      "cred": 20,
      "flags": 1,
      "label": "Dead Man's Hand",
      "description": "Kill 150 enemies total using Handguns.",
      "howto": "Kill 150 enemies total using Handguns."
    },
    {
      "id": 34,
      "imageId": 16,
      "cred": 20,
      "flags": 4,
      "label": "Alright, Who Wants Some?",
      "description": "Kill 250 enemies total using SMGs.",
      "howto": "Kill 250 enemies total using SMGs."
    },
    {
      "id": 35,
      "imageId": 17,
      "cred": 20,
      "flags": 4,
      "label": "One Shot. One Kill.",
      "description": "Kill 100 enemies total using Sniper Rifles.",
      "howto": "Kill 100 enemies total using Sniper Rifles."
    },
    {
      "id": 36,
      "imageId": 14,
      "cred": 20,
      "flags": 4,
      "label": "Big Boom! Big Bada Boom!",
      "description": "Kill 25 enemies total using RPGs.",
      "howto": "Kill 25 enemies total using RPGs."
    },
    {
      "id": 37,
      "imageId": 12,
      "cred": 20,
      "flags": 4,
      "label": "Flip You. Flip You For Real",
      "description": "Kill 50 enemies total using the Melee Attack.",
      "howto": "Kill 50 enemies total using the Melee Attack."
    },
    {
      "id": 38,
      "imageId": 3,
      "cred": 20,
      "flags": 4,
      "label": "Fission Mailed",
      "description": "Kill 25 Martyrs by shooting the Bomb Packs on their chests.",
      "howto": "Kill 25 Martyrs by shooting the Bomb Packs on their chests."
    },
    {
      "id": 39,
      "imageId": 8,
      "cred": 30,
      "flags": 4,
      "label": "If It Bleeds, We Can Kill It",
      "description": "Kill 25 Heavy Armor enemies.",
      "howto": "Kill 25 Heavy Armor enemies."
    },
    {
      "id": 40,
      "imageId": 36,
      "cred": 30,
      "flags": 4,
      "label": "Field Medic",
      "description": "Drag and heal your partner 25 times.",
      "howto": "Drag and heal your partner 25 times."
    },
    {
      "id": 48,
      "imageId": 44,
      "cred": 10,
      "flags": 4,
      "label": "Boots on the Ground",
      "description": "Finish playing a versus ranked match.",
      "howto": "Finish playing a versus ranked match."
    },
    {
      "id": 49,
      "imageId": 39,
      "cred": 20,
      "flags": 4,
      "label": "The Devil's in the Details",
      "description": "Complete 20 minor objectives in a ranked match.",
      "howto": "Complete 20 minor objectives in a ranked match."
    },
    {
      "id": 50,
      "imageId": 43,
      "cred": 25,
      "flags": 1,
      "label": "Surviving The Game",
      "description": "Complete a ranked match without ever needing to be revived.",
      "howto": "Complete a ranked match without ever needing to be revived."
    },
    {
      "id": 51,
      "imageId": 37,
      "cred": 40,
      "flags": 4,
      "label": "Retirement Savings Plan",
      "description": "Earn one billion dollars in total in ranked matches.",
      "howto": "Earn one billion dollars in total in ranked matches."
    },
    {
      "id": 54,
      "imageId": 45,
      "cred": 15,
      "flags": 4,
      "label": "Out of Debt",
      "description": "Heal your partner for the first time. Training does not count.",
      "howto": "Heal your partner for the first time. Training does not count."
    },
    {
      "id": 55,
      "imageId": 46,
      "cred": 35,
      "flags": 4,
      "label": "One Gun is Enough",
      "description": "Win a ranked match without purchasing any additional weapons.",
      "howto": "Win a ranked match without purchasing any additional weapons."
    },
    {
      "id": 59,
      "imageId": 4,
      "cred": 20,
      "flags": 1,
      "label": "Beast with Two Fronts",
      "description": "Kill 50 enemies total in Back-to-Back.",
      "howto": "Kill 50 enemies total in Back-to-Back."
    },
    {
      "id": 60,
      "imageId": 7,
      "cred": 30,
      "flags": 4,
      "label": "Running Man",
      "description": "Kill 75 enemies while in the stealth mode of Overkill.",
      "howto": "Kill 75 enemies while in the stealth mode of Overkill."
    },
    {
      "id": 61,
      "imageId": 6,
      "cred": 30,
      "flags": 4,
      "label": "L'Abattoir",
      "description": "Kill 100 enemies while in the power mode of Overkill.",
      "howto": "Kill 100 enemies while in the power mode of Overkill."
    },
    {
      "id": 64,
      "imageId": 2,
      "cred": 15,
      "flags": 4,
      "label": "Weapon Specialist",
      "description": "Purchase 3 weapons.",
      "howto": "Purchase 3 weapons."
    },
    {
      "id": 65,
      "imageId": 1,
      "cred": 30,
      "flags": 4,
      "label": "Stonewall",
      "description": "Kill 30 enemies using the Riot Shield melee attack",
      "howto": "Kill 30 enemies using the Riot Shield melee attack"
    },
    {
      "id": 66,
      "imageId": 22,
      "cred": 40,
      "flags": 1,
      "label": "My Kind of Case!",
      "description": "Collect all of the information cases in the entire game.",
      "howto": "Collect all of the information cases in the entire game."
    },
    {
      "id": 67,
      "imageId": 23,
      "cred": 25,
      "flags": 4,
      "label": "True SSC Challenger",
      "description": "Win every stage of a ranked three round SSC Challenge match",
      "howto": "Win every stage of a ranked three round SSC Challenge match"
    },
    {
      "id": 68,
      "imageId": 25,
      "cred": 25,
      "flags": 4,
      "label": "Barrel SSC Challenger",
      "description": "Destroy 500 barrels in ranked SSC Challenge matches",
      "howto": "Destroy 500 barrels in ranked SSC Challenge matches"
    },
    {
      "id": 69,
      "imageId": 26,
      "cred": 25,
      "flags": 4,
      "label": "SSC Challenge Win",
      "description": "Win a ranked SSC Challenge match",
      "howto": "Win a ranked SSC Challenge match"
    },
    {
      "id": 70,
      "imageId": 38,
      "cred": 25,
      "flags": 4,
      "label": "SSC Challenge Marksman",
      "description": "Achieve 75% accuracy at the conclusion of a ranked three round SSC Challenge match",
      "howto": "Achieve 75% accuracy at the conclusion of a ranked three round SSC Challenge match"
    },
    {
      "id": 71,
      "imageId": 40,
      "cred": 15,
      "flags": 4,
      "label": "That's right. Who's laughing now",
      "description": "Buy the 'pack 8' gun pack in a multiplayer ranked match",
      "howto": "Buy the 'pack 8' gun pack in a multiplayer ranked match"
    },
    {
      "id": 72,
      "imageId": 41,
      "cred": 30,
      "flags": 6,
      "label": "Mission 7 Complete",
      "description": "Completed Mission 7 as Professional.",
      "howto": "Completed Mission 7 as Professional."
    },
    {
      "id": 73,
      "imageId": 42,
      "cred": 30,
      "flags": 6,
      "label": "Mission 8 Complete",
      "description": "Completed Mission 8 as Professional.",
      "howto": "Completed Mission 8 as Professional."
    },
    {
      "id": 74,
      "imageId": 47,
      "cred": 20,
      "flags": 4,
      "label": "Arnold Braunschweiger",
      "description": "Destroy 300 destructible objects in Mission 7,8",
      "howto": "Destroy 300 destructible objects in Mission 7,8"
    },
    {
      "id": 75,
      "imageId": 48,
      "cred": 30,
      "flags": 4,
      "label": "I promise to kill you last",
      "description": "Kill Dalton in less than 40 seconds",
      "howto": "Kill Dalton in less than 40 seconds"
    },
    {
      "id": 76,
      "imageId": 49,
      "cred": 25,
      "flags": 4,
      "label": "I wanna be a cleaner",
      "description": "Final blow to Dalton is a headshot with a pimped .44 MODEL 29 handgun",
      "howto": "Final blow to Dalton is a headshot with a pimped .44 MODEL 29 handgun"
    }
  ]
}