{
  "avatarAssetsPossible": 4,
  "maleAvatarAssetsPossible": 1,
  "femaleAvatarAssetsPossible": 1,
  "avatarAssets": [
    {
      "id": "00000544-0001-51b3-c887-f27c584112b9",
      "imageId": 35,
      "subcategory": 0,
      "unknown": 0,
      "isMale": false,
      "isFemale": false,
      "isUnisex": true,
      "label": "WSOP Cap and Headphones",
      "description": "You played your first hand!",
      "howto": "The WSOP Cap and Headphones are unlocked for the player when they play their first hand."
    },
    {
      "id": "00000208-0002-1151-ce8d-9b93584112b9",
      "imageId": 36,
      "subcategory": 0,
      "unknown": 2013287320,
      "isMale": true,
      "isFemale": false,
      "isUnisex": false,
      "label": "WSOP Jersey (Male)",
      "description": "You reached level 50!",
      "howto": "The WSOP Jersey is unlocked for the player when they reach level 50"
    },
    {
      "id": "00000208-0002-0132-cc10-d724584112b9",
      "imageId": 37,
      "subcategory": 0,
      "unknown": 2013287320,
      "isMale": false,
      "isFemale": true,
      "isUnisex": false,
      "label": "WSOP Jersey (Female)",
      "description": "You reached level 50!",
      "howto": "The WSOP Jersey is unlocked for the player when they reach level 50"
    },
    {
      "id": "00000544-0003-c143-c883-0772584112b9",
      "imageId": 40,
      "subcategory": 0,
      "unknown": 2013287320,
      "isMale": false,
      "isFemale": false,
      "isUnisex": true,
      "label": "Shark Helmet",
      "description": "You reached level 100!",
      "howto": "The Shark Helmet is unlocked for the player when they reach level 100"
    }
  ]
}