{
  "achievementsPossible": 15,
  "credPossible": 260,
  "achievements": [
    {
      "id": 2,
      "imageId": 1,
      "cred": 40,
      "flags": 1,
      "label": "Slash Mode",
      "description": "Kill 50 enemies in a row in Survival Slice Challenge as the primary player.",
      "howto": "Kill 50 enemies in a row in Survival Slice Challenge as the primary player."
    },
    {
      "id": 3,
      "imageId": 2,
      "cred": 20,
      "flags": 3,
      "label": "Legendary Arsenal",
      "description": "Unlock all weapon and armor for each of the Legendary Warriors.",
      "howto": "Unlock all weapon and armor for each of the Legendary Warriors."
    },
    {
      "id": 4,
      "imageId": 3,
      "cred": 15,
      "flags": 1,
      "label": "Legendary General",
      "description": "Activate all three General Abilities during a single game of Generals.",
      "howto": "Activate all three General Abilities during a single game of Generals."
    },
    {
      "id": 5,
      "imageId": 4,
      "cred": 10,
      "flags": 1,
      "label": "Legendary Warrior",
      "description": "Win 10 online ranked duels.",
      "howto": "Win 10 online ranked duels."
    },
    {
      "id": 6,
      "imageId": 5,
      "cred": 5,
      "flags": 4,
      "label": "These Dice are Loaded!",
      "description": "Lose three consecutive battles at even odds or better during a game of Generals.",
      "howto": "Lose three consecutive battles at even odds or better during a game of Generals."
    },
    {
      "id": 7,
      "imageId": 6,
      "cred": 35,
      "flags": 4,
      "label": "Six Degrees of Separation",
      "description": "Severed every limb from your opponent during a slice mode duel without using a final strike.",
      "howto": "Sever every limb from your opponent during a slice mode duel without using a final strike."
    },
    {
      "id": 8,
      "imageId": 7,
      "cred": 10,
      "flags": 4,
      "label": "Dead and Broken",
      "description": "Break your opponent's arm and leg by grappling before final striking them in a ranked duel.",
      "howto": "In grapple mode break your opponent's arm and leg before final striking them."
    },
    {
      "id": 9,
      "imageId": 8,
      "cred": 35,
      "flags": 1,
      "label": "If anyone Khan, Genghis Khan!",
      "description": "Beat arcade mode with Genghis Khan using only the dead fish on Deadliest Difficulty.",
      "howto": "Beat arcade mode with Genghis Khan using only the dead fish on Deadliest Difficulty."
    },
    {
      "id": 10,
      "imageId": 9,
      "cred": 10,
      "flags": 4,
      "label": "Denied!",
      "description": "Parry your opponent three times in a row without being hit in a single ranked duel.",
      "howto": "Parry your opponent three times in a row without being hit in a single ranked duel."
    },
    {
      "id": 11,
      "imageId": 10,
      "cred": 10,
      "flags": 4,
      "label": "Marksman",
      "description": "Get three consecutive headshots using any long range weapon in a single ranked duel.",
      "howto": "Get three consecutive headshots using any long range weapon in a single ranked duel."
    },
    {
      "id": 52,
      "imageId": 11,
      "cred": 5,
      "flags": 4,
      "label": "When Push Comes to Shove",
      "description": "As the primary player, After being pushed knock an opponent out of the ring.",
      "howto": "After being pushed knock an opponent out of the ring."
    },
    {
      "id": 53,
      "imageId": 12,
      "cred": 5,
      "flags": 7,
      "label": "A Pox of the Small Variety",
      "description": "Win a ranked online duel against a developer playing as Cortes or someone with this achievement.",
      "howto": "Win a ranked online duel against a developer playing as Cortes or someone with this achievement."
    },
    {
      "id": 57,
      "imageId": 20,
      "cred": 30,
      "flags": 1,
      "label": "Cleaning up the Competition",
      "description": "Beat arcade mode with Joan of Arc using only the broom on Deadliest Difficulty.",
      "howto": "Beat arcade mode with Joan of Arc using only the broom on Deadliest Difficulty."
    },
    {
      "id": 59,
      "imageId": 21,
      "cred": 15,
      "flags": 1,
      "label": "It's Raining Men",
      "description": "As Joan of Arc, knocked every other warrior out of the ring to their death.",
      "howto": "As Joan of Arc, knock every other warrior out of the ring to their death."
    },
    {
      "id": 60,
      "imageId": 22,
      "cred": 15,
      "flags": 1,
      "label": "Mack-gyvered",
      "description": "As Mack, defeated an opponent with every warrior moveset",
      "howto": "As Mack, defeat an opponent with every warrior moveset"
    }
  ]
}