[
  {
    "titleId": 1480657756,
    "largeId": 132096,
    "smallId": 66560,
    "commonId": 1024
  },
  {
    "titleId": 1480657756,
    "largeId": 132097,
    "smallId": 66561,
    "commonId": 1025
  },
  {
    "titleId": 1480657756,
    "largeId": 132098,
    "smallId": 66562,
    "commonId": 1026
  },
  {
    "titleId": 1480657756,
    "largeId": 132099,
    "smallId": 66563,
    "commonId": 1027
  },
  {
    "titleId": 1480657756,
    "largeId": 132100,
    "smallId": 66564,
    "commonId": 1028
  },
  {
    "titleId": 1480657756,
    "largeId": 132101,
    "smallId": 66565,
    "commonId": 1029
  },
  {
    "titleId": 1480657756,
    "largeId": 132102,
    "smallId": 66566,
    "commonId": 1030
  },
  {
    "titleId": 1480657756,
    "largeId": 132103,
    "smallId": 66567,
    "commonId": 1031
  },
  {
    "titleId": 1480657756,
    "largeId": 132104,
    "smallId": 66568,
    "commonId": 1032
  },
  {
    "titleId": 1480657756,
    "largeId": 132105,
    "smallId": 66569,
    "commonId": 1033
  },
  {
    "titleId": 1480657756,
    "largeId": 132106,
    "smallId": 66570,
    "commonId": 1034
  }
]