{
  "achievementsPossible": 46,
  "credPossible": 1000,
  "achievements": [
    {
      "id": 56,
      "imageId": 1,
      "cred": 5,
      "flags": 1,
      "label": "Who's your Caddie?!",
      "description": "Complete the Prologue",
      "howto": "Complete the Prologue"
    },
    {
      "id": 57,
      "imageId": 2,
      "cred": 10,
      "flags": 1,
      "label": "Tiger Quickness",
      "description": "Use the new Speed Play option in game",
      "howto": "Use the new Speed Play option in game"
    },
    {
      "id": 61,
      "imageId": 3,
      "cred": 10,
      "flags": 1,
      "label": "Tournament Pro",
      "description": "Complete an 18 hole round under par with Tournament Difficulty turned ON",
      "howto": "Complete an 18 hole round under par with Tournament Difficulty turned ON"
    },
    {
      "id": 68,
      "imageId": 4,
      "cred": 10,
      "flags": 1,
      "label": "Online Participation",
      "description": "Play a Live Tournament",
      "howto": "Play a Live Tournament"
    },
    {
      "id": 69,
      "imageId": 6,
      "cred": 5,
      "flags": 1,
      "label": "FIR",
      "description": "Land the ball on the Fairway after your tee shot. FIR = Fairway in Regulation",
      "howto": "Land the ball on the Fairway after your tee shot. FIR = Fairway in Regulation"
    },
    {
      "id": 70,
      "imageId": 7,
      "cred": 5,
      "flags": 1,
      "label": "GIR",
      "description": "Land the ball on the Green with at least 2 fewer strokes than par. GIR = Green in Regulation",
      "howto": "Land the ball on the Green with at least 2 fewer strokes than par. GIR = Green in Regulation"
    },
    {
      "id": 71,
      "imageId": 5,
      "cred": 15,
      "flags": 1,
      "label": "The Presidents Cup Champion",
      "description": "Win The Presidents Cup",
      "howto": "Win The Presidents Cup"
    },
    {
      "id": 72,
      "imageId": 9,
      "cred": 5,
      "flags": 1,
      "label": "Hold my bag as I post my clip",
      "description": "Post an EA SPORTS™ GamerNet Challenge",
      "howto": "Post an EA SPORTS™ GamerNet Challenge"
    },
    {
      "id": 73,
      "imageId": 8,
      "cred": 10,
      "flags": 1,
      "label": "GamerNet Tourist",
      "description": "Earn 2,500 Player Points in EA SPORTS™ GamerNet",
      "howto": "Earn 2,500 Player Points in EA SPORTS™ GamerNet"
    },
    {
      "id": 74,
      "imageId": 10,
      "cred": 15,
      "flags": 1,
      "label": "Bling my Tag",
      "description": "Apply 3 pins to your Bag Tag",
      "howto": "Apply 3 pins to your Bag Tag"
    },
    {
      "id": 75,
      "imageId": 11,
      "cred": 25,
      "flags": 1,
      "label": "Drop and give me 15",
      "description": "Earn 15 pins",
      "howto": "Earn 15 pins"
    },
    {
      "id": 77,
      "imageId": 14,
      "cred": 50,
      "flags": 1,
      "label": "Pin Collector",
      "description": "Earn All Pins",
      "howto": "Earn All Pins"
    },
    {
      "id": 78,
      "imageId": 12,
      "cred": 10,
      "flags": 1,
      "label": "Course Master",
      "description": "Master 1 course",
      "howto": "Master 1 course"
    },
    {
      "id": 79,
      "imageId": 13,
      "cred": 25,
      "flags": 1,
      "label": "Born with Skillz",
      "description": "Master 8 courses",
      "howto": "Master 8 courses"
    },
    {
      "id": 80,
      "imageId": 15,
      "cred": 50,
      "flags": 1,
      "label": "Caddie with a Master's Degree",
      "description": "Master 16 Courses",
      "howto": "Master 16 Courses"
    },
    {
      "id": 81,
      "imageId": 16,
      "cred": 15,
      "flags": 1,
      "label": "Great Suggestion",
      "description": "Sink a Hole in One using a Caddie Recommendation",
      "howto": "Sink a Hole in One using a Caddie Recommendation"
    },
    {
      "id": 82,
      "imageId": 17,
      "cred": 15,
      "flags": 1,
      "label": "I AM CADDIE!",
      "description": "Accept and follow thru on 25 Caddie Suggestions in an 18 hole round of golf",
      "howto": "Accept and follow thru on 25 Caddie Suggestions in an 18 hole round of golf"
    },
    {
      "id": 83,
      "imageId": 18,
      "cred": 10,
      "flags": 1,
      "label": "Aspiring Amateur",
      "description": "Complete the EA SPORTS™ AM TOUR",
      "howto": "Complete the EA SPORTS™ AM TOUR"
    },
    {
      "id": 84,
      "imageId": 19,
      "cred": 15,
      "flags": 1,
      "label": "We've Only Just Begun",
      "description": "Compete in a Nationwide Tour event",
      "howto": "Compete in a Nationwide Tour event"
    },
    {
      "id": 85,
      "imageId": 20,
      "cred": 20,
      "flags": 1,
      "label": "Earned my Card!",
      "description": "Complete Q-School",
      "howto": "Complete Q-School"
    },
    {
      "id": 86,
      "imageId": 21,
      "cred": 10,
      "flags": 1,
      "label": "On the Radar",
      "description": "Break the top 50 in the EA SPORTS Golf Rankings",
      "howto": "Break the top 50 in the EA SPORTS Golf Rankings"
    },
    {
      "id": 87,
      "imageId": 22,
      "cred": 25,
      "flags": 1,
      "label": "A New Generation",
      "description": "Break the top 10 in the EA SPORTS Golf Rankings",
      "howto": "Break the top 10 in the EA SPORTS Golf Rankings"
    },
    {
      "id": 88,
      "imageId": 23,
      "cred": 50,
      "flags": 1,
      "label": "On top of the World",
      "description": "Become #1 in the EA SPORTS Golf Rankings",
      "howto": "Become #1 in the EA SPORTS Golf Rankings"
    },
    {
      "id": 90,
      "imageId": 24,
      "cred": 10,
      "flags": 1,
      "label": "Sponsorship is Calling",
      "description": "Play in a Major with Cleveland Golf Level 4 Sponsorship equipped",
      "howto": "Play in a Major with Cleveland Golf Level 4 Sponsorship equipped"
    },
    {
      "id": 91,
      "imageId": 26,
      "cred": 15,
      "flags": 1,
      "label": "Ping Pitchman",
      "description": "Play in a Major with PING® Level 4 Sponsorship equipped",
      "howto": "Play in a Major with PING® Level 4 Sponsorship equipped"
    },
    {
      "id": 92,
      "imageId": 27,
      "cred": 25,
      "flags": 1,
      "label": "Ad Wizard",
      "description": "Play in a Major with Callaway Golf® Level 4 Sponsorship equipped",
      "howto": "Play in a Major with Callaway Golf® Level 4 Sponsorship equipped"
    },
    {
      "id": 93,
      "imageId": 28,
      "cred": 35,
      "flags": 1,
      "label": "Commercial Icon",
      "description": "Play in a Major with Nike Level 4 Sponsorship equipped",
      "howto": "Play in a Major with Nike Level 4 Sponsorship equipped"
    },
    {
      "id": 94,
      "imageId": 29,
      "cred": 65,
      "flags": 1,
      "label": "Shark Attack!",
      "description": "Equip a HAMMERhead Prototype Club",
      "howto": "Equip a HAMMERhead Prototype Club"
    },
    {
      "id": 95,
      "imageId": 30,
      "cred": 65,
      "flags": 1,
      "label": "HAMMERhead Swag",
      "description": "Equip a HAMMERhead Prototype Outfit",
      "howto": "Equip a HAMMERhead Prototype Outfit"
    },
    {
      "id": 96,
      "imageId": 31,
      "cred": 25,
      "flags": 1,
      "label": "Winner! And Still...",
      "description": "Defend your title in any Major",
      "howto": "Defend your title in any Major"
    },
    {
      "id": 97,
      "imageId": 32,
      "cred": 10,
      "flags": 1,
      "label": "1 Is The Loneliest Number",
      "description": "Be the #1 Ranked Golfer for 10 consecutive weeks.",
      "howto": "Be the #1 Ranked Golfer for 10 consecutive weeks."
    },
    {
      "id": 98,
      "imageId": 34,
      "cred": 10,
      "flags": 1,
      "label": "Training Wheels",
      "description": "Win a training event in the Road to the Masters mode.",
      "howto": "Win a training event in the Road to the Masters mode."
    },
    {
      "id": 99,
      "imageId": 35,
      "cred": 10,
      "flags": 1,
      "label": "Give me the Goodies!",
      "description": "Win a Sponsored Challenge Event in the Road to the Masters mode.\r\n",
      "howto": "Win a Sponsored Challenge Event in the Road to the Masters mode.\r\n"
    },
    {
      "id": 100,
      "imageId": 36,
      "cred": 10,
      "flags": 1,
      "label": "Egg on the Dance Floor",
      "description": "Sink a 30ft putt without boosting the green read",
      "howto": "Sink a 30ft putt without boosting the green read"
    },
    {
      "id": 101,
      "imageId": 33,
      "cred": 15,
      "flags": 1,
      "label": "Choke Artist",
      "description": "Land within 1 yard of the flagstick using a choked approach shot from at least 50 yards out.",
      "howto": "Land within 1 yard of the flagstick using a choked approach shot from at least 50 yards out."
    },
    {
      "id": 102,
      "imageId": 37,
      "cred": 15,
      "flags": 1,
      "label": "I Got This",
      "description": "From the Fairway, land within 1 yard of the flagstick from 100 yards out using a Custom shot.",
      "howto": "From the Fairway, land within 1 yard of the flagstick from 100 yards out using a Custom shot."
    },
    {
      "id": 103,
      "imageId": 39,
      "cred": 15,
      "flags": 1,
      "label": "History is Yours",
      "description": "Compete in a Historic Masters Event (Tiger at the Masters)",
      "howto": "Compete in a Historic Masters Event (Tiger at the Masters)"
    },
    {
      "id": 104,
      "imageId": 40,
      "cred": 25,
      "flags": 1,
      "label": "2005 Masters Champion",
      "description": "Win the 2005 Historic Masters Event (Tiger at the Masters)",
      "howto": "Win the 2005 Historic Masters Event (Tiger at the Masters)"
    },
    {
      "id": 105,
      "imageId": 41,
      "cred": 35,
      "flags": 1,
      "label": "Road to the Masters",
      "description": "Win the Green Jacket in the Road to the Masters mode.\r\n",
      "howto": "Win the Green Jacket in the Road to the Masters mode.\r\n"
    },
    {
      "id": 106,
      "imageId": 42,
      "cred": 75,
      "flags": 1,
      "label": "Masters Legend",
      "description": "Win the Green Jacket for a Record 7 times in the Road to the Masters mode.",
      "howto": "Win the Green Jacket for a Record 7 times in the Road to the Masters mode."
    },
    {
      "id": 107,
      "imageId": 43,
      "cred": 15,
      "flags": 1,
      "label": "New Record Holder!",
      "description": "Beat the course record of 63 at the Masters (In Road to the Masters)",
      "howto": "Beat the course record of 63 at the Masters (In Road to the Masters)"
    },
    {
      "id": 108,
      "imageId": 44,
      "cred": 15,
      "flags": 1,
      "label": "Short But Sweet",
      "description": "Beat the course record of 20 at Augusta Par 3",
      "howto": "Beat the course record of 20 at Augusta Par 3"
    },
    {
      "id": 109,
      "imageId": 45,
      "cred": 10,
      "flags": 1,
      "label": "Flowering Crab Apple in 1!",
      "description": "Hole in one on Hole 4 of Augusta (only one hole in one has ever been recorded on this hole) ",
      "howto": "Hole in one on Hole 4 of Augusta (only one hole in one has ever been recorded on this hole) "
    },
    {
      "id": 110,
      "imageId": 46,
      "cred": 15,
      "flags": 1,
      "label": "Masters Master",
      "description": "Master Augusta National & Augusta Par 3 (Gold Course Mastery)",
      "howto": "Masters Master"
    },
    {
      "id": 111,
      "imageId": 47,
      "cred": 35,
      "flags": 1,
      "label": "First Time EVER!",
      "description": "Win both the Par 3 and the Masters on the same week in the Road to the Masters mode.\r\n",
      "howto": "Win both the Par 3 and the Masters on the same week in the Road to the Masters mode.\r\n"
    },
    {
      "id": 112,
      "imageId": 25,
      "cred": 40,
      "flags": 1,
      "label": "Broken Record\r\n",
      "description": "Hold down the #1 spot on the EA SPORTS Golf Rankings for more than 281 weeks\r\n",
      "howto": "Hold down the #1 spot on the EA SPORTS Golf Rankings for more than 281 weeks\r\n"
    }
  ]
}