{
  "achievementsPossible": 50,
  "credPossible": 600,
  "achievements": [
    {
      "id": 1,
      "imageId": 315,
      "cred": 5,
      "flags": 1,
      "label": "DOOMed Recruit",
      "description": "Complete the DOOM 3 single player campaign on Recruit",
      "howto": "Complete the DOOM 3 single player campaign on Recruit"
    },
    {
      "id": 2,
      "imageId": 316,
      "cred": 10,
      "flags": 1,
      "label": "DOOMed Marine",
      "description": "Complete the DOOM 3 single player campaign on Marine",
      "howto": "Complete the DOOM 3 single player campaign on Marine"
    },
    {
      "id": 3,
      "imageId": 317,
      "cred": 15,
      "flags": 1,
      "label": "DOOMed Veteran",
      "description": "Complete the DOOM 3 single player campaign on Veteran",
      "howto": "Complete the DOOM 3 single player campaign on Veteran"
    },
    {
      "id": 4,
      "imageId": 318,
      "cred": 20,
      "flags": 1,
      "label": "DOOMed Nightmare",
      "description": "Complete the DOOM 3 single player campaign on Nightmare",
      "howto": "Complete the DOOM 3 single player campaign on Nightmare"
    },
    {
      "id": 5,
      "imageId": 319,
      "cred": 15,
      "flags": 1,
      "label": "DOOMed Collector",
      "description": "Collect every PDA in DOOM 3",
      "howto": "Collect every PDA in DOOM 3"
    },
    {
      "id": 6,
      "imageId": 320,
      "cred": 15,
      "flags": 1,
      "label": "I Like to Watch",
      "description": "Find all video logs in DOOM 3",
      "howto": "Find all video logs in DOOM 3"
    },
    {
      "id": 7,
      "imageId": 321,
      "cred": 15,
      "flags": 1,
      "label": "That was Close!",
      "description": "Kill an enemy with 1 health remaining in DOOM 3, RoE, or Lost Mission",
      "howto": "Kill an enemy with 1 health remaining in DOOM 3, RoE, or Lost Mission"
    },
    {
      "id": 8,
      "imageId": 322,
      "cred": 15,
      "flags": 1,
      "label": "Goody Finder",
      "description": "Open all storage lockers in DOOM 3",
      "howto": "Open all storage lockers in DOOM 3"
    },
    {
      "id": 9,
      "imageId": 323,
      "cred": 10,
      "flags": 1,
      "label": "Unarmed Badass",
      "description": "Kill 20 enemies with the fists/melee hands in DOOM 3",
      "howto": "Kill 20 enemies with the fists/melee hands in DOOM 3"
    },
    {
      "id": 10,
      "imageId": 324,
      "cred": 5,
      "flags": 1,
      "label": "To Be or Not to Be",
      "description": "Kill the scientist trapped next to the Reactor Control Room in DOOM 3",
      "howto": "Kill the scientist trapped next to the Reactor Control Room in DOOM 3"
    },
    {
      "id": 11,
      "imageId": 325,
      "cred": 10,
      "flags": 1,
      "label": "Double the Fun!",
      "description": "Kill 2 Imps with one shotgun blast in DOOM 3, RoE, or Lost Mission",
      "howto": "Kill 2 Imps with one shotgun blast in DOOM 3, RoE, or Lost Mission"
    },
    {
      "id": 12,
      "imageId": 326,
      "cred": 5,
      "flags": 1,
      "label": "Killing time",
      "description": "Score 25000 on Super Turbo Turkey Puncher 3 in DOOM 3 or RoE",
      "howto": "Score 25000 on Super Turbo Turkey Puncher 3 in DOOM 3 or RoE"
    },
    {
      "id": 13,
      "imageId": 327,
      "cred": 10,
      "flags": 1,
      "label": "Boomtastic",
      "description": "Blow up 50 barrels in the DOOM 3, RoE, or Lost Mission campaigns",
      "howto": "Blow up 50 barrels in the DOOM 3, RoE, or Lost Mission campaigns"
    },
    {
      "id": 14,
      "imageId": 328,
      "cred": 10,
      "flags": 1,
      "label": "Ready for Action!",
      "description": "Get the BFG-9000 from Security Chief's office in DOOM 3",
      "howto": "Get the BFG-9000 from Security Chief's office in DOOM 3"
    },
    {
      "id": 15,
      "imageId": 329,
      "cred": 20,
      "flags": 1,
      "label": "Not a Scratch",
      "description": "Complete a level without taking any damage in DOOM 3, RoE, or Lost Mission (except Mars City)",
      "howto": "Complete a level without taking any damage in DOOM 3, RoE, or Lost Mission (except Mars City)"
    },
    {
      "id": 16,
      "imageId": 330,
      "cred": 10,
      "flags": 1,
      "label": "RAGE",
      "description": "Find the RAGE logo in the Lost Mission",
      "howto": "Find the RAGE logo in the Lost Mission"
    },
    {
      "id": 17,
      "imageId": 331,
      "cred": 20,
      "flags": 1,
      "label": "Speed Run",
      "description": "Complete the DOOM 3 single player campaign in 10 hours or less",
      "howto": "Complete the DOOM 3 single player campaign in 10 hours or less"
    },
    {
      "id": 18,
      "imageId": 332,
      "cred": 15,
      "flags": 1,
      "label": "Sticky Situation",
      "description": "Defeat the Vagary boss in DOOM 3",
      "howto": "Defeat the Vagary boss in DOOM 3"
    },
    {
      "id": 19,
      "imageId": 333,
      "cred": 15,
      "flags": 1,
      "label": "Cookie Stealer",
      "description": "Defeat Guardian boss in DOOM 3",
      "howto": "Defeat Guardian boss in DOOM 3"
    },
    {
      "id": 20,
      "imageId": 334,
      "cred": 15,
      "flags": 1,
      "label": "You're Not My Boss!",
      "description": "Defeat Sabaoth boss in DOOM 3",
      "howto": "Defeat Sabaoth boss in DOOM 3"
    },
    {
      "id": 21,
      "imageId": 335,
      "cred": 15,
      "flags": 1,
      "label": "Big Boy",
      "description": "Defeat Cyberdemon boss in DOOM 3",
      "howto": "Defeat Cyberdemon boss in DOOM 3"
    },
    {
      "id": 22,
      "imageId": 336,
      "cred": 10,
      "flags": 1,
      "label": "Bot Buddy",
      "description": "Keep a Sentry Bot alive to its destination in DOOM 3, RoE, or Lost Mission (except Mars City)",
      "howto": "Keep a Sentry Bot alive to its destination in DOOM 3, RoE, or Lost Mission (except Mars City)"
    },
    {
      "id": 23,
      "imageId": 337,
      "cred": 10,
      "flags": 1,
      "label": "Ripped!",
      "description": "Use the chainsaw to kill 20 enemies in DOOM 3",
      "howto": "Use the chainsaw to kill 20 enemies in DOOM 3"
    },
    {
      "id": 24,
      "imageId": 338,
      "cred": 10,
      "flags": 1,
      "label": "All of Us",
      "description": "Find the id logo secret room in DOOM 3",
      "howto": "Find the id logo secret room in DOOM 3"
    },
    {
      "id": 25,
      "imageId": 339,
      "cred": 5,
      "flags": 1,
      "label": "You Laugh, It Works",
      "description": "Find the bloody handiwork of Betruger (in Delta 4 Hallway) in DOOM 3",
      "howto": "Find the bloody handiwork of Betruger (in Delta 4 Hallway) in DOOM 3"
    },
    {
      "id": 26,
      "imageId": 340,
      "cred": 10,
      "flags": 1,
      "label": "Turncoat",
      "description": "Get 2 demons to fight each other in DOOM 3, RoE, or Lost Mission",
      "howto": "Get 2 demons to fight each other in DOOM 3, RoE, or Lost Mission"
    },
    {
      "id": 27,
      "imageId": 341,
      "cred": 10,
      "flags": 1,
      "label": "Soulfood",
      "description": "Use the Soul Cube to defeat 20 enemies in DOOM 3",
      "howto": "Use the Soul Cube to defeat 20 enemies in DOOM 3"
    },
    {
      "id": 28,
      "imageId": 342,
      "cred": 5,
      "flags": 1,
      "label": "Evil Recruit",
      "description": "Complete the RoE campaign on Recruit",
      "howto": "Complete the RoE campaign on Recruit"
    },
    {
      "id": 29,
      "imageId": 343,
      "cred": 10,
      "flags": 1,
      "label": "Evil Marine",
      "description": "Complete the RoE campaign on Marine",
      "howto": "Complete the RoE campaign on Marine"
    },
    {
      "id": 30,
      "imageId": 344,
      "cred": 15,
      "flags": 1,
      "label": "Evil Veteran",
      "description": "Complete the RoE campaign on Veteran",
      "howto": "Complete the RoE campaign on Veteran"
    },
    {
      "id": 31,
      "imageId": 345,
      "cred": 20,
      "flags": 1,
      "label": "Evil Nightmare",
      "description": "Complete the RoE campaign on Nightmare",
      "howto": "Complete the RoE campaign on Nightmare"
    },
    {
      "id": 32,
      "imageId": 346,
      "cred": 10,
      "flags": 1,
      "label": "Evil Collector",
      "description": "Collect every PDA in the RoE campaign",
      "howto": "Collect every PDA in the RoE campaign"
    },
    {
      "id": 33,
      "imageId": 347,
      "cred": 10,
      "flags": 1,
      "label": "Too Slow, Fool!",
      "description": "Kill 5 enemies at once while in Hell Time in RoE",
      "howto": "Kill 5 enemies at once while in Hell Time in RoE"
    },
    {
      "id": 34,
      "imageId": 348,
      "cred": 15,
      "flags": 1,
      "label": "Gimme Time!",
      "description": "Defeat the Helltime Hunter in RoE",
      "howto": "Defeat the Helltime Hunter in RoE"
    },
    {
      "id": 35,
      "imageId": 349,
      "cred": 15,
      "flags": 1,
      "label": "Gimme Power!",
      "description": "Defeat the Berserk Hunter in RoE",
      "howto": "Defeat the Berserk Hunter in RoE"
    },
    {
      "id": 36,
      "imageId": 350,
      "cred": 15,
      "flags": 1,
      "label": "Shocking!",
      "description": "Defeat the Invulnerability Hunter in RoE",
      "howto": "Defeat the Invulnerability Hunter in RoE"
    },
    {
      "id": 37,
      "imageId": 351,
      "cred": 15,
      "flags": 1,
      "label": "Eat This!",
      "description": "Defeat the Maledict boss in RoE",
      "howto": "Defeat the Maledict boss in RoE"
    },
    {
      "id": 38,
      "imageId": 352,
      "cred": 10,
      "flags": 1,
      "label": "Play Catch",
      "description": "Kill 20 enemies with projectiles launched from the Grabber in RoE",
      "howto": "Kill 20 enemies with projectiles launched from the Grabber in RoE"
    },
    {
      "id": 39,
      "imageId": 353,
      "cred": 10,
      "flags": 1,
      "label": "Fists of Fury",
      "description": "Use the Artifact with Berserk ability to punch out 20 enemies in RoE",
      "howto": "Use the Artifact with Berserk ability to punch out 20 enemies in RoE"
    },
    {
      "id": 40,
      "imageId": 354,
      "cred": 5,
      "flags": 1,
      "label": "Lost Recruit",
      "description": "Complete the Lost Mission campaign on Recruit",
      "howto": "Complete the Lost Mission campaign on Recruit"
    },
    {
      "id": 41,
      "imageId": 355,
      "cred": 10,
      "flags": 1,
      "label": "Lost Marine",
      "description": "Complete the Lost Mission campaign on Marine",
      "howto": "Complete the Lost Mission campaign on Marine"
    },
    {
      "id": 42,
      "imageId": 356,
      "cred": 15,
      "flags": 1,
      "label": "Lost Veteran",
      "description": "Complete the Lost Mission campaign on Veteran",
      "howto": "Complete the Lost Mission campaign on Veteran"
    },
    {
      "id": 43,
      "imageId": 357,
      "cred": 20,
      "flags": 1,
      "label": "Lost Nightmare",
      "description": "Complete the Lost Mission campaign on Nightmare",
      "howto": "Complete the Lost Mission campaign on Nightmare"
    },
    {
      "id": 44,
      "imageId": 358,
      "cred": 10,
      "flags": 1,
      "label": "Lost Collector",
      "description": "Collect every PDA in the Lost Mission campaign",
      "howto": "Collect every PDA in the Lost Mission campaign"
    },
    {
      "id": 45,
      "imageId": 359,
      "cred": 10,
      "flags": 1,
      "label": "Telefragged!",
      "description": "Kill an enemy player by jumping into a teleporter after them in DOOM 3 Multiplayer",
      "howto": "Kill an enemy player by jumping into a teleporter after them in DOOM 3 Multiplayer"
    },
    {
      "id": 46,
      "imageId": 360,
      "cred": 10,
      "flags": 1,
      "label": "Crushed!",
      "description": "Catch an enemy player in the Reactor of Frag Chamber in DOOM 3 Multiplayer",
      "howto": "Catch an enemy player in the Reactor of Frag Chamber in DOOM 3 Multiplayer"
    },
    {
      "id": 47,
      "imageId": 361,
      "cred": 10,
      "flags": 1,
      "label": "Ninja Killer",
      "description": "Kill 5 enemy players while using Invisibility in DOOM 3 Multiplayer",
      "howto": "Kill 5 enemy players while using Invisibility in DOOM 3 Multiplayer"
    },
    {
      "id": 48,
      "imageId": 362,
      "cred": 15,
      "flags": 1,
      "label": "Clean Sheet",
      "description": "Complete a DOOM 3 Multiplayer match without dying",
      "howto": "Complete a DOOM 3 Multiplayer match without dying"
    },
    {
      "id": 49,
      "imageId": 363,
      "cred": 10,
      "flags": 1,
      "label": "Berserked!",
      "description": "Use Berserk to kill a player in DOOM 3 Multiplayer",
      "howto": "Use Berserk to kill a player in DOOM 3 Multiplayer"
    },
    {
      "id": 50,
      "imageId": 364,
      "cred": 10,
      "flags": 1,
      "label": "2 Deaths - 1 Gun",
      "description": "Kill two enemies in the same room with a rocket in DOOM 3 Multiplayer",
      "howto": "Kill two enemies in the same room with a rocket in DOOM 3 Multiplayer"
    }
  ]
}