{
  "achievementsPossible": 50,
  "credPossible": 1000,
  "achievements": [
    {
      "id": 1,
      "imageId": 1,
      "cred": 20,
      "flags": 1,
      "label": "瑠香グッドエンド",
      "description": "瑠香のグッドエンド閲覧",
      "howto": "瑠香のグッドエンドをみよう"
    },
    {
      "id": 2,
      "imageId": 4,
      "cred": 10,
      "flags": 1,
      "label": "瑠香サブシナリオ１０",
      "description": "瑠香のサブシナリオを１０種解除",
      "howto": "瑠香のサブシナリオを１０種解除しよう"
    },
    {
      "id": 3,
      "imageId": 5,
      "cred": 20,
      "flags": 6,
      "label": "瑠香サブシナリオ２５",
      "description": "瑠香のサブシナリオを２５種解除",
      "howto": "瑠香のサブシナリオを２５種解除しよう"
    },
    {
      "id": 4,
      "imageId": 6,
      "cred": 10,
      "flags": 6,
      "label": "瑠香スタンプ２枚",
      "description": "瑠香のスタンプを２枚コンプリート",
      "howto": "瑠香のスタンプを２枚コンプリートしよう"
    },
    {
      "id": 5,
      "imageId": 7,
      "cred": 20,
      "flags": 6,
      "label": "瑠香スタンプ１０枚",
      "description": "瑠香のスタンプを１０枚コンプリート",
      "howto": "瑠香のスタンプを１０枚コンプリートしよう"
    },
    {
      "id": 6,
      "imageId": 8,
      "cred": 50,
      "flags": 6,
      "label": "瑠香スタンプ２０枚",
      "description": "瑠香のスタンプを２０枚コンプリート",
      "howto": "瑠香のスタンプを２０枚コンプリートしよう"
    },
    {
      "id": 7,
      "imageId": 9,
      "cred": 20,
      "flags": 1,
      "label": "真白グッドエンド",
      "description": "真白のグッドエンド閲覧",
      "howto": "真白のグッドエンドをみよう"
    },
    {
      "id": 8,
      "imageId": 10,
      "cred": 10,
      "flags": 6,
      "label": "真白サブシナリオ１０",
      "description": "真白のサブシナリオを１０種解除",
      "howto": "真白のサブシナリオを１０種解除しよう"
    },
    {
      "id": 9,
      "imageId": 11,
      "cred": 20,
      "flags": 1,
      "label": "真白サブシナリオ２５",
      "description": "真白のサブシナリオを２５種解除",
      "howto": "真白のサブシナリオを２５種解除しよう"
    },
    {
      "id": 10,
      "imageId": 12,
      "cred": 10,
      "flags": 6,
      "label": "真白スタンプ２枚",
      "description": "真白のスタンプを２枚コンプリート",
      "howto": "真白のスタンプを２枚コンプリートしよう"
    },
    {
      "id": 11,
      "imageId": 13,
      "cred": 20,
      "flags": 6,
      "label": "真白スタンプ１０枚",
      "description": "真白のスタンプを１０枚コンプリート",
      "howto": "真白のスタンプを１０枚コンプリートしよう"
    },
    {
      "id": 12,
      "imageId": 14,
      "cred": 50,
      "flags": 6,
      "label": "真白スタンプ２０枚",
      "description": "真白のスタンプを２０枚コンプリート",
      "howto": "真白のスタンプを２０枚コンプリートしよう"
    },
    {
      "id": 13,
      "imageId": 15,
      "cred": 20,
      "flags": 1,
      "label": "ゆずかグッドエンド",
      "description": "ゆずかのグッドエンド閲覧",
      "howto": "ゆずかのグッドエンドをみよう"
    },
    {
      "id": 14,
      "imageId": 16,
      "cred": 10,
      "flags": 6,
      "label": "ゆずかサブシナリオ１０",
      "description": "ゆずかのサブシナリオを１０種解除",
      "howto": "ゆずかのサブシナリオを１０種解除しよう"
    },
    {
      "id": 15,
      "imageId": 17,
      "cred": 20,
      "flags": 6,
      "label": "ゆずかサブシナリオ２５",
      "description": "ゆずかのサブシナリオを２５種解除",
      "howto": "ゆずかのサブシナリオを２５種解除しよう"
    },
    {
      "id": 16,
      "imageId": 18,
      "cred": 10,
      "flags": 6,
      "label": "ゆずかスタンプ２枚",
      "description": "ゆずかのスタンプを２枚コンプリート",
      "howto": "ゆずかのスタンプを２枚コンプリートしよう"
    },
    {
      "id": 17,
      "imageId": 20,
      "cred": 20,
      "flags": 6,
      "label": "ゆずかスタンプ１０枚",
      "description": "ゆずかのスタンプを１０枚コンプリート",
      "howto": "ゆずかのスタンプを１０枚コンプリートしよう"
    },
    {
      "id": 18,
      "imageId": 19,
      "cred": 50,
      "flags": 6,
      "label": "ゆずかスタンプ２０枚",
      "description": "ゆずかのスタンプを２０枚コンプリート",
      "howto": "ゆずかのスタンプを２０枚コンプリートしよう"
    },
    {
      "id": 19,
      "imageId": 21,
      "cred": 20,
      "flags": 1,
      "label": "佐子グッドエンド",
      "description": "佐子のグッドエンド閲覧",
      "howto": "佐子のグッドエンドをみよう"
    },
    {
      "id": 20,
      "imageId": 22,
      "cred": 10,
      "flags": 6,
      "label": "佐子サブシナリオ１０",
      "description": "佐子のサブシナリオを１０種解除",
      "howto": "佐子のサブシナリオを１０種解除しよう"
    },
    {
      "id": 21,
      "imageId": 23,
      "cred": 20,
      "flags": 1,
      "label": "佐子サブシナリオ２５",
      "description": "佐子のサブシナリオを２５種解除",
      "howto": "佐子のサブシナリオを２５種解除しよう"
    },
    {
      "id": 22,
      "imageId": 24,
      "cred": 10,
      "flags": 6,
      "label": "佐子スタンプ２枚",
      "description": "佐子のスタンプを２枚コンプリート",
      "howto": "佐子のスタンプを２枚コンプリートしよう"
    },
    {
      "id": 23,
      "imageId": 25,
      "cred": 20,
      "flags": 6,
      "label": "佐子スタンプ１０枚",
      "description": "佐子のスタンプを１０枚コンプリート",
      "howto": "佐子のスタンプを１０枚コンプリートしよう"
    },
    {
      "id": 24,
      "imageId": 26,
      "cred": 50,
      "flags": 6,
      "label": "佐子スタンプ２０枚",
      "description": "佐子のスタンプを２０枚コンプリート",
      "howto": "佐子のスタンプを２０枚コンプリートしよう"
    },
    {
      "id": 25,
      "imageId": 2,
      "cred": 10,
      "flags": 7,
      "label": "一度に全モードをプレイ",
      "description": "一度のプレイで全モードをプレイ",
      "howto": "一度のプレイで全モードをプレイしよう"
    },
    {
      "id": 26,
      "imageId": 3,
      "cred": 10,
      "flags": 7,
      "label": "２日連続でプレイ",
      "description": "２日連続でプレイ",
      "howto": "２日連続でプレイしよう"
    },
    {
      "id": 27,
      "imageId": 27,
      "cred": 10,
      "flags": 7,
      "label": "ダンストレーニングモードをプレイ",
      "description": "ダンストレーニングモードをプレイ",
      "howto": "ダンストレーニングモードをプレイしよう"
    },
    {
      "id": 28,
      "imageId": 28,
      "cred": 10,
      "flags": 7,
      "label": "ミニゲームをプレイ",
      "description": "ミニゲームをプレイ",
      "howto": "ミニゲームをプレイしよう"
    },
    {
      "id": 29,
      "imageId": 29,
      "cred": 10,
      "flags": 7,
      "label": "カラオケパフォーマンスモードをプレイ",
      "description": "カラオケパフォーマンスモードをプレイ",
      "howto": "カラオケパフォーマンスモードをプレイしよう"
    },
    {
      "id": 30,
      "imageId": 30,
      "cred": 10,
      "flags": 7,
      "label": "ステージモードをプレイ",
      "description": "ステージモードをプレイ",
      "howto": "ステージモードをプレイしよう"
    },
    {
      "id": 31,
      "imageId": 31,
      "cred": 10,
      "flags": 7,
      "label": "着替えを体験",
      "description": "着替えを体験",
      "howto": "着替えを体験しよう"
    },
    {
      "id": 32,
      "imageId": 32,
      "cred": 10,
      "flags": 4,
      "label": "ダンス　レベル１　ランクＳ獲得",
      "description": "ダンス　レベル１でランクＳを獲得",
      "howto": "ダンス　レベル１でランクＳを獲得しよう"
    },
    {
      "id": 33,
      "imageId": 33,
      "cred": 20,
      "flags": 4,
      "label": "ダンス　レベル４　ランクＳ獲得",
      "description": "ダンス　レベル４でランクＳを獲得",
      "howto": "ダンス　レベル４でランクＳを獲得しよう"
    },
    {
      "id": 34,
      "imageId": 34,
      "cred": 30,
      "flags": 4,
      "label": "ダンス　レベル７　ランクＳ獲得",
      "description": "ダンス　レベル７でランクＳを獲得",
      "howto": "ダンス　レベル７でランクＳを獲得しよう"
    },
    {
      "id": 35,
      "imageId": 35,
      "cred": 40,
      "flags": 4,
      "label": "ダンス　レベル１２　ランクＳ獲得",
      "description": "ダンス　レベル１２でランクＳを獲得",
      "howto": "ダンス　レベル１２でランクＳを獲得しよう"
    },
    {
      "id": 36,
      "imageId": 36,
      "cred": 10,
      "flags": 4,
      "label": "カラオケ　レベル１　ランクＳ獲得",
      "description": "カラオケ　レベル１でランクＳを獲得",
      "howto": "カラオケ　レベル１でランクＳを獲得しよう"
    },
    {
      "id": 37,
      "imageId": 37,
      "cred": 20,
      "flags": 4,
      "label": "カラオケ　レベル２　ランクＳ獲得",
      "description": "カラオケ　レベル２でランクＳを獲得",
      "howto": "カラオケ　レベル２でランクＳを獲得しよう"
    },
    {
      "id": 38,
      "imageId": 38,
      "cred": 20,
      "flags": 4,
      "label": "カラオケ　レベル３　ランクＳ獲得",
      "description": "カラオケ　レベル３でランクＳを獲得",
      "howto": "カラオケ　レベル３でランクＳを獲得しよう"
    },
    {
      "id": 39,
      "imageId": 39,
      "cred": 40,
      "flags": 4,
      "label": "カラオケ　レベル４　ランクＳ獲得",
      "description": "カラオケ　レベル４でランクＳを獲得",
      "howto": "カラオケ　レベル４でランクＳを獲得しよう"
    },
    {
      "id": 40,
      "imageId": 40,
      "cred": 20,
      "flags": 4,
      "label": "シーソー　エンドレス　ランクＳ獲得",
      "description": "シーソー　エンドレスでランクＳを獲得",
      "howto": "シーソー　エンドレスでランクＳを獲得しよう"
    },
    {
      "id": 41,
      "imageId": 41,
      "cred": 20,
      "flags": 4,
      "label": "だるまさん　エンドレス　ランクＳ獲得",
      "description": "だるまさん　エンドレスでランクＳを獲得",
      "howto": "だるまさん　エンドレスでランクＳを獲得しよう"
    },
    {
      "id": 42,
      "imageId": 42,
      "cred": 20,
      "flags": 4,
      "label": "バンブー　エンドレス　ランクＳ獲得",
      "description": "バンブー　エンドレスでランクＳを獲得",
      "howto": "バンブー　エンドレスでランクＳを獲得しよう"
    },
    {
      "id": 43,
      "imageId": 43,
      "cred": 20,
      "flags": 4,
      "label": "平均台　エンドレス　ランクＳ獲得",
      "description": "平均台　エンドレスでランクＳを獲得",
      "howto": "平均台　エンドレスでランクＳを獲得しよう"
    },
    {
      "id": 44,
      "imageId": 44,
      "cred": 20,
      "flags": 4,
      "label": "自主トレ　ウォームアップ　ランクＳ獲得",
      "description": "自主トレ　ウォームアップでランクＳを獲得",
      "howto": "自主トレ　ウォームアップでランクＳを獲得しよう"
    },
    {
      "id": 45,
      "imageId": 45,
      "cred": 20,
      "flags": 4,
      "label": "自主トレ　おすすめコース　ランクＳ獲得",
      "description": "自主トレ　おすすめコースでランクＳを獲得",
      "howto": "自主トレ　おすすめコースでランクＳを獲得しよう"
    },
    {
      "id": 46,
      "imageId": 46,
      "cred": 20,
      "flags": 4,
      "label": "自主トレ　しっかりコース　ランクＳ獲得",
      "description": "自主トレ　しっかりコースでランクＳを獲得",
      "howto": "自主トレ　しっかりコースでランクＳを獲得しよう"
    },
    {
      "id": 47,
      "imageId": 47,
      "cred": 20,
      "flags": 4,
      "label": "自主トレ　リズムコース　ランクＳ獲得",
      "description": "自主トレ　リズムコースでランクＳを獲得",
      "howto": "自主トレ　リズムコースでランクＳを獲得しよう"
    },
    {
      "id": 48,
      "imageId": 48,
      "cred": 20,
      "flags": 4,
      "label": "自主トレ　ファイトコース　ランクＳ獲得",
      "description": "自主トレ　ファイトコースでランクＳを獲得",
      "howto": "自主トレ　ファイトコースでランクＳを獲得しよう"
    },
    {
      "id": 49,
      "imageId": 49,
      "cred": 20,
      "flags": 4,
      "label": "自主トレ　リラックス　ランクＳ獲得",
      "description": "自主トレ　リラックスでランクＳを獲得",
      "howto": "自主トレ　リラックスでランクＳを獲得しよう"
    },
    {
      "id": 50,
      "imageId": 50,
      "cred": 20,
      "flags": 4,
      "label": "自主トレ　足腰強化コース　ランクS獲得",
      "description": "自主トレ　足腰強化コースでランクＳを獲得",
      "howto": "自主トレ　足腰強化コースでランクＳを獲得しよう"
    }
  ]
}