{
  "avatarAssetsPossible": 2,
  "maleAvatarAssetsPossible": 0,
  "femaleAvatarAssetsPossible": 0,
  "avatarAssets": [
    {
      "id": "00000544-0001-4193-caf5-b5e45841099e",
      "imageId": 14,
      "subcategory": 0,
      "unknown": 0,
      "isMale": false,
      "isFemale": false,
      "isUnisex": true,
      "label": "M 1917 Gas mask",
      "description": "Gas mask worn during World War I.",
      "howto": "Purchase Toy Soldiers."
    },
    {
      "id": "00000544-0002-61b3-c4e1-0bc75841099e",
      "imageId": 2,
      "subcategory": 0,
      "unknown": 2015221016,
      "isMale": false,
      "isFemale": false,
      "isUnisex": true,
      "label": "Pickelhaube",
      "description": "Spiked helmet worn during World War I by the German military.",
      "howto": "Complete the Campaign."
    }
  ]
}