{
  "achievementsPossible": 1,
  "credPossible": 0,
  "achievements": [
    {
      "id": 1,
      "imageId": 2,
      "cred": 0,
      "flags": 1,
      "label": "KINECT Launch Team",
      "description": "On November 04, 2010 we made \"you\" the controller. Kinect for Xbox 360.",
      "howto": "On November 04, 2010 we made \"you\" the controller. Kinect for Xbox 360."
    }
  ]
}