{
  "achievementsPossible": 50,
  "credPossible": 1000,
  "achievements": [
    {
      "id": 0,
      "imageId": 45,
      "cred": 5,
      "flags": 4,
      "label": "Hoodlum\r\n",
      "description": "Be on the winning side in a multiplayer match in any of the multiplayer modes\r\n",
      "howto": "Be on the winning side in a multiplayer match in any of the multiplayer modes\r\n"
    },
    {
      "id": 1,
      "imageId": 39,
      "cred": 5,
      "flags": 4,
      "label": "Patriot\r\n",
      "description": "Capture a flag in a CTF match",
      "howto": "Capture a flag in a CTF match"
    },
    {
      "id": 2,
      "imageId": 43,
      "cred": 5,
      "flags": 1,
      "label": "Murderer\r\n",
      "description": "Kill enough players to achieve a killing streak within a multiplayer match\r\n",
      "howto": "Claim 20 Killing Streaks in multiplayer\r\n"
    },
    {
      "id": 3,
      "imageId": 42,
      "cred": 5,
      "flags": 4,
      "label": "Hard to Kill\r\n",
      "description": "Take enough damage without dying within a multiplayer match\r\n",
      "howto": "Take enough damage without dying within a multiplayer match\r\n"
    },
    {
      "id": 4,
      "imageId": 40,
      "cred": 5,
      "flags": 4,
      "label": "Flag Runner\r\n",
      "description": "Capture 20 flags in a CTF match\r\n",
      "howto": "Capture 20 flags in a CTF match\r\n"
    },
    {
      "id": 5,
      "imageId": 41,
      "cred": 10,
      "flags": 4,
      "label": "Flag Owner\r\n",
      "description": "Capture 50 flags in a CTF match",
      "howto": "Capture 50 flags in a CTF match"
    },
    {
      "id": 6,
      "imageId": 44,
      "cred": 25,
      "flags": 4,
      "label": "Butcher\r\n",
      "description": "Claim 20 Killing Streaks in multiplayer\r\n",
      "howto": "Claim 20 Killing Streaks in multiplayer\r\n"
    },
    {
      "id": 7,
      "imageId": 46,
      "cred": 5,
      "flags": 4,
      "label": "Mook\r\n",
      "description": "Be on the winning side in 5 multiplayer matches\r\n",
      "howto": "Be on the winning side in 5 multiplayer matches\r\n"
    },
    {
      "id": 8,
      "imageId": 47,
      "cred": 15,
      "flags": 4,
      "label": "Henchman\r\n",
      "description": "Be on the winning side in 20 multiplayer matches\r\n",
      "howto": "Be on the winning side in 20 multiplayer matches\r\n"
    },
    {
      "id": 9,
      "imageId": 48,
      "cred": 25,
      "flags": 4,
      "label": "Contract Killer\r\n",
      "description": "Be on the winning side in 50 multiplayer matches\r\n",
      "howto": "Be on the winning side in 50 multiplayer matches\r\n"
    },
    {
      "id": 10,
      "imageId": 49,
      "cred": 35,
      "flags": 4,
      "label": "Made Man\r\n",
      "description": "Be on the winning side in 100 multiplayer matches\r\n",
      "howto": "Be on the winning side in 100 multiplayer matches\r\n"
    },
    {
      "id": 11,
      "imageId": 50,
      "cred": 45,
      "flags": 4,
      "label": "The Don\r\n",
      "description": "Be on the winning side in 250 multiplayer matches\r\n",
      "howto": "Be on the winning side in 250 multiplayer matches\r\n"
    },
    {
      "id": 12,
      "imageId": 1,
      "cred": 25,
      "flags": 6,
      "label": "Beginnings\r\n",
      "description": "Complete the first part of the game\r\n",
      "howto": ""
    },
    {
      "id": 13,
      "imageId": 2,
      "cred": 50,
      "flags": 6,
      "label": "Into the Dark\r\n",
      "description": "Complete the second part of the game\r\n",
      "howto": ""
    },
    {
      "id": 14,
      "imageId": 3,
      "cred": 25,
      "flags": 3,
      "label": "Happy Birthday",
      "description": "Acquire Creeping Dark\r\n",
      "howto": ""
    },
    {
      "id": 15,
      "imageId": 4,
      "cred": 25,
      "flags": 3,
      "label": "No Man's Land\r\n",
      "description": "Acquire Demon Arm\r\n",
      "howto": ""
    },
    {
      "id": 16,
      "imageId": 5,
      "cred": 25,
      "flags": 3,
      "label": "Hills\r\n",
      "description": "Acquire Darkness Guns\r\n",
      "howto": ""
    },
    {
      "id": 17,
      "imageId": 6,
      "cred": 25,
      "flags": 3,
      "label": "Crazy For You\r\n",
      "description": "Acquire Black Hole\r\n",
      "howto": ""
    },
    {
      "id": 18,
      "imageId": 7,
      "cred": 15,
      "flags": 6,
      "label": "Darkling Master\r\n",
      "description": "Acquire all Darkling types\r\n",
      "howto": ""
    },
    {
      "id": 19,
      "imageId": 8,
      "cred": 25,
      "flags": 1,
      "label": "One With the Dark\r\n",
      "description": "Achieve maximum Darkness level\r\n",
      "howto": ""
    },
    {
      "id": 20,
      "imageId": 9,
      "cred": 25,
      "flags": 1,
      "label": "Anti Hero\r\n",
      "description": "Complete game on normal setting\r\n",
      "howto": "Complete game on normal setting\r\n"
    },
    {
      "id": 21,
      "imageId": 10,
      "cred": 35,
      "flags": 1,
      "label": "Legendary Dark\r\n",
      "description": "Complete game on hard setting\r\n",
      "howto": "Complete game on hard setting\r\n"
    },
    {
      "id": 22,
      "imageId": 29,
      "cred": 25,
      "flags": 4,
      "label": "Cannibal\r\n",
      "description": "Devour 300 enemies\r\n",
      "howto": "Devour 300 enemies\r\n"
    },
    {
      "id": 23,
      "imageId": 34,
      "cred": 25,
      "flags": 4,
      "label": "Fashionable\r\n",
      "description": "Collect all the Darkling outfits\r\n",
      "howto": "Collect all the Darkling outfits\r\n"
    },
    {
      "id": 24,
      "imageId": 37,
      "cred": 5,
      "flags": 4,
      "label": "Bringing People Together\r\n",
      "description": "Trap 5 enemies within a Black Hole\r\n",
      "howto": "Trap 5 enemies within a Black Hole\r\n"
    },
    {
      "id": 25,
      "imageId": 30,
      "cred": 15,
      "flags": 4,
      "label": "Rogue Killer\r\n",
      "description": "Kill 15 enemies using Creeping Dark\r\n",
      "howto": "Kill 15 enemies using Creeping Dark\r\n"
    },
    {
      "id": 26,
      "imageId": 31,
      "cred": 15,
      "flags": 4,
      "label": "Void Bringer\r\n",
      "description": "Kill 20 enemies using Black Hole\r\n",
      "howto": "Kill 20 enemies using Black Hole\r\n"
    },
    {
      "id": 27,
      "imageId": 32,
      "cred": 15,
      "flags": 1,
      "label": "Gunner\r\n",
      "description": "Kill 30 enemies using Darkness Guns\r\n",
      "howto": "Kill 30 enemies using Darkness Guns\r\n"
    },
    {
      "id": 28,
      "imageId": 33,
      "cred": 15,
      "flags": 4,
      "label": "Ripper\r\n",
      "description": "Kill 30 enemies using Demon Arm\r\n",
      "howto": "Kill 30 enemies using Demon Arm\r\n"
    },
    {
      "id": 29,
      "imageId": 35,
      "cred": 5,
      "flags": 4,
      "label": "Summoner\r\n",
      "description": "Summon 5 Darklings\r\n",
      "howto": "Summon 5 Darklings\r\n"
    },
    {
      "id": 30,
      "imageId": 36,
      "cred": 25,
      "flags": 4,
      "label": "Legendary Summoner\r\n",
      "description": "Summon 50 Darklings\r\n",
      "howto": "Summon 50 Darklings\r\n"
    },
    {
      "id": 31,
      "imageId": 38,
      "cred": 100,
      "flags": 1,
      "label": "Darkness Master\r\n",
      "description": "Only for those who are completely in tune with the Darkness\r\n",
      "howto": "Only for those who are completely in tune with the Darkness\r\n"
    },
    {
      "id": 32,
      "imageId": 11,
      "cred": 10,
      "flags": 4,
      "label": "Roadkill\r\n",
      "description": "Kill the workers in the tunnel\r\n",
      "howto": "Kill the workers in the tunnel\r\n"
    },
    {
      "id": 33,
      "imageId": 12,
      "cred": 10,
      "flags": 4,
      "label": "Ghandi\r\n",
      "description": "Find a peaceful solution. At least momentarily\r\n",
      "howto": "Find a peaceful solution. At least momentarily\r\n"
    },
    {
      "id": 34,
      "imageId": 13,
      "cred": 10,
      "flags": 4,
      "label": "Romantic\r\n",
      "description": "Real guys stick around for their ladies\r\n",
      "howto": "Real guys stick around for their ladies\r\n"
    },
    {
      "id": 35,
      "imageId": 14,
      "cred": 50,
      "flags": 4,
      "label": "Heart of Gold\r\n",
      "description": "Help those in need\r\n",
      "howto": "Help those in need\r\n"
    },
    {
      "id": 36,
      "imageId": 15,
      "cred": 25,
      "flags": 4,
      "label": "Gunslinger\r\n",
      "description": "Kill 7 enemies within 15 seconds\r\n",
      "howto": "Kill 7 enemies within 15 seconds\r\n"
    },
    {
      "id": 37,
      "imageId": 16,
      "cred": 15,
      "flags": 4,
      "label": "Anti Air\r\n",
      "description": "Bring down the Chopper",
      "howto": "Bring down the Chopper"
    },
    {
      "id": 38,
      "imageId": 17,
      "cred": 50,
      "flags": 4,
      "label": "Take a Look at the Sky",
      "description": "Take down 6 airplanes.\r\n",
      "howto": "Take down 6 airplanes.\r\n"
    },
    {
      "id": 39,
      "imageId": 19,
      "cred": 5,
      "flags": 4,
      "label": "Knuckle, Meet Face\r\n",
      "description": "Perform a melee kill for the first time\r\n",
      "howto": "Perform a melee kill for the first time\r\n"
    },
    {
      "id": 40,
      "imageId": 20,
      "cred": 5,
      "flags": 4,
      "label": "Up Close and Personal\r\n",
      "description": "Perform an execution move for the first time\r\n",
      "howto": "Perform an execution move for the first time\r\n"
    },
    {
      "id": 41,
      "imageId": 21,
      "cred": 10,
      "flags": 4,
      "label": "Executioner\r\n",
      "description": "Kill 25 enemies using execution moves\r\n",
      "howto": "Kill 25 enemies using execution moves\r\n"
    },
    {
      "id": 42,
      "imageId": 23,
      "cred": 5,
      "flags": 4,
      "label": "Picking Up Stuff\r\n",
      "description": "Unlock a collectable for the first time\r\n",
      "howto": "Unlock a collectable for the first time\r\n"
    },
    {
      "id": 43,
      "imageId": 24,
      "cred": 5,
      "flags": 4,
      "label": "Gatherer\r\n",
      "description": "Unlock 25 collectables\r\n",
      "howto": "Unlock 25 collectables\r\n"
    },
    {
      "id": 44,
      "imageId": 25,
      "cred": 10,
      "flags": 4,
      "label": "The Collector\r\n",
      "description": "Unlock 50 collectables\r\n",
      "howto": "Unlock 50 collectables\r\n"
    },
    {
      "id": 45,
      "imageId": 26,
      "cred": 15,
      "flags": 4,
      "label": "The Obsessive Collector\r\n",
      "description": "Unlock 75 collectables",
      "howto": "Unlock 75 collectables"
    },
    {
      "id": 46,
      "imageId": 27,
      "cred": 20,
      "flags": 2,
      "label": "Completionist\r\n",
      "description": "Unlock 100 collectables\r\n",
      "howto": "Unlock 100 collectables\r\n"
    },
    {
      "id": 47,
      "imageId": 28,
      "cred": 20,
      "flags": 4,
      "label": "Bullet Dodger\r\n",
      "description": "Finish a multiplayer match with less than 5 deaths (minimum of 4 players)\r\n\r\n",
      "howto": "Finish a multiplayer match with less than 5 deaths (minimum of 4 players)\r\n\r\n"
    },
    {
      "id": 48,
      "imageId": 18,
      "cred": 10,
      "flags": 4,
      "label": "Keeper of Secrets\r\n",
      "description": "Someone's waiting by the phone\r\n\r\n",
      "howto": "Someone's waiting by the phone\r\n\r\n"
    },
    {
      "id": 49,
      "imageId": 22,
      "cred": 20,
      "flags": 4,
      "label": "Legendary Executioner\r\n",
      "description": "Kill 50 enemies using execution moves\r\n",
      "howto": "Kill 50 enemies using execution moves\r\n"
    }
  ]
}