{
  "achievementsPossible": 50,
  "credPossible": 1000,
  "achievements": [
    {
      "id": 1,
      "imageId": 1,
      "cred": 20,
      "flags": 6,
      "label": "Bone Collector",
      "description": "Defeat the witch Straeggele",
      "howto": "Defeat the witch Straeggele"
    },
    {
      "id": 2,
      "imageId": 2,
      "cred": 20,
      "flags": 6,
      "label": "Ice Breaker",
      "description": "Defeat the witch Trude",
      "howto": "Defeat the witch Trude"
    },
    {
      "id": 3,
      "imageId": 3,
      "cred": 20,
      "flags": 6,
      "label": "Fire Fighter",
      "description": "Defeat the witch Holda",
      "howto": "Defeat the witch Holda"
    },
    {
      "id": 4,
      "imageId": 51,
      "cred": 20,
      "flags": 4,
      "label": "Until Next Time...",
      "description": "Force Faust to retreat",
      "howto": "Force Faust to retreat"
    },
    {
      "id": 5,
      "imageId": 50,
      "cred": 20,
      "flags": 4,
      "label": "Storm Stopper",
      "description": "Defeat the witch Trendula",
      "howto": "Defeat the witch Trendula"
    },
    {
      "id": 6,
      "imageId": 49,
      "cred": 20,
      "flags": 4,
      "label": "Hair Cutter",
      "description": "Defeat the witch Rapunzel",
      "howto": "Defeat the witch Rapunzel"
    },
    {
      "id": 7,
      "imageId": 48,
      "cred": 20,
      "flags": 4,
      "label": "Stone Crusher",
      "description": "Defeat the witch Verderinde",
      "howto": "Defeat the witch Verderinde"
    },
    {
      "id": 8,
      "imageId": 47,
      "cred": 20,
      "flags": 4,
      "label": "To the Fires of Hell",
      "description": "Defeat Faust",
      "howto": "Defeat Faust"
    },
    {
      "id": 9,
      "imageId": 46,
      "cred": 20,
      "flags": 4,
      "label": "True Peace at Last",
      "description": "Defeat your true enemy",
      "howto": "Defeat your true enemy"
    },
    {
      "id": 10,
      "imageId": 45,
      "cred": 10,
      "flags": 1,
      "label": "Novice Executioner",
      "description": "Beat the game on Page",
      "howto": "Beat the game on Page"
    },
    {
      "id": 11,
      "imageId": 44,
      "cred": 15,
      "flags": 1,
      "label": "Average Executioner",
      "description": "Beat the game on Squire",
      "howto": "Beat the game on Squire"
    },
    {
      "id": 12,
      "imageId": 43,
      "cred": 20,
      "flags": 1,
      "label": "Skilled Executioner",
      "description": "Beat the game on Knight",
      "howto": "Beat the game on Knight"
    },
    {
      "id": 13,
      "imageId": 42,
      "cred": 30,
      "flags": 1,
      "label": "Master Executioner",
      "description": "Beat the game on Hexen Knight",
      "howto": "Beat the game on Hexen Knight"
    },
    {
      "id": 14,
      "imageId": 41,
      "cred": 40,
      "flags": 1,
      "label": "Legendary Executioner",
      "description": "Beat the game on Witchslayer",
      "howto": "Beat the game on Witchslayer"
    },
    {
      "id": 15,
      "imageId": 40,
      "cred": 30,
      "flags": 3,
      "label": "The Witch's Ultimate Weapon",
      "description": "Acquire Spirit Cannon",
      "howto": "Acquire Spirit Cannon"
    },
    {
      "id": 16,
      "imageId": 39,
      "cred": 20,
      "flags": 6,
      "label": "Terror",
      "description": "Acquire the Scythe of the Assassin Queen",
      "howto": "Acquire the Scythe of the Assassin Queen"
    },
    {
      "id": 17,
      "imageId": 38,
      "cred": 25,
      "flags": 6,
      "label": "Fright",
      "description": "Acquire the Scythe of Imperial Massacre",
      "howto": "Acquire the Scythe of Imperial Massacre"
    },
    {
      "id": 18,
      "imageId": 37,
      "cred": 20,
      "flags": 4,
      "label": "Soul Grabber",
      "description": "Collect 10,000 souls",
      "howto": "Collect 10,000 souls"
    },
    {
      "id": 19,
      "imageId": 36,
      "cred": 20,
      "flags": 4,
      "label": "Soul Reaper",
      "description": "Collect 100,000 souls",
      "howto": "Collect 100,000 souls"
    },
    {
      "id": 20,
      "imageId": 35,
      "cred": 20,
      "flags": 4,
      "label": "Combo Master",
      "description": "Attain the highest possible combo rating",
      "howto": "Attain the highest possible combo rating"
    },
    {
      "id": 21,
      "imageId": 34,
      "cred": 20,
      "flags": 4,
      "label": "The Sonic Knight",
      "description": "Perform a 30-hit combo",
      "howto": "Perform a 30-hit combo"
    },
    {
      "id": 22,
      "imageId": 33,
      "cred": 20,
      "flags": 4,
      "label": "Take One for the Team",
      "description": "Perform 10 counterattacks while taking\r\nenemy attacks",
      "howto": "Perform 10 counterattacks while taking\r\nenemy attacks"
    },
    {
      "id": 23,
      "imageId": 32,
      "cred": 20,
      "flags": 4,
      "label": "Ring Around the Rosie",
      "description": "Catch and defeat five enemies at once\r\nwith Mag Mell's Rose",
      "howto": "Catch and defeat five enemies at once\r\nwith Mag Mell's Rose"
    },
    {
      "id": 24,
      "imageId": 31,
      "cred": 20,
      "flags": 4,
      "label": "Keeping Healthy",
      "description": "Collect 100 Recovery Items",
      "howto": "Collect 100 Recovery Items"
    },
    {
      "id": 25,
      "imageId": 30,
      "cred": 20,
      "flags": 4,
      "label": "Souls United",
      "description": "Defeat 200 enemies with Knight's Fury",
      "howto": "Defeat 200 enemies with Knight's Fury"
    },
    {
      "id": 26,
      "imageId": 29,
      "cred": 20,
      "flags": 4,
      "label": "Her True Strength",
      "description": "Defeat 200 enemies with Witch's Embrace",
      "howto": "Defeat 200 enemies with Witch's Embrace"
    },
    {
      "id": 27,
      "imageId": 28,
      "cred": 20,
      "flags": 4,
      "label": "A Worthy Apprentice",
      "description": "Defeat 50 enemies with the help of Minukelsus",
      "howto": "Defeat 50 enemies with the help of Minukelsus"
    },
    {
      "id": 28,
      "imageId": 27,
      "cred": 20,
      "flags": 4,
      "label": "Growing Power",
      "description": "Upgrade a Witchcraft",
      "howto": "Upgrade a Witchcraft"
    },
    {
      "id": 29,
      "imageId": 26,
      "cred": 20,
      "flags": 4,
      "label": "Witchcraft Collector",
      "description": "Acquire all Witchcraft",
      "howto": "Acquire all Witchcraft"
    },
    {
      "id": 30,
      "imageId": 25,
      "cred": 20,
      "flags": 4,
      "label": "The Finer Things",
      "description": "Acquire all equipment",
      "howto": "Acquire all equipment"
    },
    {
      "id": 31,
      "imageId": 24,
      "cred": 15,
      "flags": 4,
      "label": "Light Reading",
      "description": "Acquire a collection item",
      "howto": "Acquire a collection item"
    },
    {
      "id": 32,
      "imageId": 23,
      "cred": 20,
      "flags": 4,
      "label": "Information Junkie",
      "description": "Acquire all collection items",
      "howto": "Acquire all collection items"
    },
    {
      "id": 33,
      "imageId": 22,
      "cred": 15,
      "flags": 4,
      "label": "Blood Spilled",
      "description": "Defeat an enemy",
      "howto": "Defeat an enemy"
    },
    {
      "id": 34,
      "imageId": 21,
      "cred": 20,
      "flags": 4,
      "label": "Blood Bath",
      "description": "Defeat 100 enemies",
      "howto": "Defeat 100 enemies"
    },
    {
      "id": 35,
      "imageId": 20,
      "cred": 25,
      "flags": 4,
      "label": "Bloody Massacre",
      "description": "Defeat 1,000 enemies",
      "howto": "Defeat 1,000 enemies"
    },
    {
      "id": 36,
      "imageId": 19,
      "cred": 15,
      "flags": 4,
      "label": "Executed",
      "description": "Land a Finisher",
      "howto": "Land a Finisher"
    },
    {
      "id": 37,
      "imageId": 18,
      "cred": 15,
      "flags": 4,
      "label": "Skillfully Executed",
      "description": "Land 100 Finishers",
      "howto": "Land 100 Finishers"
    },
    {
      "id": 38,
      "imageId": 17,
      "cred": 20,
      "flags": 4,
      "label": "Expertly Executed",
      "description": "Land 1,000 Finishers",
      "howto": "Land 1,000 Finishers"
    },
    {
      "id": 39,
      "imageId": 16,
      "cred": 20,
      "flags": 4,
      "label": "Elegantly Executed",
      "description": "Land 100 Perfect Finishers",
      "howto": "Land 100 Perfect Finishers"
    },
    {
      "id": 40,
      "imageId": 15,
      "cred": 20,
      "flags": 4,
      "label": "Head Bangin'",
      "description": "Bash the same enemy into a wall five times",
      "howto": "Bash the same enemy into a wall five times"
    },
    {
      "id": 41,
      "imageId": 14,
      "cred": 20,
      "flags": 4,
      "label": "Get 'Em Up",
      "description": "Pick up the same enemy five times",
      "howto": "Pick up the same enemy five times"
    },
    {
      "id": 42,
      "imageId": 13,
      "cred": 20,
      "flags": 4,
      "label": "Nice Try!",
      "description": "Repel an enemy's attack 10 times",
      "howto": "Repel an enemy's attack 10 times"
    },
    {
      "id": 43,
      "imageId": 12,
      "cred": 15,
      "flags": 4,
      "label": "'Tis But a Scratch!",
      "description": "Experience your first revival",
      "howto": "Experience your first revival"
    },
    {
      "id": 44,
      "imageId": 11,
      "cred": 20,
      "flags": 4,
      "label": "It's Just a Flesh Wound!",
      "description": "Revive 50 times",
      "howto": "Revive 50 times"
    },
    {
      "id": 45,
      "imageId": 10,
      "cred": 15,
      "flags": 4,
      "label": "Bodyguard",
      "description": "Save Gretchen from enemy attack",
      "howto": "Save Gretchen from enemy attack"
    },
    {
      "id": 46,
      "imageId": 9,
      "cred": 20,
      "flags": 4,
      "label": "Guardian Knight",
      "description": "Save Gretchen from enemy attack 50 times",
      "howto": "Save Gretchen from enemy attack 50 times"
    },
    {
      "id": 47,
      "imageId": 8,
      "cred": 20,
      "flags": 4,
      "label": "Eye Candy",
      "description": "Use Witch's Embrace when no enemies are present",
      "howto": "Use Witch's Embrace when no enemies are present"
    },
    {
      "id": 48,
      "imageId": 7,
      "cred": 15,
      "flags": 4,
      "label": "I'm Taking You With Me",
      "description": "Damage both yourself and an enemy with Witchcraft",
      "howto": "Damage both yourself and an enemy with Witchcraft"
    },
    {
      "id": 49,
      "imageId": 6,
      "cred": 20,
      "flags": 4,
      "label": "Careful With That!",
      "description": "Damage both yourself and an enemy with Witchcraft 10 times",
      "howto": "Damage both yourself and an enemy with Witchcraft 10 times"
    },
    {
      "id": 50,
      "imageId": 5,
      "cred": 20,
      "flags": 4,
      "label": "Touch Too Much",
      "description": "Carry Gretchen around for a long time",
      "howto": "Carry Gretchen around for a long time"
    }
  ]
}