{
  "achievementsPossible": 16,
  "credPossible": 1000,
  "achievements": [
    {
      "id": 2,
      "imageId": 22,
      "cred": 60,
      "flags": 1,
      "label": "Cash Is King",
      "description": "Earned over $1000",
      "howto": "Earn over $1000 across any of the prisons"
    },
    {
      "id": 3,
      "imageId": 23,
      "cred": 20,
      "flags": 1,
      "label": "Clean Away The Crime",
      "description": "Spent over 20 game hours in the showers.",
      "howto": "Spend a total of over 20 game hours in the showers."
    },
    {
      "id": 4,
      "imageId": 24,
      "cred": 60,
      "flags": 1,
      "label": "Digging It!",
      "description": "Cleared a total of 50 tiles using the Shovel",
      "howto": "Clear a total of 50 tiles using the Shovel"
    },
    {
      "id": 5,
      "imageId": 25,
      "cred": 80,
      "flags": 1,
      "label": "Disrespect My Authority",
      "description": "Knocked out 50 guards.",
      "howto": "Knock unconscious a total of 50 guards."
    },
    {
      "id": 6,
      "imageId": 26,
      "cred": 100,
      "flags": 1,
      "label": "Favour Fave",
      "description": "Completed 100 favours.",
      "howto": "Complete 100 favours successfully across any of the prisons."
    },
    {
      "id": 7,
      "imageId": 27,
      "cred": 40,
      "flags": 1,
      "label": "Grey Matters",
      "description": "Achieved stats over 80 for intellect.",
      "howto": "Achieve stats over 80 for intellect."
    },
    {
      "id": 8,
      "imageId": 28,
      "cred": 20,
      "flags": 1,
      "label": "I Present To you",
      "description": "Gave away 50 items.",
      "howto": "Give away 50 items to inmates and guards."
    },
    {
      "id": 9,
      "imageId": 29,
      "cred": 80,
      "flags": 1,
      "label": "Jobsworth",
      "description": "Hit quota at least once across all job roles.",
      "howto": "Hit quota at least once across all job roles."
    },
    {
      "id": 11,
      "imageId": 30,
      "cred": 60,
      "flags": 1,
      "label": "Let's Get Physical",
      "description": "Achieved stats of over 80 for both Strength and Speed.",
      "howto": "Achieve stats  of over 80 for both Strength and Speed."
    },
    {
      "id": 13,
      "imageId": 31,
      "cred": 60,
      "flags": 1,
      "label": "Man On The Run",
      "description": "Successfully evaded capture after having a Guard Heat of 100.",
      "howto": "With a Guard Heat of 100, successfully evade capture until it returns to zero."
    },
    {
      "id": 14,
      "imageId": 32,
      "cred": 100,
      "flags": 1,
      "label": "Master Craftsman",
      "description": "Crafted all the items available in the game.",
      "howto": "Craft all the items available in the game."
    },
    {
      "id": 15,
      "imageId": 33,
      "cred": 50,
      "flags": 1,
      "label": "Naked Month",
      "description": "Spent 30 days in game time without wearing any outfits.",
      "howto": "Spend 30 days in game time without wearing any outfits."
    },
    {
      "id": 16,
      "imageId": 34,
      "cred": 50,
      "flags": 1,
      "label": "Never Be Alone Again",
      "description": "Attended 100 prison visits.",
      "howto": "Attend 100 visits from outsiders across any of the prisons."
    },
    {
      "id": 17,
      "imageId": 35,
      "cred": 40,
      "flags": 1,
      "label": "Punch Drunk",
      "description": "Knocked out 50 inmates.",
      "howto": "Knock unconscious a total of 50 inmates."
    },
    {
      "id": 18,
      "imageId": 37,
      "cred": 30,
      "flags": 1,
      "label": "The Wet Bandit",
      "description": "Flooded 50 toilets.",
      "howto": "Flood 50 toilets across any of the prisons."
    },
    {
      "id": 20,
      "imageId": 36,
      "cred": 150,
      "flags": 1,
      "label": "The Escapist!",
      "description": "Successfully escaped from all six prisons.",
      "howto": "Successfully escape from all six prisons."
    }
  ]
}