{
  "achievementsPossible": 12,
  "credPossible": 200,
  "achievements": [
    {
      "id": 1,
      "imageId": 1,
      "cred": 10,
      "flags": 1,
      "label": "Mission 1 Clear",
      "description": "Clear the 1st mission.",
      "howto": "Clear the 1st mission."
    },
    {
      "id": 2,
      "imageId": 2,
      "cred": 10,
      "flags": 1,
      "label": "Mission 2 Clear",
      "description": "Clear the 2nd mission.",
      "howto": "Clear the 2nd mission."
    },
    {
      "id": 3,
      "imageId": 3,
      "cred": 10,
      "flags": 1,
      "label": "Mission 3 Clear",
      "description": "Clear the 3rd mission.",
      "howto": "Clear the 3rd mission."
    },
    {
      "id": 4,
      "imageId": 4,
      "cred": 10,
      "flags": 1,
      "label": "Mission 4 Clear",
      "description": "Clear the 4th mission.",
      "howto": "Clear the 4th mission."
    },
    {
      "id": 5,
      "imageId": 5,
      "cred": 10,
      "flags": 1,
      "label": "Mission 5 Clear",
      "description": "Clear the 5th mission.",
      "howto": "Clear the 5th mission."
    },
    {
      "id": 6,
      "imageId": 6,
      "cred": 10,
      "flags": 1,
      "label": "Mission 6 Clear",
      "description": "Clear the 6th mission.",
      "howto": "Clear the 6th mission."
    },
    {
      "id": 7,
      "imageId": 7,
      "cred": 10,
      "flags": 1,
      "label": "Mission 7 Clear",
      "description": "Clear the 7th mission.",
      "howto": "Clear the 7th mission."
    },
    {
      "id": 8,
      "imageId": 8,
      "cred": 30,
      "flags": 1,
      "label": "Mission All Clear",
      "description": "Clear all the missions.",
      "howto": "Clear all the missions."
    },
    {
      "id": 9,
      "imageId": 9,
      "cred": 50,
      "flags": 1,
      "label": "Metal Slug XX Master",
      "description": "Clear all the missions without continue.",
      "howto": "Clear all the missions without continue."
    },
    {
      "id": 10,
      "imageId": 10,
      "cred": 15,
      "flags": 1,
      "label": "Frontal Attack",
      "description": "Use a frontal attack to kill boss.",
      "howto": "Use a frontal attack to kill boss."
    },
    {
      "id": 11,
      "imageId": 11,
      "cred": 15,
      "flags": 1,
      "label": "100 MORDEN Soldiers",
      "description": "The 100 hiden MORDEN soldiers appear.",
      "howto": "The 100 hiden MORDEN soldiers appear."
    },
    {
      "id": 12,
      "imageId": 12,
      "cred": 20,
      "flags": 1,
      "label": "The Paths of Fate",
      "description": "Find all the paths.",
      "howto": "Find all the paths."
    }
  ]
}