{
  "achievementsPossible": 19,
  "credPossible": 1000,
  "achievements": [
    {
      "id": 2,
      "imageId": 1,
      "cred": 10,
      "flags": 4,
      "label": "Master of Foal Herding",
      "description": "Send 16 foals in Foal Herding game",
      "howto": "Send 16 foals in Foal Herding game"
    },
    {
      "id": 3,
      "imageId": 2,
      "cred": 10,
      "flags": 4,
      "label": "Master of Labyrinth",
      "description": "Complete the Labyrinth game in less then 90 seconds ",
      "howto": "Complete the Labyrinth game in less then 90 seconds "
    },
    {
      "id": 4,
      "imageId": 3,
      "cred": 10,
      "flags": 4,
      "label": "Master of Break in the Bull",
      "description": "Stay on horse 25 seconds in Rodeo game",
      "howto": "Stay on horse 25 seconds in Rodeo game"
    },
    {
      "id": 5,
      "imageId": 4,
      "cred": 10,
      "flags": 4,
      "label": "Master of Ball Slalom",
      "description": "Complete the Slalom game in less then 65 seconds",
      "howto": "Complete the Slalom game in less then 65 seconds"
    },
    {
      "id": 6,
      "imageId": 5,
      "cred": 10,
      "flags": 4,
      "label": "Master of Race with Katelyn",
      "description": "Complete the Racing game in less than 70 seconds",
      "howto": "Complete the Racing game in less than 70 seconds"
    },
    {
      "id": 7,
      "imageId": 6,
      "cred": 30,
      "flags": 4,
      "label": "Master of Jumping",
      "description": "Jump 150 fences in Show jumping courses",
      "howto": "Jump 150 fences in Show jumping courses"
    },
    {
      "id": 8,
      "imageId": 7,
      "cred": 30,
      "flags": 4,
      "label": "Master of Dressage",
      "description": "Make 20 dressage figures",
      "howto": "Make 20 dressage figures"
    },
    {
      "id": 9,
      "imageId": 8,
      "cred": 30,
      "flags": 4,
      "label": "Master of Cross-country",
      "description": "Jump 200 obstacles in cross country courses",
      "howto": "Jump 200 obstacles in cross country courses"
    },
    {
      "id": 10,
      "imageId": 9,
      "cred": 40,
      "flags": 4,
      "label": "Wardrobe Items unlocked",
      "description": "Unlock all wardrobe items",
      "howto": "Unlock all wardrobe items"
    },
    {
      "id": 11,
      "imageId": 10,
      "cred": 40,
      "flags": 4,
      "label": "Stable Items Unlocked",
      "description": "Unlock all stable items",
      "howto": "Unlock all stable items"
    },
    {
      "id": 12,
      "imageId": 11,
      "cred": 50,
      "flags": 6,
      "label": "Local Competitions Unlocked",
      "description": "Local competitions unlocked",
      "howto": "Local competitions unlocked"
    },
    {
      "id": 13,
      "imageId": 12,
      "cred": 50,
      "flags": 6,
      "label": "National Competitions Unlocked",
      "description": "National competitions unlocked",
      "howto": "National competitions unlocked"
    },
    {
      "id": 14,
      "imageId": 13,
      "cred": 50,
      "flags": 6,
      "label": "Internat. Competitions Unlocked",
      "description": "International competitions unlocked",
      "howto": "International Competitions Unlocked"
    },
    {
      "id": 15,
      "imageId": 14,
      "cred": 70,
      "flags": 4,
      "label": "Fun Games Expert",
      "description": "Finish fun games 10 times",
      "howto": "Finish fun games 10 times"
    },
    {
      "id": 16,
      "imageId": 15,
      "cred": 60,
      "flags": 4,
      "label": "Grooming Expert",
      "description": "Groom your horse 15 times",
      "howto": "Groom your horse 15 times"
    },
    {
      "id": 17,
      "imageId": 16,
      "cred": 80,
      "flags": 4,
      "label": "Trainings Expert ",
      "description": "Get a perfect score in training events",
      "howto": "Get a perfect score in training events"
    },
    {
      "id": 18,
      "imageId": 17,
      "cred": 90,
      "flags": 1,
      "label": "Real Champion",
      "description": "Collect 8 gold trophiess",
      "howto": "Collect 8 gold trophies"
    },
    {
      "id": 19,
      "imageId": 18,
      "cred": 140,
      "flags": 1,
      "label": "Game Finished on Amateur",
      "description": "Complete the entire game on Amateur difficulty",
      "howto": "Complete the entire game on Amateur difficulty"
    },
    {
      "id": 20,
      "imageId": 19,
      "cred": 190,
      "flags": 1,
      "label": "Game Finished on Professional",
      "description": "Complete the entire game on Professional difficulty",
      "howto": "Complete the entire game on Professional difficulty"
    }
  ]
}