{
  "achievementsPossible": 50,
  "credPossible": 1000,
  "achievements": [
    {
      "id": 1,
      "imageId": 1,
      "cred": 5,
      "flags": 6,
      "label": "New Champion",
      "description": "Rise to the pinnacle of the Colosseum.",
      "howto": "Rise to the pinnacle of the Colosseum."
    },
    {
      "id": 2,
      "imageId": 2,
      "cred": 5,
      "flags": 6,
      "label": "Ally of Earth",
      "description": "Form an alliance with Melkizekiah, the Great Forest.",
      "howto": "Form an alliance with Melkizekiah, the Great Forest."
    },
    {
      "id": 3,
      "imageId": 3,
      "cred": 5,
      "flags": 6,
      "label": "Ally of Fire",
      "description": "Form an alliance with Phoenixion, Mountain of the Firebird.",
      "howto": "Form an alliance with Phoenixion, Mountain of the Firebird."
    },
    {
      "id": 5,
      "imageId": 4,
      "cred": 5,
      "flags": 6,
      "label": "Ally of Water",
      "description": "Form an alliance with Blumeer, Country of Mist.",
      "howto": "Form an alliance with Blumeer, Country of Mist."
    },
    {
      "id": 6,
      "imageId": 5,
      "cred": 5,
      "flags": 6,
      "label": "Ally of Air",
      "description": "Form an alliance with Batuan, the Golden Desert.",
      "howto": "Form an alliance with Batuan, the Golden Desert."
    },
    {
      "id": 7,
      "imageId": 6,
      "cred": 10,
      "flags": 6,
      "label": "First Trial Clear",
      "description": "Pass the trial of Venice, Fountain of the Stars.",
      "howto": "Pass the trial of Venice, Fountain of the Stars."
    },
    {
      "id": 8,
      "imageId": 7,
      "cred": 10,
      "flags": 6,
      "label": "Second Trial Clear",
      "description": "Pass the trial of Kaningun, Tower of the Moon.",
      "howto": "Pass the trial of Kaningun, Tower of the Moon."
    },
    {
      "id": 9,
      "imageId": 8,
      "cred": 10,
      "flags": 6,
      "label": "Third Trial Clear",
      "description": "Pass the trial of Provedin, Palace of the Sun.",
      "howto": "Pass the trial of Provedin, Palace of the Sun."
    },
    {
      "id": 10,
      "imageId": 9,
      "cred": 20,
      "flags": 6,
      "label": "Path to Light",
      "description": "At the Altar of Light, become the ultimate Cepter.",
      "howto": "At the Altar of Light, become the ultimate Cepter."
    },
    {
      "id": 11,
      "imageId": 10,
      "cred": 20,
      "flags": 6,
      "label": "Path to Darkness",
      "description": "At the Altar of Darkness, become the ultimate Cepter.",
      "howto": "At the Altar of Darkness, become the ultimate Cepter."
    },
    {
      "id": 12,
      "imageId": 11,
      "cred": 20,
      "flags": 6,
      "label": "Path to Blessing",
      "description": "Upon the Stairway to the Gods, become the creator of a new world.",
      "howto": "Upon the Stairway to the Gods, become the creator of a new world."
    },
    {
      "id": 13,
      "imageId": 12,
      "cred": 20,
      "flags": 4,
      "label": "Master of Fire",
      "description": "Obtain all fire element creature cards besides E cards.",
      "howto": "Obtain all fire element creature cards besides E cards."
    },
    {
      "id": 14,
      "imageId": 13,
      "cred": 20,
      "flags": 4,
      "label": "Master of Water",
      "description": "Obtain all water element creature cards besides E cards.",
      "howto": "Obtain all water element creature cards besides E cards."
    },
    {
      "id": 15,
      "imageId": 14,
      "cred": 20,
      "flags": 4,
      "label": "Master of Earth",
      "description": "Obtain all earth element creature cards besides E cards.",
      "howto": "Obtain all earth element creature cards besides E cards."
    },
    {
      "id": 16,
      "imageId": 15,
      "cred": 20,
      "flags": 4,
      "label": "Master of Air",
      "description": "Obtain all air element creature cards besides E cards.",
      "howto": "Obtain all air element creature cards besides E cards."
    },
    {
      "id": 17,
      "imageId": 16,
      "cred": 20,
      "flags": 4,
      "label": "Creature Scholar",
      "description": "Obtain all creature cards besides E cards.",
      "howto": "Obtain all creature cards besides E cards."
    },
    {
      "id": 18,
      "imageId": 17,
      "cred": 20,
      "flags": 4,
      "label": "Spell Scholar",
      "description": "Obtain all spell cards besides E cards.",
      "howto": "Obtain all spell cards besides E cards."
    },
    {
      "id": 19,
      "imageId": 18,
      "cred": 20,
      "flags": 4,
      "label": "Item Scholar",
      "description": "Obtain all item cards besides E cards.",
      "howto": "Obtain all item cards besides E cards."
    },
    {
      "id": 20,
      "imageId": 19,
      "cred": 20,
      "flags": 4,
      "label": "Truth Seeker",
      "description": "Obtain all cards besides E cards.",
      "howto": "Obtain all cards besides E cards."
    },
    {
      "id": 21,
      "imageId": 20,
      "cred": 80,
      "flags": 4,
      "label": "Avid Collector",
      "description": "Obtain all avatar parts.",
      "howto": "Obtain all avatar parts."
    },
    {
      "id": 22,
      "imageId": 21,
      "cred": 30,
      "flags": 4,
      "label": "Fated Traveler",
      "description": "Encounter all characters.",
      "howto": "Encounter all characters."
    },
    {
      "id": 23,
      "imageId": 22,
      "cred": 20,
      "flags": 4,
      "label": "Worldly Scholar",
      "description": "Obtain 500 cards.",
      "howto": "Obtain 500 cards."
    },
    {
      "id": 24,
      "imageId": 23,
      "cred": 30,
      "flags": 4,
      "label": "Universal Scholar",
      "description": "Obtain 1000 cards.",
      "howto": "Obtain 1000 cards."
    },
    {
      "id": 25,
      "imageId": 24,
      "cred": 30,
      "flags": 4,
      "label": "Dragon Lord",
      "description": "Achieve victory with all the dragons deployed at the same time.",
      "howto": "Achieve victory with all the dragons deployed at the same time."
    },
    {
      "id": 26,
      "imageId": 25,
      "cred": 40,
      "flags": 4,
      "label": "Machine Lord",
      "description": "Achieve victory with three Gearions deployed at the same time.",
      "howto": "Achieve victory with three Gearions deployed at the same time."
    },
    {
      "id": 27,
      "imageId": 26,
      "cred": 40,
      "flags": 4,
      "label": "Idol Lord",
      "description": "Deploy all the idols at once.",
      "howto": "Deploy all the idols at once."
    },
    {
      "id": 28,
      "imageId": 27,
      "cred": 20,
      "flags": 4,
      "label": "Ogre Lord",
      "description": "Achieve victory with all the ogres deployed at the same time.",
      "howto": "Achieve victory with all the ogres deployed at the same time."
    },
    {
      "id": 29,
      "imageId": 28,
      "cred": 30,
      "flags": 4,
      "label": "King of Thieves",
      "description": "Steal 300G or more of magic in one Bandit attack and achieve victory.",
      "howto": "Steal 300G or more of magic in one Bandit attack and achieve victory."
    },
    {
      "id": 30,
      "imageId": 29,
      "cred": 30,
      "flags": 4,
      "label": "Chief of Goblins",
      "description": "Raise Red Cap's ST and HP to 300 or higher during battle and achieve victory.",
      "howto": "Raise Red Cap's ST and HP to 300 or higher during battle and achieve victory."
    },
    {
      "id": 31,
      "imageId": 30,
      "cred": 20,
      "flags": 4,
      "label": "Disciple of Justice",
      "description": "Steal territory three times with Grass Strider and achieve victory.",
      "howto": "Steal territory three times with Grass Strider and achieve victory."
    },
    {
      "id": 32,
      "imageId": 31,
      "cred": 20,
      "flags": 4,
      "label": "Surveyor of Fire",
      "description": "Make all lands fire element and achieve victory.",
      "howto": "Make all lands fire element and achieve victory."
    },
    {
      "id": 33,
      "imageId": 32,
      "cred": 20,
      "flags": 4,
      "label": "Surveyor of Water",
      "description": "Make all lands water element and achieve victory.",
      "howto": "Make all lands water element and achieve victory."
    },
    {
      "id": 34,
      "imageId": 33,
      "cred": 20,
      "flags": 4,
      "label": "Surveyor of Earth",
      "description": "Make all lands earth element and achieve victory.",
      "howto": "Make all lands earth element and achieve victory."
    },
    {
      "id": 35,
      "imageId": 34,
      "cred": 20,
      "flags": 4,
      "label": "Surveyor of Air",
      "description": "Make all lands air element and achieve victory.",
      "howto": "Make all lands air element and achieve victory."
    },
    {
      "id": 36,
      "imageId": 35,
      "cred": 15,
      "flags": 4,
      "label": "Kin to Fire",
      "description": "Using a book with only fire creatures, obtain a total magic of 10,000G or more and achieve victory.",
      "howto": "Using a book with only fire creatures, obtain a total magic of 10,000G or more and achieve victory."
    },
    {
      "id": 37,
      "imageId": 36,
      "cred": 15,
      "flags": 4,
      "label": "Kin to Water",
      "description": "Using a book with only water creatures, obtain a total magic of 10,000G or more and achieve victory.",
      "howto": "Using a book with only water creatures, obtain a total magic of 10,000G or more and achieve victory."
    },
    {
      "id": 38,
      "imageId": 37,
      "cred": 15,
      "flags": 4,
      "label": "Kin to Earth",
      "description": "Using a book with only earth creatures, obtain a total magic of 10,000G or more and achieve victory.",
      "howto": "Using a book with only earth creatures, obtain a total magic of 10,000G or more and achieve victory."
    },
    {
      "id": 39,
      "imageId": 38,
      "cred": 15,
      "flags": 4,
      "label": "Kin to Air",
      "description": "Using a book with only air creatures, obtain a total magic of 10,000G or more and achieve victory.",
      "howto": "Using a book with only air creatures, obtain a total magic of 10,000G or more and achieve victory."
    },
    {
      "id": 40,
      "imageId": 39,
      "cred": 5,
      "flags": 6,
      "label": "Triangular Battler",
      "description": "Play an online match with 3 players.",
      "howto": "Play an online match with 3 players."
    },
    {
      "id": 41,
      "imageId": 40,
      "cred": 5,
      "flags": 6,
      "label": "Quadrangular Battler",
      "description": "Play an online match with 4 players.",
      "howto": "Play an online match with 4 players."
    },
    {
      "id": 42,
      "imageId": 41,
      "cred": 5,
      "flags": 6,
      "label": "Alliance Maker",
      "description": "Play a 2 vs. 2 alliance match online.",
      "howto": "Play a 2 vs. 2 alliance match online."
    },
    {
      "id": 43,
      "imageId": 42,
      "cred": 5,
      "flags": 4,
      "label": "Neophyte Cepter",
      "description": "Win an online match.",
      "howto": "Win an online match."
    },
    {
      "id": 44,
      "imageId": 43,
      "cred": 10,
      "flags": 4,
      "label": "Apprentice Cepter",
      "description": "Win 10 online matches.",
      "howto": "Win 10 online matches."
    },
    {
      "id": 45,
      "imageId": 44,
      "cred": 15,
      "flags": 4,
      "label": "Adept Cepter",
      "description": "Win 30 online matches.",
      "howto": "Win 30 online matches."
    },
    {
      "id": 46,
      "imageId": 45,
      "cred": 20,
      "flags": 4,
      "label": "Master Cepter",
      "description": "Win 50 online matches.",
      "howto": "Win 50 online matches."
    },
    {
      "id": 47,
      "imageId": 46,
      "cred": 30,
      "flags": 4,
      "label": "Grandmaster Cepter",
      "description": "Win 100 online matches.",
      "howto": "Win 100 online matches."
    },
    {
      "id": 48,
      "imageId": 47,
      "cred": 60,
      "flags": 4,
      "label": "Legendary Cepter",
      "description": "Win 200 online matches.",
      "howto": "Win 200 online matches."
    },
    {
      "id": 49,
      "imageId": 48,
      "cred": 10,
      "flags": 4,
      "label": "Fighter's Honor",
      "description": "Win 3 consecutive online matches.",
      "howto": "Win 3 consecutive online matches."
    },
    {
      "id": 50,
      "imageId": 49,
      "cred": 20,
      "flags": 4,
      "label": "Knight's Honor",
      "description": "Win 5 consecutive online matches.",
      "howto": "Win 5 consecutive online matches."
    },
    {
      "id": 51,
      "imageId": 50,
      "cred": 30,
      "flags": 4,
      "label": "Berserker's Honor",
      "description": "Win 10 consecutive online matches.",
      "howto": "Win 10 consecutive online matches."
    }
  ]
}