{
  "avatarAssetsPossible": 3,
  "maleAvatarAssetsPossible": 1,
  "femaleAvatarAssetsPossible": 1,
  "avatarAssets": [
    {
      "id": "00000008-0001-61a1-c383-7d53584111eb",
      "imageId": 13,
      "subcategory": 0,
      "unknown": 0,
      "isMale": true,
      "isFemale": false,
      "isUnisex": false,
      "label": "OMD Logo Tee",
      "description": "Completed Act 1 of Orcs Must Die!",
      "howto": "Complete Act 1 of Orcs Must Die!"
    },
    {
      "id": "00000008-0001-a1e2-c6fd-9aa4584111eb",
      "imageId": 15,
      "subcategory": 0,
      "unknown": 2015221016,
      "isMale": false,
      "isFemale": true,
      "isUnisex": false,
      "label": "OMD Logo Tee",
      "description": "Completed Act 1 of Orcs Must Die!",
      "howto": "Complete Act 1 of Orcs Must Die!"
    },
    {
      "id": "00000040-0002-e163-ccf1-d634584111eb",
      "imageId": 17,
      "subcategory": 0,
      "unknown": 2015221016,
      "isMale": false,
      "isFemale": false,
      "isUnisex": true,
      "label": "OMD Skull Hat",
      "description": "Killed 1,000 enemies in Orcs Must Die!",
      "howto": "Kill 1,000 enemies in Orcs Must Die!"
    }
  ]
}