{
  "achievementsPossible": 71,
  "credPossible": 1700,
  "achievements": [
    {
      "id": 1,
      "imageId": 11,
      "cred": 15,
      "flags": 1,
      "label": "Death to Dictators",
      "description": "Take down Castro with a headshot.",
      "howto": "Take down Castro with a headshot."
    },
    {
      "id": 2,
      "imageId": 34,
      "cred": 10,
      "flags": 1,
      "label": "Sacrifice ",
      "description": "Ensure your squad escapes safely from Cuba.",
      "howto": "Ensure your squad escapes safely from Cuba."
    },
    {
      "id": 3,
      "imageId": 26,
      "cred": 25,
      "flags": 1,
      "label": "Vehicular Slaughter",
      "description": "Destroy all enemies on vehicles during the prison break.",
      "howto": "Destroy all enemies on vehicles during the prison break."
    },
    {
      "id": 4,
      "imageId": 25,
      "cred": 15,
      "flags": 1,
      "label": "Slingshot Kid ",
      "description": "Destroy all slingshot targets in 3 attempts.",
      "howto": "Destroy all slingshot targets in 3 attempts."
    },
    {
      "id": 5,
      "imageId": 44,
      "cred": 10,
      "flags": 1,
      "label": "Give me liberty",
      "description": "Escape Vorkuta.",
      "howto": "Escape Vorkuta."
    },
    {
      "id": 6,
      "imageId": 41,
      "cred": 10,
      "flags": 1,
      "label": "VIP",
      "description": "Receive orders from Lancer.",
      "howto": "Receive orders from Lancer."
    },
    {
      "id": 7,
      "imageId": 35,
      "cred": 10,
      "flags": 1,
      "label": "A safer place",
      "description": "Sabotage the Soviet space program.",
      "howto": "Sabotage the Soviet space program."
    },
    {
      "id": 8,
      "imageId": 17,
      "cred": 15,
      "flags": 1,
      "label": "Tough Economy",
      "description": "Use no more than 6 TOW guided missiles to destroy the tanks in the defense of Khe Sanh.",
      "howto": "Use no more than 6 TOW guided missiles to destroy the tanks in the defense of Khe Sanh."
    },
    {
      "id": 9,
      "imageId": 39,
      "cred": 10,
      "flags": 1,
      "label": "Looks don't count",
      "description": "Break the siege in the battle of Khe Sanh.",
      "howto": "Break the siege in the battle of Khe Sanh."
    },
    {
      "id": 10,
      "imageId": 15,
      "cred": 15,
      "flags": 1,
      "label": "Raining Pain",
      "description": "Rack up a body count of 20 NVA using air support in Hue City.",
      "howto": "Rack up a body count of 20 NVA using air support in Hue City."
    },
    {
      "id": 11,
      "imageId": 16,
      "cred": 15,
      "flags": 1,
      "label": "The Dragon Within",
      "description": "Kill 10 NVA with Dragon's Breath rounds.",
      "howto": "Kill 10 NVA with Dragon's Breath rounds."
    },
    {
      "id": 12,
      "imageId": 37,
      "cred": 10,
      "flags": 1,
      "label": "SOG Rules",
      "description": "Retrieve the dossier and the defector from Hue City.",
      "howto": "Retrieve the dossier and the defector from Hue City."
    },
    {
      "id": 13,
      "imageId": 9,
      "cred": 15,
      "flags": 1,
      "label": "Heavy Hand",
      "description": "Use the Grim Reaper to destroy the MG emplacement.",
      "howto": "Use the Grim Reaper to destroy the MG emplacement."
    },
    {
      "id": 14,
      "imageId": 10,
      "cred": 15,
      "flags": 1,
      "label": "Up close and personal",
      "description": "Silently take out 3 VC.",
      "howto": "Silently take out 3 VC."
    },
    {
      "id": 15,
      "imageId": 18,
      "cred": 10,
      "flags": 1,
      "label": "Double Trouble",
      "description": "Use only dual wield weapons to escape Kowloon.",
      "howto": "Use only dual wield weapons to escape Kowloon."
    },
    {
      "id": 16,
      "imageId": 40,
      "cred": 10,
      "flags": 1,
      "label": "Broken English",
      "description": "Escape Kowloon.",
      "howto": "Escape Kowloon."
    },
    {
      "id": 17,
      "imageId": 23,
      "cred": 25,
      "flags": 1,
      "label": "Lord Nelson",
      "description": "Destroy all targets and structures while making your way up the river.",
      "howto": "Destroy all targets and structures while making your way up the river."
    },
    {
      "id": 18,
      "imageId": 42,
      "cred": 10,
      "flags": 1,
      "label": "Never get off the boat",
      "description": "Find the Soviet connection in Laos.",
      "howto": "Find the Soviet connection in Laos."
    },
    {
      "id": 19,
      "imageId": 28,
      "cred": 50,
      "flags": 1,
      "label": "Pathfinder",
      "description": "Guide the squad through the Soviet outpost without them getting killed.",
      "howto": "Guide the squad through the Soviet outpost without them getting killed."
    },
    {
      "id": 20,
      "imageId": 27,
      "cred": 50,
      "flags": 1,
      "label": "Mr. Black OP",
      "description": "Enter the Soviet relay station undetected.",
      "howto": "Enter the Soviet relay station undetected."
    },
    {
      "id": 21,
      "imageId": 20,
      "cred": 25,
      "flags": 1,
      "label": "With extreme prejudice",
      "description": "Get to the POW compound in the Hind using only rockets.",
      "howto": "Get to the POW compound in the Hind using only rockets."
    },
    {
      "id": 22,
      "imageId": 19,
      "cred": 15,
      "flags": 1,
      "label": "Russian bar-b-q",
      "description": "Incinerate 10 enemies with the flamethrower attachment in the POW compound.",
      "howto": "Incinerate 10 enemies with the flamethrower attachment in the POW compound."
    },
    {
      "id": 23,
      "imageId": 14,
      "cred": 30,
      "flags": 1,
      "label": "Light Foot",
      "description": "Escape the ship with 2:15 left on the timer in Veteran.",
      "howto": "Escape the ship with 2:15 left on the timer in Veteran."
    },
    {
      "id": 24,
      "imageId": 36,
      "cred": 10,
      "flags": 1,
      "label": "Some wounds never heal",
      "description": "Escape the Past.",
      "howto": "Escape the Past."
    },
    {
      "id": 25,
      "imageId": 21,
      "cred": 15,
      "flags": 1,
      "label": "I hate monkeys",
      "description": "Kill 7 monkeys in under 10 seconds in the Rebirth labs.",
      "howto": "Kill 7 monkeys in under 10 seconds in the Rebirth labs."
    },
    {
      "id": 26,
      "imageId": 22,
      "cred": 50,
      "flags": 1,
      "label": "No Leaks",
      "description": "Make it through the NOVA 6 gas without dying on Rebirth Island.",
      "howto": "Make it through the NOVA 6 gas without dying on Rebirth Island."
    },
    {
      "id": 27,
      "imageId": 38,
      "cred": 10,
      "flags": 1,
      "label": "Clarity",
      "description": "Crack the code.",
      "howto": "Crack the code."
    },
    {
      "id": 28,
      "imageId": 24,
      "cred": 15,
      "flags": 1,
      "label": "Double Whammy",
      "description": "Destroy both helicopters with one Valkyrie rocket from the deck of the ship.",
      "howto": "Destroy both helicopters with one Valkyrie rocket from the deck of the ship."
    },
    {
      "id": 29,
      "imageId": 43,
      "cred": 35,
      "flags": 1,
      "label": "Stand Down",
      "description": "Complete the campaign on any difficulty.",
      "howto": "Complete the campaign on any difficulty."
    },
    {
      "id": 30,
      "imageId": 7,
      "cred": 100,
      "flags": 1,
      "label": "BLACK OP MASTER",
      "description": "Complete the campaign on Hardened or Veteran difficulty.",
      "howto": "Complete the campaign on Hardened or Veteran difficulty."
    },
    {
      "id": 31,
      "imageId": 6,
      "cred": 15,
      "flags": 1,
      "label": "Frag Master",
      "description": "Kill 5 enemies with a single frag grenade in the campaign.",
      "howto": "Kill 5 enemies with a single frag grenade in the campaign."
    },
    {
      "id": 32,
      "imageId": 8,
      "cred": 15,
      "flags": 1,
      "label": "Sally Likes Blood",
      "description": "Demonstrate killer economic sensibilities by taking down 3 enemies with a single bullet.",
      "howto": "Demonstrate killer economic sensibilities by taking down 3 enemies with a single bullet."
    },
    {
      "id": 33,
      "imageId": 4,
      "cred": 15,
      "flags": 1,
      "label": "Unconventional Warfare",
      "description": "Use the explosive bolts to kill 30 enemies in the campaign.",
      "howto": "Use the explosive bolts to kill 30 enemies in the campaign."
    },
    {
      "id": 34,
      "imageId": 29,
      "cred": 25,
      "flags": 1,
      "label": "Cold Warrior",
      "description": "Complete \"Operation 40,\" \"Vorkuta,\" and \"Executive Order\" on Veteran difficulty.",
      "howto": "Complete \"Operation 40,\" \"Vorkuta,\" and \"Executive Order\" on Veteran difficulty."
    },
    {
      "id": 35,
      "imageId": 31,
      "cred": 25,
      "flags": 1,
      "label": "Down and Dirty",
      "description": "Complete \"SOG\" and \"The Defector\" on Veteran difficulty.",
      "howto": "Complete \"SOG\" and \"The Defector\" on Veteran difficulty."
    },
    {
      "id": 36,
      "imageId": 30,
      "cred": 25,
      "flags": 1,
      "label": "It's your funeral",
      "description": "Complete \"Numbers,\" \"Project Nova,\" and \"Victor Charlie\" on Veteran difficulty.",
      "howto": "Complete \"Numbers,\" \"Project Nova,\" and \"Victor Charlie\" on Veteran difficulty."
    },
    {
      "id": 37,
      "imageId": 32,
      "cred": 25,
      "flags": 1,
      "label": "Not Today",
      "description": "Complete \"Crash Site,\" \"WMD,\" and \"Payback\" on Veteran difficulty.",
      "howto": "Complete \"Crash Site,\" \"WMD,\" and \"Payback\" on Veteran difficulty."
    },
    {
      "id": 38,
      "imageId": 33,
      "cred": 25,
      "flags": 1,
      "label": "Burn Notice",
      "description": "Complete \"Rebirth\" and \"Redemption\" on Veteran difficulty.",
      "howto": "Complete \"Rebirth\" and \"Redemption\" on Veteran difficulty."
    },
    {
      "id": 39,
      "imageId": 5,
      "cred": 15,
      "flags": 1,
      "label": "Closer Analysis",
      "description": "Find all the hidden intel.",
      "howto": "Find all the hidden intel."
    },
    {
      "id": 40,
      "imageId": 1,
      "cred": 15,
      "flags": 1,
      "label": "Date Night",
      "description": "Watch a film or clip with a friend.",
      "howto": "Watch a film or clip with a friend."
    },
    {
      "id": 41,
      "imageId": 3,
      "cred": 20,
      "flags": 1,
      "label": "In The Money",
      "description": "Finish 5 Wager Matches \"in the money.\"",
      "howto": "Finish 5 Wager Matches \"in the money.\""
    },
    {
      "id": 42,
      "imageId": 2,
      "cred": 15,
      "flags": 1,
      "label": "Ready For Deployment",
      "description": "Reach rank 10 in Combat Training.",
      "howto": "Reach rank 10 in Combat Training."
    },
    {
      "id": 43,
      "imageId": 48,
      "cred": 20,
      "flags": 1,
      "label": "The Collector",
      "description": "Buy every weapon off the walls in a single Zombies game.",
      "howto": "Buy every weapon off the walls in a single Zombies game."
    },
    {
      "id": 44,
      "imageId": 49,
      "cred": 15,
      "flags": 1,
      "label": "See Me, Stab Me, Heal Me",
      "description": "Fire a Pack-a-Punched Ballistic Knife at a downed ally to revive them from a distance.",
      "howto": "Fire a Pack-a-Punched Ballistic Knife at a downed ally to revive them from a distance."
    },
    {
      "id": 45,
      "imageId": 46,
      "cred": 20,
      "flags": 1,
      "label": "Hands Off the Merchandise",
      "description": "Kill the Pentagon thief before it can steal your load-out.",
      "howto": "Kill the Pentagon thief before it can steal your load-out."
    },
    {
      "id": 46,
      "imageId": 47,
      "cred": 15,
      "flags": 1,
      "label": "Sacrificial Lamb",
      "description": "Shoot at or be shot by an ally with a Pack-a-Punch crossbow and kill six zombies with the explosion.",
      "howto": "Shoot at or be shot by an ally with a Pack-a-Punch crossbow and kill six zombies with the explosion."
    },
    {
      "id": 47,
      "imageId": 50,
      "cred": 5,
      "flags": 1,
      "label": "\"Insert Coin\"",
      "description": "Access the terminal and battle the forces of the Cosmic Silverback in Dead Ops Arcade.",
      "howto": "Access the terminal and battle the forces of the Cosmic Silverback in Dead Ops Arcade."
    },
    {
      "id": 48,
      "imageId": 45,
      "cred": 10,
      "flags": 1,
      "label": "Easy Rhino",
      "description": "In Dead Ops Arcade, use a Speed Boost to blast through 20 or more enemies at one time.",
      "howto": "In Dead Ops Arcade, use a Speed Boost to blast through 20 or more enemies at one time."
    },
    {
      "id": 49,
      "imageId": 12,
      "cred": 15,
      "flags": 1,
      "label": "Just ask me nicely",
      "description": "Break free from the torture chair.",
      "howto": "Break free from the torture chair."
    },
    {
      "id": 50,
      "imageId": 13,
      "cred": 15,
      "flags": 1,
      "label": "Eaten by a Grue",
      "description": "Play Zork on the terminal.",
      "howto": "Play Zork on the terminal."
    },
    {
      "id": 51,
      "imageId": 51,
      "cred": 35,
      "flags": 1,
      "label": "The eagle has landers",
      "description": "In Ascension, escape on all 3 lunar landers.",
      "howto": "In Ascension, escape on all 3 lunar landers."
    },
    {
      "id": 52,
      "imageId": 52,
      "cred": 35,
      "flags": 1,
      "label": "They are going THROUGH!",
      "description": "In Ascension, kill at least 5 zombies with 1 Gersh Device.",
      "howto": "In Ascension, kill at least 5 zombies with 1 Gersh Device."
    },
    {
      "id": 53,
      "imageId": 53,
      "cred": 45,
      "flags": 1,
      "label": "Space Race",
      "description": "In Ascension, Pack-a-Punch a weapon by round 8.",
      "howto": "In Ascension, Pack-a-Punch a weapon by round 8."
    },
    {
      "id": 54,
      "imageId": 54,
      "cred": 35,
      "flags": 1,
      "label": "Chimp on the barbie",
      "description": "In Ascension, kill a space monkey with a fire trap.",
      "howto": "In Ascension, kill a space monkey with a fire trap."
    },
    {
      "id": 55,
      "imageId": 55,
      "cred": 35,
      "flags": 1,
      "label": "Stand-in",
      "description": "In Call of the Dead, send the crew to Paradise in solo or co-op.",
      "howto": "In Call of the Dead, send the crew to Paradise in solo or co-op."
    },
    {
      "id": 56,
      "imageId": 56,
      "cred": 45,
      "flags": 1,
      "label": "Ensemble Cast",
      "description": "In Call of the Dead, send the crew to Paradise in co-op.",
      "howto": "In Call of the Dead, send the crew to Paradise in co-op."
    },
    {
      "id": 57,
      "imageId": 57,
      "cred": 20,
      "flags": 1,
      "label": "Stuntman",
      "description": "In Call of the Dead, make a zombie explode using the V-R11.",
      "howto": "In Call of the Dead, make a zombie explode using the V-R11."
    },
    {
      "id": 58,
      "imageId": 58,
      "cred": 20,
      "flags": 1,
      "label": "Shooting on Location",
      "description": "In Call of the Dead, kill 10 zombies with one Scavenger shot from over 100 feet away.",
      "howto": "In Call of the Dead, kill 10 zombies with one Scavenger shot from over 100 feet away."
    },
    {
      "id": 59,
      "imageId": 59,
      "cred": 30,
      "flags": 1,
      "label": "Quiet on the Set",
      "description": "In Call of the Dead, cut the lights on the Director.",
      "howto": "In Call of the Dead, cut the lights on the Director."
    },
    {
      "id": 60,
      "imageId": 60,
      "cred": 75,
      "flags": 1,
      "label": "Time Travel Will Tell",
      "description": "In Shangri-La, acquire the focusing stone.",
      "howto": "In Shangri-La, acquire the focusing stone."
    },
    {
      "id": 61,
      "imageId": 61,
      "cred": 30,
      "flags": 1,
      "label": "Blinded By the Fright",
      "description": "In Shangri-La, kill a Shrieker zombie while blinded by it.",
      "howto": "In Shangri-La, kill a Shrieker zombie while blinded by it."
    },
    {
      "id": 62,
      "imageId": 62,
      "cred": 30,
      "flags": 1,
      "label": "Zomb Disposal",
      "description": "In Shangri-La, dispose of a Napalm zombie without it harming any players.",
      "howto": "In Shangri-La, dispose of a Napalm zombie without it harming any players."
    },
    {
      "id": 63,
      "imageId": 63,
      "cred": 5,
      "flags": 1,
      "label": "Monkey See, Monkey Don't",
      "description": "In Shangri-La, get something from the monkeys.",
      "howto": "In Shangri-La, get something from the monkeys."
    },
    {
      "id": 64,
      "imageId": 64,
      "cred": 10,
      "flags": 1,
      "label": "Small Consolation",
      "description": "In Shangri-La, use the 31-79 JGb215 on each type of zombie.",
      "howto": "In Shangri-La, use the 31-79 JGb215 on each type of zombie."
    },
    {
      "id": 65,
      "imageId": 66,
      "cred": 75,
      "flags": 1,
      "label": "Cryogenic Slumber Party",
      "description": "In Moon, complete Richtofen's grand scheme.",
      "howto": "In Moon, complete Richtofen's grand scheme."
    },
    {
      "id": 66,
      "imageId": 67,
      "cred": 5,
      "flags": 1,
      "label": "One Small Hack for a Man...",
      "description": "In Moon, hack something.",
      "howto": "In Moon, hack something."
    },
    {
      "id": 67,
      "imageId": 68,
      "cred": 5,
      "flags": 1,
      "label": "One Giant Leap",
      "description": "In Moon, become trapped in the Receiving Area and free yourself through resurrection in co-op.",
      "howto": "In Moon, become trapped in the Receiving Area and free yourself through resurrection in co-op."
    },
    {
      "id": 68,
      "imageId": 69,
      "cred": 30,
      "flags": 1,
      "label": "Perks in Spaaaaace!",
      "description": "In Moon, purchase every perk in one game.",
      "howto": "In Moon, purchase every perk in one game."
    },
    {
      "id": 69,
      "imageId": 70,
      "cred": 25,
      "flags": 1,
      "label": "Fully Armed and Operational",
      "description": "In Moon, acquire 3 pack-a-punched weapons at the same time.",
      "howto": "In Moon, acquire 3 pack-a-punched weapons at the same time."
    },
    {
      "id": 70,
      "imageId": 71,
      "cred": 10,
      "flags": 1,
      "label": "Ground Control",
      "description": "In Moon, prevent each excavator from breaching the base in one game.",
      "howto": "In Moon, prevent each excavator from breaching the base in one game."
    },
    {
      "id": 71,
      "imageId": 72,
      "cred": 100,
      "flags": 1,
      "label": "Big Bang Theory",
      "description": "In Moon, gain sweet, sweet, revenge.",
      "howto": "In Moon, gain sweet, sweet, revenge."
    }
  ]
}