[
  {
    "titleId": 1096157269,
    "largeId": 131072,
    "smallId": 65536,
    "commonId": 0
  },
  {
    "titleId": 1096157269,
    "largeId": 131073,
    "smallId": 65537,
    "commonId": 1
  },
  {
    "titleId": 1096157269,
    "largeId": 131074,
    "smallId": 65538,
    "commonId": 2
  },
  {
    "titleId": 1096157269,
    "largeId": 131075,
    "smallId": 65539,
    "commonId": 3
  },
  {
    "titleId": 1096157269,
    "largeId": 131076,
    "smallId": 65540,
    "commonId": 4
  },
  {
    "titleId": 1096157269,
    "largeId": 131077,
    "smallId": 65541,
    "commonId": 5
  },
  {
    "titleId": 1096157269,
    "largeId": 131078,
    "smallId": 65542,
    "commonId": 6
  },
  {
    "titleId": 1096157269,
    "largeId": 131079,
    "smallId": 65543,
    "commonId": 7
  },
  {
    "titleId": 1096157269,
    "largeId": 132096,
    "smallId": 66560,
    "commonId": 1024
  },
  {
    "titleId": 1096157269,
    "largeId": 132097,
    "smallId": 66561,
    "commonId": 1025
  },
  {
    "titleId": 1096157269,
    "largeId": 132098,
    "smallId": 66562,
    "commonId": 1026
  },
  {
    "titleId": 1096157269,
    "largeId": 132099,
    "smallId": 66563,
    "commonId": 1027
  },
  {
    "titleId": 1096157269,
    "largeId": 132100,
    "smallId": 66564,
    "commonId": 1028
  },
  {
    "titleId": 1096157269,
    "largeId": 132101,
    "smallId": 66565,
    "commonId": 1029
  },
  {
    "titleId": 1096157269,
    "largeId": 132102,
    "smallId": 66566,
    "commonId": 1030
  },
  {
    "titleId": 1096157269,
    "largeId": 132103,
    "smallId": 66567,
    "commonId": 1031
  },
  {
    "titleId": 1096157269,
    "largeId": 132104,
    "smallId": 66568,
    "commonId": 1032
  },
  {
    "titleId": 1096157269,
    "largeId": 132105,
    "smallId": 66569,
    "commonId": 1033
  },
  {
    "titleId": 1096157269,
    "largeId": 132106,
    "smallId": 66570,
    "commonId": 1034
  },
  {
    "titleId": 1096157269,
    "largeId": 132107,
    "smallId": 66571,
    "commonId": 1035
  },
  {
    "titleId": 1096157269,
    "largeId": 132108,
    "smallId": 66572,
    "commonId": 1036
  },
  {
    "titleId": 1096157269,
    "largeId": 132109,
    "smallId": 66573,
    "commonId": 1037
  },
  {
    "titleId": 1096157269,
    "largeId": 132110,
    "smallId": 66574,
    "commonId": 1038
  },
  {
    "titleId": 1096157269,
    "largeId": 132111,
    "smallId": 66575,
    "commonId": 1039
  },
  {
    "titleId": 1096157269,
    "largeId": 132112,
    "smallId": 66576,
    "commonId": 1040
  },
  {
    "titleId": 1096157269,
    "largeId": 132113,
    "smallId": 66577,
    "commonId": 1041
  },
  {
    "titleId": 1096157269,
    "largeId": 132114,
    "smallId": 66578,
    "commonId": 1042
  },
  {
    "titleId": 1096157269,
    "largeId": 132115,
    "smallId": 66579,
    "commonId": 1043
  },
  {
    "titleId": 1096157269,
    "largeId": 132116,
    "smallId": 66580,
    "commonId": 1044
  },
  {
    "titleId": 1096157269,
    "largeId": 132117,
    "smallId": 66581,
    "commonId": 1045
  },
  {
    "titleId": 1096157269,
    "largeId": 132118,
    "smallId": 66582,
    "commonId": 1046
  },
  {
    "titleId": 1096157269,
    "largeId": 132119,
    "smallId": 66583,
    "commonId": 1047
  },
  {
    "titleId": 1096157269,
    "largeId": 132120,
    "smallId": 66584,
    "commonId": 1048
  },
  {
    "titleId": 1096157269,
    "largeId": 132121,
    "smallId": 66585,
    "commonId": 1049
  },
  {
    "titleId": 1096157269,
    "largeId": 132122,
    "smallId": 66586,
    "commonId": 1050
  },
  {
    "titleId": 1096157269,
    "largeId": 132123,
    "smallId": 66587,
    "commonId": 1051
  },
  {
    "titleId": 1096157269,
    "largeId": 132124,
    "smallId": 66588,
    "commonId": 1052
  },
  {
    "titleId": 1096157269,
    "largeId": 132125,
    "smallId": 66589,
    "commonId": 1053
  },
  {
    "titleId": 1096157269,
    "largeId": 132126,
    "smallId": 66590,
    "commonId": 1054
  },
  {
    "titleId": 1096157269,
    "largeId": 132127,
    "smallId": 66591,
    "commonId": 1055
  },
  {
    "titleId": 1096157269,
    "largeId": 132128,
    "smallId": 66592,
    "commonId": 1056
  },
  {
    "titleId": 1096157269,
    "largeId": 132129,
    "smallId": 66593,
    "commonId": 1057
  },
  {
    "titleId": 1096157269,
    "largeId": 132130,
    "smallId": 66594,
    "commonId": 1058
  },
  {
    "titleId": 1096157269,
    "largeId": 132131,
    "smallId": 66595,
    "commonId": 1059
  },
  {
    "titleId": 1096157269,
    "largeId": 132132,
    "smallId": 66596,
    "commonId": 1060
  },
  {
    "titleId": 1096157269,
    "largeId": 132133,
    "smallId": 66597,
    "commonId": 1061
  },
  {
    "titleId": 1096157269,
    "largeId": 132134,
    "smallId": 66598,
    "commonId": 1062
  },
  {
    "titleId": 1096157269,
    "largeId": 132135,
    "smallId": 66599,
    "commonId": 1063
  },
  {
    "titleId": 1096157269,
    "largeId": 132136,
    "smallId": 66600,
    "commonId": 1064
  },
  {
    "titleId": 1096157269,
    "largeId": 132137,
    "smallId": 66601,
    "commonId": 1065
  },
  {
    "titleId": 1096157269,
    "largeId": 132138,
    "smallId": 66602,
    "commonId": 1066
  },
  {
    "titleId": 1096157269,
    "largeId": 132139,
    "smallId": 66603,
    "commonId": 1067
  },
  {
    "titleId": 1096157269,
    "largeId": 132140,
    "smallId": 66604,
    "commonId": 1068
  },
  {
    "titleId": 1096157269,
    "largeId": 132141,
    "smallId": 66605,
    "commonId": 1069
  },
  {
    "titleId": 1096157269,
    "largeId": 132142,
    "smallId": 66606,
    "commonId": 1070
  },
  {
    "titleId": 1096157269,
    "largeId": 132143,
    "smallId": 66607,
    "commonId": 1071
  },
  {
    "titleId": 1096157269,
    "largeId": 132144,
    "smallId": 66608,
    "commonId": 1072
  },
  {
    "titleId": 1096157269,
    "largeId": 132145,
    "smallId": 66609,
    "commonId": 1073
  }
]