{
  "achievementsPossible": 60,
  "credPossible": 1245,
  "achievements": [
    {
      "id": 1,
      "imageId": 11,
      "cred": 50,
      "flags": 1,
      "label": "What A Trip!",
      "description": "Complete the game.",
      "howto": "Complete the game."
    },
    {
      "id": 2,
      "imageId": 9,
      "cred": 25,
      "flags": 1,
      "label": "The Narapela Massacre",
      "description": "Kill 100 zombies in total.",
      "howto": "Kill 100 zombies in total."
    },
    {
      "id": 3,
      "imageId": 10,
      "cred": 10,
      "flags": 1,
      "label": "Learn The Ropes",
      "description": "Acquire the rope.",
      "howto": "Acquire the rope."
    },
    {
      "id": 5,
      "imageId": 43,
      "cred": 50,
      "flags": 1,
      "label": "And Back Again",
      "description": "Complete new game+.",
      "howto": "Complete new game+."
    },
    {
      "id": 6,
      "imageId": 44,
      "cred": 25,
      "flags": 1,
      "label": "Undercover",
      "description": "Complete the prologue.",
      "howto": "Complete the prologue."
    },
    {
      "id": 7,
      "imageId": 45,
      "cred": 25,
      "flags": 1,
      "label": "Bon Voyage",
      "description": "Complete Mission 1 - Smooth Sailing.",
      "howto": "Complete Mission 1 - Smooth Sailing."
    },
    {
      "id": 8,
      "imageId": 46,
      "cred": 25,
      "flags": 1,
      "label": "Welcome To The Jungle",
      "description": "Complete Mission 2 - One Less Boat.",
      "howto": "Complete Mission 2 - One Less Boat."
    },
    {
      "id": 9,
      "imageId": 47,
      "cred": 25,
      "flags": 1,
      "label": "Hard Rain",
      "description": "Complete Mission 3 - Echoes.",
      "howto": "Complete Mission 3 - Echoes."
    },
    {
      "id": 10,
      "imageId": 48,
      "cred": 25,
      "flags": 1,
      "label": "A For Effort",
      "description": "Complete Mission 4 - Marathon.",
      "howto": "Complete Mission 4 - Marathon."
    },
    {
      "id": 11,
      "imageId": 49,
      "cred": 25,
      "flags": 1,
      "label": "Live Together, Die Alone",
      "description": "Complete Mission 5 - A Fighting Chance.",
      "howto": "Complete Mission 5 - A Fighting Chance."
    },
    {
      "id": 12,
      "imageId": 50,
      "cred": 25,
      "flags": 1,
      "label": "Sign Of Good Faith",
      "description": "Complete Mission 6 - Stories of the Dead.",
      "howto": "Complete Mission 6 - Stories of the Dead."
    },
    {
      "id": 13,
      "imageId": 51,
      "cred": 25,
      "flags": 1,
      "label": "Autodefenestration",
      "description": "Complete Mission 7 - Beauty and the Beast.",
      "howto": "Complete Mission 7 - Beauty and the Beast."
    },
    {
      "id": 14,
      "imageId": 52,
      "cred": 25,
      "flags": 1,
      "label": "On The Rocks",
      "description": "Complete Mission 8 - Devan.",
      "howto": "Complete Mission 8 - Devan."
    },
    {
      "id": 15,
      "imageId": 53,
      "cred": 25,
      "flags": 1,
      "label": "Showdown",
      "description": "Complete Mission 9 - Father's Day.",
      "howto": "Complete Mission 9 - Father's Day."
    },
    {
      "id": 16,
      "imageId": 54,
      "cred": 25,
      "flags": 1,
      "label": "Crossing The Rubicon",
      "description": "Complete Mission 10 - Faith.",
      "howto": "Complete Mission 10 - Faith."
    },
    {
      "id": 17,
      "imageId": 55,
      "cred": 25,
      "flags": 1,
      "label": "Mind Over Mind",
      "description": "Complete Mission 11 - Deliverance.",
      "howto": "Complete Mission 11 - Deliverance."
    },
    {
      "id": 18,
      "imageId": 12,
      "cred": 10,
      "flags": 1,
      "label": "Zombie Killing 101",
      "description": "Kill 50 zombies with a melee weapon.",
      "howto": "Kill 50 zombies with a melee weapon."
    },
    {
      "id": 19,
      "imageId": 13,
      "cred": 10,
      "flags": 1,
      "label": "Dead Is Dead",
      "description": "Execute 25 downed zombies.",
      "howto": "Execute 25 downed zombies."
    },
    {
      "id": 20,
      "imageId": 14,
      "cred": 10,
      "flags": 1,
      "label": "Deadly Arts",
      "description": "Stealth kill 25 zombies.",
      "howto": "Stealth kill 25 zombies."
    },
    {
      "id": 21,
      "imageId": 15,
      "cred": 10,
      "flags": 1,
      "label": "Deadeye",
      "description": "Kill 25 zombies with pistol headshots.",
      "howto": "Kill 25 zombies with pistol headshots."
    },
    {
      "id": 22,
      "imageId": 16,
      "cred": 10,
      "flags": 1,
      "label": "Bloodsplosion",
      "description": "Kill 10 zombies with close range shotgun blasts.",
      "howto": "Kill 10 zombies with close range shotgun blasts."
    },
    {
      "id": 23,
      "imageId": 17,
      "cred": 10,
      "flags": 1,
      "label": "Blunt Trauma",
      "description": "Acquire your first melee weapon.",
      "howto": "Acquire your first melee weapon."
    },
    {
      "id": 24,
      "imageId": 18,
      "cred": 10,
      "flags": 1,
      "label": "Hatchet Man",
      "description": "Upgrade your melee weapon.",
      "howto": "Upgrade your melee weapon."
    },
    {
      "id": 25,
      "imageId": 19,
      "cred": 10,
      "flags": 1,
      "label": "A Real Weapon",
      "description": "Upgrade your melee weapon again!",
      "howto": "Upgrade your melee weapon again!"
    },
    {
      "id": 26,
      "imageId": 20,
      "cred": 10,
      "flags": 1,
      "label": "Top Of The Line",
      "description": "Upgrade your melee weapon for the third time. Yeah!",
      "howto": "Upgrade your melee weapon for the third time. Yeah!"
    },
    {
      "id": 27,
      "imageId": 21,
      "cred": 10,
      "flags": 1,
      "label": "Improvised Assassin",
      "description": "Acquire your first stealth kill weapon.",
      "howto": "Acquire your first stealth kill weapon."
    },
    {
      "id": 28,
      "imageId": 22,
      "cred": 10,
      "flags": 1,
      "label": "Cutting Edge",
      "description": "Upgrade your stealth kill weapon.",
      "howto": "Upgrade your stealth kill weapon."
    },
    {
      "id": 29,
      "imageId": 23,
      "cred": 10,
      "flags": 1,
      "label": "Armed And Ready",
      "description": "Acquire the pistol.",
      "howto": "Acquire the pistol."
    },
    {
      "id": 30,
      "imageId": 24,
      "cred": 10,
      "flags": 1,
      "label": "Silent Death",
      "description": "Upgrade the pistol.",
      "howto": "Upgrade the pistol."
    },
    {
      "id": 31,
      "imageId": 25,
      "cred": 10,
      "flags": 1,
      "label": "Buckshot Ballet",
      "description": "Acquire the shotgun.",
      "howto": "Acquire the shotgun."
    },
    {
      "id": 32,
      "imageId": 26,
      "cred": 10,
      "flags": 1,
      "label": "Power To The People",
      "description": "Upgrade the shotgun.",
      "howto": "Upgrade the shotgun."
    },
    {
      "id": 33,
      "imageId": 27,
      "cred": 15,
      "flags": 1,
      "label": "Midair Mutilation",
      "description": "Kill an airborne Bouncer.",
      "howto": "Kill an airborne Bouncer."
    },
    {
      "id": 34,
      "imageId": 28,
      "cred": 15,
      "flags": 1,
      "label": "Right Back At Ya!",
      "description": "Kill 10 Spitters with a ranged weapon.",
      "howto": "Kill 10 Spitters with a ranged weapon."
    },
    {
      "id": 35,
      "imageId": 29,
      "cred": 15,
      "flags": 1,
      "label": "Oh Shut Up!",
      "description": "Kill 5 Sirens while they are screaming.",
      "howto": "Kill 5 Sirens while they are screaming."
    },
    {
      "id": 36,
      "imageId": 37,
      "cred": 10,
      "flags": 1,
      "label": "Anchorman",
      "description": "Acquire the grappling hook.",
      "howto": "Acquire the grappling hook."
    },
    {
      "id": 37,
      "imageId": 38,
      "cred": 10,
      "flags": 1,
      "label": "Through The Mist",
      "description": "Acquire the gas mask.",
      "howto": "Acquire the gas mask."
    },
    {
      "id": 38,
      "imageId": 39,
      "cred": 10,
      "flags": 1,
      "label": "Lightbringer",
      "description": "Acquire the combat flashlight.",
      "howto": "Acquire the combat flashlight."
    },
    {
      "id": 39,
      "imageId": 40,
      "cred": 10,
      "flags": 1,
      "label": "Shutterbug",
      "description": "Acquire the camera.",
      "howto": "Acquire the camera."
    },
    {
      "id": 40,
      "imageId": 60,
      "cred": 10,
      "flags": 1,
      "label": "The Butcher Of Narapela",
      "description": "Kill 10 Butchers.",
      "howto": "Kill 10 Butchers."
    },
    {
      "id": 41,
      "imageId": 42,
      "cred": 10,
      "flags": 1,
      "label": "Voice Com",
      "description": "Acquire the two-way radio.",
      "howto": "Acquire the two-way radio."
    },
    {
      "id": 42,
      "imageId": 30,
      "cred": 25,
      "flags": 1,
      "label": "Super Sleuth",
      "description": "Collect all lost stories.",
      "howto": "Collect all lost stories."
    },
    {
      "id": 43,
      "imageId": 31,
      "cred": 25,
      "flags": 1,
      "label": "Horror Stories",
      "description": "Collect all research logs.",
      "howto": "Collect all research logs."
    },
    {
      "id": 44,
      "imageId": 32,
      "cred": 25,
      "flags": 1,
      "label": "The Puppet Master",
      "description": "Collect all Charon's logs.",
      "howto": "Collect all Charon's logs."
    },
    {
      "id": 45,
      "imageId": 33,
      "cred": 25,
      "flags": 1,
      "label": "Card Collector",
      "description": "Collect all postcards.",
      "howto": "Collect all postcards."
    },
    {
      "id": 46,
      "imageId": 34,
      "cred": 25,
      "flags": 1,
      "label": "What Happened, Happened",
      "description": "Collect all snapshots.",
      "howto": "Collect all snapshots."
    },
    {
      "id": 47,
      "imageId": 35,
      "cred": 10,
      "flags": 1,
      "label": "Locked And Loaded",
      "description": "Collect 25 ammo packs.",
      "howto": "Collect 25 ammo packs."
    },
    {
      "id": 48,
      "imageId": 56,
      "cred": 50,
      "flags": 1,
      "label": "Conviction",
      "description": "Kill 5 enemies in 2 seconds.",
      "howto": "Kill 5 enemies in 2 seconds."
    },
    {
      "id": 49,
      "imageId": 57,
      "cred": 50,
      "flags": 1,
      "label": "Wow Very Ninja Much Sneak",
      "description": "Kill 10 enemies in a row without being detected.",
      "howto": "Kill 10 enemies in a row without being detected."
    },
    {
      "id": 50,
      "imageId": 58,
      "cred": 25,
      "flags": 1,
      "label": "Thrillseeker",
      "description": "Recover to max health from minimum health.",
      "howto": "Recover to max health from minimum health."
    },
    {
      "id": 51,
      "imageId": 59,
      "cred": 50,
      "flags": 1,
      "label": "The Smorgasbord",
      "description": "Injure a single zombie with your melee weapon, the pistol and the shotgun, then stealth kill it.",
      "howto": "Injure a single zombie with your melee weapon, the pistol and the shotgun, then stealth kill it."
    },
    {
      "id": 53,
      "imageId": 61,
      "cred": 25,
      "flags": 1,
      "label": "Deep One",
      "description": "Find all the underground secondary areas",
      "howto": "Find all the underground secondary areas"
    },
    {
      "id": 54,
      "imageId": 62,
      "cred": 25,
      "flags": 1,
      "label": "Lab Rat",
      "description": "Find the underground labs",
      "howto": "Find the underground labs"
    },
    {
      "id": 55,
      "imageId": 63,
      "cred": 50,
      "flags": 1,
      "label": "Praise The Light!",
      "description": "Complete the underground labs",
      "howto": "Complete the underground labs"
    },
    {
      "id": 56,
      "imageId": 64,
      "cred": 10,
      "flags": 1,
      "label": "Lil Slugger",
      "description": "Acquire the walloper",
      "howto": "Acquire the walloper"
    },
    {
      "id": 57,
      "imageId": 65,
      "cred": 10,
      "flags": 1,
      "label": "Duty Calls",
      "description": "Acquire the assault rifle",
      "howto": "Acquire the assault rifle"
    },
    {
      "id": 58,
      "imageId": 66,
      "cred": 25,
      "flags": 1,
      "label": "Hail Mary",
      "description": "Kill 10 enemies at long range with the walloper",
      "howto": "Kill 10 enemies at long range with the walloper"
    },
    {
      "id": 59,
      "imageId": 67,
      "cred": 25,
      "flags": 1,
      "label": "Blaster From The Past",
      "description": "Kill 100 enemies with the assault rifle",
      "howto": "Kill 100 enemies with the assault rifle"
    },
    {
      "id": 60,
      "imageId": 68,
      "cred": 25,
      "flags": 1,
      "label": "Memorial",
      "description": "Collect all of Ronald's logs",
      "howto": "Collect all of Ronald's logs"
    },
    {
      "id": 61,
      "imageId": 69,
      "cred": 25,
      "flags": 1,
      "label": "It's Super Effective!",
      "description": "Kill a Dweller using an environmental hazard",
      "howto": "Kill a Dweller using an environmental hazard"
    },
    {
      "id": 62,
      "imageId": 70,
      "cred": 25,
      "flags": 1,
      "label": "Apex Predator",
      "description": "Stealth kill a Dweller",
      "howto": "Stealth kill a Dweller"
    }
  ]
}