{
  "achievementsPossible": 12,
  "credPossible": 200,
  "achievements": [
    {
      "id": 63,
      "imageId": 21,
      "cred": 20,
      "flags": 4,
      "label": "Still Creek Savior",
      "description": "Saved all the survivors in Still Creek. So much work in such a short stay!",
      "howto": "Save all the survivors in Still Creek."
    },
    {
      "id": 64,
      "imageId": 22,
      "cred": 20,
      "flags": 1,
      "label": "We Ride To Fortune City!",
      "description": "Escaped Still Creek with Katey! But the worst is yet to come...",
      "howto": "Escape Still Creek with Katey."
    },
    {
      "id": 65,
      "imageId": 15,
      "cred": 20,
      "flags": 4,
      "label": "Chop Shop",
      "description": "Defeated Jed The Mechanic, and put an end to his zombie hunting days.",
      "howto": "Defeat Jed the Mechanic."
    },
    {
      "id": 66,
      "imageId": 24,
      "cred": 10,
      "flags": 4,
      "label": "Zombie Hunter",
      "description": "Killed 100 zombies. That was just a warmup, right?",
      "howto": "Kill 100 zombies."
    },
    {
      "id": 67,
      "imageId": 23,
      "cred": 20,
      "flags": 4,
      "label": "Zombie Exterminator",
      "description": "Killed 1,000 zombies. Where do they keep coming from?",
      "howto": "Kill 1,000 zombies."
    },
    {
      "id": 68,
      "imageId": 20,
      "cred": 20,
      "flags": 4,
      "label": "Small Town, Deep Pockets",
      "description": "Spent $100,000 in the pawnshop. You just put Dick's kids through college!",
      "howto": "Spend $100,000 in the pawnshop."
    },
    {
      "id": 69,
      "imageId": 18,
      "cred": 10,
      "flags": 4,
      "label": "Part Way There",
      "description": "Found and returned a bike part, but it's still not road-worthy...",
      "howto": "Find and return a bike part."
    },
    {
      "id": 70,
      "imageId": 19,
      "cred": 20,
      "flags": 4,
      "label": "Ready to Ride",
      "description": "Rebuilt the bike. You're quite the handyman!",
      "howto": "Rebuild the bike."
    },
    {
      "id": 71,
      "imageId": 14,
      "cred": 10,
      "flags": 4,
      "label": "A Taste of Things to Come",
      "description": "Built a combo weapon. Necessity is the father of invention.",
      "howto": "Build a combo weapon."
    },
    {
      "id": 72,
      "imageId": 13,
      "cred": 20,
      "flags": 4,
      "label": "A bigger taste...",
      "description": "Built all available combo weapons. Now take those combo cards into Dead Rising 2!",
      "howto": "Build all available combo weapons."
    },
    {
      "id": 73,
      "imageId": 17,
      "cred": 20,
      "flags": 4,
      "label": "Locksmith",
      "description": "Unlocked all doors in Still Creek. You are the master of unlocking.",
      "howto": "Unlock all the doors in Still Creek."
    },
    {
      "id": 74,
      "imageId": 16,
      "cred": 10,
      "flags": 4,
      "label": "Clueless No More",
      "description": "Purchased a clue from Dick, the pawnshop owner. He drives a hard bargain.",
      "howto": "Purchase a clue from Dick, the pawnshop owner."
    }
  ]
}