{
  "achievementsPossible": 42,
  "credPossible": 1000,
  "achievements": [
    {
      "id": 2,
      "imageId": 1,
      "cred": 15,
      "flags": 4,
      "label": "Do you know your engineer?",
      "description": "Use the Technical Meeting in any Simulation game mode for the first time",
      "howto": "Use the Technical Meeting in any Simulation game mode for the first time"
    },
    {
      "id": 3,
      "imageId": 2,
      "cred": 15,
      "flags": 4,
      "label": "My bike is better than yours",
      "description": "Save a setting in any Simulation game mode for the first time",
      "howto": "Save a setting in any Simulation game mode for the first time"
    },
    {
      "id": 4,
      "imageId": 3,
      "cred": 30,
      "flags": 4,
      "label": "Finding Goblin",
      "description": "Create your rider in Arcade or Simulation, choosing face number 6",
      "howto": "Create your rider in Arcade or Simulation, choosing face number 6"
    },
    {
      "id": 5,
      "imageId": 4,
      "cred": 15,
      "flags": 4,
      "label": "Nice to meet you",
      "description": "Create your first rider in Arcade or Simulation",
      "howto": "Create your first rider in Arcade or Simulation"
    },
    {
      "id": 6,
      "imageId": 5,
      "cred": 40,
      "flags": 4,
      "label": "Worldwide time",
      "description": "In simulation beat all the track records on dry tarmac in Time Attack mode only with SBK® class",
      "howto": "In simulation beat all the track records on dry tarmac in Time Attack mode only with SBK® class"
    },
    {
      "id": 10,
      "imageId": 7,
      "cred": 30,
      "flags": 4,
      "label": "Are you a pro?",
      "description": "Win your first quick race in Simulation with opponents at Real level",
      "howto": "Win your first quick race in Simulation with opponents at Real level"
    },
    {
      "id": 11,
      "imageId": 8,
      "cred": 30,
      "flags": 4,
      "label": "From Naples to London",
      "description": "Ride for at least 2000 km in any game mode, in Arcade and/or Simulation",
      "howto": "Ride for at least 2000 km in any game mode, in Arcade and/or Simulation"
    },
    {
      "id": 12,
      "imageId": 9,
      "cred": 30,
      "flags": 4,
      "label": "The fastest player in the west",
      "description": "Pass the final three chapters of the SBK® Story Mode",
      "howto": "Pass the final three chapters of the SBK® Story Mode"
    },
    {
      "id": 13,
      "imageId": 10,
      "cred": 50,
      "flags": 7,
      "label": "We esteem you",
      "description": "Reach 999 reputation points in Career Mode",
      "howto": "Reach 999 reputation points in Career Mode"
    },
    {
      "id": 14,
      "imageId": 11,
      "cred": 40,
      "flags": 4,
      "label": "Career man",
      "description": "In the same career, win at least one season in STK, WSS™ and SBK® in Career Mode",
      "howto": "In the same career, win at least one season in STK, WSS™ and SBK® in Career Mode"
    },
    {
      "id": 15,
      "imageId": 12,
      "cred": 20,
      "flags": 4,
      "label": "It's a long way to the top",
      "description": "Upgrade all bike components in Career Mode",
      "howto": "Upgrade all bike components in Career Mode"
    },
    {
      "id": 16,
      "imageId": 13,
      "cred": 15,
      "flags": 4,
      "label": "And the winner is...",
      "description": "Beat at least one Special Opponent in Career Mode",
      "howto": "Beat at least one Special Opponent in Career Mode"
    },
    {
      "id": 18,
      "imageId": 50,
      "cred": 15,
      "flags": 4,
      "label": "Your path begins here",
      "description": "Win your first race in Career Mode",
      "howto": "Win your first race in Career Mode"
    },
    {
      "id": 19,
      "imageId": 15,
      "cred": 30,
      "flags": 4,
      "label": "You have the right to retire",
      "description": "Complete Career Mode at least once",
      "howto": "Complete Career Mode at least once"
    },
    {
      "id": 20,
      "imageId": 16,
      "cred": 45,
      "flags": 4,
      "label": "Extra is more than \"normal\"",
      "description": "Unlock all the Extras",
      "howto": "Unlock all the Extras"
    },
    {
      "id": 21,
      "imageId": 17,
      "cred": 15,
      "flags": 4,
      "label": "Tuner time",
      "description": "Unlock your first bike upgrade in Career Mode",
      "howto": "Unlock your first bike upgrade in Career Mode"
    },
    {
      "id": 22,
      "imageId": 18,
      "cred": 15,
      "flags": 4,
      "label": "Do you remember Mister Macaco?",
      "description": "Create a rider called Mister Macaco in Arcade or Simulation",
      "howto": "Create a rider called Mister Macaco in Arcade or Simulation"
    },
    {
      "id": 23,
      "imageId": 19,
      "cred": 25,
      "flags": 4,
      "label": "Not so popular",
      "description": "Lose at least 100 reputation points in Career Mode",
      "howto": "Lose at least 100 reputation points in Career Mode"
    },
    {
      "id": 24,
      "imageId": 20,
      "cred": 45,
      "flags": 4,
      "label": "Your life is a failure",
      "description": "Finish one entire season in Career mode without winning it",
      "howto": "Finish one entire season in Career mode without winning it"
    },
    {
      "id": 35,
      "imageId": 21,
      "cred": 30,
      "flags": 4,
      "label": "Now you have to keep them clean",
      "description": "Win all the cups in Career Mode",
      "howto": "Win all the cups in Career Mode"
    },
    {
      "id": 36,
      "imageId": 6,
      "cred": 20,
      "flags": 4,
      "label": "Sign on the dotted line",
      "description": "Accept an offer by a STK team in Career Mode",
      "howto": "Accept an offer by an STK team in Career Mode"
    },
    {
      "id": 37,
      "imageId": 14,
      "cred": 25,
      "flags": 4,
      "label": "It gets serious",
      "description": "Accept an offer by a SBK® team in Career Mode",
      "howto": "Accept an offer by a SBK® team in Career Mode"
    },
    {
      "id": 38,
      "imageId": 22,
      "cred": 25,
      "flags": 4,
      "label": "What a beautiful tree!",
      "description": "Reach at least one goal in all chapters in the Story Mode",
      "howto": "Reach at least one goal in all chapters in the Story Mode"
    },
    {
      "id": 39,
      "imageId": 23,
      "cred": 25,
      "flags": 7,
      "label": "Congratulations 4 your marriage",
      "description": "In the same Career, sign at least three contracts",
      "howto": "During the same Career sign at least three contracts"
    },
    {
      "id": 40,
      "imageId": 24,
      "cred": 20,
      "flags": 4,
      "label": "Win in one breath!",
      "description": "Win a Quick Championship",
      "howto": "Win a Quick Championship"
    },
    {
      "id": 41,
      "imageId": 25,
      "cred": 15,
      "flags": 4,
      "label": "The first time was quick",
      "description": "Win at least one race in the Quick Championship",
      "howto": "Win at least one race in the Quick Championship"
    },
    {
      "id": 42,
      "imageId": 26,
      "cred": 20,
      "flags": 5,
      "label": "Climb towards success",
      "description": "Reach all podium positions at least once in Simulation in different Quick Races",
      "howto": "Reach all podium positions at least once in Simulation in different Quick Races"
    },
    {
      "id": 43,
      "imageId": 27,
      "cred": 15,
      "flags": 4,
      "label": "Have you ever watched them?",
      "description": "Watch the credits",
      "howto": "Watch the credits"
    },
    {
      "id": 44,
      "imageId": 28,
      "cred": 15,
      "flags": 1,
      "label": "Think for yourself",
      "description": "Watch a replay for the first time",
      "howto": "Watch a replay for the first time"
    },
    {
      "id": 46,
      "imageId": 29,
      "cred": 5,
      "flags": 4,
      "label": "Money well spent",
      "description": "Thanks for purchasing SBK®X",
      "howto": "Thanks for purchasing SBK®X"
    },
    {
      "id": 47,
      "imageId": 31,
      "cred": 20,
      "flags": 1,
      "label": "Rookie of the lobbies",
      "description": "Win your first Championship race on Xbox LIVE",
      "howto": "Win your first Championship race on Xbox LIVE"
    },
    {
      "id": 48,
      "imageId": 32,
      "cred": 30,
      "flags": 3,
      "label": "The first in a long series",
      "description": "Win your first Championship or Crew Championship on Xbox LIVE",
      "howto": "Win your first Championship or Crew Championship on Xbox LIVE"
    },
    {
      "id": 49,
      "imageId": 33,
      "cred": 30,
      "flags": 3,
      "label": "Burn the chronometer",
      "description": "Win a Time Attack on Xbox LIVE",
      "howto": "Win a Time Attack on Xbox LIVE"
    },
    {
      "id": 52,
      "imageId": 34,
      "cred": 15,
      "flags": 4,
      "label": "Quickly online",
      "description": "Win your first Quick Race on Xbox LIVE",
      "howto": "Win your first Quick Race on Xbox LIVE"
    },
    {
      "id": 53,
      "imageId": 37,
      "cred": 15,
      "flags": 4,
      "label": "Failed cheater",
      "description": "In a Quick Race take a disqualification in Simulation",
      "howto": "During a Quick Race take a disqualification in Simulation"
    },
    {
      "id": 55,
      "imageId": 38,
      "cred": 15,
      "flags": 3,
      "label": "Mach 0.28",
      "description": "In Simulation, reach 300 km/h with any bike on any track in any game mode",
      "howto": "In Simulation, reach 300 km/h with any bike on any track in any game mode"
    },
    {
      "id": 56,
      "imageId": 30,
      "cred": 20,
      "flags": 7,
      "label": "Go ahead against the wall",
      "description": "Total a bike in Career Mode",
      "howto": "Total a bike in Career Mode"
    },
    {
      "id": 57,
      "imageId": 40,
      "cred": 25,
      "flags": 1,
      "label": "Rest in pieces",
      "description": "Sustain enough injuries to force your rider into retirement in Career Mode",
      "howto": "Sustain enough injuries to force your rider into retirement in Career Mode"
    },
    {
      "id": 58,
      "imageId": 41,
      "cred": 15,
      "flags": 4,
      "label": "It is not so difficult",
      "description": "Enter the Pit Lane for the first time in any game mode in Arcade or Simulation",
      "howto": "Enter the Pit Lane for the first time in any game mode in Arcade or Simulation"
    },
    {
      "id": 59,
      "imageId": 43,
      "cred": 40,
      "flags": 1,
      "label": "We are tired of your sim!",
      "description": "Win at least one Quick Race with 100% race length in Simulation",
      "howto": "Win at least one Quick Race with 100% race length in Simulation"
    },
    {
      "id": 60,
      "imageId": 44,
      "cred": 25,
      "flags": 1,
      "label": "Step on the gas!",
      "description": "Win your first Quick Race in Arcade",
      "howto": "In Arcade win your first Quick Race"
    },
    {
      "id": 65,
      "imageId": 45,
      "cred": 15,
      "flags": 5,
      "label": "Fashion victim",
      "description": "Win a Race Weekend in Simulation dressing your rider with the Milestone helmet ",
      "howto": "Win a Race Weekend in Simulation dressing your rider with the Milestone helmet "
    }
  ]
}