{
  "achievementsPossible": 17,
  "credPossible": 1000,
  "achievements": [
    {
      "id": 1,
      "imageId": 1,
      "cred": 30,
      "flags": 6,
      "label": "戦国大名織田家",
      "description": "織田家で格式が『戦国大名』になった",
      "howto": "織田家で格式が『戦国大名』になる"
    },
    {
      "id": 2,
      "imageId": 2,
      "cred": 30,
      "flags": 6,
      "label": "戦国大名龍造寺家",
      "description": "龍造寺家で格式が『戦国大名』になった",
      "howto": "龍造寺家で格式が『戦国大名』になる"
    },
    {
      "id": 3,
      "imageId": 3,
      "cred": 30,
      "flags": 6,
      "label": "戦国大名上杉家",
      "description": "上杉家で格式が『戦国大名』になった",
      "howto": "上杉家で格式が『戦国大名』になる"
    },
    {
      "id": 4,
      "imageId": 4,
      "cred": 30,
      "flags": 6,
      "label": "戦国大名毛利家",
      "description": "毛利家で格式が『戦国大名』になった",
      "howto": "毛利家で格式が『戦国大名』になる"
    },
    {
      "id": 5,
      "imageId": 5,
      "cred": 30,
      "flags": 6,
      "label": "戦国大名島津家",
      "description": "島津家で格式が『戦国大名』になった",
      "howto": "島津家で格式が『戦国大名』になる"
    },
    {
      "id": 6,
      "imageId": 6,
      "cred": 30,
      "flags": 6,
      "label": "戦国大名大友家",
      "description": "大友家で格式が『戦国大名』になった",
      "howto": "大友家で格式が『戦国大名』になる"
    },
    {
      "id": 7,
      "imageId": 7,
      "cred": 30,
      "flags": 6,
      "label": "戦国大名伊達家",
      "description": "伊達家で格式が『戦国大名』になった",
      "howto": "伊達家で格式が『戦国大名』になる"
    },
    {
      "id": 8,
      "imageId": 8,
      "cred": 30,
      "flags": 6,
      "label": "戦国大名武田家",
      "description": "武田家で格式が『戦国大名』になった",
      "howto": "武田家で格式が『戦国大名』になる"
    },
    {
      "id": 9,
      "imageId": 9,
      "cred": 80,
      "flags": 1,
      "label": "さらば愛しき国よ！",
      "description": "織田家のシナリオをクリアした",
      "howto": "織田家のシナリオをクリアする"
    },
    {
      "id": 10,
      "imageId": 10,
      "cred": 80,
      "flags": 1,
      "label": "これからも二人で",
      "description": "龍造寺家のシナリオをクリアした",
      "howto": "龍造寺家のシナリオをクリアする"
    },
    {
      "id": 11,
      "imageId": 11,
      "cred": 80,
      "flags": 1,
      "label": "片想い×片想い",
      "description": "上杉家のシナリオをクリアした",
      "howto": "上杉家のシナリオをクリアする"
    },
    {
      "id": 12,
      "imageId": 12,
      "cred": 80,
      "flags": 1,
      "label": "二葉の沢瀉",
      "description": "毛利家のシナリオをクリアした",
      "howto": "毛利家のシナリオをクリアする"
    },
    {
      "id": 13,
      "imageId": 13,
      "cred": 80,
      "flags": 1,
      "label": "4人と1人、みんな仲良し",
      "description": "島津家のシナリオをクリアした",
      "howto": "島津家のシナリオをクリアする"
    },
    {
      "id": 14,
      "imageId": 14,
      "cred": 80,
      "flags": 1,
      "label": "溶けない雪",
      "description": "大友家のシナリオをクリアした",
      "howto": "大友家のシナリオをクリアする"
    },
    {
      "id": 15,
      "imageId": 15,
      "cred": 80,
      "flags": 1,
      "label": "純白の花嫁",
      "description": "伊達家のシナリオをクリアした",
      "howto": "伊達家のシナリオをクリアする"
    },
    {
      "id": 16,
      "imageId": 16,
      "cred": 80,
      "flags": 1,
      "label": "失ったものと残されたもの",
      "description": "武田家のシナリオをクリアした",
      "howto": "武田家のシナリオをクリアする"
    },
    {
      "id": 17,
      "imageId": 17,
      "cred": 120,
      "flags": 1,
      "label": "天下統一",
      "description": "群雄モードで天下統一した",
      "howto": "群雄モードでいずれかの大名家で天下統一する"
    }
  ]
}