{
  "achievementsPossible": 12,
  "credPossible": 1000,
  "achievements": [
    {
      "id": 9,
      "imageId": 1,
      "cred": 10,
      "flags": 1,
      "label": "Rookie Difficulty Win",
      "description": "This user has beaten a CPU opponent in a game set on Rookie difficulty.",
      "howto": "Beat the CPU opponent in a game set on Rookie difficulty."
    },
    {
      "id": 10,
      "imageId": 3,
      "cred": 30,
      "flags": 1,
      "label": "Starter Difficulty Win",
      "description": "This user has beaten a CPU opponent in a game set on Starter difficulty.",
      "howto": "Beat the CPU opponent in a game set on Starter difficulty."
    },
    {
      "id": 11,
      "imageId": 5,
      "cred": 50,
      "flags": 1,
      "label": "All-Star Difficulty Win",
      "description": "This user has beaten a CPU opponent in a game set on All-Star difficulty.",
      "howto": "Beat the CPU opponent in a game set on All-Star difficulty."
    },
    {
      "id": 12,
      "imageId": 6,
      "cred": 75,
      "flags": 1,
      "label": "Superstar Difficulty Win",
      "description": "This user has beaten a CPU opponent in a game set on Superstar difficulty.",
      "howto": "Beat the CPU opponent in a game set on Superstar difficulty."
    },
    {
      "id": 13,
      "imageId": 4,
      "cred": 40,
      "flags": 1,
      "label": "Online Win",
      "description": "This user has won a game against an online opponent.",
      "howto": "Play an online game and win against your opponent."
    },
    {
      "id": 14,
      "imageId": 2,
      "cred": 20,
      "flags": 4,
      "label": "NBA LIVE 06 Created Player",
      "description": "This user has created a player in NBA LIVE 06.",
      "howto": "Create a player in NBA LIVE 06."
    },
    {
      "id": 15,
      "imageId": 7,
      "cred": 75,
      "flags": 4,
      "label": "All-Star",
      "description": "In Season Mode, a player on the user team has made the NBA All-Star team.",
      "howto": "Have a player from your team make the NBA All-Star team in Season Mode."
    },
    {
      "id": 16,
      "imageId": 8,
      "cred": 100,
      "flags": 4,
      "label": "Clinched Playoffs",
      "description": "In Season Mode, this user's team has made the playoffs.",
      "howto": "Get into the playoffs with your team in Season Mode."
    },
    {
      "id": 17,
      "imageId": 9,
      "cred": 100,
      "flags": 4,
      "label": "Coach of the Year",
      "description": "In Season Mode, the coach of the user team has won the Coach of the Year award.",
      "howto": "Win the Coach of the Year award in Season Mode."
    },
    {
      "id": 18,
      "imageId": 10,
      "cred": 150,
      "flags": 4,
      "label": "Best Regular Season Record",
      "description": "In Season Mode, this user's team had the best record at the end of the regular season.",
      "howto": "Finish the regular season with the best win-loss record of the league in Season Mode."
    },
    {
      "id": 19,
      "imageId": 11,
      "cred": 150,
      "flags": 4,
      "label": "Most Valuable Player",
      "description": "In Season Mode, a player from this user's team has won the Most Valuable Player award.",
      "howto": "Win the Most Valuable Player award in Season Mode."
    },
    {
      "id": 20,
      "imageId": 12,
      "cred": 200,
      "flags": 5,
      "label": "NBA Champions",
      "description": "In Season Mode, this user has won the NBA Championship.",
      "howto": "Win the NBA Championship in Season Mode."
    }
  ]
}