{
  "achievementsPossible": 16,
  "credPossible": 250,
  "achievements": [
    {
      "id": 1,
      "imageId": 2,
      "cred": 5,
      "flags": 2,
      "label": "Welcome to the Faction",
      "description": "Gain Your First Rank",
      "howto": "Gain Your First Rank"
    },
    {
      "id": 2,
      "imageId": 3,
      "cred": 15,
      "flags": 3,
      "label": "The Skills to Pay the Bills",
      "description": "Unlock All of the Training Missions",
      "howto": "Unlock All of the Training Missions"
    },
    {
      "id": 3,
      "imageId": 4,
      "cred": 20,
      "flags": 1,
      "label": "Bling",
      "description": "Gain a Gold Badge in 5 Player Awards",
      "howto": "Gain a Gold Badge in 5 Player Awards"
    },
    {
      "id": 4,
      "imageId": 5,
      "cred": 40,
      "flags": 1,
      "label": "Take That, Winters!",
      "description": "Gain a Gold Star in All Training Missions",
      "howto": "Gain a Gold Star in All Training Missions"
    },
    {
      "id": 5,
      "imageId": 6,
      "cred": 5,
      "flags": 4,
      "label": "Helping hands",
      "description": "Complete Your First Local Multiplayer Game",
      "howto": "Complete Your First Local Multiplayer Game"
    },
    {
      "id": 6,
      "imageId": 7,
      "cred": 5,
      "flags": 4,
      "label": "Taste of Victory",
      "description": "Win an Xbox LIVE Game",
      "howto": "Win an Xbox LIVE Game"
    },
    {
      "id": 7,
      "imageId": 8,
      "cred": 15,
      "flags": 4,
      "label": "The Black Hole",
      "description": "Kill All Other Players With The Singularity Bomb in a 4 Player Xbox LIVE Game",
      "howto": "Kill All Other Players With The Singularity Bomb in a 4 Player Xbox LIVE Game"
    },
    {
      "id": 8,
      "imageId": 9,
      "cred": 10,
      "flags": 4,
      "label": "Total Carnage",
      "description": "Kill 5 Opponents in a Row Without Dying in an Xbox LIVE Multiplayer Game",
      "howto": "Kill 5 Opponents in a Row Without Dying in an Xbox LIVE Multiplayer Game"
    },
    {
      "id": 9,
      "imageId": 10,
      "cred": 10,
      "flags": 4,
      "label": "Scrap Metal",
      "description": "Get a Quad Kill in the Training Missions",
      "howto": "Get a Quad Kill in the Training Missions"
    },
    {
      "id": 10,
      "imageId": 11,
      "cred": 10,
      "flags": 4,
      "label": "The Running Man",
      "description": "Earn a Gold Star in a Survival Training Mission Without Using Any Weapons",
      "howto": "Earn a Gold Star in a Survival Training Mission Without Using Any Weapons"
    },
    {
      "id": 11,
      "imageId": 12,
      "cred": 15,
      "flags": 2,
      "label": "Going Up in the World",
      "description": "Get To Rank 10",
      "howto": "Get To Rank 10"
    },
    {
      "id": 12,
      "imageId": 13,
      "cred": 50,
      "flags": 2,
      "label": "Faction Leader",
      "description": "Get To Rank 20",
      "howto": "Get To Rank 20"
    },
    {
      "id": 13,
      "imageId": 1,
      "cred": 10,
      "flags": 1,
      "label": "A Taste of Armageddon",
      "description": "Earn at least a Bronze Star in all the Armageddon Pack Training Missions",
      "howto": "Earn at least a Bronze Star in all the Armageddon Pack Training Missions"
    },
    {
      "id": 14,
      "imageId": 14,
      "cred": 15,
      "flags": 4,
      "label": "Rampage",
      "description": "Destroy 35 Enemies in the Frostbite Training Mission",
      "howto": "Destroy 35 Enemies in the Frostbite Training Mission"
    },
    {
      "id": 15,
      "imageId": 15,
      "cred": 10,
      "flags": 1,
      "label": "A Taste of Origins",
      "description": "Earn at least a Bronze Star in all the Origins Pack Training Missions",
      "howto": "Earn at least a Bronze Star in all the Origins Pack Training Missions"
    },
    {
      "id": 16,
      "imageId": 16,
      "cred": 15,
      "flags": 4,
      "label": "Tormentor",
      "description": "In Race Mode, Kill a Player 3 Times When They're on Their Last Lap",
      "howto": "In Race Mode, Kill a Player 3 Times When They're on Their Last Lap"
    }
  ]
}