{
  "achievementsPossible": 53,
  "credPossible": 1800,
  "achievements": [
    {
      "id": 1,
      "imageId": 22,
      "cred": 55,
      "flags": 3,
      "label": "Misteak",
      "description": "Fed a steak to a Wedzel Wolf.",
      "howto": "This is a hidden achievement."
    },
    {
      "id": 3,
      "imageId": 11,
      "cred": 55,
      "flags": 3,
      "label": "Opening Knight",
      "description": "Opened door to Achaka three times.",
      "howto": "This is a hidden achievement."
    },
    {
      "id": 4,
      "imageId": 26,
      "cred": 55,
      "flags": 3,
      "label": "Purple Badger Don't Care",
      "description": "A Dyed Badger ate Bees.",
      "howto": "This is a hidden achievement."
    },
    {
      "id": 5,
      "imageId": 14,
      "cred": 55,
      "flags": 3,
      "label": "A Secret Entrance",
      "description": "Found a Mysterious Cave Entrance.",
      "howto": "This is a hidden achievement."
    },
    {
      "id": 6,
      "imageId": 15,
      "cred": 55,
      "flags": 3,
      "label": "In The Mouth of Danger",
      "description": "Walked into a Dragon's Mouth.",
      "howto": "This is a hidden achievement."
    },
    {
      "id": 7,
      "imageId": 13,
      "cred": 55,
      "flags": 3,
      "label": "Napping on the Job",
      "description": "Took a Brief Nap.",
      "howto": "This is a hidden achievement."
    },
    {
      "id": 8,
      "imageId": 16,
      "cred": 55,
      "flags": 3,
      "label": "That's the Ticket",
      "description": "Presented an Eye to enter the Tournament.",
      "howto": "Present Entrance Ticket at the Tournament."
    },
    {
      "id": 9,
      "imageId": 12,
      "cred": 55,
      "flags": 3,
      "label": "Strong Minded",
      "description": "Defeated Acorn in the Duel of Strength.",
      "howto": "Complete the Duel of Strength."
    },
    {
      "id": 10,
      "imageId": 24,
      "cred": 55,
      "flags": 3,
      "label": "Fast Feather",
      "description": "Defeated Whisper in the Duel of Speed.",
      "howto": "Complete the Duel of Speed."
    },
    {
      "id": 11,
      "imageId": 19,
      "cred": 100,
      "flags": 3,
      "label": "The End?",
      "description": "Told the Story about becoming a Knight.",
      "howto": "Complete Chapter 1."
    },
    {
      "id": 12,
      "imageId": 18,
      "cred": 55,
      "flags": 3,
      "label": "Unicorn Snack Food",
      "description": "Was a Snack for a Majestic Unicorn.",
      "howto": "This is a hidden achievement."
    },
    {
      "id": 13,
      "imageId": 23,
      "cred": 55,
      "flags": 3,
      "label": "A Prickly Situation",
      "description": "Walked into the Spiniferous Thornweeds.",
      "howto": "This is a hidden achievement."
    },
    {
      "id": 14,
      "imageId": 25,
      "cred": 75,
      "flags": 3,
      "label": "Helping Hat",
      "description": "Saved a Picnic, Got a Wedzel Patch, Completed the Potion.",
      "howto": "Complete three acts of Charity."
    },
    {
      "id": 15,
      "imageId": 21,
      "cred": 55,
      "flags": 3,
      "label": "Dead End Dancer",
      "description": "Danced in the Dark.",
      "howto": "This is a hidden achievement."
    },
    {
      "id": 16,
      "imageId": 20,
      "cred": 55,
      "flags": 3,
      "label": "Horn Blower",
      "description": "Blew on many Horns.",
      "howto": "This is a hidden achievement."
    },
    {
      "id": 17,
      "imageId": 17,
      "cred": 55,
      "flags": 3,
      "label": "Froggy Throat",
      "description": "Tried to Catch a Toad, Got a Frog in Throat.",
      "howto": "This is a hidden achievement."
    },
    {
      "id": 18,
      "imageId": 27,
      "cred": 55,
      "flags": 3,
      "label": "Graham the Basilisk",
      "description": "Walked on Water.",
      "howto": "This is a hidden achievement."
    },
    {
      "id": 19,
      "imageId": 28,
      "cred": 20,
      "flags": 3,
      "label": "Distressed Out",
      "description": "Got some air.",
      "howto": "Clear your head."
    },
    {
      "id": 20,
      "imageId": 29,
      "cred": 20,
      "flags": 3,
      "label": "The King is in a Cent",
      "description": "Found all gold in Chapter 2.",
      "howto": "Get all gold coins in Chapter 2."
    },
    {
      "id": 21,
      "imageId": 30,
      "cred": 20,
      "flags": 3,
      "label": "Booked Em",
      "description": "Found all pages in Chapter 2.",
      "howto": "Get all pages in Chapter 2."
    },
    {
      "id": 22,
      "imageId": 31,
      "cred": 20,
      "flags": 3,
      "label": "The Lost Unicorn",
      "description": "Reunited two best friends.",
      "howto": "This is a hidden achievement."
    },
    {
      "id": 23,
      "imageId": 32,
      "cred": 20,
      "flags": 3,
      "label": "Rubble Yell",
      "description": "Escaped the goblin prison.",
      "howto": "Escape the goblin prison."
    },
    {
      "id": 24,
      "imageId": 33,
      "cred": 20,
      "flags": 3,
      "label": "A Royal Pain in the Rear",
      "description": "Tummy troubles.",
      "howto": "This is a hidden achievement."
    },
    {
      "id": 25,
      "imageId": 34,
      "cred": 30,
      "flags": 3,
      "label": "Cell-ebration!",
      "description": "Escaped without any townspeople taken away.",
      "howto": "Escape without any townspeople taken away."
    },
    {
      "id": 26,
      "imageId": 35,
      "cred": 20,
      "flags": 3,
      "label": "Medicinal Majesty",
      "description": "Healed Bramble.",
      "howto": "Care for the Caring."
    },
    {
      "id": 27,
      "imageId": 36,
      "cred": 30,
      "flags": 3,
      "label": "The Reign is Just Beginning",
      "description": "Completed Chapter 2.",
      "howto": "Complete Chapter 2."
    },
    {
      "id": 28,
      "imageId": 37,
      "cred": 20,
      "flags": 3,
      "label": "A Poisonous Snake!",
      "description": "Watch out, Graham!",
      "howto": "This is a hidden achievement."
    },
    {
      "id": 29,
      "imageId": 38,
      "cred": 20,
      "flags": 3,
      "label": "Girls in the Tower",
      "description": "This tower was built to scale.",
      "howto": "Love at first height."
    },
    {
      "id": 30,
      "imageId": 39,
      "cred": 20,
      "flags": 3,
      "label": "Moral Quarreler",
      "description": "Won a game of Moral Quarrel.",
      "howto": "Win a game of Moral Quarrel."
    },
    {
      "id": 31,
      "imageId": 40,
      "cred": 20,
      "flags": 3,
      "label": "Wedzel Wolf Watch Waiver",
      "description": "Spared the life of a Wedzel Wolf.",
      "howto": "This is a hidden achievement."
    },
    {
      "id": 32,
      "imageId": 41,
      "cred": 20,
      "flags": 3,
      "label": "Gears of Shore",
      "description": "Solved a puzzle on the beach.",
      "howto": "This is a hidden achievement."
    },
    {
      "id": 33,
      "imageId": 42,
      "cred": 20,
      "flags": 3,
      "label": "Teenaged Townspeople",
      "description": "Discovered 3 portraits of younger townspeople.",
      "howto": "Discover 3 portraits of younger townspeople."
    },
    {
      "id": 34,
      "imageId": 43,
      "cred": 30,
      "flags": 3,
      "label": "Harmonious Husband",
      "description": "Gave the perfect present to Neese.",
      "howto": "Give the perfect present to Neese."
    },
    {
      "id": 35,
      "imageId": 44,
      "cred": 30,
      "flags": 3,
      "label": "Perfect Puzzle Partner",
      "description": "Gave the perfect present to Vee.",
      "howto": "Give the perfect present to Vee."
    },
    {
      "id": 36,
      "imageId": 45,
      "cred": 20,
      "flags": 3,
      "label": "And They Lived...",
      "description": "Completed Chapter 3.",
      "howto": "Complete Chapter 3."
    },
    {
      "id": 37,
      "imageId": 46,
      "cred": 20,
      "flags": 3,
      "label": "Staring Superstar ",
      "description": "Lasted as long as I could in staring contest.",
      "howto": "Hold your own in staring contest."
    },
    {
      "id": 38,
      "imageId": 47,
      "cred": 20,
      "flags": 3,
      "label": "Road Trip Warrior ",
      "description": "Won the road trip game.",
      "howto": "Win the road trip game."
    },
    {
      "id": 39,
      "imageId": 48,
      "cred": 20,
      "flags": 3,
      "label": "Disobedient Dad",
      "description": "Don't make me turn this story around!",
      "howto": "This is a hidden achievement."
    },
    {
      "id": 40,
      "imageId": 49,
      "cred": 20,
      "flags": 3,
      "label": "Line Stepper",
      "description": "Solved first Ice Palace puzzle.",
      "howto": "Solve first Ice Palace puzzle."
    },
    {
      "id": 41,
      "imageId": 50,
      "cred": 20,
      "flags": 3,
      "label": "Pestering Padre",
      "description": "Pestered the Prince.",
      "howto": "This is a hidden achievement."
    },
    {
      "id": 42,
      "imageId": 51,
      "cred": 30,
      "flags": 3,
      "label": "Fostering Father",
      "description": "Heard everything Alexander had to say.",
      "howto": "This is a hidden achievement."
    },
    {
      "id": 43,
      "imageId": 52,
      "cred": 20,
      "flags": 3,
      "label": "Labyrinth Legend",
      "description": "Solved the Ice Labyrinth.",
      "howto": "Solve the Ice Labyrinth."
    },
    {
      "id": 44,
      "imageId": 54,
      "cred": 30,
      "flags": 3,
      "label": "#1 Daventry Dad",
      "description": "Completed Chapter 4.",
      "howto": "Complete Chapter 4."
    },
    {
      "id": 45,
      "imageId": 53,
      "cred": 20,
      "flags": 3,
      "label": "Ice Shaver",
      "description": "Shot an arrow at Ice Guard.",
      "howto": "Shoot an arrow at Ice Guard."
    },
    {
      "id": 46,
      "imageId": 55,
      "cred": 20,
      "flags": 3,
      "label": "Golden-Ager Graham",
      "description": "Sought treasure as an aged adventurer.",
      "howto": "Seek treasure as an aged adventurer."
    },
    {
      "id": 47,
      "imageId": 56,
      "cred": 20,
      "flags": 3,
      "label": "Treasure Trolled",
      "description": "Honored the bridges of the past.",
      "howto": "This is a hidden achievement."
    },
    {
      "id": 48,
      "imageId": 57,
      "cred": 20,
      "flags": 3,
      "label": "Music Minded",
      "description": "Remembered a forgotten tune.",
      "howto": "Mind the music."
    },
    {
      "id": 49,
      "imageId": 58,
      "cred": 20,
      "flags": 3,
      "label": "Escaped Elder",
      "description": "Escaped the Tournament Theater.",
      "howto": "Escape the Tournament Theater."
    },
    {
      "id": 50,
      "imageId": 59,
      "cred": 20,
      "flags": 3,
      "label": "Quick Minded",
      "description": "Proved your mind is still quick.",
      "howto": "Prove your mind is still quick."
    },
    {
      "id": 51,
      "imageId": 60,
      "cred": 20,
      "flags": 3,
      "label": "Raisin the Dead",
      "description": "Found some very old pastries.",
      "howto": "This is a hidden achievement."
    },
    {
      "id": 52,
      "imageId": 61,
      "cred": 30,
      "flags": 3,
      "label": "Dancing Dead",
      "description": "Tickled the ivories of a bone xylophone.",
      "howto": "This is a hidden achievement."
    },
    {
      "id": 53,
      "imageId": 62,
      "cred": 20,
      "flags": 3,
      "label": "Still Strong Minded",
      "description": "Proved your mind is still strong.",
      "howto": "Prove your mind is still strong."
    },
    {
      "id": 54,
      "imageId": 63,
      "cred": 30,
      "flags": 3,
      "label": "Papa Puzzler",
      "description": "Defeated all the puzzles on The Floating Island.",
      "howto": "Defeat all puzzles on The Floating Island."
    }
  ]
}