{
  "achievementsPossible": 12,
  "credPossible": 400,
  "achievements": [
    {
      "id": 1,
      "imageId": 1,
      "cred": 10,
      "flags": 1,
      "label": "I English Read Good",
      "description": "Read every tutorial board",
      "howto": "Read every tutorial board"
    },
    {
      "id": 2,
      "imageId": 2,
      "cred": 10,
      "flags": 1,
      "label": "Let's start here",
      "description": "Clear stage 1",
      "howto": "Clear stage 1"
    },
    {
      "id": 3,
      "imageId": 3,
      "cred": 10,
      "flags": 1,
      "label": "Three Star Chef",
      "description": "Use a magic attack on the bread",
      "howto": "Use a magic attack on the bread"
    },
    {
      "id": 4,
      "imageId": 4,
      "cred": 20,
      "flags": 1,
      "label": "Are you really the hero?",
      "description": "Game over, 50 times over",
      "howto": "Game over, 50 times over"
    },
    {
      "id": 5,
      "imageId": 5,
      "cred": 20,
      "flags": 1,
      "label": "You call that an ending?",
      "description": "Clear stage 5",
      "howto": "Clear stage 5"
    },
    {
      "id": 6,
      "imageId": 6,
      "cred": 30,
      "flags": 1,
      "label": "Like a lion after its prey",
      "description": "Finish the game in hard mode",
      "howto": "Finish the game in hard mode"
    },
    {
      "id": 7,
      "imageId": 7,
      "cred": 30,
      "flags": 1,
      "label": "Sunny side up ",
      "description": "Finish the game without ever entering the shop",
      "howto": "Finish the game without ever entering the shop"
    },
    {
      "id": 8,
      "imageId": 8,
      "cred": 100,
      "flags": 1,
      "label": "One Knight stand",
      "description": "Finish the game without dying",
      "howto": "Finish the game without dying"
    },
    {
      "id": 9,
      "imageId": 9,
      "cred": 100,
      "flags": 1,
      "label": "A True Knight",
      "description": "Clear Arcade Mode",
      "howto": "Clear Arcade Mode"
    },
    {
      "id": 10,
      "imageId": 10,
      "cred": 20,
      "flags": 1,
      "label": "Hard Worker",
      "description": "Finish every mission in challenge mode",
      "howto": "Finish every mission in challenge mode"
    },
    {
      "id": 11,
      "imageId": 11,
      "cred": 20,
      "flags": 1,
      "label": "P-Whipped",
      "description": "Collect all the cat head grass in story mode",
      "howto": "Collect all the cat head grass in story mode"
    },
    {
      "id": 12,
      "imageId": 12,
      "cred": 30,
      "flags": 1,
      "label": "The next story is yours",
      "description": "Watch the end credits",
      "howto": "Watch the end credits"
    }
  ]
}