{
  "achievementsPossible": 45,
  "credPossible": 1000,
  "achievements": [
    {
      "id": 1,
      "imageId": 3,
      "cred": 65,
      "flags": 1,
      "label": "Game Night God",
      "description": "Complete all Achievements.",
      "howto": "Complete all Achievements."
    },
    {
      "id": 2,
      "imageId": 4,
      "cred": 40,
      "flags": 3,
      "label": "Potato Party",
      "description": "Unlock all MR. & MRS. POTATO HEAD™ costumes.",
      "howto": "Unlock all MR. & MRS. POTATO HEAD™ costumes."
    },
    {
      "id": 3,
      "imageId": 5,
      "cred": 40,
      "flags": 3,
      "label": "Oh so shiny",
      "description": "Unlock all Theme Park Plaza Statues.",
      "howto": "Unlock all Theme Park Plaza Statues."
    },
    {
      "id": 4,
      "imageId": 6,
      "cred": 40,
      "flags": 3,
      "label": "It’s a beautiful world",
      "description": "Unlock all Theme Park Plaza Building Parts.",
      "howto": "Unlock all Theme Park Plaza Building Parts."
    },
    {
      "id": 5,
      "imageId": 7,
      "cred": 40,
      "flags": 3,
      "label": "Plaza Party",
      "description": "Unlock all Theme Park Plaza Mascots.",
      "howto": "Unlock all Theme Park Plaza Mascots."
    },
    {
      "id": 62,
      "imageId": 8,
      "cred": 10,
      "flags": 2,
      "label": "Living the life",
      "description": "Win 1 game of original THE GAME OF LIFE™.",
      "howto": "Win 1 game of original THE GAME OF LIFE™."
    },
    {
      "id": 63,
      "imageId": 9,
      "cred": 40,
      "flags": 2,
      "label": "Lifetime achievement",
      "description": "Win 10 games of original THE GAME OF LIFE™.",
      "howto": "Win 10 games of original THE GAME OF LIFE™."
    },
    {
      "id": 64,
      "imageId": 11,
      "cred": 10,
      "flags": 2,
      "label": "Variety is the spice of life",
      "description": "Win 1 game of remix THE GAME OF LIFE™.",
      "howto": "Win 1 game of remix THE GAME OF LIFE™."
    },
    {
      "id": 65,
      "imageId": 12,
      "cred": 15,
      "flags": 2,
      "label": "Gold plated",
      "description": "Win a Game of THE GAME OF LIFE™ with over $2,000,000 of wealth .",
      "howto": "Win a Game of THE GAME OF LIFE™ with over $2,000,000 of wealth ."
    },
    {
      "id": 66,
      "imageId": 13,
      "cred": 25,
      "flags": 2,
      "label": "In it to win it",
      "description": "Win $500,000 on Spin to Win in THE GAME OF LIFE™.",
      "howto": "Win $500,000 on Spin to Win in THE GAME OF LIFE™."
    },
    {
      "id": 67,
      "imageId": 14,
      "cred": 15,
      "flags": 2,
      "label": "Don’t blame me!",
      "description": "Beat another player who is nominated to be sued in a lawsuit in THE GAME OF LIFE™.",
      "howto": "Beat another player who is nominated to be sued in a lawsuit in THE GAME OF LIFE™."
    },
    {
      "id": 68,
      "imageId": 15,
      "cred": 15,
      "flags": 2,
      "label": "Top of the world",
      "description": "Be a Doctor and own the Mansion House in THE GAME OF LIFE™.",
      "howto": "Be a Doctor and own the Mansion House in THE GAME OF LIFE™."
    },
    {
      "id": 69,
      "imageId": 16,
      "cred": 25,
      "flags": 2,
      "label": "On patrol",
      "description": "Be a Police Officer and bust another player for speeding in THE GAME OF LIFE™.",
      "howto": "Be a Police Officer and bust another player for speeding in THE GAME OF LIFE™."
    },
    {
      "id": 70,
      "imageId": 17,
      "cred": 10,
      "flags": 2,
      "label": "In the Groove",
      "description": "Win 1 game of original TWISTER™.",
      "howto": "Win 1 game of original TWISTER™."
    },
    {
      "id": 71,
      "imageId": 18,
      "cred": 40,
      "flags": 2,
      "label": "On Fire",
      "description": "Win 10 games of original TWISTER™.",
      "howto": "Win 10 games of original TWISTER™."
    },
    {
      "id": 72,
      "imageId": 19,
      "cred": 10,
      "flags": 2,
      "label": "Mix Master",
      "description": "Win 1 game of remix TWISTER™.",
      "howto": "Win 1 game of remix TWISTER™."
    },
    {
      "id": 73,
      "imageId": 20,
      "cred": 15,
      "flags": 3,
      "label": "Pro Skills",
      "description": "Score over 80% in a game of original TWISTER™.",
      "howto": "Score over 80% in a game of original TWISTER™."
    },
    {
      "id": 74,
      "imageId": 21,
      "cred": 15,
      "flags": 2,
      "label": "Mad Skills",
      "description": "Score over 90% in a game of original TWISTER™.",
      "howto": "Score over 90% in a game of original TWISTER™."
    },
    {
      "id": 75,
      "imageId": 22,
      "cred": 25,
      "flags": 2,
      "label": "The Beautiful Dance",
      "description": "Score Perfect in any game of original TWISTER™.",
      "howto": "Score Perfect in any game of original TWISTER™."
    },
    {
      "id": 76,
      "imageId": 23,
      "cred": 25,
      "flags": 2,
      "label": "Bring it on",
      "description": "Successfully complete a 6 beat bar in remix TWISTER™.",
      "howto": "Successfully complete a 6 beat bar in remix TWISTER™."
    },
    {
      "id": 77,
      "imageId": 24,
      "cred": 15,
      "flags": 2,
      "label": "I make this look good",
      "description": "Get a perfect beat timing when free styling in original TWISTER™.",
      "howto": "Get a perfect beat timing when free styling in original TWISTER™."
    },
    {
      "id": 78,
      "imageId": 25,
      "cred": 10,
      "flags": 2,
      "label": "Elementary",
      "description": "Win 1 game of original CLUE™/CLUEDO.",
      "howto": "Win 1 game of original CLUE™/CLUEDO."
    },
    {
      "id": 79,
      "imageId": 26,
      "cred": 40,
      "flags": 2,
      "label": "Scotland Yard’s finest",
      "description": "Win 10 games of original CLUE™/CLUEDO.",
      "howto": "Win 10 games of original CLUE™/CLUEDO."
    },
    {
      "id": 80,
      "imageId": 27,
      "cred": 10,
      "flags": 2,
      "label": "Law bringer",
      "description": "Win 1 game of remix CLUE™/CLUEDO.",
      "howto": "Win 1 game of remix CLUE™/CLUEDO."
    },
    {
      "id": 81,
      "imageId": 28,
      "cred": 25,
      "flags": 2,
      "label": "Clued up",
      "description": "Win a game of CLUE™/CLUEDO with only 2 items identified on your clue sheet.",
      "howto": "Win a game of CLUE™/CLUEDO with only 2 items identified on your clue sheet."
    },
    {
      "id": 82,
      "imageId": 29,
      "cred": 15,
      "flags": 2,
      "label": "An Eye for Detail",
      "description": "Get a maximum score on any CLUE™/CLUEDO minigame.",
      "howto": "Get a maximum score on any CLUE™/CLUEDO minigame."
    },
    {
      "id": 83,
      "imageId": 30,
      "cred": 15,
      "flags": 2,
      "label": "Well rounded detective\r\n",
      "description": "Roll all 5 types of event on the Event Dice in CLUE™/CLUEDO remix",
      "howto": "Roll all 5 types of event on the Event Dice in CLUE™/CLUEDO remix"
    },
    {
      "id": 84,
      "imageId": 31,
      "cred": 15,
      "flags": 2,
      "label": "People person",
      "description": "Gain 2 extra clues from CLUE™/CLUEDO characters in one game of original CLUE™/CLUEDO.",
      "howto": "Gain 2 extra clues from CLUE™/CLUEDO characters in one game of original CLUE™/CLUEDO."
    },
    {
      "id": 85,
      "imageId": 32,
      "cred": 25,
      "flags": 2,
      "label": "Master of the Mansion",
      "description": "Lock another player in any room with the Keys to the Mansion in remix CLUE™/CLUEDO.",
      "howto": "Lock another player in any room with the Keys to the Mansion in remix CLUE™/CLUEDO."
    },
    {
      "id": 86,
      "imageId": 33,
      "cred": 10,
      "flags": 2,
      "label": "Cheesy",
      "description": "Win 1 game of original MOUSE TRAP™.",
      "howto": "Win 1 game of original MOUSE TRAP™."
    },
    {
      "id": 87,
      "imageId": 34,
      "cred": 40,
      "flags": 2,
      "label": "Acheesement",
      "description": "Win 10 games of original MOUSE TRAP™.",
      "howto": "Win 10 games of original MOUSE TRAP™."
    },
    {
      "id": 88,
      "imageId": 35,
      "cred": 10,
      "flags": 2,
      "label": "Con-trap-tion Master",
      "description": "Win a game of remix MOUSE TRAP™.",
      "howto": "Win a game of remix MOUSE TRAP™."
    },
    {
      "id": 89,
      "imageId": 36,
      "cred": 25,
      "flags": 2,
      "label": "Cheese and biscuits ",
      "description": "Win a game of remix MOUSE TRAP™ without losing 3 wedges of cheese.",
      "howto": "Win a game of remix MOUSE TRAP™ without losing 3 wedges of cheese."
    },
    {
      "id": 90,
      "imageId": 37,
      "cred": 15,
      "flags": 2,
      "label": "Pied Piper",
      "description": "Successfully trap another player using cheese in MOUSE TRAP™.",
      "howto": "Successfully trap another player using cheese in MOUSE TRAP™."
    },
    {
      "id": 91,
      "imageId": 38,
      "cred": 15,
      "flags": 2,
      "label": "Chief Engineer",
      "description": "Place 50 trap parts (cumulative score across all games played) in MOUSE TRAP™.",
      "howto": "Place 50 trap parts (cumulative score across all games played) in MOUSE TRAP™."
    },
    {
      "id": 92,
      "imageId": 39,
      "cred": 15,
      "flags": 2,
      "label": "Cheesed to meet you",
      "description": "Steal the spanner off of another player in a game of remix MOUSE TRAP™",
      "howto": "Steal the spanner off of another player in a game of remix MOUSE TRAP™"
    },
    {
      "id": 93,
      "imageId": 40,
      "cred": 25,
      "flags": 2,
      "label": "Da Mouse-Vinci",
      "description": "Build one type of each of the 5 trap types in a single game of remix MOUSE TRAP™.",
      "howto": "Build one type of each of the 5 trap types in a single game of remix MOUSE TRAP™."
    },
    {
      "id": 94,
      "imageId": 41,
      "cred": 10,
      "flags": 2,
      "label": "Yahtzee!",
      "description": "Win 1 game of original YAHTZEE HANDS DOWN™.",
      "howto": "Win 1 game of original YAHTZEE HANDS DOWN™."
    },
    {
      "id": 95,
      "imageId": 42,
      "cred": 40,
      "flags": 2,
      "label": "Card Shark",
      "description": "Win 10 games of original YAHTZEE HANDS DOWN™.",
      "howto": "Win 10 games of original YAHTZEE HANDS DOWN™."
    },
    {
      "id": 96,
      "imageId": 43,
      "cred": 10,
      "flags": 2,
      "label": "Think Fast",
      "description": "Win 1 game of remix YAHTZEE HANDS DOWN™.",
      "howto": "Win 1 game of remix YAHTZEE HANDS DOWN™."
    },
    {
      "id": 97,
      "imageId": 44,
      "cred": 25,
      "flags": 2,
      "label": "Combo Knight",
      "description": "Win 2 Combo Cards in a single game of original YAHTZEE HANDS DOWN™.",
      "howto": "Win 2 Combo Cards in a single game of original YAHTZEE HANDS DOWN™."
    },
    {
      "id": 98,
      "imageId": 45,
      "cred": 15,
      "flags": 5,
      "label": "Combo Lord",
      "description": "Win 4 Combo Cards in any game of YAHTZEE HANDS DOWN™.",
      "howto": "Win 4 Combo Cards in any game of YAHTZEE HANDS DOWN™."
    },
    {
      "id": 99,
      "imageId": 46,
      "cred": 25,
      "flags": 2,
      "label": "Combo King",
      "description": "Win 6 Combo Cards in any game of YAHTZEE HANDS DOWN™.",
      "howto": "Win 6 Combo Cards in any game of YAHTZEE HANDS DOWN™."
    },
    {
      "id": 100,
      "imageId": 47,
      "cred": 15,
      "flags": 2,
      "label": "Raising the bar",
      "description": "Beat another player’s ‘Hands Down!’ combo with a higher combo in original YAHTZEE HANDS DOWN™.",
      "howto": "Beat another player’s ‘Hands Down!’ combo with a higher combo in original YAHTZEE HANDS DOWN™."
    },
    {
      "id": 101,
      "imageId": 48,
      "cred": 15,
      "flags": 2,
      "label": "Too fast for you",
      "description": "Beat any player to a ‘Hands Down!’ when they have a ‘Hands Down!’ too in remix YAHTZEE HANDS DOWN™.",
      "howto": "Beat any player to a ‘Hands Down!’ when they have a ‘Hands Down!’ too in remix YAHTZEE HANDS DOWN™."
    }
  ]
}