{
  "achievementsPossible": 12,
  "credPossible": 400,
  "achievements": [
    {
      "id": 3,
      "imageId": 30,
      "cred": 30,
      "flags": 4,
      "label": "Marksman ",
      "description": "Kill every target without wasting a bullet",
      "howto": "Kill every target without wasting a bullet"
    },
    {
      "id": 4,
      "imageId": 26,
      "cred": 10,
      "flags": 6,
      "label": "Grey Matter",
      "description": "Solve every riddle",
      "howto": "Solve every riddle"
    },
    {
      "id": 5,
      "imageId": 28,
      "cred": 10,
      "flags": 6,
      "label": "Tour de Force",
      "description": "Win every QTE",
      "howto": "Win every QTE"
    },
    {
      "id": 6,
      "imageId": 25,
      "cred": 30,
      "flags": 4,
      "label": "The Postman Rings Ten Times",
      "description": "Open every mailbox",
      "howto": "Open every mailbox"
    },
    {
      "id": 7,
      "imageId": 33,
      "cred": 40,
      "flags": 1,
      "label": "Super Sleuth",
      "description": "Complete the game",
      "howto": "Complete the game"
    },
    {
      "id": 8,
      "imageId": 27,
      "cred": 50,
      "flags": 6,
      "label": "Summa Cum Laude",
      "description": "Win every riddle in one try",
      "howto": "Win every riddle in one try"
    },
    {
      "id": 9,
      "imageId": 29,
      "cred": 50,
      "flags": 6,
      "label": "Nothin' But Net",
      "description": "Win every QTE in one try",
      "howto": "Win every QTE in one try"
    },
    {
      "id": 10,
      "imageId": 34,
      "cred": 40,
      "flags": 1,
      "label": "With Flair",
      "description": "Complete the game with Rank A",
      "howto": "Complete the game with Rank A"
    },
    {
      "id": 11,
      "imageId": 32,
      "cred": 50,
      "flags": 1,
      "label": "Case Closed",
      "description": "Complete the game with 100% progress",
      "howto": "Complete the game with 100% progress"
    },
    {
      "id": 12,
      "imageId": 31,
      "cred": 70,
      "flags": 1,
      "label": "Speed Racer",
      "description": "Complete the game with 100% progress in record time",
      "howto": "Complete the game with 100% progress in record time"
    },
    {
      "id": 13,
      "imageId": 36,
      "cred": 10,
      "flags": 6,
      "label": "With Moderation",
      "description": "Win your first QTE",
      "howto": "Win your first QTE"
    },
    {
      "id": 14,
      "imageId": 35,
      "cred": 10,
      "flags": 6,
      "label": "It's in the Bag",
      "description": "Solve the first riddle",
      "howto": "Solve the first riddle"
    }
  ]
}