{
  "achievementsPossible": 50,
  "credPossible": 1000,
  "achievements": [
    {
      "id": 7,
      "imageId": 22,
      "cred": 20,
      "flags": 1,
      "label": "Venga Venga!",
      "description": "Complete the Mission - Frantic.",
      "howto": "Complete the Mission - Frantic."
    },
    {
      "id": 8,
      "imageId": 22,
      "cred": 20,
      "flags": 1,
      "label": "Salute from Stavo",
      "description": "Complete the Mission - Finding Family.",
      "howto": "Complete the Mission - Finding Family."
    },
    {
      "id": 9,
      "imageId": 22,
      "cred": 20,
      "flags": 1,
      "label": "Respect from Radu",
      "description": "Complete the Mission - Letting Off Steam.",
      "howto": "Complete the Mission - Letting Off Steam."
    },
    {
      "id": 10,
      "imageId": 23,
      "cred": 20,
      "flags": 1,
      "label": "Praise from Paulo",
      "description": "Complete the Mission - Stand and Deliver.",
      "howto": "Complete the Mission - Stand and Deliver."
    },
    {
      "id": 11,
      "imageId": 23,
      "cred": 20,
      "flags": 1,
      "label": "The Target Revealed",
      "description": "Complete the Mission - Recover the Documents.",
      "howto": "Complete the Mission - Recover the Documents."
    },
    {
      "id": 12,
      "imageId": 23,
      "cred": 20,
      "flags": 1,
      "label": "The Best of the Best",
      "description": "Complete the Mission - Defeat Felipe.",
      "howto": "Complete the Mission - Defeat Felipe."
    },
    {
      "id": 13,
      "imageId": 21,
      "cred": 30,
      "flags": 1,
      "label": "Stavo’s Swansong",
      "description": "Defeat Stavo, the boss of the Chulos Canallas.",
      "howto": "Defeat Stavo, the boss of the Chulos Canallas."
    },
    {
      "id": 14,
      "imageId": 21,
      "cred": 20,
      "flags": 1,
      "label": "The Spanish Job",
      "description": "Complete the Mission - Getting the Job Done.",
      "howto": "Complete the Mission - Getting the Job Done."
    },
    {
      "id": 15,
      "imageId": 21,
      "cred": 50,
      "flags": 1,
      "label": "A Real Wheelman",
      "description": "Complete the Mission - Get Gallo.",
      "howto": "Complete the Mission - Get Gallo."
    },
    {
      "id": 16,
      "imageId": 10,
      "cred": 5,
      "flags": 7,
      "label": "Leap of Faith",
      "description": "Perform an Airjack successfully.\r\n",
      "howto": "Perform an Airjack successfully.\r\n"
    },
    {
      "id": 17,
      "imageId": 10,
      "cred": 5,
      "flags": 7,
      "label": "Finish Him!",
      "description": "Perform a Finishing Move on an enemy vehicle.",
      "howto": "Perform a Finishing Move on an enemy vehicle."
    },
    {
      "id": 18,
      "imageId": 10,
      "cred": 5,
      "flags": 7,
      "label": "Riding on Rims",
      "description": "Shoot out the tyre of an enemy vehicle.",
      "howto": "Shoot out the tyre of an enemy vehicle."
    },
    {
      "id": 19,
      "imageId": 10,
      "cred": 5,
      "flags": 7,
      "label": "Ready, Aim, Fire!",
      "description": "Kill an enemy vehicle using the Aimed Shot.",
      "howto": "Kill an enemy vehicle using the Aimed Shot."
    },
    {
      "id": 20,
      "imageId": 10,
      "cred": 5,
      "flags": 7,
      "label": "Spin Spin Shooter",
      "description": "Kill an enemy vehicle using the Cyclone.",
      "howto": "Kill an enemy vehicle using the Cyclone."
    },
    {
      "id": 21,
      "imageId": 25,
      "cred": 5,
      "flags": 4,
      "label": "Speedy and Angry",
      "description": "Achieve ANY rank on ONE Street Showdown side mission.",
      "howto": "Achieve ANY rank on ONE Street Showdown side mission."
    },
    {
      "id": 22,
      "imageId": 26,
      "cred": 10,
      "flags": 4,
      "label": "Furious and Fast",
      "description": "Achieve ANY rank on FIVE Street Showdown side missions.",
      "howto": "Achieve ANY rank on FIVE Street Showdown side missions."
    },
    {
      "id": 23,
      "imageId": 24,
      "cred": 20,
      "flags": 4,
      "label": "Barcelona Drift",
      "description": "Achieve ANY rank on ALL Street Showdown side missions.",
      "howto": "Achieve ANY rank on ALL Street Showdown side missions."
    },
    {
      "id": 24,
      "imageId": 29,
      "cred": 5,
      "flags": 4,
      "label": "Taxi",
      "description": "Achieve ANY rank on ONE Taxi side mission.",
      "howto": "Achieve ANY rank on ONE Taxi side mission."
    },
    {
      "id": 25,
      "imageId": 28,
      "cred": 10,
      "flags": 4,
      "label": "Krazy Taxi",
      "description": "Achieve ANY rank on FIVE Taxi side missions.",
      "howto": "Achieve ANY rank on FIVE Taxi side missions."
    },
    {
      "id": 26,
      "imageId": 27,
      "cred": 20,
      "flags": 4,
      "label": "The Knowledge",
      "description": "Achieve ANY rank on ALL Taxi side missions.",
      "howto": "Achieve ANY rank on ALL Taxi side missions."
    },
    {
      "id": 27,
      "imageId": 19,
      "cred": 5,
      "flags": 4,
      "label": "Making a Mess",
      "description": "Achieve ANY rank on ONE Rampage side mission.",
      "howto": "Achieve ANY rank on ONE Rampage side mission."
    },
    {
      "id": 28,
      "imageId": 20,
      "cred": 10,
      "flags": 4,
      "label": "Disturbing the Peace",
      "description": "Achieve ANY rank on FIVE Rampage side missions.",
      "howto": "Achieve ANY rank on FIVE Rampage side missions."
    },
    {
      "id": 29,
      "imageId": 18,
      "cred": 20,
      "flags": 4,
      "label": "Anti Social Behaviour Order",
      "description": "Achieve ANY rank on ALL Rampage side missions.",
      "howto": "Achieve ANY rank on ALL Rampage side missions."
    },
    {
      "id": 30,
      "imageId": 2,
      "cred": 5,
      "flags": 4,
      "label": "Road Warrior",
      "description": "Achieve ANY rank on ONE Contracts side mission.",
      "howto": "Achieve ANY rank on ONE Contracts side mission."
    },
    {
      "id": 31,
      "imageId": 3,
      "cred": 10,
      "flags": 4,
      "label": "Road Rage",
      "description": "Achieve ANY rank on FIVE Contracts side missions.",
      "howto": "Achieve ANY rank on FIVE Contracts side missions."
    },
    {
      "id": 32,
      "imageId": 1,
      "cred": 20,
      "flags": 4,
      "label": "Road Rash",
      "description": "Get any Rank on ALL Contracts side missions.",
      "howto": "Get any Rank on ALL Contracts side missions."
    },
    {
      "id": 33,
      "imageId": 13,
      "cred": 5,
      "flags": 4,
      "label": "Delivery Boy",
      "description": "Achieve ANY rank on ONE Hot Potato side mission.",
      "howto": "Achieve ANY rank on ONE Hot Potato side mission."
    },
    {
      "id": 34,
      "imageId": 14,
      "cred": 10,
      "flags": 4,
      "label": "The Courier\r\n",
      "description": "Achieve ANY rank on FIVE Hot Potato side missions.",
      "howto": "Achieve ANY rank on FIVE Hot Potato side missions."
    },
    {
      "id": 35,
      "imageId": 12,
      "cred": 20,
      "flags": 4,
      "label": "Man In Brown",
      "description": "Achieve ANY rank on ALL Hot Potato side missions.",
      "howto": "Achieve ANY rank on ALL Hot Potato side missions."
    },
    {
      "id": 36,
      "imageId": 16,
      "cred": 5,
      "flags": 4,
      "label": "Made to Order",
      "description": "Achieve ANY rank on ONE Made to Order side mission.",
      "howto": "Achieve ANY rank on ONE Made to Order side mission."
    },
    {
      "id": 37,
      "imageId": 17,
      "cred": 10,
      "flags": 4,
      "label": "Gone In One Minute",
      "description": "Achieve ANY rank on FIVE Made to Order side missions.",
      "howto": "Achieve ANY rank on FIVE Made to Order side missions."
    },
    {
      "id": 38,
      "imageId": 15,
      "cred": 20,
      "flags": 4,
      "label": "Gone In 59 Seconds",
      "description": "Achieve ANY rank on ALL Made to Order side missions.",
      "howto": "Achieve ANY rank on ALL Made to Order side missions."
    },
    {
      "id": 39,
      "imageId": 8,
      "cred": 5,
      "flags": 4,
      "label": "Run, Milo, Run",
      "description": "Achieve ANY rank on ONE Fugitive side mission.",
      "howto": "Achieve ANY rank on ONE Fugitive side mission."
    },
    {
      "id": 40,
      "imageId": 9,
      "cred": 10,
      "flags": 4,
      "label": "Getaway in Barcelona",
      "description": "Achieve ANY rank on FIVE Fugitive side missions.",
      "howto": "Achieve ANY rank on FIVE Fugitive side missions."
    },
    {
      "id": 41,
      "imageId": 7,
      "cred": 20,
      "flags": 4,
      "label": "Can't Catch Me!",
      "description": "Achieve ANY rank on ALL Fugitive side missions.",
      "howto": "Achieve ANY rank on ALL Fugitive side missions."
    },
    {
      "id": 44,
      "imageId": 11,
      "cred": 50,
      "flags": 4,
      "label": "Diesel Powered!",
      "description": "Complete ALL side missions with an \"A\" rank or better.",
      "howto": "Complete ALL side missions with an \"A\" rank or better."
    },
    {
      "id": 45,
      "imageId": 11,
      "cred": 100,
      "flags": 4,
      "label": "I Live For this Stuff!",
      "description": "Complete ALL side missions with an \"S\" rank.",
      "howto": "Complete ALL side missions with an \"S\" rank."
    },
    {
      "id": 46,
      "imageId": 5,
      "cred": 10,
      "flags": 7,
      "label": "Jump in My Car",
      "description": "Perform a cinematic stunt jump.",
      "howto": "Perform a cinematic stunt jump."
    },
    {
      "id": 47,
      "imageId": 6,
      "cred": 25,
      "flags": 7,
      "label": "Dukes of Barcelona",
      "description": "Perform TWENTY FIVE cinematic stunt jumps.",
      "howto": "Perform TWENTY FIVE cinematic stunt jumps."
    },
    {
      "id": 48,
      "imageId": 4,
      "cred": 50,
      "flags": 7,
      "label": "White Men Can Jump",
      "description": "Perform ALL FIFTY cinematic stunt jumps.",
      "howto": "Perform ALL FIFTY cinematic stunt jumps."
    },
    {
      "id": 49,
      "imageId": 5,
      "cred": 10,
      "flags": 7,
      "label": "Art Critic",
      "description": "Destroy ONE cat statue.",
      "howto": "Destroy ONE cat statue."
    },
    {
      "id": 50,
      "imageId": 6,
      "cred": 25,
      "flags": 7,
      "label": "Cat Hater",
      "description": "Destroy FIFTY cat statues.",
      "howto": "Destroy FIFTY cat statues."
    },
    {
      "id": 51,
      "imageId": 4,
      "cred": 50,
      "flags": 7,
      "label": "Wreaking Havok!",
      "description": "Destroy ONE HUNDRED cat statues.",
      "howto": "Destroy ONE HUNDRED cat statues."
    },
    {
      "id": 52,
      "imageId": 24,
      "cred": 30,
      "flags": 1,
      "label": "Radu’s Requiem",
      "description": "Defeat Radu, the boss of the Romanians.",
      "howto": "Defeat Radu, the boss of the Romanians."
    },
    {
      "id": 53,
      "imageId": 21,
      "cred": 30,
      "flags": 1,
      "label": "Paulo’s Peace",
      "description": "Defeat Paulo, the boss of the Los Lantos.",
      "howto": "Defeat Paulo, the boss of the Los Lantos."
    },
    {
      "id": 54,
      "imageId": 11,
      "cred": 25,
      "flags": 7,
      "label": "Is It A Bird?",
      "description": "Use the Airjack FIFTY times.",
      "howto": "Use the Airjack FIFTY times."
    },
    {
      "id": 55,
      "imageId": 11,
      "cred": 25,
      "flags": 7,
      "label": "Sharpshooter",
      "description": "Destroy three vehicles during a single Cyclone or Aimed Shot move.",
      "howto": "Destroy three vehicles during a single Cyclone or Aimed Shot move."
    },
    {
      "id": 56,
      "imageId": 11,
      "cred": 25,
      "flags": 7,
      "label": "Mission Improbable",
      "description": "Complete a Fugitive side mission on a motorcycle.",
      "howto": "Complete a Fugitive side mission on a motorcycle."
    },
    {
      "id": 57,
      "imageId": 11,
      "cred": 25,
      "flags": 7,
      "label": "Mission From God",
      "description": "Survive a five star police response for 5 minutes.",
      "howto": "Survive a five star police response for 5 minutes."
    },
    {
      "id": 58,
      "imageId": 11,
      "cred": 30,
      "flags": 7,
      "label": "Accidental Tourist\r\n",
      "description": "Visit every district in Barcelona.",
      "howto": "Visit every district in Barcelona."
    }
  ]
}