{
  "avatarAssetsPossible": 5,
  "maleAvatarAssetsPossible": 2,
  "femaleAvatarAssetsPossible": 2,
  "avatarAssets": [
    {
      "id": "00000440-0001-5151-cedc-b4ad54540897",
      "imageId": 29,
      "subcategory": 0,
      "unknown": 0,
      "isMale": true,
      "isFemale": false,
      "isUnisex": false,
      "label": "Barker Bowler",
      "description": "Purchase Barker Bowler Prize",
      "howto": "Purchase Barker Bowler Prize"
    },
    {
      "id": "00000440-0001-8142-ccaf-195954540897",
      "imageId": 29,
      "subcategory": 0,
      "unknown": 2013287320,
      "isMale": false,
      "isFemale": true,
      "isUnisex": false,
      "label": "Barker Bowler",
      "description": "Purchase Barker Bowler Prize",
      "howto": "Purchase Barker Bowler Prize"
    },
    {
      "id": "00000ab8-0002-11b1-c931-4fc854540897",
      "imageId": 30,
      "subcategory": 0,
      "unknown": 2013287320,
      "isMale": true,
      "isFemale": false,
      "isUnisex": false,
      "label": "Barker's Best",
      "description": "Purchase the Barker's Best Prize",
      "howto": "Purchase the Barker's Best Prize"
    },
    {
      "id": "00000ab8-0002-1112-c25a-3e8e54540897",
      "imageId": 30,
      "subcategory": 0,
      "unknown": 2013287320,
      "isMale": false,
      "isFemale": true,
      "isUnisex": false,
      "label": "Barker's Best",
      "description": "Purchase the Barker's Best Prize",
      "howto": "Purchase the Barker's Best Prize"
    },
    {
      "id": "00001000-0003-f193-ccf6-9ba054540897",
      "imageId": 31,
      "subcategory": 0,
      "unknown": 2013287320,
      "isMale": false,
      "isFemale": false,
      "isUnisex": true,
      "label": "Monkey Barker",
      "description": "Purchase Monkey Barker Prize",
      "howto": "Purchase Monkey Barker Prize"
    }
  ]
}