{
  "avatarAssetsPossible": 3,
  "maleAvatarAssetsPossible": 1,
  "femaleAvatarAssetsPossible": 1,
  "avatarAssets": [
    {
      "id": "00000008-0004-9191-c46a-1d28415608ae",
      "imageId": 68,
      "subcategory": 0,
      "unknown": 0,
      "isMale": true,
      "isFemale": false,
      "isUnisex": false,
      "label": "Wipeout Life Jacket",
      "description": "Keep your Avatar safe with Wipeout's classic Life Jacket!",
      "howto": "Enter the secret code to unlock this item!"
    },
    {
      "id": "00000008-0004-01c2-c9ca-da4d415608ae",
      "imageId": 69,
      "subcategory": 0,
      "unknown": 2015221016,
      "isMale": false,
      "isFemale": true,
      "isUnisex": false,
      "label": "Wipeout Life Jacket",
      "description": "Keep your Avatar safe with Wipeout's classic Life Jacket!",
      "howto": "Enter the secret code to unlock this item!"
    },
    {
      "id": "00000544-0005-d193-c981-98e7415608ae",
      "imageId": 79,
      "subcategory": 0,
      "unknown": 2015221016,
      "isMale": false,
      "isFemale": false,
      "isUnisex": true,
      "label": "Wipeout Safety Helmet",
      "description": "Complete your Wipeout outfit with the show's crash helmet!",
      "howto": "Enter the secret code to unlock this item!"
    }
  ]
}