{
  "achievementsPossible": 50,
  "credPossible": 1000,
  "achievements": [
    {
      "id": 1,
      "imageId": 2,
      "cred": 10,
      "flags": 1,
      "label": "Lock and Load",
      "description": "Completed Chapter 1.",
      "howto": "Complete Chapter 1."
    },
    {
      "id": 2,
      "imageId": 3,
      "cred": 30,
      "flags": 1,
      "label": "Soldier's blood",
      "description": "Completed Chapter 2.",
      "howto": "Complete Chapter 2."
    },
    {
      "id": 3,
      "imageId": 4,
      "cred": 30,
      "flags": 1,
      "label": "Does not compute",
      "description": "Completed Chapter 3.",
      "howto": "Complete Chapter 3."
    },
    {
      "id": 4,
      "imageId": 5,
      "cred": 30,
      "flags": 1,
      "label": "Not in Kansas any more",
      "description": "Completed Chapter 4.",
      "howto": "Complete Chapter 4."
    },
    {
      "id": 5,
      "imageId": 40,
      "cred": 60,
      "flags": 1,
      "label": "I'm not on a holy war",
      "description": "Defeated Akasha and completed the campaign.",
      "howto": "Defeat Akasha and complete the campaign."
    },
    {
      "id": 6,
      "imageId": 6,
      "cred": 30,
      "flags": 1,
      "label": "Just business",
      "description": "Completed Chapter 2  in Insane.",
      "howto": "Complete Chapter 2  in Insane."
    },
    {
      "id": 7,
      "imageId": 7,
      "cred": 30,
      "flags": 1,
      "label": "Bag of bolts",
      "description": "Completed Chapter 3  in Insane.",
      "howto": "Complete Chapter 3  in Insane."
    },
    {
      "id": 8,
      "imageId": 8,
      "cred": 30,
      "flags": 1,
      "label": "Open war",
      "description": "Completed Chapter 4  in Insane.",
      "howto": "Complete Chapter 4  in Insane."
    },
    {
      "id": 9,
      "imageId": 41,
      "cred": 60,
      "flags": 1,
      "label": "Fear the Reaper",
      "description": "Defeated Akasha and completed the campaign in Insane.",
      "howto": "Defeat Akasha and complete the campaign in Insane."
    },
    {
      "id": 10,
      "imageId": 9,
      "cred": 10,
      "flags": 1,
      "label": "I need some backup",
      "description": "Completed 1 mission in co-op.",
      "howto": "Complete 1 mission in co-op."
    },
    {
      "id": 11,
      "imageId": 10,
      "cred": 20,
      "flags": 1,
      "label": "Got your back",
      "description": "Completed 10 missions in co-op.",
      "howto": "Complete 10 missions in co-op."
    },
    {
      "id": 12,
      "imageId": 11,
      "cred": 40,
      "flags": 1,
      "label": "Thanks to all the little people",
      "description": "Completed the campaign in co-op.",
      "howto": "Complete a campaign in co-op."
    },
    {
      "id": 13,
      "imageId": 12,
      "cred": 10,
      "flags": 1,
      "label": "I see how it is",
      "description": "Completed an Instant Action match in every game mode.",
      "howto": "Complete an Instant Action match in every game mode."
    },
    {
      "id": 14,
      "imageId": 13,
      "cred": 20,
      "flags": 1,
      "label": "Untouchable",
      "description": "Reached 20 kills against a god-like bot in instant action without dying.",
      "howto": "Reach 20 kills against a god-like bot in instant action without dying."
    },
    {
      "id": 15,
      "imageId": 14,
      "cred": 40,
      "flags": 1,
      "label": "Like the back of my hand",
      "description": "Collected every power up on every map.",
      "howto": "Collect every power up on every map."
    },
    {
      "id": 16,
      "imageId": 15,
      "cred": 20,
      "flags": 1,
      "label": "Spice of life",
      "description": "Played a match with every mutator, using only 1 per match.",
      "howto": "Play a match with every mutator, using only 1 per match."
    },
    {
      "id": 17,
      "imageId": 16,
      "cred": 10,
      "flags": 1,
      "label": "Brain Surgeon",
      "description": "Got the \"Head Hunter\" award in 10 matches.",
      "howto": "Get the \"Head Hunter\" award in 10 matches."
    },
    {
      "id": 18,
      "imageId": 17,
      "cred": 10,
      "flags": 1,
      "label": "Don't taze me bro!",
      "description": "Got the \"Combo King\" award in 10 matches.",
      "howto": "Get the \"Combo King\" award in 10 matches."
    },
    {
      "id": 19,
      "imageId": 18,
      "cred": 10,
      "flags": 1,
      "label": "Goo God",
      "description": "Got the \"Biohazard\" award in 10 matches. ",
      "howto": "Get the \"Biohazard\" award in 10 matches."
    },
    {
      "id": 20,
      "imageId": 19,
      "cred": 10,
      "flags": 1,
      "label": "Pistolero",
      "description": "Got the \"Gun Slinger\" award in 10 matches.",
      "howto": "Get the \"Gun Slinger\" award in 10 matches."
    },
    {
      "id": 21,
      "imageId": 42,
      "cred": 10,
      "flags": 1,
      "label": "Shard-o-matic",
      "description": "Got the \"Blue Streak\" award in 10 matches.",
      "howto": "Get the \"Blue Streak\" award in 10 matches."
    },
    {
      "id": 22,
      "imageId": 20,
      "cred": 10,
      "flags": 1,
      "label": "Hammerhead",
      "description": "Got the \"JackHammer\" award in 10 matches.",
      "howto": "Get the \"JackHammer\" award in 10 matches."
    },
    {
      "id": 23,
      "imageId": 21,
      "cred": 10,
      "flags": 1,
      "label": "Strongest Link",
      "description": "Got the \"Shaft Master\" award in 10 matches.",
      "howto": "Get the \"Shaft Master\" award in 10 matches."
    },
    {
      "id": 24,
      "imageId": 22,
      "cred": 20,
      "flags": 1,
      "label": "Have a nice day!",
      "description": "Got the \"Rocket Scientist\" award in 10 matches and \"Flak Master\" award in 10 matches.",
      "howto": "Get the \"Rocket Scientist\" award in 10 matches and \"Flak Master\" award in 10 matches."
    },
    {
      "id": 25,
      "imageId": 23,
      "cred": 10,
      "flags": 1,
      "label": "Big Game Hunter",
      "description": "Got the \"Big Game Hunter\" award in 10 matches.",
      "howto": "Get the \"Big Game Hunter\" award in 10 matches."
    },
    {
      "id": 26,
      "imageId": 24,
      "cred": 10,
      "flags": 1,
      "label": "Armadillo",
      "description": "Got the \"Roadkill\" award in 10 matches",
      "howto": "Get the \"Roadkill\" award in 10 matches"
    },
    {
      "id": 27,
      "imageId": 25,
      "cred": 10,
      "flags": 1,
      "label": "Jack of all trades",
      "description": "Killed an enemy with every vehicle (except hoverboard).",
      "howto": "Kill an enemy with every vehicle (except hoverboard)."
    },
    {
      "id": 28,
      "imageId": 26,
      "cred": 10,
      "flags": 1,
      "label": "Ace",
      "description": "Got the \"Top Gun\" award in 20 matches.",
      "howto": "Get the \"Top Gun\" award in 20 matches."
    },
    {
      "id": 29,
      "imageId": 27,
      "cred": 10,
      "flags": 1,
      "label": "Deathwish",
      "description": "Got the \"Bullseye\" (self-destruct to destroy an enemy) award in 20 matches.",
      "howto": "Get \"Bullseye\" (self-destruct to destroy an enemy) award in 20 matches."
    },
    {
      "id": 30,
      "imageId": 43,
      "cred": 10,
      "flags": 1,
      "label": "Seeing Red",
      "description": "Had over 20 minutes of \"Berserk Time\".",
      "howto": "Have over 20 minutes of \"Berserk Time\"."
    },
    {
      "id": 31,
      "imageId": 44,
      "cred": 10,
      "flags": 1,
      "label": "Never Saw it Coming",
      "description": "Had over 20 minutes of \"Invisibility Time\".",
      "howto": "Have over 20 minutes of \"Invisibility Time\"."
    },
    {
      "id": 32,
      "imageId": 45,
      "cred": 10,
      "flags": 1,
      "label": "Survival of the fittest",
      "description": "Had over 10 minutes of \"Invulnerable Time\".",
      "howto": "Have over 10 minutes of \"Invulnerable Time\"."
    },
    {
      "id": 33,
      "imageId": 46,
      "cred": 10,
      "flags": 1,
      "label": "Delivering the Hurt",
      "description": "Had over 20 minutes of \"UDamage Time\".",
      "howto": "Have over 20 minutes of \"UDamage Time\"."
    },
    {
      "id": 34,
      "imageId": 28,
      "cred": 20,
      "flags": 1,
      "label": "Hat trick",
      "description": "Achieved a Hat Trick in 10 CTF or VCTF matches.",
      "howto": "Achieve a Hat Trick in 10 CTF or VCTF matches."
    },
    {
      "id": 35,
      "imageId": 47,
      "cred": 10,
      "flags": 1,
      "label": "Being a Hero",
      "description": "Returned 100 Orbs in Warfare matches.",
      "howto": "Return 100 Orbs in Warfare matches."
    },
    {
      "id": 36,
      "imageId": 48,
      "cred": 20,
      "flags": 1,
      "label": "Flag waver",
      "description": "Completed 100 CTF matches played to at least 3 captures.",
      "howto": "Completed 100 CTF matches played to at least 3 captures."
    },
    {
      "id": 37,
      "imageId": 49,
      "cred": 20,
      "flags": 1,
      "label": "Thirty minutes or less",
      "description": "Completed 100 VCTF matches played to at least 3 captures.",
      "howto": "Complete 100 VCTF matches played to at least 3 captures."
    },
    {
      "id": 38,
      "imageId": 50,
      "cred": 20,
      "flags": 1,
      "label": "Paint the town red",
      "description": "Completed 100 Deathmatch or Duel matches played to at least 20 kills.",
      "howto": "Complete 100 Deathmatch or Duel matches played to at least 20 kills."
    },
    {
      "id": 39,
      "imageId": 51,
      "cred": 20,
      "flags": 1,
      "label": "Connect the dots",
      "description": "Completed 100 Warfare matches played to at least 3 points.",
      "howto": "Complete 100 Warfare matches played to at least 3 points."
    },
    {
      "id": 40,
      "imageId": 29,
      "cred": 20,
      "flags": 1,
      "label": "Serial killer",
      "description": "Got the \"Killing Spree\" award in 20 matches.",
      "howto": "Get the \"Killing Spree\" award in 20 matches."
    },
    {
      "id": 41,
      "imageId": 30,
      "cred": 20,
      "flags": 1,
      "label": "Sir Slays a Lot",
      "description": "Got the \"Monster Kill\" award in 20 matches.",
      "howto": "Get the \"Monster Kill\" award in 20 matches."
    },
    {
      "id": 42,
      "imageId": 31,
      "cred": 10,
      "flags": 1,
      "label": "Killjoy",
      "description": "End sprees in 20 matches.",
      "howto": "End sprees in 20 matches."
    },
    {
      "id": 43,
      "imageId": 32,
      "cred": 10,
      "flags": 1,
      "label": "Off to a good start",
      "description": "Got the \"First Blood\" award in 40 matches.",
      "howto": "Get the \"First Blood\" award in 40 matches."
    },
    {
      "id": 44,
      "imageId": 33,
      "cred": 20,
      "flags": 1,
      "label": "Lets get it on",
      "description": "Completed a multiplayer match in every game type.",
      "howto": "Complete a multiplayer match in every game type."
    },
    {
      "id": 45,
      "imageId": 34,
      "cred": 20,
      "flags": 1,
      "label": "Around the World",
      "description": "Won a multiplayer match on every map.",
      "howto": "Win a multiplayer match on every map."
    },
    {
      "id": 46,
      "imageId": 35,
      "cred": 50,
      "flags": 1,
      "label": "Get a life…",
      "description": "Got 200 kills in multiplayer on 50 different days.",
      "howto": "Get 200 kills in multiplayer on 50 different days."
    },
    {
      "id": 47,
      "imageId": 36,
      "cred": 10,
      "flags": 1,
      "label": "Just warming up",
      "description": "Finished playing a \"Versus\" Ranked match.",
      "howto": "Finish playing a \"Versus\" Ranked match."
    },
    {
      "id": 48,
      "imageId": 37,
      "cred": 10,
      "flags": 1,
      "label": "Winning is the only thing",
      "description": "Finished with the highest points in a Ranked match.",
      "howto": "Finish with the highest points in a Ranked match."
    },
    {
      "id": 49,
      "imageId": 38,
      "cred": 20,
      "flags": 1,
      "label": "Equal opportunity destroyer ",
      "description": "Won a Ranked match in every game type.",
      "howto": "Win a Ranked match in every game type."
    },
    {
      "id": 50,
      "imageId": 39,
      "cred": 50,
      "flags": 1,
      "label": "Ranked Champion",
      "description": "Won 500 Ranked matches.",
      "howto": "Win 500 Ranked matches."
    }
  ]
}