{
  "achievementsPossible": 50,
  "credPossible": 1000,
  "achievements": [
    {
      "id": 24,
      "imageId": 3,
      "cred": 25,
      "flags": 6,
      "label": "Still Broken",
      "description": "Restored the first continent",
      "howto": "Save the first continent"
    },
    {
      "id": 25,
      "imageId": 4,
      "cred": 25,
      "flags": 6,
      "label": "Looking Better",
      "description": "Restored the second continent",
      "howto": "Save the second continent"
    },
    {
      "id": 26,
      "imageId": 5,
      "cred": 25,
      "flags": 6,
      "label": "Still a Jigsaw Puzzle",
      "description": "Restored the third continent",
      "howto": "Save the third continent"
    },
    {
      "id": 27,
      "imageId": 6,
      "cred": 25,
      "flags": 6,
      "label": "Picking Up the Pieces",
      "description": "Restored the fourth continent",
      "howto": "Save the fourth continent"
    },
    {
      "id": 28,
      "imageId": 7,
      "cred": 25,
      "flags": 6,
      "label": "Almost There",
      "description": "Restored the fifth continent",
      "howto": "Save the fifth continent"
    },
    {
      "id": 29,
      "imageId": 8,
      "cred": 25,
      "flags": 6,
      "label": "One More to Go",
      "description": "Restored the sixth continent",
      "howto": "Save the sixth continent"
    },
    {
      "id": 31,
      "imageId": 9,
      "cred": 100,
      "flags": 1,
      "label": "World Savior",
      "description": "Cleared the game",
      "howto": "Complete the game"
    },
    {
      "id": 32,
      "imageId": 10,
      "cred": 30,
      "flags": 1,
      "label": "Partly Cloudy",
      "description": "Collected half of the Sun Medals",
      "howto": "Collect Sun Medals"
    },
    {
      "id": 33,
      "imageId": 32,
      "cred": 50,
      "flags": 1,
      "label": "Sunny",
      "description": "Collected all Sun Medals",
      "howto": "Collect all of the Sun Medals"
    },
    {
      "id": 34,
      "imageId": 33,
      "cred": 30,
      "flags": 1,
      "label": "Half Moon",
      "description": "Collected half of the Moon Medals",
      "howto": "Collect Moon Medals"
    },
    {
      "id": 35,
      "imageId": 31,
      "cred": 50,
      "flags": 1,
      "label": "Full Moon",
      "description": "Collected all Moon Medals",
      "howto": "Collect all of the Moon Medals"
    },
    {
      "id": 36,
      "imageId": 40,
      "cred": 30,
      "flags": 2,
      "label": "Blue Streak",
      "description": "Upgraded all of Sonic the Hedgehog's stats to their maximum levels",
      "howto": "Create an unbeatable Hedgehog"
    },
    {
      "id": 37,
      "imageId": 41,
      "cred": 30,
      "flags": 2,
      "label": "Power Overwhelming",
      "description": "Upgraded all of Sonic the Werehog's stats to their maximum levels",
      "howto": "Create an unbeatable Werehog"
    },
    {
      "id": 38,
      "imageId": 36,
      "cred": 15,
      "flags": 2,
      "label": "Getting the Hang of Things",
      "description": "Achieved an S Rank with Sonic the Hedgehog for the first time",
      "howto": "Get a high score with Sonic the Hedgehog"
    },
    {
      "id": 39,
      "imageId": 37,
      "cred": 15,
      "flags": 2,
      "label": "Creature of the Night",
      "description": "Achieved an S Rank with Sonic the Werehog for the first time",
      "howto": "Get a high score with Sonic the Werehog"
    },
    {
      "id": 40,
      "imageId": 14,
      "cred": 20,
      "flags": 1,
      "label": "Helping Hand",
      "description": "Completed all missions for a townsperson",
      "howto": "Help someone in need"
    },
    {
      "id": 41,
      "imageId": 45,
      "cred": 10,
      "flags": 2,
      "label": "Lay the Smackdown",
      "description": "Have mastered the Stomp technique",
      "howto": "Improve your Stomp!"
    },
    {
      "id": 42,
      "imageId": 46,
      "cred": 10,
      "flags": 2,
      "label": "Wall Crawler",
      "description": "Have mastered the Wall Jump technique",
      "howto": "Improve your Wall Jump!"
    },
    {
      "id": 43,
      "imageId": 47,
      "cred": 10,
      "flags": 2,
      "label": "Airdevil",
      "description": "Have mastered the Air Boost technique",
      "howto": "Improve your Air Boost!"
    },
    {
      "id": 44,
      "imageId": 48,
      "cred": 10,
      "flags": 2,
      "label": "Hyperdrive",
      "description": "Have mastered the Lightspeed Dash technique",
      "howto": "Improve your Lightspeed Dash!"
    },
    {
      "id": 45,
      "imageId": 49,
      "cred": 10,
      "flags": 2,
      "label": "Basher",
      "description": "Have attained Combo Level 5",
      "howto": "Get your Werehog level up"
    },
    {
      "id": 46,
      "imageId": 50,
      "cred": 10,
      "flags": 2,
      "label": "Smasher",
      "description": "Have attained Combo Level 10",
      "howto": "Get your Werehog level up some more!"
    },
    {
      "id": 47,
      "imageId": 51,
      "cred": 10,
      "flags": 2,
      "label": "Crasher",
      "description": "Have attained Combo Level 15",
      "howto": "Get your Werehog level up even higher!"
    },
    {
      "id": 48,
      "imageId": 52,
      "cred": 10,
      "flags": 2,
      "label": "Thrasher",
      "description": "Have attained Combo Level 20",
      "howto": "Get your Werehog level way up there!"
    },
    {
      "id": 49,
      "imageId": 44,
      "cred": 30,
      "flags": 1,
      "label": "Social Butterfly",
      "description": "Talked to all townspeople",
      "howto": "Talk to people around the world"
    },
    {
      "id": 50,
      "imageId": 30,
      "cred": 30,
      "flags": 1,
      "label": "Hungry Hungry Hedgehog",
      "description": "Got every type of food",
      "howto": "Eat everything in the world"
    },
    {
      "id": 51,
      "imageId": 28,
      "cred": 20,
      "flags": 1,
      "label": "Ace Pilot",
      "description": "Cleared Act 1 of Tornado Defense without taking damage",
      "howto": "Pull off some flawless flying"
    },
    {
      "id": 52,
      "imageId": 15,
      "cred": 20,
      "flags": 1,
      "label": "Day Tripper",
      "description": "Cleared all Sonic the Hedgehog stages",
      "howto": "Race through all stages"
    },
    {
      "id": 53,
      "imageId": 16,
      "cred": 20,
      "flags": 1,
      "label": "Hard Day’s Night",
      "description": "Cleared all Sonic the Werehog stages",
      "howto": "Blast through all stages"
    },
    {
      "id": 54,
      "imageId": 34,
      "cred": 20,
      "flags": 1,
      "label": "Get on the Exorcise Bandwagon",
      "description": "Exorcised everyone",
      "howto": "Drive dark spirits away"
    },
    {
      "id": 64,
      "imageId": 22,
      "cred": 10,
      "flags": 1,
      "label": "Gyro with Relish",
      "description": "Cleared all hot dog stand missions in Apotos",
      "howto": "Eat all the hot dogs in Apotos"
    },
    {
      "id": 65,
      "imageId": 21,
      "cred": 10,
      "flags": 1,
      "label": "Pig in a Blanket",
      "description": "Cleared all hot dog stand missions in Spagonia",
      "howto": "Eat all the hot dogs in Spagonia"
    },
    {
      "id": 66,
      "imageId": 17,
      "cred": 10,
      "flags": 1,
      "label": "Exotic Toppings",
      "description": "Cleared all hot dog stand missions in Mazuri",
      "howto": "Eat all the hot dogs in Mazuri"
    },
    {
      "id": 67,
      "imageId": 19,
      "cred": 10,
      "flags": 1,
      "label": "Sausage Fried Rice",
      "description": "Cleared all hot dog stand missions in Chun-nan",
      "howto": "Eat all the hot dogs in Chun-nan"
    },
    {
      "id": 68,
      "imageId": 25,
      "cred": 10,
      "flags": 1,
      "label": "Iced Hotdog",
      "description": "Cleared all hot dog stand missions in Holoska",
      "howto": "Eat all the hot dogs in Holoska"
    },
    {
      "id": 69,
      "imageId": 24,
      "cred": 10,
      "flags": 1,
      "label": "Kebab on a Bun",
      "description": "Cleared all hot dog stand missions in Shamar",
      "howto": "Eat all the hot dogs in Shamar"
    },
    {
      "id": 70,
      "imageId": 23,
      "cred": 10,
      "flags": 1,
      "label": "Ketchup and Mustard",
      "description": "Cleared all hot dog stand missions in Empire City",
      "howto": "Eat all the hot dogs in Empire City"
    },
    {
      "id": 71,
      "imageId": 20,
      "cred": 10,
      "flags": 1,
      "label": "Hard Boiled",
      "description": "Cleared all hot dog stand missions in Eggmanland",
      "howto": "Eat all the hot dogs in Eggmanland"
    },
    {
      "id": 72,
      "imageId": 18,
      "cred": 10,
      "flags": 1,
      "label": "Fried Clam Roll",
      "description": "Cleared all hot dog stand missions in Adabat",
      "howto": "Eat all the hot dogs in Adabat"
    },
    {
      "id": 73,
      "imageId": 13,
      "cred": 10,
      "flags": 1,
      "label": "First Time Customer",
      "description": "Bought a product from Wentos",
      "howto": "Buy something from Wentos"
    },
    {
      "id": 74,
      "imageId": 39,
      "cred": 10,
      "flags": 2,
      "label": "Oh, You Shouldn't Have!",
      "description": "Gave a souvenir to the Professor",
      "howto": "Give a souvenir to the Professor"
    },
    {
      "id": 75,
      "imageId": 38,
      "cred": 20,
      "flags": 1,
      "label": "That's Enough, Seriously",
      "description": "Gave all souvenirs to the Professor",
      "howto": "Give every souvenir to the Professor"
    },
    {
      "id": 76,
      "imageId": 27,
      "cred": 5,
      "flags": 1,
      "label": "Hedgehunk",
      "description": "Cleared the Louie Montaine missions in Empire City and the Ana missions in Mazuri",
      "howto": "Talk with people in the pursuit of love"
    },
    {
      "id": 77,
      "imageId": 26,
      "cred": 5,
      "flags": 1,
      "label": "I Ain't Afraid of No Ghost",
      "description": "Cleared the Marcantonio missions in Spagonia",
      "howto": "Someone is dealing with spectral troubles"
    },
    {
      "id": 78,
      "imageId": 12,
      "cred": 20,
      "flags": 1,
      "label": "BFFs",
      "description": "Became best friends with Chip.",
      "howto": "Become better friends with Chip"
    },
    {
      "id": 79,
      "imageId": 43,
      "cred": 20,
      "flags": 2,
      "label": "Speeding Ticket",
      "description": "Reached the Goal of Arid Sands, Act 1 as Sonic within 2'50\"",
      "howto": "Become the fastest thing alive"
    },
    {
      "id": 80,
      "imageId": 42,
      "cred": 20,
      "flags": 2,
      "label": "Combo King",
      "description": "Achieved 10,000 total combos",
      "howto": "Work on your combos"
    },
    {
      "id": 81,
      "imageId": 29,
      "cred": 20,
      "flags": 1,
      "label": "Ring Leader",
      "description": "Collected 5,000 total rings",
      "howto": "Gather Rings from all over the world"
    },
    {
      "id": 82,
      "imageId": 11,
      "cred": 20,
      "flags": 1,
      "label": "Knockout Brawler",
      "description": "Defeated 1,000 enemies",
      "howto": "Smash, smash, and smash some more"
    },
    {
      "id": 83,
      "imageId": 35,
      "cred": 20,
      "flags": 7,
      "label": "Blue Meteor",
      "description": "Reached the Goal of Windmill Isle, Act 2 as Sonic within 2'35\"",
      "howto": "Dash through the white walls at top speed"
    }
  ]
}