{
  "achievementsPossible": 41,
  "credPossible": 1250,
  "achievements": [
    {
      "id": 1,
      "imageId": 1,
      "cred": 25,
      "flags": 6,
      "label": "Prologue",
      "description": "Prologue successfully completed",
      "howto": "Complete the Prologue"
    },
    {
      "id": 2,
      "imageId": 12,
      "cred": 100,
      "flags": 6,
      "label": "Master Survivalist",
      "description": "Complete the game on hardest possible settings",
      "howto": "Complete the game on hardest possible settings"
    },
    {
      "id": 4,
      "imageId": 13,
      "cred": 30,
      "flags": 4,
      "label": "Treasure Collector",
      "description": "Found 10 Treasures",
      "howto": "Find 10 Treasures"
    },
    {
      "id": 5,
      "imageId": 11,
      "cred": 40,
      "flags": 4,
      "label": "Skilled Treasure Collector",
      "description": "Found 50 Treasures",
      "howto": "Find 50 Treasures"
    },
    {
      "id": 9,
      "imageId": 15,
      "cred": 50,
      "flags": 4,
      "label": "Dedicated Treasure Collector",
      "description": "Found 100 Treasures",
      "howto": "Find 100 Treasures"
    },
    {
      "id": 10,
      "imageId": 7,
      "cred": 60,
      "flags": 4,
      "label": "Master Treasure Collector",
      "description": "Found all 179 Treasures",
      "howto": "Find all 179 Treasures"
    },
    {
      "id": 11,
      "imageId": 14,
      "cred": 30,
      "flags": 4,
      "label": "Relic Collector",
      "description": "Found a Relic",
      "howto": "Find a Relic"
    },
    {
      "id": 12,
      "imageId": 16,
      "cred": 50,
      "flags": 4,
      "label": "Dedicated Relic Collector",
      "description": "Found 3 Relics",
      "howto": "Find 3 Relics"
    },
    {
      "id": 13,
      "imageId": 25,
      "cred": 70,
      "flags": 4,
      "label": "Master Relic Collector",
      "description": "Found all 6 Relics",
      "howto": "Find all 6 Relics"
    },
    {
      "id": 14,
      "imageId": 8,
      "cred": 10,
      "flags": 4,
      "label": "Swan Diver I",
      "description": "Performed a swan dive off one of the three highest points over water in the game",
      "howto": "In one adventure, swan dive off one of the three highest points over water in the game"
    },
    {
      "id": 17,
      "imageId": 17,
      "cred": 10,
      "flags": 4,
      "label": "Swan Diver II",
      "description": "Performed swan dives off two of the three highest points over water in the game",
      "howto": "In one adventure, swan dive off two of the three highest points over water in the game"
    },
    {
      "id": 18,
      "imageId": 22,
      "cred": 10,
      "flags": 4,
      "label": "Master Swan Diver",
      "description": "In one adventure, performed swan dives off the three highest points over water in the game",
      "howto": "In one adventure, swan dive off the three highest points over water in the game"
    },
    {
      "id": 21,
      "imageId": 19,
      "cred": 5,
      "flags": 4,
      "label": "Climber",
      "description": "Executed a chimney jump of at least 2 wall kicks",
      "howto": "Execute a chimney jump of at least 2 wall kicks"
    },
    {
      "id": 22,
      "imageId": 20,
      "cred": 10,
      "flags": 4,
      "label": "Master Climber",
      "description": "Executed a chimney jump of at least 4 wall kicks",
      "howto": "Execute a chimney jump of at least 4 wall kicks"
    },
    {
      "id": 23,
      "imageId": 26,
      "cred": 5,
      "flags": 4,
      "label": "Speed Demon I",
      "description": "Drove into Xibalba in under 45 seconds",
      "howto": "Drive into Xibalba in under 45 seconds"
    },
    {
      "id": 24,
      "imageId": 27,
      "cred": 5,
      "flags": 4,
      "label": "Speed Demon II",
      "description": "Drove from the top of Valgrind to the bottom in under 50 seconds",
      "howto": "Drove from the top of Valgrind to the bottom in under 50 seconds"
    },
    {
      "id": 25,
      "imageId": 28,
      "cred": 5,
      "flags": 4,
      "label": "Speed Demon III",
      "description": "Drove through the Valhalla Maze in under 40 seconds",
      "howto": "Drive through the Valhalla Maze in under 40 seconds"
    },
    {
      "id": 27,
      "imageId": 39,
      "cred": 10,
      "flags": 4,
      "label": "Master Speed Demon",
      "description": "Beat all three Speed Demon challenges",
      "howto": "Beat all three Speed Demon challenges"
    },
    {
      "id": 28,
      "imageId": 29,
      "cred": 5,
      "flags": 4,
      "label": "Roadkiller",
      "description": "Killed an enemy by running over it with the motorcycle",
      "howto": "Kill an enemy by running over it with the motorcycle"
    },
    {
      "id": 29,
      "imageId": 30,
      "cred": 10,
      "flags": 4,
      "label": "Master Roadkiller",
      "description": "Killed five enemies by running over them with the motorcycle",
      "howto": "Kill five enemies by running over them with the motorcycle"
    },
    {
      "id": 30,
      "imageId": 31,
      "cred": 10,
      "flags": 4,
      "label": "Grenadier",
      "description": "Killed two enemies with one grenade",
      "howto": "Kill two enemies with one grenade"
    },
    {
      "id": 31,
      "imageId": 32,
      "cred": 10,
      "flags": 4,
      "label": "Master Grenadier",
      "description": "Killed three enemies with one grenade",
      "howto": "Kill three enemies with one grenade"
    },
    {
      "id": 37,
      "imageId": 33,
      "cred": 5,
      "flags": 4,
      "label": "Weapons Expert",
      "description": "Executed an Adrenaline Attack headshot on an enemy",
      "howto": "Execute an Adrenaline Attack headshot on an enemy"
    },
    {
      "id": 38,
      "imageId": 34,
      "cred": 10,
      "flags": 4,
      "label": "Weapons Master",
      "description": "Executed ten Adrenaline Attack headshots",
      "howto": "Execute ten Adrenaline Attack headshots"
    },
    {
      "id": 40,
      "imageId": 2,
      "cred": 50,
      "flags": 6,
      "label": "Mediterranean Sea Expedition",
      "description": "Mediterranean Sea Expedition successfully completed",
      "howto": "Complete the Mediterranean Sea Expedition"
    },
    {
      "id": 41,
      "imageId": 3,
      "cred": 75,
      "flags": 6,
      "label": "Coastal Thailand Expedition",
      "description": "Coastal Thailand Expedition successfully completed",
      "howto": "Coastal Thailand Expedition successfully completed"
    },
    {
      "id": 42,
      "imageId": 5,
      "cred": 25,
      "flags": 6,
      "label": "Croft Manor Expedition",
      "description": "Croft manor Expedition successfully completed",
      "howto": "Complete the Croft manor Expedition"
    },
    {
      "id": 43,
      "imageId": 6,
      "cred": 100,
      "flags": 6,
      "label": "Southern Mexico Expedition",
      "description": "Southern Mexico Expedition successfully completed",
      "howto": "Complete the Southern Mexico Expedition"
    },
    {
      "id": 44,
      "imageId": 4,
      "cred": 50,
      "flags": 6,
      "label": "Jan Mayen Island Expedition",
      "description": "Jan Mayen Island Expedition successfully completed",
      "howto": "Complete the Jan Mayen Island Expedition"
    },
    {
      "id": 45,
      "imageId": 9,
      "cred": 25,
      "flags": 6,
      "label": "Andaman Sea Expedition",
      "description": "Andaman Sea Expedition successfully completed",
      "howto": "Complete the Andaman Sea Expedition"
    },
    {
      "id": 46,
      "imageId": 10,
      "cred": 100,
      "flags": 6,
      "label": "Arctic Sea Expedition",
      "description": "Arctic Sea Expedition successfully completed",
      "howto": "Complete the Arctic Sea Expedition"
    },
    {
      "id": 47,
      "imageId": 18,
      "cred": 50,
      "flags": 6,
      "label": "Beneath the Ashes",
      "description": "Beneath the Ashes Mission ",
      "howto": "Complete the Beneath the Ashes Mission"
    },
    {
      "id": 48,
      "imageId": 21,
      "cred": 50,
      "flags": 1,
      "label": "Master Collector",
      "description": "Hidden Relic and all Treasures in Beneath the Ashes Found",
      "howto": "Find the Hidden Relic and all Treasures in Beneath the Ashes"
    },
    {
      "id": 49,
      "imageId": 23,
      "cred": 25,
      "flags": 6,
      "label": "Collector",
      "description": "Hidden Relic in Beneath the Ashes Found",
      "howto": "Find the Hidden Relic in Beneath the Ashes"
    },
    {
      "id": 50,
      "imageId": 24,
      "cred": 10,
      "flags": 4,
      "label": "Treasure Hunter",
      "description": "All Treasures in Lara's Shadow found",
      "howto": "Find all Treasures in Lara's Shadow"
    },
    {
      "id": 51,
      "imageId": 35,
      "cred": 10,
      "flags": 4,
      "label": "Relic Hunter",
      "description": "Hidden Relic in Lara's Shadow found",
      "howto": "Find the Hidden Relic in Lara's Shadow"
    },
    {
      "id": 53,
      "imageId": 36,
      "cred": 25,
      "flags": 4,
      "label": "Master Reward Hunter",
      "description": "Hidden Relic and all Treasures in Lara's Shadow found",
      "howto": "Find the Hidden Relic and all Treasures in Lara's Shadow"
    },
    {
      "id": 54,
      "imageId": 37,
      "cred": 50,
      "flags": 6,
      "label": "Lara's Shadow",
      "description": "Lara's Shadow Mission successfully completed",
      "howto": "Complete the Lara's Shadow Mission"
    },
    {
      "id": 55,
      "imageId": 38,
      "cred": 10,
      "flags": 4,
      "label": "Refinery Speed Run",
      "description": "Completed a timed speed run from the first slope in the Refinery to the back platform",
      "howto": "Complete a timed speed run from the first slope in the Refinery to the back platform without saving"
    },
    {
      "id": 56,
      "imageId": 40,
      "cred": 10,
      "flags": 4,
      "label": "Right of Passage",
      "description": "After destroying the Transformer, beaten a timed speed run through the unstable passage",
      "howto": "After destroying the Transformer, beat a timed speed run through the unstable passage without saving"
    },
    {
      "id": 57,
      "imageId": 41,
      "cred": 10,
      "flags": 4,
      "label": "Shadow Combat Master",
      "description": "Completed the combat tutorial in Lara's Shadow",
      "howto": "Complete the combat tutorial in Lara's Shadow"
    }
  ]
}