{
  "achievementsPossible": 12,
  "credPossible": 200,
  "achievements": [
    {
      "id": 1,
      "imageId": 1,
      "cred": 25,
      "flags": 1,
      "label": "Turmoil",
      "description": "Reach the random waves\r\nEvolved game - Normal difficulty",
      "howto": "Reach the random waves\r\nEvolved game - Normal difficulty"
    },
    {
      "id": 2,
      "imageId": 2,
      "cred": 20,
      "flags": 1,
      "label": "Shimmer",
      "description": "Reach the yellow waves\r\nEvolved game - Normal difficulty",
      "howto": "Reach the yellow waves\r\nEvolved game - Normal difficulty"
    },
    {
      "id": 3,
      "imageId": 3,
      "cred": 20,
      "flags": 1,
      "label": "Maniac",
      "description": "Score 100,000\r\nEvolved game - Throttle Monkey mode",
      "howto": "Score 100,000\r\nEvolved game - Throttle Monkey mode"
    },
    {
      "id": 4,
      "imageId": 4,
      "cred": 15,
      "flags": 1,
      "label": "Flicker",
      "description": "Destroy a Pulsar\r\nEvolved game - Normal difficulty",
      "howto": "Destroy a Pulsar\r\nEvolved game - Normal difficulty"
    },
    {
      "id": 5,
      "imageId": 5,
      "cred": 10,
      "flags": 1,
      "label": "Snap",
      "description": "Clear the first 9 waves\r\nEvolved game - Normal difficulty",
      "howto": "Clear the first 9 waves\r\nEvolved game - Normal difficulty"
    },
    {
      "id": 6,
      "imageId": 6,
      "cred": 10,
      "flags": 1,
      "label": "Streak",
      "description": "Clear the first 5 waves in 90 seconds\r\nEvolved game - Normal difficulty",
      "howto": "Clear the first 5 waves in 90 seconds\r\nEvolved game - Normal difficulty"
    },
    {
      "id": 7,
      "imageId": 7,
      "cred": 15,
      "flags": 1,
      "label": "Trace",
      "description": "Destroy 20 Fuseballs in 1 game\r\nEvolved game - Normal difficulty",
      "howto": "Destroy 20 Fuseballs in 1 game\r\nEvolved game - Normal difficulty"
    },
    {
      "id": 8,
      "imageId": 8,
      "cred": 15,
      "flags": 1,
      "label": "Dodge",
      "description": "Destroy 20 Flippers on the outer rim in 1 wave\r\nEvolved game - Normal difficulty",
      "howto": "Destroy 20 Flippers on the outer rim in 1 wave\r\nEvolved game - Normal difficulty"
    },
    {
      "id": 9,
      "imageId": 9,
      "cred": 15,
      "flags": 1,
      "label": "Deflect",
      "description": "Clear the first 9 waves without anything reaching the rim\r\nEvolved game - Normal difficulty",
      "howto": "Clear the first 9 waves without anything reaching the rim\r\nEvolved game - Normal difficulty"
    },
    {
      "id": 10,
      "imageId": 10,
      "cred": 15,
      "flags": 1,
      "label": "Deplete",
      "description": "Clear wave 5 without leaving any Spikes\r\nEvolved game - Normal difficulty",
      "howto": "Clear wave 5 without leaving any Spikes\r\nEvolved game - Normal difficulty"
    },
    {
      "id": 11,
      "imageId": 11,
      "cred": 20,
      "flags": 1,
      "label": "Secure",
      "description": "Have 5 lives in hand\r\nEvolved game - Normal difficulty",
      "howto": "Have 5 lives in hand\r\nEvolved game - Normal difficulty"
    },
    {
      "id": 12,
      "imageId": 12,
      "cred": 20,
      "flags": 1,
      "label": "Struggle",
      "description": "Clear the first 12 waves without using a Super Zapper\r\nEvolved game - Normal difficulty",
      "howto": "Clear the first 12 waves without using a Super Zapper\r\nEvolved game - Normal difficulty"
    }
  ]
}