{
  "achievementsPossible": 12,
  "credPossible": 200,
  "achievements": [
    {
      "id": 1,
      "imageId": 1,
      "cred": 10,
      "flags": 1,
      "label": "Bench Time",
      "description": "Win by 10 or more",
      "howto": "Win by 10 or more"
    },
    {
      "id": 2,
      "imageId": 2,
      "cred": 10,
      "flags": 1,
      "label": "In The Flow",
      "description": "Score a 3 in momentum",
      "howto": "Score a 3 in momentum"
    },
    {
      "id": 3,
      "imageId": 3,
      "cred": 10,
      "flags": 1,
      "label": "Above The Rim",
      "description": "Complete an alley-oop dunk",
      "howto": "Complete an alley-oop dunk"
    },
    {
      "id": 4,
      "imageId": 4,
      "cred": 10,
      "flags": 1,
      "label": "Posterized",
      "description": "Complete 10 dunks in one game",
      "howto": "Complete 10 dunks in one game"
    },
    {
      "id": 5,
      "imageId": 5,
      "cred": 10,
      "flags": 1,
      "label": "Unrivaled",
      "description": "Win the challenge ladder with one team",
      "howto": "Win the challenge ladder with one team"
    },
    {
      "id": 6,
      "imageId": 6,
      "cred": 10,
      "flags": 1,
      "label": "From Downtown",
      "description": "Score 3 back to back 3 pointers",
      "howto": "Score 3 back to back 3 pointers"
    },
    {
      "id": 7,
      "imageId": 7,
      "cred": 10,
      "flags": 1,
      "label": "Triple Double",
      "description": "Post a triple double (at least 10 points, 10 rebounds, 10 assists) with one player",
      "howto": "Post a triple double (at least 10 points, 10 rebounds, 10 assists) with one player"
    },
    {
      "id": 8,
      "imageId": 8,
      "cred": 20,
      "flags": 1,
      "label": "Double Up",
      "description": "Win a game with at least double your opponent's score",
      "howto": "Win a game with at least double your opponent's score"
    },
    {
      "id": 9,
      "imageId": 9,
      "cred": 20,
      "flags": 1,
      "label": "Winning Streak",
      "description": "Win 10 ranked match games",
      "howto": "Win 10 ranked match games"
    },
    {
      "id": 10,
      "imageId": 10,
      "cred": 20,
      "flags": 1,
      "label": "Buzzer Beater",
      "description": "Win any game with a buzzer beater shot",
      "howto": "Win any game with a buzzer beater shot"
    },
    {
      "id": 11,
      "imageId": 11,
      "cred": 20,
      "flags": 1,
      "label": "Shooting Clinic",
      "description": "Make 10 shots back to back",
      "howto": "Make 10 shots back to back"
    },
    {
      "id": 12,
      "imageId": 12,
      "cred": 50,
      "flags": 1,
      "label": "Lead The League",
      "description": "Be #1 on any challenge leaderboard",
      "howto": "Be #1 on any challenge leaderboard"
    }
  ]
}