{
  "achievementsPossible": 12,
  "credPossible": 200,
  "achievements": [
    {
      "id": 1,
      "imageId": 1,
      "cred": 20,
      "flags": 1,
      "label": "Doing My Part",
      "description": "First Action Part collected",
      "howto": "Collect your first Action Part"
    },
    {
      "id": 2,
      "imageId": 2,
      "cred": 20,
      "flags": 1,
      "label": "Tutorial'd!",
      "description": "Tutorial finished",
      "howto": "Finish the Tutorial"
    },
    {
      "id": 3,
      "imageId": 3,
      "cred": 20,
      "flags": 1,
      "label": "Jungle Master",
      "description": "Jungle Approach finished",
      "howto": "Finish Jungle Approach"
    },
    {
      "id": 4,
      "imageId": 4,
      "cred": 20,
      "flags": 1,
      "label": "Cave In",
      "description": "Monkey Caves finished",
      "howto": "Finish Monkey Caves"
    },
    {
      "id": 5,
      "imageId": 5,
      "cred": 20,
      "flags": 1,
      "label": "The sky is a new shade of doom",
      "description": "Vista Cliffs finished",
      "howto": "Finish Vista Cliffs"
    },
    {
      "id": 6,
      "imageId": 6,
      "cred": 20,
      "flags": 1,
      "label": "Crashdown",
      "description": "Ancient Temple finished",
      "howto": "Finish Ancient Temple"
    },
    {
      "id": 7,
      "imageId": 7,
      "cred": 20,
      "flags": 1,
      "label": "All Systems Go",
      "description": "All Action Parts found",
      "howto": "Find all Action Parts"
    },
    {
      "id": 8,
      "imageId": 8,
      "cred": 20,
      "flags": 1,
      "label": "Legendary",
      "description": "Game completed!",
      "howto": "Complete the Game"
    },
    {
      "id": 9,
      "imageId": 9,
      "cred": 10,
      "flags": 1,
      "label": "Blingbot",
      "description": "1,000,000 credits collected",
      "howto": "Collect 1,000,000 credits"
    },
    {
      "id": 10,
      "imageId": 10,
      "cred": 10,
      "flags": 1,
      "label": "Shop-o-bot",
      "description": "Present for the purchase of all unlockable concept art",
      "howto": "Present for the purchase of all concept art"
    },
    {
      "id": 11,
      "imageId": 11,
      "cred": 10,
      "flags": 1,
      "label": "Better, Stronger, Faster",
      "description": "Present at the purchase of all Action Part upgrades",
      "howto": "Present for the purchase of all Action Part upgrades"
    },
    {
      "id": 12,
      "imageId": 12,
      "cred": 10,
      "flags": 1,
      "label": "Ship's Engineer",
      "description": "All 100 Ship Parts collected",
      "howto": "Collect all 100 Ship Parts"
    }
  ]
}