{
  "achievementsPossible": 48,
  "credPossible": 1000,
  "achievements": [
    {
      "id": 1,
      "imageId": 1,
      "cred": 20,
      "flags": 1,
      "label": "Cover Your Butt!",
      "description": "Complete Prologue - The Prophecy",
      "howto": "Complete Prologue - The Prophecy"
    },
    {
      "id": 2,
      "imageId": 2,
      "cred": 20,
      "flags": 1,
      "label": "Lets Get Craaazzzyyyy",
      "description": "Complete Level 1 - Bricksburg Construction.",
      "howto": "Complete Level 1 - Bricksburg Construction."
    },
    {
      "id": 3,
      "imageId": 3,
      "cred": 20,
      "flags": 1,
      "label": "Darn Darn Darn Darny Darn!",
      "description": "Complete Level 2 - Escape From Bricksburg.",
      "howto": "Complete Level 2 - Escape From Bricksburg."
    },
    {
      "id": 4,
      "imageId": 4,
      "cred": 20,
      "flags": 1,
      "label": "Are You A DJ?",
      "description": "Complete Level 3 - Flatbush Gulch.",
      "howto": "Complete Level 3 - Flatbush Gulch."
    },
    {
      "id": 5,
      "imageId": 5,
      "cred": 20,
      "flags": 1,
      "label": "Freeze, Turkeys!",
      "description": "Complete Level 4 - Flatbush Rooftops.",
      "howto": "Complete Level 4 - Flatbush Rooftops."
    },
    {
      "id": 6,
      "imageId": 6,
      "cred": 20,
      "flags": 1,
      "label": "Rest In Pieces",
      "description": "Complete Level 5 - Escape From Flatbush.",
      "howto": "Complete Level 5 - Escape From Flatbush."
    },
    {
      "id": 7,
      "imageId": 7,
      "cred": 20,
      "flags": 1,
      "label": "No Frowny Faces",
      "description": "Complete Level 6 – Welcome to Cloud Cuckoo Land.",
      "howto": "Complete Level 6 – Welcome to Cloud Cuckoo Land."
    },
    {
      "id": 8,
      "imageId": 8,
      "cred": 20,
      "flags": 1,
      "label": "Every Man For Himself!",
      "description": "Complete Level 7 - Attack On Cloud Cuckoo Land.",
      "howto": "Complete Level 7 - Attack On Cloud Cuckoo Land."
    },
    {
      "id": 9,
      "imageId": 9,
      "cred": 20,
      "flags": 1,
      "label": "You Can't Build 'Em All At Once",
      "description": "Complete Level 8 - Escape From Cloud Cuckoo Land.",
      "howto": "Complete Level 8 - Escape From Cloud Cuckoo Land."
    },
    {
      "id": 10,
      "imageId": 10,
      "cred": 20,
      "flags": 1,
      "label": "Why Are My Pants Cold and Wet?",
      "description": "Complete Level 9 - The Depths.",
      "howto": "Complete Level 9 - The Depths."
    },
    {
      "id": 11,
      "imageId": 11,
      "cred": 20,
      "flags": 1,
      "label": "This Bedoubled Land Couch",
      "description": "Complete Level 10 - Infiltrate The Octan Tower.",
      "howto": "Complete Level 10 - Infiltrate The Octan Tower."
    },
    {
      "id": 12,
      "imageId": 12,
      "cred": 20,
      "flags": 1,
      "label": "See You Later Alligator",
      "description": "Complete Level 11 - Put The Thing On The Thing.",
      "howto": "Complete Level 11 - Put The Thing On The Thing."
    },
    {
      "id": 13,
      "imageId": 13,
      "cred": 20,
      "flags": 1,
      "label": "Found Your Pants, Series Is Over",
      "description": "Complete Level 12 - Broadcast News.",
      "howto": "Complete Level 12 - Broadcast News."
    },
    {
      "id": 14,
      "imageId": 14,
      "cred": 20,
      "flags": 1,
      "label": "I Am A Master Builder!",
      "description": "Complete Level 13 - Back From Reality.",
      "howto": "Complete Level 13 - Back From Reality."
    },
    {
      "id": 15,
      "imageId": 15,
      "cred": 20,
      "flags": 1,
      "label": "Release Every Micro Manager!",
      "description": "Complete Level 14 - Bricksburg Under Attack.",
      "howto": "Complete Level 14 - Bricksburg Under Attack."
    },
    {
      "id": 16,
      "imageId": 16,
      "cred": 20,
      "flags": 1,
      "label": "You Can Still Change Everything",
      "description": "Complete Level 15 - The Final Showdown.",
      "howto": "Complete Level 15 - The Final Showdown."
    },
    {
      "id": 17,
      "imageId": 17,
      "cred": 30,
      "flags": 1,
      "label": "Honey, Where Are My Pants?",
      "description": "Collect all pairs of Pants (Single Player).",
      "howto": "Collect all pairs of Pants (Single Player)."
    },
    {
      "id": 18,
      "imageId": 18,
      "cred": 30,
      "flags": 1,
      "label": "You Are The Special",
      "description": "Achieve The Special in every level (Single Player).",
      "howto": "Achieve The Special in every level (Single Player)."
    },
    {
      "id": 19,
      "imageId": 19,
      "cred": 30,
      "flags": 1,
      "label": "Welcome To Bricksburg",
      "description": "Collect all of the Red Bricks (Single Player).",
      "howto": "Collect all of the Red Bricks (Single Player)."
    },
    {
      "id": 20,
      "imageId": 20,
      "cred": 30,
      "flags": 1,
      "label": "Build Things Only You Can Build",
      "description": "Collect all Golden Manuals.",
      "howto": "Collect all Golden Manuals."
    },
    {
      "id": 21,
      "imageId": 21,
      "cred": 20,
      "flags": 1,
      "label": "Including, But Not Limited To",
      "description": "Purchase all Master Builders.",
      "howto": "Purchase all Master Builders."
    },
    {
      "id": 22,
      "imageId": 22,
      "cred": 40,
      "flags": 1,
      "label": "The Special People In Your Life",
      "description": "Purchase all Characters (Single Player).",
      "howto": "Purchase all Characters (Single Player)."
    },
    {
      "id": 23,
      "imageId": 23,
      "cred": 30,
      "flags": 1,
      "label": "Always Read The Instructions!",
      "description": "Complete all Instruction Builds in Story Mode.",
      "howto": "Complete all Instruction Builds in Story Mode."
    },
    {
      "id": 24,
      "imageId": 24,
      "cred": 20,
      "flags": 1,
      "label": "Midas Touch",
      "description": "Complete all Golden Instruction Builds.",
      "howto": "Complete all Golden Instruction Builds."
    },
    {
      "id": 25,
      "imageId": 25,
      "cred": 50,
      "flags": 1,
      "label": "Business Business Business",
      "description": "Earn 1,000,000,000 studs.",
      "howto": "Earn 1,000,000,000 studs."
    },
    {
      "id": 26,
      "imageId": 26,
      "cred": 100,
      "flags": 1,
      "label": "Everything Is Awesome!",
      "description": "Achieve 100% completion.",
      "howto": "Achieve 100% completion."
    },
    {
      "id": 27,
      "imageId": 27,
      "cred": 20,
      "flags": 1,
      "label": "Really hard? This be Impossible!",
      "description": "Destroy 50 enemies as MetalBeard.",
      "howto": "Destroy 50 enemies as MetalBeard."
    },
    {
      "id": 28,
      "imageId": 28,
      "cred": 20,
      "flags": 1,
      "label": "The Opposite Of Happiness",
      "description": "Defeat 20 enemies as Rage Unikitty.",
      "howto": "Defeat 20 enemies as Rage Unikitty."
    },
    {
      "id": 29,
      "imageId": 29,
      "cred": 20,
      "flags": 1,
      "label": "Ah! The Kragle!",
      "description": "Kragelize 10 people with the Kragle gun.",
      "howto": "Kragelize 10 people with the Kragle gun."
    },
    {
      "id": 30,
      "imageId": 30,
      "cred": 10,
      "flags": 1,
      "label": "Building Bad",
      "description": "Attempt a Master Build-It with a Non-Master Builder",
      "howto": "Attempt a Master Build-It with a Non-Master Builder"
    },
    {
      "id": 31,
      "imageId": 31,
      "cred": 20,
      "flags": 1,
      "label": "Pow Pow! Bullet Bullet! Gun!",
      "description": "Defeat 30 enemies as Emmet Cowboy.",
      "howto": "Defeat 30 enemies as Emmet Cowboy."
    },
    {
      "id": 32,
      "imageId": 32,
      "cred": 5,
      "flags": 1,
      "label": "Ayayaya!",
      "description": "Defeat 20 enemies as Sheriff Not-A-Robot.",
      "howto": "Defeat 20 enemies as Sheriff Not-A-Robot."
    },
    {
      "id": 33,
      "imageId": 33,
      "cred": 20,
      "flags": 1,
      "label": "I Could Sing This Song For Hours",
      "description": "Score 21 awesome dance moves in the Construction Site dance mini game.",
      "howto": "Score 21 awesome dance moves in the Construction Site dance mini game."
    },
    {
      "id": 34,
      "imageId": 34,
      "cred": 20,
      "flags": 1,
      "label": "No Way, This Is My Jam.",
      "description": "Score 21 awesome dance moves in the Kragelizer dance mini game.",
      "howto": "Score 21 awesome dance moves in the Kragelizer dance mini game."
    },
    {
      "id": 35,
      "imageId": 35,
      "cred": 20,
      "flags": 1,
      "label": "Firestarter",
      "description": "Make a Fire.",
      "howto": "Make a Fire."
    },
    {
      "id": 36,
      "imageId": 36,
      "cred": 20,
      "flags": 1,
      "label": "First Try!",
      "description": "Complete an Instruction Build without losing any studs.",
      "howto": "Complete an Instruction Build without losing any studs."
    },
    {
      "id": 37,
      "imageId": 37,
      "cred": 20,
      "flags": 1,
      "label": "I Am The Computer",
      "description": "Collect all studs in any hacking mini-game",
      "howto": "Collect all studs in any hacking mini-game"
    },
    {
      "id": 38,
      "imageId": 38,
      "cred": 5,
      "flags": 1,
      "label": "Wear Clothes… Check!",
      "description": "Customise your character.",
      "howto": "Customise your character."
    },
    {
      "id": 39,
      "imageId": 39,
      "cred": 5,
      "flags": 1,
      "label": "A House Divided",
      "description": "Play as Abraham Lincoln and Lady Liberty.",
      "howto": "Play as Abraham Lincoln and Lady Liberty."
    },
    {
      "id": 40,
      "imageId": 40,
      "cred": 10,
      "flags": 1,
      "label": "SPACESHIP SPACESHIP!",
      "description": "Complete all Master Builds in Server Room as Benny.",
      "howto": "Complete all Master Builds in Server Room as Benny."
    },
    {
      "id": 41,
      "imageId": 41,
      "cred": 10,
      "flags": 1,
      "label": "I Super Hate You Right Now",
      "description": "Play as Superman and Green Lantern.",
      "howto": "Play as Superman and Green Lantern."
    },
    {
      "id": 42,
      "imageId": 42,
      "cred": 5,
      "flags": 1,
      "label": "It's Just Business",
      "description": "Use Lord Business Legs Machine.",
      "howto": "Use Lord Business Legs Machine."
    },
    {
      "id": 43,
      "imageId": 43,
      "cred": 10,
      "flags": 1,
      "label": "The Prophecy, I Made It Up!",
      "description": "Switch from Vitruvius into Ghost Vitruvius.",
      "howto": "Switch from Vitruvius into Ghost Vitruvius."
    },
    {
      "id": 44,
      "imageId": 44,
      "cred": 10,
      "flags": 1,
      "label": "END OF THE LINE!",
      "description": "Shoot Emmet with Robo Skeleton.",
      "howto": "Shoot Emmet with Robo Skeleton."
    },
    {
      "id": 45,
      "imageId": 45,
      "cred": 10,
      "flags": 1,
      "label": "Glues Your Daddy?",
      "description": "Use the Kragle Gun to shoot Ma and Pa Bad Cop in the Relic Room.",
      "howto": "Use the Kragle Gun to shoot Ma and Pa Bad Cop in the Relic Room."
    },
    {
      "id": 46,
      "imageId": 46,
      "cred": 20,
      "flags": 1,
      "label": "To The Invisible Jet!",
      "description": "Find and destroy the Invisible Jet.",
      "howto": "Find and destroy the Invisible Jet."
    },
    {
      "id": 47,
      "imageId": 47,
      "cred": 10,
      "flags": 1,
      "label": "Grrrg!",
      "description": "Smash a chair as Bad Cop.",
      "howto": "Smash a chair as Bad Cop."
    },
    {
      "id": 48,
      "imageId": 48,
      "cred": 10,
      "flags": 1,
      "label": "Too Bad!",
      "description": "Switch from Good Cop (Scribble Face) to Bad Cop.",
      "howto": "Switch from Good Cop (Scribble Face) to Bad Cop."
    }
  ]
}