{
  "achievementsPossible": 46,
  "credPossible": 1000,
  "achievements": [
    {
      "id": 1,
      "imageId": 23,
      "cred": 30,
      "flags": 6,
      "label": "神力子市長",
      "description": "おはなしすごろく：1周クリアした。",
      "howto": "おはなしすごろく：1周クリアしよう。"
    },
    {
      "id": 2,
      "imageId": 24,
      "cred": 50,
      "flags": 1,
      "label": "たくさんのおもいで",
      "description": "おはなしすごろく：３周クリアした。",
      "howto": "おはなしすごろく：３周クリアしよう。"
    },
    {
      "id": 3,
      "imageId": 23,
      "cred": 30,
      "flags": 1,
      "label": "おはなしマスター",
      "description": "おはなしすごろく：全てのマップをクリアした。",
      "howto": "おはなしすごろく：全てのマップをクリアしよう。"
    },
    {
      "id": 4,
      "imageId": 21,
      "cred": 15,
      "flags": 6,
      "label": "ノーマルバトラー",
      "description": "わいわいすごろく：ノーマルバトルを5回遊んだ。（プレイヤー2人以上）",
      "howto": "わいわいすごろく：ノーマルバトルを5回遊ぼう。（プレイヤー2人以上）"
    },
    {
      "id": 5,
      "imageId": 23,
      "cred": 30,
      "flags": 1,
      "label": "孫の代までレッツパーテェー",
      "description": "わいわいすごろく：ノーマルバトルを10回遊んだ。（プレイヤー2人以上）",
      "howto": "わいわいすごろく：ノーマルバトルを10回遊ぼう。（プレイヤー2人以上）"
    },
    {
      "id": 6,
      "imageId": 21,
      "cred": 15,
      "flags": 6,
      "label": "ポイントバトラー",
      "description": "わいわいすごろく：ポイントバトルを5回遊んだ。（プレイヤー2人以上）",
      "howto": "わいわいすごろく：ポイントバトルを5回遊ぼう。（プレイヤー2人以上）"
    },
    {
      "id": 9,
      "imageId": 23,
      "cred": 30,
      "flags": 1,
      "label": "ひ孫の代までレッツパーテェー",
      "description": "わいわいすごろく：ポイントバトルを10回遊んだ。（プレイヤー2人以上）",
      "howto": "わいわいすごろく：ポイントバトルを10回遊ぼう。（プレイヤー2人以上）"
    },
    {
      "id": 10,
      "imageId": 21,
      "cred": 15,
      "flags": 6,
      "label": "ミニゲーマー",
      "description": "わいわいすごろく：ノーマル/ポイントバトルで、ミニゲーム（3種類すべてをカウント）をプレイヤー2人以上が参加して25回遊んだ。（コントローラー2つ以上）",
      "howto": "わいわいすごろく：ノーマル/ポイントバトルで、ミニゲーム（3種類すべてをカウント）をプレイヤー2人以上が参加して25回遊ぼう。（コントローラー2つ以上）"
    },
    {
      "id": 11,
      "imageId": 23,
      "cred": 30,
      "flags": 1,
      "label": "朝まで生ミニゲーム",
      "description": "わいわいすごろく：ノーマル/ポイントバトルで、ミニゲーム（3種類すべてをカウント）をプレイヤー2人以上が参加して50回遊んだ。（コントローラー2つ以上）",
      "howto": "わいわいすごろく：ノーマル/ポイントバトルで、ミニゲーム（3種類すべてをカウント）をプレイヤー2人以上が参加して50回遊ぼう。（コントローラー2つ以上）"
    },
    {
      "id": 12,
      "imageId": 22,
      "cred": 20,
      "flags": 1,
      "label": "お金持ち賞スペシャル",
      "description": "わいわいすごろく：ポイントバトルで「お金持ち賞」を3回受賞した。",
      "howto": "わいわいすごろく：ポイントバトルで「お金持ち賞」を3回受賞しよう。"
    },
    {
      "id": 13,
      "imageId": 22,
      "cred": 20,
      "flags": 1,
      "label": "ちからっ子賞スペシャル",
      "description": "わいわいすごろく：ポイントバトルで「ちからっ子賞」を3回受賞した。",
      "howto": "わいわいすごろく：ポイントバトルで「ちからっ子賞」を3回受賞しよう。"
    },
    {
      "id": 14,
      "imageId": 22,
      "cred": 20,
      "flags": 1,
      "label": "ミニゲームうまいっ賞スペシャル",
      "description": "わいわいすごろく：ポイントバトルで「ミニゲームうまいっ賞」を3回受賞した。",
      "howto": "わいわいすごろく：ポイントバトルで「ミニゲームうまいっ賞」を3回受賞しよう。"
    },
    {
      "id": 15,
      "imageId": 22,
      "cred": 20,
      "flags": 1,
      "label": "がんばったで賞スペシャル",
      "description": "わいわいすごろく：ポイントバトルで「がんばったで賞」を人が3回受賞した。",
      "howto": "わいわいすごろく：ポイントバトルで「がんばったで賞」を3回受賞しよう。"
    },
    {
      "id": 16,
      "imageId": 22,
      "cred": 20,
      "flags": 1,
      "label": "サイキョウバトラー",
      "description": "わいわいすごろく：ノーマルバトル/ポイントバトルで、ＣＯＭサイキョウ３人と戦って勝利した。",
      "howto": "わいわいすごろく：ノーマルバトル/ポイントバトルで、ＣＯＭサイキョウ３人と戦って勝利しよう。"
    },
    {
      "id": 28,
      "imageId": 21,
      "cred": 15,
      "flags": 1,
      "label": "すごろく勉強家",
      "description": "れんしゅうすごろく：１回クリアした。",
      "howto": "れんしゅうすごろく：１回クリアしよう。"
    },
    {
      "id": 29,
      "imageId": 22,
      "cred": 20,
      "flags": 1,
      "label": "かちぬき！ミニゲームスター３",
      "description": "ミニゲームたいけつ：かちぬきバトル3回戦で、ＣＯＭサイキョウ３人と戦って３回ゆうしょうした。",
      "howto": "ミニゲームたいけつ：かちぬきバトル3回戦で、ＣＯＭサイキョウ３人と戦って３回ゆうしょうしよう。"
    },
    {
      "id": 31,
      "imageId": 22,
      "cred": 20,
      "flags": 1,
      "label": "かちぬき！ミニゲームスター５",
      "description": "ミニゲームたいけつ：かちぬきバトル5回戦で、ＣＯＭサイキョウ３人と戦って３回ゆうしょうした。",
      "howto": "ミニゲームたいけつ：かちぬきバトル5回戦で、ＣＯＭサイキョウ３人と戦って３回ゆうしょうしよう。"
    },
    {
      "id": 32,
      "imageId": 22,
      "cred": 20,
      "flags": 1,
      "label": "かちぬき！ミニゲームスター７",
      "description": "ミニゲームたいけつ：かちぬきバトル7回戦で、ＣＯＭサイキョウ３人と戦って３回ゆうしょうした。",
      "howto": "ミニゲームたいけつ：かちぬきバトル7回戦で、ＣＯＭサイキョウ３人と戦って３回ゆうしょうしよう。"
    },
    {
      "id": 33,
      "imageId": 22,
      "cred": 20,
      "flags": 1,
      "label": "かちぬき！ミニゲームスター１０",
      "description": "ミニゲームたいけつ：かちぬきバトル10回戦で、ＣＯＭサイキョウ３人と戦って３回ゆうしょうした。",
      "howto": "ミニゲームたいけつ：かちぬきバトル10回戦で、ＣＯＭサイキョウ３人と戦って３回ゆうしょうしよう。"
    },
    {
      "id": 34,
      "imageId": 20,
      "cred": 10,
      "flags": 6,
      "label": "メダル好き",
      "description": "メダルを100枚までためた。",
      "howto": "メダルを100枚までためよう。"
    },
    {
      "id": 36,
      "imageId": 23,
      "cred": 30,
      "flags": 1,
      "label": "メダルキング",
      "description": "メダルを500枚までためた。",
      "howto": "メダルを500枚までためよう。"
    },
    {
      "id": 37,
      "imageId": 20,
      "cred": 10,
      "flags": 6,
      "label": "アイテム好き",
      "description": "アイテムを10コ集めた。",
      "howto": "アイテムを10コ集めよう。"
    },
    {
      "id": 38,
      "imageId": 23,
      "cred": 30,
      "flags": 1,
      "label": "アイテムコレクター",
      "description": "アイテムを100コ集めた。",
      "howto": "アイテムを100コ集めよう。"
    },
    {
      "id": 39,
      "imageId": 20,
      "cred": 10,
      "flags": 1,
      "label": "コントローラーキング",
      "description": "全モード共通：４つのコントローラーで「わいわいすごろく」を遊んだ。",
      "howto": "全モード共通：４つのコントローラーで「わいわいすごろく」を遊ぼう。"
    },
    {
      "id": 40,
      "imageId": 20,
      "cred": 10,
      "flags": 7,
      "label": "エブリパマニアへの道",
      "description": "全モード共通：１つのセーブデータを１０回ロードした。",
      "howto": "全モード共通：１つのセーブデータを１０回ロードしよう。"
    },
    {
      "id": 41,
      "imageId": 21,
      "cred": 15,
      "flags": 1,
      "label": "メダルに糸目を付けない者",
      "description": "全モード共通：ひようとしてメダルを通算５０枚使った。",
      "howto": "全モード共通：ひようとしてメダルを通算５０枚使おう。"
    },
    {
      "id": 42,
      "imageId": 22,
      "cred": 20,
      "flags": 1,
      "label": "かんばんコレクター",
      "description": "全モード共通：かんばんを全て集めた。",
      "howto": "全モード共通：かんばんを全て集めよう。"
    },
    {
      "id": 43,
      "imageId": 22,
      "cred": 20,
      "flags": 7,
      "label": "スーパーゴール",
      "description": "全モード共通：ドリームルーレットであがった。",
      "howto": "全モード共通：ドリームルーレットであがろう。"
    },
    {
      "id": 44,
      "imageId": 23,
      "cred": 30,
      "flags": 1,
      "label": "ちからっ子ラブリー",
      "description": "全モード共通：ちからっ子を全員配置した。",
      "howto": "全モード共通：ちからっ子を全員配置しよう。"
    },
    {
      "id": 45,
      "imageId": 22,
      "cred": 20,
      "flags": 7,
      "label": "ルーレット博士号",
      "description": "全モード共通：全てのルーレットを使用した。",
      "howto": "全モード共通：全てのルーレットを使用しよう。"
    },
    {
      "id": 50,
      "imageId": 22,
      "cred": 20,
      "flags": 7,
      "label": "キャラクター博士号",
      "description": "わたしのへや：全キャラクター取得後「キャラクターずかん」を一度に全ページ読んだ。",
      "howto": "わたしのへや：全キャラクター取得後「キャラクターずかん」を一度に全ページ読もう。"
    },
    {
      "id": 51,
      "imageId": 22,
      "cred": 20,
      "flags": 7,
      "label": "まちつうしん博士号",
      "description": "わたしのへや：全まちつうしん取得後「まちつうしん」を一度に全ページ読んだ。",
      "howto": "わたしのへや：全まちつうしん取得後「まちつうしん」を一度に全ページ読もう。"
    },
    {
      "id": 52,
      "imageId": 21,
      "cred": 15,
      "flags": 7,
      "label": "しょうじょう博士号",
      "description": "わたしのへや：全しょうじょうを取得後わたしのへやの「しょうじょう」を一度に全ページ読んだ。",
      "howto": "わたしのへや：全しょうじょうを取得後「しょうじょう」を一度に全ページ読もう。"
    },
    {
      "id": 53,
      "imageId": 21,
      "cred": 15,
      "flags": 7,
      "label": "マップ博士号",
      "description": "わたしのへや：全マップ表示後「きろくブック」を一度に全ページ読んだ。",
      "howto": "わたしのへや：全マップ表示後「きろくブック」を一度に全ページ読もう。"
    },
    {
      "id": 57,
      "imageId": 21,
      "cred": 15,
      "flags": 7,
      "label": "美しいおもいで",
      "description": "わたしのへや：「おはなしすごろくの思い出」を一度に全て観た。",
      "howto": "わたしのへや：「おはなしすごろくの思い出」を一度に全て観よう。"
    },
    {
      "id": 58,
      "imageId": 20,
      "cred": 10,
      "flags": 1,
      "label": "マイキャラ作っちゃった",
      "description": "わたしのへや：マイキャラを作った。",
      "howto": "わたしのへや：マイキャラを作ろう。"
    },
    {
      "id": 59,
      "imageId": 22,
      "cred": 20,
      "flags": 1,
      "label": "君のものは僕のもの",
      "description": "わたしのへや：マイキャラ作成時にもらえるアイテムをコンプリートした。",
      "howto": "わたしのへや；マイキャラ作成時にもらえるアイテムをコンプリートしよう。"
    },
    {
      "id": 60,
      "imageId": 22,
      "cred": 20,
      "flags": 1,
      "label": "ショッピング　ピンク",
      "description": "わたしのへや：アイテムショップで買い物を３０回した。",
      "howto": "わたしのへや：アイテムショップで買い物を３０回しよう。"
    },
    {
      "id": 61,
      "imageId": 21,
      "cred": 15,
      "flags": 6,
      "label": "こうみんかん員",
      "description": "こうみんかん：大会で5勝を達成した。",
      "howto": "こうみんかん：大会で5勝を達成しよう。"
    },
    {
      "id": 62,
      "imageId": 23,
      "cred": 30,
      "flags": 1,
      "label": "こうみんかん長",
      "description": "こうみんかん：大会で10勝を達成した。",
      "howto": "こうみんかん：大会で10勝を達成しよう。"
    },
    {
      "id": 63,
      "imageId": 22,
      "cred": 20,
      "flags": 6,
      "label": "こうみんかんチャレンジ",
      "description": "こうみんかん：大会で2連勝を達成した。",
      "howto": "こうみんかん：大会で2連勝を達成しよう。"
    },
    {
      "id": 64,
      "imageId": 24,
      "cred": 50,
      "flags": 1,
      "label": "こうみんかんトライアル",
      "description": "こうみんかん：大会で3連勝を達成した。",
      "howto": "こうみんかん：大会で3連勝を達成しよう。"
    },
    {
      "id": 65,
      "imageId": 21,
      "cred": 15,
      "flags": 6,
      "label": "なじみがお",
      "description": "こうみんかん：大会で部屋長となり5回勝利した。",
      "howto": "こうみんかん：大会で部屋長となり5回勝利しよう。"
    },
    {
      "id": 66,
      "imageId": 23,
      "cred": 30,
      "flags": 1,
      "label": "じょうれん",
      "description": "こうみんかん：大会で部屋長となり10回勝利した。",
      "howto": "こうみんかん：大会で部屋長となり10回勝利しよう。"
    },
    {
      "id": 67,
      "imageId": 24,
      "cred": 50,
      "flags": 1,
      "label": "でんどうを極めた者",
      "description": "こうみんかん：でんどうを全て達成した。",
      "howto": "こうみんかん：でんどうを全て達成しよう。"
    },
    {
      "id": 68,
      "imageId": 20,
      "cred": 10,
      "flags": 6,
      "label": "らぶ・あんど・ピープル",
      "description": "こうみんかん：試合中にブーイングしなかった。",
      "howto": "こうみんかん：ブーイングしないですごろくをしよう。"
    }
  ]
}