{
  "achievementsPossible": 20,
  "credPossible": 200,
  "achievements": [
    {
      "id": 1,
      "imageId": 42,
      "cred": 40,
      "flags": 1,
      "label": "Burnout Crash All-Star",
      "description": "Collected all 270 Stars",
      "howto": "Collect all 270 Stars"
    },
    {
      "id": 2,
      "imageId": 43,
      "cred": 10,
      "flags": 4,
      "label": "Hat Trick",
      "description": "Won three Autolog Challenges in a row against the same Friend",
      "howto": "Win three Autolog Challenges in a row against the same Friend"
    },
    {
      "id": 3,
      "imageId": 44,
      "cred": 10,
      "flags": 4,
      "label": "Fighting Back",
      "description": "Took on an Autolog “Beat You” Recommendation and beat your Friend's score",
      "howto": "Take on an Autolog “Beat You” Recommendation and beat your Friend's score"
    },
    {
      "id": 4,
      "imageId": 45,
      "cred": 5,
      "flags": 4,
      "label": "Maximum Carnage",
      "description": "Triggered a Super Feature with 100% power",
      "howto": "Trigger a Super Feature with 100% power"
    },
    {
      "id": 5,
      "imageId": 46,
      "cred": 5,
      "flags": 4,
      "label": "Chain Reaction",
      "description": "Got a 7x Explosion Chain or better",
      "howto": "Get a 7x Explosion Chain or better"
    },
    {
      "id": 6,
      "imageId": 47,
      "cred": 5,
      "flags": 4,
      "label": "The Big Bang",
      "description": "Got a 25x Explosion Combo or better",
      "howto": "Get a 25x Explosion Combo or better"
    },
    {
      "id": 7,
      "imageId": 48,
      "cred": 5,
      "flags": 4,
      "label": "Trail of Destruction",
      "description": "Got a 15x Smash Chain or better",
      "howto": "Get a 15x Smash Chain or better"
    },
    {
      "id": 8,
      "imageId": 49,
      "cred": 5,
      "flags": 4,
      "label": "Longshot",
      "description": "Made a Punt Skillshot of 50 yards or more",
      "howto": "Make a Punt Skillshot of 50 yards or more"
    },
    {
      "id": 9,
      "imageId": 50,
      "cred": 5,
      "flags": 4,
      "label": "Scattershot",
      "description": "Made 5 or more Skillshots with one Crashbreaker",
      "howto": "Make 5 or more Skillshots with one Crashbreaker"
    },
    {
      "id": 10,
      "imageId": 51,
      "cred": 10,
      "flags": 4,
      "label": "Expensive Taste",
      "description": "In a Road Trip, blew up all three Sports Cars and the Gold Car and finished the event",
      "howto": "In any Road Trip, blow up all three Sports Cars and the Gold Car and finish the event"
    },
    {
      "id": 11,
      "imageId": 52,
      "cred": 10,
      "flags": 4,
      "label": "Maximum Withdrawal",
      "description": "Collected $9,000,000 from a single Bank Truck",
      "howto": "Collect $9,000,000 from a single Bank Truck"
    },
    {
      "id": 12,
      "imageId": 53,
      "cred": 10,
      "flags": 4,
      "label": "Did You Let One Go?",
      "description": "Let a Gas Tanker escape without exploding",
      "howto": "Let a Gas Tanker escape without exploding"
    },
    {
      "id": 13,
      "imageId": 54,
      "cred": 10,
      "flags": 4,
      "label": "Blast Zone",
      "description": "Damaged 20 vehicles or more with a single Crashbreaker",
      "howto": "Damage 20 vehicles or more with a single Crashbreaker"
    },
    {
      "id": 14,
      "imageId": 55,
      "cred": 10,
      "flags": 4,
      "label": "Pure Gold",
      "description": "Earned $30,000,000 from a Gold Car in one event",
      "howto": "Earn $30,000,000 from a Gold Car in one event"
    },
    {
      "id": 15,
      "imageId": 56,
      "cred": 10,
      "flags": 4,
      "label": "Blind Luck",
      "description": "Survived the Fog in a Road Trip with no escapes... but without using your Crashbreaker",
      "howto": "Survive the Fog in a Road Trip with no escapes... but without using your Crashbreaker"
    },
    {
      "id": 16,
      "imageId": 57,
      "cred": 10,
      "flags": 4,
      "label": "Set 'Em Up, Knock 'Em Down",
      "description": "Scored $30,000,000 or more in a Pile Up, but without firing your Crashbreaker more than twice",
      "howto": "Score $30,000,000 or more in any Pile Up, but without firing your Crashbreaker more than twice"
    },
    {
      "id": 17,
      "imageId": 58,
      "cred": 10,
      "flags": 4,
      "label": "Button Masher!",
      "description": "Fired your Crashbreaker 30 times or more in a single Rush Hour",
      "howto": "Fire your Crashbreaker 30 times or more in a single Rush Hour"
    },
    {
      "id": 18,
      "imageId": 59,
      "cred": 10,
      "flags": 4,
      "label": "Damage Limitation",
      "description": "In a Pile Up, got to Inferno with a x5 multiplier... but without blowing up a single vehicle",
      "howto": "In any Pile Up, get to Inferno with a x5 multiplier... but without blowing up a single vehicle"
    },
    {
      "id": 19,
      "imageId": 60,
      "cred": 10,
      "flags": 4,
      "label": "That Sinking Feeling",
      "description": "Jumped down all three holes on Blueclaw & 1st in Road Trip, without failing the event",
      "howto": "Jump down all three holes on Blueclaw & 1st in Road Trip, without failing the event"
    },
    {
      "id": 20,
      "imageId": 61,
      "cred": 10,
      "flags": 4,
      "label": "Razed To The Ground!",
      "description": "Destroyed all the buildings in a junction in a single event",
      "howto": "Destroy all the buildings in a junction in any single event (Super Feature doesn’t count!)"
    }
  ]
}