{
  "achievementsPossible": 49,
  "credPossible": 1000,
  "achievements": [
    {
      "id": 1,
      "imageId": 1,
      "cred": 20,
      "flags": 1,
      "label": "Welcome To Jurassic Park",
      "description": "Complete Prologue",
      "howto": "Complete Prologue"
    },
    {
      "id": 2,
      "imageId": 2,
      "cred": 20,
      "flags": 1,
      "label": "The Calm Before The Storm",
      "description": "Complete Welcome To Jurassic Park",
      "howto": "Complete Welcome To Jurassic Park"
    },
    {
      "id": 3,
      "imageId": 3,
      "cred": 20,
      "flags": 1,
      "label": "Objects In The Mirror",
      "description": "Complete Park Shutdown",
      "howto": "Complete Park Shutdown"
    },
    {
      "id": 4,
      "imageId": 4,
      "cred": 20,
      "flags": 1,
      "label": "We're Being Hunted",
      "description": "Complete Restoring Power",
      "howto": "Complete Restoring Power"
    },
    {
      "id": 5,
      "imageId": 5,
      "cred": 20,
      "flags": 1,
      "label": "Decided Not To Endorse Your Park",
      "description": "Complete The Visitor Center",
      "howto": "Complete The Visitor Center"
    },
    {
      "id": 6,
      "imageId": 6,
      "cred": 20,
      "flags": 1,
      "label": "That's How It All Starts...",
      "description": "Complete Isla Sorna",
      "howto": "Complete Isla Sorna"
    },
    {
      "id": 7,
      "imageId": 7,
      "cred": 20,
      "flags": 1,
      "label": "Mommy's Very Angry",
      "description": "Complete InGen Arrival",
      "howto": "Complete InGen Arrival"
    },
    {
      "id": 8,
      "imageId": 8,
      "cred": 20,
      "flags": 1,
      "label": "Don't Go Into The Long Grass",
      "description": "Complete The Hunted",
      "howto": "Complete The Hunted"
    },
    {
      "id": 9,
      "imageId": 9,
      "cred": 20,
      "flags": 1,
      "label": "What About The Others?",
      "description": "Complete Communications Center",
      "howto": "Complete Communications Center"
    },
    {
      "id": 10,
      "imageId": 10,
      "cred": 20,
      "flags": 1,
      "label": "Just Follow The Screams",
      "description": "Complete San Diego",
      "howto": "Complete San Diego"
    },
    {
      "id": 11,
      "imageId": 11,
      "cred": 20,
      "flags": 1,
      "label": "Not On InGen's List",
      "description": "Complete Landing Site",
      "howto": "Complete Landing Site"
    },
    {
      "id": 12,
      "imageId": 12,
      "cred": 20,
      "flags": 1,
      "label": "Nobody Move A Muscle",
      "description": "Complete The Spinosaurus",
      "howto": "Complete The Spinosaurus"
    },
    {
      "id": 13,
      "imageId": 13,
      "cred": 20,
      "flags": 1,
      "label": "Is This How You Make Dinosaurs?",
      "description": "Complete Breeding Facility",
      "howto": "Complete Breeding Facility"
    },
    {
      "id": 14,
      "imageId": 14,
      "cred": 20,
      "flags": 1,
      "label": "Family Reunion",
      "description": "Complete Eric Kirby",
      "howto": "Complete Eric Kirby"
    },
    {
      "id": 15,
      "imageId": 15,
      "cred": 20,
      "flags": 1,
      "label": "Going Home",
      "description": "Complete The Bird Cage",
      "howto": "Complete The Bird Cage"
    },
    {
      "id": 16,
      "imageId": 16,
      "cred": 20,
      "flags": 1,
      "label": "The Park Is Open",
      "description": "Complete Welcome To Jurassic World",
      "howto": "Complete Welcome To Jurassic World"
    },
    {
      "id": 17,
      "imageId": 17,
      "cred": 20,
      "flags": 1,
      "label": "Full Jurassic World Experience",
      "description": "Complete Gyrosphere Valley",
      "howto": "Complete Gyrosphere Valley"
    },
    {
      "id": 18,
      "imageId": 18,
      "cred": 20,
      "flags": 1,
      "label": "Are You Following The Dinosaur?",
      "description": "Complete Out Of Bounds",
      "howto": "Complete Out Of Bounds"
    },
    {
      "id": 19,
      "imageId": 19,
      "cred": 20,
      "flags": 1,
      "label": "A New Alpha",
      "description": "Complete Under Attack",
      "howto": "Complete Under Attack"
    },
    {
      "id": 20,
      "imageId": 20,
      "cred": 20,
      "flags": 1,
      "label": "We Need More Teeth",
      "description": "Complete Main Street Showdown",
      "howto": "Complete Main Street Showdown"
    },
    {
      "id": 21,
      "imageId": 21,
      "cred": 40,
      "flags": 1,
      "label": "65 Million Bricks In The Making",
      "description": "Complete All Story Levels",
      "howto": "Complete All Story Levels"
    },
    {
      "id": 22,
      "imageId": 22,
      "cred": 20,
      "flags": 1,
      "label": "Something Has Survived",
      "description": "Obtain ''True Survivor'' in any level",
      "howto": "Obtain ''True Survivor'' in any level"
    },
    {
      "id": 23,
      "imageId": 23,
      "cred": 20,
      "flags": 1,
      "label": "We're Out Of A Job…",
      "description": "Collect all Minikits in any level",
      "howto": "Collect all Minikits in any level"
    },
    {
      "id": 24,
      "imageId": 24,
      "cred": 40,
      "flags": 1,
      "label": "… Don't You Mean Extinct?",
      "description": "Collect all Minikits in the game",
      "howto": "Collect all Minikits in the game"
    },
    {
      "id": 25,
      "imageId": 25,
      "cred": 20,
      "flags": 1,
      "label": "Went And Made A New Dinosaur",
      "description": "Create a custom dinosaur",
      "howto": "Create a custom dinosaur"
    },
    {
      "id": 26,
      "imageId": 26,
      "cred": 20,
      "flags": 1,
      "label": "All I Got Was This T-Shirt",
      "description": "Create a custom character",
      "howto": "Create a custom character"
    },
    {
      "id": 27,
      "imageId": 27,
      "cred": 40,
      "flags": 1,
      "label": "Spared No Expense",
      "description": "Collect 65,000,000 studs",
      "howto": "Collect 65,000,000 studs"
    },
    {
      "id": 28,
      "imageId": 28,
      "cred": 20,
      "flags": 1,
      "label": "Bingo! Dino DNA!",
      "description": "Collect an Amber Brick",
      "howto": "Collect an Amber Brick"
    },
    {
      "id": 29,
      "imageId": 29,
      "cred": 40,
      "flags": 1,
      "label": "The Legacy of John Hammond",
      "description": "Collect All Amber Bricks",
      "howto": "Collect All Amber Bricks"
    },
    {
      "id": 30,
      "imageId": 30,
      "cred": 20,
      "flags": 1,
      "label": "Send The Helicopters",
      "description": "Rescue all Workers in Peril",
      "howto": "Rescue all Workers in Peril"
    },
    {
      "id": 31,
      "imageId": 31,
      "cred": 20,
      "flags": 1,
      "label": "What Lysine Contingency?",
      "description": "Heal all Dinosaurs",
      "howto": "Heal all Dinosaurs"
    },
    {
      "id": 32,
      "imageId": 32,
      "cred": 20,
      "flags": 1,
      "label": "Must Go Faster",
      "description": "Complete All Races",
      "howto": "Complete All Races"
    },
    {
      "id": 33,
      "imageId": 33,
      "cred": 20,
      "flags": 1,
      "label": "Observe And Document",
      "description": "Complete All Photographs",
      "howto": "Complete All Photographs"
    },
    {
      "id": 34,
      "imageId": 34,
      "cred": 70,
      "flags": 1,
      "label": "Next Time It'll Be Flawless!",
      "description": "Achieve 100% Completion",
      "howto": "Achieve 100% Completion"
    },
    {
      "id": 35,
      "imageId": 35,
      "cred": 20,
      "flags": 1,
      "label": "One Big Pile Of Bricks",
      "description": "Collect All Red Bricks",
      "howto": "Collect All Red Bricks"
    },
    {
      "id": 36,
      "imageId": 36,
      "cred": 10,
      "flags": 1,
      "label": "Helping Hand",
      "description": "Heal A Dinosaur",
      "howto": "Heal A Dinosaur"
    },
    {
      "id": 37,
      "imageId": 37,
      "cred": 40,
      "flags": 1,
      "label": "Survival Expert",
      "description": "Collect ''True Survivor'' on all levels",
      "howto": "Collect ''True Survivor'' on all levels"
    },
    {
      "id": 38,
      "imageId": 38,
      "cred": 10,
      "flags": 1,
      "label": "Reason To Fear Man",
      "description": "Defeat 50 Compy Goons",
      "howto": "Defeat 50 Compy Goons"
    },
    {
      "id": 39,
      "imageId": 39,
      "cred": 10,
      "flags": 1,
      "label": "We Want To Be Thrilled",
      "description": "Place a custom Dinosaur in a Paddock",
      "howto": "Place a custom Dinosaur in a Paddock"
    },
    {
      "id": 40,
      "imageId": 40,
      "cred": 10,
      "flags": 1,
      "label": "The Concept Of Attraction",
      "description": "Enable Attract Studs Red Brick",
      "howto": "Enable Attract Studs Red Brick"
    },
    {
      "id": 41,
      "imageId": 41,
      "cred": 10,
      "flags": 1,
      "label": "Not Machine Compatible",
      "description": "Try to use a hacker terminal as Alan Grant",
      "howto": "Try to use a hacker terminal as Alan Grant"
    },
    {
      "id": 42,
      "imageId": 42,
      "cred": 10,
      "flags": 1,
      "label": "Pack Hunter",
      "description": "Set both Free Play characters as Raptors",
      "howto": "Set both Free Play characters as Raptors"
    },
    {
      "id": 43,
      "imageId": 43,
      "cred": 10,
      "flags": 1,
      "label": "Anybody want a Soda?",
      "description": "As Dennis Nedry, throw a soda can at another character",
      "howto": "As Dennis Nedry, throw a soda can at another character"
    },
    {
      "id": 44,
      "imageId": 44,
      "cred": 10,
      "flags": 1,
      "label": "Remember To Wash Your Hands",
      "description": "Complete a Dropping Rummage",
      "howto": "Complete a Dropping Rummage"
    },
    {
      "id": 45,
      "imageId": 45,
      "cred": 10,
      "flags": 1,
      "label": "Do-You-Think-He-Saurus?",
      "description": "Sneak past a Dinosaur using Camouflage",
      "howto": "Sneak past a Dinosaur using Camouflage"
    },
    {
      "id": 46,
      "imageId": 46,
      "cred": 10,
      "flags": 1,
      "label": "Clever Goal",
      "description": "As a Velociraptor, score a goal in the Jurassic World Petting Zoo",
      "howto": "As a Velociraptor, score a goal in the Jurassic World Petting Zoo"
    },
    {
      "id": 47,
      "imageId": 47,
      "cred": 10,
      "flags": 1,
      "label": "Hello John!",
      "description": "Set both Free Play characters as John Hammond (or variant of him)",
      "howto": "Set both Free Play characters as John Hammond (or variant of him)"
    },
    {
      "id": 48,
      "imageId": 48,
      "cred": 10,
      "flags": 1,
      "label": "Building Blocks Of Life",
      "description": "Build a LEGO object using Mr. DNA",
      "howto": "Build a LEGO object using Mr. DNA"
    },
    {
      "id": 49,
      "imageId": 49,
      "cred": 10,
      "flags": 1,
      "label": "The Human Piece Of Toast",
      "description": "Give Timmy a shock",
      "howto": "Give Timmy a shock"
    }
  ]
}