{
  "achievementsPossible": 12,
  "credPossible": 200,
  "achievements": [
    {
      "id": 1,
      "imageId": 1,
      "cred": 10,
      "flags": 1,
      "label": "UNLOCK ARCADE STAGE SELECT MODE",
      "description": "アーケードモードステージセレクト解禁！",
      "howto": "一人用でアーケードの１３機モードをクリアしよう！"
    },
    {
      "id": 2,
      "imageId": 2,
      "cred": 10,
      "flags": 1,
      "label": "UNLOCK EXTRA STAGE SELECT MODE",
      "description": "エクストラモードステージセレクト解禁！",
      "howto": "一人用でエクストラの１３機モードをクリアしよう！"
    },
    {
      "id": 3,
      "imageId": 3,
      "cred": 10,
      "flags": 1,
      "label": "UNLOCK 13 PLANE MODE",
      "description": "１３機モード解禁！",
      "howto": "一人用でアーケードモード及びエクストラモードをクリアしよう！"
    },
    {
      "id": 4,
      "imageId": 4,
      "cred": 10,
      "flags": 1,
      "label": "R-GRAY0 ROLLOUT",
      "description": "Ｒ－ＧＲＡＹ０解禁！",
      "howto": "一人用でアーケードモードをクリアしよう！"
    },
    {
      "id": 5,
      "imageId": 5,
      "cred": 10,
      "flags": 1,
      "label": "R-GEAR ROLLOUT",
      "description": "Ｒ－ＧＥＡＲ解禁！",
      "howto": "一人用でエクストラモードをクリアしよう！"
    },
    {
      "id": 6,
      "imageId": 6,
      "cred": 10,
      "flags": 1,
      "label": "UNLOCK RATE VIEWER",
      "description": "撃墜率表示解禁！",
      "howto": "一人用でアーケードかエクストラの１３機モードをクリアしよう！"
    },
    {
      "id": 7,
      "imageId": 7,
      "cred": 10,
      "flags": 1,
      "label": "UNLOCK UNLIMITED CREDITS",
      "description": "無限クレジット解禁！",
      "howto": "一人用での累計使用クレジット５０クレジット。"
    },
    {
      "id": 8,
      "imageId": 8,
      "cred": 20,
      "flags": 1,
      "label": "OVERALL LOCKON AVERAGE 80%",
      "description": "平均ロックオン率８０％達成！",
      "howto": "一人用で全ステージのロックオン率平均８０％以上を目指そう！"
    },
    {
      "id": 9,
      "imageId": 9,
      "cred": 20,
      "flags": 1,
      "label": "OVERALL SHOOTINGDOWN AVERAGE 80%",
      "description": "平均撃墜率８０％達成！",
      "howto": "一人用で全ステージの撃墜率平均８０％以上を目指そう！"
    },
    {
      "id": 10,
      "imageId": 10,
      "cred": 20,
      "flags": 1,
      "label": "LOCKON DOWN 10000 UNIT",
      "description": "ロックオンによる累積撃墜数１００００機達成！",
      "howto": "一人用でこれまでの全累積ロックオン撃墜数１００００機を目指そう！"
    },
    {
      "id": 11,
      "imageId": 11,
      "cred": 20,
      "flags": 1,
      "label": "SHOOTINGDOWN 15000 UNIT",
      "description": "累積撃墜数１５０００機達成！",
      "howto": "一人用でこれまでの全累積撃墜数１５０００機を目指そう！"
    },
    {
      "id": 12,
      "imageId": 12,
      "cred": 50,
      "flags": 1,
      "label": "NO CONTINUE CLEAR",
      "description": "ノーコンティニュークリア達成！",
      "howto": "一人用で、１３機モード以外をノーコンティニュークリアしよう！"
    }
  ]
}