{
  "achievementsPossible": 12,
  "credPossible": 200,
  "achievements": [
    {
      "id": 2,
      "imageId": 2,
      "cred": 40,
      "flags": 1,
      "label": "Triumph",
      "description": "Completed the single player campaign.",
      "howto": "Complete the single player campaign."
    },
    {
      "id": 3,
      "imageId": 3,
      "cred": 40,
      "flags": 1,
      "label": "Allied Victory",
      "description": "Completed the cooperative campaign.",
      "howto": "Complete the cooperative campaign."
    },
    {
      "id": 4,
      "imageId": 4,
      "cred": 10,
      "flags": 4,
      "label": "Battleship",
      "description": "Destroyed five asteroids at once.",
      "howto": "Destroy five asteroids at once."
    },
    {
      "id": 5,
      "imageId": 5,
      "cred": 10,
      "flags": 1,
      "label": "Destroyer",
      "description": "Destroyed seven asteroids at once.",
      "howto": "Destroy seven asteroids at once."
    },
    {
      "id": 6,
      "imageId": 7,
      "cred": 10,
      "flags": 4,
      "label": "Abstinence",
      "description": "Completed a stage without collecting a Power-Up.",
      "howto": "Complete a stage without collecting a Power-Up."
    },
    {
      "id": 7,
      "imageId": 6,
      "cred": 10,
      "flags": 4,
      "label": "Untouchable",
      "description": "Completed a whole sector without dying once",
      "howto": "Complete a whole sector without dying once."
    },
    {
      "id": 8,
      "imageId": 8,
      "cred": 15,
      "flags": 4,
      "label": "Hyperspeed",
      "description": "Finished a stage in less than 90 seconds.",
      "howto": "Finish a stage in less than 90 seconds."
    },
    {
      "id": 9,
      "imageId": 1,
      "cred": 10,
      "flags": 4,
      "label": "Payoff",
      "description": "Scored 500,000 points in a single game.",
      "howto": "Score more than 500,000 points in a single game."
    },
    {
      "id": 10,
      "imageId": 9,
      "cred": 15,
      "flags": 4,
      "label": "Jackpot",
      "description": "Scored 1,500,000 points in a single game.",
      "howto": "Score 1,500,000 points in a single game."
    },
    {
      "id": 11,
      "imageId": 10,
      "cred": 10,
      "flags": 4,
      "label": "Survivor",
      "description": "Survived 3 stages without dying once.",
      "howto": "Survive 3 stages without dying once."
    },
    {
      "id": 12,
      "imageId": 11,
      "cred": 15,
      "flags": 4,
      "label": "Field Medicine",
      "description": "Collected enough Score Orbs in a single run to get two extra lives at once.",
      "howto": ""
    },
    {
      "id": 13,
      "imageId": 12,
      "cred": 15,
      "flags": 4,
      "label": "Rock 'n' Roll",
      "description": "Destroyed 50 big obstacles in a single game.",
      "howto": "Destroy 50 big obstacles in a single game."
    }
  ]
}