{
  "achievementsPossible": 12,
  "credPossible": 200,
  "achievements": [
    {
      "id": 1,
      "imageId": 1,
      "cred": 10,
      "flags": 1,
      "label": "Exelica Normal Ending",
      "description": "Complete the game playing as Exelica (Normal Ending).",
      "howto": "Complete the game playing as Exelica (Normal Ending)."
    },
    {
      "id": 2,
      "imageId": 2,
      "cred": 10,
      "flags": 1,
      "label": "Crueltear Normal Ending",
      "description": "Complete the game playing as Crueltear (Normal Ending).",
      "howto": "Complete the game playing as Crueltear (Normal Ending)."
    },
    {
      "id": 3,
      "imageId": 3,
      "cred": 20,
      "flags": 1,
      "label": "Exelica True Ending",
      "description": "Complete the game playing as Exelica (True Ending).",
      "howto": "Complete the game playing as Exelica (True Ending)."
    },
    {
      "id": 4,
      "imageId": 4,
      "cred": 20,
      "flags": 1,
      "label": "Crueltear True Ending",
      "description": "Complete the game playing as Crueltear (True Ending).",
      "howto": "Complete the game playing as Crueltear (True Ending)."
    },
    {
      "id": 5,
      "imageId": 5,
      "cred": 10,
      "flags": 6,
      "label": "Score 50,000,000",
      "description": "Complete the game with a score of 50,000,000 points.",
      "howto": "Complete the game with a score of 50,000,000 points."
    },
    {
      "id": 6,
      "imageId": 6,
      "cred": 20,
      "flags": 6,
      "label": "Score 100,000,000",
      "description": "Complete the game with a score of 100,000,000 points.",
      "howto": "Complete the game with a score of 100,000,000 points."
    },
    {
      "id": 7,
      "imageId": 7,
      "cred": 15,
      "flags": 4,
      "label": "Destroy Faintear (Level 1)",
      "description": "Destroy Faintear in the first level.",
      "howto": "Destroy Faintear in the first level."
    },
    {
      "id": 8,
      "imageId": 8,
      "cred": 20,
      "flags": 4,
      "label": "Destroy Faintear (Level 3)",
      "description": "Destroy Faintear in the third level.",
      "howto": "Destroy Faintear in the third level."
    },
    {
      "id": 9,
      "imageId": 9,
      "cred": 15,
      "flags": 1,
      "label": "No Miss Clear",
      "description": "Complete the entire game without losing a life.",
      "howto": "Complete the entire game without losing a life."
    },
    {
      "id": 10,
      "imageId": 10,
      "cred": 15,
      "flags": 1,
      "label": "No Bomb Clear",
      "description": "Complete the entire game without using a bomb.",
      "howto": "Complete the entire game without using a bomb."
    },
    {
      "id": 11,
      "imageId": 11,
      "cred": 20,
      "flags": 1,
      "label": "Hard Mode 1CC",
      "description": "Complete the entire game at the highest difficulty level and without using a continue.",
      "howto": "Complete the entire game at the highest difficulty level and without using a continue."
    },
    {
      "id": 12,
      "imageId": 12,
      "cred": 25,
      "flags": 1,
      "label": "Perfect Play",
      "description": "Destroy all the bosses and complete the entire game without dying at Normal difficulty or higher.",
      "howto": "Destroy all the bosses and complete the entire game without dying at Normal difficulty or higher."
    }
  ]
}