{
  "achievementsPossible": 40,
  "credPossible": 1000,
  "achievements": [
    {
      "id": 1,
      "imageId": 43,
      "cred": 15,
      "flags": 4,
      "label": "Calling All Creeps",
      "description": "Collect the cell phone from your school locker.",
      "howto": "Collect the cell phone from your school locker."
    },
    {
      "id": 2,
      "imageId": 45,
      "cred": 15,
      "flags": 4,
      "label": "Stay Out of the Forest",
      "description": "Find a way past the strange man in the woods.",
      "howto": "Find a way past the strange man in the woods."
    },
    {
      "id": 3,
      "imageId": 47,
      "cred": 20,
      "flags": 4,
      "label": "Good Hare Day",
      "description": "Place the Magician's Top Hat on its rightful owner.",
      "howto": "Place the Magician's Top Hat on its rightful owner."
    },
    {
      "id": 4,
      "imageId": 48,
      "cred": 20,
      "flags": 4,
      "label": "Creep from the Deep",
      "description": "Toss 10 expendable items into a deep, dark hole.",
      "howto": "Toss 10 expendable items into a deep, dark hole."
    },
    {
      "id": 5,
      "imageId": 49,
      "cred": 30,
      "flags": 4,
      "label": "Welcome to Dead House",
      "description": "Complete Area 1 and return home.",
      "howto": "Complete Area 1 and return home."
    },
    {
      "id": 7,
      "imageId": 50,
      "cred": 15,
      "flags": 4,
      "label": "An Old Story's End",
      "description": "Evict an elderly intruder.",
      "howto": "Evict an elderly intruder."
    },
    {
      "id": 8,
      "imageId": 51,
      "cred": 20,
      "flags": 4,
      "label": "The Ghost Next Door",
      "description": "See to the needs of the 3 unexpected guests.",
      "howto": "See to the needs of the 3 unexpected guests."
    },
    {
      "id": 9,
      "imageId": 52,
      "cred": 30,
      "flags": 4,
      "label": "It Came from the Internet!",
      "description": "Use modern technology to give the second Ghost Child his heart's desire.",
      "howto": "Use modern technology to give the second Ghost Child his heart's desire."
    },
    {
      "id": 10,
      "imageId": 53,
      "cred": 20,
      "flags": 4,
      "label": "It Came from Beneath the Sink!",
      "description": "Face what lies beneath the sink… and survive!",
      "howto": "Face what lies beneath the sink… and survive!"
    },
    {
      "id": 11,
      "imageId": 91,
      "cred": 20,
      "flags": 4,
      "label": "Elevatory to Nowhere",
      "description": "Access the mysterious dimension from every possible angle.",
      "howto": "Access the mysterious dimension from every possible angle."
    },
    {
      "id": 12,
      "imageId": 55,
      "cred": 15,
      "flags": 4,
      "label": "Toy Terror: Batteries Included",
      "description": "Disable a deadly toy bent on destruction.",
      "howto": "Disable a deadly toy bent on destruction."
    },
    {
      "id": 13,
      "imageId": 56,
      "cred": 30,
      "flags": 4,
      "label": "How I Got my Shrunken Head",
      "description": "Solve a compression problem to reach the attic.",
      "howto": "Solve a compression problem to reach the attic."
    },
    {
      "id": 14,
      "imageId": 57,
      "cred": 15,
      "flags": 4,
      "label": "I Was Your Evil Twin",
      "description": "Look into an antique mirror and do some self reflection.",
      "howto": "Look into an antique mirror and do some self reflection."
    },
    {
      "id": 15,
      "imageId": 58,
      "cred": 15,
      "flags": 4,
      "label": "Haunted Car",
      "description": "Convince your brother to give you a ride across town.",
      "howto": "Convince your brother to give you a ride across town."
    },
    {
      "id": 16,
      "imageId": 59,
      "cred": 15,
      "flags": 4,
      "label": "Shop Til You Drop Dead",
      "description": "Find a way inside the Mall.",
      "howto": "Find a way inside the Mall."
    },
    {
      "id": 17,
      "imageId": 60,
      "cred": 15,
      "flags": 4,
      "label": "Trick or...Trapped",
      "description": "Survive a power outage with gnome complications.",
      "howto": "Survive a power outage with gnome complications."
    },
    {
      "id": 18,
      "imageId": 61,
      "cred": 30,
      "flags": 4,
      "label": "The Monster Who Cried Girl",
      "description": "Recreate a crime scene to get security off your scent.",
      "howto": "Recreate a crime scene to get security off your scent."
    },
    {
      "id": 19,
      "imageId": 62,
      "cred": 30,
      "flags": 4,
      "label": "Deep in the Jungle of Retail",
      "description": "Correctly answer a riddle as if your life depended on it.",
      "howto": "Correctly answer a riddle as if your life depended on it."
    },
    {
      "id": 20,
      "imageId": 63,
      "cred": 20,
      "flags": 4,
      "label": "It Came From Ohio",
      "description": "Track down RL Stine in the phone book and give him a call.",
      "howto": "Track down RL Stine in the phone book and give him a call."
    },
    {
      "id": 21,
      "imageId": 64,
      "cred": 30,
      "flags": 4,
      "label": "Using the ol Brain Juice",
      "description": "Find a way to call RL Stine without touching gross coins or a dirty phone receiver.",
      "howto": "Find a way to call RL Stine without touching gross coins or a dirty phone receiver."
    },
    {
      "id": 22,
      "imageId": 92,
      "cred": 15,
      "flags": 4,
      "label": "Are You Terrified Yet?",
      "description": "Find entry into the bookstore.",
      "howto": "Find entry into the bookstore."
    },
    {
      "id": 23,
      "imageId": 66,
      "cred": 30,
      "flags": 4,
      "label": "Go Eat Worms",
      "description": "Have your life ended in 10 unique ways.",
      "howto": "Have your life ended in 10 unique ways."
    },
    {
      "id": 24,
      "imageId": 67,
      "cred": 30,
      "flags": 1,
      "label": "Not the Living Dummy's Night",
      "description": "Survive the game to completion.",
      "howto": "Survive the game to completion."
    },
    {
      "id": 25,
      "imageId": 68,
      "cred": 15,
      "flags": 4,
      "label": "Say Cheese and Ding!",
      "description": "Take a photograph using the Haunted Camera.",
      "howto": "Take a photograph using the Haunted Camera."
    },
    {
      "id": 26,
      "imageId": 69,
      "cred": 50,
      "flags": 4,
      "label": "Say Cheese and Ding! - Again!",
      "description": "Take pictures of the 7 most deadly monsters using the Haunted Camera.",
      "howto": "Take pictures of the 7 most deadly monsters using the Haunted Camera."
    },
    {
      "id": 27,
      "imageId": 93,
      "cred": 30,
      "flags": 4,
      "label": "Earth Geeks Must Go!",
      "description": "Achieve a perfect game of skeeball.",
      "howto": "Achieve a perfect game of skeeball."
    },
    {
      "id": 28,
      "imageId": 71,
      "cred": 30,
      "flags": 1,
      "label": "It's Only a Nightmare",
      "description": "Complete the game without ever using the cell phone.",
      "howto": "Complete the game without ever using the cell phone."
    },
    {
      "id": 29,
      "imageId": 94,
      "cred": 20,
      "flags": 4,
      "label": "Don't Go to Sleep",
      "description": "Charge your cell phone.",
      "howto": "Charge your cell phone."
    },
    {
      "id": 30,
      "imageId": 74,
      "cred": 30,
      "flags": 1,
      "label": "Danger Time ",
      "description": "Complete the game after draining your phone to 0% battery.",
      "howto": "Complete the game after draining your phone to 0% battery."
    },
    {
      "id": 31,
      "imageId": 97,
      "cred": 30,
      "flags": 1,
      "label": "My Friends Call Me Monster",
      "description": "Defeat Slappy while wearing the Haunted Mask.",
      "howto": "Defeat Slappy while wearing the Haunted Mask."
    },
    {
      "id": 32,
      "imageId": 76,
      "cred": 30,
      "flags": 4,
      "label": "Heads You Lose",
      "description": "Pry the Haunted Mask off your face.",
      "howto": "Pry the Haunted Mask off your face."
    },
    {
      "id": 33,
      "imageId": 77,
      "cred": 15,
      "flags": 4,
      "label": "Be Afraid - Be Very Afraid!",
      "description": "Intimidate a very deadly creature.",
      "howto": "Intimidate a very deadly creature."
    },
    {
      "id": 34,
      "imageId": 78,
      "cred": 30,
      "flags": 1,
      "label": "All-Day Nightmare",
      "description": "Finish the game in 300 turns or fewer.",
      "howto": "Finish the game in 300 turns or fewer."
    },
    {
      "id": 35,
      "imageId": 79,
      "cred": 50,
      "flags": 1,
      "label": "How I Learned to Fly",
      "description": "Finish the game in 175 turns or fewer.",
      "howto": "Finish the game in 175 turns or fewer."
    },
    {
      "id": 36,
      "imageId": 96,
      "cred": 50,
      "flags": 4,
      "label": "Night of the Giant Inventory",
      "description": "Grab every item you possibly can.",
      "howto": "Grab every item you possibly can."
    },
    {
      "id": 37,
      "imageId": 81,
      "cred": 30,
      "flags": 4,
      "label": "Be Careful What You Wish For",
      "description": "Gather all possible items dropped from the laundry chute.",
      "howto": "Gather all possible items dropped from the laundry chute."
    },
    {
      "id": 38,
      "imageId": 82,
      "cred": 20,
      "flags": 4,
      "label": "A Shocker on Shock Street",
      "description": "Be proactive and start your laundry.",
      "howto": "Be proactive and start your laundry."
    },
    {
      "id": 39,
      "imageId": 84,
      "cred": 15,
      "flags": 4,
      "label": "You're Not Plant Food",
      "description": "Narrowly escape defeat by wearing a talisman into the woods.",
      "howto": "Narrowly escape defeat by wearing a talisman into the woods."
    },
    {
      "id": 40,
      "imageId": 85,
      "cred": 30,
      "flags": 4,
      "label": "Invaders from the Big Screen",
      "description": "Tell Aunt Dahlia about your weekend plans",
      "howto": "Tell Aunt Dahlia about your weekend plans"
    },
    {
      "id": 41,
      "imageId": 89,
      "cred": 30,
      "flags": 4,
      "label": "Slappy's Nightmare",
      "description": "Discover Slappy's secret shame.",
      "howto": "Discover Slappy's secret shame."
    }
  ]
}