{
  "achievementsPossible": 20,
  "credPossible": 200,
  "achievements": [
    {
      "id": 1,
      "imageId": 2,
      "cred": 20,
      "flags": 1,
      "label": "You're Up and Running!",
      "description": "Area cleared with all dolls totally destroyed",
      "howto": "Area cleared with all dolls totally destroyed"
    },
    {
      "id": 2,
      "imageId": 3,
      "cred": 10,
      "flags": 1,
      "label": "Par for the Course.",
      "description": "Clear an area without taking damage (Other than Extra Areas)",
      "howto": "Clear an area without taking damage (Other than Extra Areas)"
    },
    {
      "id": 3,
      "imageId": 4,
      "cred": 5,
      "flags": 1,
      "label": "Was that Actually Cool?",
      "description": "Clear an area without using a Diabolical Pitch (Other than Extra Areas)",
      "howto": "Clear an area without using a Diabolical Pitch (Other than Extra Areas)"
    },
    {
      "id": 4,
      "imageId": 5,
      "cred": 20,
      "flags": 1,
      "label": "Saving for a Rainy Day?",
      "description": "Collect 100 coins or more",
      "howto": "Collect 100 coins or more"
    },
    {
      "id": 5,
      "imageId": 6,
      "cred": 20,
      "flags": 1,
      "label": "Buying a House?",
      "description": "Collect 500 coins or more",
      "howto": "Collect 500 coins or more"
    },
    {
      "id": 6,
      "imageId": 7,
      "cred": 5,
      "flags": 1,
      "label": "You Hate Losing, Don't Ya?",
      "description": "Use Area Retry or World Retry 10 times",
      "howto": "Use Area Retry or World Retry 10 times"
    },
    {
      "id": 7,
      "imageId": 8,
      "cred": 10,
      "flags": 1,
      "label": "Don't Break your Shoulder!",
      "description": "Throw faster than 105 mph.",
      "howto": "Throw faster than 105 mph."
    },
    {
      "id": 8,
      "imageId": 9,
      "cred": 5,
      "flags": 1,
      "label": "Wrong Sport, Pele!",
      "description": "Kick away 10 dolls or more",
      "howto": "Kick away 10 dolls or more"
    },
    {
      "id": 9,
      "imageId": 10,
      "cred": 5,
      "flags": 1,
      "label": "Are you a Catcher?",
      "description": "Successfully catch 51 times",
      "howto": "Successfully catch 51 times"
    },
    {
      "id": 10,
      "imageId": 11,
      "cred": 10,
      "flags": 1,
      "label": "Card Collector",
      "description": "Collect 30 types of baseball cards",
      "howto": "Collect 30 types of baseball cards"
    },
    {
      "id": 11,
      "imageId": 12,
      "cred": 10,
      "flags": 1,
      "label": "Hardcore!",
      "description": "Acquire all 64 baseball cards",
      "howto": "Acquire all 64 baseball cards"
    },
    {
      "id": 12,
      "imageId": 13,
      "cred": 10,
      "flags": 1,
      "label": "Do You Remember?",
      "description": "All types of Diabolical Pitch used including the Union Ball",
      "howto": "All types of Diabolical Pitch used including the Union Ball"
    },
    {
      "id": 13,
      "imageId": 58,
      "cred": 20,
      "flags": 1,
      "label": "That Was Slow!",
      "description": "All worlds cleared in single-player mode",
      "howto": "All worlds cleared in single-player mode"
    },
    {
      "id": 14,
      "imageId": 59,
      "cred": 10,
      "flags": 1,
      "label": "Pals",
      "description": "Clear a world in multiplayer",
      "howto": "Clear a world in multiplayer"
    },
    {
      "id": 15,
      "imageId": 60,
      "cred": 10,
      "flags": 1,
      "label": "Best of Friends",
      "description": "All worlds cleared in multiplayer mode",
      "howto": "All worlds cleared in multiplayer mode"
    },
    {
      "id": 16,
      "imageId": 61,
      "cred": 5,
      "flags": 1,
      "label": "Plenty of Free Time",
      "description": "2,000 dolls knocked down",
      "howto": "2,000 dolls knocked down"
    },
    {
      "id": 17,
      "imageId": 62,
      "cred": 5,
      "flags": 1,
      "label": "Too Much Free Time?",
      "description": "1,000 items acquired",
      "howto": "1,000 items acquired"
    },
    {
      "id": 18,
      "imageId": 63,
      "cred": 5,
      "flags": 1,
      "label": "Overuse Can Be Deadly",
      "description": "Use 200 Diabolical Pitches",
      "howto": "Use 200 Diabolical Pitches"
    },
    {
      "id": 19,
      "imageId": 64,
      "cred": 5,
      "flags": 1,
      "label": "Greedy!",
      "description": "7 triple sevens",
      "howto": "7 triple sevens"
    },
    {
      "id": 20,
      "imageId": 65,
      "cred": 10,
      "flags": 1,
      "label": "Something to Brag About?",
      "description": "Clear all worlds without taking damage from the first area until the end of the extra area",
      "howto": "Clear all worlds without taking damage from the first area until the end of the extra area"
    }
  ]
}