{
  "avatarAssetsPossible": 4,
  "maleAvatarAssetsPossible": 2,
  "femaleAvatarAssetsPossible": 2,
  "avatarAssets": [
    {
      "id": "00000008-0001-a141-c333-528153450846",
      "imageId": 98,
      "subcategory": 0,
      "unknown": 0,
      "isMale": true,
      "isFemale": false,
      "isUnisex": false,
      "label": "Nightmarish T-Shirt",
      "description": "Survived the Nightmare and all I got was a T-shirt.",
      "howto": "Clear Rise of Nightmares."
    },
    {
      "id": "00000008-0001-2122-c75e-340053450846",
      "imageId": 96,
      "subcategory": 0,
      "unknown": 2015221016,
      "isMale": false,
      "isFemale": true,
      "isUnisex": false,
      "label": "Nightmarish T-Shirt",
      "description": "Survived the Nightmare and all I got was a T-shirt.",
      "howto": "Clear Rise of Nightmares."
    },
    {
      "id": "00000008-0002-2121-c75e-340053450846",
      "imageId": 102,
      "subcategory": 0,
      "unknown": 2015221016,
      "isMale": true,
      "isFemale": false,
      "isUnisex": false,
      "label": "Alchemy T-Shirt",
      "description": "Proof of your creature-slaying, pipe-weilding, energy ball-flinging prowess.",
      "howto": "Unlock all 50 achivements."
    },
    {
      "id": "00000008-0002-11d2-ceb2-08fe53450846",
      "imageId": 100,
      "subcategory": 0,
      "unknown": 2015221016,
      "isMale": false,
      "isFemale": true,
      "isUnisex": false,
      "label": "Alchemy T-Shirt",
      "description": "Proof of your creature-slaying, pipe-weilding, energy ball-flinging prowess.",
      "howto": "Unlock all 50 achivements."
    }
  ]
}