{
  "achievementsPossible": 26,
  "credPossible": 1000,
  "achievements": [
    {
      "id": 0,
      "imageId": 1,
      "cred": 10,
      "flags": 1,
      "label": "You know I'm awesome",
      "description": "Collected first piece of evidence",
      "howto": "Collect first piece of evidence"
    },
    {
      "id": 1,
      "imageId": 2,
      "cred": 10,
      "flags": 1,
      "label": "Rule #1",
      "description": "Successfully completed first co-op activity",
      "howto": "Complete first co-op activity"
    },
    {
      "id": 2,
      "imageId": 3,
      "cred": 15,
      "flags": 1,
      "label": "Hey, I'm a hacker.",
      "description": "Successfully completed first database search",
      "howto": "Complete first database search"
    },
    {
      "id": 3,
      "imageId": 4,
      "cred": 15,
      "flags": 1,
      "label": "Nice goin' Abs.",
      "description": "Successfully completed first fingerprint lifting",
      "howto": "Complete first fingerprint lifting"
    },
    {
      "id": 4,
      "imageId": 5,
      "cred": 15,
      "flags": 1,
      "label": "Abigail Sciuto FTW",
      "description": "Successfully completed first fingerprint comparison",
      "howto": "Complete first fingerprint comparison"
    },
    {
      "id": 5,
      "imageId": 6,
      "cred": 15,
      "flags": 1,
      "label": "Abbycadabra",
      "description": "Successfully completed first chemical analysis",
      "howto": "Complete first chemical analysis"
    },
    {
      "id": 6,
      "imageId": 7,
      "cred": 15,
      "flags": 1,
      "label": "Rule #39",
      "description": "Successfully completed first ballistics test",
      "howto": "Complete first ballistics test"
    },
    {
      "id": 7,
      "imageId": 8,
      "cred": 15,
      "flags": 1,
      "label": "Cooking up some awesome",
      "description": "Successfully completed first footprint comparison",
      "howto": "Complete first footprint comparison"
    },
    {
      "id": 8,
      "imageId": 9,
      "cred": 15,
      "flags": 1,
      "label": "Rule #38",
      "description": "Successfully completed first deduction",
      "howto": "Complete first deduction"
    },
    {
      "id": 9,
      "imageId": 10,
      "cred": 15,
      "flags": 1,
      "label": "Waddaya got for me, Duck",
      "description": "Successfully completed first autopsy",
      "howto": "Complete first autopsy"
    },
    {
      "id": 10,
      "imageId": 11,
      "cred": 15,
      "flags": 1,
      "label": "Rule #8",
      "description": "Successfully completed first interview",
      "howto": "Complete first interview"
    },
    {
      "id": 11,
      "imageId": 12,
      "cred": 15,
      "flags": 1,
      "label": "Rule #3",
      "description": "Successfully completed first interrogation",
      "howto": "Complete first interrogation"
    },
    {
      "id": 12,
      "imageId": 13,
      "cred": 15,
      "flags": 1,
      "label": "McGPS",
      "description": "Successfully completed first satellite tracking",
      "howto": "Complete first satellite tracking"
    },
    {
      "id": 13,
      "imageId": 14,
      "cred": 15,
      "flags": 1,
      "label": "Like shooting fish in a pond",
      "description": "Successfully cracked first safe",
      "howto": "Complete first safe cracking"
    },
    {
      "id": 14,
      "imageId": 15,
      "cred": 100,
      "flags": 1,
      "label": "Probie Wan Kenobie",
      "description": "Successfully completed Episode 1",
      "howto": "Complete Episode 1"
    },
    {
      "id": 15,
      "imageId": 16,
      "cred": 100,
      "flags": 1,
      "label": "NCIS Investigator",
      "description": "Successfully completed Episode 2",
      "howto": "Complete Episode 2"
    },
    {
      "id": 16,
      "imageId": 17,
      "cred": 100,
      "flags": 1,
      "label": "NCIS Agent",
      "description": "Successfully completed Episode 3",
      "howto": "Complete Episode 3"
    },
    {
      "id": 17,
      "imageId": 18,
      "cred": 100,
      "flags": 1,
      "label": "Very Special Agent",
      "description": "Successfully completed Episode 4",
      "howto": "Complete Episode 4"
    },
    {
      "id": 18,
      "imageId": 19,
      "cred": 50,
      "flags": 1,
      "label": "Atlantic City",
      "description": "Successfully completed first crime scene",
      "howto": "Complete first crime scene"
    },
    {
      "id": 19,
      "imageId": 20,
      "cred": 50,
      "flags": 1,
      "label": "Dirty Harry",
      "description": "Successfully completed second crime scene",
      "howto": "Complete second crime scene"
    },
    {
      "id": 20,
      "imageId": 21,
      "cred": 50,
      "flags": 1,
      "label": "Bank Heist",
      "description": "Successfully completed third crime scene",
      "howto": "Complete third crime scene"
    },
    {
      "id": 21,
      "imageId": 22,
      "cred": 50,
      "flags": 1,
      "label": "BBQ'd Apartment",
      "description": "Successfully completed fourth crime scene",
      "howto": "Complete fourth crime scene"
    },
    {
      "id": 22,
      "imageId": 23,
      "cred": 50,
      "flags": 1,
      "label": "Front Lines",
      "description": "Successfully completed fifth crime scene",
      "howto": "Complete fifth crime scene"
    },
    {
      "id": 23,
      "imageId": 24,
      "cred": 50,
      "flags": 1,
      "label": "Torture Chamber",
      "description": "Successfully completed sixth crime scene",
      "howto": "Complete sixth crime scene"
    },
    {
      "id": 24,
      "imageId": 25,
      "cred": 50,
      "flags": 1,
      "label": "Five Star Accommodations",
      "description": "Successfully completed seventh crime scene",
      "howto": "Complete seventh crime scene"
    },
    {
      "id": 25,
      "imageId": 26,
      "cred": 50,
      "flags": 1,
      "label": "NCIS 1, Terrorists 0",
      "description": "Successfully saved the world from terrorists",
      "howto": "Save the world from terrorists"
    }
  ]
}