{
  "achievementsPossible": 12,
  "credPossible": 200,
  "achievements": [
    {
      "id": 1,
      "imageId": 30,
      "cred": 20,
      "flags": 4,
      "label": "Yoooo JOE!",
      "description": "Win an online game session.",
      "howto": "Win an online game session."
    },
    {
      "id": 2,
      "imageId": 34,
      "cred": 20,
      "flags": 4,
      "label": "Master of the Universe!",
      "description": "Reach max level.",
      "howto": "Reach max level."
    },
    {
      "id": 3,
      "imageId": 35,
      "cred": 20,
      "flags": 4,
      "label": "Wings of Silver",
      "description": "Collect 35 Solar on an drop-pod drop.",
      "howto": "Collect 35 Solar on an drop-pod drop."
    },
    {
      "id": 4,
      "imageId": 36,
      "cred": 20,
      "flags": 4,
      "label": "Slimer's evil twin",
      "description": "Kill the Solar boss in an online game session.",
      "howto": "Kill the Solar boss in an online game session."
    },
    {
      "id": 5,
      "imageId": 37,
      "cred": 20,
      "flags": 4,
      "label": "Awesomenauts, roll out!",
      "description": "Unlock 3 characters.",
      "howto": "Unlock 3 characters."
    },
    {
      "id": 6,
      "imageId": 38,
      "cred": 20,
      "flags": 4,
      "label": "Thunder, thunder, thunder!",
      "description": "Get a killing spree.",
      "howto": "Get a killing spree."
    },
    {
      "id": 7,
      "imageId": 39,
      "cred": 15,
      "flags": 4,
      "label": "In pole position",
      "description": "Make the most kills of both teams in an online match.",
      "howto": "Make the most kills of both teams in an online match."
    },
    {
      "id": 8,
      "imageId": 40,
      "cred": 15,
      "flags": 4,
      "label": "Party at Sky Vault",
      "description": "Win a game session with 2 friends splitscreen.",
      "howto": "Win a game session with 2 friends splitscreen."
    },
    {
      "id": 9,
      "imageId": 41,
      "cred": 15,
      "flags": 4,
      "label": "Let our powers combine!",
      "description": "Play a game session with friends invited in your game session.",
      "howto": "Play a game session with friends invited in your game session."
    },
    {
      "id": 10,
      "imageId": 42,
      "cred": 15,
      "flags": 4,
      "label": "Bionic family",
      "description": "Win game sessions with six different characters.",
      "howto": "Win game sessions with six different characters."
    },
    {
      "id": 11,
      "imageId": 43,
      "cred": 15,
      "flags": 4,
      "label": "T-U-R-R-E-T powah!",
      "description": "Destroy 25 turrets.",
      "howto": "Destroy 25 turrets."
    },
    {
      "id": 12,
      "imageId": 32,
      "cred": 5,
      "flags": 4,
      "label": "Hawk, wolf, puma and bear",
      "description": "Kill 1000 droids/creeps.",
      "howto": "Kill 1000 droids/creeps."
    }
  ]
}