{
  "avatarAssetsPossible": 5,
  "maleAvatarAssetsPossible": 2,
  "femaleAvatarAssetsPossible": 2,
  "avatarAssets": [
    {
      "id": "00000544-0001-1193-c41e-447d584111f6",
      "imageId": 11,
      "subcategory": 0,
      "unknown": 0,
      "isMale": false,
      "isFemale": false,
      "isUnisex": true,
      "label": "Joe's Cosmic Helmet",
      "description": "Sturdy futuristic helmet, perfect for a flight through a city under siege!",
      "howto": "Collect a set of D-A-N-G-E-R!"
    },
    {
      "id": "00000208-0002-f1a1-cfaf-d702584111f6",
      "imageId": 13,
      "subcategory": 0,
      "unknown": 2015221016,
      "isMale": true,
      "isFemale": false,
      "isUnisex": false,
      "label": "Joe's Jubilant Jetpack",
      "description": "The ultimate in stuntman technology!",
      "howto": "Collect a second set of D-A-N-G-E-R!"
    },
    {
      "id": "00000208-0002-c1e2-cf56-5f03584111f6",
      "imageId": 7,
      "subcategory": 0,
      "unknown": 2015221016,
      "isMale": false,
      "isFemale": true,
      "isUnisex": false,
      "label": "Joe's Jubilant Jetpack",
      "description": "The ultimate in stuntman technology!",
      "howto": "Collect a second set of D-A-N-G-E-R!"
    },
    {
      "id": "00000030-0003-b1e1-c86f-9bbb584111f6",
      "imageId": 15,
      "subcategory": 0,
      "unknown": 2015221016,
      "isMale": true,
      "isFemale": false,
      "isUnisex": false,
      "label": "Joe's Galactic Trousers",
      "description": "Galactic fibre futuristic space trousers, extra tight for added speed!",
      "howto": "Collect a third set of D-A-N-G-E-R!"
    },
    {
      "id": "00000030-0003-5152-c1d5-d674584111f6",
      "imageId": 9,
      "subcategory": 0,
      "unknown": 2015221016,
      "isMale": false,
      "isFemale": true,
      "isUnisex": false,
      "label": "Joe's Galactic Trousers",
      "description": "Galactic fibre futuristic space trousers, extra tight for added speed!",
      "howto": "Collect a third set of D-A-N-G-E-R!"
    }
  ]
}