[
  {
    "titleId": 1480657435,
    "largeId": 131074,
    "smallId": 65538,
    "commonId": 2
  },
  {
    "titleId": 1480657435,
    "largeId": 131075,
    "smallId": 65539,
    "commonId": 3
  }
]