{
  "achievementsPossible": 12,
  "credPossible": 200,
  "achievements": [
    {
      "id": 1,
      "imageId": 1,
      "cred": 0,
      "flags": 1,
      "label": "Man Up!",
      "description": "You have defeated someone over Xbox LIVE with the Man Up! achievement.",
      "howto": "Defeat someone over Xbox LIVE who has earned the Man Up! achievement."
    },
    {
      "id": 2,
      "imageId": 6,
      "cred": 5,
      "flags": 1,
      "label": "First Strike",
      "description": "You got an objective before everyone else.",
      "howto": "Be the first to get an objective in game."
    },
    {
      "id": 3,
      "imageId": 7,
      "cred": 10,
      "flags": 1,
      "label": "Destroyer",
      "description": "You killed 100 military, cat, robot, yeti and zombie units.",
      "howto": "Kill 100 human, cat, robot, yeti and zombie units."
    },
    {
      "id": 4,
      "imageId": 8,
      "cred": 10,
      "flags": 1,
      "label": "Faction Specialist",
      "description": "You completed the human, cat, robot, yeti and zombie campaigns.",
      "howto": "Complete the human, cat, robot, yeti and zombie campaigns."
    },
    {
      "id": 5,
      "imageId": 9,
      "cred": 20,
      "flags": 1,
      "label": "Capitalize This",
      "description": "You owned everyone by controlling 5 capitals.",
      "howto": "Control 5 capitals."
    },
    {
      "id": 6,
      "imageId": 10,
      "cred": 20,
      "flags": 1,
      "label": "Ironman",
      "description": "You have successfully defended 5 attackers with 1 troop.",
      "howto": "Defend a minimum of 5 attackers with one defender."
    },
    {
      "id": 7,
      "imageId": 11,
      "cred": 30,
      "flags": 1,
      "label": "Demon Child",
      "description": "You have achieved 10 super overkills.",
      "howto": "Achieve 10 super overkills."
    },
    {
      "id": 8,
      "imageId": 12,
      "cred": 30,
      "flags": 1,
      "label": "Star Command",
      "description": "You traded 10 stars for 30 troops!",
      "howto": "Earn 10 stars and trade them for 30 troops."
    },
    {
      "id": 9,
      "imageId": 2,
      "cred": 30,
      "flags": 1,
      "label": "5 Star General",
      "description": "You have won a game on each map in custom game.",
      "howto": "Win a game on each map in custom game."
    },
    {
      "id": 10,
      "imageId": 3,
      "cred": 10,
      "flags": 1,
      "label": "Soldier",
      "description": "You played 5 games on Xbox LIVE.",
      "howto": "Play 5 games on Xbox LIVE."
    },
    {
      "id": 11,
      "imageId": 4,
      "cred": 15,
      "flags": 1,
      "label": "Master & Commander",
      "description": "You have won a 5 player ranked Command Room game on Xbox LIVE.",
      "howto": "Win a 5 player ranked Command Room game on Xbox LIVE."
    },
    {
      "id": 12,
      "imageId": 5,
      "cred": 20,
      "flags": 1,
      "label": "Glory Hunter",
      "description": "You have won 10 ranked games on Xbox LIVE.",
      "howto": "Win 10 ranked games on Xbox LIVE."
    }
  ]
}