{
  "achievementsPossible": 12,
  "credPossible": 200,
  "achievements": [
    {
      "id": 1,
      "imageId": 3,
      "cred": 20,
      "flags": 6,
      "label": "Lurching Toward the Altar",
      "description": "Avoided an unfortunate entanglement.",
      "howto": "Complete chapter 1."
    },
    {
      "id": 2,
      "imageId": 4,
      "cred": 20,
      "flags": 6,
      "label": "The Missing Links",
      "description": "Discovered a deed and kept a country club from closing.",
      "howto": "Complete chapter 2."
    },
    {
      "id": 3,
      "imageId": 5,
      "cred": 20,
      "flags": 1,
      "label": "Tournament of Chumps",
      "description": "Won a championship and claimed a chairmanship.",
      "howto": "Complete chapter 3."
    },
    {
      "id": 4,
      "imageId": 6,
      "cred": 20,
      "flags": 6,
      "label": "Country Clubbed",
      "description": "Saved Wallace and company from a gritty fate.",
      "howto": "Complete chapter 4."
    },
    {
      "id": 5,
      "imageId": 7,
      "cred": 15,
      "flags": 4,
      "label": "Memory Lane",
      "description": "Light as a feather...it's a Bake-O-Lite loaf!",
      "howto": "Find an artifact from \"A Matter of Loaf and Death\"."
    },
    {
      "id": 6,
      "imageId": 8,
      "cred": 15,
      "flags": 4,
      "label": "One Gnome Too Many",
      "description": "Whacked a gnome into the stratosphere.",
      "howto": "Dispose of a mythical character."
    },
    {
      "id": 7,
      "imageId": 9,
      "cred": 15,
      "flags": 4,
      "label": "Mmm... Cheese!",
      "description": "Savored a slice of Stinking Bishop.",
      "howto": "Track down a piece of Stinking Bishop for Wallace."
    },
    {
      "id": 8,
      "imageId": 10,
      "cred": 15,
      "flags": 4,
      "label": "Common Tater",
      "description": "Listened to Mr. Paneer's whole routine.",
      "howto": "Hear Paneer commentate at each stage of Wallace's golf game."
    },
    {
      "id": 9,
      "imageId": 11,
      "cred": 15,
      "flags": 4,
      "label": "Triple Mulligan",
      "description": "Played the best worst game of indoor golf.",
      "howto": "Three strokes in a sand trap."
    },
    {
      "id": 10,
      "imageId": 12,
      "cred": 15,
      "flags": 4,
      "label": "Bleeding Heart",
      "description": "Helped spring Muzzle from jail. Nice job, Numptie!",
      "howto": "Unwittingly aid a villain."
    },
    {
      "id": 11,
      "imageId": 13,
      "cred": 15,
      "flags": 4,
      "label": "Punchlined Out",
      "description": "Squeezed a joke book til it wept.",
      "howto": "Everybody likes jokes, right?"
    },
    {
      "id": 12,
      "imageId": 14,
      "cred": 15,
      "flags": 4,
      "label": "Wallaceism",
      "description": "Found a full complement of old chums.",
      "howto": "Can you find 3 instances of this phrase, old chum?"
    }
  ]
}