{
  "achievementsPossible": 12,
  "credPossible": 200,
  "achievements": [
    {
      "id": 1,
      "imageId": 1,
      "cred": 45,
      "flags": 1,
      "label": "Congratulations!",
      "description": "Cleared all the games. Impressive!",
      "howto": "Clear every game."
    },
    {
      "id": 2,
      "imageId": 2,
      "cred": 15,
      "flags": 1,
      "label": "The Legendary Wonder Boy",
      "description": "Collected all the Legendary Equipment in Wonder Boy in Monster World.",
      "howto": "Collect all the Legendary Equipment in Wonder Boy in Monster World."
    },
    {
      "id": 3,
      "imageId": 3,
      "cred": 30,
      "flags": 1,
      "label": "With All One's Heart",
      "description": "Collected all the heart containers in Wonder Boy in Monster World.",
      "howto": "Collect all the heart containers in Wonder Boy in Monster World."
    },
    {
      "id": 4,
      "imageId": 4,
      "cred": 10,
      "flags": 1,
      "label": "Wizard",
      "description": "Used all types of magic in Wonder Boy in Monster World.",
      "howto": "Use all types of magic in Wonder Boy in Monster World."
    },
    {
      "id": 5,
      "imageId": 5,
      "cred": 30,
      "flags": 1,
      "label": "Every Last Drop",
      "description": "Collected all the Life Drops in Monster World IV.",
      "howto": "Collect all the Life Drops in Monster World IV."
    },
    {
      "id": 6,
      "imageId": 6,
      "cred": 10,
      "flags": 1,
      "label": "Such Agility",
      "description": "Landed 3 consecutive downthrusts without touching the ground in Monster World IV.",
      "howto": "Land 3 consecutive downthrusts without touching the ground in Monster World IV."
    },
    {
      "id": 7,
      "imageId": 7,
      "cred": 5,
      "flags": 1,
      "label": "Refreshment",
      "description": "Washed your face in the spring at the Pyramids in Monster World IV.",
      "howto": "Wash your face in the spring at the Pyramids in Monster World IV."
    },
    {
      "id": 8,
      "imageId": 8,
      "cred": 20,
      "flags": 1,
      "label": "Question: Who defeated me?",
      "description": "Defeated the Sphinx in Wonder Boy in Monster Land.",
      "howto": "Defeat the Sphinx in Wonder Boy in Monster Land."
    },
    {
      "id": 9,
      "imageId": 9,
      "cred": 10,
      "flags": 1,
      "label": "You are a True Hero",
      "description": "Obtained all the Legendary Equipment in Wonder Boy in Monster Land.",
      "howto": "Obtain all the Legendary Equipment in Wonder Boy in Monster Land."
    },
    {
      "id": 10,
      "imageId": 10,
      "cred": 10,
      "flags": 1,
      "label": "Gold in the Clouds",
      "description": "Found all the gold hidden in the clouds of Round 7 in Wonder Boy in Monster Land.",
      "howto": "Find all the gold hidden in the clouds of Round 7 in Wonder Boy in Monster Land."
    },
    {
      "id": 11,
      "imageId": 11,
      "cred": 5,
      "flags": 1,
      "label": "Ghost Slayer",
      "description": "Defeated a resilient Ghost in Wonder Boy in Monster Land.",
      "howto": "Defeat a resilient Ghost in Wonder Boy in Monster Land."
    },
    {
      "id": 12,
      "imageId": 12,
      "cred": 10,
      "flags": 1,
      "label": "Lost and Found",
      "description": "Obtained equipment from a defeated enemy in Wonder Boy in Monster Land.",
      "howto": "Obtain equipment from a defeated enemy in Wonder Boy in Monster Land."
    }
  ]
}