{
  "achievementsPossible": 31,
  "credPossible": 1000,
  "achievements": [
    {
      "id": 2,
      "imageId": 38,
      "cred": 20,
      "flags": 3,
      "label": "2,000 volts",
      "description": "Complete all optional objectives on 'Death Row'",
      "howto": "Complete all optional objectives on 'Death Row'"
    },
    {
      "id": 3,
      "imageId": 39,
      "cred": 20,
      "flags": 3,
      "label": "Cosa Nostra",
      "description": "Complete all optional objectives on 'Palermo'",
      "howto": "Complete all optional objectives on 'Palermo'"
    },
    {
      "id": 4,
      "imageId": 40,
      "cred": 20,
      "flags": 3,
      "label": "Crowd Control",
      "description": "Complete all optional objectives on 'G.A.B.O.S'",
      "howto": "Complete all optional objectives on 'G.A.B.O.S'"
    },
    {
      "id": 6,
      "imageId": 41,
      "cred": 20,
      "flags": 3,
      "label": "Freedom",
      "description": "Complete all optional objectives on 'Bootstraps'",
      "howto": "Complete all optional objectives on 'Bootstraps'"
    },
    {
      "id": 7,
      "imageId": 42,
      "cred": 20,
      "flags": 3,
      "label": "Reformation",
      "description": "Complete all optional objectives on 'Conviction'",
      "howto": "Complete all optional objectives on 'Conviction'"
    },
    {
      "id": 8,
      "imageId": 43,
      "cred": 100,
      "flags": 3,
      "label": "Throw The Book At Them",
      "description": "Complete all of the Prison Stories",
      "howto": "Complete all of the Prison Stories"
    },
    {
      "id": 9,
      "imageId": 44,
      "cred": 100,
      "flags": 3,
      "label": "It's Not What You Know…",
      "description": "Unlock all Snapshots",
      "howto": "Unlock all Snapshots"
    },
    {
      "id": 10,
      "imageId": 45,
      "cred": 10,
      "flags": 3,
      "label": "Visitation",
      "description": "Run a prison in Prison Warden mode for 10 in-game days",
      "howto": "Run a prison in Prison Warden mode for 10 in-game days"
    },
    {
      "id": 11,
      "imageId": 46,
      "cred": 30,
      "flags": 3,
      "label": "Inspectorate Of Prisons",
      "description": "Run every Prison Warden prison for at least 10 in-game days",
      "howto": "Run every Prison Warden prison for at least 10 in-game days"
    },
    {
      "id": 12,
      "imageId": 48,
      "cred": 10,
      "flags": 3,
      "label": "HM Prison Services",
      "description": "Download a prison from the World of Wardens",
      "howto": "Download a prison from the World of Wardens"
    },
    {
      "id": 13,
      "imageId": 49,
      "cred": 10,
      "flags": 3,
      "label": "Spare The Rod",
      "description": "Stopped a riot of 50 or more prisoners in Prison Architect or Prison Warden mode",
      "howto": "Stopped a riot of 50 or more prisoners in Prison Architect or Prison Warden mode"
    },
    {
      "id": 14,
      "imageId": 50,
      "cred": 20,
      "flags": 3,
      "label": "Don't Put Me In The Dark",
      "description": "Execute a prisoner on death row in Prison Architect mode",
      "howto": "Execute a prisoner on death row in Prison Architect mode"
    },
    {
      "id": 15,
      "imageId": 51,
      "cred": 20,
      "flags": 3,
      "label": "Stone Walls",
      "description": "Build a prison with 100 prisoners in Prison Architect mode",
      "howto": "Build a prison with 100 prisoners in Prison Architect mode"
    },
    {
      "id": 16,
      "imageId": 52,
      "cred": 40,
      "flags": 3,
      "label": "Iron Bars",
      "description": "Build a prison with 250 prisoners in Prison Architect mode",
      "howto": "Build a prison with 250 prisoners in Prison Architect mode"
    },
    {
      "id": 17,
      "imageId": 53,
      "cred": 100,
      "flags": 3,
      "label": "Confined",
      "description": "Build a prison with 500 prisoners in Prison Architect mode",
      "howto": "Build a prison with 500 prisoners in Prison Architect mode"
    },
    {
      "id": 18,
      "imageId": 54,
      "cred": 30,
      "flags": 3,
      "label": "D.B. Cooper",
      "description": "Sell a prison and make over $1,000,000 profit in Prison Architect mode on a standard difficulty",
      "howto": "Sell a prison and make over $1,000,000 profit in Prison Architect mode on a standard difficulty"
    },
    {
      "id": 19,
      "imageId": 55,
      "cred": 30,
      "flags": 3,
      "label": "Samuel Norton",
      "description": "Have a cash flow of $50,000 or more in Prison Architect mode on a standard difficulty",
      "howto": "Have a cash flow of $50,000 or more in Prison Architect mode on a standard difficulty"
    },
    {
      "id": 20,
      "imageId": 56,
      "cred": 20,
      "flags": 3,
      "label": "Wait and Hope",
      "description": "Unlock all Bureaucracy items in Prison Architect mode on a standard difficulty",
      "howto": "Unlock all Bureaucracy items in Prison Architect mode on a standard difficulty"
    },
    {
      "id": 21,
      "imageId": 57,
      "cred": 30,
      "flags": 3,
      "label": "Get Busy Living",
      "description": "Achieve a reoffending rate of 25% or lower in Prison Architect mode on a standard difficulty",
      "howto": "Achieve a reoffending rate of 25% or lower in Prison Architect mode on a standard difficulty"
    },
    {
      "id": 22,
      "imageId": 58,
      "cred": 30,
      "flags": 3,
      "label": "Prison Economics",
      "description": "Complete every Grant available to one prison in Prison Architect mode on a standard difficulty",
      "howto": "Complete every Grant available to one prison in Prison Architect mode on a standard difficulty"
    },
    {
      "id": 23,
      "imageId": 59,
      "cred": 30,
      "flags": 3,
      "label": "The Justice System",
      "description": "No deaths, escapes or riots for 10 in-game days in Prison Architect mode on a standard difficulty",
      "howto": "No deaths, escapes or riots for 10 in-game days in Prison Architect mode on a standard difficulty"
    },
    {
      "id": 24,
      "imageId": 60,
      "cred": 30,
      "flags": 3,
      "label": "Rehabilitation & Reformation",
      "description": "Get 100+ prisoner's Drug & Alcohol needs below 25% in Prison Architect mode on a standard difficulty",
      "howto": "Get 100+ prisoner's Drug & Alcohol needs below 25% in Prison Architect mode on a standard difficulty"
    },
    {
      "id": 25,
      "imageId": 61,
      "cred": 10,
      "flags": 3,
      "label": "Failure To Communicate",
      "description": "Remove a gang from a held territory in Prison Architect or Prison Warden mode",
      "howto": "Remove a gang from a held territory in Prison Architect or Prison Warden mode"
    },
    {
      "id": 26,
      "imageId": 62,
      "cred": 30,
      "flags": 3,
      "label": "Prison Hotel",
      "description": "Exceed 50 prisoner's cell entitlement at once in Prison Architect mode on a standard difficulty",
      "howto": "Exceed 50 prisoner's cell entitlement at once in Prison Architect mode on a standard difficulty"
    },
    {
      "id": 27,
      "imageId": 63,
      "cred": 30,
      "flags": 3,
      "label": "Minimum Security Prison",
      "description": "100+ prisoners have less than 10% 'Critical' needs in Prison Architect mode on a standard difficulty",
      "howto": "100+ prisoners have less than 10% 'Critical' needs in Prison Architect mode on a standard difficulty"
    },
    {
      "id": 28,
      "imageId": 64,
      "cred": 30,
      "flags": 3,
      "label": "Working Prison",
      "description": "Export 100 license plates from a single prison in Prison Architect mode on a standard difficulty",
      "howto": "Export 100 license plates from a single prison in Prison Architect mode on a standard difficulty"
    },
    {
      "id": 29,
      "imageId": 65,
      "cred": 10,
      "flags": 3,
      "label": "Oh My God, They Found Tom",
      "description": "Discover and repair an escape tunnel",
      "howto": "Discover and repair an escape tunnel"
    },
    {
      "id": 30,
      "imageId": 66,
      "cred": 10,
      "flags": 3,
      "label": "Prison Industrial Complex",
      "description": "Purchase your first plot of additional land",
      "howto": "Purchase your first plot of additional land"
    },
    {
      "id": 31,
      "imageId": 67,
      "cred": 30,
      "flags": 3,
      "label": "I Read A Book Once, Green It Was",
      "description": "Have 10 prisoners pass General Education in Prison Architect mode on a standard difficulty",
      "howto": "Have 10 prisoners pass General Education in Prison Architect mode on a standard difficulty"
    },
    {
      "id": 32,
      "imageId": 68,
      "cred": 10,
      "flags": 3,
      "label": "Double Eleven",
      "description": "Play the game at 11:11 (am or pm)",
      "howto": "Play the game at 11:11 (am or pm)"
    },
    {
      "id": 33,
      "imageId": 69,
      "cred": 100,
      "flags": 3,
      "label": "The Chief",
      "description": "You've served your time and unlocked every Achievement in Prison Architect…you're free to go",
      "howto": "You've served your time and unlocked every Achievement in Prison Architect…you're free to go"
    }
  ]
}