{
  "achievementsPossible": 30,
  "credPossible": 1000,
  "achievements": [
    {
      "id": 1,
      "imageId": 1,
      "cred": 20,
      "flags": 1,
      "label": "Welcome to Beacontown",
      "description": "Completed Chapter 1 of Episode 1",
      "howto": "Complete Chapter 1 of Episode 1"
    },
    {
      "id": 2,
      "imageId": 2,
      "cred": 20,
      "flags": 1,
      "label": "There Can Only Be One",
      "description": "Completed Chapter 2 of Episode 1",
      "howto": "Complete Chapter 2 of Episode 1"
    },
    {
      "id": 3,
      "imageId": 3,
      "cred": 20,
      "flags": 1,
      "label": "See a Guy about a Thing",
      "description": "Completed Chapter 3 of Episode 1",
      "howto": "Complete Chapter 3 of Episode 1"
    },
    {
      "id": 4,
      "imageId": 4,
      "cred": 20,
      "flags": 1,
      "label": "Open Sesame",
      "description": "Completed Chapter 4 of Episode 1",
      "howto": "Complete Chapter 4 of Episode 1"
    },
    {
      "id": 5,
      "imageId": 5,
      "cred": 20,
      "flags": 1,
      "label": "A Gift From The Deep",
      "description": "Completed Chapter 5 of Episode 1",
      "howto": "Complete Chapter 5 of Episode 1"
    },
    {
      "id": 6,
      "imageId": 6,
      "cred": 100,
      "flags": 1,
      "label": "Colossal Trouble",
      "description": "Completed Chapter 6 of Episode 1",
      "howto": "Complete Chapter 6 of Episode 1"
    },
    {
      "id": 7,
      "imageId": 7,
      "cred": 20,
      "flags": 1,
      "label": "The Battle for Beacontown",
      "description": "Completed Chapter 1 of Episode 2",
      "howto": "Complete Chapter 1 of Episode 2"
    },
    {
      "id": 8,
      "imageId": 8,
      "cred": 20,
      "flags": 1,
      "label": "A Company Divided",
      "description": "Completed Chapter 2 of Episode 2",
      "howto": "Complete Chapter 2 of Episode 2"
    },
    {
      "id": 9,
      "imageId": 9,
      "cred": 20,
      "flags": 1,
      "label": "Winter is Coming",
      "description": "Completed Chapter 3 of Episode 2",
      "howto": "Complete Chapter 3 of Episode 2"
    },
    {
      "id": 10,
      "imageId": 10,
      "cred": 20,
      "flags": 1,
      "label": "Rocked the Blocks",
      "description": "Completed Chapter 4 of Episode 2",
      "howto": "Complete Chapter 4 of Episode 2"
    },
    {
      "id": 11,
      "imageId": 11,
      "cred": 20,
      "flags": 1,
      "label": "Trials and Tribulations",
      "description": "Completed Chapter 5 of Episode 2",
      "howto": "Complete Chapter 5 of Episode 2"
    },
    {
      "id": 12,
      "imageId": 12,
      "cred": 100,
      "flags": 1,
      "label": "Ultimate Showdown",
      "description": "Completed Chapter 6 of Episode 2",
      "howto": "Complete Chapter 6 of Episode 2"
    },
    {
      "id": 13,
      "imageId": 13,
      "cred": 20,
      "flags": 1,
      "label": "Bedrock Blues",
      "description": "Completed Chapter 1 of Episode 3",
      "howto": "Complete Chapter 1 of Episode 3"
    },
    {
      "id": 14,
      "imageId": 14,
      "cred": 20,
      "flags": 1,
      "label": "No Free Lunch",
      "description": "Completed Chapter 2 of Episode 3",
      "howto": "Complete Chapter 2 of Episode 3"
    },
    {
      "id": 15,
      "imageId": 15,
      "cred": 20,
      "flags": 1,
      "label": "Carry the Torch",
      "description": "Completed Chapter 3 of Episode 3",
      "howto": "Complete Chapter 3 of Episode 3"
    },
    {
      "id": 16,
      "imageId": 16,
      "cred": 20,
      "flags": 1,
      "label": "X Marks the Spot",
      "description": "Completed Chapter 4 of Episode 3",
      "howto": "Complete Chapter 4 of Episode 3"
    },
    {
      "id": 17,
      "imageId": 17,
      "cred": 20,
      "flags": 1,
      "label": "Down and Dirty",
      "description": "Completed Chapter 5 of Episode 3",
      "howto": "Complete Chapter 5 of Episode 3"
    },
    {
      "id": 18,
      "imageId": 18,
      "cred": 100,
      "flags": 1,
      "label": "Not-So-Great Escape",
      "description": "Completed Chapter 6 of Episode 3",
      "howto": "Complete Chapter 6 of Episode 3"
    },
    {
      "id": 19,
      "imageId": 19,
      "cred": 20,
      "flags": 1,
      "label": "Behind and Underneath",
      "description": "Completed Chapter 1 of Episode 4",
      "howto": "Complete Chapter 1 of Episode 4"
    },
    {
      "id": 20,
      "imageId": 20,
      "cred": 20,
      "flags": 1,
      "label": "Poetry in Motion",
      "description": "Completed Chapter 2 of Episode 4",
      "howto": "Complete Chapter 2 of Episode 4"
    },
    {
      "id": 21,
      "imageId": 21,
      "cred": 20,
      "flags": 1,
      "label": "A Friend in Need",
      "description": "Completed Chapter 3 of Episode 4",
      "howto": "Complete Chapter 3 of Episode 4"
    },
    {
      "id": 22,
      "imageId": 22,
      "cred": 20,
      "flags": 1,
      "label": "Not What You Expected",
      "description": "Completed Chapter 4 of Episode 4",
      "howto": "Complete Chapter 4 of Episode 4"
    },
    {
      "id": 23,
      "imageId": 23,
      "cred": 20,
      "flags": 1,
      "label": "Out of Time",
      "description": "Completed Chapter 5 of Episode 4",
      "howto": "Complete Chapter 5 of Episode 4"
    },
    {
      "id": 24,
      "imageId": 24,
      "cred": 100,
      "flags": 1,
      "label": "Tougher Than Diamonds",
      "description": "Completed Chapter 6 of Episode 4",
      "howto": "Complete Chapter 6 of Episode 4"
    },
    {
      "id": 25,
      "imageId": 25,
      "cred": 20,
      "flags": 1,
      "label": "Into The Ruins",
      "description": "Completed Chapter 1 of Episode 5",
      "howto": "Complete Chapter 1 of Episode 5"
    },
    {
      "id": 26,
      "imageId": 26,
      "cred": 20,
      "flags": 1,
      "label": "A Score to Settle",
      "description": "Completed Chapter 2 of Episode 5",
      "howto": "Complete Chapter 2 of Episode 5"
    },
    {
      "id": 27,
      "imageId": 27,
      "cred": 20,
      "flags": 1,
      "label": "A Light in the Darkness",
      "description": "Completed Chapter 3 of Episode 5",
      "howto": "Complete Chapter 3 of Episode 5"
    },
    {
      "id": 28,
      "imageId": 28,
      "cred": 20,
      "flags": 1,
      "label": "Among Equals",
      "description": "Completed Chapter 4 of Episode 5",
      "howto": "Complete Chapter 4 of Episode 5"
    },
    {
      "id": 29,
      "imageId": 29,
      "cred": 20,
      "flags": 1,
      "label": "Ascension",
      "description": "Completed Chapter 5 of Episode 5",
      "howto": "Complete Chapter 5 of Episode 5"
    },
    {
      "id": 30,
      "imageId": 30,
      "cred": 100,
      "flags": 1,
      "label": "Poetic Justice",
      "description": "Completed Chapter 6 of Episode 5",
      "howto": "Complete Chapter 6 of Episode 5"
    }
  ]
}