{
  "achievementsPossible": 50,
  "credPossible": 1000,
  "achievements": [
    {
      "id": 2,
      "imageId": 1,
      "cred": 10,
      "flags": 6,
      "label": "One Day at DARPA",
      "description": "Complete all DARPA training exercises. ",
      "howto": "Complete all DARPA training exercises. "
    },
    {
      "id": 3,
      "imageId": 2,
      "cred": 15,
      "flags": 6,
      "label": "Space Normandy",
      "description": "Complete Act 1.",
      "howto": "Complete Act 1."
    },
    {
      "id": 4,
      "imageId": 3,
      "cred": 15,
      "flags": 6,
      "label": "Storming Grand Hill",
      "description": "Complete Act 2.",
      "howto": "Complete Act 2."
    },
    {
      "id": 5,
      "imageId": 4,
      "cred": 15,
      "flags": 6,
      "label": "I Don't Speak Kreon!",
      "description": "Complete Act 3.",
      "howto": "Complete Act 3."
    },
    {
      "id": 6,
      "imageId": 5,
      "cred": 15,
      "flags": 6,
      "label": "My Way",
      "description": "Complete Act 4.",
      "howto": "Complete Act 4."
    },
    {
      "id": 7,
      "imageId": 6,
      "cred": 15,
      "flags": 6,
      "label": "End to Major Combat Operations",
      "description": "Complete Act 5.",
      "howto": "Complete Act 5."
    },
    {
      "id": 8,
      "imageId": 7,
      "cred": 30,
      "flags": 1,
      "label": "Survivor",
      "description": "Complete all Acts.",
      "howto": "Complete all Acts."
    },
    {
      "id": 9,
      "imageId": 8,
      "cred": 25,
      "flags": 6,
      "label": "Operation Overlord II",
      "description": "Complete Act 1 on Hard difficulty or above.",
      "howto": "Complete Act 1 on Hard difficulty or above."
    },
    {
      "id": 10,
      "imageId": 9,
      "cred": 25,
      "flags": 6,
      "label": "Ain't Life Grand?",
      "description": "Complete Act 2 on Hard difficulty or above.",
      "howto": "Complete Act 2 on Hard difficulty or above."
    },
    {
      "id": 11,
      "imageId": 10,
      "cred": 25,
      "flags": 6,
      "label": "Cry on, Kreon!",
      "description": "Complete Act 3 on Hard difficulty or above.",
      "howto": "Complete Act 3 on Hard difficulty or above."
    },
    {
      "id": 12,
      "imageId": 11,
      "cred": 25,
      "flags": 6,
      "label": "The High Way",
      "description": "Complete Act 4 on Hard difficulty or above.",
      "howto": "Complete Act 4 on Hard difficulty or above."
    },
    {
      "id": 13,
      "imageId": 12,
      "cred": 25,
      "flags": 6,
      "label": "Mission Accomplished",
      "description": "Complete Act 5 on Hard difficulty or above.",
      "howto": "Complete Act 5 on Hard difficulty or above."
    },
    {
      "id": 14,
      "imageId": 13,
      "cred": 50,
      "flags": 1,
      "label": "ARS Operator",
      "description": "Complete all Acts on Hard difficulty or above.",
      "howto": "Complete all Acts on Hard difficulty or above."
    },
    {
      "id": 15,
      "imageId": 14,
      "cred": 10,
      "flags": 4,
      "label": "Gun Runner",
      "description": "Scan and acquire all weapons.",
      "howto": "Scan and acquire all weapons."
    },
    {
      "id": 16,
      "imageId": 15,
      "cred": 20,
      "flags": 2,
      "label": "King of the Hill",
      "description": "Level a weapon up to maximum operational capability. ",
      "howto": "Level a weapon up to maximum operational capability. "
    },
    {
      "id": 17,
      "imageId": 16,
      "cred": 10,
      "flags": 4,
      "label": "Fight or Flight",
      "description": "Manually trigger AR Mode and destroy an enemy robot.",
      "howto": "Manually trigger AR Mode and destroy an enemy robot."
    },
    {
      "id": 18,
      "imageId": 17,
      "cred": 20,
      "flags": 4,
      "label": "Adrenaline Rush",
      "description": "Manually trigger AR Mode and destroy three enemy robots in a row.",
      "howto": "Manually trigger AR Mode and destroy three enemy robots in a row."
    },
    {
      "id": 19,
      "imageId": 18,
      "cred": 10,
      "flags": 4,
      "label": "Going in for the Kill",
      "description": "Destroy ten enemy robots with melee attacks. ",
      "howto": "Destroy ten enemy robots with melee attacks. "
    },
    {
      "id": 20,
      "imageId": 19,
      "cred": 30,
      "flags": 4,
      "label": "A Heartbreaker and Lifetaker",
      "description": "Destroy 100 enemy robots with melee attacks. ",
      "howto": "Destroy 100 enemy robots with melee attacks. "
    },
    {
      "id": 21,
      "imageId": 20,
      "cred": 5,
      "flags": 4,
      "label": "Helloooo, Nurse",
      "description": "Revive a friendly troop.",
      "howto": "Revive a friendly troop."
    },
    {
      "id": 22,
      "imageId": 21,
      "cred": 15,
      "flags": 4,
      "label": "Knight in Shining White Armor",
      "description": "Revive 20 friendly troops. ",
      "howto": "Revive 20 friendly troops. "
    },
    {
      "id": 23,
      "imageId": 22,
      "cred": 20,
      "flags": 4,
      "label": "Death Wish",
      "description": "Destroy three enemy robots while in damage-triggered AR Mode.",
      "howto": "Destroy three enemy robots while in damage-triggered AR Mode."
    },
    {
      "id": 24,
      "imageId": 23,
      "cred": 30,
      "flags": 4,
      "label": "40 Yard Dash",
      "description": "Maintain a Boost dash to the limit of the ARS reactor without overheating.",
      "howto": "Maintain a Boost dash to the limit of the ARS reactor without overheating."
    },
    {
      "id": 25,
      "imageId": 24,
      "cred": 10,
      "flags": 4,
      "label": "Home Run",
      "description": "Destroy an incoming missile or grenade. ",
      "howto": "Destroy an incoming missile or grenade. "
    },
    {
      "id": 26,
      "imageId": 25,
      "cred": 10,
      "flags": 4,
      "label": "Home Run God",
      "description": "Destroy ten incoming missiles or grenades. ",
      "howto": "Destroy ten incoming missiles or grenades. "
    },
    {
      "id": 27,
      "imageId": 26,
      "cred": 10,
      "flags": 4,
      "label": "Brutality Bonus",
      "description": "Destroy a Romanov's arms and legs, then finish it with a melee attack.",
      "howto": "Destroy a Romanov's arms and legs, then finish it with a melee attack."
    },
    {
      "id": 28,
      "imageId": 27,
      "cred": 20,
      "flags": 4,
      "label": "Romanov This!",
      "description": "Destroy a Romanov with a melee attack. ",
      "howto": "Destroy a Romanov with a melee attack. "
    },
    {
      "id": 29,
      "imageId": 28,
      "cred": 30,
      "flags": 4,
      "label": "The Hand of God",
      "description": "Destroy two Romanovs in a row using only melee attacks.",
      "howto": "Destroy two Romanovs in a row using only melee attacks."
    },
    {
      "id": 30,
      "imageId": 29,
      "cred": 10,
      "flags": 4,
      "label": "Robots Tend to Blow Up",
      "description": "Destroy three enemy robots at once with one hand grenade. ",
      "howto": "Destroy three enemy robots at once with one hand grenade. "
    },
    {
      "id": 31,
      "imageId": 30,
      "cred": 5,
      "flags": 4,
      "label": "Hole-in-One",
      "description": "Destroy a Chicane with a hand grenade.",
      "howto": "Destroy a Chicane with a hand grenade."
    },
    {
      "id": 32,
      "imageId": 31,
      "cred": 20,
      "flags": 4,
      "label": "Short Circuit",
      "description": "Destroy ten enemy robots that have been disabled with an EMP emitter.",
      "howto": "Destroy ten enemy robots that have been disabled with an EMP emitter."
    },
    {
      "id": 33,
      "imageId": 32,
      "cred": 20,
      "flags": 4,
      "label": "Two Birds with One Stone",
      "description": "Destroy two or more enemy robots at once with the LFE gun.",
      "howto": "Destroy two or more enemy robots at once with the LFE gun."
    },
    {
      "id": 34,
      "imageId": 33,
      "cred": 20,
      "flags": 4,
      "label": "Trick Shot",
      "description": "Destroy three enemy robots at once with rocket launcher splash damage.",
      "howto": "Destroy three enemy robots at once with rocket launcher splash damage."
    },
    {
      "id": 35,
      "imageId": 34,
      "cred": 30,
      "flags": 4,
      "label": "Flash! King of the Impossible",
      "description": "Destroy four enemies simultaneously with the Lock-on Laser.",
      "howto": "Destroy four enemies simultaneously with the Lock-on Laser."
    },
    {
      "id": 36,
      "imageId": 35,
      "cred": 20,
      "flags": 4,
      "label": "Piece by Piece",
      "description": "Destroy the arms, head, and back of an KNRB-0 Argus robot. ",
      "howto": "Destroy the arms, head, and back of an KNRB-0 Argus robot. "
    },
    {
      "id": 37,
      "imageId": 36,
      "cred": 10,
      "flags": 4,
      "label": "That Ended Up Working Out Nicely",
      "description": "After taking control of the enemy transport in Act 2-2, do not let a single enemy escape.",
      "howto": "After taking control of the enemy transport in Act 2-2, do not let a single enemy escape."
    },
    {
      "id": 38,
      "imageId": 37,
      "cred": 15,
      "flags": 4,
      "label": "Failure Breeds Success",
      "description": "Destroy two Argus robots in Act 2-3 while they are in bipedal mode.",
      "howto": "Destroy two Argus robots in Act 2-3 while they are in bipedal mode."
    },
    {
      "id": 39,
      "imageId": 38,
      "cred": 10,
      "flags": 4,
      "label": "Leibniz Defense Agency",
      "description": "Defend the Pangloss statue in Act 3-2. ",
      "howto": "Defend the Pangloss statue in Act 3-2. "
    },
    {
      "id": 40,
      "imageId": 39,
      "cred": 10,
      "flags": 4,
      "label": "Tightrope Walker",
      "description": "Destroy two cannons in Act 3-3 and complete the mission. ",
      "howto": "Destroy two cannons in Act 3-3 and complete the mission. "
    },
    {
      "id": 41,
      "imageId": 40,
      "cred": 15,
      "flags": 4,
      "label": "Fisher is the Other Sam",
      "description": "Proceed on the monorail in Act 3-4 without being spotted by the enemy troops or searchlights.",
      "howto": "Proceed on the monorail in Act 3-4 without being spotted by the enemy troops or searchlights."
    },
    {
      "id": 42,
      "imageId": 41,
      "cred": 20,
      "flags": 4,
      "label": "Flyswatter",
      "description": "Destroy all the floating turrets in Act 3-4. ",
      "howto": "Destroy all the floating turrets in Act 3-4. "
    },
    {
      "id": 43,
      "imageId": 42,
      "cred": 10,
      "flags": 4,
      "label": "Guardian",
      "description": "Do not allow any friendly armor to be destroyed during Act 3-5.",
      "howto": "Do not allow any friendly armor to be destroyed during Act 3-5."
    },
    {
      "id": 44,
      "imageId": 43,
      "cred": 10,
      "flags": 4,
      "label": "Hurry the #@$% Up!",
      "description": "Destroy five or more enemy transports from atop the Kreon in Act 3-7.",
      "howto": "Destroy five or more enemy transports from atop the Kreon in Act 3-7."
    },
    {
      "id": 45,
      "imageId": 44,
      "cred": 30,
      "flags": 4,
      "label": "Civil Disobedience",
      "description": "Ignore the elevator start order in Act 4-1. Instead, hold position and destroy all reinforcements.",
      "howto": "Ignore the elevator start order in Act 4-1. Instead, hold position and destroy all reinforcements."
    },
    {
      "id": 46,
      "imageId": 45,
      "cred": 30,
      "flags": 4,
      "label": "Buzzard Beater",
      "description": "Destroy the Buzzard without allowing it to reach ground level in Act 5-1. ",
      "howto": "Destroy the Buzzard without allowing it to reach ground level in Act 5-1. "
    },
    {
      "id": 47,
      "imageId": 46,
      "cred": 30,
      "flags": 4,
      "label": "Smoke 'em if ya got 'em!",
      "description": "Destroy 10 enemies distracted by cigarettes during one mission.",
      "howto": "Destroy 10 enemies distracted by cigarettes during one mission."
    },
    {
      "id": 48,
      "imageId": 47,
      "cred": 15,
      "flags": 4,
      "label": "Auld Lang Syne",
      "description": "Destroy two enemy robots who have been distracted by a cigarette.",
      "howto": "Destroy two enemy robots who have been distracted by a cigarette."
    },
    {
      "id": 49,
      "imageId": 48,
      "cred": 30,
      "flags": 4,
      "label": "The Best of All Possible Worlds",
      "description": "Find and fire upon all of the Pangloss statues hidden on the colony. ",
      "howto": "Find and fire upon all of the Pangloss statues hidden on the colony. "
    },
    {
      "id": 50,
      "imageId": 49,
      "cred": 50,
      "flags": 4,
      "label": "Tactical Challenger",
      "description": "Complete all of the Tactical Challenges in VANQUISH. ",
      "howto": ""
    },
    {
      "id": 51,
      "imageId": 50,
      "cred": 50,
      "flags": 4,
      "label": "Living Legend",
      "description": "Complete the game without dying, regardless of difficulty level. ",
      "howto": "Complete the game without dying, regardless of difficulty level. "
    }
  ]
}