{
  "achievementsPossible": 12,
  "credPossible": 200,
  "achievements": [
    {
      "id": 10,
      "imageId": 1,
      "cred": 5,
      "flags": 1,
      "label": "12 World Warriors",
      "description": "Fight with all twelve characters in single-player arcade mode.",
      "howto": "Fight with all twelve characters in single-player arcade mode."
    },
    {
      "id": 11,
      "imageId": 11,
      "cred": 5,
      "flags": 1,
      "label": "Perfection",
      "description": "Complete a perfect match at default difficulty or higher in single-player arcade mode.",
      "howto": "Complete a perfect match at default difficulty or higher in single-player arcade mode."
    },
    {
      "id": 12,
      "imageId": 12,
      "cred": 10,
      "flags": 1,
      "label": "Bonus Bonanza",
      "description": "Complete a perfect bonus round in single-player arcade mode.",
      "howto": "Complete a perfect bonus round in single-player arcade mode."
    },
    {
      "id": 13,
      "imageId": 3,
      "cred": 15,
      "flags": 1,
      "label": "World Champion",
      "description": "Complete single-player arcade mode.",
      "howto": "Complete single-player arcade mode."
    },
    {
      "id": 14,
      "imageId": 6,
      "cred": 20,
      "flags": 1,
      "label": "7 Stars",
      "description": "Complete single-player arcade mode at the highest difficulty level.",
      "howto": "Complete single-player arcade mode at the highest difficulty level."
    },
    {
      "id": 15,
      "imageId": 4,
      "cred": 25,
      "flags": 1,
      "label": "Hyper World Champion",
      "description": "Complete single-player arcade mode without losing a match.",
      "howto": "Complete single-player arcade mode without losing a match."
    },
    {
      "id": 16,
      "imageId": 5,
      "cred": 30,
      "flags": 1,
      "label": "Perfect World Champion",
      "description": "Complete single-player arcade mode without losing a round.",
      "howto": "Complete single-player arcade mode without losing a round."
    },
    {
      "id": 17,
      "imageId": 2,
      "cred": 5,
      "flags": 1,
      "label": "I Got Next",
      "description": "Play a match in the online quarter mode.",
      "howto": "Play a match in the online quarter mode."
    },
    {
      "id": 18,
      "imageId": 7,
      "cred": 10,
      "flags": 1,
      "label": "10 Tokens",
      "description": "Play 10 ranked online matches.",
      "howto": "Play 10 ranked online matches."
    },
    {
      "id": 19,
      "imageId": 9,
      "cred": 20,
      "flags": 1,
      "label": "50 Tokens",
      "description": "Play 50 ranked online matches.",
      "howto": "Play 50 ranked online matches."
    },
    {
      "id": 20,
      "imageId": 8,
      "cred": 20,
      "flags": 1,
      "label": "10 Ranked Online Victories",
      "description": "Achieve 10 wins during ranked online play.",
      "howto": "Achieve 10 wins during ranked online play."
    },
    {
      "id": 21,
      "imageId": 10,
      "cred": 35,
      "flags": 1,
      "label": "30 Ranked Online Victories",
      "description": "Achieve 30 wins during ranked online play.",
      "howto": "Achieve 30 wins during ranked online play."
    }
  ]
}