{
  "achievementsPossible": 85,
  "credPossible": 1750,
  "achievements": [
    {
      "id": 0,
      "imageId": 3,
      "cred": 15,
      "flags": 1,
      "label": "A Helping Hand",
      "description": "Defend Remnant home from the Looter Invasion",
      "howto": "Defend Remnant home from the Looter Invasion"
    },
    {
      "id": 1,
      "imageId": 4,
      "cred": 15,
      "flags": 1,
      "label": "A Trusty Old Friend",
      "description": "Kill 5 enemies within 10 seconds using any rifle",
      "howto": "Kill 5 enemies within 10 seconds using any rifle"
    },
    {
      "id": 2,
      "imageId": 5,
      "cred": 15,
      "flags": 1,
      "label": "Avid Shopper",
      "description": "Purchase all items from the supply shack",
      "howto": "Purchase all items from the supply shack"
    },
    {
      "id": 4,
      "imageId": 6,
      "cred": 10,
      "flags": 1,
      "label": "Bar Brawl",
      "description": "Melee kill an enemy using a bottle",
      "howto": "Melee kill an enemy using a bottle"
    },
    {
      "id": 5,
      "imageId": 7,
      "cred": 15,
      "flags": 1,
      "label": "Blade of Justice",
      "description": "Perform 25 special stealth kills with the knife",
      "howto": "Perform 25 special stealth kills with the knife"
    },
    {
      "id": 6,
      "imageId": 8,
      "cred": 20,
      "flags": 1,
      "label": "Challenging",
      "description": "Complete any Challenge Tomb",
      "howto": "Complete any Challenge Tomb"
    },
    {
      "id": 8,
      "imageId": 9,
      "cred": 30,
      "flags": 1,
      "label": "Compulsive",
      "description": "Complete every Challenge",
      "howto": "Complete every Challenge"
    },
    {
      "id": 9,
      "imageId": 10,
      "cred": 15,
      "flags": 1,
      "label": "Craftswoman",
      "description": "Craft 5 pieces of Equipment",
      "howto": "Craft 5 pieces of Equipment"
    },
    {
      "id": 10,
      "imageId": 11,
      "cred": 15,
      "flags": 1,
      "label": "Dead Ringer",
      "description": "Get 25 headshots using the Bolt-Action Rifle",
      "howto": "Get 25 headshots using the Bolt-Action Rifle"
    },
    {
      "id": 12,
      "imageId": 12,
      "cred": 10,
      "flags": 1,
      "label": "Fall Guys",
      "description": "Kill 5 enemies by shooting them in the leg",
      "howto": "Kill 5 enemies by shooting them in the leg"
    },
    {
      "id": 14,
      "imageId": 13,
      "cred": 10,
      "flags": 1,
      "label": "Firestarter",
      "description": "Defeat 2 enemies or more using a single Molotov Cocktail",
      "howto": "Defeat 2 enemies or more using a single Molotov Cocktail"
    },
    {
      "id": 15,
      "imageId": 14,
      "cred": 15,
      "flags": 1,
      "label": "Fluent",
      "description": "Reach max proficiency in any language",
      "howto": "Reach max proficiency in any language"
    },
    {
      "id": 16,
      "imageId": 15,
      "cred": 15,
      "flags": 1,
      "label": "Following in Father's Footsteps",
      "description": "Enter the Syrian tomb",
      "howto": "Enter the Syrian tomb"
    },
    {
      "id": 18,
      "imageId": 16,
      "cred": 15,
      "flags": 1,
      "label": "Gilded",
      "description": "Complete a level in Score Attack with a gold score",
      "howto": "Complete a level in Score Attack with a gold score"
    },
    {
      "id": 19,
      "imageId": 17,
      "cred": 15,
      "flags": 1,
      "label": "Glub Glub Glub",
      "description": "Drown 3 enemies using a water finisher",
      "howto": "Drown 3 enemies using a water finisher"
    },
    {
      "id": 21,
      "imageId": 53,
      "cred": 10,
      "flags": 1,
      "label": "Trick Shot",
      "description": "Shoot a bottle out of the air",
      "howto": "Shoot a bottle out of the air"
    },
    {
      "id": 22,
      "imageId": 19,
      "cred": 15,
      "flags": 1,
      "label": "Good Samaritan",
      "description": "Complete 3 Missions",
      "howto": "Complete 3 Missions"
    },
    {
      "id": 25,
      "imageId": 20,
      "cred": 15,
      "flags": 1,
      "label": "Keen Eye",
      "description": "Unearth 40 Survival Caches",
      "howto": "Unearth 40 Survival Caches"
    },
    {
      "id": 26,
      "imageId": 21,
      "cred": 25,
      "flags": 1,
      "label": "Laying Down the Law",
      "description": "Kill 6 enemies with the Revolver without reloading",
      "howto": "Kill 6 enemies with the Revolver without reloading"
    },
    {
      "id": 27,
      "imageId": 22,
      "cred": 15,
      "flags": 1,
      "label": "Looking for Trouble",
      "description": "Complete 5 Challenges",
      "howto": "Complete 5 Challenges"
    },
    {
      "id": 29,
      "imageId": 23,
      "cred": 15,
      "flags": 1,
      "label": "My Own Worst Enemy",
      "description": "Complete a level in Score Attack with a score multiplier of 2 or more",
      "howto": "Complete a level in Score Attack with a score multiplier of 2 or more"
    },
    {
      "id": 31,
      "imageId": 24,
      "cred": 15,
      "flags": 1,
      "label": "No Guts, No Glory",
      "description": "Perform a 2.5 second or longer swan dive",
      "howto": "Perform a 2.5 second or longer swan dive"
    },
    {
      "id": 32,
      "imageId": 25,
      "cred": 10,
      "flags": 1,
      "label": "One-Sided Conversation",
      "description": "Stealth kill an enemy while they are having a conversation",
      "howto": "Stealth kill an enemy while they are having a conversation"
    },
    {
      "id": 35,
      "imageId": 26,
      "cred": 20,
      "flags": 1,
      "label": "Quick and Painless",
      "description": "Shoot 15 deer in the heart",
      "howto": "Shoot 15 deer in the heart"
    },
    {
      "id": 37,
      "imageId": 27,
      "cred": 15,
      "flags": 1,
      "label": "Quite A Tumble",
      "description": "Survive the avalanche",
      "howto": "Survive the avalanche"
    },
    {
      "id": 39,
      "imageId": 28,
      "cred": 10,
      "flags": 1,
      "label": "Rapid Recovery",
      "description": "Heal yourself in combat 3 times",
      "howto": "Heal yourself in combat 3 times"
    },
    {
      "id": 41,
      "imageId": 29,
      "cred": 15,
      "flags": 1,
      "label": "Renegade",
      "description": "Melee 5 enemies off a ledge",
      "howto": "Melee 5 enemies off a ledge"
    },
    {
      "id": 42,
      "imageId": 30,
      "cred": 15,
      "flags": 1,
      "label": "Self-Improvement Junkie",
      "description": "Purchase all skills in a single category",
      "howto": "Purchase all skills in a single category"
    },
    {
      "id": 43,
      "imageId": 31,
      "cred": 20,
      "flags": 1,
      "label": "Siberian Ranger",
      "description": "Beat 15 combat encounters after completing the game",
      "howto": "Beat 15 combat encounters after completing the game"
    },
    {
      "id": 44,
      "imageId": 32,
      "cred": 15,
      "flags": 1,
      "label": "Rotisserie",
      "description": "Shoot a chicken out of the air with a fire arrow",
      "howto": "Shoot a chicken out of the air with a fire arrow"
    },
    {
      "id": 46,
      "imageId": 33,
      "cred": 15,
      "flags": 1,
      "label": "Strange Acquaintance",
      "description": "Rescue Jacob from the gulag",
      "howto": "Rescue Jacob from the gulag"
    },
    {
      "id": 47,
      "imageId": 34,
      "cred": 15,
      "flags": 1,
      "label": "Taking the High Road",
      "description": "Light the signal fire in the Remnant Valley",
      "howto": "Light the signal fire in the Remnant Valley"
    },
    {
      "id": 48,
      "imageId": 35,
      "cred": 15,
      "flags": 1,
      "label": "That All You Got?",
      "description": "Complete 3 Replay Challenges in one Score Attack",
      "howto": "Complete 3 Replay Challenges in one Score Attack"
    },
    {
      "id": 49,
      "imageId": 36,
      "cred": 25,
      "flags": 1,
      "label": "The Chosen Few",
      "description": "Uncover the remains of all Jacob's disciples",
      "howto": "Uncover the remains of all Jacob's disciples"
    },
    {
      "id": 50,
      "imageId": 37,
      "cred": 15,
      "flags": 1,
      "label": "The Key To It All",
      "description": "Recover the Atlas",
      "howto": "Recover the Atlas"
    },
    {
      "id": 51,
      "imageId": 38,
      "cred": 150,
      "flags": 1,
      "label": "The Price of Truth",
      "description": "Finish the game on any difficulty",
      "howto": "Finish the game on any difficulty"
    },
    {
      "id": 52,
      "imageId": 39,
      "cred": 15,
      "flags": 1,
      "label": "The Road Less Travelled",
      "description": "Unlock the path to Kitezh",
      "howto": "Unlock the path to Kitezh"
    },
    {
      "id": 53,
      "imageId": 40,
      "cred": 25,
      "flags": 1,
      "label": "These Belong in A Museum",
      "description": "Collect 300 Cards",
      "howto": "Collect 300 Cards"
    },
    {
      "id": 54,
      "imageId": 41,
      "cred": 50,
      "flags": 1,
      "label": "Tomb Raider",
      "description": "Complete all Challenge Tombs",
      "howto": "Complete all Challenge Tombs"
    },
    {
      "id": 55,
      "imageId": 42,
      "cred": 15,
      "flags": 1,
      "label": "Tougher Than She Looks",
      "description": "Survive a night in the Siberian wilderness",
      "howto": "Survive a night in the Siberian wilderness"
    },
    {
      "id": 57,
      "imageId": 43,
      "cred": 20,
      "flags": 1,
      "label": "Triple Threat",
      "description": "Kill 3 enemies with 1 Shotgun blast",
      "howto": "Kill 3 enemies with 1 Shotgun blast"
    },
    {
      "id": 58,
      "imageId": 44,
      "cred": 15,
      "flags": 1,
      "label": "Truth Seeker",
      "description": "Collect 25% of all narrative assets (relics, murals and documents)",
      "howto": "Collect 25% of all narrative assets (relics, murals and documents)"
    },
    {
      "id": 61,
      "imageId": 45,
      "cred": 30,
      "flags": 1,
      "label": "Voices of the Past",
      "description": "Collect 75% of all narrative assets (relics, murals and documents)",
      "howto": "Collect 75% of all narrative assets (relics, murals and documents)"
    },
    {
      "id": 62,
      "imageId": 46,
      "cred": 10,
      "flags": 1,
      "label": "Was That Really Necessary?",
      "description": "Kill any animal with an explosive",
      "howto": "Kill any animal with an explosive"
    },
    {
      "id": 63,
      "imageId": 47,
      "cred": 25,
      "flags": 1,
      "label": "Way to Go",
      "description": "Complete every level in Score Attack with a bronze score or better",
      "howto": "Complete every level in Score Attack with a bronze score or better"
    },
    {
      "id": 64,
      "imageId": 48,
      "cred": 15,
      "flags": 1,
      "label": "Weaponsmith",
      "description": "Fully upgrade any weapon",
      "howto": "Fully upgrade any weapon"
    },
    {
      "id": 65,
      "imageId": 49,
      "cred": 25,
      "flags": 1,
      "label": "Well Begun Is Half Done",
      "description": "Complete 10 levels in Score Attack with a gold score",
      "howto": "Complete 10 levels in Score Attack with a gold score"
    },
    {
      "id": 66,
      "imageId": 50,
      "cred": 15,
      "flags": 1,
      "label": "Whatever It Takes",
      "description": "Rescue Jonah from Konstantin",
      "howto": "Rescue Jonah from Konstantin"
    },
    {
      "id": 68,
      "imageId": 51,
      "cred": 30,
      "flags": 1,
      "label": "Woman of the People",
      "description": "Complete every Mission",
      "howto": "Complete every Mission"
    },
    {
      "id": 69,
      "imageId": 52,
      "cred": 15,
      "flags": 1,
      "label": "Zipper",
      "description": "Perform a manual zip line transfer",
      "howto": "Perform a manual zip line transfer"
    },
    {
      "id": 73,
      "imageId": 58,
      "cred": 30,
      "flags": 1,
      "label": "Master Archaeologist",
      "description": "Endurance Challenge: Collect at least 10 Artifacts",
      "howto": "Endurance Challenge: Collect at least 10 Artifacts"
    },
    {
      "id": 74,
      "imageId": 61,
      "cred": 30,
      "flags": 1,
      "label": "Skillful Raider",
      "description": "Endurance Challenge: Open 5 Codices or Sarcophagi without getting caught in a trap",
      "howto": "Endurance Challenge: Open 5 Codices or Sarcophagi without getting caught in a trap"
    },
    {
      "id": 76,
      "imageId": 55,
      "cred": 15,
      "flags": 1,
      "label": "Fast Reflexes",
      "description": "Endurance Challenge: Destroy 3 ceiling spike traps after being caught in them",
      "howto": "Endurance Challenge: Destroy 3 ceiling spike traps after being caught in them"
    },
    {
      "id": 77,
      "imageId": 63,
      "cred": 25,
      "flags": 1,
      "label": "Well Done",
      "description": "Endurance Challenge: Eat the meat of 5 birds, squirrels or rabbits that were killed with fire",
      "howto": "Endurance Challenge: Eat the meat of 5 birds, squirrels or rabbits that were killed with fire"
    },
    {
      "id": 78,
      "imageId": 60,
      "cred": 15,
      "flags": 1,
      "label": "Nope",
      "description": "Endurance Challenge: Escape the forest on day 1, without recovering any artifacts",
      "howto": "Endurance Challenge: Escape the forest on day 1, without recovering any artifacts"
    },
    {
      "id": 79,
      "imageId": 62,
      "cred": 30,
      "flags": 1,
      "label": "Vacation",
      "description": "Endurance Challenge: Escape the forest after surviving for 7 days",
      "howto": "Endurance Challenge: Escape the forest after surviving for 7 days"
    },
    {
      "id": 80,
      "imageId": 56,
      "cred": 50,
      "flags": 1,
      "label": "Great Haul",
      "description": "Endurance Challenge: Escape the forest after surviving 10 days, with at least 10 Relics",
      "howto": "Endurance Challenge: Escape the forest after surviving 10 days, with at least 10 Relics"
    },
    {
      "id": 81,
      "imageId": 57,
      "cred": 15,
      "flags": 1,
      "label": "Happy Camper",
      "description": "Endurance Challenge: Survive for 5 days",
      "howto": "Endurance Challenge: Survive for 5 days"
    },
    {
      "id": 82,
      "imageId": 59,
      "cred": 25,
      "flags": 1,
      "label": "Nature Retreat",
      "description": "Endurance Challenge: Survive for 7 days",
      "howto": "Endurance Challenge: Survive for 7 days"
    },
    {
      "id": 83,
      "imageId": 54,
      "cred": 15,
      "flags": 1,
      "label": "Who Needs a Map?",
      "description": "Endurance Challenge: Locate 5 crypts",
      "howto": "Endurance Challenge: Locate 5 crypts"
    },
    {
      "id": 84,
      "imageId": 64,
      "cred": 10,
      "flags": 1,
      "label": "Hide and Seek",
      "description": "Baba Yaga: Rescue Nadia from Trinity",
      "howto": "Baba Yaga: Rescue Nadia from Trinity"
    },
    {
      "id": 85,
      "imageId": 66,
      "cred": 10,
      "flags": 1,
      "label": "Abandon All Hope",
      "description": "Baba Yaga: Enter the Wicked Vale",
      "howto": "Baba Yaga: Enter the Wicked Vale"
    },
    {
      "id": 86,
      "imageId": 67,
      "cred": 10,
      "flags": 1,
      "label": "A Moment of Clarity",
      "description": "Baba Yaga: Face the Witch and Live",
      "howto": "Baba Yaga: Face the Witch and Live"
    },
    {
      "id": 87,
      "imageId": 68,
      "cred": 15,
      "flags": 1,
      "label": "Amateur Chemist",
      "description": "Baba Yaga: Craft the Antidote",
      "howto": "Baba Yaga: Craft the Antidote"
    },
    {
      "id": 88,
      "imageId": 69,
      "cred": 15,
      "flags": 1,
      "label": "Last Ride of the Witch House",
      "description": "Baba Yaga: Activate the Ancient Lift",
      "howto": "Baba Yaga: Activate the Ancient Lift"
    },
    {
      "id": 89,
      "imageId": 70,
      "cred": 50,
      "flags": 1,
      "label": "Truth Behind the Myth",
      "description": "Baba Yaga: Unmask Baba Yaga",
      "howto": "Baba Yaga: Unmask Baba Yaga"
    },
    {
      "id": 90,
      "imageId": 71,
      "cred": 15,
      "flags": 1,
      "label": "Vasilisa's Lanterns",
      "description": "Baba Yaga: Complete the Challenge in the Wicked Vale",
      "howto": "Baba Yaga: Complete the Challenge in the Wicked Vale"
    },
    {
      "id": 91,
      "imageId": 72,
      "cred": 15,
      "flags": 1,
      "label": "The Witch Bottles",
      "description": "Baba Yaga: Unearth all Survival Caches in the Wicked Vale",
      "howto": "Baba Yaga: Unearth all Survival Caches in the Wicked Vale"
    },
    {
      "id": 92,
      "imageId": 73,
      "cred": 25,
      "flags": 1,
      "label": "Complete History of Witchcraft",
      "description": "Baba Yaga: Collect all of the Documents in the Wicked Vale",
      "howto": "Baba Yaga: Collect all of the Documents in the Wicked Vale"
    },
    {
      "id": 93,
      "imageId": 74,
      "cred": 15,
      "flags": 1,
      "label": "Witch Trials",
      "description": "Baba Yaga: Complete every Wicked Vale Score Attacks with a gold score",
      "howto": "Baba Yaga: Complete every Wicked Vale Score Attacks with a gold score"
    },
    {
      "id": 94,
      "imageId": 75,
      "cred": 25,
      "flags": 1,
      "label": "Witchcraft for Beginners",
      "description": "Baba Yaga: Attempt any Wicked Vale Score Attack",
      "howto": "Baba Yaga: Attempt any Wicked Vale Score Attack"
    },
    {
      "id": 95,
      "imageId": 76,
      "cred": 10,
      "flags": 1,
      "label": "Servant of the Witch",
      "description": "Baba Yaga: Confuse an enemy with the Dreamstinger",
      "howto": "Baba Yaga: Confuse an enemy with the Dreamstinger"
    },
    {
      "id": 96,
      "imageId": 77,
      "cred": 15,
      "flags": 1,
      "label": "Bravo's Legacy",
      "description": "Baba Yaga: Confuse 10 enemies with the Dreamstinger",
      "howto": "Baba Yaga: Confuse 10 enemies with the Dreamstinger"
    },
    {
      "id": 97,
      "imageId": 78,
      "cred": 15,
      "flags": 1,
      "label": "The Wraith of Siberia",
      "description": "Baba Yaga: Kill 50 enemies while wearing the Wraithskin outfit",
      "howto": "Baba Yaga: Kill 50 enemies while wearing the Wraithskin outfit"
    },
    {
      "id": 98,
      "imageId": 65,
      "cred": 5,
      "flags": 1,
      "label": "Fond Farewell",
      "description": "Baba Yaga: Speak to Nadia again before leaving the Wicked Vale",
      "howto": "Baba Yaga: Speak to Nadia again before leaving the Wicked Vale"
    },
    {
      "id": 99,
      "imageId": 83,
      "cred": 25,
      "flags": 1,
      "label": "Uncovering the Truth",
      "description": "Cold Darkness Challenge: Collect all 8 documents",
      "howto": "Cold Darkness Challenge: Collect all 8 documents"
    },
    {
      "id": 100,
      "imageId": 79,
      "cred": 15,
      "flags": 1,
      "label": "Give a Man a Fire",
      "description": "Cold Darkness Challenge: Kill 20 enemies with Dragonfire Shotgun Rounds",
      "howto": "Cold Darkness Challenge: Kill 20 enemies with Dragonfire Shotgun Rounds"
    },
    {
      "id": 101,
      "imageId": 80,
      "cred": 20,
      "flags": 1,
      "label": "Armed For Bear",
      "description": "Cold Darkness Challenge: Pick up 6 different weapons",
      "howto": "Cold Darkness Challenge: Pick up 6 different weapons"
    },
    {
      "id": 102,
      "imageId": 84,
      "cred": 25,
      "flags": 1,
      "label": "Spinning Leaf",
      "description": "Cold Darkness Challenge: Get 5 headshots with the regular arrows in 1:00",
      "howto": "Cold Darkness Challenge: Get 5 headshots with the regular arrows in 1:00"
    },
    {
      "id": 103,
      "imageId": 81,
      "cred": 20,
      "flags": 1,
      "label": "Legendary Gunsmith",
      "description": "Cold Darkness Challenge: Open 6 upgrade pry chests",
      "howto": "Cold Darkness Challenge: Open 6 upgrade pry chests"
    },
    {
      "id": 104,
      "imageId": 82,
      "cred": 20,
      "flags": 1,
      "label": "To the Rescue",
      "description": "Cold Darkness Challenge: Rescue 6 prisoners",
      "howto": "Cold Darkness Challenge: Rescue 6 prisoners"
    },
    {
      "id": 105,
      "imageId": 85,
      "cred": 25,
      "flags": 1,
      "label": "Perfectionist",
      "description": "Cold Darkness Challenge: Shutdown all the towers without making any mistakes",
      "howto": "Cold Darkness Challenge: Shutdown all the towers without making any mistakes"
    },
    {
      "id": 106,
      "imageId": 87,
      "cred": 25,
      "flags": 1,
      "label": "Epidemiologist",
      "description": "Cold Darkness Challenge: Complete Cold Darkness",
      "howto": "Cold Darkness Challenge: Complete Cold Darkness"
    },
    {
      "id": 107,
      "imageId": 86,
      "cred": 25,
      "flags": 1,
      "label": "An Ocean in Storm",
      "description": "Cold Darkness Challenge: Kill 75 enemies in a single Cold Darkness run",
      "howto": "Cold Darkness Challenge: Kill 75 enemies in a single Cold Darkness run"
    },
    {
      "id": 108,
      "imageId": 88,
      "cred": 50,
      "flags": 1,
      "label": "Combat Specialist",
      "description": "Cold Darkness Challenge: Complete Cold Darkness without dying",
      "howto": "Cold Darkness Challenge: Complete Cold Darkness without dying"
    }
  ]
}