{
  "achievementsPossible": 41,
  "credPossible": 1000,
  "achievements": [
    {
      "id": 40,
      "imageId": 2,
      "cred": 20,
      "flags": 4,
      "label": "Go to Hogwarts.",
      "description": "Arrived at Hogwarts.",
      "howto": "Complete the Grimmauld Place tutorials."
    },
    {
      "id": 41,
      "imageId": 3,
      "cred": 30,
      "flags": 4,
      "label": "Get to the Room of Requirement.",
      "description": "Discovered the Room of Requirement.",
      "howto": "Discover the Room of Requirement."
    },
    {
      "id": 42,
      "imageId": 4,
      "cred": 100,
      "flags": 4,
      "label": "Recruit Dumbledore's Army.",
      "description": "Recruited Dumbledore's Army.",
      "howto": "Recruit Dumbledore's Army."
    },
    {
      "id": 43,
      "imageId": 5,
      "cred": 100,
      "flags": 4,
      "label": "Unhinge Umbridge.",
      "description": "Unhinged Umbridge.",
      "howto": "Cause chaos in Umbridge's Hogwarts."
    },
    {
      "id": 44,
      "imageId": 6,
      "cred": 100,
      "flags": 4,
      "label": "Finish the story.",
      "description": "Finished the story.",
      "howto": "Finish the story."
    },
    {
      "id": 45,
      "imageId": 7,
      "cred": 10,
      "flags": 4,
      "label": "Win the Characters Cup.",
      "description": "Met all the characters in the game.",
      "howto": "Meet all characters in the game."
    },
    {
      "id": 46,
      "imageId": 8,
      "cred": 10,
      "flags": 4,
      "label": "Win the Explorer Cup.",
      "description": "Discovered all known areas of Hogwarts.",
      "howto": "Discover all known areas of Hogwarts."
    },
    {
      "id": 47,
      "imageId": 9,
      "cred": 20,
      "flags": 4,
      "label": "Win the Defence Cup.",
      "description": "Cast all defensive spells in a single encounter.",
      "howto": "Cast all defensive spells in a single encounter."
    },
    {
      "id": 48,
      "imageId": 10,
      "cred": 10,
      "flags": 4,
      "label": "Complete discovery level 1.",
      "description": "Completed discovery level 1.",
      "howto": "Discover enough to complete discovery level 1."
    },
    {
      "id": 49,
      "imageId": 11,
      "cred": 10,
      "flags": 4,
      "label": "Complete discovery level 2.",
      "description": "Completed discovery level 2.",
      "howto": "Discover enough to complete discovery level 2."
    },
    {
      "id": 50,
      "imageId": 13,
      "cred": 10,
      "flags": 4,
      "label": "Complete discovery level 3.",
      "description": "Completed discovery level 3.",
      "howto": "Discover enough to complete discovery level 3."
    },
    {
      "id": 51,
      "imageId": 14,
      "cred": 10,
      "flags": 4,
      "label": "Complete discovery level 4.",
      "description": "Completed discovery level 4.",
      "howto": "Discover enough to complete discovery level 4."
    },
    {
      "id": 52,
      "imageId": 15,
      "cred": 20,
      "flags": 4,
      "label": "Complete discovery level 5.",
      "description": "Completed discovery level 5.",
      "howto": "Discover enough to complete discovery level 5."
    },
    {
      "id": 53,
      "imageId": 16,
      "cred": 20,
      "flags": 4,
      "label": "Complete discovery level 6.",
      "description": "Completed discovery level 6.",
      "howto": "Discover enough to complete discovery level 6."
    },
    {
      "id": 54,
      "imageId": 1,
      "cred": 20,
      "flags": 4,
      "label": "Complete discovery level 7.",
      "description": "Completed discovery level 7.",
      "howto": "Discover enough to complete discovery level 7."
    },
    {
      "id": 55,
      "imageId": 12,
      "cred": 20,
      "flags": 4,
      "label": "Complete discovery level 8.",
      "description": "Completed discovery level 8.",
      "howto": "Discover enough to complete discovery level 8."
    },
    {
      "id": 56,
      "imageId": 17,
      "cred": 20,
      "flags": 4,
      "label": "Complete discovery level 9.",
      "description": "Completed discovery level 9.",
      "howto": "Discover enough to complete discovery level 9."
    },
    {
      "id": 57,
      "imageId": 18,
      "cred": 20,
      "flags": 4,
      "label": "Complete discovery level 10.",
      "description": "Completed discovery level 10.",
      "howto": "Discover enough to complete discovery level 10."
    },
    {
      "id": 58,
      "imageId": 19,
      "cred": 30,
      "flags": 4,
      "label": "Complete discovery level 11.",
      "description": "Completed discovery level 11.",
      "howto": "Discover enough to complete discovery level 11."
    },
    {
      "id": 59,
      "imageId": 20,
      "cred": 30,
      "flags": 4,
      "label": "Complete discovery level 12.",
      "description": "Completed discovery level 12.",
      "howto": "Discover enough to complete discovery level 12."
    },
    {
      "id": 60,
      "imageId": 22,
      "cred": 50,
      "flags": 4,
      "label": "Complete discovery level 13.",
      "description": "Completed discovery level 13.",
      "howto": "Discover enough to complete discovery level 13."
    },
    {
      "id": 62,
      "imageId": 23,
      "cred": 10,
      "flags": 4,
      "label": "Win the Portrait Password Cup.",
      "description": "Discovered the password for every shortcut portrait in Hogwarts.",
      "howto": "Discover the password for every shortcut portrait in Hogwarts."
    },
    {
      "id": 63,
      "imageId": 24,
      "cred": 10,
      "flags": 4,
      "label": "Win the House Ghost Cup",
      "description": "Found all the house ghosts of Hogwarts.",
      "howto": "Find all the house ghosts of Hogwarts."
    },
    {
      "id": 64,
      "imageId": 25,
      "cred": 10,
      "flags": 4,
      "label": "Win the Ornithology Cup.",
      "description": "Found all the flying creatures of Hogwarts.",
      "howto": "Find all the flying creatures of Hogwarts."
    },
    {
      "id": 65,
      "imageId": 26,
      "cred": 10,
      "flags": 4,
      "label": "Win the Homework Cup.",
      "description": "Completed all the teacher mini-quests.",
      "howto": "Complete all the teacher mini-quests."
    },
    {
      "id": 66,
      "imageId": 27,
      "cred": 20,
      "flags": 4,
      "label": "Win the Studious Success Cup.",
      "description": "Got an 'O' in all lessons.",
      "howto": "Get an 'O' in all lessons."
    },
    {
      "id": 67,
      "imageId": 28,
      "cred": 20,
      "flags": 4,
      "label": "Win the Grand Master Cup.",
      "description": "Beat all wizard chess champions.",
      "howto": "Beat all wizard chess champions."
    },
    {
      "id": 68,
      "imageId": 29,
      "cred": 20,
      "flags": 4,
      "label": "Win the Exploding Snap Cup.",
      "description": "Beat all Exploding Snap champions.",
      "howto": "Beat all Exploding Snap champions."
    },
    {
      "id": 69,
      "imageId": 30,
      "cred": 20,
      "flags": 4,
      "label": "Win the Golden Gobstone Cup.",
      "description": "Beat all Gobstones champions.",
      "howto": "Beat all Gobstones champions."
    },
    {
      "id": 70,
      "imageId": 31,
      "cred": 20,
      "flags": 4,
      "label": "Win the Friend of the Year Cup.",
      "description": "Found Luna's lost belongings.",
      "howto": "Find Luna's lost belongings."
    },
    {
      "id": 71,
      "imageId": 32,
      "cred": 10,
      "flags": 4,
      "label": "Win the Architecture Cup.",
      "description": "Uncovered all the hidden Hogwarts symbols.",
      "howto": "Uncover all the hidden Hogwarts symbols."
    },
    {
      "id": 72,
      "imageId": 33,
      "cred": 10,
      "flags": 4,
      "label": "Win the Smuggler Cup.",
      "description": "Found Fred and George's hidden parcels.",
      "howto": "Find Fred and George's hidden parcels."
    },
    {
      "id": 73,
      "imageId": 34,
      "cred": 10,
      "flags": 4,
      "label": "Win the Secret Statue Cup.",
      "description": "Challenge Cup unlocked: Found all the secret wizard chess statues.",
      "howto": "Find the secret chess statues of Hogwarts."
    },
    {
      "id": 74,
      "imageId": 35,
      "cred": 10,
      "flags": 4,
      "label": "Win the Witches and Wizards Cup",
      "description": "Found the hidden wizard plaques around Hogwarts.",
      "howto": "Find the hidden wizard plaques around Hogwarts."
    },
    {
      "id": 75,
      "imageId": 36,
      "cred": 10,
      "flags": 4,
      "label": "Win the Nature Trail Cup.",
      "description": "Found all the rare creature tracks hidden in Hogwarts. ",
      "howto": "Find all the rare creature tracks hidden in Hogwarts."
    },
    {
      "id": 76,
      "imageId": 37,
      "cred": 10,
      "flags": 4,
      "label": "Win the School Pride Cup.",
      "description": "Tidied up Hogwarts.",
      "howto": "Tidy up Hogwarts."
    },
    {
      "id": 77,
      "imageId": 38,
      "cred": 100,
      "flags": 4,
      "label": "Finish on hardest difficulty",
      "description": "Finished the story on the hardest difficulty.",
      "howto": "Finish the story on the hardest difficulty."
    },
    {
      "id": 78,
      "imageId": 39,
      "cred": 10,
      "flags": 4,
      "label": "DA ten.",
      "description": "Recruited 10 members of the DA.",
      "howto": "Recruit 10 members of the DA."
    },
    {
      "id": 79,
      "imageId": 40,
      "cred": 10,
      "flags": 4,
      "label": "DA twenty.",
      "description": "Recruited 20 members of the DA.",
      "howto": "Recruit 20 members of the DA."
    },
    {
      "id": 80,
      "imageId": 41,
      "cred": 10,
      "flags": 4,
      "label": "Magic 500.",
      "description": "Cast 500 successful spells.",
      "howto": "Cast 500 successful spells."
    },
    {
      "id": 81,
      "imageId": 42,
      "cred": 10,
      "flags": 4,
      "label": "Walk the platform.",
      "description": "Covered 9 3/4 miles.",
      "howto": "Cover 9 3/4 miles."
    }
  ]
}