{
  "achievementsPossible": 11,
  "credPossible": 1000,
  "achievements": [
    {
      "id": 1,
      "imageId": 5,
      "cred": 25,
      "flags": 1,
      "label": "日本代表ストーリー クリア\r\n",
      "description": "日本代表ストーリーを1回クリアしました。",
      "howto": "日本代表ストーリーを1回クリアするとゲットできます。"
    },
    {
      "id": 2,
      "imageId": 6,
      "cred": 150,
      "flags": 1,
      "label": "日本代表ストーリー ＶＥＲＹ ＨＡＲＤ クリア",
      "description": "日本代表ストーリーを ＶＥＲＹ ＨＡＲＤ で1回クリアしました。",
      "howto": "日本代表ストーリーをＶＥＲＹＨＡＲＤでクリアすればゲットできます。\r\nＶＥＲＹＨＡＲＤはＨＡＲＤをクリアすれば出現する、最も難しいモードです。"
    },
    {
      "id": 3,
      "imageId": 7,
      "cred": 200,
      "flags": 1,
      "label": "日本代表ストーリー 全選手クリア",
      "description": "日本代表ストーリーを全選手でクリアしました。",
      "howto": "日本代表ストーリーを全選手でクリアすればゲットできます。"
    },
    {
      "id": 4,
      "imageId": 8,
      "cred": 50,
      "flags": 4,
      "label": "100試合達成",
      "description": "通算100試合プレイしました。",
      "howto": "通算で100試合プレイすればゲットできます。"
    },
    {
      "id": 5,
      "imageId": 9,
      "cred": 100,
      "flags": 4,
      "label": "100時間達成",
      "description": "通算100時間プレイしました。",
      "howto": "通算で試合を100時間プレイすればゲットできます。"
    },
    {
      "id": 6,
      "imageId": 10,
      "cred": 50,
      "flags": 4,
      "label": "100得点獲得",
      "description": "日本代表ストーリーで通算100得点を獲得しました。",
      "howto": "日本代表ストーリーで通算100得点すればゲットできます。"
    },
    {
      "id": 7,
      "imageId": 11,
      "cred": 100,
      "flags": 4,
      "label": "100アシスト達成",
      "description": "日本代表ストーリーで100アシストを達成しました。",
      "howto": "日本代表ストーリーで100回アシストをすればゲットできます。"
    },
    {
      "id": 8,
      "imageId": 12,
      "cred": 100,
      "flags": 4,
      "label": "100勝達成",
      "description": "日本代表ストーリーで100勝を達成しました。",
      "howto": "日本代表ストーリーで100勝すればゲットできます。"
    },
    {
      "id": 9,
      "imageId": 13,
      "cred": 25,
      "flags": 4,
      "label": "ハットトリック達成",
      "description": "日本代表ストーリーでハットトリックを達成しました。",
      "howto": "日本代表ストーリーでハットトリックに成功すればゲットできます。"
    },
    {
      "id": 10,
      "imageId": 14,
      "cred": 150,
      "flags": 3,
      "label": "全チーム獲得",
      "description": "すべてのスペシャルチームを獲得しました。",
      "howto": "すべてのスペシャルチームを獲得すれば、ゲットできます。"
    },
    {
      "id": 11,
      "imageId": 15,
      "cred": 50,
      "flags": 5,
      "label": "全カップクリア",
      "description": "すべてのカップ戦で優勝しました。",
      "howto": "すべてのカップ戦で優勝すればゲットできます。"
    }
  ]
}