{
  "achievementsPossible": 59,
  "credPossible": 1250,
  "achievements": [
    {
      "id": 84,
      "imageId": 1,
      "cred": 20,
      "flags": 1,
      "label": "Welcome To Shanghai",
      "description": "Complete 'Welcome to Shanghai' on any difficulty.",
      "howto": "Complete 'Welcome to Shanghai' on any difficulty."
    },
    {
      "id": 86,
      "imageId": 2,
      "cred": 20,
      "flags": 1,
      "label": "Street War",
      "description": "Complete 'The Details' on any difficulty.",
      "howto": "Complete 'The Details' on any difficulty."
    },
    {
      "id": 87,
      "imageId": 3,
      "cred": 20,
      "flags": 1,
      "label": "Death Sentence",
      "description": "Complete 'Blood, Sweat and Tears' on any difficulty.",
      "howto": "Complete 'Blood, Sweat and Tears' on any difficulty."
    },
    {
      "id": 88,
      "imageId": 4,
      "cred": 25,
      "flags": 1,
      "label": "Nowhere To Hide",
      "description": "Complete 'Laying Low' on any difficulty.",
      "howto": "Complete 'Laying Low' on any difficulty."
    },
    {
      "id": 89,
      "imageId": 5,
      "cred": 25,
      "flags": 1,
      "label": "Baby Be Safe",
      "description": "Complete 'Coming Home' on any difficulty.",
      "howto": "Complete 'Coming Home' on any difficulty."
    },
    {
      "id": 90,
      "imageId": 6,
      "cred": 25,
      "flags": 1,
      "label": "Lost Love",
      "description": "Complete 'A Thousand Cuts' on any difficulty.",
      "howto": "Complete 'A Thousand Cuts' on any difficulty."
    },
    {
      "id": 91,
      "imageId": 7,
      "cred": 25,
      "flags": 1,
      "label": "Double Cross",
      "description": "Complete 'The Deal' on any difficulty.",
      "howto": "Complete 'The Deal' on any difficulty."
    },
    {
      "id": 92,
      "imageId": 8,
      "cred": 30,
      "flags": 1,
      "label": "Slow Train To Hell",
      "description": "Complete 'Out of Shanghai' on any difficulty.",
      "howto": "Complete 'Out of Shanghai' on any difficulty."
    },
    {
      "id": 93,
      "imageId": 9,
      "cred": 30,
      "flags": 1,
      "label": "Bring It Down",
      "description": "Complete 'Air Strike' on any difficulty.",
      "howto": "Complete 'Air Strike' on any difficulty."
    },
    {
      "id": 94,
      "imageId": 11,
      "cred": 60,
      "flags": 1,
      "label": "Dog Days",
      "description": "Complete Story Mode on any difficulty level.",
      "howto": "Complete Story Mode on any difficulty level."
    },
    {
      "id": 95,
      "imageId": 12,
      "cred": 60,
      "flags": 1,
      "label": "Dead Men Rising",
      "description": "Complete Story Mode on Extreme.",
      "howto": "Complete Story Mode on Extreme."
    },
    {
      "id": 97,
      "imageId": 13,
      "cred": 10,
      "flags": 1,
      "label": "Catch!",
      "description": "Push your human shield into an opponent in Story Mode.",
      "howto": "Push your human shield into an opponent in Story Mode."
    },
    {
      "id": 98,
      "imageId": 14,
      "cred": 10,
      "flags": 1,
      "label": "Can It!",
      "description": "Kill 10 enemies with exploding canisters.",
      "howto": "Kill 10 enemies with exploding canisters."
    },
    {
      "id": 100,
      "imageId": 15,
      "cred": 10,
      "flags": 1,
      "label": "Mexican Showoff",
      "description": "Kill 5 enemies while downed before successfully recovering.",
      "howto": "Kill 5 enemies while downed before successfully recovering."
    },
    {
      "id": 101,
      "imageId": 16,
      "cred": 10,
      "flags": 1,
      "label": "Sichuan Specialist",
      "description": "Escape the restaurant in 'Laying Low' without being downed on any difficulty.",
      "howto": "Escape the restaurant in 'Laying Low' without being downed on any difficulty."
    },
    {
      "id": 106,
      "imageId": 17,
      "cred": 15,
      "flags": 1,
      "label": "Hand Of God",
      "description": "Complete a Story Mode mission without dying once on any difficulty.",
      "howto": "Complete a Story Mode mission without dying once on any difficulty."
    },
    {
      "id": 107,
      "imageId": 18,
      "cred": 10,
      "flags": 1,
      "label": "Chinese Waltz",
      "description": "Kill 5 enemies without losing your human shield.",
      "howto": "Kill 5 enemies without losing your human shield."
    },
    {
      "id": 108,
      "imageId": 19,
      "cred": 10,
      "flags": 1,
      "label": "Dance Off!",
      "description": "Execute 30 enemies while holding them as human shield.",
      "howto": "Execute 30 enemies while holding them as human shield."
    },
    {
      "id": 110,
      "imageId": 20,
      "cred": 15,
      "flags": 1,
      "label": "Trigger Happy",
      "description": "Kill 5 enemies in 15 seconds with any pistol.",
      "howto": "Kill 5 enemies in 15 seconds with any pistol."
    },
    {
      "id": 111,
      "imageId": 21,
      "cred": 15,
      "flags": 1,
      "label": "Double Happiness",
      "description": "Kill 6 enemies in a row with a shotgun - all of them as one shot kills.",
      "howto": "Kill 6 enemies in a row with a shotgun - all of them as one shot kills."
    },
    {
      "id": 112,
      "imageId": 22,
      "cred": 15,
      "flags": 1,
      "label": "Steady Hand",
      "description": "Get 5 headshots in a row using the same clip.",
      "howto": "Get 5 headshots in a row using the same clip."
    },
    {
      "id": 114,
      "imageId": 23,
      "cred": 30,
      "flags": 1,
      "label": "You Want Blood?",
      "description": "1000 kills.",
      "howto": "1000 kills."
    },
    {
      "id": 116,
      "imageId": 24,
      "cred": 10,
      "flags": 1,
      "label": "A Little Help From A Friend",
      "description": "Complete 1 mission in Co-Op.",
      "howto": "Complete 1 mission in Co-Op."
    },
    {
      "id": 117,
      "imageId": 25,
      "cred": 20,
      "flags": 1,
      "label": "No Going Back ",
      "description": "Complete 5 missions in Co-Op.",
      "howto": "Complete 5 missions in Co-Op."
    },
    {
      "id": 119,
      "imageId": 26,
      "cred": 40,
      "flags": 1,
      "label": "End Of The Road",
      "description": "Complete Story Mode in Co-Op.",
      "howto": "Complete Story Mode in Co-Op."
    },
    {
      "id": 120,
      "imageId": 27,
      "cred": 15,
      "flags": 1,
      "label": "Giving A Hand\r\n",
      "description": "Finish 30 enemies your Co-Op partner shot 'Down Not Dead'.",
      "howto": "Finish 30 enemies your Co-Op partner shot 'Down Not Dead'."
    },
    {
      "id": 123,
      "imageId": 28,
      "cred": 10,
      "flags": 1,
      "label": "Got Your Back",
      "description": "Revive your Co-Op partner 10 times.",
      "howto": "Revive your Co-Op partner 10 times."
    },
    {
      "id": 124,
      "imageId": 29,
      "cred": 10,
      "flags": 1,
      "label": "Welcome",
      "description": "Successfully escape once in Arcade Mode or in any Multiplayer Ranked Match.",
      "howto": "Successfully escape once in Arcade Mode or in any Multiplayer Ranked Match."
    },
    {
      "id": 125,
      "imageId": 30,
      "cred": 10,
      "flags": 1,
      "label": "Doing Good",
      "description": "Successfully reach round 5 in Arcade Mode.",
      "howto": "Successfully reach round 5 in Arcade Mode."
    },
    {
      "id": 127,
      "imageId": 31,
      "cred": 20,
      "flags": 1,
      "label": "Love Of Money",
      "description": "Successfully reach round 10 in Arcade Mode.",
      "howto": "Successfully reach round 10 in Arcade Mode."
    },
    {
      "id": 128,
      "imageId": 32,
      "cred": 10,
      "flags": 1,
      "label": "Greedy Bastard",
      "description": "Earn at least $5,000,000 in every level in Arcade Mode.\r\n",
      "howto": "Earn at least $5,000,000 in every level in Arcade Mode.\r\n"
    },
    {
      "id": 131,
      "imageId": 33,
      "cred": 10,
      "flags": 1,
      "label": "Lightning Looter",
      "description": "Reach $8,000,000 in under 6 minutes of actual playtime in Arcade Mode.",
      "howto": "Reach $8,000,000 in under 6 minutes of actual playtime in Arcade Mode."
    },
    {
      "id": 132,
      "imageId": 34,
      "cred": 10,
      "flags": 1,
      "label": "Safe Crime",
      "description": "Finish 5 rounds in a row without getting any penalties in Arcade Mode.",
      "howto": "Finish 5 rounds in a row without getting any penalties in Arcade Mode."
    },
    {
      "id": 133,
      "imageId": 35,
      "cred": 15,
      "flags": 1,
      "label": "Battle Hardened",
      "description": "Complete one session in each Multiplayer mode (Ranked Match).",
      "howto": "Complete one session in each Multiplayer mode (Ranked Match)."
    },
    {
      "id": 137,
      "imageId": 36,
      "cred": 20,
      "flags": 1,
      "label": "Addict",
      "description": "Win 20 sessions of Cops & Robbers (Ranked Match).\r\n",
      "howto": "Win 20 sessions of Cops & Robbers (Ranked Match).\r\n"
    },
    {
      "id": 138,
      "imageId": 37,
      "cred": 20,
      "flags": 1,
      "label": "The Cleaner",
      "description": "Escape as a traitor with 50% of any level’s total loot in Arcade Mode or Multiplayer Ranked Match.",
      "howto": "Escape as a traitor with 50% of any level’s total loot in Arcade Mode or Multiplayer Ranked Match."
    },
    {
      "id": 139,
      "imageId": 38,
      "cred": 25,
      "flags": 1,
      "label": "Escape From... Anywhere",
      "description": "Successfully escape 25 times in Arcade Mode or in any Multiplayer Ranked Match.\r\n\r\n",
      "howto": "Successfully escape 25 times in Arcade Mode or in any Multiplayer Ranked Match.\r\n\r\n"
    },
    {
      "id": 140,
      "imageId": 39,
      "cred": 20,
      "flags": 1,
      "label": "D.I.Y.",
      "description": "Escape with more than $2,500,000 in a round of either Arcade Mode or Multiplayer Ranked Match.",
      "howto": "Escape with more than $2,500,000 in a round of either Arcade Mode or Multiplayer Ranked Match."
    },
    {
      "id": 141,
      "imageId": 40,
      "cred": 20,
      "flags": 1,
      "label": "Putting On The Ritz",
      "description": "End a round as Criminal Expert in a Fragile Alliance Ranked Match.\r\n",
      "howto": "End a round as Criminal Expert in a Fragile Alliance Ranked Match.\r\n"
    },
    {
      "id": 142,
      "imageId": 41,
      "cred": 10,
      "flags": 1,
      "label": "Blackjack & Hookers!",
      "description": "Accumulate $25,000,000 in your career (Arcade Mode and Multiplayer Ranked Match). \r\n",
      "howto": "Accumulate $25,000,000 in your career (Arcade Mode and Multiplayer Ranked Match). \r\n"
    },
    {
      "id": 143,
      "imageId": 42,
      "cred": 25,
      "flags": 1,
      "label": "Most Wanted",
      "description": "Accumulate $50,000,000 in your career (Arcade Mode and Multiplayer Ranked Match).",
      "howto": "Accumulate $50,000,000 in your career (Arcade Mode and Multiplayer Ranked Match)."
    },
    {
      "id": 144,
      "imageId": 43,
      "cred": 50,
      "flags": 1,
      "label": "Mastermind",
      "description": "Become a criminal Mastermind (Highest Rank).",
      "howto": "Become a criminal Mastermind (Highest Rank)."
    },
    {
      "id": 145,
      "imageId": 44,
      "cred": 20,
      "flags": 1,
      "label": "Rat Killer",
      "description": "Kill the Undercover Cop as the last surviving criminal and escape (Ranked Match).\r\n",
      "howto": "Kill the Undercover Cop as the last surviving criminal and escape (Ranked Match).\r\n"
    },
    {
      "id": 146,
      "imageId": 45,
      "cred": 20,
      "flags": 1,
      "label": "Law Enforcer",
      "description": "Win as the Undercover Cop by killing all criminals yourself (Ranked Match).\r\n",
      "howto": "Win as the Undercover Cop by killing all criminals yourself (Ranked Match).\r\n"
    },
    {
      "id": 147,
      "imageId": 46,
      "cred": 10,
      "flags": 1,
      "label": "Harry Houdini",
      "description": "Escape from being held as human shield in any Multiplayer mode (Ranked Match). ",
      "howto": "Escape from being held as human shield in any Multiplayer mode (Ranked Match). "
    },
    {
      "id": 148,
      "imageId": 48,
      "cred": 10,
      "flags": 1,
      "label": "Unfinished Business",
      "description": "Kill a yellow carded criminal whilst Down Not Dead (Arcade Mode and Multiplayer Ranked Match).",
      "howto": "Kill a yellow carded criminal whilst Down Not Dead (Arcade Mode and Multiplayer Ranked Match)."
    },
    {
      "id": 149,
      "imageId": 51,
      "cred": 20,
      "flags": 1,
      "label": "Alpha Male",
      "description": "Have the most kills in a Cops & Robbers Ranked Match.",
      "howto": "Have the most kills in a Cops & Robbers Ranked Match."
    },
    {
      "id": 150,
      "imageId": 53,
      "cred": 15,
      "flags": 1,
      "label": "There's An I In Traitor",
      "description": "Become Scum in a Multiplayer mode (Ranked Match).",
      "howto": "Become Scum in a Multiplayer mode (Ranked Match)."
    },
    {
      "id": 151,
      "imageId": 52,
      "cred": 15,
      "flags": 1,
      "label": "No I In TEAM",
      "description": "Earn the highest Criminal Loyalty level in Multiplayer Ranked Match.\r\n",
      "howto": "Earn the highest Criminal Loyalty level in Multiplayer Ranked Match.\r\n"
    },
    {
      "id": 152,
      "imageId": 10,
      "cred": 30,
      "flags": 1,
      "label": "Kill Or Be Killed",
      "description": "Complete 'Resurrection' on any difficulty.",
      "howto": "Complete 'Resurrection' on any difficulty."
    },
    {
      "id": 153,
      "imageId": 47,
      "cred": 20,
      "flags": 1,
      "label": "K9-Firepower",
      "description": "[Doggie Bag] Get 5 kills using canisters in a round of Multiplayer Ranked Match or Arcade Mode.",
      "howto": "[Doggie Bag] Get 5 kills using canisters in a round of Multiplayer Ranked Match or Arcade Mode."
    },
    {
      "id": 154,
      "imageId": 49,
      "cred": 20,
      "flags": 1,
      "label": "Escape From The Pound",
      "description": "[Doggie Bag] Escape on all levels at least once in Multiplayer Ranked Match or Arcade Mode.",
      "howto": "[Doggie Bag] Escape on all levels at least once in Multiplayer Ranked Match or Arcade Mode."
    },
    {
      "id": 155,
      "imageId": 50,
      "cred": 25,
      "flags": 1,
      "label": "Last in Show",
      "description": "[Doggie Bag] Escape as the last player on your own in a Multiplayer Ranked Match.",
      "howto": "[Doggie Bag] Escape as the last player on your own in a Multiplayer Ranked Match."
    },
    {
      "id": 156,
      "imageId": 54,
      "cred": 50,
      "flags": 1,
      "label": "Rabid",
      "description": "[Doggie Bag] 1000 kills.",
      "howto": "[Doggie Bag] 1000 kills."
    },
    {
      "id": 157,
      "imageId": 55,
      "cred": 25,
      "flags": 1,
      "label": "Under Dog",
      "description": "[Doggie Bag] In the last round of a 'Fragile Alliance’ Ranked Match, climb from last to 1st place.",
      "howto": "[Doggie Bag] In the last round of a 'Fragile Alliance’ Ranked Match, climb from last to 1st place."
    },
    {
      "id": 158,
      "imageId": 56,
      "cred": 20,
      "flags": 1,
      "label": "Good Doggie",
      "description": "[Doggie Bag] Escape with $100,000 or more in every round of a Multiplayer Ranked Match session.",
      "howto": "[Doggie Bag] Escape with $100,000 or more in every round of a Multiplayer Ranked Match session."
    },
    {
      "id": 159,
      "imageId": 57,
      "cred": 20,
      "flags": 1,
      "label": "The Dog Track",
      "description": "[Doggie Bag] Escape in less than 1½ minutes in Arcade Mode or Multiplayer Ranked Match.",
      "howto": "[Doggie Bag] Escape in less than 1½ minutes in Arcade Mode or Multiplayer Ranked Match."
    },
    {
      "id": 160,
      "imageId": 58,
      "cred": 20,
      "flags": 1,
      "label": "Rex",
      "description": "[Doggie Bag] Get 150 criminal kills as a cop in ‘Cops & Robbers’ Ranked Matches.",
      "howto": "[Doggie Bag] Get 150 criminal kills as a cop in ‘Cops & Robbers’ Ranked Matches."
    },
    {
      "id": 161,
      "imageId": 59,
      "cred": 50,
      "flags": 1,
      "label": "Poodle",
      "description": "[Doggie Bag] Accumulate $25,000,000 during your career in Multiplayer Ranked Matches.",
      "howto": "[Doggie Bag] Accumulate $25,000,000 during your career in Multiplayer Ranked Matches."
    }
  ]
}