{
  "achievementsPossible": 43,
  "credPossible": 1000,
  "achievements": [
    {
      "id": 6,
      "imageId": 8,
      "cred": 5,
      "flags": 4,
      "label": "First Audition",
      "description": "Complete an audition and begin making a movie",
      "howto": "Complete an audition and begin making a movie"
    },
    {
      "id": 7,
      "imageId": 12,
      "cred": 10,
      "flags": 4,
      "label": "Make a Movie",
      "description": "Complete 1 game session",
      "howto": "Complete 1 game session"
    },
    {
      "id": 8,
      "imageId": 14,
      "cred": 20,
      "flags": 4,
      "label": "Make a Trilogy",
      "description": "Complete 3 game sessions",
      "howto": "Complete 3 game sessions"
    },
    {
      "id": 9,
      "imageId": 13,
      "cred": 25,
      "flags": 4,
      "label": "Make a Series",
      "description": "Complete 5 game sessions",
      "howto": "Complete 5 game sessions"
    },
    {
      "id": 10,
      "imageId": 10,
      "cred": 10,
      "flags": 4,
      "label": "Going Solo",
      "description": "Make a movie with only 1 player ",
      "howto": "Make a movie with only 1 player "
    },
    {
      "id": 11,
      "imageId": 11,
      "cred": 30,
      "flags": 4,
      "label": "Horror Hero",
      "description": "Complete all movies in the Horror genre ",
      "howto": "Complete all movies in the Horror genre "
    },
    {
      "id": 12,
      "imageId": 18,
      "cred": 30,
      "flags": 4,
      "label": "Sci-Fi Star",
      "description": "Complete all movies in the Sci-Fi genre ",
      "howto": "Complete all movies in the Sci-Fi genre "
    },
    {
      "id": 13,
      "imageId": 1,
      "cred": 30,
      "flags": 4,
      "label": "Action Ace",
      "description": "Complete all movies in the Action genre ",
      "howto": "Complete all movies in the Action genre "
    },
    {
      "id": 14,
      "imageId": 6,
      "cred": 30,
      "flags": 4,
      "label": "Disaster Don",
      "description": "Complete all movies in the Disaster genre ",
      "howto": "Complete all movies in the Disaster genre "
    },
    {
      "id": 15,
      "imageId": 4,
      "cred": 30,
      "flags": 4,
      "label": "Classic Cat",
      "description": "Complete all movies in the Classic genre ",
      "howto": "Complete all movies in the Classic genre "
    },
    {
      "id": 16,
      "imageId": 3,
      "cred": 30,
      "flags": 4,
      "label": "Cater for Most",
      "description": "Make a movie in each of the 5 genres ",
      "howto": "Make a movie in each of the 5 genres "
    },
    {
      "id": 17,
      "imageId": 15,
      "cred": 70,
      "flags": 4,
      "label": "Obsessed",
      "description": "Complete all 30 original movies",
      "howto": "Complete all 30 original movies"
    },
    {
      "id": 18,
      "imageId": 23,
      "cred": 100,
      "flags": 4,
      "label": "Totally Obsessed",
      "description": "Complete all 30 original movies in 4 player mode",
      "howto": "Complete all 30 original movies in 4 player mode"
    },
    {
      "id": 19,
      "imageId": 30,
      "cred": 10,
      "flags": 4,
      "label": "Budding Director",
      "description": "Create a script using director mode\r\n",
      "howto": "Create a script using director mode\r\n"
    },
    {
      "id": 21,
      "imageId": 7,
      "cred": 15,
      "flags": 4,
      "label": "Epic",
      "description": "Make a movie with 4 players",
      "howto": "Make a movie with 4 players"
    },
    {
      "id": 27,
      "imageId": 2,
      "cred": 20,
      "flags": 4,
      "label": "Carny",
      "description": "Complete all fairground games ",
      "howto": "Complete all fairground games "
    },
    {
      "id": 28,
      "imageId": 37,
      "cred": 20,
      "flags": 4,
      "label": "Key Grip",
      "description": "Complete all studio games ",
      "howto": "Complete all studio games "
    },
    {
      "id": 29,
      "imageId": 27,
      "cred": 20,
      "flags": 4,
      "label": "Beach Bum",
      "description": "Complete all desert island games ",
      "howto": "Complete all desert island games "
    },
    {
      "id": 30,
      "imageId": 25,
      "cred": 20,
      "flags": 4,
      "label": "Zen Master",
      "description": "Complete all dojo games ",
      "howto": "Complete all dojo games "
    },
    {
      "id": 31,
      "imageId": 5,
      "cred": 20,
      "flags": 4,
      "label": "Country Kid",
      "description": "Complete all countryside games ",
      "howto": "Complete all countryside games "
    },
    {
      "id": 32,
      "imageId": 31,
      "cred": 20,
      "flags": 4,
      "label": "City Slicker",
      "description": "Complete all city games ",
      "howto": "Complete all city games "
    },
    {
      "id": 33,
      "imageId": 22,
      "cred": 35,
      "flags": 4,
      "label": "Team Player",
      "description": "Complete all 2 player games in 2 player mode ",
      "howto": "Complete all 2 player games in 2 player mode "
    },
    {
      "id": 34,
      "imageId": 9,
      "cred": 10,
      "flags": 4,
      "label": "First Class",
      "description": "Play Flight of Fancy and ride in the plane",
      "howto": "Play Flight of Fancy and ride in the plane"
    },
    {
      "id": 35,
      "imageId": 40,
      "cred": 15,
      "flags": 4,
      "label": "Run For Your Life",
      "description": "Don't get caught in both Monkey Run and Tornado Run\r\n",
      "howto": "Don't get caught in both Monkey Run and Tornado Run\r\n"
    },
    {
      "id": 36,
      "imageId": 38,
      "cred": 20,
      "flags": 4,
      "label": "Movie Editor",
      "description": "Score maximum points in Film Buff and The Reel Thing",
      "howto": "Score maximum points in Film Buff and The Reel Thing"
    },
    {
      "id": 37,
      "imageId": 32,
      "cred": 20,
      "flags": 4,
      "label": "Demolition Dynamo",
      "description": "Knock the wall down in Swing King and dig to the bottom of the screen in Demolition Day ",
      "howto": "Knock the wall down in Swing King and dig to the bottom of the screen in Demolition Day "
    },
    {
      "id": 38,
      "imageId": 36,
      "cred": 20,
      "flags": 4,
      "label": "Generator",
      "description": "Score maximum points in Backstage Bother and Dynamo!",
      "howto": "Score maximum points in Backstage Bother and Dynamo!"
    },
    {
      "id": 39,
      "imageId": 19,
      "cred": 20,
      "flags": 4,
      "label": "Sound Engineer",
      "description": "Score maximum points in Sound Off and Ding Dong\r\n",
      "howto": "Score maximum points in Sound Off and Ding Dong\r\n"
    },
    {
      "id": 40,
      "imageId": 42,
      "cred": 15,
      "flags": 4,
      "label": "Slippery Eel",
      "description": "Don’t get hit in both Knock Knock and Rodeo Rampage",
      "howto": "Don’t get hit in both Knock Knock and Rodeo Rampage"
    },
    {
      "id": 42,
      "imageId": 17,
      "cred": 20,
      "flags": 4,
      "label": "Puzzle Master",
      "description": "Score maximum points in Cup and the Pea and Costume Crisis\r\n",
      "howto": "Score maximum points in Cup and the Pea and Costume Crisis\r\n"
    },
    {
      "id": 43,
      "imageId": 34,
      "cred": 20,
      "flags": 4,
      "label": "Frantic Fun",
      "description": "Score maximum points in Shut the Valve and Treasure Trove\r\n",
      "howto": "Score maximum points in Shut the Valve and Treasure Trove\r\n"
    },
    {
      "id": 44,
      "imageId": 20,
      "cred": 20,
      "flags": 4,
      "label": "Spiritual Bliss",
      "description": "Score maximum points in Stone Master and Free Your Mind\r\n",
      "howto": "Score maximum points in Stone Master and Free Your Mind\r\n"
    },
    {
      "id": 45,
      "imageId": 26,
      "cred": 20,
      "flags": 4,
      "label": "Athlete\r\n",
      "description": "Score maximum points in Log Toss, Bungee Run, and Hula Hula\r\n",
      "howto": "Score maximum points in Log Toss, Bungee Run, and Hula Hula\r\n"
    },
    {
      "id": 46,
      "imageId": 24,
      "cred": 20,
      "flags": 4,
      "label": "Triathlon",
      "description": "Score maximum points in Marathon Man, Stuntman and Piranha Panic \r\n",
      "howto": "Score maximum points in Marathon Man, Stuntman and Piranha Panic \r\n"
    },
    {
      "id": 47,
      "imageId": 29,
      "cred": 20,
      "flags": 4,
      "label": "Bruiser",
      "description": "Beat all the bad guys in Runaway Train and Hitman ",
      "howto": "Beat all the bad guys in Runaway Train and Hitman "
    },
    {
      "id": 48,
      "imageId": 21,
      "cred": 20,
      "flags": 4,
      "label": "Strength Challenge",
      "description": "Knock the bell off in Strongman",
      "howto": "Knock the bell off in Strongman"
    },
    {
      "id": 49,
      "imageId": 16,
      "cred": 20,
      "flags": 4,
      "label": "Punch Bag",
      "description": "Hit the maximum punch 3 times in a row in Punch Out ",
      "howto": "Hit the maximum punch 3 times in a row in Punch Out "
    },
    {
      "id": 50,
      "imageId": 41,
      "cred": 20,
      "flags": 4,
      "label": "Skuse Me",
      "description": "Get 3 balls in a row on Skuseball",
      "howto": "Get 3 balls in a row on Skuseball"
    },
    {
      "id": 51,
      "imageId": 39,
      "cred": 20,
      "flags": 4,
      "label": "Rocketeer",
      "description": "Destroy 20 ships in Rocket Launcher",
      "howto": "Destroy 20 ships in Rocket Launcher"
    },
    {
      "id": 52,
      "imageId": 33,
      "cred": 20,
      "flags": 4,
      "label": "Float Like a Butterfly",
      "description": "Complete Play Fight and Fistful of Fun without getting hit ",
      "howto": "Complete Play Fight and Fistful of Fun without getting hit "
    },
    {
      "id": 53,
      "imageId": 43,
      "cred": 20,
      "flags": 4,
      "label": "Sting Like a Bee",
      "description": "Hit all the pads in Contender ",
      "howto": "Hit all the pads in Contender "
    },
    {
      "id": 54,
      "imageId": 28,
      "cred": 20,
      "flags": 4,
      "label": "Beat Master",
      "description": "Score maximum points in Dragon Boat and Funky Monkey\r\n",
      "howto": "Score maximum points in Dragon Boat and Funky Monkey\r\n"
    },
    {
      "id": 55,
      "imageId": 35,
      "cred": 20,
      "flags": 4,
      "label": "Funky Mover",
      "description": "Score maximum points in Let’s Dance and Freestyle Fever\r\n",
      "howto": "Score maximum points in Let’s Dance and Freestyle Fever\r\n"
    }
  ]
}