{
  "achievementsPossible": 32,
  "credPossible": 1000,
  "achievements": [
    {
      "id": 1,
      "imageId": 1,
      "cred": 5,
      "flags": 4,
      "label": "First Win: Exhibition",
      "description": "Awarded for defeating the COM for the first time in [Exhibition].",
      "howto": "Awarded for defeating the COM for the first time in [Exhibition]."
    },
    {
      "id": 2,
      "imageId": 2,
      "cred": 10,
      "flags": 4,
      "label": "First Win: UEFA Champions League",
      "description": "Awarded for defeating the COM for the first time in [UEFA Champions League].",
      "howto": "Awarded for defeating the COM for the first time in [UEFA Champions League]."
    },
    {
      "id": 3,
      "imageId": 3,
      "cred": 25,
      "flags": 4,
      "label": "UEFA Champions League Winner",
      "description": "Awarded for becoming a [UEFA Champions League] Winner.",
      "howto": "Awarded for becoming a [UEFA Champions League] Winner."
    },
    {
      "id": 4,
      "imageId": 4,
      "cred": 10,
      "flags": 4,
      "label": "First Win: UEFA Europa League",
      "description": "Awarded for winning your first match against the COM in [UEFA Europa League].",
      "howto": "Awarded for winning your first match against the COM in [UEFA Europa League]."
    },
    {
      "id": 5,
      "imageId": 5,
      "cred": 25,
      "flags": 4,
      "label": "UEFA Europa League Winner",
      "description": "Awarded for becoming a [UEFA Europa League] Winner.",
      "howto": "Awarded for becoming a [UEFA Europa League] Winner."
    },
    {
      "id": 6,
      "imageId": 6,
      "cred": 10,
      "flags": 4,
      "label": "Copa Libertadores First Win",
      "description": "Awarded for defeating the COM for the first time in [Copa Libertadores].",
      "howto": "Awarded for defeating the COM for the first time in [Copa Libertadores]."
    },
    {
      "id": 7,
      "imageId": 7,
      "cred": 25,
      "flags": 4,
      "label": "Copa Libertadores Winner",
      "description": "Awarded for becoming a [Copa Libertadores] Winner.",
      "howto": "Awarded for becoming a [Copa Libertadores] Winner."
    },
    {
      "id": 8,
      "imageId": 8,
      "cred": 10,
      "flags": 4,
      "label": "First Win: AFC Champions League",
      "description": "Awarded for winning your first match against the COM in [AFC Champions League].",
      "howto": "Awarded for winning your first match against the COM in [AFC Champions League]."
    },
    {
      "id": 9,
      "imageId": 9,
      "cred": 25,
      "flags": 4,
      "label": "AFC Champions League Winner",
      "description": "Awarded for becoming a [AFC Champions League] Winner.",
      "howto": "Awarded for becoming a [AFC Champions League] Winner."
    },
    {
      "id": 10,
      "imageId": 10,
      "cred": 20,
      "flags": 4,
      "label": "Cup Winners",
      "description": "Awarded for single-handedly guiding a team to Cup glory in [Cup].",
      "howto": "Awarded for single-handedly guiding a team to Cup glory in [Cup]."
    },
    {
      "id": 11,
      "imageId": 11,
      "cred": 30,
      "flags": 4,
      "label": "International Cup Winner",
      "description": "Awarded for becoming Winner of the International Cup.",
      "howto": "Awarded for becoming Winner of the International Cup."
    },
    {
      "id": 12,
      "imageId": 12,
      "cred": 10,
      "flags": 4,
      "label": "The Debutant",
      "description": "Awarded for making a professional debut in [Become a Legend].",
      "howto": "Awarded for making a professional debut in [Become a Legend]."
    },
    {
      "id": 13,
      "imageId": 13,
      "cred": 30,
      "flags": 4,
      "label": "League Champions",
      "description": "Awarded for winning the League Title in [Become a Legend].",
      "howto": "Awarded for winning the League Title in [Become a Legend]."
    },
    {
      "id": 14,
      "imageId": 14,
      "cred": 30,
      "flags": 4,
      "label": "League Best Eleven",
      "description": "Awarded for being picked for the Team of the Season in [Become a Legend].",
      "howto": "Awarded for being picked for the Team of the Season in [Become a Legend]."
    },
    {
      "id": 15,
      "imageId": 15,
      "cred": 40,
      "flags": 4,
      "label": "Best European Footballer",
      "description": "Awarded for winning the UEFA Best Player in Europe Award [Become a Legend].",
      "howto": "Awarded for winning the UEFA Best Player in Europe Award [Become a Legend]."
    },
    {
      "id": 16,
      "imageId": 16,
      "cred": 40,
      "flags": 4,
      "label": "Best South American Footballer",
      "description": "Awarded for being named South American Player of the Year in [Become a Legend].",
      "howto": "Awarded for being named South American Player of the Year in [Become a Legend]."
    },
    {
      "id": 17,
      "imageId": 17,
      "cred": 40,
      "flags": 4,
      "label": "Best Asian Footballer",
      "description": "Awarded for being named Footballer of the Year in Asia in [Become a Legend].",
      "howto": "Awarded for being named Footballer of the Year in Asia in [Become a Legend]."
    },
    {
      "id": 18,
      "imageId": 18,
      "cred": 60,
      "flags": 4,
      "label": "World Footballer of the Year",
      "description": "Awarded for being named World Footballer of the Year in [Become a Legend].",
      "howto": "Awarded for being named World Footballer of the Year in [Become a Legend]."
    },
    {
      "id": 19,
      "imageId": 19,
      "cred": 10,
      "flags": 4,
      "label": "First Win: Master League",
      "description": "Awarded for your first win in [Master League].",
      "howto": "Awarded for your first win in [Master League]."
    },
    {
      "id": 20,
      "imageId": 20,
      "cred": 20,
      "flags": 4,
      "label": "Promoted",
      "description": "Awarded for Winning Promotion to a Top League in [Master League].",
      "howto": "Awarded for Winning Promotion to a Top League in [Master League]."
    },
    {
      "id": 21,
      "imageId": 21,
      "cred": 15,
      "flags": 4,
      "label": "To Pastures Anew",
      "description": "Awarded for moving teams in [Master League].",
      "howto": "Awarded for moving teams in [Master League]."
    },
    {
      "id": 22,
      "imageId": 22,
      "cred": 30,
      "flags": 4,
      "label": "Champion Manager",
      "description": "Awarded for winning the League Title in any of the Top Leagues featured in [Master League].",
      "howto": "Awarded for winning the League Title in any of the Top Leagues featured in [Master League]."
    },
    {
      "id": 23,
      "imageId": 23,
      "cred": 40,
      "flags": 4,
      "label": "Kings of Europe",
      "description": "Awarded for becoming a UEFA Champions League Winner in [Master League].",
      "howto": "Awarded for becoming a UEFA Champions League Winner in [Master League]."
    },
    {
      "id": 24,
      "imageId": 24,
      "cred": 40,
      "flags": 4,
      "label": "Kings of Latin America",
      "description": "Awarded for becoming a Copa Libertadores Winner in [Master League].",
      "howto": "Awarded for becoming a Copa Libertadores Winner in [Master League]."
    },
    {
      "id": 25,
      "imageId": 25,
      "cred": 40,
      "flags": 4,
      "label": "Ruler of Asia",
      "description": "Awarded for becoming a AFC Champions League Winner in [Master League].",
      "howto": "Awarded for becoming a AFC Champions League Winner in [Master League]."
    },
    {
      "id": 26,
      "imageId": 26,
      "cred": 50,
      "flags": 4,
      "label": "European Treble Winners",
      "description": "Awarded for winning the League, UEFA Champions League and League Cup in a [Master League] season. ",
      "howto": "Awarded for winning the League, UEFA Champions League and League Cup in a [Master League] season. "
    },
    {
      "id": 27,
      "imageId": 27,
      "cred": 50,
      "flags": 4,
      "label": "Latin American Treble Winners",
      "description": "Awarded for League, Copa Libertadores and Cup wins in a [Master League] season. ",
      "howto": "Awarded for League, Copa Libertadores and Cup wins in a [Master League] season. "
    },
    {
      "id": 28,
      "imageId": 28,
      "cred": 50,
      "flags": 4,
      "label": "Asian Treble Winners",
      "description": "Awarded for winning the League, AFC Champions League and League Cup in a [Master League] season. ",
      "howto": "Awarded for winning the League, AFC Champions League and League Cup in a [Master League] season. "
    },
    {
      "id": 29,
      "imageId": 29,
      "cred": 60,
      "flags": 4,
      "label": "No.1 Club ",
      "description": "Awarded for being named the No.1 Club in the [Master League] Club Rankings.",
      "howto": "Awarded for being named the No.1 Club in the [Master League] Club Rankings."
    },
    {
      "id": 30,
      "imageId": 30,
      "cred": 30,
      "flags": 4,
      "label": "Leading the Nation",
      "description": "Awarded for becoming a national team manager in [Master League].",
      "howto": "Awarded for becoming a national team manager in [Master League]."
    },
    {
      "id": 31,
      "imageId": 31,
      "cred": 60,
      "flags": 4,
      "label": "World Champions",
      "description": "Awarded to the Winner of the International Cup in [Master League].",
      "howto": "Awarded to the Winner of the International Cup in [Master League]."
    },
    {
      "id": 32,
      "imageId": 32,
      "cred": 60,
      "flags": 4,
      "label": "Performance Training Master",
      "description": "Awarded for completing all challenges in [Performance Training].",
      "howto": "Awarded for completing all challenges in [Performance Training]."
    }
  ]
}