{
  "achievementsPossible": 79,
  "credPossible": 1750,
  "achievements": [
    {
      "id": 1,
      "imageId": 3,
      "cred": 10,
      "flags": 1,
      "label": "Green as Grass",
      "description": "Showed Carmine the ropes",
      "howto": "Train the rook (any difficulty)"
    },
    {
      "id": 2,
      "imageId": 4,
      "cred": 10,
      "flags": 1,
      "label": "It's a Trap!",
      "description": "Successfully defended the hospital",
      "howto": "Story progression in Act 1, Chapter 2"
    },
    {
      "id": 3,
      "imageId": 5,
      "cred": 10,
      "flags": 1,
      "label": "Escort Service",
      "description": "Escorted Betty to Landown",
      "howto": "Story progression in Act 1, Chapter 4"
    },
    {
      "id": 4,
      "imageId": 6,
      "cred": 10,
      "flags": 1,
      "label": "Girl About Town",
      "description": "Seen the sights with Betty",
      "howto": "Story progression in Act 1, Chapter 6"
    },
    {
      "id": 5,
      "imageId": 7,
      "cred": 10,
      "flags": 1,
      "label": "That Sinking Feeling",
      "description": "Watched Ilima sink",
      "howto": "Story progression in Act 2, Chapter 4"
    },
    {
      "id": 6,
      "imageId": 8,
      "cred": 10,
      "flags": 1,
      "label": "Freebaird!",
      "description": "Freed Baird from capture",
      "howto": "Story progression in Act 2, Chapter 5"
    },
    {
      "id": 7,
      "imageId": 9,
      "cred": 10,
      "flags": 1,
      "label": "Heartbroken",
      "description": "Performed a chainsaw multiple bypass",
      "howto": "Story progression in Act 2, Chapter 6"
    },
    {
      "id": 8,
      "imageId": 10,
      "cred": 10,
      "flags": 1,
      "label": "Longitude and Attitude",
      "description": "Discovered the location of the Locust queen",
      "howto": "Story progression in Act 3, Chapter 3"
    },
    {
      "id": 9,
      "imageId": 11,
      "cred": 10,
      "flags": 1,
      "label": "Tanks for the Memories",
      "description": "Arrived safely at Mount Kadar Stranded camp",
      "howto": "Story progression in Act 3, Chapter 4"
    },
    {
      "id": 10,
      "imageId": 12,
      "cred": 10,
      "flags": 1,
      "label": "Water Sports",
      "description": "Defeated the Leviathan",
      "howto": "Story progression in Act 3, Chapter 6"
    },
    {
      "id": 11,
      "imageId": 13,
      "cred": 10,
      "flags": 1,
      "label": "There's a Time for Us",
      "description": "Found Maria",
      "howto": "Story progression in Act 4, Chapter 2"
    },
    {
      "id": 12,
      "imageId": 14,
      "cred": 10,
      "flags": 1,
      "label": "Better Wrapped in Beacon",
      "description": "Activated Jack as homing beacon in Nexus",
      "howto": "Story progression in Act 4, Chapter 3"
    },
    {
      "id": 13,
      "imageId": 15,
      "cred": 10,
      "flags": 1,
      "label": "Have Fun Storming the Castle",
      "description": "Found the Locust queen",
      "howto": "Story progression in Act 4, Chapter 6"
    },
    {
      "id": 14,
      "imageId": 16,
      "cred": 10,
      "flags": 1,
      "label": "And the Horsey You Rode in On",
      "description": "Defeated Skorge and his Hydra",
      "howto": "Story progression in Act 5, Chapter 1"
    },
    {
      "id": 15,
      "imageId": 17,
      "cred": 10,
      "flags": 1,
      "label": "You Are the Support, Son",
      "description": "Successfully defended COG headquarters",
      "howto": "Story progression in Act 5, Chapter 2"
    },
    {
      "id": 16,
      "imageId": 18,
      "cred": 10,
      "flags": 1,
      "label": "Brumak Rodeo",
      "description": "Captured a Brumak",
      "howto": "Story progression in Act 5, Chapter 4"
    },
    {
      "id": 17,
      "imageId": 19,
      "cred": 10,
      "flags": 1,
      "label": "Does This Look Infected to You?",
      "description": "Defeated the Lambent Brumak",
      "howto": "Story progression in Act 5, Chapter 5"
    },
    {
      "id": 18,
      "imageId": 20,
      "cred": 25,
      "flags": 1,
      "label": "Tourist of Duty",
      "description": "Completed all campaign acts on Casual Difficulty",
      "howto": "Complete all campaign acts on Casual Difficulty"
    },
    {
      "id": 19,
      "imageId": 21,
      "cred": 50,
      "flags": 1,
      "label": "Guerilla Tactician",
      "description": "Completed all campaign acts on Normal Difficulty",
      "howto": "Complete all campaign acts on Normal Difficulty"
    },
    {
      "id": 20,
      "imageId": 22,
      "cred": 75,
      "flags": 1,
      "label": "Artist of War",
      "description": "Completed all campaign acts on Hardcore Difficulty",
      "howto": "Complete all campaign acts on Hardcore Difficulty"
    },
    {
      "id": 21,
      "imageId": 23,
      "cred": 150,
      "flags": 1,
      "label": "Suicide Missionary",
      "description": "Completed all campaign acts on Insane Difficulty",
      "howto": "Complete all campaign acts on Insane Difficulty"
    },
    {
      "id": 22,
      "imageId": 24,
      "cred": 5,
      "flags": 1,
      "label": "Collector",
      "description": "Recovered 5 of 41 collectibles",
      "howto": "Recover 5 collectibles (any difficulty)"
    },
    {
      "id": 23,
      "imageId": 25,
      "cred": 15,
      "flags": 1,
      "label": "Pack Rat",
      "description": "Recovered 20 of 41 collectibles",
      "howto": "Recover 20 collectibles (any difficulty)"
    },
    {
      "id": 24,
      "imageId": 26,
      "cred": 30,
      "flags": 1,
      "label": "Completionist",
      "description": "Recovered all 41 collectibles",
      "howto": "Recover all 41 collectibles (any difficulty)"
    },
    {
      "id": 25,
      "imageId": 27,
      "cred": 10,
      "flags": 1,
      "label": "One-Night Stand",
      "description": "Completed 1 chapter in Co-op on any difficulty",
      "howto": "Complete 1 chapter in Co-op on any difficulty (Marcus or Dom)"
    },
    {
      "id": 26,
      "imageId": 28,
      "cred": 30,
      "flags": 1,
      "label": "Open Relationship",
      "description": "Completed 10 chapters in Co-op on any difficulty",
      "howto": "Complete 10 chapters in Co-op on any difficulty (Marcus or Dom)"
    },
    {
      "id": 27,
      "imageId": 29,
      "cred": 50,
      "flags": 1,
      "label": "Friends with Benefits",
      "description": "Completed all acts in Co-op on any difficulty",
      "howto": "Complete all acts in Co-op on any difficulty (Marcus or Dom)"
    },
    {
      "id": 28,
      "imageId": 30,
      "cred": 10,
      "flags": 1,
      "label": "Crossed Swords",
      "description": "Won 10 chainsaw duels",
      "howto": "Win 10 chainsaw duels (any mode)"
    },
    {
      "id": 29,
      "imageId": 31,
      "cred": 10,
      "flags": 1,
      "label": "Pound of Flesh",
      "description": "Used 10 meatshields to survive",
      "howto": "Use a meatshield to save your life 10 times (any mode)"
    },
    {
      "id": 30,
      "imageId": 32,
      "cred": 10,
      "flags": 1,
      "label": "Organ Grinder",
      "description": "Killed 30 enemies with your Mulcher turret",
      "howto": "Kill 30 enemies with a cover mounted Mulcher (any mode)"
    },
    {
      "id": 31,
      "imageId": 33,
      "cred": 10,
      "flags": 1,
      "label": "Shock and Awe",
      "description": "Killed 30 enemies raining down death from the sky",
      "howto": "Kill 30 enemies with the heavy Mortar (any mode)"
    },
    {
      "id": 32,
      "imageId": 34,
      "cred": 10,
      "flags": 1,
      "label": "Said the Spider to the Fly",
      "description": "Effectively used grenade mines",
      "howto": "Kill 10 enemies with a planted grenade (any mode)"
    },
    {
      "id": 33,
      "imageId": 35,
      "cred": 10,
      "flags": 1,
      "label": "Crowd Control",
      "description": "Got up close and personal with the Boomshield",
      "howto": "Melee 10 enemies down with the Boomshield equipped (any mode)"
    },
    {
      "id": 34,
      "imageId": 36,
      "cred": 10,
      "flags": 1,
      "label": "Smells Like Victory",
      "description": "Torched 30 enemies",
      "howto": "Kill 30 enemies with the Scorcher Flamethrower (any mode)"
    },
    {
      "id": 35,
      "imageId": 37,
      "cred": 10,
      "flags": 1,
      "label": "Once More, With Feeling",
      "description": "Mastered the ways of the Active Reload",
      "howto": "Perform 30 perfect Active Reloads (any mode)"
    },
    {
      "id": 36,
      "imageId": 38,
      "cred": 30,
      "flags": 1,
      "label": "Takes a Licking",
      "description": "Bashed 30 Tickers",
      "howto": "Melee 30 Tickers (any mode)"
    },
    {
      "id": 37,
      "imageId": 39,
      "cred": 30,
      "flags": 1,
      "label": "Variety Is the Spice of Death",
      "description": "Killed an enemy with every weapon",
      "howto": "Kill an enemy with every weapon in the game (any mode)"
    },
    {
      "id": 38,
      "imageId": 40,
      "cred": 10,
      "flags": 1,
      "label": "Kick 'Em When They're Down",
      "description": "Executioner with style",
      "howto": "Perform all 11 unique executions on a downed enemy"
    },
    {
      "id": 39,
      "imageId": 41,
      "cred": 50,
      "flags": 1,
      "label": "Seriously 2.0",
      "description": "Killed 100,000 enemies",
      "howto": "Kill 100,000 enemies (any mode)"
    },
    {
      "id": 40,
      "imageId": 42,
      "cred": 10,
      "flags": 1,
      "label": "Photojournalist",
      "description": "Submitted a spectator photo",
      "howto": "Submit a spectator photo"
    },
    {
      "id": 41,
      "imageId": 43,
      "cred": 10,
      "flags": 1,
      "label": "Standing Here, Beside Myself",
      "description": "Won 3 matches of Wingman (not Custom)",
      "howto": "Win 3 matches of Wingman (not Custom)"
    },
    {
      "id": 42,
      "imageId": 44,
      "cred": 10,
      "flags": 1,
      "label": "Beat the Meatflag",
      "description": "Captured 10 meatflags (not Custom)",
      "howto": "Capture 10 meatflags in Submission (not Custom)"
    },
    {
      "id": 43,
      "imageId": 45,
      "cred": 10,
      "flags": 1,
      "label": "It's Good to be the King",
      "description": "Won 10 rounds of Guardian as the leader (not Custom)",
      "howto": "Win 10 rounds of Guardian as the leader (not Custom)"
    },
    {
      "id": 44,
      "imageId": 46,
      "cred": 10,
      "flags": 1,
      "label": "You Go Ahead, I'll Be Fine",
      "description": "Won 3 matches of King of the Hill (not Custom)",
      "howto": "Win 3 matches of King of the Hill (not Custom)"
    },
    {
      "id": 45,
      "imageId": 47,
      "cred": 10,
      "flags": 1,
      "label": "Back to Basic",
      "description": "Won all Training Grounds matches",
      "howto": "Successfully complete the 5 lessons of multiplayer Training Grounds"
    },
    {
      "id": 46,
      "imageId": 48,
      "cred": 20,
      "flags": 1,
      "label": "A Parting Gift",
      "description": "Killed 10 enemies with a grenade while down but not out",
      "howto": "Kill 10 enemies with a grenade while down but not out (any mode)"
    },
    {
      "id": 47,
      "imageId": 49,
      "cred": 30,
      "flags": 1,
      "label": "Party Like It's 1999",
      "description": "Played 1999 rounds in multiplayer",
      "howto": "Play 1999 rounds of multiplayer (any mode)"
    },
    {
      "id": 48,
      "imageId": 50,
      "cred": 30,
      "flags": 1,
      "label": "Around the World, Again",
      "description": "Won a match on every map shipped with the game",
      "howto": "Win a multiplayer match on each of the 10 shipped maps (any mode)"
    },
    {
      "id": 49,
      "imageId": 51,
      "cred": 20,
      "flags": 1,
      "label": "Dirty, Dirty Horde",
      "description": "Team survived 10 Horde waves",
      "howto": "Survive the first 10 waves of Horde (any difficulty, any map)"
    },
    {
      "id": 50,
      "imageId": 52,
      "cred": 30,
      "flags": 1,
      "label": "Hoard the Horde",
      "description": "Team survived all 50 Horde waves",
      "howto": "Survive all 50 waves of Horde (any difficulty, any map)"
    },
    {
      "id": 51,
      "imageId": 53,
      "cred": 20,
      "flags": 1,
      "label": "Skeletons in your Closet",
      "description": "Survived first 10 Horde waves on Flashback Map Pack maps as a team",
      "howto": "Complete waves 1 through 10 on all Flashback Map Pack maps in Horde (any difficulty)"
    },
    {
      "id": 52,
      "imageId": 54,
      "cred": 15,
      "flags": 1,
      "label": "More Mystery, Less History",
      "description": "Won a match on each of the Flashback Map Pack maps",
      "howto": "Win a multiplayer match on each of the 5 Flashback Map Pack maps (any mode except Wingman)"
    },
    {
      "id": 53,
      "imageId": 55,
      "cred": 15,
      "flags": 1,
      "label": "Bound by a Shared Past",
      "description": "Won a Wingman match on each of the Flashback Map Pack maps",
      "howto": "Win a Wingman match on each of the 5 Flashback Map Pack maps"
    },
    {
      "id": 54,
      "imageId": 56,
      "cred": 20,
      "flags": 1,
      "label": "Trial by, and on, Fire",
      "description": "Team survived first 10 Horde waves on Combustible Map Pack maps",
      "howto": "Survive first 10 Horde waves on Combustible Map Pack maps as a team"
    },
    {
      "id": 55,
      "imageId": 57,
      "cred": 15,
      "flags": 1,
      "label": "The Roof! The Roof! The Roof…",
      "description": "Won a match on each of the Combustible Map Pack maps",
      "howto": "Win a multiplayer match on each of the 3 Combustible Map Pack maps (any mode except Wingman)"
    },
    {
      "id": 56,
      "imageId": 58,
      "cred": 15,
      "flags": 1,
      "label": "Forged in the Fire",
      "description": "Won a Wingman match on each of the Combustible Map Pack maps",
      "howto": "Win a Wingman match on each of the 3 Combustible Map Pack maps"
    },
    {
      "id": 57,
      "imageId": 59,
      "cred": 75,
      "flags": 1,
      "label": "Annex: Now With Execution Rules",
      "description": "Won a ranked or social Annex match on each of the Flashback and Combustible Map Pack maps",
      "howto": "Win an Annex match on each Flashback and Combustible Map Pack map (not Custom)"
    },
    {
      "id": 58,
      "imageId": 61,
      "cred": 10,
      "flags": 2,
      "label": "Rookie Gear",
      "description": "Reached level 5 in multiplayer",
      "howto": "Earn enough multiplayer experience to reach level 5 (not Custom)"
    },
    {
      "id": 59,
      "imageId": 60,
      "cred": 20,
      "flags": 2,
      "label": "Seasoned Gear",
      "description": "Reached level 15 in multiplayer",
      "howto": "Earn enough multiplayer experience to reach level 15 (not Custom)"
    },
    {
      "id": 60,
      "imageId": 65,
      "cred": 30,
      "flags": 2,
      "label": "Battle-Tested Gear",
      "description": "Reached level 25 in multiplayer",
      "howto": "Earn enough multiplayer experience to reach level 25 (not Custom)"
    },
    {
      "id": 61,
      "imageId": 66,
      "cred": 50,
      "flags": 2,
      "label": "Battle-Hardened Gear",
      "description": "Reached level 50 and played in the snow",
      "howto": "Reach level 50 and play a match on each of the 4 Snowblind Map Pack maps (not Custom)"
    },
    {
      "id": 62,
      "imageId": 68,
      "cred": 75,
      "flags": 2,
      "label": "Veteran Gear",
      "description": "Became an ultimate Gearhead at level 100",
      "howto": "Reach level 100 and win a match on each of the 4 Snowblind Map Pack maps (not Custom)"
    },
    {
      "id": 63,
      "imageId": 62,
      "cred": 20,
      "flags": 1,
      "label": "Never Eat Red Snow",
      "description": "Team survived first 10 Horde waves on Snowblind Map Pack maps",
      "howto": "Complete waves 1 through 10 on all Snowblind Map Pack maps in Horde (any difficulty)"
    },
    {
      "id": 64,
      "imageId": 63,
      "cred": 25,
      "flags": 1,
      "label": "Icy Dead People",
      "description": "Team survived all 50 Horde waves on a Snowblind Map Pack map",
      "howto": "Complete waves 1 through 50 on any Snowblind Map Pack map in Horde (any difficulty) "
    },
    {
      "id": 65,
      "imageId": 64,
      "cred": 5,
      "flags": 1,
      "label": "Frigid Body Dynamics",
      "description": "Played in the snow on all of the Snowblind Map Pack maps",
      "howto": "Play a multiplayer match on each of the 4 Snowblind Map Pack maps (any mode)"
    },
    {
      "id": 66,
      "imageId": 67,
      "cred": 15,
      "flags": 1,
      "label": "The Weather Outside Is Lethal",
      "description": "Played in the snow and won on all of the Snowblind Map Pack maps",
      "howto": "Win a multiplayer match on each of the 4 Snowblind Map Pack maps (any mode)"
    },
    {
      "id": 67,
      "imageId": 74,
      "cred": 25,
      "flags": 1,
      "label": "My Way or the Highway",
      "description": "Made it through \"Road to Ruin\" dressed as a Theron Guard",
      "howto": "Without being detected, complete the \"Road to Ruin\" deleted scene after choosing the stealth option"
    },
    {
      "id": 68,
      "imageId": 71,
      "cred": 25,
      "flags": 1,
      "label": "Highway to Hell",
      "description": "Made it through \"Road to Ruin\" with nothing but vengeance on your mind",
      "howto": "Complete the \"Road to Ruin\" deleted scene after choosing the guns blazing option"
    },
    {
      "id": 69,
      "imageId": 77,
      "cred": 25,
      "flags": 1,
      "label": "Two for the Road",
      "description": "Made it through \"Road to Ruin\" with a friend",
      "howto": "Complete the \"Road to Ruin\" deleted scene in co-op as either Marcus or Dom"
    },
    {
      "id": 70,
      "imageId": 78,
      "cred": 10,
      "flags": 1,
      "label": "Be Careful What You Wish For",
      "description": "Reached level 8 and rocked Horde old school",
      "howto": "Reach level 8 in multiplayer and complete waves 1 - 10 on the War Machine map in Horde"
    },
    {
      "id": 71,
      "imageId": 76,
      "cred": 10,
      "flags": 1,
      "label": "Ride It All Night Long",
      "description": "Reached level 10 and hit the Horde Highway",
      "howto": "Reach level 10 in multiplayer and complete waves 1 - 10 on the Highway map in Horde"
    },
    {
      "id": 72,
      "imageId": 75,
      "cred": 15,
      "flags": 1,
      "label": "No, But His Face Rings a Bell",
      "description": "Reached level 15 and found some Horde Sanctuary",
      "howto": "Reach level 15 in multiplayer and complete waves 1 - 20 on the Sanctuary map in Horde"
    },
    {
      "id": 73,
      "imageId": 73,
      "cred": 20,
      "flags": 1,
      "label": "Lost in Transition",
      "description": "Reached level 20 and stopped at the Horde Way Station",
      "howto": "Reach level 20 in multiplayer and complete waves 1 - 20 on the Way Station map in Horde"
    },
    {
      "id": 74,
      "imageId": 72,
      "cred": 30,
      "flags": 1,
      "label": "Like Father, Like Gun",
      "description": "Reached level 30 and paid your Horde respects",
      "howto": "Reach level 30 in multiplayer and complete waves 1 - 30 on the Allfathers Garden map in Horde"
    },
    {
      "id": 75,
      "imageId": 69,
      "cred": 40,
      "flags": 1,
      "label": "Am I Only Dreaming?",
      "description": "Reached level 40 and Memorialized the Horde",
      "howto": "Reach level 40 in multiplayer and complete waves 1 - 40 on the Memorial map in Horde"
    },
    {
      "id": 76,
      "imageId": 70,
      "cred": 50,
      "flags": 1,
      "label": "Blood on the Sand",
      "description": "Reached level 50 and got Nowhere in Horde",
      "howto": "Reach level 50 in multiplayer and complete waves 1 - 50 on the Nowhere map in Horde"
    },
    {
      "id": 77,
      "imageId": 79,
      "cred": 20,
      "flags": 1,
      "label": "Afraid of the Dark",
      "description": "Played a match on all of the Dark Corners Map Pack maps",
      "howto": "Play a multiplayer match on each of the 7 Dark Corners Map Pack maps (any mode)"
    },
    {
      "id": 78,
      "imageId": 80,
      "cred": 30,
      "flags": 1,
      "label": "Did Not Go Gentle",
      "description": "Won a match on all of the Dark Corners Map Pack maps",
      "howto": "Win a multiplayer match on each of the 7 Dark Corners Map Pack maps (any mode)"
    },
    {
      "id": 79,
      "imageId": 81,
      "cred": 25,
      "flags": 1,
      "label": "Is It Hot or Is That Just You?",
      "description": "Cooked up some Bloodmount BBQ with 25 roastings",
      "howto": "Kill 25 Bloodmounts with a Scorcher while playing Horde on a Dark Corners Map Pack map"
    }
  ]
}