{
  "achievementsPossible": 46,
  "credPossible": 1000,
  "achievements": [
    {
      "id": 37,
      "imageId": 13,
      "cred": 5,
      "flags": 1,
      "label": "Teacher Beater",
      "description": "Prove your mettle to your secret mentor",
      "howto": "Prove your mettle to your secret mentor"
    },
    {
      "id": 38,
      "imageId": 48,
      "cred": 5,
      "flags": 1,
      "label": "Family Man",
      "description": "Obtain Ivy's agreement to marry you",
      "howto": "Obtain Ivy's agreement to marry you"
    },
    {
      "id": 39,
      "imageId": 39,
      "cred": 5,
      "flags": 1,
      "label": "Queenslayer",
      "description": "Defeat the loam vermin queen",
      "howto": "Defeat the loam vermin queen"
    },
    {
      "id": 41,
      "imageId": 42,
      "cred": 5,
      "flags": 1,
      "label": "Bane of the Bandits",
      "description": "Clear the bridge to Stewark",
      "howto": "Clear the bridge to Stewark"
    },
    {
      "id": 42,
      "imageId": 40,
      "cred": 15,
      "flags": 1,
      "label": "Kingmaker",
      "description": "Bring stability to Stewark",
      "howto": "Bring stability to Stewark"
    },
    {
      "id": 44,
      "imageId": 44,
      "cred": 15,
      "flags": 1,
      "label": "Champion of Silverlake",
      "description": "Obtain access to the Silverlake archives",
      "howto": "Obtain access to the Silverlake archives"
    },
    {
      "id": 45,
      "imageId": 9,
      "cred": 20,
      "flags": 1,
      "label": "Master of the Elements",
      "description": "Obtain an audience with the Grand Master of Water in Tooshoo",
      "howto": "Obtain an audience with the Grand Master of Water in Tooshoo"
    },
    {
      "id": 46,
      "imageId": 51,
      "cred": 25,
      "flags": 1,
      "label": "Chosen by Fire and Shadow",
      "description": "Learn the secrets of the abbots of the Sea Cliff Monastery",
      "howto": "Learn the secrets of the abbots of the Sea Cliff Monastery"
    },
    {
      "id": 47,
      "imageId": 27,
      "cred": 30,
      "flags": 1,
      "label": "Bad Dog",
      "description": "Defeat Jabo’s watchdog",
      "howto": "Defeat Jabo’s watchdog"
    },
    {
      "id": 48,
      "imageId": 22,
      "cred": 35,
      "flags": 1,
      "label": "Seeker",
      "description": "Gain access to the forgotten temple",
      "howto": "Gain access to the forgotten temple"
    },
    {
      "id": 49,
      "imageId": 45,
      "cred": 40,
      "flags": 1,
      "label": "Forged by Destiny",
      "description": "Claim the power of the divine forge",
      "howto": "Claim the power of the divine forge"
    },
    {
      "id": 50,
      "imageId": 41,
      "cred": 50,
      "flags": 1,
      "label": "Avenger",
      "description": "Obtain revenge for Feshyr",
      "howto": "Obtain revenge for Feshyr"
    },
    {
      "id": 51,
      "imageId": 10,
      "cred": 150,
      "flags": 1,
      "label": "Saviour",
      "description": "Defeat an ancient evil",
      "howto": "Defeat an ancient evil"
    },
    {
      "id": 52,
      "imageId": 20,
      "cred": 5,
      "flags": 7,
      "label": "Deft Hands",
      "description": "Craft your first item",
      "howto": "Craft your first item"
    },
    {
      "id": 53,
      "imageId": 19,
      "cred": 5,
      "flags": 7,
      "label": "First Blood",
      "description": "Emerge victorious from your first battle",
      "howto": "Emerge victorious from your first battle"
    },
    {
      "id": 54,
      "imageId": 50,
      "cred": 5,
      "flags": 7,
      "label": "Initiate",
      "description": "Annihilate an enemy with a spell",
      "howto": "Annihilate an enemy with a spell"
    },
    {
      "id": 55,
      "imageId": 49,
      "cred": 5,
      "flags": 7,
      "label": "Hunter",
      "description": "Finish an enemy off with a well-placed shot",
      "howto": "Finish an enemy off with a well-placed shot"
    },
    {
      "id": 56,
      "imageId": 8,
      "cred": 20,
      "flags": 7,
      "label": "Weaponsmith",
      "description": "Craft 5 weapons",
      "howto": "Craft 5 weapons"
    },
    {
      "id": 57,
      "imageId": 2,
      "cred": 20,
      "flags": 7,
      "label": "Alchemist",
      "description": "Brew 50 potions or elixirs",
      "howto": "Brew 50 potions or elixirs"
    },
    {
      "id": 58,
      "imageId": 30,
      "cred": 20,
      "flags": 7,
      "label": "Battlemage",
      "description": "Kill 100 enemies with magic",
      "howto": "Kill 100 enemies with magic"
    },
    {
      "id": 59,
      "imageId": 12,
      "cred": 20,
      "flags": 7,
      "label": "Champion",
      "description": "Kill 100 enemies with melee weapons",
      "howto": "Kill 100 enemies with melee weapons"
    },
    {
      "id": 60,
      "imageId": 34,
      "cred": 20,
      "flags": 7,
      "label": "Marksman",
      "description": "Kill 100 enemies with ranged weapons",
      "howto": "Kill 100 enemies with ranged weapons"
    },
    {
      "id": 61,
      "imageId": 31,
      "cred": 20,
      "flags": 7,
      "label": "Merchant",
      "description": "Sell 200 items",
      "howto": "Sell 200 items"
    },
    {
      "id": 62,
      "imageId": 53,
      "cred": 20,
      "flags": 7,
      "label": "Explorer",
      "description": "Cover more than 50Km on foot",
      "howto": "Cover more than 50Km on foot"
    },
    {
      "id": 63,
      "imageId": 47,
      "cred": 5,
      "flags": 7,
      "label": "Awakened",
      "description": "Reach Level 2",
      "howto": "Reach Level 2"
    },
    {
      "id": 64,
      "imageId": 36,
      "cred": 10,
      "flags": 7,
      "label": "Greenhorn",
      "description": "Reach Level 5",
      "howto": "Reach Level 5"
    },
    {
      "id": 65,
      "imageId": 55,
      "cred": 20,
      "flags": 7,
      "label": "Adventurer",
      "description": "Reach Level 10",
      "howto": "Reach Level 10"
    },
    {
      "id": 66,
      "imageId": 37,
      "cred": 40,
      "flags": 7,
      "label": "Veteran",
      "description": "Reach Level 20",
      "howto": "Reach Level 20"
    },
    {
      "id": 67,
      "imageId": 38,
      "cred": 20,
      "flags": 1,
      "label": "Legend",
      "description": "Reach Level 30",
      "howto": "Reach Level 30"
    },
    {
      "id": 72,
      "imageId": 52,
      "cred": 50,
      "flags": 7,
      "label": "Conqueror",
      "description": "Complete the game on the hardest difficulty level",
      "howto": "Complete the game on the hardest difficulty level"
    },
    {
      "id": 73,
      "imageId": 54,
      "cred": 20,
      "flags": 1,
      "label": "Deadly Adversary",
      "description": "Defeat 500 enemies",
      "howto": "Defeat 500 enemies"
    },
    {
      "id": 74,
      "imageId": 28,
      "cred": 25,
      "flags": 7,
      "label": "Army of One",
      "description": "Defeat 1000 enemies",
      "howto": "Defeat 1000 enemies"
    },
    {
      "id": 75,
      "imageId": 3,
      "cred": 20,
      "flags": 7,
      "label": "Richer than Diego",
      "description": "Hoard 200`000 pieces of gold",
      "howto": "Hoard 200`000 pieces of gold"
    },
    {
      "id": 76,
      "imageId": 24,
      "cred": 20,
      "flags": 7,
      "label": "Arcane Reaper",
      "description": "Kill 300 enemies with magic",
      "howto": "Kill 300 enemies with magic"
    },
    {
      "id": 78,
      "imageId": 23,
      "cred": 20,
      "flags": 7,
      "label": "Duelist",
      "description": "Kill 100 enemies with flurries",
      "howto": "Kill 100 enemies with flurries"
    },
    {
      "id": 79,
      "imageId": 25,
      "cred": 20,
      "flags": 7,
      "label": "Sniper",
      "description": "Kill 100 enemies with headshots",
      "howto": "Kill 100 enemies with headshots"
    },
    {
      "id": 81,
      "imageId": 33,
      "cred": 40,
      "flags": 7,
      "label": "Geek",
      "description": "Obtain all other achievements",
      "howto": "Obtain all other achievements"
    },
    {
      "id": 82,
      "imageId": 7,
      "cred": 5,
      "flags": 7,
      "label": "Chickenbane",
      "description": "Kill 10 chickens in the game",
      "howto": "Kill 10 chickens in the game"
    },
    {
      "id": 83,
      "imageId": 21,
      "cred": 10,
      "flags": 7,
      "label": "Glutton",
      "description": "Consume 200 items",
      "howto": "Consume 200 items"
    },
    {
      "id": 84,
      "imageId": 5,
      "cred": 10,
      "flags": 7,
      "label": "Knight in Shining Armor",
      "description": "Complete all quests",
      "howto": "Complete all quests"
    },
    {
      "id": 85,
      "imageId": 6,
      "cred": 10,
      "flags": 7,
      "label": "Master Chef",
      "description": "Learn all recipes",
      "howto": "Learn all recipes"
    },
    {
      "id": 86,
      "imageId": 4,
      "cred": 10,
      "flags": 7,
      "label": "Jackrabbit",
      "description": "Jump 1000 Times",
      "howto": "Jump 1000 Times"
    },
    {
      "id": 87,
      "imageId": 29,
      "cred": 10,
      "flags": 7,
      "label": "Relaxed Attitude",
      "description": "Use beds or chairs for 60 minutes",
      "howto": "Use beds or chairs for 60 minutes"
    },
    {
      "id": 88,
      "imageId": 14,
      "cred": 25,
      "flags": 7,
      "label": "Ancient Treasure",
      "description": "Obtain all ancient relics",
      "howto": "Obtain all ancient relics"
    },
    {
      "id": 89,
      "imageId": 16,
      "cred": 25,
      "flags": 1,
      "label": "Radiant Blessing",
      "description": "Obtain all Innos statuettes",
      "howto": "Obtain all Innos statuettes"
    },
    {
      "id": 90,
      "imageId": 15,
      "cred": 25,
      "flags": 1,
      "label": "Dark Reward",
      "description": "Obtain all Beliar artifacts",
      "howto": "Obtain all Beliar artifacts"
    }
  ]
}