{
  "achievementsPossible": 12,
  "credPossible": 200,
  "achievements": [
    {
      "id": 1,
      "imageId": 11,
      "cred": 10,
      "flags": 4,
      "label": "Friend of Wally",
      "description": "Built a habitat for Wally",
      "howto": "Built a habitat for Wally"
    },
    {
      "id": 2,
      "imageId": 10,
      "cred": 15,
      "flags": 1,
      "label": "Fed and Entertained",
      "description": "Completed Adventure Story Chapter 8: Military Madness",
      "howto": "Completed Adventure Story Chapter 8: Military Madness"
    },
    {
      "id": 3,
      "imageId": 12,
      "cred": 15,
      "flags": 1,
      "label": "Honorary Fish",
      "description": "Completed Adventure Story Chapter 10: Deja Vu",
      "howto": "Completed Adventure Story Chapter 10: Deja Vu"
    },
    {
      "id": 4,
      "imageId": 1,
      "cred": 20,
      "flags": 1,
      "label": "Adventure Story Complete",
      "description": "Finished the Adventure Story",
      "howto": "Finished the Adventure Story"
    },
    {
      "id": 5,
      "imageId": 2,
      "cred": 25,
      "flags": 1,
      "label": "Adventure Story Gold",
      "description": "Finished the Adventure Story with all gold medals",
      "howto": "Finished the Adventure Story with all gold medals"
    },
    {
      "id": 6,
      "imageId": 5,
      "cred": 15,
      "flags": 1,
      "label": "Marksman",
      "description": "Completed War Story Mission 4: Into the Warp",
      "howto": "Completed War Story Mission 4: Into the Warp"
    },
    {
      "id": 7,
      "imageId": 6,
      "cred": 15,
      "flags": 4,
      "label": "Max Power",
      "description": "Convinced Max Power to lend a hand in War Story Mission 6: The Attack",
      "howto": "Convinced Max Power to lend a hand in War Story Mission 6: The Attack"
    },
    {
      "id": 8,
      "imageId": 3,
      "cred": 15,
      "flags": 1,
      "label": "War Story Complete",
      "description": "Finished the War Story",
      "howto": "Finished the War Story"
    },
    {
      "id": 9,
      "imageId": 4,
      "cred": 20,
      "flags": 1,
      "label": "War Story Gold",
      "description": "Finished the War Story with all gold medals",
      "howto": "Finished the War Story with all gold medals"
    },
    {
      "id": 10,
      "imageId": 7,
      "cred": 15,
      "flags": 1,
      "label": "Eight-Port Master",
      "description": "Master of The Eight-Port Challenge",
      "howto": "Master of The Eight-Port Challenge"
    },
    {
      "id": 11,
      "imageId": 8,
      "cred": 20,
      "flags": 1,
      "label": "Sir Protector From Asteroids",
      "description": "Completed The Hammer Scenario",
      "howto": "Completed The Hammer Scenario"
    },
    {
      "id": 12,
      "imageId": 9,
      "cred": 15,
      "flags": 1,
      "label": "Survivor",
      "description": "Achieved a Gold Medal time in the Survival scenario",
      "howto": "Achieved a Gold Medal time in the Survival scenario"
    }
  ]
}