{
  "achievementsPossible": 41,
  "credPossible": 1000,
  "achievements": [
    {
      "id": 2,
      "imageId": 2,
      "cred": 15,
      "flags": 6,
      "label": "History is created!",
      "description": "WWE Universe - Cash in Money in the Bank and win using a Custom Superstar (Single player).",
      "howto": "WWE Universe - Cash in Money in the Bank and win using a Custom Superstar (Single player)."
    },
    {
      "id": 3,
      "imageId": 3,
      "cred": 30,
      "flags": 6,
      "label": "Mr. Money in the Bank",
      "description": "WWE Universe - Win Money in the Bank using a Custom Superstar (Single player).",
      "howto": "WWE Universe - Win Money in the Bank using a Custom Superstar (Single player)."
    },
    {
      "id": 4,
      "imageId": 4,
      "cred": 40,
      "flags": 6,
      "label": "A once in a lifetime event",
      "description": "WWE Universe - Complete a WrestleMania match using a Custom Superstar (Single player).",
      "howto": "WWE Universe - Complete a WrestleMania match using a Custom Superstar (Single player)."
    },
    {
      "id": 5,
      "imageId": 5,
      "cred": 15,
      "flags": 6,
      "label": "A Superstar is born!",
      "description": "WWE Universe - Win a match using a Custom Superstar (Single player).",
      "howto": "WWE Universe - Win a match using a Custom Superstar (Single player)."
    },
    {
      "id": 6,
      "imageId": 6,
      "cred": 20,
      "flags": 6,
      "label": "Watch out!",
      "description": "Successfully reverse a Finisher (Single player).",
      "howto": "Successfully reverse a Finisher (Single player)."
    },
    {
      "id": 7,
      "imageId": 7,
      "cred": 20,
      "flags": 6,
      "label": "It's like a car crash!",
      "description": "Break the barricade in 2 places in the same match (Single player).",
      "howto": "Break the barricade in 2 places in the same match (Single player)."
    },
    {
      "id": 8,
      "imageId": 8,
      "cred": 20,
      "flags": 6,
      "label": "Comeback!",
      "description": "Successfully perform a Comeback Move (Single player).",
      "howto": "Successfully perform a Comeback Move (Single player)."
    },
    {
      "id": 9,
      "imageId": 9,
      "cred": 30,
      "flags": 6,
      "label": "You can't let down your guard",
      "description": "Land a Catch or Catapult Finisher (Single Player).",
      "howto": "Land a Catch or Catapult Finisher (Single Player)."
    },
    {
      "id": 10,
      "imageId": 10,
      "cred": 20,
      "flags": 6,
      "label": "A winning combination!",
      "description": "Use a wake-up taunt, land a Finisher, and immediately Pin your opponent (Single player).",
      "howto": "Use a wake-up taunt, land a Finisher, and immediately Pin your opponent (Single player)."
    },
    {
      "id": 11,
      "imageId": 11,
      "cred": 20,
      "flags": 6,
      "label": "Fighting smart",
      "description": "Attack the same body part using Limb Targeting 10 times in a single match (Single player).",
      "howto": "Attack the same body part using Limb Targeting 10 times in a single match (Single player)."
    },
    {
      "id": 12,
      "imageId": 12,
      "cred": 30,
      "flags": 6,
      "label": "Reached the ropes!",
      "description": "Crawl to the ropes during a submission (Single player).",
      "howto": "Crawl to the ropes during a submission (Single player)."
    },
    {
      "id": 13,
      "imageId": 13,
      "cred": 20,
      "flags": 6,
      "label": "Oh my!",
      "description": "Break the Announce Table with an OMG Move (Single player).",
      "howto": "Break the Announce Table with an OMG Move (Single player)."
    },
    {
      "id": 14,
      "imageId": 14,
      "cred": 15,
      "flags": 6,
      "label": "This is my yard!",
      "description": "Play a match in an arena created in Create-An-Arena mode.",
      "howto": "Play a match in an arena created in Create-An-Arena mode."
    },
    {
      "id": 15,
      "imageId": 15,
      "cred": 50,
      "flags": 6,
      "label": "Invincible man",
      "description": "Win at least 20 matches on Hard difficulty or higher in Universe or Play Mode (Single player).",
      "howto": "Win at least 20 matches on Hard difficulty or higher in Universe or Play Mode (Single player)."
    },
    {
      "id": 16,
      "imageId": 16,
      "cred": 15,
      "flags": 6,
      "label": "A fresh beginning",
      "description": "Play in an Xbox Live match (Player match/Ranked match).",
      "howto": "Play in an Xbox Live match (Player match/Ranked match)."
    },
    {
      "id": 17,
      "imageId": 17,
      "cred": 50,
      "flags": 6,
      "label": "A winner is you!",
      "description": "Win 10 ranked matches.",
      "howto": "Win 10 ranked matches."
    },
    {
      "id": 18,
      "imageId": 18,
      "cred": 15,
      "flags": 6,
      "label": "Woo Woo Woo!!!",
      "description": "Create a Custom Superstar that is set up with a social account.",
      "howto": "Create a Custom Superstar that is set up with a social account."
    },
    {
      "id": 19,
      "imageId": 19,
      "cred": 15,
      "flags": 6,
      "label": "One of a Kind Superstar",
      "description": "Create a Custom Superstar that uses a Superstar head.",
      "howto": "Create a Custom Superstar that uses a Superstar head."
    },
    {
      "id": 20,
      "imageId": 20,
      "cred": 15,
      "flags": 6,
      "label": "Entrance Designer",
      "description": "Create a Custom Entrance that includes a prop.",
      "howto": "Create a Custom Entrance that includes a prop."
    },
    {
      "id": 21,
      "imageId": 21,
      "cred": 30,
      "flags": 6,
      "label": "Legend Killer",
      "description": "Defeat the Streak - Defeat Undertaker.",
      "howto": "Defeat the Streak - Defeat Undertaker."
    },
    {
      "id": 22,
      "imageId": 22,
      "cred": 50,
      "flags": 6,
      "label": "Epic Match",
      "description": "Defeat the Streak - Kick out of a Pin from Undertaker 5 times in a single match.",
      "howto": "Defeat the Streak - Kick out of a Pin from Undertaker 5 times in a single match."
    },
    {
      "id": 23,
      "imageId": 23,
      "cred": 50,
      "flags": 6,
      "label": "Rest in peace",
      "description": "Unlock all of the WrestleMania match photos in Defeat The Streak.",
      "howto": "Unlock all of the WrestleMania match photos in Defeat The Streak."
    },
    {
      "id": 24,
      "imageId": 24,
      "cred": 15,
      "flags": 6,
      "label": "The Phenom",
      "description": "Defend The Streak - Play a Defend The Streak match to its natural conclusion, win or lose.",
      "howto": "Defend The Streak - Play a Defend The Streak match to its natural conclusion, win or lose."
    },
    {
      "id": 25,
      "imageId": 25,
      "cred": 20,
      "flags": 6,
      "label": "The Deadman",
      "description": "Defend the Streak - Defeat 10 Superstars in a single match.",
      "howto": "Defend the Streak - Defeat 10 Superstars in a single match."
    },
    {
      "id": 27,
      "imageId": 26,
      "cred": 40,
      "flags": 6,
      "label": "The Demon of Death Valley",
      "description": "Defend the Streak - Defeat 30 Superstars in a single match.",
      "howto": "Defend the Streak - Defeat 30 Superstars in a single match."
    },
    {
      "id": 28,
      "imageId": 27,
      "cred": 50,
      "flags": 6,
      "label": "Lord of Darkness",
      "description": "Defend the Streak - Defeat 50 Superstars in a single match.",
      "howto": "Defend the Streak - Defeat 50 Superstars in a single match."
    },
    {
      "id": 29,
      "imageId": 28,
      "cred": 15,
      "flags": 6,
      "label": "Hulkamania Runs Wild",
      "description": "Complete chapter 1 in 30 Years of WrestleMania.",
      "howto": "Complete chapter 1 in 30 Years of WrestleMania."
    },
    {
      "id": 30,
      "imageId": 29,
      "cred": 15,
      "flags": 6,
      "label": "A New Generation",
      "description": "Complete chapter 2 in 30 Years of WrestleMania.",
      "howto": "Complete chapter 2 in 30 Years of WrestleMania."
    },
    {
      "id": 31,
      "imageId": 30,
      "cred": 15,
      "flags": 6,
      "label": "The Attitude Era",
      "description": "Complete chapter 3 in 30 Years of WrestleMania.",
      "howto": "Complete chapter 3 in 30 Years of WrestleMania."
    },
    {
      "id": 32,
      "imageId": 31,
      "cred": 15,
      "flags": 6,
      "label": "Ruthless Aggression",
      "description": "Complete chapter 4 in 30 Years of WrestleMania.",
      "howto": "Complete chapter 4 in 30 Years of WrestleMania."
    },
    {
      "id": 33,
      "imageId": 32,
      "cred": 15,
      "flags": 6,
      "label": "The Universe Era",
      "description": "Complete chapter 5 in 30 Years of WrestleMania.",
      "howto": "Complete chapter 5 in 30 Years of WrestleMania."
    },
    {
      "id": 34,
      "imageId": 33,
      "cred": 30,
      "flags": 6,
      "label": "WrestleMania!",
      "description": "Complete all historical objectives in 30 Years of WrestleMania.",
      "howto": "Complete all historical objectives in 30 Years of WrestleMania."
    },
    {
      "id": 35,
      "imageId": 34,
      "cred": 15,
      "flags": 6,
      "label": "For All Hulkamaniacs",
      "description": "30 Years of WM - WM 9 - Hogan vs. Yokozuna - Win the match.",
      "howto": "30 Years of WM - WM 9 - Hogan vs. Yokozuna - Win the match."
    },
    {
      "id": 36,
      "imageId": 35,
      "cred": 15,
      "flags": 6,
      "label": "Sudden death",
      "description": "30 Years of WM - WM 12 - Bret Hart vs. HBK - Reach the time limit with no winner.",
      "howto": "30 Years of WM - WM 12 - Bret Hart vs. HBK - Reach the time limit with no winner."
    },
    {
      "id": 37,
      "imageId": 36,
      "cred": 15,
      "flags": 6,
      "label": "But he still didn't give up!",
      "description": "30 Years of WM - Complete all of the Hidden Objectives in WM13.",
      "howto": "30 Years of WM - Complete all of the Hidden Objectives in WM13."
    },
    {
      "id": 38,
      "imageId": 37,
      "cred": 15,
      "flags": 6,
      "label": "Final impact",
      "description": "30 Years of WM - WM 17 - The Rock vs. Stone Cold - Hit a critically damaged Rock with a chair.",
      "howto": "30 Years of WM - WM 17 - The Rock vs. Stone Cold - Hit a critically damaged Rock with a chair."
    },
    {
      "id": 39,
      "imageId": 38,
      "cred": 20,
      "flags": 6,
      "label": "The Big Red Monster",
      "description": "Eliminate 11 opponents with the same Superstar in a single Royal Rumble match (Single player).",
      "howto": "Eliminate 11 opponents with the same Superstar in a single Royal Rumble match (Single player)."
    },
    {
      "id": 42,
      "imageId": 39,
      "cred": 20,
      "flags": 6,
      "label": "Finish Them!",
      "description": "Perform an OMG \"Shell Shocked\" (Single player).",
      "howto": "Perform an OMG \"Shell Shocked\" (Single player)."
    },
    {
      "id": 43,
      "imageId": 40,
      "cred": 50,
      "flags": 6,
      "label": "Feed me more!",
      "description": "Win at least 50 matches on Hard difficulty or higher in Universe or Play Mode (Single player).",
      "howto": "Win at least 50 matches on Hard difficulty or higher in Universe or Play Mode (Single player)."
    },
    {
      "id": 44,
      "imageId": 41,
      "cred": 20,
      "flags": 6,
      "label": "Hall of pain",
      "description": "Defeat a total of 10 opponents by K.O. (Single player).",
      "howto": "Defeat a total of 10 opponents by K.O. (Single player)."
    },
    {
      "id": 62,
      "imageId": 42,
      "cred": 15,
      "flags": 1,
      "label": "Excuse me!",
      "description": "WWE Universe - Establish a rivalry.",
      "howto": "WWE Universe - Establish a rivalry."
    }
  ]
}