{
  "avatarAssetsPossible": 3,
  "maleAvatarAssetsPossible": 0,
  "femaleAvatarAssetsPossible": 0,
  "avatarAssets": [
    {
      "id": "00000544-0001-41c3-c86e-f2114d5309d6",
      "imageId": 88,
      "subcategory": 0,
      "unknown": 0,
      "isMale": false,
      "isFemale": false,
      "isUnisex": true,
      "label": "Kinect Sports Football Hat",
      "description": "Show your love for all things football with this award for reaching fan level 2. I’m so jealous!",
      "howto": "Show your love for all things football with this award for reaching fan level 2. I’m so jealous!"
    },
    {
      "id": "00000040-0002-0113-c547-8b344d5309d6",
      "imageId": 86,
      "subcategory": 0,
      "unknown": 2015221016,
      "isMale": false,
      "isFemale": false,
      "isUnisex": true,
      "label": "Kinect Sports Darts Top Hat",
      "description": "Stay on target throughout your career with this awesome award for reaching level 5. Woohoo! ",
      "howto": "Stay on target throughout your career with this awesome award for reaching level 5. Woohoo! "
    },
    {
      "id": "00000040-0003-61f3-c7e6-904d4d5309d6",
      "imageId": 84,
      "subcategory": 0,
      "unknown": 2015221016,
      "isMale": false,
      "isFemale": false,
      "isUnisex": true,
      "label": "Kinect Sports Golf Green Cap",
      "description": "Impress everyone at the clubhouse with this award for reaching the dizzy heights of fan level 10.  ",
      "howto": "Impress everyone at the clubhouse with this award for reaching the dizzy heights of fan level 10.  "
    }
  ]
}