{
  "achievementsPossible": 20,
  "credPossible": 400,
  "achievements": [
    {
      "id": 1,
      "imageId": 30,
      "cred": 5,
      "flags": 1,
      "label": "Firsties!",
      "description": "Complete the first main mission objective.",
      "howto": "Complete the first main mission objective."
    },
    {
      "id": 2,
      "imageId": 16,
      "cred": 10,
      "flags": 1,
      "label": "Twofer",
      "description": "Kill two enemy vehicles with one rocket.",
      "howto": "Kill two enemy vehicles with one rocket."
    },
    {
      "id": 3,
      "imageId": 18,
      "cred": 20,
      "flags": 1,
      "label": "Dead Island",
      "description": "Purge the island of the dead.",
      "howto": "Purge the island of the dead."
    },
    {
      "id": 4,
      "imageId": 27,
      "cred": 15,
      "flags": 1,
      "label": "Pointdexter",
      "description": "Score at least 500,000 points in a single mission.",
      "howto": "Score at least 500,000 points in a single mission."
    },
    {
      "id": 5,
      "imageId": 24,
      "cred": 30,
      "flags": 1,
      "label": "Pedro 4 Prez",
      "description": "Find and eliminate Pedro in all locations.",
      "howto": "Find and eliminate Pedro in all locations."
    },
    {
      "id": 6,
      "imageId": 28,
      "cred": 25,
      "flags": 1,
      "label": "Lord of the Skies",
      "description": "Kill 100 enemy helicopters.",
      "howto": "Kill 100 enemy helicopters."
    },
    {
      "id": 7,
      "imageId": 15,
      "cred": 20,
      "flags": 1,
      "label": "Demolicious",
      "description": "Destroy 1,000 buildings.",
      "howto": "Destroy 1,000 buildings."
    },
    {
      "id": 8,
      "imageId": 31,
      "cred": 5,
      "flags": 1,
      "label": "Team Playa",
      "description": "Complete a mission in co-op mode.",
      "howto": "Complete a mission in co-op mode."
    },
    {
      "id": 9,
      "imageId": 33,
      "cred": 15,
      "flags": 1,
      "label": "Parselmouth",
      "description": "Complete the 'Stomp The Snake' mission on expert difficulty level in co-op mode.",
      "howto": "Complete the 'Stomp The Snake' mission on expert difficulty level in co-op mode."
    },
    {
      "id": 10,
      "imageId": 26,
      "cred": 20,
      "flags": 1,
      "label": "Rock It Man",
      "description": "Complete a (non-tutorial) mission using only rockets.",
      "howto": "Complete a (non-tutorial) mission using only rockets."
    },
    {
      "id": 11,
      "imageId": 19,
      "cred": 25,
      "flags": 1,
      "label": "Gun Guru",
      "description": "Complete a (non-tutorial) mission using only the machine gun.",
      "howto": "Complete a (non-tutorial) mission using only the machine gun."
    },
    {
      "id": 12,
      "imageId": 23,
      "cred": 15,
      "flags": 1,
      "label": "High Five!",
      "description": "Destroy your chopper with your own guided rocket.",
      "howto": "Destroy your chopper with your own guided rocket."
    },
    {
      "id": 13,
      "imageId": 32,
      "cred": 30,
      "flags": 1,
      "label": "Crate Soulmate",
      "description": "Collect all 25 crates hidden in various locations.",
      "howto": "Collect all 25 crates hidden in various locations."
    },
    {
      "id": 14,
      "imageId": 29,
      "cred": 20,
      "flags": 1,
      "label": "Quickie",
      "description": "Complete a (non-tutorial) mission in 8 minutes or less.",
      "howto": "Complete a (non-tutorial) mission in 8 minutes or less."
    },
    {
      "id": 15,
      "imageId": 21,
      "cred": 20,
      "flags": 1,
      "label": "Kamikaze",
      "description": "Kill 10 vehicles by smashing into them.",
      "howto": "Kill 10 vehicles by smashing into them."
    },
    {
      "id": 16,
      "imageId": 25,
      "cred": 25,
      "flags": 1,
      "label": "Bossfight Like A Boss",
      "description": "Kill a boss/miniboss by smashing into it.",
      "howto": "Kill a boss/miniboss by smashing into it."
    },
    {
      "id": 17,
      "imageId": 14,
      "cred": 15,
      "flags": 1,
      "label": "Obtainer of the Lost Ark",
      "description": "Locate and winch up the Lost Ark.",
      "howto": "Locate and winch up the Lost Ark."
    },
    {
      "id": 18,
      "imageId": 17,
      "cred": 25,
      "flags": 1,
      "label": "Get to the choppa!",
      "description": "Complete at least one mission with each helicopter.",
      "howto": "Complete at least one mission with each helicopter."
    },
    {
      "id": 19,
      "imageId": 22,
      "cred": 30,
      "flags": 1,
      "label": "Courage Wolf",
      "description": "Complete all levels at least normal difficulty.",
      "howto": "Complete all levels at least normal difficulty."
    },
    {
      "id": 20,
      "imageId": 34,
      "cred": 30,
      "flags": 1,
      "label": "Star Wolf",
      "description": "Get all stars in all missions.",
      "howto": "Get all stars in all missions."
    }
  ]
}