{
  "achievementsPossible": 12,
  "credPossible": 200,
  "achievements": [
    {
      "id": 1,
      "imageId": 2,
      "cred": 10,
      "flags": 6,
      "label": "Yellow Wizard",
      "description": "Survive 30 minutes on any stage in E4, The Game Unlimited mode.",
      "howto": "Survive 30 minutes on any stage in E4, The Game Unlimited mode."
    },
    {
      "id": 2,
      "imageId": 3,
      "cred": 15,
      "flags": 6,
      "label": "Hide And Seek",
      "description": "Stay alive for 60 seconds without a shield in E4, The Game Unlimited mode.",
      "howto": "Stay alive for 60 seconds without a shield in E4, The Game Unlimited mode."
    },
    {
      "id": 3,
      "imageId": 4,
      "cred": 20,
      "flags": 6,
      "label": "Quicken'ist",
      "description": "Collect 50 Quicken in E4, The Game Time Limited mode.",
      "howto": "Collect 50 Quicken in E4, The Game Time Limited mode."
    },
    {
      "id": 4,
      "imageId": 5,
      "cred": 20,
      "flags": 6,
      "label": "Blue Wizard",
      "description": "Earn 15 Trillion points on any stage of E4, The Game Unlimited mode.",
      "howto": "Earn 15 Trillion points on any stage of E4, The Game Unlimited mode."
    },
    {
      "id": 5,
      "imageId": 6,
      "cred": 20,
      "flags": 6,
      "label": "Connoisseur",
      "description": "Earn 125 points in ratings.",
      "howto": "Earn 125 points in ratings."
    },
    {
      "id": 6,
      "imageId": 7,
      "cred": 15,
      "flags": 6,
      "label": "Power Player",
      "description": "Achieve 10 consecutive Beat Bonuses in E4, The Game Time Limited mode.",
      "howto": "Achieve 10 consecutive Beat Bonuses in E4, The Game Time Limited mode."
    },
    {
      "id": 7,
      "imageId": 8,
      "cred": 10,
      "flags": 6,
      "label": "Silver Shooter",
      "description": "Clear Stage 25 on the R4, The Revenge mode.",
      "howto": "Clear Stage 25 on the R4, The Revenge mode."
    },
    {
      "id": 8,
      "imageId": 9,
      "cred": 20,
      "flags": 6,
      "label": "Gold Shooter",
      "description": "Clear Stage 100 on the R4, The Revenge mode.",
      "howto": "Clear Stage 100 on the R4, The Revenge mode."
    },
    {
      "id": 9,
      "imageId": 10,
      "cred": 10,
      "flags": 6,
      "label": "Chain Master",
      "description": "Create more than 1000 chain reactions in E4, The Game Unlimited mode.",
      "howto": "Create more than 1000 chain reactions in E4, The Game Unlimited mode."
    },
    {
      "id": 10,
      "imageId": 11,
      "cred": 20,
      "flags": 6,
      "label": "Chain Wizard",
      "description": "Create more than 2000 chain reactions in E4, The Game Unlimited mode.",
      "howto": "Create more than 2000 chain reactions in E4, The Game Unlimited mode."
    },
    {
      "id": 11,
      "imageId": 12,
      "cred": 30,
      "flags": 6,
      "label": "Master of Extreme",
      "description": "Achieve 5 consecutive Beat Bonuses while on a x100 score multiplier in E4, The Game Unlimited.",
      "howto": "Achieve 5 consecutive Beat Bonuses while on a x100 score multiplier in E4, The Game Unlimited."
    },
    {
      "id": 12,
      "imageId": 13,
      "cred": 10,
      "flags": 6,
      "label": "Big Head",
      "description": "20 wins in H4, Versus Live.",
      "howto": "20 wins in H4, Versus Live."
    }
  ]
}