{
  "avatarAssetsPossible": 2,
  "maleAvatarAssetsPossible": 1,
  "femaleAvatarAssetsPossible": 1,
  "avatarAssets": [
    {
      "id": "00000008-0001-0121-c795-52cdfffe07fb",
      "imageId": 2,
      "subcategory": 0,
      "unknown": 0,
      "isMale": true,
      "isFemale": false,
      "isUnisex": false,
      "label": "Spring 09 Beta Male Shirt",
      "description": "Thank you for participating in the Xbox 360 Spring 09 Beta!",
      "howto": "Thank you for participating in the Xbox 360 Spring 09 Beta!\r\n"
    },
    {
      "id": "00000008-0001-d1e2-cd20-4598fffe07fb",
      "imageId": 3,
      "subcategory": 0,
      "unknown": 2013287320,
      "isMale": false,
      "isFemale": true,
      "isUnisex": false,
      "label": "Spring 09 Beta Female Shirt",
      "description": "Thank you for participating in the Xbox 360 Spring 09 Beta!",
      "howto": "Thank you for participating in the Xbox 360 Spring 09 Beta!\r\n"
    }
  ]
}