{
  "achievementsPossible": 30,
  "credPossible": 400,
  "achievements": [
    {
      "id": 1,
      "imageId": 1,
      "cred": 20,
      "flags": 1,
      "label": "I Can Save The World",
      "description": "Get the good ending.",
      "howto": "Get the good ending."
    },
    {
      "id": 2,
      "imageId": 2,
      "cred": 15,
      "flags": 1,
      "label": "I Can Destroy The World",
      "description": "Get the bad ending.",
      "howto": "Get the bad ending."
    },
    {
      "id": 3,
      "imageId": 19,
      "cred": 20,
      "flags": 1,
      "label": "I'm The King of Rock and Roll",
      "description": "Get the good ending (Chaos playthrough)",
      "howto": "Get the good ending (Chaos playthrough)"
    },
    {
      "id": 4,
      "imageId": 18,
      "cred": 20,
      "flags": 1,
      "label": "I'm All Sorts of Famous",
      "description": "Get the good ending (Total Anarchy playthrough)",
      "howto": "Get the good ending (Total Anarchy playthrough)"
    },
    {
      "id": 5,
      "imageId": 3,
      "cred": 15,
      "flags": 1,
      "label": "I Fixed Your Heart",
      "description": "Resuscitate a downed bandmate.",
      "howto": "Resuscitate a downed bandmate."
    },
    {
      "id": 6,
      "imageId": 4,
      "cred": 20,
      "flags": 1,
      "label": "I'm a Serious Musician",
      "description": "Get 100% on any music minigame part.",
      "howto": "Get 100% on any music minigame part."
    },
    {
      "id": 7,
      "imageId": 5,
      "cred": 10,
      "flags": 1,
      "label": "I'm a Knife-Wielding Lunatic",
      "description": "Sever some limbs while dual-wielding machetes.",
      "howto": "Sever some limbs while dual-wielding machetes."
    },
    {
      "id": 8,
      "imageId": 6,
      "cred": 10,
      "flags": 1,
      "label": "I Made a Garden of Skulls",
      "description": "Make a cluster of 5 healing totems.",
      "howto": "Make a cluster of 5 healing totems."
    },
    {
      "id": 9,
      "imageId": 7,
      "cred": 10,
      "flags": 1,
      "label": "I Demolished You With The 80's.",
      "description": "Crush an enemy beneath an arcade machine.",
      "howto": "Crush an enemy beneath an arcade machine."
    },
    {
      "id": 10,
      "imageId": 8,
      "cred": 15,
      "flags": 1,
      "label": "I Steal Your Soul",
      "description": "Rob 7 enemies of their souls.",
      "howto": "Rob 7 enemies of their souls."
    },
    {
      "id": 11,
      "imageId": 9,
      "cred": 10,
      "flags": 1,
      "label": "I Got a Tattoo",
      "description": "Get your first tattoo! You look great.",
      "howto": "Get your first tattoo! You look great."
    },
    {
      "id": 12,
      "imageId": 10,
      "cred": 20,
      "flags": 1,
      "label": "I'm All Inked Up",
      "description": "Get ALL tattoos. Now you're a mage.",
      "howto": "Get ALL tattoos. Now you're a mage."
    },
    {
      "id": 13,
      "imageId": 11,
      "cred": 10,
      "flags": 1,
      "label": "I'm a Uniter",
      "description": "Host a team attack, join a team attack.",
      "howto": "Host a team attack, join a team attack."
    },
    {
      "id": 14,
      "imageId": 12,
      "cred": 15,
      "flags": 1,
      "label": "I Melt Your Face a Thousand Ways",
      "description": "Poison, burn, melt, shock, explode, and shatter your foes.",
      "howto": "Poison, burn, melt, shock, explode, and shatter your foes."
    },
    {
      "id": 15,
      "imageId": 13,
      "cred": 20,
      "flags": 1,
      "label": "I Gave Them a Show",
      "description": "Defeat King Tepes.",
      "howto": "Defeat King Tepes."
    },
    {
      "id": 16,
      "imageId": 14,
      "cred": 20,
      "flags": 1,
      "label": "I Battled a Ghost",
      "description": "Defeat Lord Mortimer's phantom.",
      "howto": "Defeat Lord Mortimer's phantom."
    },
    {
      "id": 17,
      "imageId": 15,
      "cred": 10,
      "flags": 1,
      "label": "I Brought Down a Giant",
      "description": "Defeat the Boss Monster.",
      "howto": "Defeat the Boss Monster."
    },
    {
      "id": 18,
      "imageId": 16,
      "cred": 10,
      "flags": 1,
      "label": "I'm a Brewmaster",
      "description": "Craft a beer.",
      "howto": "Craft a beer."
    },
    {
      "id": 19,
      "imageId": 17,
      "cred": 20,
      "flags": 1,
      "label": "I'm Thorough",
      "description": "Find all relics.",
      "howto": "Find all relics."
    },
    {
      "id": 20,
      "imageId": 20,
      "cred": 10,
      "flags": 1,
      "label": "I Have an Army",
      "description": "Unlock an alternate band from the Sceniverse.",
      "howto": "Unlock an alternate band from the Sceniverse."
    },
    {
      "id": 21,
      "imageId": 53,
      "cred": 10,
      "flags": 1,
      "label": "I'm Cemetery Go Go Go",
      "description": "Defeat Circe Bathory in St. Sanders Cemetery.",
      "howto": "Defeat Circe Bathory in St. Sanders Cemetery."
    },
    {
      "id": 22,
      "imageId": 52,
      "cred": 10,
      "flags": 1,
      "label": "I Removed a Stain",
      "description": "Defeat the Lady in Tatters.",
      "howto": "Defeat the Lady in Tatters."
    },
    {
      "id": 23,
      "imageId": 51,
      "cred": 10,
      "flags": 1,
      "label": "I Cut the Supply Chain",
      "description": "Defeat the Infested Roadie.",
      "howto": "Defeat the Infested Roadie."
    },
    {
      "id": 24,
      "imageId": 50,
      "cred": 10,
      "flags": 1,
      "label": "I'm an Exorcist",
      "description": "Defeat Beelzebaal.",
      "howto": "Defeat Beelzebaal."
    },
    {
      "id": 25,
      "imageId": 49,
      "cred": 10,
      "flags": 1,
      "label": "I'm a Reverse Repairman",
      "description": "Defeat the Wretched Electronics.",
      "howto": "Defeat the Wretched Electronics."
    },
    {
      "id": 26,
      "imageId": 48,
      "cred": 10,
      "flags": 1,
      "label": "I'm the Hunter",
      "description": "Defeat Vlad The Eternally Cold.",
      "howto": "Defeat Vlad The Eternally Cold."
    },
    {
      "id": 27,
      "imageId": 47,
      "cred": 10,
      "flags": 1,
      "label": "I Earned an Organ",
      "description": "Defeat the Gory Mound.",
      "howto": "Defeat the Gory Mound."
    },
    {
      "id": 28,
      "imageId": 46,
      "cred": 10,
      "flags": 1,
      "label": "I Collected a Being",
      "description": "Accumulate Smockula's Body.",
      "howto": "Accumulate Smockula's Body."
    },
    {
      "id": 29,
      "imageId": 45,
      "cred": 10,
      "flags": 1,
      "label": "I Like it Better This Way",
      "description": "Dye some clothes. How does that look?",
      "howto": "Dye some clothes. How does that look?"
    },
    {
      "id": 30,
      "imageId": 44,
      "cred": 10,
      "flags": 1,
      "label": "I'll Give Birth to a King",
      "description": "Eat a heart while in female form.",
      "howto": "Eat a heart while in female form."
    }
  ]
}