{
  "achievementsPossible": 37,
  "credPossible": 1000,
  "achievements": [
    {
      "id": 1,
      "imageId": 4,
      "cred": 20,
      "flags": 6,
      "label": "Make the Jump",
      "description": "Infiltrate a cargo ship",
      "howto": "Infiltrate a cargo ship"
    },
    {
      "id": 2,
      "imageId": 9,
      "cred": 20,
      "flags": 6,
      "label": "Earn a Winged Dagger",
      "description": "Complete 'F.N.G.'",
      "howto": "Complete 'F.N.G.'"
    },
    {
      "id": 3,
      "imageId": 8,
      "cred": 40,
      "flags": 1,
      "label": "Win the War",
      "description": "Complete the game on any difficulty",
      "howto": "Complete the game on any difficulty"
    },
    {
      "id": 4,
      "imageId": 31,
      "cred": 20,
      "flags": 6,
      "label": "Dancing in the Dark",
      "description": "Kill the power",
      "howto": "Kill the power"
    },
    {
      "id": 5,
      "imageId": 7,
      "cred": 20,
      "flags": 6,
      "label": "Save the Bacon",
      "description": "Protect 'War Pig', the Abrams tank",
      "howto": "Protect 'War Pig', the Abrams tank"
    },
    {
      "id": 24,
      "imageId": 1,
      "cred": 20,
      "flags": 6,
      "label": "Death From Above",
      "description": "Operate an AC-130 gun ship",
      "howto": "Operate an AC-130 gun ship"
    },
    {
      "id": 25,
      "imageId": 29,
      "cred": 20,
      "flags": 6,
      "label": "Wrong Number",
      "description": "Find Al-Asad's safehouse",
      "howto": "Find Al-Asad's safehouse"
    },
    {
      "id": 26,
      "imageId": 28,
      "cred": 20,
      "flags": 6,
      "label": "Piggyback Ride",
      "description": "Carry Cpt. MacMillian to safety",
      "howto": "Carry Cpt. MacMillian to safety"
    },
    {
      "id": 27,
      "imageId": 27,
      "cred": 20,
      "flags": 6,
      "label": "Desperate Measures",
      "description": "Corner Zakhaev's Son",
      "howto": "Corner Zakhaev's Son"
    },
    {
      "id": 28,
      "imageId": 34,
      "cred": 20,
      "flags": 4,
      "label": "Look Sharp",
      "description": "Find 15 enemy intel items",
      "howto": "Find 15 enemy intel items"
    },
    {
      "id": 29,
      "imageId": 3,
      "cred": 20,
      "flags": 4,
      "label": "Eyes and Ears",
      "description": "Find 30 enemy intel items",
      "howto": "Find 30 enemy intel items"
    },
    {
      "id": 30,
      "imageId": 2,
      "cred": 20,
      "flags": 4,
      "label": "Down Boy Down",
      "description": "Survive a dog attack",
      "howto": "Survive a dog attack"
    },
    {
      "id": 31,
      "imageId": 5,
      "cred": 20,
      "flags": 4,
      "label": "New Squadron Record",
      "description": "Complete the cargo ship mockup in less than 20 seconds",
      "howto": "Complete the cargo ship mockup in less than 20 seconds"
    },
    {
      "id": 32,
      "imageId": 23,
      "cred": 20,
      "flags": 4,
      "label": "Rescue Roycewicz",
      "description": "Save Pvt. Roycewicz on the stairs",
      "howto": "Save Pvt. Roycewicz on the stairs"
    },
    {
      "id": 33,
      "imageId": 10,
      "cred": 20,
      "flags": 4,
      "label": "Your Show Sucks",
      "description": "Destroy all the TVs showing Al-Asad's speech",
      "howto": "Destroy all the TVs showing Al-Asad's speech"
    },
    {
      "id": 34,
      "imageId": 35,
      "cred": 10,
      "flags": 4,
      "label": "Man of the People",
      "description": "Save the farmer",
      "howto": "Save the farmer"
    },
    {
      "id": 35,
      "imageId": 25,
      "cred": 20,
      "flags": 4,
      "label": "Straight Flush",
      "description": "Kill 5 enemies with one shot while in the AC-130 gunship",
      "howto": "Kill 5 enemies with one shot while in the AC-130 gunship"
    },
    {
      "id": 36,
      "imageId": 33,
      "cred": 20,
      "flags": 4,
      "label": "Ghillies In The Mist",
      "description": "Complete 'All Ghillied Up' without alerting any enemies",
      "howto": "Complete 'All Ghillied Up' without alerting any enemies"
    },
    {
      "id": 37,
      "imageId": 24,
      "cred": 20,
      "flags": 4,
      "label": "Mile High Club",
      "description": "Sky dive to safety on Veteran difficulty",
      "howto": "Sky dive to safety on Veteran difficulty"
    },
    {
      "id": 39,
      "imageId": 26,
      "cred": 10,
      "flags": 4,
      "label": "No Rest for the Weary",
      "description": "Stab an injured crawling enemy",
      "howto": "Stab an injured crawling enemy"
    },
    {
      "id": 40,
      "imageId": 37,
      "cred": 90,
      "flags": 1,
      "label": "Deep and Hard",
      "description": "Complete the game on Hardened or Veteran difficulty",
      "howto": "Complete the game on Hardened or Veteran difficulty"
    },
    {
      "id": 41,
      "imageId": 17,
      "cred": 40,
      "flags": 6,
      "label": "The Package",
      "description": "Complete 'Crew Expendable' on Veteran difficulty",
      "howto": "Complete 'Crew Expendable' on Veteran difficulty"
    },
    {
      "id": 42,
      "imageId": 18,
      "cred": 40,
      "flags": 6,
      "label": "The Rescue",
      "description": "Complete 'Blackout' on Veteran difficulty",
      "howto": "Complete 'Blackout' on Veteran difficulty"
    },
    {
      "id": 43,
      "imageId": 19,
      "cred": 40,
      "flags": 6,
      "label": "The Search",
      "description": "Complete 'Charlie Don't Surf' on Veteran difficulty",
      "howto": "Complete 'Charlie Don't Surf' on Veteran difficulty"
    },
    {
      "id": 44,
      "imageId": 20,
      "cred": 40,
      "flags": 6,
      "label": "The Bog",
      "description": "Complete 'The Bog' and 'War Pig' on Veteran difficulty",
      "howto": "Complete 'The Bog' and 'War Pig' on Veteran difficulty"
    },
    {
      "id": 45,
      "imageId": 16,
      "cred": 40,
      "flags": 6,
      "label": "The Escape",
      "description": "Complete 'Hunted' and 'Death From Above' on Veteran difficulty",
      "howto": "Complete 'Hunted' and 'Death From Above' on Veteran difficulty"
    },
    {
      "id": 46,
      "imageId": 12,
      "cred": 40,
      "flags": 6,
      "label": "The First Horseman",
      "description": "Complete 'Shock and Awe' on Veteran difficulty",
      "howto": "Complete 'Shock and Awe' on Veteran difficulty"
    },
    {
      "id": 47,
      "imageId": 14,
      "cred": 40,
      "flags": 6,
      "label": "The Second Horseman",
      "description": "Complete 'Safehouse' on Veteran difficulty",
      "howto": "Complete 'Safehouse' on Veteran difficulty"
    },
    {
      "id": 48,
      "imageId": 21,
      "cred": 40,
      "flags": 6,
      "label": "The Shot",
      "description": "Complete 'All Ghillied Up' and 'One Shot, One Kill' on Veteran difficulty",
      "howto": "Complete 'All Ghillied Up' and 'One Shot, One Kill' on Veteran difficulty"
    },
    {
      "id": 49,
      "imageId": 15,
      "cred": 40,
      "flags": 6,
      "label": "The Third Horseman",
      "description": "Complete 'Heat' and 'The Sins of the Father' on Veteran difficulty",
      "howto": "Complete 'Heat' and 'The Sins of the Father' on Veteran difficulty"
    },
    {
      "id": 50,
      "imageId": 22,
      "cred": 40,
      "flags": 6,
      "label": "The Ultimatum",
      "description": "Complete 'Ultimatum', 'All In', and 'No Fighting in the War Room' on Veteran difficulty",
      "howto": "Complete 'Ultimatum', 'All In', and 'No Fighting in the War Room' on Veteran difficulty"
    },
    {
      "id": 52,
      "imageId": 13,
      "cred": 40,
      "flags": 6,
      "label": "The Fourth Horseman",
      "description": "Complete 'Game Over' on Veteran difficulty",
      "howto": "Complete 'Game Over' on Veteran difficulty"
    },
    {
      "id": 53,
      "imageId": 11,
      "cred": 10,
      "flags": 4,
      "label": "Daredevil",
      "description": "Kill an enemy while blinded by a flashbang in the single player campaign",
      "howto": "Kill an enemy while blinded by a flashbang in the single player campaign"
    },
    {
      "id": 55,
      "imageId": 6,
      "cred": 10,
      "flags": 4,
      "label": "Roadkill",
      "description": "Kill 2 enemies by blowing up a car in the single player campaign\r\n",
      "howto": "Kill 2 enemies by blowing up a car in the single player campaign\r\n"
    },
    {
      "id": 60,
      "imageId": 30,
      "cred": 20,
      "flags": 4,
      "label": "Bird on the Ground",
      "description": "Shoot down an enemy helicopter with an RPG in the single player campaign\r\n",
      "howto": "Shoot down an enemy helicopter with an RPG in the single player campaign\r\n"
    },
    {
      "id": 61,
      "imageId": 32,
      "cred": 20,
      "flags": 4,
      "label": "Four of a Kind",
      "description": "Kill 4 enemies in a row with headshots in the single player campaign\r\n",
      "howto": "Kill 4 enemies in a row with headshots in the single player campaign\r\n"
    },
    {
      "id": 62,
      "imageId": 36,
      "cred": 10,
      "flags": 4,
      "label": "Three of a Kind",
      "description": "Kill 3 enemies in a row with your knife in the single player campaign\r\n",
      "howto": "Kill 3 enemies in a row with your knife in the single player campaign\r\n"
    }
  ]
}