{
  "achievementsPossible": 43,
  "credPossible": 1000,
  "achievements": [
    {
      "id": 1,
      "imageId": 1,
      "cred": 10,
      "flags": 1,
      "label": "Welcome to Monster Jam!",
      "description": "Passed the test event.",
      "howto": "Pass the test event."
    },
    {
      "id": 2,
      "imageId": 2,
      "cred": 10,
      "flags": 1,
      "label": "Bling",
      "description": "Equipped the first accessory part on a monster truck.",
      "howto": "Equip an accessory on a monster truck."
    },
    {
      "id": 3,
      "imageId": 3,
      "cred": 10,
      "flags": 1,
      "label": "Speed Demon",
      "description": "Won a gold medal in 1 Circuit Racing event.",
      "howto": "Win a gold medal in 1 Circuit Racing event."
    },
    {
      "id": 4,
      "imageId": 4,
      "cred": 10,
      "flags": 1,
      "label": "Piston Popper",
      "description": "Won a gold medal in 1 Stadium Racing event.",
      "howto": "Win a gold medal in 1 Stadium Racing event."
    },
    {
      "id": 5,
      "imageId": 5,
      "cred": 10,
      "flags": 1,
      "label": "Crowd Pleaser",
      "description": "Won a gold medal in 1 Freestyle event.",
      "howto": "Win a gold medal in 1 Freestyle event."
    },
    {
      "id": 6,
      "imageId": 6,
      "cred": 10,
      "flags": 1,
      "label": "Time is on my side",
      "description": "Won a gold medal in 1 Time Crunch event.",
      "howto": "Win a gold medal in 1 Time Crunch event."
    },
    {
      "id": 7,
      "imageId": 7,
      "cred": 10,
      "flags": 1,
      "label": "Shake and Bake",
      "description": "Won a gold medal in 1 Team Racing event.",
      "howto": "Win a gold medal in 1 Team Racing event."
    },
    {
      "id": 8,
      "imageId": 8,
      "cred": 10,
      "flags": 1,
      "label": "Gate Crusher",
      "description": "Won a gold medal in 1 Gate Rush event",
      "howto": "Win a gold medal in 1 Gate Rush event."
    },
    {
      "id": 9,
      "imageId": 9,
      "cred": 10,
      "flags": 1,
      "label": "Fast Learner",
      "description": "Won a gold medal in 1 Stunt Challenge event",
      "howto": "Win a gold medal in 1 Stunt Challenge event."
    },
    {
      "id": 10,
      "imageId": 10,
      "cred": 15,
      "flags": 1,
      "label": "Gearhead",
      "description": "Customized 5 or more monster trucks.",
      "howto": "Customize 5 or more monster trucks."
    },
    {
      "id": 11,
      "imageId": 11,
      "cred": 15,
      "flags": 1,
      "label": "Training Wheels",
      "description": "Reached level 5.",
      "howto": "Reach level 5."
    },
    {
      "id": 12,
      "imageId": 12,
      "cred": 15,
      "flags": 1,
      "label": "Gas tank is half full",
      "description": "Reached level 10.",
      "howto": "Reach level 10."
    },
    {
      "id": 13,
      "imageId": 13,
      "cred": 15,
      "flags": 1,
      "label": "Heartbreak Hill",
      "description": "Reached level 15.",
      "howto": "Reach level 15."
    },
    {
      "id": 14,
      "imageId": 14,
      "cred": 15,
      "flags": 1,
      "label": "Beastmaster",
      "description": "Reached level 20.",
      "howto": "Reach level 20."
    },
    {
      "id": 15,
      "imageId": 15,
      "cred": 15,
      "flags": 1,
      "label": "Sweep",
      "description": "Won a gold medal in 3 events in a row.",
      "howto": "Win a gold medal in 3 events in a row."
    },
    {
      "id": 16,
      "imageId": 16,
      "cred": 15,
      "flags": 1,
      "label": "Defy Authority",
      "description": "Defeated any two Champion monster trucks in their home event.",
      "howto": "Defeat any two Champion monster trucks in their home event."
    },
    {
      "id": 17,
      "imageId": 17,
      "cred": 15,
      "flags": 1,
      "label": "Can't be Stopped!",
      "description": "Performed 200 Big Saves in total.",
      "howto": "Perform 200 Big Saves in total."
    },
    {
      "id": 18,
      "imageId": 19,
      "cred": 15,
      "flags": 1,
      "label": "Tough",
      "description": "Won a gold medal in 5 different events on hard difficulty.",
      "howto": "Win a gold medal in 5 different events on hard difficulty."
    },
    {
      "id": 19,
      "imageId": 20,
      "cred": 15,
      "flags": 1,
      "label": "I don't get dizzy",
      "description": "Performed 100 Donut or Cyclone stunts in total.",
      "howto": "Perform 100 Donut or Cyclone stunts in total."
    },
    {
      "id": 20,
      "imageId": 21,
      "cred": 15,
      "flags": 1,
      "label": "I think I'm gonna be sick",
      "description": "Performed 50 Flat Spin or Barrel Roll stunts in total.",
      "howto": "Perform 50 Flat Spin or Barrel Roll stunts in total."
    },
    {
      "id": 21,
      "imageId": 22,
      "cred": 15,
      "flags": 1,
      "label": "Showoff",
      "description": "Performed 50 Wheelie, Slap Wheelie or Stoppie stunts in total.",
      "howto": "Perform 50 Wheelie, Slap Wheelie or Stoppie stunts in total."
    },
    {
      "id": 22,
      "imageId": 23,
      "cred": 15,
      "flags": 1,
      "label": "Impossible!",
      "description": "Performed 25 Front or Back Flip stunts in total.",
      "howto": "Perform 25 Front or Back Flip stunts in total."
    },
    {
      "id": 23,
      "imageId": 24,
      "cred": 20,
      "flags": 1,
      "label": "Port of Call",
      "description": "Won a gold medal in at least 1 event in each stadium.",
      "howto": "Win a gold medal in at least 1 event in each stadium."
    },
    {
      "id": 24,
      "imageId": 25,
      "cred": 20,
      "flags": 1,
      "label": "Be your own boss",
      "description": "Won a gold medal in every event of 1 stadium.",
      "howto": "Win a gold medal in every event of 1 stadium."
    },
    {
      "id": 25,
      "imageId": 26,
      "cred": 20,
      "flags": 1,
      "label": "Yard Sale",
      "description": "Lost 2 wheels of a monster truck in an event.",
      "howto": "Lose 2 wheels of a monster truck in an event."
    },
    {
      "id": 26,
      "imageId": 27,
      "cred": 20,
      "flags": 1,
      "label": "Monster Mash",
      "description": "Destroyed 250 obstacles in the game.",
      "howto": "Destroy 250 obstacles in the game."
    },
    {
      "id": 27,
      "imageId": 28,
      "cred": 25,
      "flags": 1,
      "label": "Tricktionary",
      "description": "Performed 10 types of stunts in one event.",
      "howto": "Perform 10 types of stunts in one event."
    },
    {
      "id": 28,
      "imageId": 29,
      "cred": 25,
      "flags": 1,
      "label": "You're the best around!",
      "description": "Won a gold medal in 20 events.",
      "howto": "Win a gold medal in 20 events."
    },
    {
      "id": 29,
      "imageId": 30,
      "cred": 25,
      "flags": 1,
      "label": "Path of Destruction",
      "description": "Destroyed 500 obstacles in the game.",
      "howto": "Destroy 500 obstacles in the game."
    },
    {
      "id": 30,
      "imageId": 31,
      "cred": 25,
      "flags": 1,
      "label": "Veteran Driver",
      "description": "Earned 9,000 XP in a single event.",
      "howto": "Earn 9,000 XP in a single event."
    },
    {
      "id": 31,
      "imageId": 32,
      "cred": 25,
      "flags": 1,
      "label": "Pro Driver",
      "description": "Won gold medals in 20 different events on hard difficulty.",
      "howto": "Win gold medals in 20 different events on hard difficulty."
    },
    {
      "id": 32,
      "imageId": 33,
      "cred": 25,
      "flags": 1,
      "label": "Split a second",
      "description": "Won a gold medal in a racing event with a lead less than 0.5 seconds.",
      "howto": "Win a gold medal in 1 racing event with a lead less than 0.5 seconds."
    },
    {
      "id": 33,
      "imageId": 34,
      "cred": 25,
      "flags": 1,
      "label": "Freestyle Domination!",
      "description": "Won a gold medal in 1 Freestyle event with a score of 40 or higher.",
      "howto": "Win a gold medal in 1 Freestyle event with a score of 40 or higher."
    },
    {
      "id": 34,
      "imageId": 35,
      "cred": 25,
      "flags": 1,
      "label": "Still got three more",
      "description": "Finished a freestyle event with a wheel detached and won.",
      "howto": "Finish a freestyle event with a wheel detached and win."
    },
    {
      "id": 35,
      "imageId": 36,
      "cred": 25,
      "flags": 1,
      "label": "Advance Auto Parts Upgrade",
      "description": "Unlocked all Advance Auto Parts performance upgrades.",
      "howto": "Unlock all Advance Auto Parts performance upgrades."
    },
    {
      "id": 36,
      "imageId": 37,
      "cred": 25,
      "flags": 1,
      "label": "Unstoppable",
      "description": "Crossed the finish line with a wheel detached and won the race.",
      "howto": "Cross the finish line with a wheel detached and win the race."
    },
    {
      "id": 37,
      "imageId": 38,
      "cred": 25,
      "flags": 1,
      "label": "United Champion",
      "description": "Won both the Southern and Western National Tour.",
      "howto": "Win both the Southern and Western National Tour."
    },
    {
      "id": 38,
      "imageId": 39,
      "cred": 40,
      "flags": 1,
      "label": "Bodyshop Wizard",
      "description": "Fully customized one monster truck: placed an accessory, vinyl or decal in every area.",
      "howto": "Fully customize one monster truck: place an accessory, vinyl or decal in every area."
    },
    {
      "id": 39,
      "imageId": 40,
      "cred": 40,
      "flags": 1,
      "label": "Biggest Fan",
      "description": "Attended 20 events in a row without changing the monster truck.",
      "howto": "Attend 20 events in a row without changing the monster truck."
    },
    {
      "id": 40,
      "imageId": 41,
      "cred": 40,
      "flags": 1,
      "label": "King of the Monsters",
      "description": "Defeated all 8 champion monster trucks once in their home event.",
      "howto": "Defeat all 8 champion monster trucks once in their home event."
    },
    {
      "id": 41,
      "imageId": 42,
      "cred": 60,
      "flags": 1,
      "label": "World Finals Champion",
      "description": "Won all national tours.",
      "howto": "Win all National Tours."
    },
    {
      "id": 42,
      "imageId": 43,
      "cred": 80,
      "flags": 1,
      "label": "They're all my favorite",
      "description": "Collected all monster truck, accessories, upgrades and decals.",
      "howto": "Collect all monster trucks, accessories, upgrades and decals."
    },
    {
      "id": 43,
      "imageId": 44,
      "cred": 100,
      "flags": 1,
      "label": "Monster Jam Master",
      "description": "Won a gold medal in all events.",
      "howto": "Win a gold medal in all events."
    }
  ]
}