[
  {
    "titleId": 1297287125,
    "largeId": 163840,
    "smallId": 98304,
    "commonId": 32768
  },
  {
    "titleId": 1297287125,
    "largeId": 163841,
    "smallId": 98305,
    "commonId": 32769
  },
  {
    "titleId": 1297287125,
    "largeId": 163842,
    "smallId": 98306,
    "commonId": 32770
  },
  {
    "titleId": 1297287125,
    "largeId": 163843,
    "smallId": 98307,
    "commonId": 32771
  },
  {
    "titleId": 1297287125,
    "largeId": 163844,
    "smallId": 98308,
    "commonId": 32772
  },
  {
    "titleId": 1297287125,
    "largeId": 163845,
    "smallId": 98309,
    "commonId": 32773
  },
  {
    "titleId": 1297287125,
    "largeId": 163846,
    "smallId": 98310,
    "commonId": 32774
  },
  {
    "titleId": 1297287125,
    "largeId": 163847,
    "smallId": 98311,
    "commonId": 32775
  },
  {
    "titleId": 1297287125,
    "largeId": 163848,
    "smallId": 98312,
    "commonId": 32776
  },
  {
    "titleId": 1297287125,
    "largeId": 163849,
    "smallId": 98313,
    "commonId": 32777
  },
  {
    "titleId": 1297287125,
    "largeId": 163850,
    "smallId": 98314,
    "commonId": 32778
  }
]