{
  "achievementsPossible": 32,
  "credPossible": 1000,
  "achievements": [
    {
      "id": 1,
      "imageId": 1,
      "cred": 130,
      "flags": 1,
      "label": "Dynasty Warrior",
      "description": "Gained all achievements.",
      "howto": "Gain all achievements."
    },
    {
      "id": 2,
      "imageId": 2,
      "cred": 15,
      "flags": 4,
      "label": "Minnow K.O.",
      "description": "Defeated first rank and file soldier.",
      "howto": "Defeat first rank and file soldier."
    },
    {
      "id": 3,
      "imageId": 3,
      "cred": 15,
      "flags": 4,
      "label": "Weaponry K.O.",
      "description": "Defeated first Weaponry.",
      "howto": "Defeat first Weaponry."
    },
    {
      "id": 4,
      "imageId": 4,
      "cred": 15,
      "flags": 4,
      "label": "Officer K.O.",
      "description": "Defeated first Officer.",
      "howto": "Defeat first Officer."
    },
    {
      "id": 5,
      "imageId": 5,
      "cred": 15,
      "flags": 4,
      "label": "Budding General",
      "description": "Issued first command to Allied Officer.",
      "howto": "Issue first command to Allied Officer."
    },
    {
      "id": 6,
      "imageId": 6,
      "cred": 15,
      "flags": 4,
      "label": "Budding Strategist",
      "description": "Used first Card Tactic.",
      "howto": "Use first Card Tactic."
    },
    {
      "id": 7,
      "imageId": 7,
      "cred": 15,
      "flags": 4,
      "label": "Victory Toast",
      "description": "Completed first Quest.",
      "howto": "Complete first Quest."
    },
    {
      "id": 8,
      "imageId": 8,
      "cred": 15,
      "flags": 4,
      "label": "Blacksmith Patron 1",
      "description": "Made first weapon.",
      "howto": "Make first weapon."
    },
    {
      "id": 9,
      "imageId": 9,
      "cred": 15,
      "flags": 4,
      "label": "Blacksmith Patron 2",
      "description": "Powered up first weapon.",
      "howto": "Power up first weapon."
    },
    {
      "id": 10,
      "imageId": 10,
      "cred": 15,
      "flags": 4,
      "label": "Academy Disciple",
      "description": "Acquired first Chi Skill.",
      "howto": "Acquire first Chi Skill."
    },
    {
      "id": 11,
      "imageId": 11,
      "cred": 15,
      "flags": 4,
      "label": "Workshop Patron",
      "description": "Made first Orb.",
      "howto": "Make first Orb."
    },
    {
      "id": 12,
      "imageId": 12,
      "cred": 30,
      "flags": 4,
      "label": "Online Venture",
      "description": "Connected to Online City for the first time.",
      "howto": "Connect to Online City for the first time."
    },
    {
      "id": 13,
      "imageId": 13,
      "cred": 30,
      "flags": 4,
      "label": "Victory Banquet",
      "description": "Completed first online Quest.",
      "howto": "Complete first online Quest."
    },
    {
      "id": 14,
      "imageId": 14,
      "cred": 30,
      "flags": 4,
      "label": "Mutual Exchange",
      "description": "Traded Officer with another player for the first time.",
      "howto": "Trade Officer with another player for the first time."
    },
    {
      "id": 15,
      "imageId": 15,
      "cred": 15,
      "flags": 6,
      "label": "Heretics Suppressed",
      "description": "Completed Chapter 1 in any Story.",
      "howto": "Complete Chapter 1 in any Story."
    },
    {
      "id": 16,
      "imageId": 16,
      "cred": 15,
      "flags": 6,
      "label": "Traitor Crushed",
      "description": "Completed Chapter 2 in any Story.",
      "howto": "Complete Chapter 2 in any Story."
    },
    {
      "id": 17,
      "imageId": 17,
      "cred": 30,
      "flags": 6,
      "label": "Tyranny Sealed",
      "description": "Completed Chapter 3 in any Story.",
      "howto": "Complete Chapter 3 in any Story."
    },
    {
      "id": 18,
      "imageId": 18,
      "cred": 30,
      "flags": 6,
      "label": "Three Kingdoms Established",
      "description": "Completed Chapter 4 in any Story.",
      "howto": "Complete Chapter 4 in any Story."
    },
    {
      "id": 19,
      "imageId": 19,
      "cred": 30,
      "flags": 1,
      "label": "Three Kingdoms United - Wei",
      "description": "Completed Wei's Story.",
      "howto": "Complete Wei's Story."
    },
    {
      "id": 20,
      "imageId": 20,
      "cred": 30,
      "flags": 1,
      "label": "Three Kingdoms United - Wu",
      "description": "Completed Wu's Story.",
      "howto": "Complete Wu's Story."
    },
    {
      "id": 21,
      "imageId": 21,
      "cred": 30,
      "flags": 1,
      "label": "Three Kingdoms United - Shu",
      "description": "Completed Shu's Story.",
      "howto": "Complete Shu's Story."
    },
    {
      "id": 22,
      "imageId": 22,
      "cred": 60,
      "flags": 1,
      "label": "Tyranny Vanquished",
      "description": "Completed Chapter 6 in any Story.",
      "howto": "Complete Chapter 6 in any Story."
    },
    {
      "id": 23,
      "imageId": 23,
      "cred": 30,
      "flags": 1,
      "label": "Invincible General",
      "description": "Completed all Quests.",
      "howto": "Complete all Quests."
    },
    {
      "id": 24,
      "imageId": 24,
      "cred": 30,
      "flags": 1,
      "label": "Weapon Collector",
      "description": "Collected all Weapons.",
      "howto": "Collect all Weapons."
    },
    {
      "id": 25,
      "imageId": 25,
      "cred": 30,
      "flags": 1,
      "label": "Chi Collector",
      "description": "Collected all Chi Skills.",
      "howto": "Collect all Chi Skills."
    },
    {
      "id": 26,
      "imageId": 26,
      "cred": 30,
      "flags": 1,
      "label": "Orb Collector",
      "description": "Collected all Orbs.",
      "howto": "Collect all Orbs."
    },
    {
      "id": 27,
      "imageId": 27,
      "cred": 30,
      "flags": 1,
      "label": "Card Collector",
      "description": "Collected all Officer Cards.",
      "howto": "Collect all Officer Cards."
    },
    {
      "id": 28,
      "imageId": 28,
      "cred": 30,
      "flags": 1,
      "label": "Treasure Collector",
      "description": "Collected all Treasures.",
      "howto": "Collect all Treasures."
    },
    {
      "id": 29,
      "imageId": 29,
      "cred": 30,
      "flags": 1,
      "label": "Legend Collector",
      "description": "Collected all Legends.",
      "howto": "Collect all Legends."
    },
    {
      "id": 30,
      "imageId": 30,
      "cred": 60,
      "flags": 1,
      "label": "Grand Developer",
      "description": "Upgraded all City Facilities to maximum.",
      "howto": "Upgrade all City Facilities to maximum."
    },
    {
      "id": 31,
      "imageId": 31,
      "cred": 60,
      "flags": 1,
      "label": "Grand Strategist",
      "description": "Used all Card Tactics.",
      "howto": "Use all Card Tactics."
    },
    {
      "id": 32,
      "imageId": 32,
      "cred": 60,
      "flags": 2,
      "label": "Grand General",
      "description": "Reached Level 50.",
      "howto": "Reach Level 50."
    }
  ]
}