{
  "avatarAssetsPossible": 2,
  "maleAvatarAssetsPossible": 0,
  "femaleAvatarAssetsPossible": 0,
  "avatarAssets": [
    {
      "id": "00000544-0001-d163-c784-09a258410a79",
      "imageId": 1,
      "subcategory": 0,
      "unknown": 0,
      "isMale": false,
      "isFemale": false,
      "isUnisex": true,
      "label": "Pumpkin Mask",
      "description": "Dress in the spirit of Halloween with this special pumpkin costume mask!",
      "howto": "Complete the game to receive this awesome costume mask!\r\n"
    },
    {
      "id": "00001000-0002-81d3-cb76-e83658410a79",
      "imageId": 2,
      "subcategory": 0,
      "unknown": 2015221016,
      "isMale": false,
      "isFemale": false,
      "isUnisex": true,
      "label": "Pumpkin Pail",
      "description": "This pumpkin pail holds as much Halloween fun as you can carry!",
      "howto": "Thank you for playing Costume Quest! Start a new game to receive this award.\r\n"
    }
  ]
}