{
  "achievementsPossible": 50,
  "credPossible": 1000,
  "achievements": [
    {
      "id": 1,
      "imageId": 1,
      "cred": 5,
      "flags": 1,
      "label": "In With the Gang",
      "description": "Complete Night Market Chase.",
      "howto": "Complete Night Market Chase."
    },
    {
      "id": 2,
      "imageId": 2,
      "cred": 20,
      "flags": 1,
      "label": "That'll Show 'em",
      "description": "Complete Payback.",
      "howto": "Complete Payback."
    },
    {
      "id": 3,
      "imageId": 3,
      "cred": 35,
      "flags": 1,
      "label": "A Big Betrayal",
      "description": "Complete Dockyard Heist.",
      "howto": "Complete Dockyard Heist."
    },
    {
      "id": 4,
      "imageId": 4,
      "cred": 50,
      "flags": 1,
      "label": "Big Smiles All Around",
      "description": "Complete Big Smile Lee.",
      "howto": "Complete Big Smile Lee."
    },
    {
      "id": 5,
      "imageId": 5,
      "cred": 5,
      "flags": 1,
      "label": "Minor Face",
      "description": "Achieve Face Level 2.",
      "howto": "Achieve Face Level 2."
    },
    {
      "id": 6,
      "imageId": 6,
      "cred": 25,
      "flags": 1,
      "label": "Gaining Face",
      "description": "Achieve Face Level 5.",
      "howto": "Achieve Face Level 5."
    },
    {
      "id": 7,
      "imageId": 7,
      "cred": 50,
      "flags": 1,
      "label": "Great Face",
      "description": "Achieve Face Level 10.",
      "howto": "Achieve Face Level 10."
    },
    {
      "id": 8,
      "imageId": 8,
      "cred": 10,
      "flags": 1,
      "label": "Fashion Statement",
      "description": "Change all your clothes in your wardrobe or a clothing store.",
      "howto": "Change all your clothes in your wardrobe or a clothing store."
    },
    {
      "id": 9,
      "imageId": 9,
      "cred": 5,
      "flags": 1,
      "label": "Stuntman",
      "description": "Successfully perform an action hijack.",
      "howto": "Successfully perform an action hijack."
    },
    {
      "id": 10,
      "imageId": 10,
      "cred": 10,
      "flags": 1,
      "label": "A Slap in the Face",
      "description": "Kill someone with a fish.",
      "howto": "Kill someone with a fish."
    },
    {
      "id": 11,
      "imageId": 11,
      "cred": 10,
      "flags": 1,
      "label": "Take A Bite Out Of Crime",
      "description": "Complete a Case.",
      "howto": "Complete a Case."
    },
    {
      "id": 12,
      "imageId": 12,
      "cred": 20,
      "flags": 1,
      "label": "Man Around Town",
      "description": "Visit Aberdeen, Central, Kennedy Town and North Point.",
      "howto": "Visit Aberdeen, Central, Kennedy Town and North Point."
    },
    {
      "id": 13,
      "imageId": 13,
      "cred": 10,
      "flags": 1,
      "label": "Foodie",
      "description": "Try 10 different foods or drinks.",
      "howto": "Try 10 different foods or drinks."
    },
    {
      "id": 14,
      "imageId": 14,
      "cred": 15,
      "flags": 1,
      "label": "Environmentalist",
      "description": "Perform 5 unique environmental kills.",
      "howto": "Perform 5 unique environmental kills."
    },
    {
      "id": 15,
      "imageId": 15,
      "cred": 20,
      "flags": 1,
      "label": "Gadgetman",
      "description": "Pick a lock, plant a bug, trace a phone, crack a safe, and take over a spy camera.",
      "howto": "Pick a lock, plant a bug, trace a phone, crack a safe, and take over a spy camera."
    },
    {
      "id": 16,
      "imageId": 16,
      "cred": 20,
      "flags": 1,
      "label": "Safe Driver",
      "description": "Cruise for 2 minutes straight without damaging your car.",
      "howto": "Cruise for 2 minutes straight without damaging your car."
    },
    {
      "id": 17,
      "imageId": 17,
      "cred": 15,
      "flags": 1,
      "label": "Gun Nut",
      "description": "Use 10 different firearms to defeat enemies.",
      "howto": "Use 10 different firearms to defeat enemies."
    },
    {
      "id": 18,
      "imageId": 18,
      "cred": 15,
      "flags": 1,
      "label": "Whatever's Handy",
      "description": "Use 10 different melee weapons to defeat enemies.",
      "howto": "Use 10 different melee weapons to defeat enemies."
    },
    {
      "id": 19,
      "imageId": 19,
      "cred": 10,
      "flags": 1,
      "label": "Tourist",
      "description": "Win a bet on a cockfight.",
      "howto": "Win a bet on a cockfight."
    },
    {
      "id": 20,
      "imageId": 20,
      "cred": 15,
      "flags": 1,
      "label": "Infowlable",
      "description": "Win 50,000 on a single cockfight.",
      "howto": "Win 50,000 on a single cockfight."
    },
    {
      "id": 21,
      "imageId": 21,
      "cred": 15,
      "flags": 1,
      "label": "Kleptomaniac",
      "description": "Hijack 5 trucks and collect their cargo.",
      "howto": "Hijack 5 trucks and collect their cargo."
    },
    {
      "id": 22,
      "imageId": 22,
      "cred": 25,
      "flags": 1,
      "label": "Sharpshooter",
      "description": "Shoot out a cop's tires while fleeing in a police chase.",
      "howto": "Shoot out a cop's tires while fleeing in a police chase."
    },
    {
      "id": 23,
      "imageId": 23,
      "cred": 30,
      "flags": 1,
      "label": "Case Closed",
      "description": "Complete all cases.",
      "howto": "Complete all cases."
    },
    {
      "id": 24,
      "imageId": 24,
      "cred": 30,
      "flags": 1,
      "label": "Mr. Nice Guy",
      "description": "Complete all Favors.",
      "howto": "Complete all Favors."
    },
    {
      "id": 25,
      "imageId": 25,
      "cred": 20,
      "flags": 1,
      "label": "Event Driven",
      "description": "Complete half of the open world events.",
      "howto": "Complete half of the open world events."
    },
    {
      "id": 26,
      "imageId": 26,
      "cred": 15,
      "flags": 1,
      "label": "Event Planner",
      "description": "Complete all of the open world Events.",
      "howto": "Complete all of the open world Events."
    },
    {
      "id": 27,
      "imageId": 27,
      "cred": 15,
      "flags": 1,
      "label": "Martial Law",
      "description": "Defeat all 4 Martial Arts Clubs",
      "howto": "Defeat all 4 Martial Arts Clubs"
    },
    {
      "id": 28,
      "imageId": 28,
      "cred": 15,
      "flags": 1,
      "label": "Wei of the Road",
      "description": "Complete all Street Races.",
      "howto": "Complete all Street Races."
    },
    {
      "id": 29,
      "imageId": 29,
      "cred": 15,
      "flags": 1,
      "label": "Ultimate Fighter",
      "description": "Unlock ten Triad Upgrades.",
      "howto": "Unlock ten Triad Upgrades."
    },
    {
      "id": 30,
      "imageId": 30,
      "cred": 15,
      "flags": 1,
      "label": "Super Cop",
      "description": "Unlock ten Cop Upgrades.",
      "howto": "Unlock ten Cop Upgrades."
    },
    {
      "id": 31,
      "imageId": 31,
      "cred": 20,
      "flags": 1,
      "label": "North Point Scavenger",
      "description": "Unlock every lockbox in North Point.",
      "howto": "Unlock every lockbox in North Point."
    },
    {
      "id": 32,
      "imageId": 32,
      "cred": 20,
      "flags": 1,
      "label": "Central Scavenger",
      "description": "Unlock every lockbox in Central.",
      "howto": "Unlock every lockbox in Central."
    },
    {
      "id": 33,
      "imageId": 33,
      "cred": 20,
      "flags": 1,
      "label": "West End Scavenger",
      "description": "Unlock every lockbox in Kennedy Town and Aberdeen.",
      "howto": "Unlock every lockbox in Kennedy Town and Aberdeen."
    },
    {
      "id": 34,
      "imageId": 34,
      "cred": 20,
      "flags": 1,
      "label": "Bounty Hunter",
      "description": "Complete all of Roland's Jobs.",
      "howto": "Complete all of Roland's Jobs."
    },
    {
      "id": 35,
      "imageId": 35,
      "cred": 10,
      "flags": 1,
      "label": "Karaoke Superstar",
      "description": "Achieving 90% and above for all songs at the Karaoke Bars in HK.",
      "howto": "Achieving 90% and above for all songs at the Karaoke Bars in HK."
    },
    {
      "id": 36,
      "imageId": 36,
      "cred": 15,
      "flags": 1,
      "label": "Hong Kong Super Hacker",
      "description": "Hack every Security Camera in the game.",
      "howto": "Hack every Security Camera in the game."
    },
    {
      "id": 37,
      "imageId": 37,
      "cred": 15,
      "flags": 1,
      "label": "Fashion Victim",
      "description": "Purchase all clothing.",
      "howto": "Purchase all clothing."
    },
    {
      "id": 38,
      "imageId": 38,
      "cred": 15,
      "flags": 1,
      "label": "Spiritual Healing",
      "description": "Pray at all of the Health Shrines.",
      "howto": "Pray at all of the Health Shrines."
    },
    {
      "id": 39,
      "imageId": 39,
      "cred": 10,
      "flags": 1,
      "label": "Auto Enthusiast",
      "description": "Purchase all vehicles.",
      "howto": "Purchase all vehicles."
    },
    {
      "id": 40,
      "imageId": 40,
      "cred": 5,
      "flags": 1,
      "label": "Slight Silver",
      "description": "Achieve 5 Silver Stat Awards.",
      "howto": "Achieve 5 Silver Stat Awards."
    },
    {
      "id": 41,
      "imageId": 41,
      "cred": 15,
      "flags": 1,
      "label": "Substantial Silver",
      "description": "Achieve 15 Silver Stat Awards.",
      "howto": "Achieve 15 Silver Stat Awards."
    },
    {
      "id": 42,
      "imageId": 42,
      "cred": 35,
      "flags": 1,
      "label": "Solid Silver",
      "description": "Achieve 30 Silver Stat Awards.",
      "howto": "Achieve 30 Silver Stat Awards."
    },
    {
      "id": 43,
      "imageId": 43,
      "cred": 5,
      "flags": 1,
      "label": "Strike Gold",
      "description": "Achieve 1 Gold Stat Award.",
      "howto": "Achieve 1 Gold Stat Award."
    },
    {
      "id": 44,
      "imageId": 44,
      "cred": 10,
      "flags": 1,
      "label": "Gold Rush",
      "description": "Achieve 5 Gold Stat Awards.",
      "howto": "Achieve 5 Gold Stat Awards."
    },
    {
      "id": 45,
      "imageId": 45,
      "cred": 30,
      "flags": 1,
      "label": "Golden Touch",
      "description": "Achieve 15 Gold Stat Awards.",
      "howto": "Achieve 15 Gold Stat Awards."
    },
    {
      "id": 46,
      "imageId": 46,
      "cred": 60,
      "flags": 1,
      "label": "Pure Gold",
      "description": "Achieve 30 Gold Stat Awards.",
      "howto": "Achieve 30 Gold Stat Awards."
    },
    {
      "id": 47,
      "imageId": 47,
      "cred": 10,
      "flags": 1,
      "label": "Rookie",
      "description": "Complete 10% of all missions, cases, favors, events, jobs and races.",
      "howto": "Complete 10% of all missions, cases, favors, events, jobs and races."
    },
    {
      "id": 48,
      "imageId": 48,
      "cred": 15,
      "flags": 1,
      "label": "Officer",
      "description": "Complete 25% of all missions, cases, favors, events, jobs and races.",
      "howto": "Complete 25% of all missions, cases, favors, events, jobs and races."
    },
    {
      "id": 49,
      "imageId": 49,
      "cred": 35,
      "flags": 1,
      "label": "Detective",
      "description": "Complete 50% of all missions, cases, favors, events, jobs and races.",
      "howto": "Complete 50% of all missions, cases, favors, events, jobs and races."
    },
    {
      "id": 50,
      "imageId": 50,
      "cred": 75,
      "flags": 1,
      "label": "Chief Inspector",
      "description": "Complete 100% of all missions, cases, favors, events, jobs and races.",
      "howto": "Complete 100% of all missions, cases, favors, events, jobs and races."
    }
  ]
}