[
  {
    "titleId": 1161889775,
    "largeId": 163840,
    "smallId": 98304,
    "commonId": 32768
  },
  {
    "titleId": 1161889775,
    "largeId": 163841,
    "smallId": 98305,
    "commonId": 32769
  },
  {
    "titleId": 1161889775,
    "largeId": 163842,
    "smallId": 98306,
    "commonId": 32770
  },
  {
    "titleId": 1161889775,
    "largeId": 163843,
    "smallId": 98307,
    "commonId": 32771
  },
  {
    "titleId": 1161889775,
    "largeId": 163844,
    "smallId": 98308,
    "commonId": 32772
  },
  {
    "titleId": 1161889775,
    "largeId": 163845,
    "smallId": 98309,
    "commonId": 32773
  },
  {
    "titleId": 1161889775,
    "largeId": 163846,
    "smallId": 98310,
    "commonId": 32774
  },
  {
    "titleId": 1161889775,
    "largeId": 163847,
    "smallId": 98311,
    "commonId": 32775
  },
  {
    "titleId": 1161889775,
    "largeId": 163848,
    "smallId": 98312,
    "commonId": 32776
  },
  {
    "titleId": 1161889775,
    "largeId": 163849,
    "smallId": 98313,
    "commonId": 32777
  },
  {
    "titleId": 1161889775,
    "largeId": 163850,
    "smallId": 98314,
    "commonId": 32778
  },
  {
    "titleId": 1161889775,
    "largeId": 163851,
    "smallId": 98315,
    "commonId": 32779
  },
  {
    "titleId": 1161889775,
    "largeId": 163852,
    "smallId": 98316,
    "commonId": 32780
  },
  {
    "titleId": 1161889775,
    "largeId": 163853,
    "smallId": 98317,
    "commonId": 32781
  },
  {
    "titleId": 1161889775,
    "largeId": 163854,
    "smallId": 98318,
    "commonId": 32782
  },
  {
    "titleId": 1161889775,
    "largeId": 163855,
    "smallId": 98319,
    "commonId": 32783
  },
  {
    "titleId": 1161889775,
    "largeId": 163856,
    "smallId": 98320,
    "commonId": 32784
  },
  {
    "titleId": 1161889775,
    "largeId": 163857,
    "smallId": 98321,
    "commonId": 32785
  },
  {
    "titleId": 1161889775,
    "largeId": 163858,
    "smallId": 98322,
    "commonId": 32786
  },
  {
    "titleId": 1161889775,
    "largeId": 163859,
    "smallId": 98323,
    "commonId": 32787
  },
  {
    "titleId": 1161889775,
    "largeId": 163860,
    "smallId": 98324,
    "commonId": 32788
  },
  {
    "titleId": 1161889775,
    "largeId": 163861,
    "smallId": 98325,
    "commonId": 32789
  },
  {
    "titleId": 1161889775,
    "largeId": 163862,
    "smallId": 98326,
    "commonId": 32790
  },
  {
    "titleId": 1161889775,
    "largeId": 163863,
    "smallId": 98327,
    "commonId": 32791
  },
  {
    "titleId": 1161889775,
    "largeId": 163864,
    "smallId": 98328,
    "commonId": 32792
  },
  {
    "titleId": 1161889775,
    "largeId": 163865,
    "smallId": 98329,
    "commonId": 32793
  },
  {
    "titleId": 1161889775,
    "largeId": 163866,
    "smallId": 98330,
    "commonId": 32794
  },
  {
    "titleId": 1161889775,
    "largeId": 163867,
    "smallId": 98331,
    "commonId": 32795
  },
  {
    "titleId": 1161889775,
    "largeId": 163868,
    "smallId": 98332,
    "commonId": 32796
  },
  {
    "titleId": 1161889775,
    "largeId": 163869,
    "smallId": 98333,
    "commonId": 32797
  },
  {
    "titleId": 1161889775,
    "largeId": 163870,
    "smallId": 98334,
    "commonId": 32798
  },
  {
    "titleId": 1161889775,
    "largeId": 163871,
    "smallId": 98335,
    "commonId": 32799
  },
  {
    "titleId": 1161889775,
    "largeId": 163872,
    "smallId": 98336,
    "commonId": 32800
  },
  {
    "titleId": 1161889775,
    "largeId": 163873,
    "smallId": 98337,
    "commonId": 32801
  },
  {
    "titleId": 1161889775,
    "largeId": 163874,
    "smallId": 98338,
    "commonId": 32802
  },
  {
    "titleId": 1161889775,
    "largeId": 163875,
    "smallId": 98339,
    "commonId": 32803
  },
  {
    "titleId": 1161889775,
    "largeId": 163876,
    "smallId": 98340,
    "commonId": 32804
  },
  {
    "titleId": 1161889775,
    "largeId": 163877,
    "smallId": 98341,
    "commonId": 32805
  },
  {
    "titleId": 1161889775,
    "largeId": 163878,
    "smallId": 98342,
    "commonId": 32806
  },
  {
    "titleId": 1161889775,
    "largeId": 163879,
    "smallId": 98343,
    "commonId": 32807
  },
  {
    "titleId": 1161889775,
    "largeId": 163880,
    "smallId": 98344,
    "commonId": 32808
  },
  {
    "titleId": 1161889775,
    "largeId": 163881,
    "smallId": 98345,
    "commonId": 32809
  },
  {
    "titleId": 1161889775,
    "largeId": 163882,
    "smallId": 98346,
    "commonId": 32810
  },
  {
    "titleId": 1161889775,
    "largeId": 163883,
    "smallId": 98347,
    "commonId": 32811
  },
  {
    "titleId": 1161889775,
    "largeId": 163884,
    "smallId": 98348,
    "commonId": 32812
  },
  {
    "titleId": 1161889775,
    "largeId": 163885,
    "smallId": 98349,
    "commonId": 32813
  },
  {
    "titleId": 1161889775,
    "largeId": 163886,
    "smallId": 98350,
    "commonId": 32814
  },
  {
    "titleId": 1161889775,
    "largeId": 163887,
    "smallId": 98351,
    "commonId": 32815
  },
  {
    "titleId": 1161889775,
    "largeId": 163888,
    "smallId": 98352,
    "commonId": 32816
  },
  {
    "titleId": 1161889775,
    "largeId": 163889,
    "smallId": 98353,
    "commonId": 32817
  },
  {
    "titleId": 1161889775,
    "largeId": 163890,
    "smallId": 98354,
    "commonId": 32818
  },
  {
    "titleId": 1161889775,
    "largeId": 163891,
    "smallId": 98355,
    "commonId": 32819
  },
  {
    "titleId": 1161889775,
    "largeId": 163892,
    "smallId": 98356,
    "commonId": 32820
  },
  {
    "titleId": 1161889775,
    "largeId": 163893,
    "smallId": 98357,
    "commonId": 32821
  },
  {
    "titleId": 1161889775,
    "largeId": 163894,
    "smallId": 98358,
    "commonId": 32822
  },
  {
    "titleId": 1161889775,
    "largeId": 163895,
    "smallId": 98359,
    "commonId": 32823
  },
  {
    "titleId": 1161889775,
    "largeId": 163896,
    "smallId": 98360,
    "commonId": 32824
  },
  {
    "titleId": 1161889775,
    "largeId": 163897,
    "smallId": 98361,
    "commonId": 32825
  },
  {
    "titleId": 1161889775,
    "largeId": 163898,
    "smallId": 98362,
    "commonId": 32826
  },
  {
    "titleId": 1161889775,
    "largeId": 163899,
    "smallId": 98363,
    "commonId": 32827
  },
  {
    "titleId": 1161889775,
    "largeId": 163900,
    "smallId": 98364,
    "commonId": 32828
  },
  {
    "titleId": 1161889775,
    "largeId": 163901,
    "smallId": 98365,
    "commonId": 32829
  },
  {
    "titleId": 1161889775,
    "largeId": 163902,
    "smallId": 98366,
    "commonId": 32830
  },
  {
    "titleId": 1161889775,
    "largeId": 163903,
    "smallId": 98367,
    "commonId": 32831
  },
  {
    "titleId": 1161889775,
    "largeId": 163904,
    "smallId": 98368,
    "commonId": 32832
  },
  {
    "titleId": 1161889775,
    "largeId": 163905,
    "smallId": 98369,
    "commonId": 32833
  },
  {
    "titleId": 1161889775,
    "largeId": 163906,
    "smallId": 98370,
    "commonId": 32834
  },
  {
    "titleId": 1161889775,
    "largeId": 163907,
    "smallId": 98371,
    "commonId": 32835
  },
  {
    "titleId": 1161889775,
    "largeId": 163908,
    "smallId": 98372,
    "commonId": 32836
  },
  {
    "titleId": 1161889775,
    "largeId": 163909,
    "smallId": 98373,
    "commonId": 32837
  },
  {
    "titleId": 1161889775,
    "largeId": 163910,
    "smallId": 98374,
    "commonId": 32838
  },
  {
    "titleId": 1161889775,
    "largeId": 163911,
    "smallId": 98375,
    "commonId": 32839
  },
  {
    "titleId": 1161889775,
    "largeId": 163912,
    "smallId": 98376,
    "commonId": 32840
  },
  {
    "titleId": 1161889775,
    "largeId": 163913,
    "smallId": 98377,
    "commonId": 32841
  },
  {
    "titleId": 1161889775,
    "largeId": 163914,
    "smallId": 98378,
    "commonId": 32842
  },
  {
    "titleId": 1161889775,
    "largeId": 163915,
    "smallId": 98379,
    "commonId": 32843
  },
  {
    "titleId": 1161889775,
    "largeId": 163916,
    "smallId": 98380,
    "commonId": 32844
  },
  {
    "titleId": 1161889775,
    "largeId": 163917,
    "smallId": 98381,
    "commonId": 32845
  },
  {
    "titleId": 1161889775,
    "largeId": 163918,
    "smallId": 98382,
    "commonId": 32846
  },
  {
    "titleId": 1161889775,
    "largeId": 163919,
    "smallId": 98383,
    "commonId": 32847
  },
  {
    "titleId": 1161889775,
    "largeId": 163920,
    "smallId": 98384,
    "commonId": 32848
  },
  {
    "titleId": 1161889775,
    "largeId": 163921,
    "smallId": 98385,
    "commonId": 32849
  },
  {
    "titleId": 1161889775,
    "largeId": 163922,
    "smallId": 98386,
    "commonId": 32850
  },
  {
    "titleId": 1161889775,
    "largeId": 163923,
    "smallId": 98387,
    "commonId": 32851
  },
  {
    "titleId": 1161889775,
    "largeId": 163924,
    "smallId": 98388,
    "commonId": 32852
  },
  {
    "titleId": 1161889775,
    "largeId": 163925,
    "smallId": 98389,
    "commonId": 32853
  },
  {
    "titleId": 1161889775,
    "largeId": 163926,
    "smallId": 98390,
    "commonId": 32854
  },
  {
    "titleId": 1161889775,
    "largeId": 163927,
    "smallId": 98391,
    "commonId": 32855
  },
  {
    "titleId": 1161889775,
    "largeId": 163928,
    "smallId": 98392,
    "commonId": 32856
  },
  {
    "titleId": 1161889775,
    "largeId": 163929,
    "smallId": 98393,
    "commonId": 32857
  },
  {
    "titleId": 1161889775,
    "largeId": 163930,
    "smallId": 98394,
    "commonId": 32858
  },
  {
    "titleId": 1161889775,
    "largeId": 163931,
    "smallId": 98395,
    "commonId": 32859
  },
  {
    "titleId": 1161889775,
    "largeId": 163932,
    "smallId": 98396,
    "commonId": 32860
  },
  {
    "titleId": 1161889775,
    "largeId": 163933,
    "smallId": 98397,
    "commonId": 32861
  },
  {
    "titleId": 1161889775,
    "largeId": 163934,
    "smallId": 98398,
    "commonId": 32862
  },
  {
    "titleId": 1161889775,
    "largeId": 163935,
    "smallId": 98399,
    "commonId": 32863
  },
  {
    "titleId": 1161889775,
    "largeId": 163936,
    "smallId": 98400,
    "commonId": 32864
  },
  {
    "titleId": 1161889775,
    "largeId": 163937,
    "smallId": 98401,
    "commonId": 32865
  },
  {
    "titleId": 1161889775,
    "largeId": 163938,
    "smallId": 98402,
    "commonId": 32866
  },
  {
    "titleId": 1161889775,
    "largeId": 163939,
    "smallId": 98403,
    "commonId": 32867
  },
  {
    "titleId": 1161889775,
    "largeId": 163940,
    "smallId": 98404,
    "commonId": 32868
  },
  {
    "titleId": 1161889775,
    "largeId": 163941,
    "smallId": 98405,
    "commonId": 32869
  },
  {
    "titleId": 1161889775,
    "largeId": 163942,
    "smallId": 98406,
    "commonId": 32870
  },
  {
    "titleId": 1161889775,
    "largeId": 163943,
    "smallId": 98407,
    "commonId": 32871
  },
  {
    "titleId": 1161889775,
    "largeId": 163944,
    "smallId": 98408,
    "commonId": 32872
  },
  {
    "titleId": 1161889775,
    "largeId": 163945,
    "smallId": 98409,
    "commonId": 32873
  },
  {
    "titleId": 1161889775,
    "largeId": 163946,
    "smallId": 98410,
    "commonId": 32874
  },
  {
    "titleId": 1161889775,
    "largeId": 163947,
    "smallId": 98411,
    "commonId": 32875
  },
  {
    "titleId": 1161889775,
    "largeId": 163948,
    "smallId": 98412,
    "commonId": 32876
  },
  {
    "titleId": 1161889775,
    "largeId": 163949,
    "smallId": 98413,
    "commonId": 32877
  },
  {
    "titleId": 1161889775,
    "largeId": 163950,
    "smallId": 98414,
    "commonId": 32878
  },
  {
    "titleId": 1161889775,
    "largeId": 163951,
    "smallId": 98415,
    "commonId": 32879
  },
  {
    "titleId": 1161889775,
    "largeId": 163952,
    "smallId": 98416,
    "commonId": 32880
  },
  {
    "titleId": 1161889775,
    "largeId": 163953,
    "smallId": 98417,
    "commonId": 32881
  },
  {
    "titleId": 1161889775,
    "largeId": 163954,
    "smallId": 98418,
    "commonId": 32882
  },
  {
    "titleId": 1161889775,
    "largeId": 163955,
    "smallId": 98419,
    "commonId": 32883
  },
  {
    "titleId": 1161889775,
    "largeId": 163956,
    "smallId": 98420,
    "commonId": 32884
  }
]