{
  "achievementsPossible": 12,
  "credPossible": 1000,
  "achievements": [
    {
      "id": 1,
      "imageId": 1,
      "cred": 50,
      "flags": 6,
      "label": "The Terror Begins",
      "description": "Escape from the graveyard of terror.",
      "howto": "Escape from the graveyard of terror."
    },
    {
      "id": 2,
      "imageId": 2,
      "cred": 50,
      "flags": 6,
      "label": "A Changed Father",
      "description": "Liberate the changed man.",
      "howto": "Liberate the changed man."
    },
    {
      "id": 3,
      "imageId": 3,
      "cred": 50,
      "flags": 6,
      "label": "Beyond the Shades",
      "description": "Encounter a former S.T.A.R.S. captain.",
      "howto": "Encounter a former S.T.A.R.S. captain."
    },
    {
      "id": 4,
      "imageId": 4,
      "cred": 100,
      "flags": 6,
      "label": "The Fallen Tyrant",
      "description": "Flatten an unstoppable enemy.",
      "howto": "Flatten an unstoppable enemy."
    },
    {
      "id": 5,
      "imageId": 5,
      "cred": 100,
      "flags": 6,
      "label": "The Prisoner Who Lost Everything",
      "description": "Defeat the nameless man and end his suffering.",
      "howto": "Defeat the nameless man and end his suffering."
    },
    {
      "id": 6,
      "imageId": 6,
      "cred": 50,
      "flags": 6,
      "label": "To The Frozen Land",
      "description": "Begin the search for your sister.",
      "howto": "Begin the search for your sister."
    },
    {
      "id": 7,
      "imageId": 7,
      "cred": 150,
      "flags": 6,
      "label": "The Arrogant Queen",
      "description": "Put an end to the Queen's reign.",
      "howto": "Put an end to the Queen's reign."
    },
    {
      "id": 8,
      "imageId": 8,
      "cred": 50,
      "flags": 6,
      "label": "Duty and Humanity",
      "description": "Deliver some medicine to a man in need.",
      "howto": "Deliver some medicine to a man in need."
    },
    {
      "id": 9,
      "imageId": 9,
      "cred": 150,
      "flags": 6,
      "label": "Weapon Crazy",
      "description": "Get the Rocket Launcher.",
      "howto": "Get the Rocket Launcher."
    },
    {
      "id": 10,
      "imageId": 10,
      "cred": 150,
      "flags": 6,
      "label": "Battle Master",
      "description": "Get the Linear Launcher from Battle Game.",
      "howto": "Get the Linear Launcher from Battle Game."
    },
    {
      "id": 11,
      "imageId": 11,
      "cred": 50,
      "flags": 4,
      "label": "From The Young Lady",
      "description": "Receive encouragement from a young lady.",
      "howto": "Receive encouragement from a young lady."
    },
    {
      "id": 12,
      "imageId": 12,
      "cred": 50,
      "flags": 6,
      "label": "The Green Giant",
      "description": "Say farewell to your fallen comrade.",
      "howto": "Say farewell to your fallen comrade."
    }
  ]
}