{
  "achievementsPossible": 27,
  "credPossible": 1000,
  "achievements": [
    {
      "id": 1,
      "imageId": 1,
      "cred": 40,
      "flags": 1,
      "label": "Life of the Party",
      "description": "Complete a Party Play game",
      "howto": "Complete a Party Play game"
    },
    {
      "id": 2,
      "imageId": 2,
      "cred": 30,
      "flags": 1,
      "label": "Nice'n'easy",
      "description": "Complete all Beginner Solo Play It All levels",
      "howto": "Complete all Beginner Solo Play It All levels"
    },
    {
      "id": 3,
      "imageId": 3,
      "cred": 45,
      "flags": 1,
      "label": "Normies",
      "description": "Complete all Intermediate Solo Play It All levels",
      "howto": "Complete all Intermediate Solo Play It All levels"
    },
    {
      "id": 4,
      "imageId": 4,
      "cred": 60,
      "flags": 1,
      "label": "Prestige",
      "description": "Complete all Advanced Solo Play It All levels",
      "howto": "Complete all Advanced Solo Play It All levels"
    },
    {
      "id": 5,
      "imageId": 5,
      "cred": 30,
      "flags": 1,
      "label": "Lemonade Stand",
      "description": "Complete all Beginner Cooperative Play It All levels",
      "howto": "Complete all Beginner Cooperative Play It All levels"
    },
    {
      "id": 6,
      "imageId": 6,
      "cred": 45,
      "flags": 1,
      "label": "Which Tweedle Am I?",
      "description": "Complete all Intermediate Cooperative Play It All levels",
      "howto": "Complete all Intermediate Cooperative Play It All levels"
    },
    {
      "id": 7,
      "imageId": 7,
      "cred": 50,
      "flags": 1,
      "label": "Partners in Crime",
      "description": "Complete all Advanced Cooperative Play It All levels",
      "howto": "Complete all Advanced Cooperative Play It All levels"
    },
    {
      "id": 8,
      "imageId": 8,
      "cred": 60,
      "flags": 1,
      "label": "Campaign Professional",
      "description": "Complete all Solo and Cooperative Play It All levels",
      "howto": "Complete all Solo and Cooperative Play It All levels"
    },
    {
      "id": 9,
      "imageId": 9,
      "cred": 110,
      "flags": 1,
      "label": "Twister Maniac",
      "description": "Achieve 3 stars in all Solo and Cooperative Play It All levels",
      "howto": "Achieve 3 stars in all Solo and Cooperative Play It All levels"
    },
    {
      "id": 10,
      "imageId": 10,
      "cred": 25,
      "flags": 1,
      "label": "Tastemaker",
      "description": "Complete one Challenge of each variant available Play It All Mode",
      "howto": "Complete one Challenge of each variant available Play It All Mode"
    },
    {
      "id": 11,
      "imageId": 11,
      "cred": 25,
      "flags": 1,
      "label": "Turkey",
      "description": "Get 3 perfect shapes in a row in Shape Frenzy",
      "howto": "Get 3 perfect shapes in a row in Shape Frenzy"
    },
    {
      "id": 12,
      "imageId": 12,
      "cred": 30,
      "flags": 1,
      "label": "Lucky 7s",
      "description": "Earn 3 stars in the 7th Challenge of all Solo Play It All difficulties",
      "howto": "Earn 3 stars in the 7th Challenge of all Solo Play It All difficulties"
    },
    {
      "id": 13,
      "imageId": 13,
      "cred": 35,
      "flags": 1,
      "label": "Hollywood Blvd.",
      "description": "Earn all the bonus stars in one game of Shape Frenzy or Twist & Fit",
      "howto": "Earn all the bonus stars in one game of Shape Frenzy or Twist & Fit"
    },
    {
      "id": 14,
      "imageId": 14,
      "cred": 25,
      "flags": 1,
      "label": "Hot Dog M.D.",
      "description": "Earn a perfect on the Hot Dog shape in Shape Frenzy",
      "howto": "Earn a perfect on the Hot Dog shape in Shape Frenzy"
    },
    {
      "id": 15,
      "imageId": 15,
      "cred": 45,
      "flags": 1,
      "label": "Been There, Done That",
      "description": "Play every game variant",
      "howto": "Play every game variant"
    },
    {
      "id": 16,
      "imageId": 23,
      "cred": 25,
      "flags": 1,
      "label": "Where the Shapewalk Ends",
      "description": "Make it to the end of the Shape Frenzy track and be teleported back to the start",
      "howto": "Make it to the end of the Shape Frenzy track and be teleported back to the start"
    },
    {
      "id": 17,
      "imageId": 24,
      "cred": 25,
      "flags": 1,
      "label": "Playing in Traffic",
      "description": "Complete all the Traffic themed levels of Slalom in the Play It All Mode",
      "howto": "Complete all the Traffic themed levels of Slalom in the Play It All Mode"
    },
    {
      "id": 18,
      "imageId": 17,
      "cred": 30,
      "flags": 1,
      "label": "When the Stars Align",
      "description": "Destroy 6 pieces in a single Break It Down solve",
      "howto": "Destroy 6 pieces in a single Break It Down solve"
    },
    {
      "id": 19,
      "imageId": 18,
      "cred": 25,
      "flags": 1,
      "label": "Wallflower",
      "description": "Reach one of each bonus available in a single Break It Down game",
      "howto": "Reach one of each bonus available in a single Break It Down game"
    },
    {
      "id": 20,
      "imageId": 19,
      "cred": 25,
      "flags": 1,
      "label": "Going Green",
      "description": "Complete an entire round of Twist & Smash on the first passes",
      "howto": "Complete an entire round of Twist & Smash on the first passes"
    },
    {
      "id": 21,
      "imageId": 20,
      "cred": 30,
      "flags": 1,
      "label": "Mount and Do",
      "description": "Complete all the Extreme Sports shapes in the Play It All Mode",
      "howto": "Complete all the Extreme Sports shapes in the Play It All Mode"
    },
    {
      "id": 23,
      "imageId": 22,
      "cred": 25,
      "flags": 1,
      "label": "The K12",
      "description": "Make it through a round of Slalom without touching a shape",
      "howto": "Make it through a round of Slalom without touching a shape"
    },
    {
      "id": 24,
      "imageId": 25,
      "cred": 25,
      "flags": 1,
      "label": "My Two Dollars",
      "description": "Solve the dollar sign shape twice in a single run of Intermediate Coop Play It All level 22",
      "howto": "Solve the dollar sign shape twice in a single run of Intermediate Coop Play It All level 22"
    },
    {
      "id": 25,
      "imageId": 28,
      "cred": 35,
      "flags": 1,
      "label": "Pacifist",
      "description": "Refuse to play by the rules",
      "howto": "Finish a Twist & Smash game with a score of zero"
    },
    {
      "id": 26,
      "imageId": 16,
      "cred": 40,
      "flags": 1,
      "label": "Twistapalooza",
      "description": "Complete one round of Party Play, one level of Play It All, and one level of Free Play.",
      "howto": "Complete one round of Party Play, one level of Play It All, and one level of Free Play."
    },
    {
      "id": 27,
      "imageId": 26,
      "cred": 30,
      "flags": 1,
      "label": "Wax On",
      "description": "Complete all Martial Arts Shapes in Play It All Mode",
      "howto": "Complete all Martial Arts Shapes in Play It All Mode"
    },
    {
      "id": 28,
      "imageId": 27,
      "cred": 30,
      "flags": 1,
      "label": "Foodie",
      "description": "Complete all Food Shapes in Play It All Mode",
      "howto": "Complete all Food Shapes in Play It All Mode"
    }
  ]
}