{
  "achievementsPossible": 12,
  "credPossible": 200,
  "achievements": [
    {
      "id": 1,
      "imageId": 1,
      "cred": 10,
      "flags": 1,
      "label": "Xavier Would Be Proud!",
      "description": "You used a mutant power 5 times in one game.",
      "howto": "Use a mutant power 5 times in one game."
    },
    {
      "id": 2,
      "imageId": 2,
      "cred": 10,
      "flags": 1,
      "label": "Turn Pyro to Toast",
      "description": "You defeated Pyro without using any mutant powers.",
      "howto": "Defeat Pyro without any player using mutant powers."
    },
    {
      "id": 3,
      "imageId": 3,
      "cred": 10,
      "flags": 1,
      "label": "Kidnapped",
      "description": "You learned that Magneto has kidnapped Professor X.",
      "howto": "Learn that Magneto has kidnapped Professor X."
    },
    {
      "id": 4,
      "imageId": 4,
      "cred": 10,
      "flags": 1,
      "label": "Super Mutant",
      "description": "You took an energy pill.",
      "howto": "Find and use an energy pill in the Japanese version of the game."
    },
    {
      "id": 5,
      "imageId": 5,
      "cred": 10,
      "flags": 1,
      "label": "Largest Party",
      "description": "You played in a 6-player match with five other people.",
      "howto": "Play in a 6-player match with five other people."
    },
    {
      "id": 6,
      "imageId": 6,
      "cred": 10,
      "flags": 1,
      "label": "Grounded",
      "description": "You completed Level 4 without jumping.",
      "howto": "Complete Level 4 without jumping."
    },
    {
      "id": 7,
      "imageId": 7,
      "cred": 10,
      "flags": 1,
      "label": "Welcome to Die!",
      "description": "You were welcomed to die by the White Queen.",
      "howto": "Have the White Queen welcome you to die."
    },
    {
      "id": 8,
      "imageId": 8,
      "cred": 25,
      "flags": 1,
      "label": "You Fell to Our Trap!",
      "description": "Mystique tried to fool you and five other players in a 6-player game.",
      "howto": "Get fooled by Mystique with five other players in a 6-player game."
    },
    {
      "id": 9,
      "imageId": 9,
      "cred": 25,
      "flags": 1,
      "label": "Score Inflation",
      "description": "You earned at least 250 points in one game.",
      "howto": "Earn at least 250 points in one game."
    },
    {
      "id": 10,
      "imageId": 10,
      "cred": 25,
      "flags": 1,
      "label": "Bamf",
      "description": "You completed the game in 25 minutes or less.",
      "howto": "Complete the game in 25 minutes or less."
    },
    {
      "id": 11,
      "imageId": 11,
      "cred": 25,
      "flags": 1,
      "label": "X-pertise",
      "description": "You completed the game on Expert difficulty.",
      "howto": "Complete the game on Expert difficulty."
    },
    {
      "id": 12,
      "imageId": 12,
      "cred": 30,
      "flags": 1,
      "label": "Master of Magnet",
      "description": "You defeated Magneto with all 6 X-Men characters!",
      "howto": "Defeat Magneto in different play sessions with all six X-Men characters."
    }
  ]
}