{
  "achievementsPossible": 12,
  "credPossible": 200,
  "achievements": [
    {
      "id": 1,
      "imageId": 1,
      "cred": 20,
      "flags": 1,
      "label": "Vanquish the Computer",
      "description": "Beat Arcade Mode.",
      "howto": "Beat Arcade Mode."
    },
    {
      "id": 2,
      "imageId": 2,
      "cred": 25,
      "flags": 1,
      "label": "Sheng Long is in Another Castle",
      "description": "Beat Akuma in Arcade Mode.",
      "howto": "Beat Akuma in Arcade Mode."
    },
    {
      "id": 3,
      "imageId": 3,
      "cred": 10,
      "flags": 1,
      "label": "Here Comes A New Challenger",
      "description": "Played 5 Ranked Matches online.",
      "howto": "Play 5 Ranked Matches online."
    },
    {
      "id": 4,
      "imageId": 4,
      "cred": 20,
      "flags": 1,
      "label": "SF 20th Anniversary!",
      "description": "Won 20 Ranked Matches Online.",
      "howto": "Win 20 Ranked Matches Online."
    },
    {
      "id": 5,
      "imageId": 5,
      "cred": 30,
      "flags": 1,
      "label": "Playing To Win",
      "description": "Won 100 Ranked Matches Online.",
      "howto": "Win 100 Ranked Matches Online."
    },
    {
      "id": 6,
      "imageId": 6,
      "cred": 30,
      "flags": 1,
      "label": "Master of All Things",
      "description": "Won With Every Character in an Online Ranked Match.",
      "howto": "Win With Every Character in an Online Ranked Match."
    },
    {
      "id": 7,
      "imageId": 7,
      "cred": 10,
      "flags": 1,
      "label": "Training for Perfection",
      "description": "5 Perfect Rounds in Arcade Mode (Any Difficulty Level, no challengers)",
      "howto": "5 Perfect Rounds in Arcade Mode (Any Difficulty Level, no challengers)"
    },
    {
      "id": 8,
      "imageId": 8,
      "cred": 5,
      "flags": 1,
      "label": "Throwing is Cheap",
      "description": "Threw your Opponent ten times in a single game.",
      "howto": "Throw your Opponent ten times in a single game."
    },
    {
      "id": 9,
      "imageId": 9,
      "cred": 10,
      "flags": 1,
      "label": "Super Finisher",
      "description": "Got one Super Finish in Arcade Mode.",
      "howto": "Get one Super Finish in Arcade Mode."
    },
    {
      "id": 10,
      "imageId": 10,
      "cred": 15,
      "flags": 1,
      "label": "Blinding Speed",
      "description": "Defeated an opponent in under 15 seconds in single player arcade mode.",
      "howto": "Defeat an opponent in under 15 seconds in single player arcade mode."
    },
    {
      "id": 11,
      "imageId": 11,
      "cred": 15,
      "flags": 1,
      "label": "Combomaniac",
      "description": "Performed a combo of 7 hits or more.",
      "howto": "Perform a combo of 7 hits or more."
    },
    {
      "id": 12,
      "imageId": 12,
      "cred": 10,
      "flags": 1,
      "label": "Sagat's Scar",
      "description": "Defeated Sagat with Ryu's fierce shoryuken.",
      "howto": "Defeat Sagat with Ryu's fierce shoryuken."
    }
  ]
}