{
  "achievementsPossible": 46,
  "credPossible": 1000,
  "achievements": [
    {
      "id": 1,
      "imageId": 1,
      "cred": 50,
      "flags": 1,
      "label": "Adventure completed!",
      "description": "Boog completed his adventure!",
      "howto": "Complete the adventure"
    },
    {
      "id": 7,
      "imageId": 6,
      "cred": 5,
      "flags": 1,
      "label": "Buddy with Rabbits!",
      "description": "Boog is buddy with the Rabbits!",
      "howto": ""
    },
    {
      "id": 8,
      "imageId": 6,
      "cred": 5,
      "flags": 1,
      "label": "Buddy with Skunks!",
      "description": "Boog is buddy with the Skunks!",
      "howto": ""
    },
    {
      "id": 9,
      "imageId": 6,
      "cred": 5,
      "flags": 1,
      "label": "Buddy with Squirrels!",
      "description": "Boog is buddy with the Squirrels!",
      "howto": ""
    },
    {
      "id": 10,
      "imageId": 6,
      "cred": 5,
      "flags": 1,
      "label": "Buddy with Ducks!",
      "description": "Boog is buddy with the Ducks!",
      "howto": ""
    },
    {
      "id": 11,
      "imageId": 6,
      "cred": 5,
      "flags": 1,
      "label": "Buddy with Deer!",
      "description": "Boog is buddy with the Deer!",
      "howto": ""
    },
    {
      "id": 12,
      "imageId": 6,
      "cred": 5,
      "flags": 1,
      "label": "Buddy with Beavers!",
      "description": "Boog is buddy with the Beavers!",
      "howto": ""
    },
    {
      "id": 13,
      "imageId": 4,
      "cred": 100,
      "flags": 1,
      "label": "Maximum Wild Points Obtained!",
      "description": "Boog completed the game with maximum Wild Points available!",
      "howto": "Complete the game with maximum Wild Points"
    },
    {
      "id": 14,
      "imageId": 5,
      "cred": 20,
      "flags": 1,
      "label": "Perfect Dinkelman Dreams!",
      "description": "Boog completed Dinkelman Dreams with maximum Wild Points!",
      "howto": ""
    },
    {
      "id": 15,
      "imageId": 5,
      "cred": 20,
      "flags": 1,
      "label": "Perfect Timberline!",
      "description": "Boog completed Timberline with maximum Wild Points!",
      "howto": ""
    },
    {
      "id": 16,
      "imageId": 5,
      "cred": 20,
      "flags": 1,
      "label": "Perfect  Wake in the Wild!",
      "description": "Boog completed Wake in the Wild with maximum Wild Points!",
      "howto": ""
    },
    {
      "id": 17,
      "imageId": 5,
      "cred": 20,
      "flags": 1,
      "label": "Perfect Meet the Skunks!",
      "description": "Boog completed Meet the Skunks with maximum Wild Points!",
      "howto": ""
    },
    {
      "id": 18,
      "imageId": 5,
      "cred": 20,
      "flags": 1,
      "label": "Perfect for Hoof it!",
      "description": "Elliot completed Hoof it with maximum Wild Points!",
      "howto": ""
    },
    {
      "id": 19,
      "imageId": 5,
      "cred": 20,
      "flags": 1,
      "label": "Perfect Mine Shafted!",
      "description": "Boog completed Mine Shafted with maximum Wild Points!",
      "howto": ""
    },
    {
      "id": 20,
      "imageId": 5,
      "cred": 20,
      "flags": 1,
      "label": "Perfect Hunted!",
      "description": "Boog completed Hunted with maximum Wild Points!",
      "howto": ""
    },
    {
      "id": 21,
      "imageId": 5,
      "cred": 20,
      "flags": 1,
      "label": "Perfect Snow Blitz!",
      "description": "Boog completed Snow Blitz with maximum Wild Points!",
      "howto": ""
    },
    {
      "id": 22,
      "imageId": 5,
      "cred": 20,
      "flags": 1,
      "label": "Perfect Crazy Quackers!",
      "description": "Boog completed Crazy Quackers with maximum Wild Points!",
      "howto": ""
    },
    {
      "id": 23,
      "imageId": 5,
      "cred": 20,
      "flags": 1,
      "label": "Perfect Fowl Duty!",
      "description": "Boog completed Fowl Duty with maximum Wild Points!",
      "howto": ""
    },
    {
      "id": 24,
      "imageId": 5,
      "cred": 20,
      "flags": 1,
      "label": "Perfect Duck and Cover!",
      "description": "Boog completed Duck and Cover with maximum Wild Points!",
      "howto": ""
    },
    {
      "id": 25,
      "imageId": 5,
      "cred": 20,
      "flags": 1,
      "label": "Perfect Beaver Damage!",
      "description": "Boog completed Beaver Damage with maximum Wild Points!",
      "howto": ""
    },
    {
      "id": 26,
      "imageId": 5,
      "cred": 20,
      "flags": 1,
      "label": "Perfect Rocky River!",
      "description": "Boog completed Rocky River with maximum Wild Points!",
      "howto": ""
    },
    {
      "id": 27,
      "imageId": 5,
      "cred": 20,
      "flags": 1,
      "label": "Perfect Shaw's Shack!",
      "description": "Boog completed Shaw's Shack with maximum Wild Points!",
      "howto": ""
    },
    {
      "id": 28,
      "imageId": 5,
      "cred": 20,
      "flags": 1,
      "label": "Perfect Start the Battle!",
      "description": "Boog completed Start the Battle with maximum Wild Points!",
      "howto": ""
    },
    {
      "id": 29,
      "imageId": 5,
      "cred": 20,
      "flags": 1,
      "label": "Perfect Protect the Clan's Tree!",
      "description": "Elliot completed Protect Clan Tree with maximum Wild Points!",
      "howto": ""
    },
    {
      "id": 30,
      "imageId": 5,
      "cred": 20,
      "flags": 1,
      "label": "Perfect Tanks a Lot!",
      "description": "Elliot completed Tanks a Lot with maximum Wild Points!",
      "howto": ""
    },
    {
      "id": 31,
      "imageId": 5,
      "cred": 20,
      "flags": 1,
      "label": "Perfect Clear the Ducks!",
      "description": "Elliot completed Clear the Ducks with maximum Wild Points!",
      "howto": ""
    },
    {
      "id": 32,
      "imageId": 5,
      "cred": 20,
      "flags": 1,
      "label": "Perfect Trouble with Trappers!",
      "description": "Boog completed Trouble with Trappers with maximum Wild Points!",
      "howto": ""
    },
    {
      "id": 33,
      "imageId": 5,
      "cred": 20,
      "flags": 1,
      "label": "Perfect Chainsaw Cha Cha!",
      "description": "Elliot completed Chainsaw Cha Cha with maximum Wild Points!",
      "howto": ""
    },
    {
      "id": 34,
      "imageId": 5,
      "cred": 20,
      "flags": 1,
      "label": "Perfect Reilly's Rampage!",
      "description": "Boog completed Reilly's Rampage with maximum Wild Points!",
      "howto": ""
    },
    {
      "id": 35,
      "imageId": 5,
      "cred": 20,
      "flags": 1,
      "label": "Perfect Toothy Torpedoes!",
      "description": "Boog completed Toothy Torpedoes with maximum Wild Points!",
      "howto": ""
    },
    {
      "id": 36,
      "imageId": 5,
      "cred": 20,
      "flags": 1,
      "label": "Perfect Shaw Showdown!",
      "description": "Boog completed Shaw Showdown with maximum Wild Points!",
      "howto": ""
    },
    {
      "id": 37,
      "imageId": 2,
      "cred": 15,
      "flags": 1,
      "label": "Butterfly Badges!",
      "description": "Boog collected all 10 Butterfly Badges in the game!",
      "howto": "Collect all 10 Butterfly Badges"
    },
    {
      "id": 38,
      "imageId": 2,
      "cred": 15,
      "flags": 1,
      "label": "Flower Badges!",
      "description": "Boog collected all 10 Flower Badges in the game!",
      "howto": "Collect all 10 Flower Badges"
    },
    {
      "id": 39,
      "imageId": 2,
      "cred": 15,
      "flags": 1,
      "label": "Trash Badges!",
      "description": "Boog collected all 10 Trash Badges in the game!",
      "howto": "Collect all 10 Trash Badges"
    },
    {
      "id": 40,
      "imageId": 2,
      "cred": 15,
      "flags": 1,
      "label": "Feather Badges!",
      "description": "Boog collected all 10 Feather Badges in the game!",
      "howto": "Collect all 10 Feather Badges"
    },
    {
      "id": 41,
      "imageId": 2,
      "cred": 15,
      "flags": 1,
      "label": "Beetle Badges!",
      "description": "Boog collected all 10 Beetle Badges in the game!",
      "howto": "Collect all 10 Beetle Badges"
    },
    {
      "id": 42,
      "imageId": 2,
      "cred": 15,
      "flags": 1,
      "label": "Acorns Badges!",
      "description": "Boog collected all 10 Acorn Badges in the game!",
      "howto": "Collect all 10 Acorn Badges"
    },
    {
      "id": 43,
      "imageId": 2,
      "cred": 15,
      "flags": 1,
      "label": "Track Badges!",
      "description": "Boog collected all 10 Track Badges in the game!",
      "howto": "Collect all 10 Track Badges"
    },
    {
      "id": 44,
      "imageId": 2,
      "cred": 15,
      "flags": 1,
      "label": "Mushrooms Badges!",
      "description": "Boog collected all 10 Mushroom Badges in the game!",
      "howto": "Collect all 10 Mushroom Badges"
    },
    {
      "id": 45,
      "imageId": 2,
      "cred": 15,
      "flags": 1,
      "label": "Leaf Badges!",
      "description": "Boog collected all 10 Leaf Badges in the game!",
      "howto": "Collect all 10 Leaf Badges"
    },
    {
      "id": 46,
      "imageId": 2,
      "cred": 15,
      "flags": 1,
      "label": "Buddy with all animals!",
      "description": "Boog is buddy with all animals in the game!",
      "howto": "Become buddy with all animals"
    },
    {
      "id": 47,
      "imageId": 2,
      "cred": 100,
      "flags": 1,
      "label": "Collection Rewards!",
      "description": "Boog unlocked all 10 Collection Rewards in the game!",
      "howto": "Unlock all 10 Collection Rewards"
    },
    {
      "id": 48,
      "imageId": 3,
      "cred": 65,
      "flags": 1,
      "label": "Wild Skills!",
      "description": "Boog learned all 15 Wild Skills in the game!",
      "howto": "Learn all 15 Wild Skills"
    },
    {
      "id": 49,
      "imageId": 6,
      "cred": 5,
      "flags": 1,
      "label": "Buddy with Porcupines!",
      "description": "Boog is buddy with the Porcupines!",
      "howto": ""
    },
    {
      "id": 50,
      "imageId": 5,
      "cred": 20,
      "flags": 1,
      "label": "Perfect Puni Mart Picnic!",
      "description": "Boog completed Puni Mart Picnic with maximum Wild Points!",
      "howto": ""
    },
    {
      "id": 51,
      "imageId": 5,
      "cred": 20,
      "flags": 1,
      "label": "Perfect Scare Bear!",
      "description": "Boog completed Scare Bear with maximum Wild Points!",
      "howto": ""
    }
  ]
}