{
  "achievementsPossible": 50,
  "credPossible": 1000,
  "achievements": [
    {
      "id": 6,
      "imageId": 20,
      "cred": 100,
      "flags": 4,
      "label": "Freed Halis",
      "description": "Kameo rescued Halis from the Forest Temple",
      "howto": "Kameo rescued Halis from the Forest Temple"
    },
    {
      "id": 7,
      "imageId": 21,
      "cred": 100,
      "flags": 4,
      "label": "Freed Lenya",
      "description": "Kameo saved Lenya from the Water Temple",
      "howto": "Kameo saved Lenya from the Water Temple"
    },
    {
      "id": 8,
      "imageId": 22,
      "cred": 100,
      "flags": 4,
      "label": "Freed Yeros",
      "description": "Kameo brought Yeros home from the Snow Temple",
      "howto": "Kameo brought Yeros home from the Snow Temple"
    },
    {
      "id": 9,
      "imageId": 7,
      "cred": 100,
      "flags": 1,
      "label": "Beaten Thorn",
      "description": "Kameo defeated the Troll King Thorn!",
      "howto": "Kameo defeated the Troll King Thorn!"
    },
    {
      "id": 10,
      "imageId": 16,
      "cred": 20,
      "flags": 4,
      "label": "Found Pummel Weed",
      "description": "Kameo can transform into one Elemental Warrior",
      "howto": "Kameo can transform into one Elemental Warrior"
    },
    {
      "id": 11,
      "imageId": 17,
      "cred": 20,
      "flags": 4,
      "label": "Found Rubble",
      "description": "Kameo can transform into two Elemental Warriors",
      "howto": "Kameo can transform into two Elemental Warriors"
    },
    {
      "id": 12,
      "imageId": 11,
      "cred": 20,
      "flags": 4,
      "label": "Found Ash",
      "description": "Kameo can transform into three Elemental Warriors",
      "howto": "Kameo can transform into three Elemental Warriors"
    },
    {
      "id": 13,
      "imageId": 15,
      "cred": 20,
      "flags": 4,
      "label": "Found Major Ruin",
      "description": "Kameo can transform into four Elemental Warriors",
      "howto": "Kameo can transform into four Elemental Warriors"
    },
    {
      "id": 14,
      "imageId": 13,
      "cred": 20,
      "flags": 4,
      "label": "Found Deep Blue",
      "description": "Kameo can transform into five Elemental Warriors",
      "howto": "Kameo can transform into five Elemental Warriors"
    },
    {
      "id": 15,
      "imageId": 12,
      "cred": 20,
      "flags": 4,
      "label": "Found Chilla",
      "description": "Kameo can transform into six Elemental Warriors",
      "howto": "Kameo can transform into six Elemental Warriors"
    },
    {
      "id": 16,
      "imageId": 14,
      "cred": 20,
      "flags": 4,
      "label": "Found Flex",
      "description": "Kameo can transform into seven Elemental Warriors",
      "howto": "Kameo can transform into seven Elemental Warriors"
    },
    {
      "id": 17,
      "imageId": 10,
      "cred": 20,
      "flags": 4,
      "label": "Found 40 Below",
      "description": "Kameo can transform into eight Elemental Warriors",
      "howto": "Kameo can transform into eight Elemental Warriors"
    },
    {
      "id": 18,
      "imageId": 18,
      "cred": 20,
      "flags": 4,
      "label": "Found Snare",
      "description": "Kameo can transform into nine Elemental Warriors",
      "howto": "Kameo can transform into nine Elemental Warriors"
    },
    {
      "id": 19,
      "imageId": 19,
      "cred": 20,
      "flags": 4,
      "label": "Found Thermite",
      "description": "Kameo has command of all the Elemental Warriors!",
      "howto": "Kameo has command of all the Elemental Warriors!"
    },
    {
      "id": 24,
      "imageId": 29,
      "cred": 50,
      "flags": 2,
      "label": "Thorn's Castle ranking",
      "description": "'A' ranking on Thorn's Castle",
      "howto": "'A' ranking on Thorn's Castle"
    },
    {
      "id": 25,
      "imageId": 25,
      "cred": 50,
      "flags": 2,
      "label": "Forgotten Forest ranking",
      "description": "'A' ranking on Forgotten Forest",
      "howto": "'A' ranking on Forgotten Forest"
    },
    {
      "id": 34,
      "imageId": 28,
      "cred": 50,
      "flags": 2,
      "label": "Water Temple ranking",
      "description": "'A' ranking on Water Temple",
      "howto": "'A' ranking on Water Temple"
    },
    {
      "id": 39,
      "imageId": 26,
      "cred": 50,
      "flags": 2,
      "label": "Snow Temple ranking",
      "description": "'A' ranking on Snow Temple",
      "howto": "'A' ranking on Snow Temple"
    },
    {
      "id": 44,
      "imageId": 27,
      "cred": 50,
      "flags": 2,
      "label": "Thorn's Pass ranking",
      "description": "'A' ranking on Thorn's Pass",
      "howto": "'A' ranking on Thorn's Pass"
    },
    {
      "id": 49,
      "imageId": 24,
      "cred": 50,
      "flags": 2,
      "label": "Thorn's Airship ranking",
      "description": "'A' ranking on Thorn's Airship",
      "howto": "'A' ranking on Thorn's Airship"
    },
    {
      "id": 50,
      "imageId": 4,
      "cred": 10,
      "flags": 1,
      "label": "Beaten Queen Thyra (Co-Op)",
      "description": "Defeated Queen Thyra in a Co-Op Quest",
      "howto": "Defeated Queen Thyra in a Co-Op Quest"
    },
    {
      "id": 51,
      "imageId": 8,
      "cred": 10,
      "flags": 1,
      "label": "Beaten Old Mawood (Co-Op)",
      "description": "Defeated Old Mawood in a Co-Op Quest",
      "howto": "Defeated Old Mawood in a Co-Op Quest"
    },
    {
      "id": 52,
      "imageId": 9,
      "cred": 10,
      "flags": 1,
      "label": "Beaten Corallis (Co-Op)",
      "description": "Defeated Corallis in a Co-Op Quest",
      "howto": "Defeated Corallis in a Co-Op Quest"
    },
    {
      "id": 53,
      "imageId": 5,
      "cred": 10,
      "flags": 1,
      "label": "Beaten Lord Drok (Co-Op)",
      "description": "Defeated Lord Drok in a Co-Op Quest",
      "howto": "Defeated Lord Drok in a Co-Op Quest"
    },
    {
      "id": 54,
      "imageId": 6,
      "cred": 10,
      "flags": 1,
      "label": "Beaten Thorn (Co-Op)",
      "description": "Defeated Thorn in a Co-Op Quest",
      "howto": "Defeated Thorn in a Co-Op Quest"
    },
    {
      "id": 55,
      "imageId": 23,
      "cred": 50,
      "flags": 1,
      "label": "Game Complete",
      "description": "The game has been fully completed!!",
      "howto": "The game has been fully completed!!"
    },
    {
      "id": 59,
      "imageId": 1,
      "cred": 0,
      "flags": 1,
      "label": "Thorn's Castle Co-Op 'A'",
      "description": "Got a Co-Op 'A' rank on Thorn's Castle",
      "howto": "Got a Co-Op 'A' rank on Thorn's Castle"
    },
    {
      "id": 60,
      "imageId": 2,
      "cred": 0,
      "flags": 1,
      "label": "Forgotten Forest Co-Op 'A'",
      "description": "Got a Co-Op 'A' rank on Forgotten Forest",
      "howto": "Got a Co-Op 'A' rank on Forgotten Forest"
    },
    {
      "id": 61,
      "imageId": 3,
      "cred": 0,
      "flags": 1,
      "label": "Water Temple Co-Op 'A'",
      "description": "Got a Co-Op 'A' rank on Water Temple",
      "howto": "Got a Co-Op 'A' rank on Water Temple"
    },
    {
      "id": 62,
      "imageId": 35,
      "cred": 0,
      "flags": 1,
      "label": "Snow Temple Co-Op 'A'",
      "description": "Got a Co-Op 'A' rank on Snow Temple",
      "howto": "Got a Co-Op 'A' rank on Snow Temple"
    },
    {
      "id": 63,
      "imageId": 30,
      "cred": 0,
      "flags": 1,
      "label": "Thorn's Pass Co-Op 'A'",
      "description": "Got a Co-Op 'A' rank on Thorn's Pass",
      "howto": "Got a Co-Op 'A' rank on Thorn's Pass"
    },
    {
      "id": 64,
      "imageId": 31,
      "cred": 0,
      "flags": 1,
      "label": "Thorn's Airship Co-Op 'A'",
      "description": "Got a Co-Op 'A' rank on Thorn's Airship",
      "howto": "Got a Co-Op 'A' rank on Thorn's Airship"
    },
    {
      "id": 65,
      "imageId": 32,
      "cred": 0,
      "flags": 1,
      "label": "10 Live Co-Op games",
      "description": "You've hosted 10 Xbox Live games on a single savegame!",
      "howto": "You've hosted 10 Xbox Live games on a single savegame!"
    },
    {
      "id": 66,
      "imageId": 33,
      "cred": 0,
      "flags": 1,
      "label": "20 Live Co-Op games",
      "description": "You've hosted 20 Xbox Live games on a single savegame!",
      "howto": "You've hosted 20 Xbox Live games on a single savegame!"
    },
    {
      "id": 67,
      "imageId": 34,
      "cred": 0,
      "flags": 1,
      "label": "50 Live Co-Op games",
      "description": "You've hosted 50 Xbox Live games on a single savegame!",
      "howto": "You've hosted 50 Xbox Live games on a single savegame!"
    },
    {
      "id": 68,
      "imageId": 36,
      "cred": 0,
      "flags": 1,
      "label": "Thorn's Castle Expert",
      "description": "Beat Thorn's Castle in Expert Mode",
      "howto": "Beat Thorn's Castle in Expert Mode"
    },
    {
      "id": 69,
      "imageId": 37,
      "cred": 0,
      "flags": 1,
      "label": "Forgotten Forest Expert",
      "description": "Beat Forgotten Forest in Expert Mode",
      "howto": "Beat Forgotten Forest in Expert Mode"
    },
    {
      "id": 70,
      "imageId": 38,
      "cred": 0,
      "flags": 1,
      "label": "Water Temple Expert",
      "description": "Beat Water Temple in Expert Mode",
      "howto": "Beat Water Temple in Expert Mode"
    },
    {
      "id": 71,
      "imageId": 39,
      "cred": 0,
      "flags": 1,
      "label": "Snow Temple Expert",
      "description": "Beat Snow Temple in Expert Mode",
      "howto": "Beat Snow Temple in Expert Mode"
    },
    {
      "id": 72,
      "imageId": 40,
      "cred": 0,
      "flags": 1,
      "label": "Thorn's Pass Expert",
      "description": "Beat Thorn's Pass in Expert Mode",
      "howto": "Beat Thorn's Pass in Expert Mode"
    },
    {
      "id": 73,
      "imageId": 41,
      "cred": 0,
      "flags": 1,
      "label": "Thorn's Airship Expert",
      "description": "Beat Thorn's Airship in Expert Mode",
      "howto": "Beat Thorn's Airship in Expert Mode"
    },
    {
      "id": 74,
      "imageId": 42,
      "cred": 0,
      "flags": 1,
      "label": "Castle Time Attack 'A'",
      "description": "'A' rank on Time Attack (Thorn's Castle)",
      "howto": "'A' rank on Time Attack (Thorn's Castle)"
    },
    {
      "id": 75,
      "imageId": 43,
      "cred": 0,
      "flags": 1,
      "label": "Forest Time Attack 'A'",
      "description": "'A' rank on Time Attack (Forgotten Forest)",
      "howto": "'A' rank on Time Attack (Forgotten Forest)"
    },
    {
      "id": 76,
      "imageId": 44,
      "cred": 0,
      "flags": 1,
      "label": "Water Time Attack 'A'",
      "description": "'A' rank on Time Attack (Water Temple)",
      "howto": "'A' rank on Time Attack (Water Temple)"
    },
    {
      "id": 77,
      "imageId": 45,
      "cred": 0,
      "flags": 1,
      "label": "Snow Time Attack 'A'",
      "description": "'A' rank on Time Attack (Snow Temple)",
      "howto": "'A' rank on Time Attack (Snow Temple)"
    },
    {
      "id": 78,
      "imageId": 46,
      "cred": 0,
      "flags": 1,
      "label": "Pass Time Attack 'A'",
      "description": "'A' rank on Time Attack (Thorn's Pass)",
      "howto": "'A' rank on Time Attack (Thorn's Pass)"
    },
    {
      "id": 79,
      "imageId": 47,
      "cred": 0,
      "flags": 1,
      "label": "Airship Time Attack 'A'",
      "description": "'A' rank on Time Attack (Thorn's Airship)",
      "howto": "'A' rank on Time Attack (Thorn's Airship)"
    },
    {
      "id": 80,
      "imageId": 48,
      "cred": 0,
      "flags": 1,
      "label": "Treasure Hunter",
      "description": "You've found a mythical Mystery Gem! (Rune Battle)",
      "howto": "You've found a mythical Mystery Gem! (Rune Battle)"
    },
    {
      "id": 81,
      "imageId": 49,
      "cred": 0,
      "flags": 1,
      "label": "Rune Champion",
      "description": "You earned 5000 runes in a single battle!",
      "howto": "You earned 5000 runes in a single battle!"
    },
    {
      "id": 82,
      "imageId": 50,
      "cred": 0,
      "flags": 1,
      "label": "And the winner is...",
      "description": "You've downloaded the winning skins from the Kameo Design-A-Skin competition!",
      "howto": "You've downloaded the winning skins from the Kameo Design-A-Skin competition!"
    }
  ]
}