{
  "achievementsPossible": 50,
  "credPossible": 1000,
  "achievements": [
    {
      "id": 1,
      "imageId": 28,
      "cred": 30,
      "flags": 4,
      "label": "Bar Fight",
      "description": "Defeated Victor Creed (Sabretooth)",
      "howto": "Defeated Victor Creed (Sabretooth)"
    },
    {
      "id": 2,
      "imageId": 25,
      "cred": 30,
      "flags": 4,
      "label": "Helicopter Ride",
      "description": "Defeated David Nord (Agent Zero)",
      "howto": "Defeated David Nord (Agent Zero)"
    },
    {
      "id": 3,
      "imageId": 29,
      "cred": 30,
      "flags": 4,
      "label": "Fallen Sentinel",
      "description": "Defeated the Sentinel Mark I",
      "howto": "Defeated the Sentinel Mark I"
    },
    {
      "id": 4,
      "imageId": 26,
      "cred": 30,
      "flags": 4,
      "label": "Put up your Dukes",
      "description": "Defeated Fred Dukes (The Blob)",
      "howto": "Defeated Fred Dukes (The Blob)"
    },
    {
      "id": 5,
      "imageId": 27,
      "cred": 30,
      "flags": 4,
      "label": "52 Pickup",
      "description": "Defeated Remy LeBeau (Gambit)",
      "howto": "Defeated Remy LeBeau (Gambit)"
    },
    {
      "id": 6,
      "imageId": 30,
      "cred": 50,
      "flags": 4,
      "label": "The Dead Pool",
      "description": "Defeated Weapon 11 (Deadpool)",
      "howto": "Defeated Weapon 11 (Deadpool)"
    },
    {
      "id": 7,
      "imageId": 2,
      "cred": 10,
      "flags": 4,
      "label": "Getting Started",
      "description": "Killed 100 enemies",
      "howto": "Killed 100 enemies"
    },
    {
      "id": 8,
      "imageId": 3,
      "cred": 20,
      "flags": 4,
      "label": "A Day's Work",
      "description": "Killed 500 enemies",
      "howto": "Killed 500 enemies"
    },
    {
      "id": 9,
      "imageId": 4,
      "cred": 30,
      "flags": 4,
      "label": "What I Do Best",
      "description": "Killed 2000 enemies",
      "howto": "Killed 2000 enemies"
    },
    {
      "id": 10,
      "imageId": 11,
      "cred": 20,
      "flags": 4,
      "label": "You Can't Hide",
      "description": "Lunged to 250 enemies",
      "howto": "Lunged to 250 enemies"
    },
    {
      "id": 11,
      "imageId": 9,
      "cred": 10,
      "flags": 4,
      "label": "Lunge",
      "description": "Lunged to 25 enemies",
      "howto": "Lunged to 25 enemies"
    },
    {
      "id": 12,
      "imageId": 10,
      "cred": 15,
      "flags": 4,
      "label": "Pounce",
      "description": "Lunged to 100 enemies",
      "howto": "Lunged to 100 enemies"
    },
    {
      "id": 13,
      "imageId": 8,
      "cred": 10,
      "flags": 4,
      "label": "Piggy Back Ride",
      "description": "Lunged to a W.E.N.D.I.G.0 prototype's back",
      "howto": "Lunged to a W.E.N.D.I.G.0 prototype's back"
    },
    {
      "id": 14,
      "imageId": 12,
      "cred": 10,
      "flags": 4,
      "label": "Quick Killer",
      "description": "Quick Killed 1 enemy",
      "howto": "Quick Killed 1 enemy"
    },
    {
      "id": 15,
      "imageId": 14,
      "cred": 15,
      "flags": 4,
      "label": "Efficient Killer",
      "description": "Quick Killed 20 enemies",
      "howto": "Quick Killed 20 enemies"
    },
    {
      "id": 16,
      "imageId": 13,
      "cred": 20,
      "flags": 4,
      "label": "Perfect Killer",
      "description": "Quick Killed 3 enemies in a row",
      "howto": "Quick Killed 3 enemies in a row"
    },
    {
      "id": 17,
      "imageId": 22,
      "cred": 10,
      "flags": 4,
      "label": "Drop Dead",
      "description": "Killed 10 enemies by throwing them off high areas",
      "howto": "Killed 10 enemies by throwing them off high areas"
    },
    {
      "id": 18,
      "imageId": 23,
      "cred": 10,
      "flags": 2,
      "label": "Apprentice",
      "description": "Raised One Combat Reflex to Master Level",
      "howto": "Raised One Combat Reflex to Master Level"
    },
    {
      "id": 19,
      "imageId": 24,
      "cred": 25,
      "flags": 2,
      "label": "Samurai",
      "description": "Raised All Combat Reflexes to Master Level",
      "howto": "Raised All Combat Reflexes to Master Level"
    },
    {
      "id": 20,
      "imageId": 41,
      "cred": 15,
      "flags": 4,
      "label": "Mutant Lover",
      "description": "Raised one Mutagen to level 3",
      "howto": "Raised one Mutagen to level 3"
    },
    {
      "id": 21,
      "imageId": 6,
      "cred": 20,
      "flags": 4,
      "label": "Astonishing",
      "description": "Found 1/2 of all Dog Tags in the game",
      "howto": "Found 1/2 of all Dog Tags in the game"
    },
    {
      "id": 22,
      "imageId": 5,
      "cred": 30,
      "flags": 4,
      "label": "Devil's Brigade",
      "description": "Found all Dog Tags in the game",
      "howto": "Found all Dog Tags in the game"
    },
    {
      "id": 23,
      "imageId": 38,
      "cred": 10,
      "flags": 4,
      "label": "Defensive",
      "description": "Performed 1 Counter move",
      "howto": "Performed 1 Counter move"
    },
    {
      "id": 24,
      "imageId": 39,
      "cred": 20,
      "flags": 4,
      "label": "Untouchable",
      "description": "Performed 25 Counter moves",
      "howto": "Performed 25 Counter moves"
    },
    {
      "id": 25,
      "imageId": 15,
      "cred": 10,
      "flags": 4,
      "label": "Catch!",
      "description": "Killed 1 enemy with a reflected projectile",
      "howto": "Killed 1 enemy with a reflected projectile"
    },
    {
      "id": 26,
      "imageId": 16,
      "cred": 20,
      "flags": 4,
      "label": "Boomerang",
      "description": "Killed 25 enemies with a reflected projectile",
      "howto": "Killed 25 enemies with a reflected projectile"
    },
    {
      "id": 27,
      "imageId": 20,
      "cred": 10,
      "flags": 4,
      "label": "Aerial Assault",
      "description": "Performed 10 Air Grabs",
      "howto": "Performed 10 Air Grabs"
    },
    {
      "id": 28,
      "imageId": 47,
      "cred": 15,
      "flags": 4,
      "label": "Ultimate Wolverine",
      "description": "Fought 4 W.E.N.D.I.G.0 prototypes at the same time and defeated them at Alkali lake.",
      "howto": "Fought 4 W.E.N.D.I.G.0 prototypes at the same time and defeated them at Alkali lake."
    },
    {
      "id": 29,
      "imageId": 34,
      "cred": 30,
      "flags": 6,
      "label": "Spillway Escape",
      "description": "Escapes from Weapon X",
      "howto": "Escapes from Weapon X"
    },
    {
      "id": 30,
      "imageId": 42,
      "cred": 15,
      "flags": 4,
      "label": "Threading the Needle",
      "description": "Flew through the O ring in the Sentinel Boss Battle",
      "howto": "Flew through the O ring in the Sentinel Boss Battle"
    },
    {
      "id": 31,
      "imageId": 46,
      "cred": 30,
      "flags": 6,
      "label": "The Village",
      "description": "Completed the Jungle Mission",
      "howto": "Completed the Jungle Mission"
    },
    {
      "id": 32,
      "imageId": 33,
      "cred": 20,
      "flags": 4,
      "label": "Hot Potato",
      "description": "Light 20 enemies on fire",
      "howto": "Light 20 enemies on fire"
    },
    {
      "id": 33,
      "imageId": 17,
      "cred": 15,
      "flags": 4,
      "label": "Shotgun Epic Fail",
      "description": "Killed 25 Ghosts with their own weapon",
      "howto": "Killed 25 Ghosts with their own weapon"
    },
    {
      "id": 34,
      "imageId": 43,
      "cred": 15,
      "flags": 4,
      "label": "James Howlett",
      "description": "Performed a Wolverine to Wolverine Lunge",
      "howto": "Performed a Wolverine to Wolverine Lunge"
    },
    {
      "id": 35,
      "imageId": 48,
      "cred": 15,
      "flags": 4,
      "label": "WoW!",
      "description": "You feel cold as you examine the skeleton and read the name \"Arthas\" etched into the nearby sword",
      "howto": "You feel cold as you examine the skeleton and read the name \"Arthas\" etched into the nearby sword"
    },
    {
      "id": 36,
      "imageId": 19,
      "cred": 15,
      "flags": 4,
      "label": "Aerial Master",
      "description": "Got 6 enemies airborne at once",
      "howto": "Got 6 enemies airborne at once"
    },
    {
      "id": 37,
      "imageId": 37,
      "cred": 35,
      "flags": 2,
      "label": "Fully Loaded",
      "description": "Maxed out all upgrades",
      "howto": "Maxed out all upgrades"
    },
    {
      "id": 38,
      "imageId": 18,
      "cred": 15,
      "flags": 4,
      "label": "Slice n' Dice",
      "description": "Killed 6 enemies with a single attack",
      "howto": "Killed 6 enemies with a single attack"
    },
    {
      "id": 39,
      "imageId": 7,
      "cred": 15,
      "flags": 4,
      "label": "Found!",
      "description": "You found a mysterious hatch!",
      "howto": "You found a mysterious hatch!"
    },
    {
      "id": 40,
      "imageId": 32,
      "cred": 15,
      "flags": 4,
      "label": "Slaughter House",
      "description": "Dismembered 100 enemies",
      "howto": "Dismembered 100 enemies"
    },
    {
      "id": 41,
      "imageId": 1,
      "cred": 25,
      "flags": 4,
      "label": "Blender",
      "description": "Killed 200 enemies with Claw Spin",
      "howto": "Killed 200 enemies with Claw Spin"
    },
    {
      "id": 42,
      "imageId": 21,
      "cred": 50,
      "flags": 4,
      "label": "Walking Death",
      "description": "Beat the game on Hard Difficulty",
      "howto": "Beat the game on Hard Difficulty"
    },
    {
      "id": 43,
      "imageId": 35,
      "cred": 20,
      "flags": 4,
      "label": "Heightened Senses",
      "description": "Killed 200 enemies in Feral Sense",
      "howto": "Killed 200 enemies in Feral Sense"
    },
    {
      "id": 44,
      "imageId": 49,
      "cred": 15,
      "flags": 4,
      "label": "Environmentally Friendly",
      "description": "Killed 10 enemies using objects in the environment",
      "howto": "Killed 10 enemies using objects in the environment"
    },
    {
      "id": 45,
      "imageId": 50,
      "cred": 20,
      "flags": 4,
      "label": "Whatever it Takes",
      "description": "Killed 30 enemies using objects in the environment",
      "howto": "Killed 30 enemies using objects in the environment"
    },
    {
      "id": 46,
      "imageId": 40,
      "cred": 20,
      "flags": 4,
      "label": "Bloodlust",
      "description": "Killed 50 enemies while in Berserker mode",
      "howto": "Killed 50 enemies while in Berserker mode"
    },
    {
      "id": 47,
      "imageId": 31,
      "cred": 25,
      "flags": 4,
      "label": "Weapon X",
      "description": "Killed 150 enemies while in Berserker mode",
      "howto": "Killed 150 enemies while in Berserker mode"
    },
    {
      "id": 48,
      "imageId": 45,
      "cred": 15,
      "flags": 4,
      "label": "The Cake",
      "description": "You found the cake, yummy!",
      "howto": "You found the cake, yummy!"
    },
    {
      "id": 49,
      "imageId": 44,
      "cred": 10,
      "flags": 4,
      "label": "Stick Around",
      "description": "Impaled Victor Creed outside the Bar",
      "howto": "Impaled Victor Creed outside the Bar"
    },
    {
      "id": 50,
      "imageId": 36,
      "cred": 10,
      "flags": 4,
      "label": "Clean Up on all Aisles",
      "description": "Destroyed all objects in the grocery store fight with Fred Dukes (The Blob)",
      "howto": "Destroyed all objects in the grocery store fight with Fred Dukes (The Blob)"
    }
  ]
}