{
  "achievementsPossible": 1,
  "credPossible": 0,
  "achievements": [
    {
      "id": 203,
      "imageId": 2,
      "cred": 0,
      "flags": 1,
      "label": "Xbox 360 Launch Team",
      "description": "November 22nd, 2005 we brought the world a new way to play games and have fun. Jump in.",
      "howto": "Unachieved"
    }
  ]
}