{
  "achievementsPossible": 70,
  "credPossible": 1380,
  "achievements": [
    {
      "id": 14,
      "imageId": 13,
      "cred": 15,
      "flags": 1,
      "label": "Soldier",
      "description": "Kill 100 Human Enemies.",
      "howto": "Kill 100 Human Enemies."
    },
    {
      "id": 15,
      "imageId": 14,
      "cred": 15,
      "flags": 1,
      "label": "Antibiotic",
      "description": "Kill 100 Mutants.",
      "howto": "Kill 100 Mutants."
    },
    {
      "id": 17,
      "imageId": 15,
      "cred": 20,
      "flags": 1,
      "label": "Shadow",
      "description": "Stealthily kill 15 Enemies.",
      "howto": "Stealthily kill 15 Enemies."
    },
    {
      "id": 19,
      "imageId": 16,
      "cred": 10,
      "flags": 1,
      "label": "Inferno",
      "description": "Set 2 Enemies on fire at once.",
      "howto": "Set 2 Enemies on fire at once."
    },
    {
      "id": 22,
      "imageId": 17,
      "cred": 10,
      "flags": 1,
      "label": "Tesla",
      "description": "Break 50 Lights.",
      "howto": "Break 50 Lights."
    },
    {
      "id": 23,
      "imageId": 18,
      "cred": 15,
      "flags": 1,
      "label": "Edison",
      "description": "Turn off 40 Lights without breaking them.",
      "howto": "Turn off 40 Lights without breaking them."
    },
    {
      "id": 26,
      "imageId": 19,
      "cred": 10,
      "flags": 1,
      "label": "Ever Vigilant ",
      "description": "Disarm 10 Traps.",
      "howto": "Disarm 10 Traps."
    },
    {
      "id": 28,
      "imageId": 20,
      "cred": 10,
      "flags": 1,
      "label": "Businessman",
      "description": "Make 100 Purchases.",
      "howto": "Make 100 Purchases."
    },
    {
      "id": 29,
      "imageId": 21,
      "cred": 10,
      "flags": 1,
      "label": "Walking Bank",
      "description": "Collect 1000 Military Rounds.",
      "howto": "Collect 1000 Military Rounds."
    },
    {
      "id": 32,
      "imageId": 22,
      "cred": 10,
      "flags": 1,
      "label": "Musician",
      "description": "Use all Musical Instruments in the game.",
      "howto": "Use all Musical Instruments in the game."
    },
    {
      "id": 34,
      "imageId": 23,
      "cred": 10,
      "flags": 1,
      "label": "First Draft",
      "description": "Write 10 of Artyom's hidden Diary pages.",
      "howto": "Write 10 of Artyom's hidden Diary pages."
    },
    {
      "id": 37,
      "imageId": 24,
      "cred": 30,
      "flags": 1,
      "label": "Published",
      "description": "Complete all 43 of Artyom's hidden Diary pages.",
      "howto": "Complete all 43 of Artyom's hidden Diary pages."
    },
    {
      "id": 38,
      "imageId": 25,
      "cred": 10,
      "flags": 1,
      "label": "Rabbit",
      "description": "Complete training sequence.",
      "howto": "Complete training sequence."
    },
    {
      "id": 39,
      "imageId": 26,
      "cred": 10,
      "flags": 1,
      "label": "Not A Rabbit ",
      "description": "Finish the ASHES level without taking a hit.",
      "howto": "Finish the ASHES level without taking a hit."
    },
    {
      "id": 40,
      "imageId": 27,
      "cred": 10,
      "flags": 1,
      "label": "Freedom!",
      "description": "Free the Prisoners.",
      "howto": "Free the Prisoners."
    },
    {
      "id": 41,
      "imageId": 28,
      "cred": 10,
      "flags": 1,
      "label": "Clean Escape",
      "description": "Escape the chasing Nazis on the REICH level without being caught once.",
      "howto": "Escape the chasing Nazis on the REICH level without being caught once."
    },
    {
      "id": 42,
      "imageId": 29,
      "cred": 20,
      "flags": 1,
      "label": "Invisible Intruder",
      "description": "Complete the SEPARATION level without killing or raising alarm.",
      "howto": "Complete the SEPARATION level without killing or raising alarm."
    },
    {
      "id": 43,
      "imageId": 30,
      "cred": 10,
      "flags": 1,
      "label": "A Present",
      "description": "Take the Custom Pistol from the Locked Box.",
      "howto": "Take the Custom Pistol from the Locked Box."
    },
    {
      "id": 44,
      "imageId": 31,
      "cred": 20,
      "flags": 1,
      "label": "Invisible Savior",
      "description": "Complete the FACILITY level without killing or raising alarm.",
      "howto": "Complete the FACILITY level without killing or raising alarm."
    },
    {
      "id": 45,
      "imageId": 32,
      "cred": 10,
      "flags": 1,
      "label": "Tortoise",
      "description": "Make 10 Spiders flip belly-up.",
      "howto": "Make 10 Spiders flip belly-up."
    },
    {
      "id": 46,
      "imageId": 33,
      "cred": 10,
      "flags": 1,
      "label": "Mouse",
      "description": "Complete the ECHOES level undetected by the Watchmen.",
      "howto": "Complete the ECHOES level undetected by the Watchmen."
    },
    {
      "id": 47,
      "imageId": 34,
      "cred": 10,
      "flags": 1,
      "label": "Patron of the Arts",
      "description": "Watch the entire Theater Show.",
      "howto": "Watch the entire Theater Show."
    },
    {
      "id": 48,
      "imageId": 35,
      "cred": 10,
      "flags": 1,
      "label": "Within a Hair of Death",
      "description": "Escape from the Red Line.",
      "howto": "Escape from the Red Line."
    },
    {
      "id": 49,
      "imageId": 36,
      "cred": 10,
      "flags": 1,
      "label": "Derailed",
      "description": "Kill all armed enemies on the REVOLUTION level, including all reinforcements.",
      "howto": "Kill all armed enemies on the REVOLUTION level, including all reinforcements."
    },
    {
      "id": 50,
      "imageId": 37,
      "cred": 20,
      "flags": 1,
      "label": "Invisible Soldier",
      "description": "Complete the REVOLUTION level without killing and raising an alarm.",
      "howto": "Complete the REVOLUTION level without killing and raising an alarm."
    },
    {
      "id": 51,
      "imageId": 38,
      "cred": 20,
      "flags": 1,
      "label": "Scram",
      "description": "Kill all Watchmen before they reach the Railcar.",
      "howto": "Kill all Watchmen before they reach the Railcar."
    },
    {
      "id": 52,
      "imageId": 39,
      "cred": 15,
      "flags": 1,
      "label": "Commando",
      "description": "Rescue the Women and Children on the BANDITS level without raising alarm.",
      "howto": "Rescue the Women and Children on the BANDITS level without raising alarm."
    },
    {
      "id": 53,
      "imageId": 40,
      "cred": 15,
      "flags": 1,
      "label": "Soup",
      "description": "Kill 5 Shrimp with Grenades.",
      "howto": "Kill 5 Shrimp with Grenades."
    },
    {
      "id": 54,
      "imageId": 41,
      "cred": 10,
      "flags": 1,
      "label": "Reunion",
      "description": "Find and return the crying child's Teddy Bear.",
      "howto": "Find and return the crying child's Teddy Bear."
    },
    {
      "id": 55,
      "imageId": 42,
      "cred": 10,
      "flags": 1,
      "label": "Diver",
      "description": "Fall in the Swamp 10 times.",
      "howto": "Fall in the Swamp 10 times."
    },
    {
      "id": 57,
      "imageId": 43,
      "cred": 20,
      "flags": 1,
      "label": "Equipped",
      "description": "Find all Equipment Stashes in the swamps.",
      "howto": "Find all Equipment Stashes in the swamps."
    },
    {
      "id": 58,
      "imageId": 44,
      "cred": 20,
      "flags": 1,
      "label": "Big Momma",
      "description": "Kill the Rhino.",
      "howto": "Kill the Rhino."
    },
    {
      "id": 59,
      "imageId": 45,
      "cred": 20,
      "flags": 1,
      "label": "Savior",
      "description": "Remove your mask when Lesnitsky demands it.",
      "howto": "Remove your mask when Lesnitsky demands it."
    },
    {
      "id": 60,
      "imageId": 46,
      "cred": 15,
      "flags": 1,
      "label": "Forgotten",
      "description": "Find the Hidden Ammo in the abandoned part of the station on the QUARANTINE level.",
      "howto": "Find the Hidden Ammo in the abandoned part of the station on the QUARANTINE level."
    },
    {
      "id": 61,
      "imageId": 47,
      "cred": 10,
      "flags": 1,
      "label": "Nobody's Home",
      "description": "Ignore the Phone Call in the Anomaly.",
      "howto": "Ignore the Phone Call in the Anomaly."
    },
    {
      "id": 62,
      "imageId": 48,
      "cred": 10,
      "flags": 1,
      "label": "Bloodlust",
      "description": "Kill all the Reds on the THE CHASE level.",
      "howto": "Kill all the Reds on the THE CHASE level."
    },
    {
      "id": 63,
      "imageId": 49,
      "cred": 30,
      "flags": 1,
      "label": "Van Helsing",
      "description": "Kill a Demon with the Helsing.",
      "howto": "Kill a Demon with the Helsing."
    },
    {
      "id": 64,
      "imageId": 50,
      "cred": 30,
      "flags": 1,
      "label": "Rain Man",
      "description": "Complete the BRIDGE level without a kill.",
      "howto": "Complete the BRIDGE level without a kill."
    },
    {
      "id": 65,
      "imageId": 51,
      "cred": 10,
      "flags": 1,
      "label": "Secret",
      "description": "Find out about the Reds' plans.",
      "howto": "Find out about the Reds' plans."
    },
    {
      "id": 66,
      "imageId": 52,
      "cred": 20,
      "flags": 1,
      "label": "Back to the Past",
      "description": "See all Visions in the Dead City.",
      "howto": "See all Visions in the Dead City."
    },
    {
      "id": 67,
      "imageId": 53,
      "cred": 35,
      "flags": 1,
      "label": "Revenge",
      "description": "Kill Pavel.",
      "howto": "Kill Pavel."
    },
    {
      "id": 68,
      "imageId": 54,
      "cred": 20,
      "flags": 1,
      "label": "Forest Guardian",
      "description": "Save the Bear from the Watchmen after the fight.",
      "howto": "Save the Bear from the Watchmen after the fight."
    },
    {
      "id": 69,
      "imageId": 55,
      "cred": 25,
      "flags": 1,
      "label": "Revelation",
      "description": "Make Moskvin tell the truth with help from the Dark One.",
      "howto": "Make Moskvin tell the truth with help from the Dark One."
    },
    {
      "id": 70,
      "imageId": 56,
      "cred": 50,
      "flags": 1,
      "label": "True Spartan",
      "description": "Hold the Platform without dying.",
      "howto": "Hold the Platform without dying."
    },
    {
      "id": 71,
      "imageId": 57,
      "cred": 80,
      "flags": 1,
      "label": "C'est la vie",
      "description": "Destroy D6.",
      "howto": "Destroy D6."
    },
    {
      "id": 72,
      "imageId": 58,
      "cred": 100,
      "flags": 1,
      "label": "Redemption",
      "description": "Save D6.",
      "howto": "Save D6."
    },
    {
      "id": 77,
      "imageId": 59,
      "cred": 10,
      "flags": 1,
      "label": "No shooting allowed",
      "description": "Kill 10 enemies in a row with Throwing Knives.",
      "howto": "Kill 10 enemies in a row with Throwing Knives."
    },
    {
      "id": 79,
      "imageId": 60,
      "cred": 15,
      "flags": 1,
      "label": "Gunslinger",
      "description": "Kill at least one Enemy with each Weapon available in the game.",
      "howto": "Kill at least one Enemy with each Weapon available in the game."
    },
    {
      "id": 83,
      "imageId": 61,
      "cred": 15,
      "flags": 1,
      "label": "Weapon Smith",
      "description": "Install all possible Customizations for a Weapon.",
      "howto": "Install all possible Customizations for a Weapon."
    },
    {
      "id": 84,
      "imageId": 62,
      "cred": 70,
      "flags": 1,
      "label": "Shadow Ranger",
      "description": "Complete the game without killing any Humans unless forced to.",
      "howto": "Complete the game without killing any Humans unless forced to."
    },
    {
      "id": 85,
      "imageId": 64,
      "cred": 80,
      "flags": 1,
      "label": "Survivalist",
      "description": "Complete the game in Ranger Hardcore.",
      "howto": "Complete the game in Ranger Hardcore."
    },
    {
      "id": 86,
      "imageId": 63,
      "cred": 30,
      "flags": 1,
      "label": "Ranger Elite",
      "description": "Complete the game in Ranger Mode.",
      "howto": "Complete the game in Ranger Mode."
    },
    {
      "id": 90,
      "imageId": 83,
      "cred": 15,
      "flags": 1,
      "label": "Saboteur",
      "description": "Complete the SNIPER TEAM level.",
      "howto": "Complete the SNIPER TEAM level."
    },
    {
      "id": 91,
      "imageId": 85,
      "cred": 15,
      "flags": 1,
      "label": "Sniper",
      "description": "Kill 10 enemies with headshots using your sniper rifle.",
      "howto": "Kill 10 enemies with headshots using your sniper rifle."
    },
    {
      "id": 92,
      "imageId": 90,
      "cred": 15,
      "flags": 1,
      "label": "Kshatriya",
      "description": "Complete the KSHATRIYA level.",
      "howto": "Complete the KSHATRIYA level."
    },
    {
      "id": 93,
      "imageId": 91,
      "cred": 15,
      "flags": 1,
      "label": "Artifact",
      "description": "Find 30 artifacts.",
      "howto": "Find 30 artifacts."
    },
    {
      "id": 94,
      "imageId": 92,
      "cred": 15,
      "flags": 1,
      "label": "Hail Reich! ",
      "description": "Complete the ASSAULT INFANTRY level.",
      "howto": "Complete the ASSAULT INFANTRY level."
    },
    {
      "id": 95,
      "imageId": 93,
      "cred": 15,
      "flags": 1,
      "label": "Homo Homini Lupus Est ",
      "description": "Kill 100 enemies with heavy weapons.",
      "howto": "Kill 100 enemies with heavy weapons."
    },
    {
      "id": 96,
      "imageId": 94,
      "cred": 15,
      "flags": 1,
      "label": "Test Сomplete",
      "description": "Complete the TOWER level.",
      "howto": "Complete the TOWER level."
    },
    {
      "id": 97,
      "imageId": 95,
      "cred": 15,
      "flags": 1,
      "label": "Willpower",
      "description": "Сomplete at least one HUGE mission.",
      "howto": "Сomplete at least one HUGE mission."
    },
    {
      "id": 98,
      "imageId": 96,
      "cred": 15,
      "flags": 1,
      "label": "Through the Fire",
      "description": "Complete the SPIDER LAIR level.",
      "howto": "Complete the SPIDER LAIR level."
    },
    {
      "id": 99,
      "imageId": 97,
      "cred": 15,
      "flags": 1,
      "label": "Arachnophobia",
      "description": "Kill 20 spiders with your flame thrower.",
      "howto": "Kill 20 spiders with your flame thrower."
    },
    {
      "id": 100,
      "imageId": 98,
      "cred": 15,
      "flags": 1,
      "label": "Specialist",
      "description": "Complete the SHOOTING RANGE and ARENA.",
      "howto": "Complete the SHOOTING RANGE and ARENA."
    },
    {
      "id": 101,
      "imageId": 99,
      "cred": 15,
      "flags": 1,
      "label": "Developer ",
      "description": "Spend 3 hours on the DEVELOPER level.",
      "howto": "Spend 3 hours on the DEVELOPER level."
    },
    {
      "id": 102,
      "imageId": 100,
      "cred": 15,
      "flags": 1,
      "label": "Heads Up! ",
      "description": "Complete the PAVEL level.",
      "howto": "Complete the PAVEL level."
    },
    {
      "id": 103,
      "imageId": 101,
      "cred": 15,
      "flags": 1,
      "label": "Safe Cracker",
      "description": "Open 8 safe boxes on the PAVEL level.",
      "howto": "Open 8 safe boxes on the PAVEL level."
    },
    {
      "id": 104,
      "imageId": 102,
      "cred": 15,
      "flags": 1,
      "label": "No Way Out",
      "description": "Complete the KHAN level.",
      "howto": "Complete the KHAN level."
    },
    {
      "id": 105,
      "imageId": 103,
      "cred": 15,
      "flags": 1,
      "label": "Hunting",
      "description": "Kill 20 Nosalises on the KHAN level.",
      "howto": "Kill 20 Nosalises on the KHAN level."
    },
    {
      "id": 106,
      "imageId": 104,
      "cred": 15,
      "flags": 1,
      "label": "The Sunset of Hope ",
      "description": "Сomplete the ANNA level.",
      "howto": "Сomplete the ANNA level."
    },
    {
      "id": 107,
      "imageId": 105,
      "cred": 15,
      "flags": 1,
      "label": "Eagle Eye",
      "description": "Kill more Watchmen that Artyom does.",
      "howto": "Kill more Watchmen that Artyom does."
    }
  ]
}