{
  "achievementsPossible": 30,
  "credPossible": 400,
  "achievements": [
    {
      "id": 1,
      "imageId": 1,
      "cred": 5,
      "flags": 3,
      "label": "We got us a crew",
      "description": "Unlock Gum and Tab",
      "howto": "Unlock Gum and Tab"
    },
    {
      "id": 3,
      "imageId": 2,
      "cred": 10,
      "flags": 1,
      "label": "Training wheels",
      "description": "Complete Tutorial",
      "howto": "Complete Tutorial"
    },
    {
      "id": 4,
      "imageId": 9,
      "cred": 10,
      "flags": 1,
      "label": "First coat applied",
      "description": "Complete Chapter 1",
      "howto": "Complete Chapter 1"
    },
    {
      "id": 5,
      "imageId": 13,
      "cred": 10,
      "flags": 1,
      "label": "Second coat applied",
      "description": "Complete Chapter 2",
      "howto": "Complete Chapter 2"
    },
    {
      "id": 6,
      "imageId": 4,
      "cred": 10,
      "flags": 1,
      "label": "Paint the town red",
      "description": "Complete Chapter 3",
      "howto": "Complete Chapter 3"
    },
    {
      "id": 7,
      "imageId": 5,
      "cred": 10,
      "flags": 4,
      "label": "So creative",
      "description": "Create a graffiti in all sizes",
      "howto": "Create a graffiti in all sizes"
    },
    {
      "id": 8,
      "imageId": 12,
      "cred": 50,
      "flags": 1,
      "label": "When you're a Jet",
      "description": "Complete every level with Jet rating",
      "howto": "Complete every level with Jet rating"
    },
    {
      "id": 9,
      "imageId": 6,
      "cred": 50,
      "flags": 7,
      "label": "I got Soul",
      "description": "Collect all Graffiti Souls",
      "howto": "Collect all Graffiti Souls"
    },
    {
      "id": 10,
      "imageId": 7,
      "cred": 5,
      "flags": 7,
      "label": "Remixes suck!",
      "description": "Complete a level without collecting a Recovery Spray Can",
      "howto": "Complete a level without collecting a Recovery Spray Can"
    },
    {
      "id": 11,
      "imageId": 8,
      "cred": 20,
      "flags": 3,
      "label": "The gang's all here",
      "description": "Unlock all characters",
      "howto": "Unlock all characters"
    },
    {
      "id": 12,
      "imageId": 11,
      "cred": 10,
      "flags": 7,
      "label": "No Eyes in the Sky",
      "description": "Draw graffiti 5 times on Helicopters",
      "howto": "Draw graffiti 5 times on Helicopters"
    },
    {
      "id": 13,
      "imageId": 10,
      "cred": 10,
      "flags": 7,
      "label": "That's how we grind!",
      "description": "Perform a 100+ trick combo",
      "howto": "Perform a 100+ trick combo"
    },
    {
      "id": 14,
      "imageId": 14,
      "cred": 5,
      "flags": 4,
      "label": "Scrapyard bully",
      "description": "Shove the two civilians in No.540 level before the choppers show up",
      "howto": "Shove the two civilians in No.540 level before the choppers show up"
    },
    {
      "id": 15,
      "imageId": 15,
      "cred": 10,
      "flags": 4,
      "label": "Public menace",
      "description": "Make 100 civilians jump out of your way",
      "howto": "Make 100 civilians jump out of your way"
    },
    {
      "id": 16,
      "imageId": 16,
      "cred": 20,
      "flags": 7,
      "label": "Detached",
      "description": "Finish the game without anyone latching onto you with your first attempt",
      "howto": "Finish the game without anyone latching onto you with your first attempt"
    },
    {
      "id": 17,
      "imageId": 17,
      "cred": 10,
      "flags": 7,
      "label": "Tag you're it!",
      "description": "Tag out at least one rival gang member within 30 seconds",
      "howto": "Tag out at least one rival gang member within 30 seconds"
    },
    {
      "id": 18,
      "imageId": 18,
      "cred": 5,
      "flags": 1,
      "label": "Feel the beat",
      "description": "Start game for the first time",
      "howto": "Start game for the first time"
    },
    {
      "id": 19,
      "imageId": 19,
      "cred": 10,
      "flags": 1,
      "label": "King of the street",
      "description": "Complete all missions with any rating",
      "howto": "Complete all missions with any rating"
    },
    {
      "id": 20,
      "imageId": 20,
      "cred": 10,
      "flags": 4,
      "label": "Cop sucks",
      "description": "Draw graffiti 5 times on Onishima's back",
      "howto": "Draw graffiti 5 times on Onishima's back"
    },
    {
      "id": 21,
      "imageId": 21,
      "cred": 10,
      "flags": 4,
      "label": "Unlock Garam",
      "description": "Unlock Garam and use him as a player character",
      "howto": "Unlock Garam and use him as a player character"
    },
    {
      "id": 22,
      "imageId": 22,
      "cred": 5,
      "flags": 4,
      "label": "Look behind",
      "description": "Perform a Turn Trick in game",
      "howto": "Perform a Turn Trick in game"
    },
    {
      "id": 23,
      "imageId": 23,
      "cred": 5,
      "flags": 4,
      "label": "I need a parachute",
      "description": "Fall more than 20 meters off a building",
      "howto": "Fall more than 20 meters off a building"
    },
    {
      "id": 24,
      "imageId": 24,
      "cred": 10,
      "flags": 3,
      "label": "Rise of Monsters",
      "description": "Unlock Poison Jam and use him as a player character",
      "howto": "Unlock Poison Jam and use him as a player character"
    },
    {
      "id": 25,
      "imageId": 25,
      "cred": 10,
      "flags": 3,
      "label": "Behind the mask",
      "description": "Unlock unmasked Poison Jam",
      "howto": "Unlock no-masked Poison Jam and use him as a player character"
    },
    {
      "id": 26,
      "imageId": 26,
      "cred": 10,
      "flags": 3,
      "label": "Noise music",
      "description": "Unlock Noise Tank and use him as a player character",
      "howto": "Unlock Noise Tank and use him as a player character"
    },
    {
      "id": 27,
      "imageId": 27,
      "cred": 10,
      "flags": 3,
      "label": "Love rules",
      "description": "Unlock Love Shockers and use her as a player character",
      "howto": "Unlock Love Shockers and use her as a player character"
    },
    {
      "id": 28,
      "imageId": 28,
      "cred": 20,
      "flags": 3,
      "label": "Dog runs too!",
      "description": "Unlock Pots and use him as a player character",
      "howto": "Unlock Pots and use him as a player character"
    },
    {
      "id": 29,
      "imageId": 29,
      "cred": 20,
      "flags": 3,
      "label": "A working senior",
      "description": "Unlock Goji and use him as a player character",
      "howto": "Unlock Goji and use him as a player character"
    },
    {
      "id": 30,
      "imageId": 30,
      "cred": 20,
      "flags": 4,
      "label": "Number one artist",
      "description": "Use all graffiti in missions",
      "howto": "Use all graffiti in missions"
    },
    {
      "id": 31,
      "imageId": 31,
      "cred": 10,
      "flags": 3,
      "label": "Back to the future",
      "description": "Unlock all songs in the bonus menu",
      "howto": "Unlock all songs in the bonus menu"
    }
  ]
}