{
  "achievementsPossible": 60,
  "credPossible": 1000,
  "achievements": [
    {
      "id": 1,
      "imageId": 1,
      "cred": 55,
      "flags": 1,
      "label": "Chrysalis",
      "description": "Finish Episode 1: Chrysalis",
      "howto": "Finish Episode 1: Chrysalis"
    },
    {
      "id": 2,
      "imageId": 2,
      "cred": 10,
      "flags": 1,
      "label": "Macro Eyes",
      "description": "Take optional photo #1 in Episode 1: Chrysalis",
      "howto": "Take optional photo #1 in Episode 1: Chrysalis"
    },
    {
      "id": 3,
      "imageId": 3,
      "cred": 10,
      "flags": 1,
      "label": "Wide Angles",
      "description": "Take optional photo #2 in Episode 1: Chrysalis",
      "howto": "Take optional photo #2 in Episode 1: Chrysalis"
    },
    {
      "id": 4,
      "imageId": 4,
      "cred": 10,
      "flags": 1,
      "label": "Telephotogenic",
      "description": "Take optional photo #3 in Episode 1: Chrysalis",
      "howto": "Take optional photo #3 in Episode 1: Chrysalis"
    },
    {
      "id": 5,
      "imageId": 5,
      "cred": 10,
      "flags": 1,
      "label": "Close-Ups",
      "description": "Take optional photo #4 in Episode 1: Chrysalis",
      "howto": "Take optional photo #4 in Episode 1: Chrysalis"
    },
    {
      "id": 6,
      "imageId": 6,
      "cred": 10,
      "flags": 1,
      "label": "Red Eye",
      "description": "Take optional photo #5 in Episode 1: Chrysalis",
      "howto": "Take optional photo #5 in Episode 1: Chrysalis"
    },
    {
      "id": 7,
      "imageId": 7,
      "cred": 10,
      "flags": 1,
      "label": "Focused",
      "description": "Take optional photo #6 in Episode 1: Chrysalis",
      "howto": "Take optional photo #6 in Episode 1: Chrysalis"
    },
    {
      "id": 8,
      "imageId": 8,
      "cred": 10,
      "flags": 1,
      "label": "Zoomed In",
      "description": "Take optional photo #7 in Episode 1: Chrysalis",
      "howto": "Take optional photo #7 in Episode 1: Chrysalis"
    },
    {
      "id": 9,
      "imageId": 9,
      "cred": 10,
      "flags": 1,
      "label": "Focal Pointed",
      "description": "Take optional photo #8 in Episode 1: Chrysalis",
      "howto": "Take optional photo #8 in Episode 1: Chrysalis"
    },
    {
      "id": 10,
      "imageId": 10,
      "cred": 10,
      "flags": 1,
      "label": "Maximum Aperture",
      "description": "Take optional photo #9 in Episode 1: Chrysalis",
      "howto": "Take optional photo #9 in Episode 1: Chrysalis"
    },
    {
      "id": 11,
      "imageId": 11,
      "cred": 10,
      "flags": 1,
      "label": "Light Leak",
      "description": "Take optional photo #10 in Episode 1: Chrysalis",
      "howto": "Take optional photo #10 in Episode 1: Chrysalis"
    },
    {
      "id": 12,
      "imageId": 12,
      "cred": 45,
      "flags": 1,
      "label": "Visionary",
      "description": "Take all optional photos in Episode 1: Chrysalis",
      "howto": "Take all optional photos in Episode 1: Chrysalis"
    },
    {
      "id": 13,
      "imageId": 13,
      "cred": 55,
      "flags": 1,
      "label": "Out of Time",
      "description": "Finish Episode 2: Out of Time",
      "howto": "Finish Episode 2: Out of Time"
    },
    {
      "id": 14,
      "imageId": 14,
      "cred": 10,
      "flags": 1,
      "label": "Field Of View",
      "description": "Take optional photo #1 in Episode 2: Out of Time",
      "howto": "Take optional photo #1 in Episode 2: Out of Time"
    },
    {
      "id": 15,
      "imageId": 15,
      "cred": 10,
      "flags": 1,
      "label": "Full Exposure",
      "description": "Take optional photo #2 in Episode 2: Out of Time",
      "howto": "Take optional photo #2 in Episode 2: Out of Time"
    },
    {
      "id": 16,
      "imageId": 16,
      "cred": 10,
      "flags": 1,
      "label": "Processor",
      "description": "Take optional photo #3 in Episode 2: Out of Time",
      "howto": "Take optional photo #3 in Episode 2: Out of Time"
    },
    {
      "id": 17,
      "imageId": 17,
      "cred": 10,
      "flags": 1,
      "label": "Image Stabilizer",
      "description": "Take optional photo #4 in Episode 2: Out of Time",
      "howto": "Take optional photo #4 in Episode 2: Out of Time"
    },
    {
      "id": 18,
      "imageId": 18,
      "cred": 10,
      "flags": 1,
      "label": "Compressed",
      "description": "Take optional photo #5 in Episode 2: Out of Time",
      "howto": "Take optional photo #5 in Episode 2: Out of Time"
    },
    {
      "id": 19,
      "imageId": 19,
      "cred": 10,
      "flags": 1,
      "label": "Pixelated",
      "description": "Take optional photo #6 in Episode 2: Out of Time",
      "howto": "Take optional photo #6 in Episode 2: Out of Time"
    },
    {
      "id": 20,
      "imageId": 20,
      "cred": 10,
      "flags": 1,
      "label": "Dynamic Range",
      "description": "Take optional photo #7 in Episode 2: Out of Time",
      "howto": "Take optional photo #7 in Episode 2: Out of Time"
    },
    {
      "id": 21,
      "imageId": 21,
      "cred": 10,
      "flags": 1,
      "label": "Colorized",
      "description": "Take optional photo #8 in Episode 2: Out of Time",
      "howto": "Take optional photo #8 in Episode 2: Out of Time"
    },
    {
      "id": 22,
      "imageId": 22,
      "cred": 10,
      "flags": 1,
      "label": "Meter Made",
      "description": "Take optional photo #9 in Episode 2: Out of Time",
      "howto": "Take optional photo #9 in Episode 2: Out of Time"
    },
    {
      "id": 23,
      "imageId": 23,
      "cred": 10,
      "flags": 1,
      "label": "Resolution Revolution",
      "description": "Take optional photo #10 in Episode 2: Out of Time",
      "howto": "Take optional photo #10 in Episode 2: Out of Time"
    },
    {
      "id": 24,
      "imageId": 24,
      "cred": 45,
      "flags": 1,
      "label": "Lab Master",
      "description": "Take all optional photos in Episode 2: Out of Time",
      "howto": "Take all optional photos in Episode 2: Out of Time"
    },
    {
      "id": 25,
      "imageId": 25,
      "cred": 55,
      "flags": 1,
      "label": "Chaos Theory",
      "description": "Finish Episode 3: Chaos Theory",
      "howto": "Finish Episode 3: Chaos Theory"
    },
    {
      "id": 26,
      "imageId": 26,
      "cred": 10,
      "flags": 1,
      "label": "Parallax View",
      "description": "Take optional photo #1 in Episode 3: Chaos Theory",
      "howto": "Take optional photo #1 in Episode 3: Chaos Theory"
    },
    {
      "id": 27,
      "imageId": 27,
      "cred": 10,
      "flags": 1,
      "label": "Lenscrafted",
      "description": "Take optional photo #2 in Episode 3: Chaos Theory",
      "howto": "Take optional photo #2 in Episode 3: Chaos Theory"
    },
    {
      "id": 28,
      "imageId": 28,
      "cred": 10,
      "flags": 1,
      "label": "The Reflex",
      "description": "Take optional photo #3 in Episode 3: Chaos Theory",
      "howto": "Take optional photo #3 in Episode 3: Chaos Theory"
    },
    {
      "id": 29,
      "imageId": 29,
      "cred": 10,
      "flags": 1,
      "label": "Histogrammar",
      "description": "Take optional photo #4 in Episode 3: Chaos Theory",
      "howto": "Take optional photo #4 in Episode 3: Chaos Theory"
    },
    {
      "id": 30,
      "imageId": 30,
      "cred": 10,
      "flags": 1,
      "label": "Bokeh",
      "description": "Take optional photo #5 in Episode 3: Chaos Theory",
      "howto": "Take optional photo #5 in Episode 3: Chaos Theory"
    },
    {
      "id": 31,
      "imageId": 31,
      "cred": 10,
      "flags": 1,
      "label": "Pinholed",
      "description": "Take optional photo #6 in Episode 3: Chaos Theory",
      "howto": "Take optional photo #6 in Episode 3: Chaos Theory"
    },
    {
      "id": 32,
      "imageId": 32,
      "cred": 10,
      "flags": 1,
      "label": "RAW Strength",
      "description": "Take optional photo #7 in Episode 3: Chaos Theory",
      "howto": "Take optional photo #7 in Episode 3: Chaos Theory"
    },
    {
      "id": 33,
      "imageId": 33,
      "cred": 10,
      "flags": 1,
      "label": "Viewfinder",
      "description": "Take optional photo #8 in Episode 3: Chaos Theory",
      "howto": "Take optional photo #8 in Episode 3: Chaos Theory"
    },
    {
      "id": 34,
      "imageId": 34,
      "cred": 10,
      "flags": 1,
      "label": "Optican",
      "description": "Take optional photo #9 in Episode 3: Chaos Theory",
      "howto": "Take optional photo #9 in Episode 3: Chaos Theory"
    },
    {
      "id": 35,
      "imageId": 35,
      "cred": 10,
      "flags": 1,
      "label": "Flash!",
      "description": "Take optional photo #10 in Episode 3: Chaos Theory",
      "howto": "Take optional photo #10 in Episode 3: Chaos Theory"
    },
    {
      "id": 36,
      "imageId": 36,
      "cred": 45,
      "flags": 1,
      "label": "Camera Eye",
      "description": "Take all optional photos in Episode 3: Chaos Theory",
      "howto": "Take all optional photos in Episode 3: Chaos Theory"
    },
    {
      "id": 37,
      "imageId": 37,
      "cred": 55,
      "flags": 1,
      "label": "Dark Room",
      "description": "Finish Episode 4: Dark Room",
      "howto": "Finish Episode 4: Dark Room"
    },
    {
      "id": 38,
      "imageId": 38,
      "cred": 10,
      "flags": 1,
      "label": "Ambient",
      "description": "Take optional photo #1 in Episode 4: Dark Room",
      "howto": "Take optional photo #1 in Episode 4: Dark Room"
    },
    {
      "id": 39,
      "imageId": 39,
      "cred": 10,
      "flags": 1,
      "label": "Time-Lapsed",
      "description": "Take optional photo #2 in Episode 4: Dark Room",
      "howto": "Take optional photo #2 in Episode 4: Dark Room"
    },
    {
      "id": 40,
      "imageId": 40,
      "cred": 10,
      "flags": 1,
      "label": "Balance",
      "description": "Take optional photo #3 in Episode 4: Dark Room",
      "howto": "Take optional photo #3 in Episode 4: Dark Room"
    },
    {
      "id": 41,
      "imageId": 41,
      "cred": 10,
      "flags": 1,
      "label": "Rangefinder",
      "description": "Take optional photo #4 in Episode 4: Dark Room",
      "howto": "Take optional photo #4 in Episode 4: Dark Room"
    },
    {
      "id": 42,
      "imageId": 42,
      "cred": 10,
      "flags": 1,
      "label": "Gamma Value",
      "description": "Take optional photo #5 in Episode 4: Dark Room",
      "howto": "Take optional photo #5 in Episode 4: Dark Room"
    },
    {
      "id": 43,
      "imageId": 43,
      "cred": 10,
      "flags": 1,
      "label": "Dioptric Power",
      "description": "Take optional photo #6 in Episode 4: Dark Room",
      "howto": "Take optional photo #6 in Episode 4: Dark Room"
    },
    {
      "id": 44,
      "imageId": 44,
      "cred": 10,
      "flags": 1,
      "label": "Fisheye",
      "description": "Take optional photo #7 in Episode 4: Dark Room",
      "howto": "Take optional photo #7 in Episode 4: Dark Room"
    },
    {
      "id": 45,
      "imageId": 45,
      "cred": 10,
      "flags": 1,
      "label": "Manually Exposed",
      "description": "Take optional photo #8 in Episode 4: Dark Room",
      "howto": "Take optional photo #8 in Episode 4: Dark Room"
    },
    {
      "id": 46,
      "imageId": 46,
      "cred": 10,
      "flags": 1,
      "label": "Slideshow",
      "description": "Take optional photo #9 in Episode 4: Dark Room",
      "howto": "Take optional photo #9 in Episode 4: Dark Room"
    },
    {
      "id": 47,
      "imageId": 47,
      "cred": 10,
      "flags": 1,
      "label": "Tripod",
      "description": "Take optional photo #10 in Episode 4: Dark Room",
      "howto": "Take optional photo #10 in Episode 4: Dark Room"
    },
    {
      "id": 48,
      "imageId": 48,
      "cred": 45,
      "flags": 1,
      "label": "Shutterbug",
      "description": "Take all optional photos in Episode 4: Dark Room",
      "howto": "Take all optional photos in Episode 4: Dark Room"
    },
    {
      "id": 49,
      "imageId": 49,
      "cred": 55,
      "flags": 1,
      "label": "Polarized",
      "description": "Finish Episode 5: Polarized",
      "howto": "Finish Episode 5: Polarized"
    },
    {
      "id": 50,
      "imageId": 50,
      "cred": 10,
      "flags": 1,
      "label": "Incandescent",
      "description": "Take optional photo #1 in Episode 5: Polarized",
      "howto": "Take optional photo #1 in Episode 5: Polarized"
    },
    {
      "id": 51,
      "imageId": 51,
      "cred": 10,
      "flags": 1,
      "label": "Night Vision",
      "description": "Take optional photo #2 in Episode 5: Polarized",
      "howto": "Take optional photo #2 in Episode 5: Polarized"
    },
    {
      "id": 52,
      "imageId": 52,
      "cred": 10,
      "flags": 1,
      "label": "Framed",
      "description": "Take optional photo #3 in Episode 5: Polarized",
      "howto": "Take optional photo #3 in Episode 5: Polarized"
    },
    {
      "id": 53,
      "imageId": 53,
      "cred": 10,
      "flags": 1,
      "label": "Camera Obscura",
      "description": "Take optional photo #4 in Episode 5: Polarized",
      "howto": "Take optional photo #4 in Episode 5: Polarized"
    },
    {
      "id": 54,
      "imageId": 54,
      "cred": 10,
      "flags": 1,
      "label": "Blowup",
      "description": "Take optional photo #5 in Episode 5: Polarized",
      "howto": "Take optional photo #5 in Episode 5: Polarized"
    },
    {
      "id": 55,
      "imageId": 55,
      "cred": 10,
      "flags": 1,
      "label": "Iris",
      "description": "Take optional photo #6 in Episode 5: Polarized",
      "howto": "Take optional photo #6 in Episode 5: Polarized"
    },
    {
      "id": 56,
      "imageId": 56,
      "cred": 10,
      "flags": 1,
      "label": "Sensor",
      "description": "Take optional photo #7 in Episode 5: Polarized",
      "howto": "Take optional photo #7 in Episode 5: Polarized"
    },
    {
      "id": 57,
      "imageId": 57,
      "cred": 10,
      "flags": 1,
      "label": "On Display",
      "description": "Take optional photo #8 in Episode 5: Polarized",
      "howto": "Take optional photo #8 in Episode 5: Polarized"
    },
    {
      "id": 58,
      "imageId": 58,
      "cred": 10,
      "flags": 1,
      "label": "Light Meter",
      "description": "Take optional photo #9 in Episode 5: Polarized",
      "howto": "Take optional photo #9 in Episode 5: Polarized"
    },
    {
      "id": 59,
      "imageId": 59,
      "cred": 10,
      "flags": 1,
      "label": "Silhouettes",
      "description": "Take optional photo #10 in Episode 5: Polarized",
      "howto": "Take optional photo #10 in Episode 5: Polarized"
    },
    {
      "id": 60,
      "imageId": 60,
      "cred": 45,
      "flags": 1,
      "label": "Selfie Awareness",
      "description": "Take all optional photos in Episode 5: Polarized",
      "howto": "Take all optional photos in Episode 5: Polarized"
    }
  ]
}