{
  "achievementsPossible": 50,
  "credPossible": 1000,
  "achievements": [
    {
      "id": 2,
      "imageId": 1,
      "cred": 10,
      "flags": 4,
      "label": "If in doubt, flat out",
      "description": "Drive at least 150 metres (420 feet) at 150 Km/h (93 mph)",
      "howto": "Drive at least 150 metres (420 feet) at 150 Km/h (93 mph)"
    },
    {
      "id": 3,
      "imageId": 2,
      "cred": 5,
      "flags": 4,
      "label": "Guys, we have a problem",
      "description": "Open the car repair screen in the Service Park",
      "howto": "Open the car repair screen in the Service Park"
    },
    {
      "id": 4,
      "imageId": 3,
      "cred": 5,
      "flags": 4,
      "label": "In search of the setup",
      "description": "Open the car setup screen in the Service Park",
      "howto": "Open the car setup screen in the Service Park"
    },
    {
      "id": 5,
      "imageId": 4,
      "cred": 10,
      "flags": 4,
      "label": "First satisfactions",
      "description": "Win a Special Stage in any offline mode",
      "howto": "Win a Special Stage in any offline mode"
    },
    {
      "id": 6,
      "imageId": 5,
      "cred": 15,
      "flags": 7,
      "label": "Tyres worn",
      "description": "Drive at least 200 Km (124 miles) on valid Special Stages",
      "howto": "Drive at least 200 Km (124 miles) on valid Special Stages"
    },
    {
      "id": 10,
      "imageId": 6,
      "cred": 15,
      "flags": 1,
      "label": "Been around the world",
      "description": "Complete at least one Special Stage in each rally in the game",
      "howto": "Complete at least one Special Stage in each rally in the game"
    },
    {
      "id": 11,
      "imageId": 7,
      "cred": 15,
      "flags": 1,
      "label": "In another category",
      "description": "Win at least one Special Stage in each category in the game (WRC, WRC 2, WRC 3, Junior WRC)",
      "howto": "Win at least one Special Stage in each category in the game (WRC, WRC 2, WRC 3, Junior WRC)"
    },
    {
      "id": 12,
      "imageId": 8,
      "cred": 5,
      "flags": 4,
      "label": "Quick prize",
      "description": "Enter Quick Stage mode",
      "howto": "Enter Quick Stage mode"
    },
    {
      "id": 13,
      "imageId": 9,
      "cred": 15,
      "flags": 4,
      "label": "First victory for Østberg",
      "description": "Win the Vodafone Rally de Portugal with M. Østberg. Offline rally with three day calendar",
      "howto": "Win the Vodafone Rally de Portugal with M. Østberg. Offline rally with three day calendar"
    },
    {
      "id": 14,
      "imageId": 10,
      "cred": 15,
      "flags": 4,
      "label": "Loeb's heirs?",
      "description": "Win the Rallye de France-Alsace with S. Ogier. Offline rally with three day calendar",
      "howto": "Win the Rallye de France-Alsace with S. Ogier. Offline rally with three day calendar"
    },
    {
      "id": 15,
      "imageId": 11,
      "cred": 15,
      "flags": 4,
      "label": "Haven't I seen you somewhere?",
      "description": "Win the Acropolis Rally with R. Kubica. Offline rally with three day calendar",
      "howto": "Win the Acropolis Rally with R. Kubica. Offline rally with three day calendar"
    },
    {
      "id": 16,
      "imageId": 12,
      "cred": 15,
      "flags": 4,
      "label": "A new contender arrives",
      "description": "Win a rally driving a Hyundai i20 WRC. Offline rally with three day calendar",
      "howto": "Win a rally driving a Hyundai i20 WRC. Offline rally with three day calendar"
    },
    {
      "id": 18,
      "imageId": 13,
      "cred": 15,
      "flags": 4,
      "label": "Mini victory",
      "description": "Win a rally with the Mini John Cooper Works WRC. Offline rally with three day calendar",
      "howto": "Win a rally with the Mini John Cooper Works WRC. Offline rally with three day calendar"
    },
    {
      "id": 19,
      "imageId": 14,
      "cred": 5,
      "flags": 1,
      "label": "Online debutant",
      "description": "Complete a valid online Special Stage",
      "howto": "Complete a valid online Special Stage"
    },
    {
      "id": 20,
      "imageId": 15,
      "cred": 10,
      "flags": 1,
      "label": "Online novice",
      "description": "Complete 5 valid online Special Stages",
      "howto": "Complete 5 valid online Special Stages"
    },
    {
      "id": 22,
      "imageId": 16,
      "cred": 15,
      "flags": 1,
      "label": "Online expert",
      "description": "Complete 10 valid online Special Stages",
      "howto": "Complete 10 valid online Special Stages"
    },
    {
      "id": 23,
      "imageId": 17,
      "cred": 20,
      "flags": 1,
      "label": "Online veteran",
      "description": "Complete 20 valid online Special Stages",
      "howto": "Complete 20 valid online Special Stages"
    },
    {
      "id": 24,
      "imageId": 18,
      "cred": 10,
      "flags": 1,
      "label": "Time well spent",
      "description": "Reach 60 minutes of game time on valid online Special Stages",
      "howto": "Reach 60 minutes of game time on valid online Special Stages"
    },
    {
      "id": 35,
      "imageId": 19,
      "cred": 20,
      "flags": 1,
      "label": "Rally, what a passion",
      "description": "Reach 3 hours of game time on valid online Special Stages",
      "howto": "Reach 3 hours of game time on valid online Special Stages"
    },
    {
      "id": 36,
      "imageId": 20,
      "cred": 15,
      "flags": 4,
      "label": "The prince of Monte-Carlo",
      "description": "Win the Rallye Monte-Carlo. Offline rally with three day calendar",
      "howto": "Win the Rallye Monte-Carlo. Offline rally with three day calendar"
    },
    {
      "id": 38,
      "imageId": 21,
      "cred": 15,
      "flags": 4,
      "label": "Ice master",
      "description": "Win the Rally Sweden. Offline rally with three day calendar",
      "howto": "Win the Rally Sweden. Offline rally with three day calendar"
    },
    {
      "id": 40,
      "imageId": 22,
      "cred": 15,
      "flags": 4,
      "label": "Victory at altitude",
      "description": "Win the Rally Guanajuato México. Offline rally with three day calendar",
      "howto": "Win the Rally Guanajuato México. Offline rally with three day calendar"
    },
    {
      "id": 43,
      "imageId": 23,
      "cred": 15,
      "flags": 4,
      "label": "Triumph in the red dust",
      "description": "Win the Vodafone Rally de Portugal. Offline rally with three day calendar",
      "howto": "Win the Vodafone Rally de Portugal. Offline rally with three day calendar"
    },
    {
      "id": 44,
      "imageId": 24,
      "cred": 15,
      "flags": 4,
      "label": "Victory at El Condor",
      "description": "Win the Philips LED Rally Argentina. Offline rally with three day calendar",
      "howto": "Win the Philips LED Rally Argentina. Offline rally with three day calendar"
    },
    {
      "id": 45,
      "imageId": 25,
      "cred": 15,
      "flags": 4,
      "label": "Conquering the Acropolis",
      "description": "Win the Acropolis Rally. Offline rally with three day calendar",
      "howto": "Win the Acropolis Rally. Offline rally with three day calendar"
    },
    {
      "id": 46,
      "imageId": 26,
      "cred": 15,
      "flags": 4,
      "label": "Mamma, put on the pasta",
      "description": "Win the Rally d'Italia Sardegna. Offline rally with three day calendar",
      "howto": "Win the Rally d'Italia Sardegna. Offline rally with three day calendar"
    },
    {
      "id": 47,
      "imageId": 27,
      "cred": 15,
      "flags": 4,
      "label": "Victory among 1000 lakes",
      "description": "Win the Neste Oil Rally Finland. Offline rally with three day calendar",
      "howto": "Win the Neste Oil Rally Finland. Offline rally with three day calendar"
    },
    {
      "id": 49,
      "imageId": 28,
      "cred": 15,
      "flags": 4,
      "label": "Lightning on the asphalt",
      "description": "Win the ADAC Rallye Deutschland. Offline rally with three day calendar",
      "howto": "Win the ADAC Rallye Deutschland. Offline rally with three day calendar"
    },
    {
      "id": 50,
      "imageId": 29,
      "cred": 15,
      "flags": 4,
      "label": "Big hit in Australia",
      "description": "Win the Coates hire Rally Australia. Offline rally with three day calendar",
      "howto": "Win the Coates hire Rally Australia. Offline rally with three day calendar"
    },
    {
      "id": 51,
      "imageId": 30,
      "cred": 15,
      "flags": 4,
      "label": "Le Roi",
      "description": "Win the Rallye de France-Alsace. Offline rally with three day calendar",
      "howto": "Win the Rallye de France-Alsace. Offline rally with three day calendar"
    },
    {
      "id": 52,
      "imageId": 31,
      "cred": 15,
      "flags": 4,
      "label": "Catalunya success",
      "description": "Win the Rally RACC-Rally de España. Offline rally with three day calendar",
      "howto": "Win the Rally RACC-Rally de España. Offline rally with three day calendar"
    },
    {
      "id": 53,
      "imageId": 32,
      "cred": 15,
      "flags": 4,
      "label": "Wet victory",
      "description": "Win the Wales Rally GB. Offline rally with three day calendar",
      "howto": "Win the Wales Rally GB. Offline rally with three day calendar"
    },
    {
      "id": 54,
      "imageId": 33,
      "cred": 5,
      "flags": 4,
      "label": "Now you're a driver!",
      "description": "Create your own customised driver",
      "howto": "Create your own customised driver"
    },
    {
      "id": 55,
      "imageId": 34,
      "cred": 5,
      "flags": 6,
      "label": "First day at work",
      "description": "Enter your Headquarters in career mode",
      "howto": "Enter your Headquarters in career mode"
    },
    {
      "id": 56,
      "imageId": 35,
      "cred": 5,
      "flags": 4,
      "label": "You've got mail",
      "description": "Turn on your computer in your career mode Headquarters",
      "howto": "Turn on your computer in your career mode Headquarters"
    },
    {
      "id": 58,
      "imageId": 36,
      "cred": 10,
      "flags": 4,
      "label": "Rally on the podium",
      "description": "Complete a rally in career mode in one of the top three positions",
      "howto": "Complete a rally in career mode in one of the top three positions"
    },
    {
      "id": 59,
      "imageId": 37,
      "cred": 20,
      "flags": 4,
      "label": "Designated driver",
      "description": "Achieve your team objectives in two consecutive rallies in career mode",
      "howto": "Achieve your team objectives in two consecutive rallies in career mode"
    },
    {
      "id": 60,
      "imageId": 38,
      "cred": 20,
      "flags": 6,
      "label": "Time to get serious",
      "description": "Sign a contract to participate in an entire season in career mode",
      "howto": "Sign a contract to participate in an entire season in career mode"
    },
    {
      "id": 61,
      "imageId": 39,
      "cred": 45,
      "flags": 1,
      "label": "WRC 2 champion",
      "description": "Complete an offline championship in WRC 2 in first place",
      "howto": "Complete an offline championship in WRC 2 in first place"
    },
    {
      "id": 62,
      "imageId": 40,
      "cred": 45,
      "flags": 1,
      "label": "WRC 3 champion",
      "description": "Complete an offline championship in WRC 3 in first place",
      "howto": "Complete an offline championship in WRC 3 in first place"
    },
    {
      "id": 63,
      "imageId": 41,
      "cred": 45,
      "flags": 1,
      "label": "Rising star explodes",
      "description": "Complete an offline championship in Junior WRC in first place",
      "howto": "Complete an offline championship in Junior WRC in first place"
    },
    {
      "id": 64,
      "imageId": 42,
      "cred": 30,
      "flags": 3,
      "label": "On everybody's lips",
      "description": "Get the press to talk about your two consecutive rally victories in career mode",
      "howto": "Get the press to talk about your two consecutive rally victories in career mode"
    },
    {
      "id": 66,
      "imageId": 43,
      "cred": 30,
      "flags": 6,
      "label": "Sign here, please",
      "description": "Sign a contract to participate in your second entire season in career mode",
      "howto": "Sign a contract to participate in your second entire season in career mode"
    },
    {
      "id": 67,
      "imageId": 44,
      "cred": 30,
      "flags": 3,
      "label": "Official driver",
      "description": "Sign with Volkswagen Motorsport, Citroën Total Abu Dhabi WRT or Qatar M-Sport WRT in career mode",
      "howto": "Sign with Volkswagen Motorsport, Citroën Total Abu Dhabi WRT or Qatar M-Sport WRT in career mode"
    },
    {
      "id": 68,
      "imageId": 51,
      "cred": 30,
      "flags": 6,
      "label": "4 Rallies with the big boys",
      "description": "Complete the Vodafone Rally de Portugal in the World Rally Championship in career mode",
      "howto": "Complete the Vodafone Rally de Portugal in the World Rally Championship in career mode"
    },
    {
      "id": 69,
      "imageId": 46,
      "cred": 30,
      "flags": 6,
      "label": "Work in progress",
      "description": "Complete the Rally d'Italia Sardegna in the World Rally Championship in career mode",
      "howto": "Complete the Rally d'Italia Sardegna in the World Rally Championship in career mode"
    },
    {
      "id": 70,
      "imageId": 47,
      "cred": 30,
      "flags": 6,
      "label": "The season draws to a close",
      "description": "Complete the Coates hire Rally Australia in the World Rally Championship in career mode",
      "howto": "Complete the Coates hire Rally Australia in the World Rally Championship in career mode"
    },
    {
      "id": 71,
      "imageId": 48,
      "cred": 30,
      "flags": 2,
      "label": "A respected driver",
      "description": "Get 150,000 reputation points in career mode",
      "howto": "Get 150,000 reputation points in career mode"
    },
    {
      "id": 72,
      "imageId": 49,
      "cred": 80,
      "flags": 1,
      "label": "Top of the world",
      "description": "Complete the World Rally Championship in first place in career mode",
      "howto": "Complete the World Rally Championship in first place in career mode"
    },
    {
      "id": 73,
      "imageId": 50,
      "cred": 80,
      "flags": 1,
      "label": "Ten in a row",
      "description": "Complete an offline championship in first place with S. Loeb",
      "howto": "Complete an offline championship in first place with S. Loeb"
    }
  ]
}