{
  "achievementsPossible": 34,
  "credPossible": 1000,
  "achievements": [
    {
      "id": 1,
      "imageId": 32,
      "cred": 15,
      "flags": 1,
      "label": "Salsa Pro",
      "description": "Complete “Learn the Steps” Salsa",
      "howto": "Complete “Learn the Steps” Salsa"
    },
    {
      "id": 2,
      "imageId": 33,
      "cred": 15,
      "flags": 1,
      "label": "Merengue Pro",
      "description": "Complete “Learn the Steps” Merengue",
      "howto": "Complete “Learn the Steps” Merengue"
    },
    {
      "id": 3,
      "imageId": 34,
      "cred": 15,
      "flags": 1,
      "label": "Cumbia Pro",
      "description": "Complete “Learn the Steps” Cumbia",
      "howto": "Complete “Learn the Steps” Cumbia"
    },
    {
      "id": 4,
      "imageId": 35,
      "cred": 15,
      "flags": 1,
      "label": "Reggaeton Pro",
      "description": "Complete “Learn the Steps” Reggaeton",
      "howto": "Complete “Learn the Steps” Reggaeton"
    },
    {
      "id": 5,
      "imageId": 51,
      "cred": 30,
      "flags": 1,
      "label": "Zumba Diploma",
      "description": "Complete all tutorials",
      "howto": "Complete all tutorials"
    },
    {
      "id": 6,
      "imageId": 37,
      "cred": 15,
      "flags": 1,
      "label": "Bronze Star",
      "description": "Complete a low intensity single song with five stars",
      "howto": "Complete a low intensity single song with five stars"
    },
    {
      "id": 7,
      "imageId": 38,
      "cred": 25,
      "flags": 1,
      "label": "Silver Star",
      "description": "Complete a medium intensity single song with five stars",
      "howto": "Complete a medium intensity single song with five stars"
    },
    {
      "id": 8,
      "imageId": 39,
      "cred": 40,
      "flags": 1,
      "label": "Gold Star",
      "description": "Complete a high intensity single song with five stars",
      "howto": "Complete a high intensity single song with five stars"
    },
    {
      "id": 9,
      "imageId": 40,
      "cred": 15,
      "flags": 1,
      "label": "Join the Party",
      "description": "Complete your first Zumba Fitness CORE song",
      "howto": "Complete your first Zumba Fitness CORE song"
    },
    {
      "id": 10,
      "imageId": 41,
      "cred": 50,
      "flags": 1,
      "label": "Total Dancer",
      "description": "Play and complete every song",
      "howto": "Play and complete every song, earning at least one star"
    },
    {
      "id": 11,
      "imageId": 42,
      "cred": 50,
      "flags": 1,
      "label": "World Traveler",
      "description": "Play in all the venues",
      "howto": "Play in all the venues"
    },
    {
      "id": 16,
      "imageId": 44,
      "cred": 15,
      "flags": 1,
      "label": "Bronze Class",
      "description": "Finish a Short Class",
      "howto": "Finish a Short Class"
    },
    {
      "id": 17,
      "imageId": 45,
      "cred": 25,
      "flags": 1,
      "label": "Silver Class",
      "description": "Finish a Mid-Length Class",
      "howto": "Finish a Mid-Length Class"
    },
    {
      "id": 18,
      "imageId": 46,
      "cred": 40,
      "flags": 1,
      "label": "Gold Class",
      "description": "Finish a Full-Length Class",
      "howto": "Finish a Full-Length Class"
    },
    {
      "id": 19,
      "imageId": 47,
      "cred": 15,
      "flags": 1,
      "label": "Zumba Fan",
      "description": "Play Zumba Fitness CORE on at least two different days in a single week",
      "howto": "Play Zumba Fitness CORE on at least two different days in a single week"
    },
    {
      "id": 20,
      "imageId": 48,
      "cred": 25,
      "flags": 1,
      "label": "Zumba Lover",
      "description": "Play Zumba Fitness CORE on at least four different days in a single week",
      "howto": "Play Zumba Fitness CORE on at least four different days in a single week"
    },
    {
      "id": 21,
      "imageId": 49,
      "cred": 50,
      "flags": 1,
      "label": "Zumba Aficionado",
      "description": "Play Zumba Fitness CORE for twelve hours in a month",
      "howto": "Play Zumba Fitness CORE for twelve hours in a month"
    },
    {
      "id": 22,
      "imageId": 50,
      "cred": 15,
      "flags": 1,
      "label": "Zumba Expert",
      "description": "Get above 80% technique in one song",
      "howto": "Get above 80% technique in one song"
    },
    {
      "id": 24,
      "imageId": 36,
      "cred": 25,
      "flags": 1,
      "label": "Zumba Pro",
      "description": "Get above 80% technique in three songs",
      "howto": "Get above 80% technique in three songs"
    },
    {
      "id": 25,
      "imageId": 52,
      "cred": 40,
      "flags": 1,
      "label": "Zumba Master",
      "description": "Get above 80% technique in ten songs",
      "howto": "Get above 80% technique in ten songs"
    },
    {
      "id": 26,
      "imageId": 54,
      "cred": 15,
      "flags": 1,
      "label": "Zumba Heat",
      "description": "Burn 500 calories",
      "howto": "Burn 500 calories"
    },
    {
      "id": 27,
      "imageId": 53,
      "cred": 25,
      "flags": 1,
      "label": "Zumba Fire",
      "description": "Burn 1000 Calories",
      "howto": "Burn 1000 Calories"
    },
    {
      "id": 28,
      "imageId": 21,
      "cred": 40,
      "flags": 1,
      "label": "Zumba Inferno",
      "description": "Burn 2500 calories",
      "howto": "Burn 2500 calories"
    },
    {
      "id": 29,
      "imageId": 22,
      "cred": 25,
      "flags": 1,
      "label": "Zumba Duo",
      "description": "Complete a Full Class with two players",
      "howto": "Complete a Full Class with two players"
    },
    {
      "id": 30,
      "imageId": 23,
      "cred": 40,
      "flags": 1,
      "label": "Duo Stars",
      "description": "Finish a two player song with ten Stars",
      "howto": "Finish a two player song with ten Stars"
    },
    {
      "id": 31,
      "imageId": 24,
      "cred": 15,
      "flags": 1,
      "label": "Bronze Choreographer",
      "description": "Create a Playlist",
      "howto": "Create a Playlist"
    },
    {
      "id": 32,
      "imageId": 25,
      "cred": 25,
      "flags": 1,
      "label": "Silver Choreographer",
      "description": "Create two playlists",
      "howto": "Create two playlists"
    },
    {
      "id": 33,
      "imageId": 26,
      "cred": 50,
      "flags": 1,
      "label": "Gold Choreographer",
      "description": "Create four playlists",
      "howto": "Create four playlists"
    },
    {
      "id": 35,
      "imageId": 28,
      "cred": 50,
      "flags": 1,
      "label": "Zumba Socialite",
      "description": "Dance with all 6 instructors",
      "howto": "Dance with all 6 instructors"
    },
    {
      "id": 37,
      "imageId": 30,
      "cred": 50,
      "flags": 1,
      "label": "Completionist",
      "description": "Unlock every achievement",
      "howto": "Unlock every achievement"
    },
    {
      "id": 38,
      "imageId": 31,
      "cred": 50,
      "flags": 1,
      "label": "Locksmith",
      "description": "Unlock all bonus videos",
      "howto": "Unlock all bonus videos"
    },
    {
      "id": 39,
      "imageId": 55,
      "cred": 15,
      "flags": 1,
      "label": "Bollywood Pro",
      "description": "Complete  “Learn the Steps” Bollywood",
      "howto": "Complete  “Learn the Steps” Bollywood"
    },
    {
      "id": 40,
      "imageId": 56,
      "cred": 15,
      "flags": 1,
      "label": "Samba Pro",
      "description": "Complete  “Learn the Steps” Samba",
      "howto": "Complete  “Learn the Steps” Samba"
    },
    {
      "id": 41,
      "imageId": 57,
      "cred": 50,
      "flags": 1,
      "label": "Goal Completer",
      "description": "Complete a goal",
      "howto": "Complete a goal"
    }
  ]
}