{
  "achievementsPossible": 27,
  "credPossible": 1000,
  "achievements": [
    {
      "id": 2,
      "imageId": 1,
      "cred": 10,
      "flags": 6,
      "label": "ブラッドハウンドを撃破",
      "description": "”ブラッドハウンド”を撃破しました。",
      "howto": "ライバル”ブラッドハウンド”を倒すことで達成できます。"
    },
    {
      "id": 3,
      "imageId": 2,
      "cred": 10,
      "flags": 6,
      "label": "１２時過ぎのシンデレラを撃破",
      "description": "”１２時過ぎのシンデレラ”を撃破しました。",
      "howto": "ライバル”１２時過ぎのシンデレラ”を倒すことで達成できます。"
    },
    {
      "id": 4,
      "imageId": 3,
      "cred": 10,
      "flags": 6,
      "label": "白銀の貴公子を撃破",
      "description": "”白銀の貴公子”を撃破しました。",
      "howto": "ライバル”白銀の貴公子”を倒すことで達成できます。"
    },
    {
      "id": 5,
      "imageId": 4,
      "cred": 20,
      "flags": 6,
      "label": "夜明けのガーネットを撃破",
      "description": "”夜明けのガーネット”を撃破しました。",
      "howto": "ライバル”夜明けのガーネット”を倒すことで達成できます。"
    },
    {
      "id": 6,
      "imageId": 5,
      "cred": 20,
      "flags": 6,
      "label": "沈黙のカシオペアを撃破",
      "description": "”沈黙のカシオペア”を撃破しました。",
      "howto": "ライバル”沈黙のカシオペア”を倒すことで達成できます。"
    },
    {
      "id": 7,
      "imageId": 6,
      "cred": 20,
      "flags": 6,
      "label": "紺碧のスナイパーを撃破",
      "description": "”紺碧のスナイパー”を撃破しました。",
      "howto": "ライバル”紺碧のスナイパー”を倒すことで達成できます。"
    },
    {
      "id": 8,
      "imageId": 7,
      "cred": 30,
      "flags": 6,
      "label": "スカールパレットを撃破",
      "description": "”スカールパレット”を撃破しました。",
      "howto": ""
    },
    {
      "id": 9,
      "imageId": 8,
      "cred": 50,
      "flags": 6,
      "label": "Phantom9のメンバーを撃破",
      "description": "”Phantom9”のメンバーを撃破しました。",
      "howto": ""
    },
    {
      "id": 10,
      "imageId": 9,
      "cred": 50,
      "flags": 6,
      "label": "スネークアイズを撃破",
      "description": "”スネークアイズ”を撃破しました。",
      "howto": ""
    },
    {
      "id": 11,
      "imageId": 10,
      "cred": 30,
      "flags": 6,
      "label": "紅の悪魔を撃破",
      "description": "”紅の悪魔”を撃破しました。",
      "howto": ""
    },
    {
      "id": 12,
      "imageId": 11,
      "cred": 30,
      "flags": 6,
      "label": "ユウウツな天使を撃破",
      "description": "”ユウウツな天使”を撃破しました。",
      "howto": ""
    },
    {
      "id": 13,
      "imageId": 12,
      "cred": 30,
      "flags": 6,
      "label": "Ｄ３を撃破",
      "description": "”Ｄ３”を撃破しました。",
      "howto": ""
    },
    {
      "id": 14,
      "imageId": 13,
      "cred": 30,
      "flags": 6,
      "label": "白いカリスマを撃破",
      "description": "”白いカリスマ”を撃破しました。",
      "howto": ""
    },
    {
      "id": 15,
      "imageId": 14,
      "cred": 60,
      "flags": 1,
      "label": "迅帝を撃破",
      "description": "”迅帝”を撃破しました。",
      "howto": ""
    },
    {
      "id": 16,
      "imageId": 15,
      "cred": 100,
      "flags": 1,
      "label": "？？？を撃破",
      "description": "”？？？”を撃破しました。",
      "howto": ""
    },
    {
      "id": 17,
      "imageId": 16,
      "cred": 40,
      "flags": 6,
      "label": "C１内回りのタイムアタック制覇",
      "description": "C１内回りを５'００''０００以内で走りきりました。",
      "howto": "C１内回りのタイムアタックで５'００''０００以内のタイムを出すことで達成できます。"
    },
    {
      "id": 18,
      "imageId": 17,
      "cred": 40,
      "flags": 6,
      "label": "C１外回りのタイムアタック制覇",
      "description": "C１外回りを５'００''０００以内で走りきりました。",
      "howto": "C１外回りのタイムアタックで５'００''０００以内のタイムを出すことで達成できます。"
    },
    {
      "id": 19,
      "imageId": 18,
      "cred": 40,
      "flags": 6,
      "label": "新環状左回りのタイムアタック制覇",
      "description": "新環状左回りを６'００''０００以内で走りきりました。",
      "howto": "新環状左回りのタイムアタックで６'００''０００以内のタイムを出すことで達成できます。\r\n"
    },
    {
      "id": 20,
      "imageId": 19,
      "cred": 40,
      "flags": 6,
      "label": "新環状右回りのタイムアタック制覇",
      "description": "新環状右回りを６'００''０００以内で走りきりました。",
      "howto": "新環状右回りのタイムアタックで６'００''０００以内のタイムを出すことで達成できます。\r\n"
    },
    {
      "id": 21,
      "imageId": 20,
      "cred": 40,
      "flags": 6,
      "label": "３号渋谷線のタイムアタック制覇",
      "description": "３号渋谷線を３'３０''０００以内で走りきりました。",
      "howto": "３号渋谷線のタイムアタックで３'３０''０００以内のタイムを出すことで達成できます。\r\n"
    },
    {
      "id": 22,
      "imageId": 21,
      "cred": 40,
      "flags": 6,
      "label": "４号新宿線のタイムアタック制覇",
      "description": "４号新宿線を６'００''０００以内で走りきりました。",
      "howto": "４号新宿線のタイムアタックで６'００''０００以内のタイムを出すことで達成できます。\r\n"
    },
    {
      "id": 23,
      "imageId": 22,
      "cred": 40,
      "flags": 6,
      "label": "全周左回りのタイムアタック制覇",
      "description": "全周左回りを１６'３０''０００以内で走りきりました。",
      "howto": "全周左回りのタイムアタックで１６'３０''０００以内のタイムを出すことで達成できます。\r\n"
    },
    {
      "id": 24,
      "imageId": 23,
      "cred": 40,
      "flags": 6,
      "label": "全周右回りのタイムアタック制覇",
      "description": "全周右回りを１６'３０''０００以内で走りきりました。",
      "howto": "全周右回りのタイムアタックで１６'３０'０００以内のタイムを出すことで達成できます。\r\n"
    },
    {
      "id": 25,
      "imageId": 24,
      "cred": 10,
      "flags": 6,
      "label": "ネットワークバトルのランクマッチで初勝利",
      "description": "ネットワークバトルのランクマッチで初勝利を達成しました。",
      "howto": "ネットワークバトルのランクマッチで１勝することで達成できます。"
    },
    {
      "id": 26,
      "imageId": 25,
      "cred": 20,
      "flags": 6,
      "label": "ネットワークバトルのランクマッチで１０勝",
      "description": "ネットワークバトルのランクマッチで通算１０勝を達成しました。",
      "howto": "ネットワークバトルのランクマッチで１０勝をすることで達成できます。"
    },
    {
      "id": 27,
      "imageId": 26,
      "cred": 50,
      "flags": 6,
      "label": "ネットワークバトルのランクマッチで５０勝",
      "description": "ネットワークバトルのランクマッチで通算５０勝を達成しました。",
      "howto": "ネットワークバトルのランクマッチで５０勝をすることで達成できます。"
    },
    {
      "id": 28,
      "imageId": 27,
      "cred": 100,
      "flags": 6,
      "label": "ネットワークバトルのランクマッチで１００勝",
      "description": "ネットワークバトルのランクマッチで通算１００勝を達成しました。",
      "howto": "ネットワークバトルのランクマッチで１００勝をすることで達成できます。"
    }
  ]
}