{
  "achievementsPossible": 12,
  "credPossible": 200,
  "achievements": [
    {
      "id": 3,
      "imageId": 1,
      "cred": 5,
      "flags": 4,
      "label": "Simply Rotastic",
      "description": "Do the Rotastic trick",
      "howto": "Do the Rotastic trick"
    },
    {
      "id": 4,
      "imageId": 2,
      "cred": 50,
      "flags": 4,
      "label": "This is No Lifestic!",
      "description": "Get all gold helmets in campaign mode",
      "howto": "Get all gold helmets in campaign mode"
    },
    {
      "id": 5,
      "imageId": 3,
      "cred": 10,
      "flags": 4,
      "label": "The Jeweler",
      "description": "Collect 5,000 jewels",
      "howto": "Collect 5,000 jewels"
    },
    {
      "id": 6,
      "imageId": 4,
      "cred": 15,
      "flags": 4,
      "label": "Diamond necklace",
      "description": "Get 5 diamond helmets in campaign mode",
      "howto": "Get 5 diamond helmets in campaign mode"
    },
    {
      "id": 7,
      "imageId": 5,
      "cred": 5,
      "flags": 4,
      "label": "The Hero's Debut",
      "description": "Complete 5 levels in campaign mode",
      "howto": "Complete 5 levels in campaign mode"
    },
    {
      "id": 8,
      "imageId": 6,
      "cred": 5,
      "flags": 4,
      "label": "Aspiring Hero",
      "description": "Unlock access to World 3 in campaign mode",
      "howto": "Unlock access to World 3 in campaign mode"
    },
    {
      "id": 9,
      "imageId": 7,
      "cred": 10,
      "flags": 4,
      "label": "Hero on the Rise",
      "description": "Unlock access to World 5 in campaign mode",
      "howto": "Unlock access to World 5 in campaign mode"
    },
    {
      "id": 10,
      "imageId": 8,
      "cred": 25,
      "flags": 4,
      "label": "A New King is Crowned",
      "description": "Unlock access to World 7 in campaign mode",
      "howto": "Unlock access to World 7 in campaign mode"
    },
    {
      "id": 11,
      "imageId": 9,
      "cred": 10,
      "flags": 4,
      "label": "The Ninja",
      "description": "Kill 3 enemies in 4 seconds in a multiplayer game",
      "howto": "Kill 3 enemies in 4 seconds in a multiplayer game"
    },
    {
      "id": 12,
      "imageId": 10,
      "cred": 20,
      "flags": 4,
      "label": "The Butcher",
      "description": "Kill 10 enemies in a row without losing a life during a multiplayer game",
      "howto": "Kill 10 enemies in a row without losing a life during a multiplayer game"
    },
    {
      "id": 13,
      "imageId": 11,
      "cred": 15,
      "flags": 4,
      "label": "The Socialite",
      "description": "Play 20 multiplayer games",
      "howto": "Play 20 multiplayer games"
    },
    {
      "id": 14,
      "imageId": 12,
      "cred": 30,
      "flags": 4,
      "label": "Mini copper",
      "description": "Get all copper helmets in campaign mode",
      "howto": "Get all copper helmets in campaign mode"
    }
  ]
}