{
  "achievementsPossible": 15,
  "credPossible": 400,
  "achievements": [
    {
      "id": 1,
      "imageId": 1,
      "cred": 20,
      "flags": 1,
      "label": "Stage 1 Complete",
      "description": "Complete Stage 1 of Arcade Mode (any difficulty)",
      "howto": "Complete Stage 1 of Arcade Mode (any difficulty)"
    },
    {
      "id": 2,
      "imageId": 2,
      "cred": 20,
      "flags": 1,
      "label": "Stage 2 Complete",
      "description": "Complete Stage 2 of Arcade Mode (any difficulty)",
      "howto": "Complete Stage 2 of Arcade Mode (any difficulty)"
    },
    {
      "id": 3,
      "imageId": 3,
      "cred": 20,
      "flags": 1,
      "label": "Stage 3 Complete",
      "description": "Complete Stage 3 of Arcade Mode (any difficulty)",
      "howto": "Complete Stage 3 of Arcade Mode (any difficulty)"
    },
    {
      "id": 4,
      "imageId": 4,
      "cred": 20,
      "flags": 1,
      "label": "Stage 4 Complete",
      "description": "Complete Stage 4 of Arcade Mode (any difficulty)",
      "howto": "Complete Stage 4 of Arcade Mode (any difficulty)"
    },
    {
      "id": 5,
      "imageId": 5,
      "cred": 40,
      "flags": 1,
      "label": "Perfect",
      "description": "Win a round without receiving any damage in Arcade Mode (any difficulty)",
      "howto": "Win a round without receiving any damage in Arcade Mode (any difficulty)"
    },
    {
      "id": 6,
      "imageId": 6,
      "cred": 20,
      "flags": 1,
      "label": "Ranking Mode",
      "description": "Play Ranking Mode in Arcade Mode (hold down P+K+D+START during Attract Mode)",
      "howto": "Play Ranking Mode in Arcade Mode (hold down P+K+D+START during Attract Mode)"
    },
    {
      "id": 7,
      "imageId": 7,
      "cred": 20,
      "flags": 1,
      "label": "Random Mode",
      "description": "Hold↑and hit START during Attract Mode in Arcade Mode",
      "howto": "Hold↑and hit START during Attract Mode in Arcade Mode"
    },
    {
      "id": 8,
      "imageId": 8,
      "cred": 10,
      "flags": 1,
      "label": "Kids Mode",
      "description": "Select game settings in Arcade Mode or Offline Versus while holding LB+RB to activate Kids Mode",
      "howto": "Select game settings in Arcade Mode or Offline Versus while holding LB+RB to activate Kids Mode"
    },
    {
      "id": 9,
      "imageId": 9,
      "cred": 40,
      "flags": 1,
      "label": "Wall Breaker",
      "description": "Destroy a stage wall in Arcade Mode or Offline Versus",
      "howto": "Destroy a stage wall in Arcade Mode or Offline Versus"
    },
    {
      "id": 10,
      "imageId": 10,
      "cred": 40,
      "flags": 1,
      "label": "Armor Destroyer",
      "description": "Break an opponent's armor in Arcade Mode or Offline Versus",
      "howto": "Break an opponent's armor in Arcade Mode or Offline Versus"
    },
    {
      "id": 11,
      "imageId": 11,
      "cred": 20,
      "flags": 1,
      "label": "Who needs armor?",
      "description": "Unequip armor in Arcade Mode or Offline Versus (quickly input →←→←+P+K+D)",
      "howto": "Unequip armor in Arcade Mode or Offline Versus (quickly input →←→←+P+K+D)"
    },
    {
      "id": 12,
      "imageId": 12,
      "cred": 60,
      "flags": 1,
      "label": "Mahler",
      "description": "Use Mahler in Arcade Mode or Offline Versus (at chara select, move cursor left of Grace, hit OK)",
      "howto": "Use Mahler in Arcade Mode or Offline Versus (at chara select, move cursor left of Grace, hit OK)"
    },
    {
      "id": 13,
      "imageId": 13,
      "cred": 60,
      "flags": 1,
      "label": "Skirt Destroyer",
      "description": "Arcade Mode: unequip Candy's armor each stage, or destroy Candy's lower armor 10 times in a row",
      "howto": "Arcade Mode: unequip Candy's armor each stage, or destroy Candy's lower armor 10 times in a row"
    },
    {
      "id": 14,
      "imageId": 14,
      "cred": 5,
      "flags": 1,
      "label": "Class of '95",
      "description": "Select game settings in Arcade Mode while holding the X button to enter Attract Mode",
      "howto": "Select game settings in Arcade Mode while holding the X button to enter Attract Mode"
    },
    {
      "id": 15,
      "imageId": 15,
      "cred": 5,
      "flags": 1,
      "label": "Sweet Tooth",
      "description": "Select game settings in Arcade Mode while holding ↑ to unlock Candy's appearance in 2nd Attract Mode",
      "howto": "Select game settings in Arcade Mode while holding ↑ to unlock Candy's appearance in 2nd Attract Mode"
    }
  ]
}