{
  "achievementsPossible": 12,
  "credPossible": 200,
  "achievements": [
    {
      "id": 1,
      "imageId": 10,
      "cred": 25,
      "flags": 1,
      "label": "Complete The Game",
      "description": "You defeated Mother Brain and finished the game.",
      "howto": "Finish the game by defeating Mother Brain."
    },
    {
      "id": 2,
      "imageId": 11,
      "cred": 25,
      "flags": 1,
      "label": "Dark Force",
      "description": "You defeated Dark Force.",
      "howto": "Defeat Dark Force."
    },
    {
      "id": 3,
      "imageId": 12,
      "cred": 25,
      "flags": 1,
      "label": "Level 30",
      "description": "You reached level 30.",
      "howto": "Advance one of your party to Level 30."
    },
    {
      "id": 4,
      "imageId": 13,
      "cred": 25,
      "flags": 1,
      "label": "Where Credit Is Due",
      "description": "You watched the entire in-game credits roll.",
      "howto": "Watch the entire in-game credits roll."
    },
    {
      "id": 5,
      "imageId": 14,
      "cred": 10,
      "flags": 1,
      "label": "Hidapipe",
      "description": "You used a Hidapipe.",
      "howto": "Use a Hidapipe."
    },
    {
      "id": 6,
      "imageId": 15,
      "cred": 10,
      "flags": 1,
      "label": "Escapipe",
      "description": "You used an Escapipe.",
      "howto": "Use an Escapipe to escape a dungeon."
    },
    {
      "id": 7,
      "imageId": 16,
      "cred": 15,
      "flags": 1,
      "label": "Level 20",
      "description": "You reached level 20.",
      "howto": "Advance one of your party to Level 20."
    },
    {
      "id": 8,
      "imageId": 17,
      "cred": 15,
      "flags": 1,
      "label": "Oh Dam",
      "description": "You opened all four dams.",
      "howto": "Open all four dams."
    },
    {
      "id": 9,
      "imageId": 18,
      "cred": 15,
      "flags": 1,
      "label": "Oh Yeah!",
      "description": "You acquired the Laser Cannon.",
      "howto": "Acquire the Laser Cannon."
    },
    {
      "id": 10,
      "imageId": 19,
      "cred": 15,
      "flags": 1,
      "label": "Level 10",
      "description": "You reached level 10.",
      "howto": "Advance one of your party to Level 10."
    },
    {
      "id": 11,
      "imageId": 20,
      "cred": 10,
      "flags": 1,
      "label": "Nido?",
      "description": "You reached the Tower of Nido.",
      "howto": "Reach the Tower of Nido."
    },
    {
      "id": 12,
      "imageId": 21,
      "cred": 10,
      "flags": 1,
      "label": "Big Spender",
      "description": "You spent 1,200 Meseta on one item.",
      "howto": "Spend 1,200 Meseta on one item."
    }
  ]
}