{
  "achievementsPossible": 50,
  "credPossible": 1000,
  "achievements": [
    {
      "id": 8,
      "imageId": 1,
      "cred": 5,
      "flags": 4,
      "label": "Bee Visionary",
      "description": "Activate Barry’s Bee Vision",
      "howto": "Activate Barry’s Bee Vision"
    },
    {
      "id": 9,
      "imageId": 2,
      "cred": 5,
      "flags": 4,
      "label": "Hovering Bee",
      "description": "Hover in New Hive City",
      "howto": "Hover in New Hive City"
    },
    {
      "id": 10,
      "imageId": 11,
      "cred": 5,
      "flags": 4,
      "label": "Bee Quick or Bee Dead",
      "description": "Activate Barry’s Bee Reflexes",
      "howto": "Activate Barry’s Bee Reflexes"
    },
    {
      "id": 11,
      "imageId": 46,
      "cred": 5,
      "flags": 4,
      "label": "Why walk when you can drive?",
      "description": "Get inside a car in New Hive City",
      "howto": "Get inside a car in New Hive City"
    },
    {
      "id": 12,
      "imageId": 40,
      "cred": 10,
      "flags": 4,
      "label": "Sniper Bee",
      "description": "Take down a total of 200 insects using pollen projectiles",
      "howto": "Take down a total of 200 insects using pollen projectiles"
    },
    {
      "id": 13,
      "imageId": 22,
      "cred": 10,
      "flags": 4,
      "label": "New Hive Protector",
      "description": "Don’t let the Hive suffer too much damage in Chapter 3",
      "howto": "Don’t let the Hive suffer too much damage in Chapter 3"
    },
    {
      "id": 14,
      "imageId": 4,
      "cred": 10,
      "flags": 4,
      "label": "Honey Farm Protector",
      "description": "Don’t let any bee get taken away during the wasp attack in Chapter 4",
      "howto": "Don’t let any bee get taken away during the wasp attack in Chapter 4"
    },
    {
      "id": 15,
      "imageId": 12,
      "cred": 10,
      "flags": 4,
      "label": "Dragonfly Buster",
      "description": "Take out 100 dragonflies",
      "howto": "Take out 100 dragonflies"
    },
    {
      "id": 16,
      "imageId": 43,
      "cred": 10,
      "flags": 4,
      "label": "Wasp Buster",
      "description": "Take out 100 wasps",
      "howto": "Take out 100 wasps"
    },
    {
      "id": 17,
      "imageId": 24,
      "cred": 10,
      "flags": 4,
      "label": "Hornet Buster",
      "description": "Take out 100 hornets",
      "howto": "Take out 100 hornets"
    },
    {
      "id": 18,
      "imageId": 33,
      "cred": 10,
      "flags": 4,
      "label": "Flower of Discovery",
      "description": "Pollinate the entire Pollination 101 sector in Chapter 1.",
      "howto": "Pollinate the entire Pollination 101 sector in Chapter 1."
    },
    {
      "id": 19,
      "imageId": 36,
      "cred": 10,
      "flags": 4,
      "label": "Flower of Courage",
      "description": "Pollinate all the flowers in the rainy streets of New York in Chapter 2",
      "howto": "Pollinate all the flowers in the rainy streets of New York in Chapter 2"
    },
    {
      "id": 20,
      "imageId": 47,
      "cred": 10,
      "flags": 4,
      "label": "Flower of Will",
      "description": "Pollinate all the flowers in Vanessa’s apartment in Chapter 2",
      "howto": "Pollinate all the flowers in Vanessa’s apartment in Chapter 2"
    },
    {
      "id": 21,
      "imageId": 34,
      "cred": 10,
      "flags": 4,
      "label": "Flower of Heart",
      "description": "Pollinate all the flowers in the park in Chapter 3",
      "howto": "Pollinate all the flowers in the park in Chapter 3"
    },
    {
      "id": 22,
      "imageId": 38,
      "cred": 10,
      "flags": 4,
      "label": "Flower of Abundance",
      "description": "Pollinate all the flowers in the restaurant of Chapter 6",
      "howto": "Pollinate all the flowers in the restaurant of Chapter 6"
    },
    {
      "id": 23,
      "imageId": 37,
      "cred": 10,
      "flags": 4,
      "label": "Flower of Bravery",
      "description": "Pollinate all the flowers in the rainy streets of New York in Chapter 7",
      "howto": "Pollinate all the flowers in the rainy streets of New York in Chapter 7"
    },
    {
      "id": 24,
      "imageId": 32,
      "cred": 10,
      "flags": 4,
      "label": "Flower of Justice",
      "description": "Pollinate all the flowers in Montgomery’s office in Chapter 7",
      "howto": "Pollinate all the flowers in Montgomery’s office in Chapter 7"
    },
    {
      "id": 25,
      "imageId": 39,
      "cred": 10,
      "flags": 1,
      "label": "Race Driver Award",
      "description": "Clear all racing jobs in New Hive City",
      "howto": "Clear all racing jobs in New Hive City"
    },
    {
      "id": 26,
      "imageId": 45,
      "cred": 10,
      "flags": 1,
      "label": "Delivery Boy Award",
      "description": "Clear all food delivery jobs in New Hive City",
      "howto": "Clear all food delivery jobs in New Hive City"
    },
    {
      "id": 27,
      "imageId": 35,
      "cred": 10,
      "flags": 1,
      "label": "Taxi Driver Award",
      "description": "Clear all taxi jobs in New Hive City",
      "howto": "Clear all taxi jobs in New Hive City"
    },
    {
      "id": 28,
      "imageId": 7,
      "cred": 10,
      "flags": 4,
      "label": "Arcade King Award",
      "description": "Get the highest score in all arcade games in New Hive City",
      "howto": "Get the highest score in all arcade games in New Hive City"
    },
    {
      "id": 29,
      "imageId": 18,
      "cred": 10,
      "flags": 1,
      "label": "Auto Mechanic Award",
      "description": "Clear all Auto Repair jobs in New Hive City",
      "howto": "Clear all Auto Repair jobs in New Hive City"
    },
    {
      "id": 30,
      "imageId": 44,
      "cred": 10,
      "flags": 3,
      "label": "Golden Museum Curator Award",
      "description": "All wax statues found and concept art unlocked",
      "howto": "All wax statues found and concept art unlocked"
    },
    {
      "id": 31,
      "imageId": 19,
      "cred": 10,
      "flags": 1,
      "label": "Honex Employee of the Month 1",
      "description": "Clear all Honeycomb Collector jobs in Honex",
      "howto": "Clear all Honeycomb Collector jobs in Honex"
    },
    {
      "id": 32,
      "imageId": 21,
      "cred": 10,
      "flags": 1,
      "label": "Honex Employee of the Month 2",
      "description": "Clear all Magnet Crane Operator jobs in Honex",
      "howto": "Clear all Magnet Crane Operator jobs in Honex"
    },
    {
      "id": 33,
      "imageId": 20,
      "cred": 10,
      "flags": 1,
      "label": "Honex Employee of the Month 3",
      "description": "Clear all Honey Drafter jobs in Honex",
      "howto": "Clear all Honey Drafter jobs in Honex"
    },
    {
      "id": 34,
      "imageId": 49,
      "cred": 10,
      "flags": 4,
      "label": "Flawless Buzz Battle 1",
      "description": "Defeat Hector the Delivery Guy without taking any damage in Chapter 4",
      "howto": "Defeat Hector the Delivery Guy without taking any damage in Chapter 4"
    },
    {
      "id": 35,
      "imageId": 13,
      "cred": 10,
      "flags": 4,
      "label": "Flawless Buzz Battle 2",
      "description": "Defeat Freddy the Beekeeper without taking any damage in Chapter 5",
      "howto": "Defeat Freddy the Beekeeper without taking any damage in Chapter 5"
    },
    {
      "id": 36,
      "imageId": 48,
      "cred": 10,
      "flags": 4,
      "label": "Flawless Buzz Battle 3",
      "description": "Defeat Ken without taking any damage in Chapter 9",
      "howto": "Defeat Ken without taking any damage in Chapter 9"
    },
    {
      "id": 37,
      "imageId": 15,
      "cred": 10,
      "flags": 4,
      "label": "Flawless Buzz Battle 4",
      "description": "Defeat Montgomery without taking any damage in Chapter 11",
      "howto": "Defeat Montgomery without taking any damage in Chapter 11"
    },
    {
      "id": 38,
      "imageId": 16,
      "cred": 10,
      "flags": 4,
      "label": "Operation Guaca Mole",
      "description": "Neutralize Ken using the 3 party guests without a scratch in Chapter 2",
      "howto": "Neutralize Ken using the 3 party guests without a scratch in Chapter 2"
    },
    {
      "id": 39,
      "imageId": 50,
      "cred": 10,
      "flags": 4,
      "label": "Operation Buzz Boy",
      "description": "Reach Montgomery’s table without taking any damage in Chapter 6",
      "howto": "Reach Montgomery’s table without taking any damage in Chapter 6"
    },
    {
      "id": 40,
      "imageId": 17,
      "cred": 10,
      "flags": 4,
      "label": "Operation Gamma Code",
      "description": "Collect 3 parts of the code and unlock Montgomery’s safe without a scratch in Chapter 7",
      "howto": "Collect 3 parts of the code and unlock Montgomery’s safe without a scratch in Chapter 7"
    },
    {
      "id": 41,
      "imageId": 14,
      "cred": 10,
      "flags": 4,
      "label": "Operation Sting Ray",
      "description": "Collect 3 ID’s and reach the secured room without taking any damage in Chapter 10",
      "howto": "Collect 3 ID’s and reach the secured room without taking any damage in Chapter 10"
    },
    {
      "id": 42,
      "imageId": 9,
      "cred": 10,
      "flags": 4,
      "label": "Baptism of Water",
      "description": "Reach Vanessa’s apartment under 4: 00 in Chapter 2",
      "howto": "Reach Vanessa’s apartment under 4: 00 in Chapter 2"
    },
    {
      "id": 43,
      "imageId": 5,
      "cred": 10,
      "flags": 4,
      "label": "Washed Away Picnic",
      "description": "Reach Vanessa under 2: 00 in Chapter 3",
      "howto": "Reach Vanessa under 2: 00 in Chapter 3"
    },
    {
      "id": 44,
      "imageId": 8,
      "cred": 10,
      "flags": 4,
      "label": "No Pain No Gain… in Rain",
      "description": "Reach Montgomery’s Office under 3:30 in Chapter 7",
      "howto": "Reach Montgomery’s Office under 3:30 in Chapter 7"
    },
    {
      "id": 45,
      "imageId": 6,
      "cred": 10,
      "flags": 4,
      "label": "Sprinkler Shower ",
      "description": "Reach the fire exit under 0:30 in Chapter 8",
      "howto": "Reach the fire exit under 0:30 in Chapter 8"
    },
    {
      "id": 46,
      "imageId": 41,
      "cred": 10,
      "flags": 4,
      "label": "Flawless Sortie",
      "description": "Reach the Flower Patch without a scratch in Chapter 1",
      "howto": "Reach the Flower Patch without a scratch in Chapter 1"
    },
    {
      "id": 47,
      "imageId": 42,
      "cred": 10,
      "flags": 4,
      "label": "Flawless Game",
      "description": "Survive the tennis rally between Ken and Vanessa without being hit in Chapter 1",
      "howto": "Survive the tennis rally between Ken and Vanessa without being hit in Chapter 1"
    },
    {
      "id": 48,
      "imageId": 23,
      "cred": 10,
      "flags": 4,
      "label": "Flawless Truck Chase",
      "description": "Follow the Honey Farm truck to its destination without any damage in Chapter 4",
      "howto": "Follow the Honey Farm truck to its destination without any damage in Chapter 4"
    },
    {
      "id": 49,
      "imageId": 25,
      "cred": 10,
      "flags": 4,
      "label": "Flawless Limousine Pursuit",
      "description": "Follow Montgomery’s Limousine to its destination without any damage in Chapter 6",
      "howto": "Follow Montgomery’s Limousine to its destination without any damage in Chapter 6"
    },
    {
      "id": 50,
      "imageId": 26,
      "cred": 50,
      "flags": 1,
      "label": "Squadron Leader ",
      "description": "Acquire all aerial combat badges",
      "howto": "Acquire all aerial combat badges"
    },
    {
      "id": 51,
      "imageId": 30,
      "cred": 50,
      "flags": 1,
      "label": "Master Pollinator ",
      "description": "Acquire all pollination badges ",
      "howto": "Acquire all pollination badges "
    },
    {
      "id": 52,
      "imageId": 31,
      "cred": 50,
      "flags": 1,
      "label": "Speedy Bee",
      "description": "Acquire all rain drop dodging badges",
      "howto": "Acquire all rain drop dodging badges"
    },
    {
      "id": 53,
      "imageId": 29,
      "cred": 50,
      "flags": 1,
      "label": "King of New Hive City",
      "description": "Acquire all New Hive City badges",
      "howto": "Acquire all New Hive City badges"
    },
    {
      "id": 54,
      "imageId": 27,
      "cred": 50,
      "flags": 1,
      "label": "Survivor Bee",
      "description": "Acquire all human encounter badges",
      "howto": "Acquire all human encounter badges"
    },
    {
      "id": 55,
      "imageId": 28,
      "cred": 50,
      "flags": 1,
      "label": "Lightning Reflex Bee",
      "description": "Acquire all staged action badges",
      "howto": "Acquire all staged action badges"
    },
    {
      "id": 56,
      "imageId": 51,
      "cred": 200,
      "flags": 1,
      "label": "You Rock Pollen Jock! ",
      "description": "Acquire all badges",
      "howto": "Acquire all badges"
    },
    {
      "id": 57,
      "imageId": 10,
      "cred": 100,
      "flags": 1,
      "label": "Bee Gone!",
      "description": "Complete the game",
      "howto": "Complete the game"
    }
  ]
}