{
  "achievementsPossible": 46,
  "credPossible": 1000,
  "achievements": [
    {
      "id": 1,
      "imageId": 23,
      "cred": 30,
      "flags": 6,
      "label": "Miracle City Mayor",
      "description": "Story Board: Completed the story once.",
      "howto": "Story Board: Complete the story once."
    },
    {
      "id": 2,
      "imageId": 24,
      "cred": 50,
      "flags": 1,
      "label": "Many Memories",
      "description": "Story Board: Completed the story 3 times.",
      "howto": "Story Board: Complete the story 3 times."
    },
    {
      "id": 3,
      "imageId": 23,
      "cred": 30,
      "flags": 1,
      "label": "Story-Telling Master",
      "description": "Story Board: Completed all the maps in the Story Board.",
      "howto": "Story Board: Complete all maps in Story Board. "
    },
    {
      "id": 4,
      "imageId": 21,
      "cred": 15,
      "flags": 6,
      "label": "Normal Battler",
      "description": "Party Board: Played 5 Normal battles with 2 or more players.",
      "howto": "Party Mode: Play 5 Normal battles with 2+ players."
    },
    {
      "id": 5,
      "imageId": 23,
      "cred": 30,
      "flags": 1,
      "label": "Party Until Grandkids Come",
      "description": "Party Board: Played 10 Normal battles with 2 or more players.",
      "howto": "Party Mode: Play 10 Normal battles with 2+ players."
    },
    {
      "id": 6,
      "imageId": 21,
      "cred": 15,
      "flags": 6,
      "label": "Point Battler",
      "description": "Party Board: Played 5 Point battles with 2 or more players.",
      "howto": "Party Mode: Play 5 Point battles with 2+ players."
    },
    {
      "id": 9,
      "imageId": 23,
      "cred": 30,
      "flags": 1,
      "label": "Party Until Great-Grandkids Come",
      "description": "Party Board: Played Point battle 10 times, with 2 or more players.",
      "howto": "Party Mode: Play 10 Point battles with 2+ players."
    },
    {
      "id": 10,
      "imageId": 21,
      "cred": 15,
      "flags": 6,
      "label": "Mini-Gamer",
      "description": "Party Board: Played 25 mini-games with 2+ players (including all 3 types).",
      "howto": "Party Mode: Play 25 mini-games with 2+ players (including all 3 types)."
    },
    {
      "id": 11,
      "imageId": 23,
      "cred": 30,
      "flags": 1,
      "label": "Mini-Game Marathon",
      "description": "Party Board: Played 50 mini-games with 2+ players (including all 3 types).",
      "howto": "Party Mode: Play 50 mini-games with 2+ players (including all 3 types)."
    },
    {
      "id": 12,
      "imageId": 22,
      "cred": 20,
      "flags": 1,
      "label": "Richest Player Award Specialist",
      "description": "Party Board: Won the Richest Player Award 3 times.",
      "howto": "Party Mode: Win the Richest Player Award 3 times."
    },
    {
      "id": 13,
      "imageId": 22,
      "cred": 20,
      "flags": 1,
      "label": "Bully Award Specialist",
      "description": "Party Board: Won the Bully Award 3 times.",
      "howto": "Party Mode: Win the Bully Award 3 times."
    },
    {
      "id": 14,
      "imageId": 22,
      "cred": 20,
      "flags": 1,
      "label": "Mini-Game Skill Award Specialist",
      "description": "Party Board: Won the Mini-Game Skill Award 3 times.",
      "howto": "Party Mode: Win the Mini-Game Skill Award 3 times."
    },
    {
      "id": 15,
      "imageId": 22,
      "cred": 20,
      "flags": 1,
      "label": "Try Hard Award Specialist",
      "description": "Party Board: Won the Nice Effort Prize 3 times.",
      "howto": "Party Mode: Win the Nice Effort Award 3 times."
    },
    {
      "id": 16,
      "imageId": 22,
      "cred": 20,
      "flags": 1,
      "label": "Ultimate Battler",
      "description": "Party Board: Beat 3 of the strongest A.I. players.",
      "howto": "Party Mode: Win against 3 of the strongest A.I. players."
    },
    {
      "id": 28,
      "imageId": 21,
      "cred": 15,
      "flags": 1,
      "label": "Serious Gamer",
      "description": "Practice Board: Completed 1 practice game.",
      "howto": "Practice Board: Complete 1 practice game."
    },
    {
      "id": 29,
      "imageId": 22,
      "cred": 20,
      "flags": 1,
      "label": "Mini-Game Showdown Master 3",
      "description": "Mini-Game Showdown: Won 3 times in a 3-game tournament with 3 of the strongest A.I. players.",
      "howto": "Mini-Game Showdown: Win 3 times in a 3-game tournament with 3 of the strongest A.I. players."
    },
    {
      "id": 31,
      "imageId": 22,
      "cred": 20,
      "flags": 1,
      "label": "Mini-Game Showdown Master 5",
      "description": "Mini-Game Showdown: Won 3 times in a 5-game tournament with 3 of the strongest A.I. players.",
      "howto": "Mini-Game Showdown: Win 3 times in 5-game tournament with 3 of the strongest A.I. players."
    },
    {
      "id": 32,
      "imageId": 22,
      "cred": 20,
      "flags": 1,
      "label": "Mini-Game Showdown Master 7",
      "description": "Mini-Game Showdown: Won 3 times in a 7-game tournament with 3 of the strongest A.I. players.",
      "howto": "Mini-Game Showdown: Win 3 times in 7-game tournament with 3 of the strongest A.I. players."
    },
    {
      "id": 33,
      "imageId": 22,
      "cred": 20,
      "flags": 1,
      "label": "Mini-Game Showdown Master 10",
      "description": "Mini-Game Showdown: Won 3 times in a 10-game tournament with 3 of the strongest A.I. players.",
      "howto": "Mini-Game Showdown: Win 3 times in 10-game tournament with 3 of the strongest A.I. players."
    },
    {
      "id": 34,
      "imageId": 20,
      "cred": 10,
      "flags": 6,
      "label": "Medal Lover",
      "description": "All Modes: Collected 100 medals.",
      "howto": "All Modes: Collect 100 medals."
    },
    {
      "id": 36,
      "imageId": 23,
      "cred": 30,
      "flags": 1,
      "label": "Medal King",
      "description": "All Modes: Collected 500 medals.",
      "howto": "All Modes: Collect 500 medals."
    },
    {
      "id": 37,
      "imageId": 20,
      "cred": 10,
      "flags": 6,
      "label": "Item Lover",
      "description": "All Modes: Collected 10 items.",
      "howto": "All Modes: Collect 10 items."
    },
    {
      "id": 38,
      "imageId": 23,
      "cred": 30,
      "flags": 1,
      "label": "Item Collector",
      "description": "All Modes: Collected 100 items.",
      "howto": "All Modes: Collect 100 items."
    },
    {
      "id": 39,
      "imageId": 20,
      "cred": 10,
      "flags": 1,
      "label": "Controller King",
      "description": "All Modes: Played Party Board with 4 controllers.",
      "howto": "All Modes: Play Party mode with 4 controllers."
    },
    {
      "id": 40,
      "imageId": 20,
      "cred": 10,
      "flags": 7,
      "label": "Everyparty Maniac",
      "description": "All Modes: Loaded a single saved content file 10 times.",
      "howto": "All Modes: Load 1 saved content file 10 times."
    },
    {
      "id": 41,
      "imageId": 21,
      "cred": 15,
      "flags": 1,
      "label": "Lavish Medal Spender",
      "description": "All Modes: Spent 50 medals.",
      "howto": "All Modes: Spend 50 medals."
    },
    {
      "id": 42,
      "imageId": 22,
      "cred": 20,
      "flags": 1,
      "label": "Signboard Collector",
      "description": "All Modes: Collected all signs.",
      "howto": "All Modes: Collect all signs."
    },
    {
      "id": 43,
      "imageId": 22,
      "cred": 20,
      "flags": 7,
      "label": "Super Goal",
      "description": "All Modes: Won by using the Dream Wheel.",
      "howto": "All Modes: Finish a match with the Dream Wheel."
    },
    {
      "id": 44,
      "imageId": 23,
      "cred": 30,
      "flags": 1,
      "label": "Bully Buddy",
      "description": "All Modes: Placed all bullies once.",
      "howto": "All Modes: Place all bullies."
    },
    {
      "id": 45,
      "imageId": 22,
      "cred": 20,
      "flags": 7,
      "label": "Wheel Card Ph.D.",
      "description": "All Modes: Used all wheel cards.",
      "howto": "All Modes: Use every wheel card."
    },
    {
      "id": 50,
      "imageId": 22,
      "cred": 20,
      "flags": 7,
      "label": "Character Ph.D.",
      "description": "My Room: Collected and read every page of the Character Scrapbook in one sitting.",
      "howto": "My Room: Collect and read every page of Character Encyclopedia in one sitting."
    },
    {
      "id": 51,
      "imageId": 22,
      "cred": 20,
      "flags": 7,
      "label": "Town News Ph.D.",
      "description": "My Room: Collected and read every page of the Town News in one sitting.",
      "howto": "My Room: Collect and read every page of the Town News in one sitting."
    },
    {
      "id": 52,
      "imageId": 21,
      "cred": 15,
      "flags": 7,
      "label": "Honorary Ph.D.",
      "description": "My Room: Collected and read all of the Awards in one sitting.",
      "howto": "My Room: Collect and read every certificate page in one sitting."
    },
    {
      "id": 53,
      "imageId": 21,
      "cred": 15,
      "flags": 7,
      "label": "Map Ph.D.",
      "description": "My Room: Unlocked and read every page of the Record Book in one sitting.",
      "howto": "My Room: Read every page of the Record Book in one sitting after covering every map."
    },
    {
      "id": 57,
      "imageId": 21,
      "cred": 15,
      "flags": 7,
      "label": "Beautiful Memories",
      "description": "My Room: Viewed all Story Board Memories in one sitting.",
      "howto": "My Room: View all Story Board Memories in one sitting."
    },
    {
      "id": 58,
      "imageId": 20,
      "cred": 10,
      "flags": 1,
      "label": "I Done Made a Character!",
      "description": "My Room: Created a custom character in My Character.",
      "howto": "My Room: Make My Character."
    },
    {
      "id": 59,
      "imageId": 22,
      "cred": 20,
      "flags": 1,
      "label": "What's Yours is Mine",
      "description": "My Room: Collected all the items for My Character creation.",
      "howto": "My Room: Complete the items gained from producing My Character."
    },
    {
      "id": 60,
      "imageId": 22,
      "cred": 20,
      "flags": 1,
      "label": "Shopaholic",
      "description": "My Room: Shopped at the item shop 30 times.",
      "howto": "My Room: Shop at the item shop 30 times."
    },
    {
      "id": 61,
      "imageId": 21,
      "cred": 15,
      "flags": 6,
      "label": "Public Hall Staff",
      "description": "Public Hall: Won 5 matches in the tournament.",
      "howto": "Public Hall: Win 5 matches."
    },
    {
      "id": 62,
      "imageId": 23,
      "cred": 30,
      "flags": 1,
      "label": "Public Hall Director",
      "description": "Public Hall: Won 10 matches in the tournament.",
      "howto": "Public Hall: Win 10 matches."
    },
    {
      "id": 63,
      "imageId": 22,
      "cred": 20,
      "flags": 6,
      "label": "Public Hall Challenge",
      "description": "Public Hall: Achieved 2 consecutive victories in the tournament.",
      "howto": "Public Hall: Achieve 2 consecutive victories."
    },
    {
      "id": 64,
      "imageId": 24,
      "cred": 50,
      "flags": 1,
      "label": "Public Hall Trial",
      "description": "Public Hall: Achieved 3 consecutive victories in the tournament.",
      "howto": "Public Hall: Achieve 3 consecutive victories."
    },
    {
      "id": 65,
      "imageId": 21,
      "cred": 15,
      "flags": 6,
      "label": "Friendly Face",
      "description": "Public Hall: Created and won 5 games in my own room in the tournament.",
      "howto": "Public Hall: Create and win 5 games in your own room."
    },
    {
      "id": 66,
      "imageId": 23,
      "cred": 30,
      "flags": 1,
      "label": "Regular Customer",
      "description": "Public Hall: Created and won 10 games in my own room in the tournament.",
      "howto": "Public Hall: Create and win 10 games in your own room."
    },
    {
      "id": 67,
      "imageId": 24,
      "cred": 50,
      "flags": 1,
      "label": "Hall of Famer",
      "description": "Public Hall: Listed all Hall of Fame categories.",
      "howto": "Public Hall: Get listed in all Hall of Fame categories."
    },
    {
      "id": 68,
      "imageId": 20,
      "cred": 10,
      "flags": 6,
      "label": "Good Sport",
      "description": "Public Hall: Did not boo during the match.",
      "howto": "Public Hall: Do not boo during a match."
    }
  ]
}