{
  "achievementsPossible": 40,
  "credPossible": 1250,
  "achievements": [
    {
      "id": 100,
      "imageId": 26,
      "cred": 40,
      "flags": 1,
      "label": "50 Hours Playtime",
      "description": "Played for 50 hours.",
      "howto": ""
    },
    {
      "id": 101,
      "imageId": 27,
      "cred": 80,
      "flags": 1,
      "label": "100 Hours Playtime",
      "description": "Played for 100 hours.",
      "howto": ""
    },
    {
      "id": 102,
      "imageId": 28,
      "cred": 40,
      "flags": 1,
      "label": "Katamari Fan",
      "description": "Completed Requests 100 times in Normal Mode.",
      "howto": ""
    },
    {
      "id": 103,
      "imageId": 29,
      "cred": 80,
      "flags": 1,
      "label": "Katamari Lover",
      "description": "Completed Requests 200 times in Normal Mode.",
      "howto": ""
    },
    {
      "id": 105,
      "imageId": 46,
      "cred": 20,
      "flags": 1,
      "label": "Manic Roller",
      "description": "You roll with a rough style and tend to crash a lot!  ",
      "howto": "Hint: Running into walls will destroy your katamari."
    },
    {
      "id": 106,
      "imageId": 47,
      "cred": 10,
      "flags": 1,
      "label": "Quick Turner",
      "description": "You are a master of the Quick Turn!",
      "howto": "Hint: Use Quick Turn to your advantage."
    },
    {
      "id": 107,
      "imageId": 48,
      "cred": 10,
      "flags": 1,
      "label": "Speedy Roller",
      "description": "You roll your katamari with amazing speed!",
      "howto": "Hint: Zip through the course with Dash. "
    },
    {
      "id": 108,
      "imageId": 49,
      "cred": 30,
      "flags": 1,
      "label": "Responsible Roller",
      "description": "You are a safe and responsible roller!",
      "howto": "Hint: Roll through the course without bumping into any objects. "
    },
    {
      "id": 109,
      "imageId": 50,
      "cred": 30,
      "flags": 1,
      "label": "Non-stop Roller",
      "description": "You roll constantly without stopping!",
      "howto": "Hint: Roll through the course without stopping once."
    },
    {
      "id": 110,
      "imageId": 16,
      "cred": 5,
      "flags": 1,
      "label": "Online Roller",
      "description": "Played online.",
      "howto": "Play online."
    },
    {
      "id": 111,
      "imageId": 17,
      "cred": 10,
      "flags": 1,
      "label": "Frequent Online Roller",
      "description": "Played online 10 times.",
      "howto": "Play online 10 times."
    },
    {
      "id": 112,
      "imageId": 18,
      "cred": 40,
      "flags": 1,
      "label": "Resident Online Roller",
      "description": "Played online 50 times.",
      "howto": "Play online 50 times."
    },
    {
      "id": 113,
      "imageId": 19,
      "cred": 5,
      "flags": 1,
      "label": "100 Cookies",
      "description": "Obtained 100 Cookies.",
      "howto": "Obtain 100 Cookies."
    },
    {
      "id": 114,
      "imageId": 20,
      "cred": 40,
      "flags": 1,
      "label": "1,000 Cookies",
      "description": "Obtained 1,000 Cookies.",
      "howto": "Obtain 1,000 Cookies."
    },
    {
      "id": 120,
      "imageId": 1,
      "cred": 5,
      "flags": 1,
      "label": "10 Presents",
      "description": "Collected 10 Presents.",
      "howto": "Collect 10 Presents."
    },
    {
      "id": 121,
      "imageId": 2,
      "cred": 10,
      "flags": 1,
      "label": "20 Presents",
      "description": "Collected 20 Presents.",
      "howto": "Collect 20 Presents."
    },
    {
      "id": 122,
      "imageId": 3,
      "cred": 20,
      "flags": 1,
      "label": "30 Presents",
      "description": "Collected 30 Presents.",
      "howto": "Collect 30 Presents."
    },
    {
      "id": 124,
      "imageId": 5,
      "cred": 80,
      "flags": 1,
      "label": "All Presents",
      "description": "Collected all of the Presents!",
      "howto": "Download stages and collect all Presents."
    },
    {
      "id": 125,
      "imageId": 6,
      "cred": 5,
      "flags": 1,
      "label": "10 Cousins",
      "description": "Found 10 Cousins.",
      "howto": "Find 10 Cousins."
    },
    {
      "id": 126,
      "imageId": 7,
      "cred": 10,
      "flags": 1,
      "label": "20 Cousins",
      "description": "Found 20 Cousins.",
      "howto": "Find 20 Cousins."
    },
    {
      "id": 127,
      "imageId": 8,
      "cred": 20,
      "flags": 1,
      "label": "30 Cousins",
      "description": "Found 30 Cousins.",
      "howto": "Find 30 Cousins."
    },
    {
      "id": 128,
      "imageId": 9,
      "cred": 40,
      "flags": 1,
      "label": "40 Cousins",
      "description": "Found 40 Cousins.",
      "howto": "Find 40 Cousins."
    },
    {
      "id": 129,
      "imageId": 10,
      "cred": 80,
      "flags": 1,
      "label": "All Cousins",
      "description": "Found all of the Cousins. ",
      "howto": "Download stages and find all Cousins."
    },
    {
      "id": 130,
      "imageId": 11,
      "cred": 5,
      "flags": 1,
      "label": "Collection 20% ",
      "description": "Rolled up 20% of the Collection.",
      "howto": "Roll up 20% of the Collection."
    },
    {
      "id": 131,
      "imageId": 12,
      "cred": 10,
      "flags": 1,
      "label": "Collection 40% ",
      "description": "Rolled up 40% of the Collection.",
      "howto": "Roll up 40% of the Collection."
    },
    {
      "id": 132,
      "imageId": 13,
      "cred": 20,
      "flags": 1,
      "label": "Collection 60% ",
      "description": "Rolled up 60% of the Collection.",
      "howto": "Roll up 60% of the Collection."
    },
    {
      "id": 133,
      "imageId": 14,
      "cred": 40,
      "flags": 1,
      "label": "Collection 80% ",
      "description": "Rolled up 80% of the Collection.",
      "howto": "Roll up 80% of the Collection."
    },
    {
      "id": 134,
      "imageId": 15,
      "cred": 80,
      "flags": 1,
      "label": "Collection 100%",
      "description": "Rolled up 100% of the Collection. ",
      "howto": ""
    },
    {
      "id": 135,
      "imageId": 31,
      "cred": 5,
      "flags": 1,
      "label": "Request x 3",
      "description": "Completed 3 Requests.",
      "howto": "Complete 3 Requests."
    },
    {
      "id": 136,
      "imageId": 32,
      "cred": 5,
      "flags": 1,
      "label": "Request x 6",
      "description": "Completed 6 Requests.",
      "howto": "Complete 6 Requests."
    },
    {
      "id": 137,
      "imageId": 33,
      "cred": 20,
      "flags": 1,
      "label": "Request x 9",
      "description": "Completed 9 Requests.",
      "howto": "Complete 9 Requests."
    },
    {
      "id": 138,
      "imageId": 34,
      "cred": 60,
      "flags": 1,
      "label": "All Requests ",
      "description": "Completed all Requests.",
      "howto": "Complete all Requests."
    },
    {
      "id": 139,
      "imageId": 35,
      "cred": 100,
      "flags": 1,
      "label": "Katamari Perfectionist",
      "description": "Completed all Requests in Normal and Time Attack Mode.",
      "howto": ""
    },
    {
      "id": 140,
      "imageId": 36,
      "cred": 5,
      "flags": 1,
      "label": "Mini Katamari ",
      "description": "You made a katamari over 30cm!",
      "howto": "Make a katamari that's 30cm or more!"
    },
    {
      "id": 141,
      "imageId": 37,
      "cred": 5,
      "flags": 1,
      "label": "Small Katamari",
      "description": "You made a katamari over 1m!",
      "howto": "Make a katamari that's 1m or more!"
    },
    {
      "id": 142,
      "imageId": 38,
      "cred": 5,
      "flags": 1,
      "label": "Sorta Big Katamari",
      "description": "You made a katamari over 5m!",
      "howto": "Make a katamari that's 5m or more!"
    },
    {
      "id": 143,
      "imageId": 39,
      "cred": 10,
      "flags": 1,
      "label": "Big Katamari",
      "description": "You made a katamari over 30m!",
      "howto": "Make a katamari that's 30m or more!"
    },
    {
      "id": 144,
      "imageId": 40,
      "cred": 20,
      "flags": 1,
      "label": "Jumbo Katamari",
      "description": "You made a katamari over 500m!",
      "howto": "Make a katamari that's 500m or more!"
    },
    {
      "id": 145,
      "imageId": 41,
      "cred": 60,
      "flags": 1,
      "label": "Colossal Katamari",
      "description": "You made a katamari over 10,000km!",
      "howto": "Make a katamari that's 10,000km or more!"
    },
    {
      "id": 149,
      "imageId": 45,
      "cred": 90,
      "flags": 1,
      "label": "Astronomic Katamari",
      "description": "You made a katamari over 1,500,000km!",
      "howto": "Download stages and make a katamari over 1,500,000km."
    }
  ]
}