{
  "achievementsPossible": 12,
  "credPossible": 200,
  "achievements": [
    {
      "id": 28,
      "imageId": 2,
      "cred": 20,
      "flags": 1,
      "label": "Fit Player",
      "description": "Played TotemBall for 20 minutes without resting.",
      "howto": "Play a level for 20 minutes without resting (or your arms falling off)."
    },
    {
      "id": 31,
      "imageId": 3,
      "cred": 10,
      "flags": 1,
      "label": "Totem Trainer",
      "description": "Completed the training level",
      "howto": "Complete the training level"
    },
    {
      "id": 32,
      "imageId": 4,
      "cred": 15,
      "flags": 1,
      "label": "Treasure Fiend",
      "description": "Collected enough treasure chests to get a 16x multiplier",
      "howto": "Collect enough treasure chests to get a 16x multiplier"
    },
    {
      "id": 33,
      "imageId": 5,
      "cred": 10,
      "flags": 1,
      "label": "TotemBall Wizard",
      "description": "Racked up 1,000,000 points in a pinball bonus round",
      "howto": "Score 1,000,000 points in a pinball bonus round"
    },
    {
      "id": 34,
      "imageId": 6,
      "cred": 20,
      "flags": 1,
      "label": "Walks on Water",
      "description": "Bounced on the water 100 times",
      "howto": "Bounce on water 100 times"
    },
    {
      "id": 35,
      "imageId": 1,
      "cred": 10,
      "flags": 1,
      "label": "Shiny!",
      "description": "Collected 100 shiny things",
      "howto": "Collect 100 shiny things in a single game"
    },
    {
      "id": 36,
      "imageId": 7,
      "cred": 15,
      "flags": 1,
      "label": "Totem Hero",
      "description": "Completed the single player game.",
      "howto": "Complete the single player game."
    },
    {
      "id": 37,
      "imageId": 8,
      "cred": 15,
      "flags": 1,
      "label": "Totem Team",
      "description": "Completed the Juggling game with a friend.",
      "howto": "Complete the Juggling game with a friend."
    },
    {
      "id": 38,
      "imageId": 9,
      "cred": 35,
      "flags": 1,
      "label": "Top Totem",
      "description": "Completed the single player game without losing a life.",
      "howto": "Complete the single player game without losing a life."
    },
    {
      "id": 39,
      "imageId": 10,
      "cred": 20,
      "flags": 1,
      "label": "Score!",
      "description": "Scored 100,000,000 points in a single game.",
      "howto": "Score 100,000,000 points in a single game."
    },
    {
      "id": 41,
      "imageId": 11,
      "cred": 10,
      "flags": 1,
      "label": "Totem Juggler",
      "description": "Got a best juggle score of 1000",
      "howto": "Get a best juggle score of 1000"
    },
    {
      "id": 42,
      "imageId": 12,
      "cred": 20,
      "flags": 1,
      "label": "Perfect!",
      "description": "Found every pickup in the single player game.",
      "howto": "Find every pickup in the single player game."
    }
  ]
}