{
  "achievementsPossible": 14,
  "credPossible": 1000,
  "achievements": [
    {
      "id": 8,
      "imageId": 6,
      "cred": 100,
      "flags": 6,
      "label": "【XOR】ランクマスター",
      "description": "ランクＳＳを全てのステージで取得",
      "howto": "全てのミッションで最高成績を収めた者に与えられる称号。"
    },
    {
      "id": 9,
      "imageId": 7,
      "cred": 50,
      "flags": 1,
      "label": "【XOR】Aエンディングクリア",
      "description": "サラ・エンディングクリア",
      "howto": "共に戦闘に参加し、好成績を収め続ける事で獲得"
    },
    {
      "id": 10,
      "imageId": 8,
      "cred": 50,
      "flags": 1,
      "label": "【XOR】Bエンディングクリア",
      "description": "ミオ・エンディングクリア",
      "howto": "共に戦闘に参加し、好成績を収め続ける事で獲得"
    },
    {
      "id": 11,
      "imageId": 9,
      "cred": 50,
      "flags": 1,
      "label": "【XOR】Cエンディングクリア",
      "description": "メイヴェル・エンディングクリア",
      "howto": "共に戦闘に参加し、好成績を収め続ける事で獲得"
    },
    {
      "id": 12,
      "imageId": 10,
      "cred": 50,
      "flags": 4,
      "label": "【XOR】スキルコレクター",
      "description": "全てのスキルを取得",
      "howto": "スキルを統べる者に贈られる称号"
    },
    {
      "id": 20,
      "imageId": 18,
      "cred": 150,
      "flags": 4,
      "label": "【XOR】セレブラムマスター",
      "description": "全てのパーツ＆スキルを取得",
      "howto": "ゼーガペインＸＯＲを遊びつくした者に贈られる称号"
    },
    {
      "id": 22,
      "imageId": 20,
      "cred": 50,
      "flags": 4,
      "label": "【XOR】パーツコレクター",
      "description": "全てのパーツを取得",
      "howto": "パーツを統べる者に贈られる称号"
    },
    {
      "id": 23,
      "imageId": 21,
      "cred": 100,
      "flags": 6,
      "label": "【NOT】ランクマスター",
      "description": "ランクＳＳを全てのステージで取得",
      "howto": "全てのミッションで最高成績を収めた者に与えられる称号"
    },
    {
      "id": 24,
      "imageId": 22,
      "cred": 50,
      "flags": 1,
      "label": "【NOT】Aエンディングクリア",
      "description": "カーム・エンディングクリア",
      "howto": "共に戦闘に参加し、エンディングを迎える事で獲得"
    },
    {
      "id": 25,
      "imageId": 23,
      "cred": 50,
      "flags": 1,
      "label": "【NOT】Bエンディングクリア",
      "description": "クラルカ・エンディングクリア",
      "howto": "共に戦闘に参加し、エンディングを迎える事で獲得"
    },
    {
      "id": 26,
      "imageId": 24,
      "cred": 50,
      "flags": 1,
      "label": "【NOT】Cエンディングクリア",
      "description": "ネモン・エンディングクリア",
      "howto": "共に戦闘に参加し、エンディングを迎える事で獲得"
    },
    {
      "id": 27,
      "imageId": 25,
      "cred": 50,
      "flags": 4,
      "label": "【NOT】パーツコレクター",
      "description": "全てのパーツを取得",
      "howto": "パーツを統べる者に贈られる称号"
    },
    {
      "id": 28,
      "imageId": 26,
      "cred": 50,
      "flags": 4,
      "label": "【NOT】スキルコレクター",
      "description": "全てのスキルを取得",
      "howto": "スキルを統べる者に贈られる称号"
    },
    {
      "id": 29,
      "imageId": 27,
      "cred": 150,
      "flags": 4,
      "label": "【NOT】ガルズオルムマスター",
      "description": "全てのパーツ＆スキルを取得",
      "howto": "ゼーガペインＮＯＴを遊びつくした者に贈られる称号"
    }
  ]
}