{
  "achievementsPossible": 50,
  "credPossible": 1000,
  "achievements": [
    {
      "id": 1,
      "imageId": 1,
      "cred": 5,
      "flags": 6,
      "label": "新たなる王者",
      "description": "コロッセウムで頂点を極める。",
      "howto": "コロッセウムで頂点を極める。"
    },
    {
      "id": 2,
      "imageId": 2,
      "cred": 5,
      "flags": 6,
      "label": "地の盟友",
      "description": "蒼き密林のメルキゼキアと同盟を結ぶ。",
      "howto": "蒼き密林のメルキゼキアと同盟を結ぶ。"
    },
    {
      "id": 3,
      "imageId": 3,
      "cred": 5,
      "flags": 6,
      "label": "火の盟友",
      "description": "不死鳥の山フェニキオンと同盟を結ぶ。",
      "howto": "不死鳥の山フェニキオンと同盟を結ぶ。"
    },
    {
      "id": 5,
      "imageId": 4,
      "cred": 5,
      "flags": 6,
      "label": "水の盟友",
      "description": "霧の国ブリュメーアと同盟を結ぶ。",
      "howto": "霧の国ブリュメーアと同盟を結ぶ。"
    },
    {
      "id": 6,
      "imageId": 5,
      "cred": 5,
      "flags": 6,
      "label": "風の盟友",
      "description": "黄金砂漠バトゥーアンと同盟を結ぶ。",
      "howto": "黄金砂漠バトゥーアンと同盟を結ぶ。"
    },
    {
      "id": 7,
      "imageId": 6,
      "cred": 10,
      "flags": 6,
      "label": "第一の試練突破",
      "description": "星司の泉ヴェイニスでの試練を突破する。",
      "howto": "星司の泉ヴェイニスでの試練を突破する。"
    },
    {
      "id": 8,
      "imageId": 7,
      "cred": 10,
      "flags": 6,
      "label": "第二の試練突破",
      "description": "月祈の塔カニンガンでの試練を突破する。",
      "howto": "月祈の塔カニンガンでの試練を突破する。"
    },
    {
      "id": 9,
      "imageId": 8,
      "cred": 10,
      "flags": 6,
      "label": "第三の試練突破",
      "description": "陽拝宮殿ブロブディンでの試練を突破する。",
      "howto": "陽拝宮殿ブロブディンでの試練を突破する。"
    },
    {
      "id": 10,
      "imageId": 9,
      "cred": 20,
      "flags": 6,
      "label": "輝ける階段を往く者",
      "description": "輝ける祭壇でセプターの頂点に立つ。",
      "howto": "輝ける祭壇でセプターの頂点に立つ。"
    },
    {
      "id": 11,
      "imageId": 10,
      "cred": 20,
      "flags": 6,
      "label": "暗黒の階段を往く者",
      "description": "大いなる闇の祭壇でセプターの頂点に立つ。",
      "howto": "大いなる闇の祭壇でセプターの頂点に立つ。"
    },
    {
      "id": 12,
      "imageId": 11,
      "cred": 20,
      "flags": 6,
      "label": "祝福の階段を往く者",
      "description": "神々の世界への階段で新たなる世界の創造主となる。",
      "howto": "神々の世界への階段で新たなる世界の創造主となる。"
    },
    {
      "id": 13,
      "imageId": 12,
      "cred": 20,
      "flags": 4,
      "label": "火を統べる者",
      "description": "Ｅカードを除く全ての火属性クリーチャーのカードを手に入れる。",
      "howto": "Ｅカードを除く全ての火属性クリーチャーのカードを手に入れる。"
    },
    {
      "id": 14,
      "imageId": 13,
      "cred": 20,
      "flags": 4,
      "label": "水を統べる者",
      "description": "Ｅカードを除く全ての水属性クリーチャーのカードを手に入れる。",
      "howto": "Ｅカードを除く全ての水属性クリーチャーのカードを手に入れる。"
    },
    {
      "id": 15,
      "imageId": 14,
      "cred": 20,
      "flags": 4,
      "label": "地を統べる者",
      "description": "Ｅカードを除く全ての地属性クリーチャーのカードを手に入れる。",
      "howto": "Ｅカードを除く全ての地属性クリーチャーのカードを手に入れる。"
    },
    {
      "id": 16,
      "imageId": 15,
      "cred": 20,
      "flags": 4,
      "label": "風を統べる者",
      "description": "Ｅカードを除く全ての風属性クリーチャーのカードを手に入れる。",
      "howto": "Ｅカードを除く全ての風属性クリーチャーのカードを手に入れる。"
    },
    {
      "id": 17,
      "imageId": 16,
      "cred": 20,
      "flags": 4,
      "label": "怪物学者",
      "description": "Ｅカードを除く全てのクリーチャーカードを手に入れる。",
      "howto": "Ｅカードを除く全てのクリーチャーカードを手に入れる。"
    },
    {
      "id": 18,
      "imageId": 17,
      "cred": 20,
      "flags": 4,
      "label": "呪術学者",
      "description": "Ｅカードを除く全てのスペルカードを手に入れる。",
      "howto": "Ｅカードを除く全てのスペルカードを手に入れる。"
    },
    {
      "id": 19,
      "imageId": 18,
      "cred": 20,
      "flags": 4,
      "label": "工芸品学者",
      "description": "Ｅカードを除く全てのアイテムカードを手に入れる。",
      "howto": "Ｅカードを除く全てのアイテムカードを手に入れる。"
    },
    {
      "id": 20,
      "imageId": 19,
      "cred": 20,
      "flags": 4,
      "label": "真理を掴みし者",
      "description": "Ｅカードを除く全てのカードを手に入れる。",
      "howto": "Ｅカードを除く全てのカードを手に入れる。"
    },
    {
      "id": 21,
      "imageId": 20,
      "cred": 80,
      "flags": 4,
      "label": "試練を乗り越えし者",
      "description": "全てのアバターパーツを手に入れる。",
      "howto": "全てのアバターパーツを手に入れる。"
    },
    {
      "id": 22,
      "imageId": 21,
      "cred": 30,
      "flags": 4,
      "label": "巡り合う者たち",
      "description": "全ての登場人物に出会う。",
      "howto": "全ての登場人物に出会う。"
    },
    {
      "id": 23,
      "imageId": 22,
      "cred": 20,
      "flags": 4,
      "label": "世界の探究者",
      "description": "５００枚以上のカードを手に入れる。",
      "howto": "５００枚以上のカードを手に入れる。"
    },
    {
      "id": 24,
      "imageId": 23,
      "cred": 30,
      "flags": 4,
      "label": "宇宙の探究者",
      "description": "１０００枚以上のカードを手に入れる。",
      "howto": "１０００枚以上のカードを手に入れる。"
    },
    {
      "id": 25,
      "imageId": 24,
      "cred": 30,
      "flags": 4,
      "label": "竜王",
      "description": "全てのドラゴンを同時に配置した状態で勝利する。",
      "howto": "全てのドラゴンを同時に配置した状態で勝利する。"
    },
    {
      "id": 26,
      "imageId": 25,
      "cred": 40,
      "flags": 4,
      "label": "機械王",
      "description": "ギアリオンを同時に３体配置した状態で勝利する。",
      "howto": "ギアリオンを同時に３体配置した状態で勝利する。"
    },
    {
      "id": 27,
      "imageId": 26,
      "cred": 40,
      "flags": 4,
      "label": "偶像王",
      "description": "全てのアイドルを同時に配置した状態にする。",
      "howto": "全てのアイドルを同時に配置した状態にする。"
    },
    {
      "id": 28,
      "imageId": 27,
      "cred": 20,
      "flags": 4,
      "label": "鬼人王",
      "description": "全てのオーガを同時に配置した状態で勝利する。",
      "howto": "全てのオーガを同時に配置した状態で勝利する。"
    },
    {
      "id": 29,
      "imageId": 28,
      "cred": 30,
      "flags": 4,
      "label": "盗賊王",
      "description": "バンディットの１回の攻撃によって３００Ｇ以上の魔力を奪って勝利する。",
      "howto": "バンディットの１回の攻撃によって３００Ｇ以上の魔力を奪って勝利する。"
    },
    {
      "id": 30,
      "imageId": 29,
      "cred": 30,
      "flags": 4,
      "label": "小鬼の長",
      "description": "戦闘中、レッドキャップのＳＴとＨＰを３００以上にして勝利する。",
      "howto": "戦闘中、レッドキャップのＳＴとＨＰを３００以上にして勝利する。"
    },
    {
      "id": 31,
      "imageId": 30,
      "cred": 20,
      "flags": 4,
      "label": "正義の使徒",
      "description": "グラスストライダーで３回領地を奪って勝利する。",
      "howto": "グラスストライダーで３回領地を奪って勝利する。"
    },
    {
      "id": 32,
      "imageId": 31,
      "cred": 20,
      "flags": 4,
      "label": "火の領主",
      "description": "全ての土地を火属性にして勝利する。",
      "howto": "全ての土地を火属性にして勝利する。"
    },
    {
      "id": 33,
      "imageId": 32,
      "cred": 20,
      "flags": 4,
      "label": "水の領主",
      "description": "全ての土地を水属性にして勝利する。",
      "howto": "全ての土地を水属性にして勝利する。"
    },
    {
      "id": 34,
      "imageId": 33,
      "cred": 20,
      "flags": 4,
      "label": "地の領主",
      "description": "全ての土地を地属性にして勝利する。",
      "howto": "全ての土地を地属性にして勝利する。"
    },
    {
      "id": 35,
      "imageId": 34,
      "cred": 20,
      "flags": 4,
      "label": "風の領主",
      "description": "全ての土地を風属性にして勝利する。",
      "howto": "全ての土地を風属性にして勝利する。"
    },
    {
      "id": 36,
      "imageId": 35,
      "cred": 15,
      "flags": 4,
      "label": "火の眷属",
      "description": "クリーチャーが火属性のみのブックで総魔力１００００Ｇ以上獲得して勝利する。",
      "howto": "クリーチャーが火属性のみのブックで総魔力１００００Ｇ以上獲得して勝利する。"
    },
    {
      "id": 37,
      "imageId": 36,
      "cred": 15,
      "flags": 4,
      "label": "水の眷属",
      "description": "クリーチャーが水属性のみのブックで総魔力１００００Ｇ以上獲得して勝利する。",
      "howto": "クリーチャーが水属性のみのブックで総魔力１００００Ｇ以上獲得して勝利する。"
    },
    {
      "id": 38,
      "imageId": 37,
      "cred": 15,
      "flags": 4,
      "label": "地の眷属",
      "description": "クリーチャーが地属性のみのブックで総魔力１００００Ｇ以上獲得して勝利する。",
      "howto": "クリーチャーが地属性のみのブックで総魔力１００００Ｇ以上獲得して勝利する。"
    },
    {
      "id": 39,
      "imageId": 38,
      "cred": 15,
      "flags": 4,
      "label": "風の眷属",
      "description": "クリーチャーが風属性のみのブックで総魔力１００００Ｇ以上獲得して勝利する。",
      "howto": "クリーチャーが風属性のみのブックで総魔力１００００Ｇ以上獲得して勝利する。"
    },
    {
      "id": 40,
      "imageId": 39,
      "cred": 5,
      "flags": 6,
      "label": "三つ巴",
      "description": "オンライン対戦で３人対戦を行う。",
      "howto": "オンライン対戦で３人対戦を行う。"
    },
    {
      "id": 41,
      "imageId": 40,
      "cred": 5,
      "flags": 6,
      "label": "万字巴",
      "description": "オンライン対戦で４人対戦を行う。",
      "howto": "オンライン対戦で４人対戦を行う。"
    },
    {
      "id": 42,
      "imageId": 41,
      "cred": 5,
      "flags": 6,
      "label": "同盟の絆",
      "description": "オンライン対戦で２対２の同盟戦を行う。",
      "howto": "オンライン対戦で２対２の同盟戦を行う。"
    },
    {
      "id": 43,
      "imageId": 42,
      "cred": 5,
      "flags": 4,
      "label": "勝利の証",
      "description": "オンライン対戦で１勝する。",
      "howto": "オンライン対戦で１勝する。"
    },
    {
      "id": 44,
      "imageId": 43,
      "cred": 10,
      "flags": 4,
      "label": "修練の証",
      "description": "オンライン対戦で１０勝する。",
      "howto": "オンライン対戦で１０勝する。"
    },
    {
      "id": 45,
      "imageId": 44,
      "cred": 15,
      "flags": 4,
      "label": "強者の証",
      "description": "オンライン対戦で３０勝する。",
      "howto": "オンライン対戦で３０勝する。"
    },
    {
      "id": 46,
      "imageId": 45,
      "cred": 20,
      "flags": 4,
      "label": "猛者の証",
      "description": "オンライン対戦で５０勝する。",
      "howto": "オンライン対戦で５０勝する。"
    },
    {
      "id": 47,
      "imageId": 46,
      "cred": 30,
      "flags": 4,
      "label": "王者の証",
      "description": "オンライン対戦で１００勝する。",
      "howto": "オンライン対戦で１００勝する。"
    },
    {
      "id": 48,
      "imageId": 47,
      "cred": 60,
      "flags": 4,
      "label": "覇者の証",
      "description": "オンライン対戦で２００勝する。",
      "howto": "オンライン対戦で２００勝する。"
    },
    {
      "id": 49,
      "imageId": 48,
      "cred": 10,
      "flags": 4,
      "label": "戦士の称号",
      "description": "オンライン対戦で３連勝する。",
      "howto": "オンライン対戦で３連勝する。"
    },
    {
      "id": 50,
      "imageId": 49,
      "cred": 20,
      "flags": 4,
      "label": "騎士の称号",
      "description": "オンライン対戦で５連勝する。",
      "howto": "オンライン対戦で５連勝する。"
    },
    {
      "id": 51,
      "imageId": 50,
      "cred": 30,
      "flags": 4,
      "label": "狂戦士の称号",
      "description": "オンライン対戦で１０連勝する。",
      "howto": "オンライン対戦で１０連勝する。"
    }
  ]
}