{
  "achievementsPossible": 28,
  "credPossible": 400,
  "achievements": [
    {
      "id": 1,
      "imageId": 3,
      "cred": 20,
      "flags": 1,
      "label": "Toured the Campus",
      "description": "Completed every level in the Peggle Institute",
      "howto": "Complete every level in the Peggle Institute"
    },
    {
      "id": 3,
      "imageId": 4,
      "cred": 10,
      "flags": 1,
      "label": "Institutionalized",
      "description": "Completed every trial in the Peggle Institute",
      "howto": "Complete every trial in the Peggle Institute"
    },
    {
      "id": 4,
      "imageId": 5,
      "cred": 20,
      "flags": 1,
      "label": "Trolled",
      "description": "Completed every level in Mountain Highs",
      "howto": "Complete every level in Mountain Highs"
    },
    {
      "id": 5,
      "imageId": 6,
      "cred": 10,
      "flags": 1,
      "label": "Higher Ground",
      "description": "Completed every trial in Mountain Highs",
      "howto": "Complete every trial in Mountain Highs"
    },
    {
      "id": 6,
      "imageId": 7,
      "cred": 20,
      "flags": 1,
      "label": "Found Frozen Friends",
      "description": "Completed every level in Winter Blunderland",
      "howto": "Complete every level in Winter Blunderland"
    },
    {
      "id": 7,
      "imageId": 8,
      "cred": 10,
      "flags": 1,
      "label": "SSSSlide",
      "description": "Completed every trial in Winter Blunderland",
      "howto": "Complete every trial in Winter Blunderland"
    },
    {
      "id": 8,
      "imageId": 9,
      "cred": 20,
      "flags": 1,
      "label": "Found So Many Contraptions",
      "description": "Completed every level in Gnorman's Gneighborhood",
      "howto": "Complete every level in Gnorman's Gneighborhood"
    },
    {
      "id": 9,
      "imageId": 10,
      "cred": 10,
      "flags": 1,
      "label": "Grounded",
      "description": "Completed every trial in Gnorman's Gneighborhood",
      "howto": "Complete every trial in Gnorman's Gneighborhood"
    },
    {
      "id": 10,
      "imageId": 11,
      "cred": 20,
      "flags": 1,
      "label": "Not Too Scary",
      "description": "Completed every level in Gravely Grove",
      "howto": "Complete every level in Gravely Grove"
    },
    {
      "id": 11,
      "imageId": 12,
      "cred": 10,
      "flags": 1,
      "label": "Trials and Some Tribulations",
      "description": "Completed every trial in Gravely Grove",
      "howto": "Complete every trial in Gravely Grove"
    },
    {
      "id": 12,
      "imageId": 13,
      "cred": 20,
      "flags": 1,
      "label": "Peggle Master",
      "description": "Completed every Celestial Realm level",
      "howto": "Complete every Celestial Realm level"
    },
    {
      "id": 13,
      "imageId": 14,
      "cred": 10,
      "flags": 1,
      "label": "Cryptic Cryptid",
      "description": "Completed every Celestial Realm trial",
      "howto": "Complete every Celestial Realm trial"
    },
    {
      "id": 14,
      "imageId": 15,
      "cred": 10,
      "flags": 1,
      "label": "Opt-in",
      "description": "Completed 30 Optional Objectives",
      "howto": "Complete 30 Optional Objectives"
    },
    {
      "id": 15,
      "imageId": 16,
      "cred": 10,
      "flags": 1,
      "label": "Objection!",
      "description": "Completed 60 Optional Objectives",
      "howto": "Complete 60 Optional Objectives"
    },
    {
      "id": 16,
      "imageId": 17,
      "cred": 10,
      "flags": 1,
      "label": "Half-way Yay!",
      "description": "Completed 90 Optional Objectives",
      "howto": "Complete 90 Optional Objectives"
    },
    {
      "id": 17,
      "imageId": 18,
      "cred": 10,
      "flags": 1,
      "label": "Extreme Objectification",
      "description": "Completed 120 Optional Objectives",
      "howto": "Complete 120 Optional Objectives"
    },
    {
      "id": 18,
      "imageId": 19,
      "cred": 20,
      "flags": 1,
      "label": "Ultra Extreme Objectification",
      "description": "Completed 150 Optional Objectives",
      "howto": "Complete 150 Optional Objectives"
    },
    {
      "id": 19,
      "imageId": 20,
      "cred": 25,
      "flags": 1,
      "label": "All the Cheevos!",
      "description": "Completed 180 Optional Objectives",
      "howto": "Complete 180 Optional Objectives"
    },
    {
      "id": 20,
      "imageId": 21,
      "cred": 25,
      "flags": 1,
      "label": "Baller",
      "description": "Won a level with at least 12 balls left",
      "howto": "Win a level with at least 12 balls left (Except Trials)"
    },
    {
      "id": 21,
      "imageId": 22,
      "cred": 5,
      "flags": 1,
      "label": "Superior Shot",
      "description": "Earned 3 free balls on one shot",
      "howto": "Earn 3 free balls on one shot (Except Trials)"
    },
    {
      "id": 22,
      "imageId": 23,
      "cred": 10,
      "flags": 1,
      "label": "Stylin'",
      "description": "Got 75,000 styleshot points in a shot",
      "howto": "Get 75,000 styleshot points in a shot (Except Trials)"
    },
    {
      "id": 23,
      "imageId": 24,
      "cred": 25,
      "flags": 1,
      "label": "Coolest Clear",
      "description": "Won a level with the cool clear style shot",
      "howto": "Win a level with the cool clear style shot (Except Trials)"
    },
    {
      "id": 24,
      "imageId": 25,
      "cred": 10,
      "flags": 1,
      "label": "Every day I'm Pegglin'",
      "description": "Hit 10,000 blue pegs",
      "howto": "Hit 10,000 blue pegs"
    },
    {
      "id": 25,
      "imageId": 26,
      "cred": 10,
      "flags": 1,
      "label": "Orange Crusher",
      "description": "Hit 5000 orange pegs",
      "howto": "Hit 5000 orange pegs"
    },
    {
      "id": 26,
      "imageId": 27,
      "cred": 10,
      "flags": 1,
      "label": "I'd Hit That",
      "description": "Hit 300 green pegs",
      "howto": "Hit 300 green pegs"
    },
    {
      "id": 27,
      "imageId": 28,
      "cred": 5,
      "flags": 1,
      "label": "I Got A Fever",
      "description": "Cleared all orange pegs in a level",
      "howto": "Clear all orange pegs in a level"
    },
    {
      "id": 28,
      "imageId": 29,
      "cred": 10,
      "flags": 1,
      "label": "Aced!",
      "description": "Beat your first ace score",
      "howto": "Beat your first ace score"
    },
    {
      "id": 29,
      "imageId": 30,
      "cred": 25,
      "flags": 1,
      "label": "Ultra Extreme Fever",
      "description": "Cleared all pegs in a level",
      "howto": "Clear all pegs in a level"
    }
  ]
}