{
  "achievementsPossible": 12,
  "credPossible": 200,
  "achievements": [
    {
      "id": 1,
      "imageId": 1,
      "cred": 10,
      "flags": 2,
      "label": "Saloon Server",
      "description": "Successfully complete the Saloon levels.",
      "howto": "Successfully complete the Saloon levels."
    },
    {
      "id": 2,
      "imageId": 2,
      "cred": 10,
      "flags": 4,
      "label": "Good Guesser",
      "description": "Guess the correct can of root beer on a bonus level.",
      "howto": "Guess the correct can of root beer on a bonus level."
    },
    {
      "id": 3,
      "imageId": 3,
      "cred": 10,
      "flags": 2,
      "label": "Careful",
      "description": "Make your way to the Sports Bar without losing a life.",
      "howto": "Make your way to the Sports Bar without losing a life."
    },
    {
      "id": 4,
      "imageId": 4,
      "cred": 10,
      "flags": 5,
      "label": "Tip of the Day",
      "description": "Collect 3 tips during an Xbox Live Co-op game.",
      "howto": "Collect 3 tips during an Xbox Live Co-op game."
    },
    {
      "id": 5,
      "imageId": 5,
      "cred": 10,
      "flags": 5,
      "label": "Competitive",
      "description": "Win 10 Xbox Live Ranked Matches or 10 Xbox Live Player Matches.",
      "howto": "Win 10 Xbox Live Ranked Matches or 10 Xbox Live Player Matches."
    },
    {
      "id": 6,
      "imageId": 6,
      "cred": 15,
      "flags": 2,
      "label": "Sports Bar Server",
      "description": "Successfully complete the Sports Bar levels.",
      "howto": "Successfully complete the Sports Bar levels."
    },
    {
      "id": 7,
      "imageId": 7,
      "cred": 20,
      "flags": 2,
      "label": "Punk Bar Server",
      "description": "Successfully complete the Punk Bar levels.",
      "howto": "Successfully complete the Punk Bar levels."
    },
    {
      "id": 8,
      "imageId": 8,
      "cred": 20,
      "flags": 5,
      "label": "Team Score",
      "description": "On Xbox Live, obtain a Co-op score of 80,000 or more.",
      "howto": "On Xbox Live, obtain a Co-op score of 80,000 or more."
    },
    {
      "id": 9,
      "imageId": 9,
      "cred": 15,
      "flags": 6,
      "label": "Saloon Master",
      "description": "Obtain a score of 7,000 in level 1 without losing a life.",
      "howto": "Obtain a score of 7,000 in level 1 without losing a life."
    },
    {
      "id": 10,
      "imageId": 10,
      "cred": 20,
      "flags": 5,
      "label": "Champion",
      "description": "Win 50 Xbox Live versus games.",
      "howto": "Win 50 Xbox Live versus games."
    },
    {
      "id": 11,
      "imageId": 11,
      "cred": 30,
      "flags": 2,
      "label": "Alien Bar Server",
      "description": "Successfully complete the Alien Bar levels.",
      "howto": "Successfully complete the Alien Bar levels."
    },
    {
      "id": 12,
      "imageId": 12,
      "cred": 30,
      "flags": 4,
      "label": "Guessing Master",
      "description": "Guess the correct can of root beer on 4 consecutive bonus levels.",
      "howto": "Guess the correct can of root beer on 4 consecutive bonus levels."
    }
  ]
}