{
  "achievementsPossible": 36,
  "credPossible": 1000,
  "achievements": [
    {
      "id": 115,
      "imageId": 5,
      "cred": 20,
      "flags": 4,
      "label": "Go for Broke",
      "description": "Complete a pass for 50 or more yards (excludes Co-Op).",
      "howto": "Complete a pass for 50 or more yards (excludes Co-Op)."
    },
    {
      "id": 123,
      "imageId": 6,
      "cred": 10,
      "flags": 4,
      "label": "Up the Gut for the Score",
      "description": "Score a touchdown handing off to the fullback on a triple option play (excludes Co-Op).",
      "howto": "Score a touchdown handing off to the fullback on a triple option play (excludes Co-Op)."
    },
    {
      "id": 136,
      "imageId": 2,
      "cred": 15,
      "flags": 4,
      "label": "Keep 'em Honest",
      "description": "Gain 200 rushing yards and 200 passing yards in the same game (excludes Co-Op and Road to Glory).",
      "howto": "Gain 200 rushing yards and 200 passing yards in the same game (excludes Co-Op and Road to Glory)."
    },
    {
      "id": 142,
      "imageId": 2,
      "cred": 15,
      "flags": 4,
      "label": "Unstoppable",
      "description": "Win a game by 35+ points on Heisman difficulty (excludes Co-Op).",
      "howto": "Win a game by 35+ points on Heisman difficulty (excludes Co-Op)."
    },
    {
      "id": 143,
      "imageId": 2,
      "cred": 15,
      "flags": 4,
      "label": "Best Class Ever",
      "description": "Have the #1 ranked recruiting class in a season in single team Dynasty Mode.",
      "howto": "Have the #1 ranked recruiting class in a season in single team Dynasty Mode."
    },
    {
      "id": 161,
      "imageId": 5,
      "cred": 15,
      "flags": 4,
      "label": "High School Champ",
      "description": "Play and win the High School Championship Game in any state.",
      "howto": "Play and win the High School Championship Game in any state."
    },
    {
      "id": 162,
      "imageId": 8,
      "cred": 15,
      "flags": 4,
      "label": "Future Star",
      "description": "Become a 5-star prospect in Road to Glory Mode.",
      "howto": "Become a 5-star prospect in Road to Glory Mode."
    },
    {
      "id": 163,
      "imageId": 8,
      "cred": 15,
      "flags": 4,
      "label": "Put Your Helmet On",
      "description": "Become a starter in Road to Glory Mode.",
      "howto": "Become a starter in Road to Glory Mode."
    },
    {
      "id": 164,
      "imageId": 1,
      "cred": 15,
      "flags": 4,
      "label": "And the Winner Is…",
      "description": "Win the Heisman Memorial Trophy® in single team Dynasty, Road to Glory, or Heisman Challenge Mode.",
      "howto": "Win the Heisman Memorial Trophy® in single team Dynasty, Road to Glory, or Heisman Challenge Mode."
    },
    {
      "id": 170,
      "imageId": 8,
      "cred": 20,
      "flags": 1,
      "label": "Take What's Mine",
      "description": "Win a position battle in Road To Glory Mode.",
      "howto": "Win a position battle in Road To Glory Mode."
    },
    {
      "id": 171,
      "imageId": 8,
      "cred": 25,
      "flags": 1,
      "label": "Earn My Trust",
      "description": "Reach the max coach trust in Road to Glory Mode.",
      "howto": "Reach the max coach trust in Road to Glory Mode."
    },
    {
      "id": 178,
      "imageId": 2,
      "cred": 50,
      "flags": 1,
      "label": "Hometown Hero",
      "description": "Lead your alma mater to a National Championship as a head coach in Dynasty (Coach Contracts on).",
      "howto": "Lead your alma mater to a National Championship as a head coach in Dynasty (Coach Contracts on)."
    },
    {
      "id": 180,
      "imageId": 2,
      "cred": 20,
      "flags": 1,
      "label": "Let's Do It Again",
      "description": "As a head coach in Dynasty, sign an extension to stay at the same school (Coach Contracts on).",
      "howto": "As a head coach in Dynasty, sign an extension to stay at the same school (Coach Contracts on)."
    },
    {
      "id": 181,
      "imageId": 2,
      "cred": 35,
      "flags": 1,
      "label": "Dream Job",
      "description": "Become the head coach of your alma mater in Dynasty (Coach Contracts on).",
      "howto": "Become the head coach of your alma mater in Dynasty (Coach Contracts on)."
    },
    {
      "id": 183,
      "imageId": 2,
      "cred": 160,
      "flags": 1,
      "label": "Dual Threat Coach",
      "description": "Win the BCS Championship & have the #1 recruiting class in a single season as head coach in Dynasty.",
      "howto": "Win the BCS Championship & have the #1 recruiting class in a single season as head coach in Dynasty."
    },
    {
      "id": 185,
      "imageId": 2,
      "cred": 50,
      "flags": 1,
      "label": "Living Legend",
      "description": "Reach a coach prestige of A+ with a created coach in Dynasty (Coach Contracts on).",
      "howto": "Reach a coach prestige of A+ with a created coach in Dynasty (Coach Contracts on)."
    },
    {
      "id": 186,
      "imageId": 12,
      "cred": 10,
      "flags": 1,
      "label": "My Two Cents",
      "description": "In Online Dynasty, write a comment on a Dynasty Wire story.",
      "howto": "In Online Dynasty, write a comment on a Dynasty Wire story."
    },
    {
      "id": 188,
      "imageId": 5,
      "cred": 30,
      "flags": 1,
      "label": "Tire Fire Offense",
      "description": "Win a game without scoring an offensive touchdown and gaining less than 200 yards (excludes Co-Op).",
      "howto": "Win a game without scoring an offensive touchdown and gaining less than 200 yards (excludes Co-Op)."
    },
    {
      "id": 190,
      "imageId": 12,
      "cred": 10,
      "flags": 1,
      "label": "Highlight of the Year",
      "description": "Upload a photo or video to EASports.com.",
      "howto": "Upload a photo or video to EASports.com."
    },
    {
      "id": 191,
      "imageId": 6,
      "cred": 20,
      "flags": 1,
      "label": "Pick Up 20",
      "description": "Break off a 20 yard run (excludes Co-Op).",
      "howto": "Break off a 20 yard run (excludes Co-Op)."
    },
    {
      "id": 192,
      "imageId": 2,
      "cred": 20,
      "flags": 4,
      "label": "Look at the Game Tape!",
      "description": "Unlock 5 attributes on a single scouting session.",
      "howto": "Unlock 5 attributes on a single scouting session."
    },
    {
      "id": 193,
      "imageId": 13,
      "cred": 30,
      "flags": 1,
      "label": "I am Barry Sanders",
      "description": "Win the Heisman with Barry Sanders.",
      "howto": "Win the Heisman with Barry Sanders."
    },
    {
      "id": 194,
      "imageId": 13,
      "cred": 30,
      "flags": 1,
      "label": "I am Eddie George",
      "description": "Win the Heisman with Eddie George.",
      "howto": "Win the Heisman with Eddie George."
    },
    {
      "id": 195,
      "imageId": 13,
      "cred": 30,
      "flags": 1,
      "label": "I am Marcus Allen",
      "description": "Win the Heisman with Marcus Allen.",
      "howto": "Win the Heisman with Marcus Allen."
    },
    {
      "id": 196,
      "imageId": 13,
      "cred": 30,
      "flags": 1,
      "label": "I am Desmond Howard",
      "description": "Win the Heisman with Desmond Howard.",
      "howto": "Win the Heisman with Desmond Howard."
    },
    {
      "id": 197,
      "imageId": 13,
      "cred": 30,
      "flags": 1,
      "label": "I am RG III",
      "description": "Win the Heisman with Robert Griffin III.",
      "howto": "Win the Heisman with Robert Griffin III."
    },
    {
      "id": 198,
      "imageId": 13,
      "cred": 30,
      "flags": 1,
      "label": "I am Andre Ware",
      "description": "Win the Heisman with Andre Ware.",
      "howto": "Win the Heisman with Andre Ware."
    },
    {
      "id": 199,
      "imageId": 13,
      "cred": 30,
      "flags": 1,
      "label": "I am Doug Flutie",
      "description": "Win the Heisman with Doug Flutie.",
      "howto": "Win the Heisman with Doug Flutie."
    },
    {
      "id": 200,
      "imageId": 13,
      "cred": 30,
      "flags": 1,
      "label": "I am Herschel Walker",
      "description": "Win the Heisman with Herschel Walker.",
      "howto": "Win the Heisman with Herschel Walker."
    },
    {
      "id": 201,
      "imageId": 13,
      "cred": 30,
      "flags": 1,
      "label": "I am Charlie Ward",
      "description": "Win the Heisman with Charlie Ward.",
      "howto": "Win the Heisman with Charlie Ward."
    },
    {
      "id": 202,
      "imageId": 13,
      "cred": 30,
      "flags": 1,
      "label": "I am Carson Palmer",
      "description": "Win the Heisman with Carson Palmer.",
      "howto": "Win the Heisman with Carson Palmer."
    },
    {
      "id": 203,
      "imageId": 3,
      "cred": 20,
      "flags": 4,
      "label": "Read and React",
      "description": "Intercept a pass while using Reaction Time.",
      "howto": "Intercept a pass while using Reaction Time."
    },
    {
      "id": 205,
      "imageId": 2,
      "cred": 40,
      "flags": 1,
      "label": "Welcome to the Club",
      "description": "Win the National Championship in year 1 of Dynasty with either UMASS, UTSA, or Texas State.",
      "howto": "Win the National Championship in year 1 of Dynasty with either UMASS, UTSA, or Texas State."
    },
    {
      "id": 206,
      "imageId": 2,
      "cred": 20,
      "flags": 4,
      "label": "Don't Run Home to Mamma",
      "description": "In Dynasty, convince a homesick player to stay at your school instead of transferring.",
      "howto": "In Dynasty, convince a homesick player to stay at your school instead of transferring."
    },
    {
      "id": 207,
      "imageId": 2,
      "cred": 20,
      "flags": 4,
      "label": "No Regrets",
      "description": "Convince a player to stay for their senior year using only one promise to get their degree.",
      "howto": "Convince a player to stay for their senior year using only one promise to get their degree."
    },
    {
      "id": 209,
      "imageId": 2,
      "cred": 15,
      "flags": 4,
      "label": "Go Ahead, Ask me Anything",
      "description": "Earn a minimum of 75 recruiting points on a Prospect Choice topic.",
      "howto": "Earn a minimum of 75 recruiting points on a Prospect Choice topic."
    }
  ]
}