{
  "achievementsPossible": 45,
  "credPossible": 1000,
  "achievements": [
    {
      "id": 55,
      "imageId": 49,
      "cred": 10,
      "flags": 1,
      "label": "The New Generation",
      "description": "Defeated a Legend with a Superstar.",
      "howto": "Defeat a Legend with a Superstar."
    },
    {
      "id": 106,
      "imageId": 50,
      "cred": 10,
      "flags": 1,
      "label": "Showing Them How It's Done",
      "description": "Defeated a Superstar with a Legend.",
      "howto": "Defeat a Superstar with a Legend."
    },
    {
      "id": 107,
      "imageId": 51,
      "cred": 20,
      "flags": 1,
      "label": "Facing the Deadman",
      "description": "Completed the Legends Path of Champions.",
      "howto": "Complete the Legends Path of Champions with any Superstar."
    },
    {
      "id": 108,
      "imageId": 52,
      "cred": 20,
      "flags": 1,
      "label": "The Apex Predator",
      "description": "Completed the Superstars Path of Champions.",
      "howto": "Complete the Superstars Path of Champions with any Superstar."
    },
    {
      "id": 109,
      "imageId": 53,
      "cred": 20,
      "flags": 1,
      "label": "Breaking the Rules",
      "description": "Completed the Tag Team Path of Champions.",
      "howto": "Complete the Tag Team Path of Champions with any Superstars."
    },
    {
      "id": 110,
      "imageId": 54,
      "cred": 20,
      "flags": 1,
      "label": "Rising Star",
      "description": "Completed Path of Champions with a created Superstar.",
      "howto": "Complete any Path of Champions with a created Superstar."
    },
    {
      "id": 113,
      "imageId": 57,
      "cred": 15,
      "flags": 1,
      "label": "Old School",
      "description": "Completed all Fantasy Warfare matches as a WWE Legend.",
      "howto": "Complete all Fantasy Warfare matches as a WWE Legend."
    },
    {
      "id": 114,
      "imageId": 58,
      "cred": 15,
      "flags": 1,
      "label": "Legend Killer",
      "description": "Completed all Fantasy Warfare matches as a WWE Superstar.",
      "howto": "Complete all Fantasy Warfare matches as a WWE Superstar."
    },
    {
      "id": 115,
      "imageId": 59,
      "cred": 10,
      "flags": 1,
      "label": "The Next WWE Superstar",
      "description": "Made a created Superstar.",
      "howto": "Make a created Superstar."
    },
    {
      "id": 120,
      "imageId": 64,
      "cred": 15,
      "flags": 1,
      "label": "Reversal of Fortune",
      "description": "Performed at least 5 grapple reversals during a match.",
      "howto": "Perform at least 5 grapple reversals during a match."
    },
    {
      "id": 121,
      "imageId": 65,
      "cred": 15,
      "flags": 1,
      "label": "Chain Gang",
      "description": "Performed a combo at least 5 moves in length.",
      "howto": "Perform a combo at least 5 moves in length."
    },
    {
      "id": 122,
      "imageId": 66,
      "cred": 20,
      "flags": 1,
      "label": "Dominating",
      "description": "Won a match against the CPU without losing any health.",
      "howto": "Win a match against the CPU without losing any health."
    },
    {
      "id": 123,
      "imageId": 67,
      "cred": 20,
      "flags": 1,
      "label": "Layeth the Smacketh Down!",
      "description": "Won a match in under 2 minutes.",
      "howto": "Win a match in under 2 minutes."
    },
    {
      "id": 124,
      "imageId": 68,
      "cred": 20,
      "flags": 1,
      "label": "Five Moves of Doom",
      "description": "Executed five signature moves in a single match.",
      "howto": "Execute five signature moves in a single match."
    },
    {
      "id": 125,
      "imageId": 69,
      "cred": 20,
      "flags": 1,
      "label": "Running Wild",
      "description": "Performed 50 successful finishers in any mode over the course of the game.",
      "howto": "Perform 50 successful finishers in any mode over the course of the game."
    },
    {
      "id": 126,
      "imageId": 70,
      "cred": 20,
      "flags": 1,
      "label": "Born to Fly",
      "description": "Performed 10 successful regular aerial moves in a single match.",
      "howto": "Perform 10 successful regular aerial moves in a single match."
    },
    {
      "id": 127,
      "imageId": 71,
      "cred": 20,
      "flags": 1,
      "label": "Punch Drunk",
      "description": "Landed at least 100 strikes in a single match in any mode.",
      "howto": "Land at least 100 strikes in a single match in any mode."
    },
    {
      "id": 128,
      "imageId": 72,
      "cred": 20,
      "flags": 1,
      "label": "Five Star Rating",
      "description": "Achieved a five star rating while facing the CPU.",
      "howto": "Achieve a five star rating in any category while facing the CPU."
    },
    {
      "id": 129,
      "imageId": 73,
      "cred": 20,
      "flags": 1,
      "label": "Mark of Excellence",
      "description": "Earned a gold medal while facing the CPU.",
      "howto": "Earn a gold medal in any match type while facing the CPU."
    },
    {
      "id": 130,
      "imageId": 74,
      "cred": 25,
      "flags": 1,
      "label": "Make Them Humble",
      "description": "Won 25 matches by knockout.",
      "howto": "Win 25 matches by knockout."
    },
    {
      "id": 131,
      "imageId": 75,
      "cred": 25,
      "flags": 1,
      "label": "Man of 1000 Holds",
      "description": "Won a match without using any strikes.",
      "howto": "Win a match without using any strikes."
    },
    {
      "id": 132,
      "imageId": 76,
      "cred": 25,
      "flags": 1,
      "label": "Slobberknocker",
      "description": "Won a match without using any grapples.",
      "howto": "Win a match without using any grapples."
    },
    {
      "id": 133,
      "imageId": 77,
      "cred": 15,
      "flags": 1,
      "label": "Over the Top",
      "description": "Won a Steel Cage match.",
      "howto": "Win a Steel Cage match."
    },
    {
      "id": 134,
      "imageId": 78,
      "cred": 15,
      "flags": 1,
      "label": "In the Spotlight",
      "description": "Won an Xbox LIVE match.",
      "howto": "Win an Xbox LIVE match."
    },
    {
      "id": 135,
      "imageId": 79,
      "cred": 15,
      "flags": 1,
      "label": "Last Man Standing",
      "description": "Won a Fatal 4 Way Elimination match.",
      "howto": "Win a Fatal 4 Way Elimination match."
    },
    {
      "id": 136,
      "imageId": 80,
      "cred": 20,
      "flags": 1,
      "label": "He's Got a Chair!",
      "description": "Landed at least 10 successful strikes with an object in a single match.",
      "howto": "Land at least 10 successful strikes with an object in a single match."
    },
    {
      "id": 137,
      "imageId": 81,
      "cred": 15,
      "flags": 1,
      "label": "Beating the Odds",
      "description": "Won a Handicap match.",
      "howto": "Win a Handicap match."
    },
    {
      "id": 138,
      "imageId": 82,
      "cred": 15,
      "flags": 1,
      "label": "Totally Extreme!",
      "description": "Won an Extreme Rules match.",
      "howto": "Win an Extreme Rules match."
    },
    {
      "id": 139,
      "imageId": 83,
      "cred": 50,
      "flags": 1,
      "label": "The Champ is Here!",
      "description": "Completed all three Path of Champions as John Cena.",
      "howto": "Complete all three Path of Champions as John Cena."
    },
    {
      "id": 140,
      "imageId": 84,
      "cred": 50,
      "flags": 1,
      "label": "The King of Kings",
      "description": "Defeated the entire WWE All Stars roster as Triple H.",
      "howto": "Defeat the entire WWE All Stars roster as Triple H."
    },
    {
      "id": 141,
      "imageId": 85,
      "cred": 75,
      "flags": 1,
      "label": "The Ultimate Achievement",
      "description": "Defeated the entire Roster and all three Path of Champions as The Ultimate Warrior.",
      "howto": "Defeat the entire Roster and all three Path of Champions as The Ultimate Warrior."
    },
    {
      "id": 142,
      "imageId": 86,
      "cred": 50,
      "flags": 1,
      "label": "The Bottom Line",
      "description": "Defeated the entire WWE All Stars roster with a single created Superstar.",
      "howto": "Defeat the entire WWE All Stars roster with a single created Superstar."
    },
    {
      "id": 143,
      "imageId": 87,
      "cred": 20,
      "flags": 1,
      "label": "Enhancement Talent",
      "description": "Won 10 Xbox LIVE matches.",
      "howto": "Win 10 Xbox LIVE matches."
    },
    {
      "id": 144,
      "imageId": 88,
      "cred": 25,
      "flags": 1,
      "label": "Mid Carder",
      "description": "Won 25 Xbox LIVE matches.",
      "howto": "Win 25 Xbox LIVE matches."
    },
    {
      "id": 145,
      "imageId": 89,
      "cred": 50,
      "flags": 1,
      "label": "Main Eventer",
      "description": "Won 50 Xbox LIVE matches.",
      "howto": "Win 50 Xbox LIVE matches."
    },
    {
      "id": 146,
      "imageId": 90,
      "cred": 50,
      "flags": 1,
      "label": "You Can't See Me!",
      "description": "Won 10 consecutive Xbox LIVE matches.",
      "howto": "Win 10 consecutive Xbox LIVE matches."
    },
    {
      "id": 147,
      "imageId": 91,
      "cred": 20,
      "flags": 1,
      "label": "The New Face of Cyberspace",
      "description": "Defeated a created Superstar in a Xbox LIVE match with your own created Superstar.",
      "howto": "Defeat a created Superstar in a Xbox LIVE match with your own created Superstar."
    },
    {
      "id": 148,
      "imageId": 92,
      "cred": 20,
      "flags": 1,
      "label": "Suck It",
      "description": "Won a Tornado Tag Team match as Triple H and Shawn Michaels.",
      "howto": "Win a Tornado Tag Team match as Triple H and Shawn Michaels."
    },
    {
      "id": 149,
      "imageId": 93,
      "cred": 20,
      "flags": 1,
      "label": "Mega Powers",
      "description": "Won a Tornado Tag Team match as Hulk Hogan and Randy Savage.",
      "howto": "Win a Tornado Tag Team match as Hulk Hogan and Randy Savage."
    },
    {
      "id": 150,
      "imageId": 94,
      "cred": 20,
      "flags": 1,
      "label": "Comeback of the Year",
      "description": "Won a match when your Superstar is at zero health.",
      "howto": "Win a match when your Superstar is at zero health."
    },
    {
      "id": 151,
      "imageId": 95,
      "cred": 10,
      "flags": 1,
      "label": "I'm Your Papi!",
      "description": "Defeated Rey Mysterio in a Steel Cage match as Eddie Guerrero.",
      "howto": "Defeat Rey Mysterio in a Steel Cage match as Eddie Guerrero."
    },
    {
      "id": 152,
      "imageId": 96,
      "cred": 10,
      "flags": 1,
      "label": "The Pride of Scotland",
      "description": "Won a Tornado Tag Team match as Roddy Piper and Drew McIntyre.",
      "howto": "Win a Tornado Tag Team match as Roddy Piper and Drew McIntyre."
    },
    {
      "id": 153,
      "imageId": 97,
      "cred": 10,
      "flags": 1,
      "label": "Booyaka Booyaka",
      "description": "Defeated Andre the Giant and Big Show in a Handicap Match as Rey Mysterio.",
      "howto": "Defeat Andre the Giant and Big Show in a Handicap Match as Rey Mysterio."
    },
    {
      "id": 154,
      "imageId": 98,
      "cred": 10,
      "flags": 1,
      "label": "Winner by Default",
      "description": "Won a Xbox LIVE match due to opponent's disqualification.",
      "howto": "Win a Xbox LIVE match due to opponent's disqualification."
    },
    {
      "id": 155,
      "imageId": 99,
      "cred": 10,
      "flags": 1,
      "label": "Attitude Problem",
      "description": "Got disqualified in three consecutive matches.",
      "howto": "Get disqualified in three consecutive matches in any mode."
    }
  ]
}