{
  "avatarAssetsPossible": 3,
  "maleAvatarAssetsPossible": 1,
  "femaleAvatarAssetsPossible": 1,
  "avatarAssets": [
    {
      "id": "00000ffc-0008-71f1-c7e2-fa0058410931",
      "imageId": 15,
      "subcategory": 0,
      "unknown": 0,
      "isMale": true,
      "isFemale": false,
      "isUnisex": false,
      "label": "Kenny's Hoodie",
      "description": "Kenny's Hoodie",
      "howto": "Finish the campaign to unlock Kenny's Hoodie for your avatar."
    },
    {
      "id": "00000ffc-0008-d172-cebb-75ff58410931",
      "imageId": 16,
      "subcategory": 0,
      "unknown": 2015221016,
      "isMale": false,
      "isFemale": true,
      "isUnisex": false,
      "label": "Kenny's Hoodie",
      "description": "Kenny's Hoodie",
      "howto": "Finish the campaign to unlock Kenny's Hoodie for your avatar."
    },
    {
      "id": "00000040-0009-b133-c815-c4d958410931",
      "imageId": 2,
      "subcategory": 0,
      "unknown": 2015221016,
      "isMale": false,
      "isFemale": false,
      "isUnisex": true,
      "label": "Cartman's Hat",
      "description": "Cartman's Hat",
      "howto": "Finish a level in the Full Version to unlock Cartman's hat for your avatar."
    }
  ]
}