{
  "achievementsPossible": 12,
  "credPossible": 200,
  "achievements": [
    {
      "id": 13,
      "imageId": 13,
      "cred": 15,
      "flags": 1,
      "label": "Blaster",
      "description": "Kill four enemies with a single explosive",
      "howto": "Kill four enemies with a single explosive"
    },
    {
      "id": 14,
      "imageId": 14,
      "cred": 5,
      "flags": 1,
      "label": "Moving on up!",
      "description": "Reach Operator Rank 2",
      "howto": "Reach Operator Rank 2"
    },
    {
      "id": 15,
      "imageId": 15,
      "cred": 20,
      "flags": 1,
      "label": "Climber",
      "description": "Reach Operator Rank 20",
      "howto": "Reach Operator Rank 20"
    },
    {
      "id": 16,
      "imageId": 16,
      "cred": 30,
      "flags": 1,
      "label": "Highest Rank",
      "description": "Reach Operator Rank 40",
      "howto": "Reach operator Rank 40"
    },
    {
      "id": 17,
      "imageId": 17,
      "cred": 20,
      "flags": 1,
      "label": "Minefield",
      "description": "Kill an enemy with his own mine",
      "howto": "Kill an enemy with his own mine"
    },
    {
      "id": 18,
      "imageId": 18,
      "cred": 5,
      "flags": 1,
      "label": "A Player's Mission",
      "description": "Complete one Player Mission",
      "howto": "Complete one Player Mission"
    },
    {
      "id": 19,
      "imageId": 19,
      "cred": 30,
      "flags": 1,
      "label": "All Missions Check",
      "description": "Complete all Player Missions",
      "howto": "Complete all Player Missions"
    },
    {
      "id": 20,
      "imageId": 20,
      "cred": 20,
      "flags": 1,
      "label": "Winner",
      "description": "Win a match in all Game Types",
      "howto": "Win a match in all Game Types"
    },
    {
      "id": 21,
      "imageId": 21,
      "cred": 10,
      "flags": 1,
      "label": "Headcount",
      "description": "Kill 20 enemies in a match",
      "howto": "Kill 20 enemies in a match"
    },
    {
      "id": 22,
      "imageId": 22,
      "cred": 5,
      "flags": 1,
      "label": "Team Player",
      "description": "Achieve a teamplay multiplier of 4x or better",
      "howto": "Achieve a teamplay multiplier of 4x or better"
    },
    {
      "id": 23,
      "imageId": 23,
      "cred": 10,
      "flags": 1,
      "label": "Get up close",
      "description": "Execute 25 enemies",
      "howto": "Execute 25 enemies"
    },
    {
      "id": 24,
      "imageId": 24,
      "cred": 30,
      "flags": 1,
      "label": "K9 Operator",
      "description": "Kill 25 enemies with an attack dog",
      "howto": "Kill 25 enemies with an attack dog"
    }
  ]
}