{
  "achievementsPossible": 25,
  "credPossible": 1000,
  "achievements": [
    {
      "id": 1,
      "imageId": 2,
      "cred": 10,
      "flags": 1,
      "label": "Vocal Pro",
      "description": "Complete all the lessons in Sing It Pro.",
      "howto": "Complete all the lessons in Sing It Pro."
    },
    {
      "id": 2,
      "imageId": 3,
      "cred": 30,
      "flags": 1,
      "label": "Breakin' Free",
      "description": "Complete all High School Musical songs.",
      "howto": "Complete all High School Musical songs."
    },
    {
      "id": 3,
      "imageId": 4,
      "cred": 30,
      "flags": 1,
      "label": "You've Got The Music In You!",
      "description": "Complete all High School Musical 2 songs.",
      "howto": "Complete all High School Musical 2 songs."
    },
    {
      "id": 4,
      "imageId": 5,
      "cred": 30,
      "flags": 1,
      "label": "Graduated!",
      "description": "Complete all High School Musical 3 songs.",
      "howto": "Complete all High School Musical 3 songs."
    },
    {
      "id": 5,
      "imageId": 6,
      "cred": 50,
      "flags": 1,
      "label": "Sing It Fanatic",
      "description": "Complete 50 songs.",
      "howto": "Complete 50 songs."
    },
    {
      "id": 6,
      "imageId": 7,
      "cred": 100,
      "flags": 1,
      "label": "Sing It uber-fan",
      "description": "Complete 100 songs.",
      "howto": "Complete 100 songs."
    },
    {
      "id": 7,
      "imageId": 8,
      "cred": 50,
      "flags": 1,
      "label": "Sing It Superstar",
      "description": "Complete every song in the tracklist in Solo mode.",
      "howto": "Complete every song in the tracklist in Solo mode."
    },
    {
      "id": 8,
      "imageId": 9,
      "cred": 50,
      "flags": 1,
      "label": "Dynamic Duet",
      "description": "Complete every song in the tracklist in Duet mode",
      "howto": "Complete every song in the tracklist in Duet mode"
    },
    {
      "id": 9,
      "imageId": 10,
      "cred": 50,
      "flags": 4,
      "label": "Bop To The Top",
      "description": "Get the top score on any song.",
      "howto": "Get the top score on any song."
    },
    {
      "id": 10,
      "imageId": 11,
      "cred": 10,
      "flags": 1,
      "label": "Show Time Double",
      "description": "Perform a gig with 2 players.",
      "howto": "Perform a gig with 2 players."
    },
    {
      "id": 11,
      "imageId": 12,
      "cred": 10,
      "flags": 1,
      "label": "Show Time",
      "description": "Perform a solo gig.",
      "howto": "Perform a solo gig."
    },
    {
      "id": 12,
      "imageId": 13,
      "cred": 10,
      "flags": 1,
      "label": "Singing Without A Net",
      "description": "Complete a song in You're On Your Own mode.",
      "howto": "Complete a song in You're On Your Own mode."
    },
    {
      "id": 13,
      "imageId": 14,
      "cred": 10,
      "flags": 1,
      "label": "Party Starter",
      "description": "Complete a song in Team Play mode.",
      "howto": "Complete a song in Team Play mode."
    },
    {
      "id": 14,
      "imageId": 15,
      "cred": 10,
      "flags": 1,
      "label": "In This Together",
      "description": "Complete a song in Duet mode.",
      "howto": "Complete a song in Duet mode."
    },
    {
      "id": 15,
      "imageId": 16,
      "cred": 10,
      "flags": 1,
      "label": "Head To Head",
      "description": "Complete a song in Versus mode.",
      "howto": "Complete a song in Versus mode."
    },
    {
      "id": 16,
      "imageId": 17,
      "cred": 50,
      "flags": 1,
      "label": "Natural Performer",
      "description": "Hit 75% of the notes of any song in You're On Your Own mode.",
      "howto": "Hit 75% of the notes of any song in You're On Your Own mode."
    },
    {
      "id": 17,
      "imageId": 18,
      "cred": 100,
      "flags": 1,
      "label": "Perfect Team",
      "description": "Score over 1,000,000 in a duet.",
      "howto": "Score over 1,000,000 in a duet."
    },
    {
      "id": 18,
      "imageId": 19,
      "cred": 50,
      "flags": 1,
      "label": "You Got What It Takes",
      "description": "Score over 500,000 on 20 songs.",
      "howto": "Score over 500,000 on 20 songs."
    },
    {
      "id": 19,
      "imageId": 20,
      "cred": 100,
      "flags": 1,
      "label": "Hey! Big Scorer",
      "description": "Score over 750,000 on 20 songs.",
      "howto": "Score over 750,000 on 20 songs."
    },
    {
      "id": 20,
      "imageId": 21,
      "cred": 30,
      "flags": 1,
      "label": "Rackin' Up The Points",
      "description": "Score over 750,000 on 10 songs.",
      "howto": "Score over 750,000 on 10 songs."
    },
    {
      "id": 21,
      "imageId": 22,
      "cred": 20,
      "flags": 1,
      "label": "Top Billing",
      "description": "Score over 750,000 on any song in Solo mode.",
      "howto": "Score over 750,000 on any song in Solo mode."
    },
    {
      "id": 22,
      "imageId": 23,
      "cred": 20,
      "flags": 1,
      "label": "Big Stake Battle",
      "description": "Score over 750,000 on any song in Versus mode",
      "howto": "Score over 750,000 on any song in Versus mode"
    },
    {
      "id": 23,
      "imageId": 24,
      "cred": 20,
      "flags": 1,
      "label": "Beautiful Harmony",
      "description": "Score over 750,000 on any song in Duet mode.",
      "howto": "Score over 750,000 on any song in Duet mode."
    },
    {
      "id": 24,
      "imageId": 25,
      "cred": 100,
      "flags": 1,
      "label": "You're a Professional!",
      "description": "Score over 1,000,000 on any song in Solo mode.",
      "howto": "Score over 1,000,000 on any song in Solo mode."
    },
    {
      "id": 25,
      "imageId": 26,
      "cred": 50,
      "flags": 1,
      "label": "Head's In The Game",
      "description": "Hit a X4 multiplier.",
      "howto": "Hit a X4 multiplier."
    }
  ]
}