[
  {
    "titleId": 1480657346,
    "largeId": 131084,
    "smallId": 65548,
    "commonId": 12
  },
  {
    "titleId": 1480657346,
    "largeId": 131085,
    "smallId": 65549,
    "commonId": 13
  }
]