{
  "achievementsPossible": 49,
  "credPossible": 1000,
  "achievements": [
    {
      "id": 1,
      "imageId": 6,
      "cred": 25,
      "flags": 1,
      "label": "Sniper",
      "description": "Kill 50 enemies only with bow",
      "howto": "Kill 50 enemies only with bow"
    },
    {
      "id": 2,
      "imageId": 7,
      "cred": 25,
      "flags": 1,
      "label": "Swordsman",
      "description": "Kill 60 enemies only with sword",
      "howto": "Kill 60 enemies only with sword"
    },
    {
      "id": 3,
      "imageId": 8,
      "cred": 25,
      "flags": 1,
      "label": "Cyclops Hunter",
      "description": "Kill 4 cyclops during your adventure",
      "howto": "Kill 4 cyclops during your adventure"
    },
    {
      "id": 4,
      "imageId": 9,
      "cred": 20,
      "flags": 4,
      "label": "Arena Master",
      "description": "Defeat all enemies in Rubby's Arena",
      "howto": "Defeat all enemies in Rubby's Arena"
    },
    {
      "id": 5,
      "imageId": 10,
      "cred": 25,
      "flags": 1,
      "label": "Shadow Soldier",
      "description": "Kill 20 enemies with Backstab strikes",
      "howto": "Kill 20 enemies with Backstab strikes"
    },
    {
      "id": 6,
      "imageId": 11,
      "cred": 25,
      "flags": 1,
      "label": "Warlock",
      "description": "Kill 50 enemies with magic",
      "howto": "Kill 50 enemies with magic"
    },
    {
      "id": 7,
      "imageId": 12,
      "cred": 25,
      "flags": 1,
      "label": "Thanocide",
      "description": "Kill 50 enemies amongst spiders, undeads or ghouls",
      "howto": "Kill 50 enemies amongst spiders, undeads or ghouls"
    },
    {
      "id": 8,
      "imageId": 13,
      "cred": 30,
      "flags": 1,
      "label": "Archeologist",
      "description": "Recover 60% of relics",
      "howto": "Recover 60% of relics"
    },
    {
      "id": 9,
      "imageId": 14,
      "cred": 15,
      "flags": 1,
      "label": "Adventurer",
      "description": "Recover 30% of relics",
      "howto": "Recover 30% of relics"
    },
    {
      "id": 10,
      "imageId": 15,
      "cred": 40,
      "flags": 1,
      "label": "Crusade Knight",
      "description": "Recover all relics",
      "howto": "Recover all relics"
    },
    {
      "id": 11,
      "imageId": 16,
      "cred": 15,
      "flags": 1,
      "label": "Code of Honor",
      "description": "Defeat Aratrok loyally without magic",
      "howto": "Defeat Aratrok loyally without magic"
    },
    {
      "id": 12,
      "imageId": 17,
      "cred": 10,
      "flags": 1,
      "label": "Demoniac",
      "description": "Kill 10 enemies in the form of a demoniac",
      "howto": "Kill 10 enemies in the form of a demoniac"
    },
    {
      "id": 13,
      "imageId": 18,
      "cred": 40,
      "flags": 1,
      "label": "Difficult Mode",
      "description": "Complete the game in difficult mode",
      "howto": "Complete the game in difficult mode"
    },
    {
      "id": 14,
      "imageId": 19,
      "cred": 20,
      "flags": 4,
      "label": "Dead Rescuer",
      "description": "Save Ishtvan in the Necropolis",
      "howto": "Save Ishtvan in the Necropolis"
    },
    {
      "id": 15,
      "imageId": 20,
      "cred": 15,
      "flags": 4,
      "label": "Princess Rescuer",
      "description": "Save Leanna in the giant spider's den",
      "howto": "Save Leanna in the giant spider's den"
    },
    {
      "id": 16,
      "imageId": 21,
      "cred": 10,
      "flags": 4,
      "label": "PaoKaï 9",
      "description": "Kill PaoKaï near the Necropolis",
      "howto": "Kill PaoKaï near the Necropolis"
    },
    {
      "id": 17,
      "imageId": 22,
      "cred": 5,
      "flags": 6,
      "label": "Learner",
      "description": "Complete the tutorial",
      "howto": "Complete the tutorial"
    },
    {
      "id": 18,
      "imageId": 23,
      "cred": 5,
      "flags": 4,
      "label": "The Skull of Shadows",
      "description": "Recover the Skull of Shadows in the temple of the Spider Goddess",
      "howto": "Recover the Skull of Shadows in the temple of the Spider Goddess"
    },
    {
      "id": 19,
      "imageId": 24,
      "cred": 20,
      "flags": 1,
      "label": "Mission Accomplished",
      "description": "Complete the game",
      "howto": "Complete the game"
    },
    {
      "id": 20,
      "imageId": 25,
      "cred": 5,
      "flags": 6,
      "label": "Free the boat",
      "description": "Take over the boat in the hands of necromancers",
      "howto": "Take over the boat in the hands of necromancers"
    },
    {
      "id": 21,
      "imageId": 26,
      "cred": 5,
      "flags": 4,
      "label": "Find the gems",
      "description": "Find the gems in the temple of the Spider Goddess",
      "howto": "Find the gems in the temple of the Spider Goddess"
    },
    {
      "id": 22,
      "imageId": 27,
      "cred": 5,
      "flags": 6,
      "label": "Reach the Necropolis",
      "description": "Reach the Necropolis",
      "howto": "Reach the Necropolis"
    },
    {
      "id": 23,
      "imageId": 28,
      "cred": 5,
      "flags": 1,
      "label": "PaoKaï 5",
      "description": "Kill PaoKaï at the temple of the Spider Goddess",
      "howto": "Kill PaoKaï at the temple of the Spider Goddess"
    },
    {
      "id": 24,
      "imageId": 29,
      "cred": 20,
      "flags": 1,
      "label": "Slanted Step",
      "description": "Make 5 enemies fall on a frozen ground with the 'Freeze' spell",
      "howto": "Make 5 enemies fall on a frozen ground with the 'Freeze' spell"
    },
    {
      "id": 25,
      "imageId": 30,
      "cred": 15,
      "flags": 1,
      "label": "Executioner",
      "description": "Kill 10 enemies under the effects of adrenaline",
      "howto": "Kill 10 enemies under the effects of adrenaline"
    },
    {
      "id": 26,
      "imageId": 31,
      "cred": 30,
      "flags": 3,
      "label": "Explorer",
      "description": "Discover at least 42 secret places",
      "howto": "Discover at least 42 secret places"
    },
    {
      "id": 27,
      "imageId": 32,
      "cred": 10,
      "flags": 1,
      "label": "Blacksmith",
      "description": "Forge 3 different swords during your adventure",
      "howto": "Forge 3 different swords during your adventure"
    },
    {
      "id": 28,
      "imageId": 33,
      "cred": 10,
      "flags": 4,
      "label": "Slaughterer",
      "description": "Kill 2 enemies at once while under the effects of adrenaline",
      "howto": "Kill 2 enemies at once while under the effects of adrenaline"
    },
    {
      "id": 29,
      "imageId": 34,
      "cred": 20,
      "flags": 1,
      "label": "Funny Moments",
      "description": "Push 5 enemies into the void without be spotted by the victim",
      "howto": "Push 5 enemies into the void without be spotted by the victim"
    },
    {
      "id": 30,
      "imageId": 35,
      "cred": 30,
      "flags": 1,
      "label": "Physics is lethal",
      "description": "Kill 50 enemies using these methods: fire, pick, void and physical object",
      "howto": "Kill 50 enemies using these methods: fire, pick, void and physical object"
    },
    {
      "id": 31,
      "imageId": 49,
      "cred": 30,
      "flags": 1,
      "label": "Weapon Collector",
      "description": "Weapon collection complete (Swords, Daggers, Staffs & Bows)",
      "howto": "Weapon collection complete (Swords, Daggers, Staffs & Bows)"
    },
    {
      "id": 32,
      "imageId": 50,
      "cred": 30,
      "flags": 1,
      "label": "Equipment Collector",
      "description": "Equipment collection complete (Armors, Shields, Rings) ",
      "howto": "Equipment collection complete (Armors, Shields, Rings) "
    },
    {
      "id": 33,
      "imageId": 1,
      "cred": 30,
      "flags": 4,
      "label": "Angel of Death",
      "description": "[Ranked] Kill 15 enemies before being killed in a ranked match",
      "howto": "[Ranked] Kill 15 enemies before being killed in a ranked match"
    },
    {
      "id": 34,
      "imageId": 2,
      "cred": 15,
      "flags": 1,
      "label": "Blitzkrieg",
      "description": "[Ranked] Complete a map in Blitz mode in a ranked match in less than 8 minutes.",
      "howto": "[Ranked] Complete a map in Blitz mode in a ranked match in less than 8 minutes."
    },
    {
      "id": 35,
      "imageId": 3,
      "cred": 10,
      "flags": 4,
      "label": "Conqueror",
      "description": "Capture 3 enemy flags in the same match. Requires at least 8 players.",
      "howto": "Capture 3 enemy flags in the same match. Requires at least 8 players."
    },
    {
      "id": 36,
      "imageId": 4,
      "cred": 30,
      "flags": 1,
      "label": "Conqueror of the light",
      "description": "Win 10 Crusades on the Human side. Requires at least 8 players.",
      "howto": "Win 10 Crusades on the Human side. Requires at least 8 players."
    },
    {
      "id": 37,
      "imageId": 5,
      "cred": 30,
      "flags": 1,
      "label": "Conqueror of the shadow",
      "description": "Win 10 Crusades on the Undead side. Requires at least 8 players.",
      "howto": "Win 10 Crusades on the Undead side. Requires at least 8 players."
    },
    {
      "id": 38,
      "imageId": 36,
      "cred": 20,
      "flags": 4,
      "label": "Survivor",
      "description": "[Ranked] Not getting killed a single time in a ranked match, and killing at least 7 victims",
      "howto": "[Ranked] Not getting killed a single time in a ranked match, and killing at least 7 victims"
    },
    {
      "id": 39,
      "imageId": 38,
      "cred": 15,
      "flags": 4,
      "label": "Revenge",
      "description": "[Ranked] Kill the player who has just killed you in a ranked match",
      "howto": "[Ranked] Kill the player who has just killed you in a ranked match"
    },
    {
      "id": 40,
      "imageId": 39,
      "cred": 15,
      "flags": 1,
      "label": "Archer",
      "description": "[Ranked] Score more than 1500 as an Archer in a ranked match",
      "howto": "[Ranked] Score more than 1500 as an Archer in a ranked match"
    },
    {
      "id": 41,
      "imageId": 40,
      "cred": 15,
      "flags": 1,
      "label": "Warrior",
      "description": "[Ranked] Score more than 1500 points as a Warrior in a ranked match",
      "howto": "[Ranked] Score more than 1500 points as a Warrior in a ranked match"
    },
    {
      "id": 42,
      "imageId": 41,
      "cred": 15,
      "flags": 1,
      "label": "Mage",
      "description": "[Ranked] Score more than 1500 points as a Mage in a ranked match",
      "howto": "[Ranked] Score more than 1500 points as a Mage in a ranked match"
    },
    {
      "id": 43,
      "imageId": 42,
      "cred": 15,
      "flags": 1,
      "label": "Priestess",
      "description": "[Ranked] Score more than 1500 points as a Priestess in a ranked match",
      "howto": "[Ranked] Score more than 1500 points as a Priestess in a ranked match"
    },
    {
      "id": 44,
      "imageId": 43,
      "cred": 30,
      "flags": 1,
      "label": "Deathmatch",
      "description": "[Ranked] Score more than 3000 points in a ranked deathmatch",
      "howto": "[Ranked] Score more than 3000 points in a ranked deathmatch"
    },
    {
      "id": 45,
      "imageId": 44,
      "cred": 40,
      "flags": 1,
      "label": "Messiah of Darkness",
      "description": "[Ranked] Kill more than 666 enemies in total for ranked matches",
      "howto": "[Ranked] Kill more than 666 enemies in total for ranked matches"
    },
    {
      "id": 46,
      "imageId": 45,
      "cred": 40,
      "flags": 1,
      "label": "Challenger",
      "description": "[Ranked] Win a ranked match 20 times",
      "howto": "[Ranked] Win a ranked match 20 times"
    },
    {
      "id": 47,
      "imageId": 46,
      "cred": 30,
      "flags": 1,
      "label": "Local champion",
      "description": "Win 20 matches hosted by yourself. Requires at least 8 players.",
      "howto": "Win 20 matches hosted by yourself. Requires at least 8 players."
    },
    {
      "id": 48,
      "imageId": 47,
      "cred": 20,
      "flags": 1,
      "label": "Crusade",
      "description": "Win a Crusade. Requires at least 8 players.",
      "howto": "Win a Crusade. Requires at least 8 players."
    },
    {
      "id": 49,
      "imageId": 48,
      "cred": 20,
      "flags": 1,
      "label": "Teammate",
      "description": "Win 10 team deathmatches. Requires at least 8 players.",
      "howto": "Win 10 team deathmatches. Requires at least 8 players."
    }
  ]
}