{
  "achievementsPossible": 12,
  "credPossible": 200,
  "achievements": [
    {
      "id": 1,
      "imageId": 1,
      "cred": 15,
      "flags": 1,
      "label": "Bravery",
      "description": "Use only your knife to beat the Harbor Level.",
      "howto": "Use only your knife to beat the Harbor Level."
    },
    {
      "id": 2,
      "imageId": 2,
      "cred": 10,
      "flags": 1,
      "label": "Good Start",
      "description": "Complete the Missile Base.",
      "howto": "Complete the Missile Base."
    },
    {
      "id": 3,
      "imageId": 3,
      "cred": 15,
      "flags": 1,
      "label": "Stamina",
      "description": "Complete the Bridge Level.",
      "howto": "Complete the Bridge Level."
    },
    {
      "id": 4,
      "imageId": 4,
      "cred": 20,
      "flags": 1,
      "label": "Victory",
      "description": "Beat the Enemy Prison Camp.",
      "howto": "Beat the Enemy Prison Camp."
    },
    {
      "id": 5,
      "imageId": 5,
      "cred": 15,
      "flags": 4,
      "label": "Stealth",
      "description": "Complete Missile Base, defeating less than 18 enemies.",
      "howto": "Complete Missile Base, defeating less than 18 enemies."
    },
    {
      "id": 6,
      "imageId": 6,
      "cred": 10,
      "flags": 4,
      "label": "Not Bad",
      "description": "Get a score of 50,000 or more.",
      "howto": "Get a score of 50,000 or more."
    },
    {
      "id": 7,
      "imageId": 7,
      "cred": 20,
      "flags": 4,
      "label": "Knife Master",
      "description": "Complete all levels using only your knife and no powerups. ",
      "howto": "Complete all levels using only your knife and no powerups. "
    },
    {
      "id": 8,
      "imageId": 8,
      "cred": 20,
      "flags": 7,
      "label": "Teamwork",
      "description": "Score 200,000 or more playing an Xbox Live co-op match.",
      "howto": "Score 200,000 or more playing an Xbox Live co-op match."
    },
    {
      "id": 9,
      "imageId": 9,
      "cred": 15,
      "flags": 4,
      "label": "Reflexes",
      "description": "Complete the Missile Base without dying.",
      "howto": "Complete the Missile Base without dying."
    },
    {
      "id": 10,
      "imageId": 10,
      "cred": 10,
      "flags": 4,
      "label": "Fair Fight",
      "description": "Reach the mortar without defeating any unarmed soldier in Missile Base.",
      "howto": "Reach the mortar without defeating any unarmed soldier in Missile Base."
    },
    {
      "id": 11,
      "imageId": 11,
      "cred": 20,
      "flags": 4,
      "label": "True Marine",
      "description": "Rescue the POWs in less than 10 minutes.",
      "howto": "Rescue the POWs in less than 10 minutes."
    },
    {
      "id": 12,
      "imageId": 12,
      "cred": 30,
      "flags": 1,
      "label": "Mad Marine",
      "description": "Rescue the POWs twice.",
      "howto": "Rescue the POWs twice."
    }
  ]
}