{
  "achievementsPossible": 12,
  "credPossible": 200,
  "achievements": [
    {
      "id": 1,
      "imageId": 1,
      "cred": 30,
      "flags": 1,
      "label": "Human Superiority",
      "description": "Conquer the Expert computer opponent in Battle mode",
      "howto": "Conquer the Expert computer opponent in Battle mode"
    },
    {
      "id": 2,
      "imageId": 2,
      "cred": 5,
      "flags": 4,
      "label": "Special Score",
      "description": "Make an Emerald and a Star in the same game (any game mode)",
      "howto": "Make an Emerald and a Star in the same game (any game mode)"
    },
    {
      "id": 3,
      "imageId": 3,
      "cred": 5,
      "flags": 1,
      "label": "Playing the Field",
      "description": "Complete a game in each game mode (Marathon, Timed, Survival, Battle)",
      "howto": "Complete a game in each game mode (Marathon, Timed, Survival, Battle)"
    },
    {
      "id": 4,
      "imageId": 4,
      "cred": 5,
      "flags": 4,
      "label": "Top Off the Tank",
      "description": "Fully charge each attack energy well in a single Battle (local or Xbox Live)",
      "howto": "Fully charge each attack energy well in a single Battle (local or Xbox Live)"
    },
    {
      "id": 5,
      "imageId": 5,
      "cred": 10,
      "flags": 4,
      "label": "Hot Potato",
      "description": "Defuse a single one of your opponent's bombs three times (Battle mode, local or Xbox Live)",
      "howto": "Defuse a single one of your opponent's bombs three times (Battle mode, local or Xbox Live)"
    },
    {
      "id": 6,
      "imageId": 6,
      "cred": 10,
      "flags": 4,
      "label": "Show No Mercy",
      "description": "Use every type of attack in a single Battle (local or Xbox Live)",
      "howto": "Use every type of attack in a single Battle (local or Xbox Live)"
    },
    {
      "id": 7,
      "imageId": 7,
      "cred": 10,
      "flags": 1,
      "label": "Battle Tested",
      "description": "Beat the computer in Battle mode on any difficulty level",
      "howto": "Beat the computer in Battle mode on any difficulty level"
    },
    {
      "id": 8,
      "imageId": 8,
      "cred": 15,
      "flags": 4,
      "label": "She's Gonna Blow!",
      "description": "Create a chain reaction explosion of three or more special pieces (any game mode)",
      "howto": "Create a chain reaction explosion of three or more special pieces (any game mode)\r\n"
    },
    {
      "id": 9,
      "imageId": 9,
      "cred": 20,
      "flags": 4,
      "label": "Really Special",
      "description": "Make a Ruby",
      "howto": "Make a Ruby"
    },
    {
      "id": 10,
      "imageId": 10,
      "cred": 25,
      "flags": 1,
      "label": "Ten Down",
      "description": "Win ten Xbox Live Ranked matches",
      "howto": "Win ten Xbox Live Ranked matches"
    },
    {
      "id": 11,
      "imageId": 11,
      "cred": 25,
      "flags": 4,
      "label": "So Special it Hurts",
      "description": "Make a Black Pearl",
      "howto": "Make a Black Pearl"
    },
    {
      "id": 12,
      "imageId": 12,
      "cred": 40,
      "flags": 1,
      "label": "Marathon Master",
      "description": "Beat Marathon mode by making a cluster, line or flower of Black Pearls",
      "howto": "Beat Marathon mode by making a cluster, line or flower of Black Pearls"
    }
  ]
}