{
  "achievementsPossible": 48,
  "credPossible": 1000,
  "achievements": [
    {
      "id": 1,
      "imageId": 1,
      "cred": 30,
      "flags": 1,
      "label": "張遼が使用可能",
      "description": "張遼が使用可能である",
      "howto": "特定の条件を満たすことで使用可能"
    },
    {
      "id": 2,
      "imageId": 2,
      "cred": 30,
      "flags": 1,
      "label": "曹操が使用可能",
      "description": "曹操が使用可能である",
      "howto": "特定の条件を満たすことで使用可能"
    },
    {
      "id": 3,
      "imageId": 9,
      "cred": 10,
      "flags": 1,
      "label": "許チョが使用可能",
      "description": "許チョが使用可能である",
      "howto": "特定の戦功目標を達成することで使用可能"
    },
    {
      "id": 4,
      "imageId": 10,
      "cred": 10,
      "flags": 1,
      "label": "夏侯淵が使用可能",
      "description": "夏侯淵が使用可能である",
      "howto": "特定の戦功目標を達成することで使用可能"
    },
    {
      "id": 5,
      "imageId": 11,
      "cred": 10,
      "flags": 1,
      "label": "徐晃が使用可能",
      "description": "徐晃が使用可能である",
      "howto": "特定の戦功目標を達成することで使用可能"
    },
    {
      "id": 6,
      "imageId": 12,
      "cred": 10,
      "flags": 1,
      "label": "張コウが使用可能",
      "description": "張コウが使用可能である",
      "howto": "特定の戦功目標を達成することで使用可能"
    },
    {
      "id": 7,
      "imageId": 13,
      "cred": 10,
      "flags": 1,
      "label": "曹仁が使用可能",
      "description": "曹仁が使用可能である",
      "howto": "特定の戦功目標を達成することで使用可能"
    },
    {
      "id": 8,
      "imageId": 14,
      "cred": 10,
      "flags": 1,
      "label": "曹丕が使用可能",
      "description": "曹丕が使用可能である",
      "howto": "特定の戦功目標を達成することで使用可能"
    },
    {
      "id": 9,
      "imageId": 30,
      "cred": 10,
      "flags": 1,
      "label": "甄姫が使用可能",
      "description": "甄姫が使用可能である",
      "howto": "特定の戦功目標を達成することで使用可能"
    },
    {
      "id": 10,
      "imageId": 4,
      "cred": 30,
      "flags": 1,
      "label": "孫堅が使用可能",
      "description": "孫堅が使用可能である",
      "howto": "特定の条件を満たすことで使用可能"
    },
    {
      "id": 11,
      "imageId": 3,
      "cred": 30,
      "flags": 1,
      "label": "甘寧が使用可能",
      "description": "甘寧が使用可能である",
      "howto": "特定の条件を満たすことで使用可能"
    },
    {
      "id": 12,
      "imageId": 15,
      "cred": 10,
      "flags": 1,
      "label": "太史慈が使用可能",
      "description": "太史慈が使用可能である",
      "howto": "特定の戦功目標を達成することで使用可能"
    },
    {
      "id": 13,
      "imageId": 16,
      "cred": 10,
      "flags": 1,
      "label": "呂蒙が使用可能",
      "description": "呂蒙が使用可能である",
      "howto": "特定の戦功目標を達成することで使用可能"
    },
    {
      "id": 14,
      "imageId": 17,
      "cred": 10,
      "flags": 1,
      "label": "黄蓋が使用可能",
      "description": "黄蓋が使用可能である",
      "howto": "特定の戦功目標を達成することで使用可能"
    },
    {
      "id": 15,
      "imageId": 18,
      "cred": 10,
      "flags": 1,
      "label": "周泰が使用可能",
      "description": "周泰が使用可能である",
      "howto": "特定の戦功目標を達成することで使用可能"
    },
    {
      "id": 16,
      "imageId": 19,
      "cred": 10,
      "flags": 1,
      "label": "凌統が使用可能",
      "description": "凌統が使用可能である",
      "howto": "特定の戦功目標を達成することで使用可能"
    },
    {
      "id": 17,
      "imageId": 20,
      "cred": 10,
      "flags": 1,
      "label": "孫策が使用可能",
      "description": "孫策が使用可能である",
      "howto": "特定の戦功目標を達成することで使用可能"
    },
    {
      "id": 18,
      "imageId": 21,
      "cred": 10,
      "flags": 1,
      "label": "孫権が使用可能",
      "description": "孫権が使用可能である",
      "howto": "特定の戦功目標を達成することで使用可能"
    },
    {
      "id": 19,
      "imageId": 31,
      "cred": 10,
      "flags": 1,
      "label": "小喬が使用可能",
      "description": "小喬が使用可能である",
      "howto": "特定の戦功目標を達成することで使用可能"
    },
    {
      "id": 20,
      "imageId": 5,
      "cred": 30,
      "flags": 1,
      "label": "諸葛亮が使用可能",
      "description": "諸葛亮が使用可能である",
      "howto": "特定の条件を満たすことで使用可能"
    },
    {
      "id": 21,
      "imageId": 6,
      "cred": 30,
      "flags": 1,
      "label": "劉備が使用可能",
      "description": "劉備が使用可能である",
      "howto": "特定の条件を満たすことで使用可能"
    },
    {
      "id": 22,
      "imageId": 22,
      "cred": 10,
      "flags": 1,
      "label": "馬超が使用可能",
      "description": "馬超が使用可能である",
      "howto": "特定の戦功目標を達成することで使用可能"
    },
    {
      "id": 23,
      "imageId": 23,
      "cred": 10,
      "flags": 1,
      "label": "黄忠が使用可能",
      "description": "黄忠が使用可能である",
      "howto": "特定の戦功目標を達成することで使用可能"
    },
    {
      "id": 24,
      "imageId": 24,
      "cred": 10,
      "flags": 1,
      "label": "魏延が使用可能",
      "description": "魏延が使用可能である",
      "howto": "特定の戦功目標を達成することで使用可能"
    },
    {
      "id": 25,
      "imageId": 25,
      "cred": 10,
      "flags": 1,
      "label": "関平が使用可能",
      "description": "関平が使用可能である",
      "howto": "特定の戦功目標を達成することで使用可能"
    },
    {
      "id": 26,
      "imageId": 26,
      "cred": 10,
      "flags": 1,
      "label": "ホウ統が使用可能",
      "description": "ホウ統が使用可能である",
      "howto": "特定の戦功目標を達成することで使用可能"
    },
    {
      "id": 27,
      "imageId": 32,
      "cred": 10,
      "flags": 1,
      "label": "月英が使用可能",
      "description": "月英が使用可能である",
      "howto": "特定の戦功目標を達成することで使用可能"
    },
    {
      "id": 28,
      "imageId": 7,
      "cred": 30,
      "flags": 1,
      "label": "貂蝉が使用可能",
      "description": "貂蝉が使用可能である",
      "howto": "特定の条件を満たすことで使用可能"
    },
    {
      "id": 29,
      "imageId": 8,
      "cred": 30,
      "flags": 1,
      "label": "呂布が使用可能",
      "description": "呂布が使用可能である",
      "howto": "特定の条件を満たすことで使用可能"
    },
    {
      "id": 30,
      "imageId": 27,
      "cred": 10,
      "flags": 1,
      "label": "董卓が使用可能",
      "description": "董卓が使用可能である",
      "howto": "特定の戦功目標を達成することで使用可能"
    },
    {
      "id": 31,
      "imageId": 28,
      "cred": 10,
      "flags": 1,
      "label": "袁紹が使用可能",
      "description": "袁紹が使用可能である",
      "howto": "特定の戦功目標を達成することで使用可能"
    },
    {
      "id": 32,
      "imageId": 29,
      "cred": 10,
      "flags": 1,
      "label": "張角が使用可能",
      "description": "張角が使用可能である",
      "howto": "特定の戦功目標を達成することで使用可能"
    },
    {
      "id": 33,
      "imageId": 33,
      "cred": 10,
      "flags": 1,
      "label": "暴風で自己ベスト1位を更新",
      "description": "暴風で自己ベスト1位を更新した",
      "howto": "暴風で自己ベスト1位を更新する"
    },
    {
      "id": 34,
      "imageId": 34,
      "cred": 10,
      "flags": 1,
      "label": "生還で自己ベスト1位を更新",
      "description": "生還で自己ベスト1位を更新",
      "howto": "生還で自己ベスト1位を更新する"
    },
    {
      "id": 35,
      "imageId": 35,
      "cred": 10,
      "flags": 1,
      "label": "速駆で自己ベスト1位を更新",
      "description": "速駆で自己ベスト1位を更新した",
      "howto": "速駆で自己ベスト1位を更新する"
    },
    {
      "id": 36,
      "imageId": 36,
      "cred": 10,
      "flags": 1,
      "label": "破壊で自己ベスト1位を更新",
      "description": "破壊で自己ベスト1位を更新した",
      "howto": "破壊で自己ベスト1位を更新する"
    },
    {
      "id": 37,
      "imageId": 37,
      "cred": 10,
      "flags": 1,
      "label": "回避で自己ベスト1位を更新",
      "description": "回避で自己ベスト1位を更新した",
      "howto": "回避で自己ベスト1位を更新する"
    },
    {
      "id": 38,
      "imageId": 38,
      "cred": 30,
      "flags": 1,
      "label": "戦功目標を50以上達成",
      "description": "戦功目標を50以上達成した",
      "howto": "戦功目標を50以上達成する"
    },
    {
      "id": 39,
      "imageId": 39,
      "cred": 40,
      "flags": 1,
      "label": "戦功目標を75以上達成",
      "description": "戦功目標を75以上達成した",
      "howto": "戦功目標を75以上達成する"
    },
    {
      "id": 40,
      "imageId": 40,
      "cred": 50,
      "flags": 1,
      "label": "戦功目標を100以上達成",
      "description": "戦功目標を100以上達成した",
      "howto": "戦功目標を100以上達成する"
    },
    {
      "id": 41,
      "imageId": 41,
      "cred": 60,
      "flags": 1,
      "label": "すべての戦功目標を達成",
      "description": "すべての戦功目標を達成した",
      "howto": "すべての戦功目標を達成する"
    },
    {
      "id": 42,
      "imageId": 42,
      "cred": 20,
      "flags": 1,
      "label": "シナリオを10以上クリア",
      "description": "シナリオを10以上クリアした",
      "howto": "シナリオを10以上クリアする"
    },
    {
      "id": 43,
      "imageId": 43,
      "cred": 30,
      "flags": 1,
      "label": "シナリオを20以上クリア",
      "description": "シナリオを20以上クリアした",
      "howto": "シナリオを20以上クリアする"
    },
    {
      "id": 44,
      "imageId": 44,
      "cred": 40,
      "flags": 1,
      "label": "シナリオを30以上クリア",
      "description": "シナリオを30以上クリアした",
      "howto": "シナリオを30以上クリアする"
    },
    {
      "id": 45,
      "imageId": 45,
      "cred": 50,
      "flags": 1,
      "label": "すべてのシナリオをクリア",
      "description": "すべてのシナリオをクリアした",
      "howto": "すべてのシナリオをクリアする"
    },
    {
      "id": 46,
      "imageId": 46,
      "cred": 50,
      "flags": 1,
      "label": "無双モードをすべてクリア",
      "description": "無双モードをすべてクリアした",
      "howto": "無双モードをすべてクリアする"
    },
    {
      "id": 47,
      "imageId": 47,
      "cred": 50,
      "flags": 1,
      "label": "すべての武将のレベルが50",
      "description": "すべての武将のレベルが50である",
      "howto": "すべての武将のレベルを50にする"
    },
    {
      "id": 48,
      "imageId": 48,
      "cred": 50,
      "flags": 1,
      "label": "すべてのシナリオを難易度・修羅でクリア",
      "description": "すべてのシナリオを難易度・修羅でクリアした",
      "howto": "すべてのシナリオをクリアする"
    }
  ]
}