{
  "achievementsPossible": 12,
  "credPossible": 200,
  "achievements": [
    {
      "id": 1,
      "imageId": 1,
      "cred": 10,
      "flags": 2,
      "label": "Wave 5",
      "description": "Make your way to wave 5 using default settings",
      "howto": "Make your way to wave 5 using default settings"
    },
    {
      "id": 2,
      "imageId": 2,
      "cred": 15,
      "flags": 2,
      "label": "Wave 10",
      "description": "Make your way to wave 10 using default settings",
      "howto": "Make your way to wave 10 using default settings"
    },
    {
      "id": 3,
      "imageId": 3,
      "cred": 25,
      "flags": 2,
      "label": "Wave 30",
      "description": "Make your way to wave 30 using default settings",
      "howto": "Make your way to wave 30 using default settings"
    },
    {
      "id": 4,
      "imageId": 4,
      "cred": 10,
      "flags": 4,
      "label": "Glue",
      "description": "Pass wave 1 without moving or dying while using default settings",
      "howto": "Pass wave 1 without moving or dying while using default settings"
    },
    {
      "id": 5,
      "imageId": 5,
      "cred": 5,
      "flags": 4,
      "label": "Dodge",
      "description": "Stay in wave 1 for 28 seconds without dying using default settings",
      "howto": "Stay in wave 1 for 28 seconds without dying using default settings"
    },
    {
      "id": 6,
      "imageId": 6,
      "cred": 15,
      "flags": 2,
      "label": "CO-OP",
      "description": "Finish wave 5 on Xbox Live with another player using default settings",
      "howto": "Finish wave 5 on Xbox Live with another player using default settings"
    },
    {
      "id": 7,
      "imageId": 7,
      "cred": 10,
      "flags": 4,
      "label": "Save All Humans!",
      "description": "Rescue all humans on wave 1 and 2 using default settings",
      "howto": "Rescue all humans on wave 1 and 2 using default settings"
    },
    {
      "id": 8,
      "imageId": 8,
      "cred": 15,
      "flags": 4,
      "label": "Versus",
      "description": "Play on Xbox Live Ranked VERSUS and gain the rank of 5",
      "howto": "Play on Xbox Live Ranked VERSUS and gain the rank of 5"
    },
    {
      "id": 9,
      "imageId": 9,
      "cred": 15,
      "flags": 4,
      "label": "High score",
      "description": "Get 1st place on in game score board using default settings",
      "howto": "Get 1st place on in game score board using default settings"
    },
    {
      "id": 10,
      "imageId": 10,
      "cred": 15,
      "flags": 2,
      "label": "Time Challenge",
      "description": "Make your way to wave 4 in 45 seconds or less using default settings",
      "howto": "Make your way to wave 4 in 45 seconds or less using default settings"
    },
    {
      "id": 11,
      "imageId": 11,
      "cred": 20,
      "flags": 2,
      "label": "CO-OP Master",
      "description": "Finish wave 10 on Xbox Live with another player using default settings",
      "howto": "Finish wave 10 on Xbox Live with another player using default settings"
    },
    {
      "id": 12,
      "imageId": 12,
      "cred": 45,
      "flags": 2,
      "label": "Wave 100",
      "description": "Make your way to wave 100 using default settings",
      "howto": "Make your way to wave 100 using default settings"
    }
  ]
}