{
  "achievementsPossible": 43,
  "credPossible": 1000,
  "achievements": [
    {
      "id": 3,
      "imageId": 1,
      "cred": 50,
      "flags": 6,
      "label": "1世代目クリア",
      "description": "1世代目をクリアしました。",
      "howto": "1世代目をクリアしましょう。"
    },
    {
      "id": 4,
      "imageId": 4,
      "cred": 100,
      "flags": 6,
      "label": "2世代目クリア",
      "description": "2世代目をクリアしました。",
      "howto": "2世代目をクリアしましょう。"
    },
    {
      "id": 5,
      "imageId": 5,
      "cred": 100,
      "flags": 6,
      "label": "True Ending",
      "description": "True Endを迎えました。",
      "howto": "True Endを迎えました。"
    },
    {
      "id": 6,
      "imageId": 6,
      "cred": 30,
      "flags": 6,
      "label": "真実を掴む者",
      "description": "ダイジェストルートをクリアしました。",
      "howto": "真実を掴む者"
    },
    {
      "id": 7,
      "imageId": 7,
      "cred": 10,
      "flags": 6,
      "label": "俊足",
      "description": "AGIが50を突破しました。",
      "howto": "目指せAGI50以上！"
    },
    {
      "id": 8,
      "imageId": 8,
      "cred": 10,
      "flags": 6,
      "label": "壁",
      "description": "VITが50を突破しました。",
      "howto": "目指せVIT50以上！"
    },
    {
      "id": 9,
      "imageId": 9,
      "cred": 10,
      "flags": 6,
      "label": "力持ち",
      "description": "STRが50を突破しました。",
      "howto": "目指せSTR50以上！"
    },
    {
      "id": 10,
      "imageId": 10,
      "cred": 10,
      "flags": 1,
      "label": "魔法使い",
      "description": "INTが50を突破しました。",
      "howto": "目指せINT50以上！"
    },
    {
      "id": 11,
      "imageId": 11,
      "cred": 10,
      "flags": 6,
      "label": "ギャンブラー",
      "description": "LUKが50を突破しました。",
      "howto": "目指せLUK50以上！"
    },
    {
      "id": 12,
      "imageId": 12,
      "cred": 10,
      "flags": 6,
      "label": "捕獲成功",
      "description": "モンスターを捕獲した。",
      "howto": "捕獲スキルでモンスターを捕獲してみよう。\r\n弱らせないと捕獲できません。"
    },
    {
      "id": 13,
      "imageId": 13,
      "cred": 5,
      "flags": 6,
      "label": "コンバート",
      "description": "アイテムをコンバートをした。",
      "howto": "アイテムのコンバートを行ってみましょう。"
    },
    {
      "id": 14,
      "imageId": 14,
      "cred": 5,
      "flags": 6,
      "label": "ミスはつきもの\r\n",
      "description": "おやじがミスった。",
      "howto": "今回もおやじ（鍛冶屋）がやらかします。"
    },
    {
      "id": 15,
      "imageId": 15,
      "cred": 10,
      "flags": 6,
      "label": "オーバーキル！",
      "description": "オーバーキルで敵を撃破した。",
      "howto": "オーバーキルを狙ってみましょう。\r\n敵がアイテムをドロップします。"
    },
    {
      "id": 16,
      "imageId": 16,
      "cred": 30,
      "flags": 6,
      "label": "オーバーキル500回突破！",
      "description": "オーバーキルの回数が500回を突破した。",
      "howto": "オーバーキルを500回達成しましょう。"
    },
    {
      "id": 17,
      "imageId": 17,
      "cred": 10,
      "flags": 6,
      "label": "スペシャルアーツ",
      "description": "スペシャルアーツに成功した。",
      "howto": "スペシャルアーツを放ちましょう。"
    },
    {
      "id": 18,
      "imageId": 18,
      "cred": 20,
      "flags": 6,
      "label": "時を越えて",
      "description": "特殊なスペシャルアーツを発動した。",
      "howto": "特殊なスペシャルアーツを発動してみましょう。"
    },
    {
      "id": 19,
      "imageId": 19,
      "cred": 10,
      "flags": 6,
      "label": "モンスター合成",
      "description": "モンスターを合成した。",
      "howto": "モンスターを合成してみましょう。"
    },
    {
      "id": 20,
      "imageId": 20,
      "cred": 20,
      "flags": 6,
      "label": "モンスター合成100回突破！",
      "description": "モンスター合成を100回行った。",
      "howto": "モンスター合成を100回行いましょう。"
    },
    {
      "id": 21,
      "imageId": 21,
      "cred": 10,
      "flags": 6,
      "label": "マリオネイト",
      "description": "マリオネイトを作製した。",
      "howto": "マリオネイトを作製してみましょう。"
    },
    {
      "id": 22,
      "imageId": 22,
      "cred": 10,
      "flags": 6,
      "label": "クラスチェンジ",
      "description": "クラスチェンジを行った。",
      "howto": "クラスチェンジをしましょう。\r\nクラスチェンジを行なうためにはあるアイテムが必要ですよ。"
    },
    {
      "id": 23,
      "imageId": 23,
      "cred": 10,
      "flags": 6,
      "label": "お好みの方を",
      "description": "エリスの容姿を変更した。",
      "howto": "エリスの容姿を変更した。"
    },
    {
      "id": 24,
      "imageId": 24,
      "cred": 20,
      "flags": 6,
      "label": "海っていいよね！",
      "description": "海水浴イベントコンプです。",
      "howto": "うみ～"
    },
    {
      "id": 25,
      "imageId": 25,
      "cred": 20,
      "flags": 6,
      "label": "温泉っていいよね！\r\n",
      "description": "温泉イベントコンプです。",
      "howto": "おんせん～"
    },
    {
      "id": 26,
      "imageId": 26,
      "cred": 30,
      "flags": 6,
      "label": "ヒロインエンド",
      "description": "ヒロイン一人の好感度が最高の状態で世代エンディングを迎えた。",
      "howto": "ヒロイン一人の好感度が最高の状態で世代エンディングを迎えた。"
    },
    {
      "id": 27,
      "imageId": 27,
      "cred": 15,
      "flags": 6,
      "label": "買い物好き",
      "description": "買い物を500回行った。",
      "howto": "買い物を500回行いましょう。"
    },
    {
      "id": 28,
      "imageId": 28,
      "cred": 15,
      "flags": 6,
      "label": "やりくり上手",
      "description": "アイテムを1000回売却した。",
      "howto": "アイテムを1000回売却しましょう。"
    },
    {
      "id": 29,
      "imageId": 29,
      "cred": 25,
      "flags": 6,
      "label": "ローストチキン",
      "description": "巨大デシマルを倒した。\r\n食べてはないよ",
      "howto": "巨大デシマルを倒した。"
    },
    {
      "id": 30,
      "imageId": 30,
      "cred": 20,
      "flags": 6,
      "label": "隠しモンスター撃破！",
      "description": "隠しモンスター4種を撃破した。",
      "howto": "隠しモンスター4種を撃破した。"
    },
    {
      "id": 31,
      "imageId": 31,
      "cred": 20,
      "flags": 6,
      "label": "敵1万体撃破！",
      "description": "10000（1万）体の敵を撃破した。",
      "howto": "10000（1万）体の敵を撃破しましょう。"
    },
    {
      "id": 32,
      "imageId": 32,
      "cred": 25,
      "flags": 6,
      "label": "戦闘回数2500回突破！",
      "description": "戦闘回数が2500回を突破した。",
      "howto": "戦闘回数の2500回突破を目指しましょう。"
    },
    {
      "id": 33,
      "imageId": 33,
      "cred": 25,
      "flags": 6,
      "label": "最大ダメージ1000万突破！",
      "description": "最大ダメージが10000000（1000万）を突破した。",
      "howto": "最大ダメージの10000000（1000万）突破を目指しましょう。"
    },
    {
      "id": 34,
      "imageId": 34,
      "cred": 25,
      "flags": 6,
      "label": "最大Hit数650突破！",
      "description": "最大Hit数が650を突破した。",
      "howto": "最大Hit数の650突破を目指しましょう。"
    },
    {
      "id": 35,
      "imageId": 35,
      "cred": 20,
      "flags": 6,
      "label": "所持金2500万突破！",
      "description": "所持金が25000000（2500万）を突破した。",
      "howto": "所持金の25000000（2500万）突破を目指しましょう。"
    },
    {
      "id": 36,
      "imageId": 36,
      "cred": 20,
      "flags": 6,
      "label": "所持EP2500万突破！",
      "description": "所持EPが25000000（2500万）を突破した。",
      "howto": "所持EPの25000000（2500万）突破を目指しましょう。"
    },
    {
      "id": 37,
      "imageId": 37,
      "cred": 20,
      "flags": 6,
      "label": "所持TP1万突破！",
      "description": "所持TPが10000（1万）を突破した。",
      "howto": "所持TPの10000（1万）突破を目指しましょう。"
    },
    {
      "id": 38,
      "imageId": 38,
      "cred": 20,
      "flags": 6,
      "label": "強化回数5000回突破！",
      "description": "アイテムの強化を5000回行った。",
      "howto": "アイテムの強化を5000回行いましょう。"
    },
    {
      "id": 39,
      "imageId": 39,
      "cred": 5,
      "flags": 6,
      "label": "称号獲得",
      "description": "初称号を獲得しました。\r\n次を目指して頑張りましょう。",
      "howto": "称号のチェックをお忘れなく。"
    },
    {
      "id": 40,
      "imageId": 40,
      "cred": 40,
      "flags": 6,
      "label": "獲得称号100突破！",
      "description": "称号の獲得数が100を突破しました。",
      "howto": "称号を100個獲得しましょう。"
    },
    {
      "id": 41,
      "imageId": 41,
      "cred": 50,
      "flags": 6,
      "label": "L.O.A.Z",
      "description": "全ての称号を獲得しました。\r\nお疲れさまでした。",
      "howto": "全ての称号の獲得を目指しましょう。"
    },
    {
      "id": 42,
      "imageId": 42,
      "cred": 25,
      "flags": 6,
      "label": "ルートマスター",
      "description": "最強の敵までたどり着いた。",
      "howto": "最強の敵までたどり着いた。"
    },
    {
      "id": 43,
      "imageId": 43,
      "cred": 20,
      "flags": 6,
      "label": "ダンジョンマスター",
      "description": "全ての隠しダンジョンをクリアした。",
      "howto": "全ての隠しダンジョンをクリアした。"
    },
    {
      "id": 44,
      "imageId": 44,
      "cred": 20,
      "flags": 6,
      "label": "プロフィールコンプリート",
      "description": "全てのプロフィールをオープンした。",
      "howto": "全てのプロフィールをオープンしましょう。"
    },
    {
      "id": 45,
      "imageId": 45,
      "cred": 40,
      "flags": 6,
      "label": "魔物マニア",
      "description": "モンスター図鑑の欄がすべて埋まりました。",
      "howto": "モンスター図鑑を完成させましょう。"
    }
  ]
}