{
  "achievementsPossible": 37,
  "credPossible": 1000,
  "achievements": [
    {
      "id": 2,
      "imageId": 13,
      "cred": 1,
      "flags": 4,
      "label": "ADAM",
      "description": "Create a male character.",
      "howto": "Create a male character."
    },
    {
      "id": 4,
      "imageId": 9,
      "cred": 1,
      "flags": 1,
      "label": "BERSERK",
      "description": "Hit the scoreboard in archery (single player).",
      "howto": "Hit the scoreboard in archery (single player)."
    },
    {
      "id": 5,
      "imageId": 11,
      "cred": 1,
      "flags": 4,
      "label": "DO AS YOU LIKE",
      "description": "Create a Custom Competition.",
      "howto": "Create a Custom Competition."
    },
    {
      "id": 6,
      "imageId": 34,
      "cred": 1,
      "flags": 4,
      "label": "EARLY BIRD",
      "description": "Make a false start in single player.",
      "howto": "Make a false start in single player."
    },
    {
      "id": 7,
      "imageId": 14,
      "cred": 1,
      "flags": 4,
      "label": "EVE",
      "description": "Create a female character.",
      "howto": "Create a female character."
    },
    {
      "id": 8,
      "imageId": 27,
      "cred": 1,
      "flags": 4,
      "label": "SLEEPY HEAD",
      "description": "Get a timeout in single player.",
      "howto": "Get a timeout in single player."
    },
    {
      "id": 9,
      "imageId": 29,
      "cred": 1,
      "flags": 4,
      "label": "STAGGERING",
      "description": "Knock over five hurdles in a 110m Hurdles race in single player.",
      "howto": "Knock over five hurdles in a 110m Hurdles race in single player."
    },
    {
      "id": 10,
      "imageId": 30,
      "cred": 1,
      "flags": 4,
      "label": "TEAM PLAYER",
      "description": "In a cycling team pursuit race in single player, switch the leading rider four times.",
      "howto": "In a cycling team pursuit race in single player, switch the leading rider four times."
    },
    {
      "id": 11,
      "imageId": 15,
      "cred": 3,
      "flags": 4,
      "label": "FLIGHT ARTIST",
      "description": "Perform a perfect flight at diving in single player.",
      "howto": "Perform a perfect flight at diving in single player."
    },
    {
      "id": 12,
      "imageId": 18,
      "cred": 3,
      "flags": 4,
      "label": "GREYHOUND",
      "description": "Run in someone's slipstream for a minute in a middle distance race in single player.",
      "howto": "Run in someone's slipstream for a minute in a middle distance race in single player."
    },
    {
      "id": 13,
      "imageId": 37,
      "cred": 3,
      "flags": 4,
      "label": "GOLDEN GRIP",
      "description": "Perform a perfect grab in swimming in single player.",
      "howto": "Perform a perfect grab in swimming in single player."
    },
    {
      "id": 14,
      "imageId": 28,
      "cred": 3,
      "flags": 4,
      "label": "SPLASH-PROOF",
      "description": "Perform a perfect entry at diving in single player.",
      "howto": "Perform a perfect entry at diving in single player."
    },
    {
      "id": 15,
      "imageId": 31,
      "cred": 3,
      "flags": 4,
      "label": "TURNING POINT",
      "description": "Perform a perfect turn in swimming in single player.",
      "howto": "Perform a perfect turn in swimming in single player."
    },
    {
      "id": 16,
      "imageId": 33,
      "cred": 3,
      "flags": 4,
      "label": "POLE POSITION",
      "description": "Perform a perfect run-up in Pole Vault in single player.",
      "howto": "Perform a perfect run-up in Pole Vault in single player."
    },
    {
      "id": 17,
      "imageId": 24,
      "cred": 3,
      "flags": 4,
      "label": "READY FOR TAKE-OFF",
      "description": "Perform a perfect take-off at Pole Vault in single player.",
      "howto": "Perform a perfect take-off at Pole Vault in single player."
    },
    {
      "id": 18,
      "imageId": 35,
      "cred": 5,
      "flags": 4,
      "label": "HIGH FLYER",
      "description": "Perform a perfect start off the diving platform in single player.",
      "howto": "Perform a perfect start off the diving platform in single player."
    },
    {
      "id": 19,
      "imageId": 16,
      "cred": 5,
      "flags": 4,
      "label": "GRASSHOPPER",
      "description": "Jump over all hurdles in a 110m Hurdles race in single player.",
      "howto": "Jump over all hurdles in a 110m Hurdles race in single player."
    },
    {
      "id": 20,
      "imageId": 5,
      "cred": 6,
      "flags": 4,
      "label": "ALL GOOD THINGS COME IN THREES",
      "description": "Perform three perfect jumps in a triple jump in single player.",
      "howto": "Perform three perfect jumps in a triple jump in single player."
    },
    {
      "id": 21,
      "imageId": 21,
      "cred": 10,
      "flags": 4,
      "label": "HOT STEPPER",
      "description": "In High Jump, run up with only perfect steps in single player.",
      "howto": "In High Jump, run up with only perfect steps in single player."
    },
    {
      "id": 22,
      "imageId": 17,
      "cred": 10,
      "flags": 4,
      "label": "GREAT TIMING",
      "description": "Throw with great timing in all throwing events in single player.",
      "howto": "Throw with great timing in all throwing events in single player."
    },
    {
      "id": 23,
      "imageId": 12,
      "cred": 15,
      "flags": 4,
      "label": "EAGLE EYE",
      "description": "Get 30 points in one round of archery in single player.",
      "howto": "Get 30 points in one round of archery in single player."
    },
    {
      "id": 24,
      "imageId": 7,
      "cred": 15,
      "flags": 4,
      "label": "ARTEMIS",
      "description": "Win a gold medal in both archery events in single player.",
      "howto": "Win a gold medal in both archery events in single player."
    },
    {
      "id": 25,
      "imageId": 8,
      "cred": 20,
      "flags": 4,
      "label": "ATHENE",
      "description": "Win a gold medal in all throwing events in single player.",
      "howto": "Win a gold medal in all throwing events in single player."
    },
    {
      "id": 26,
      "imageId": 3,
      "cred": 20,
      "flags": 4,
      "label": "AIOLOS",
      "description": "Win a gold medal in all cycling events in single player.",
      "howto": "Win a gold medal in all cycling events in single player."
    },
    {
      "id": 27,
      "imageId": 25,
      "cred": 25,
      "flags": 4,
      "label": "POSEIDON",
      "description": "Win a gold medal in all swimming events in single player.",
      "howto": "Win a gold medal in all swimming events in single player."
    },
    {
      "id": 28,
      "imageId": 20,
      "cred": 40,
      "flags": 4,
      "label": "HERMES",
      "description": "Win a gold medal in all running events in single player.",
      "howto": "Win a gold medal in all running events in single player."
    },
    {
      "id": 29,
      "imageId": 10,
      "cred": 40,
      "flags": 4,
      "label": "BRONZE AGE",
      "description": "Collect 40 bronze medals in single player.",
      "howto": "Collect 40 bronze medals in single player."
    },
    {
      "id": 30,
      "imageId": 2,
      "cred": 50,
      "flags": 4,
      "label": "SILVER MINE",
      "description": "Collect 35 silver medals in single player.",
      "howto": "Collect 35 silver medals in single player."
    },
    {
      "id": 31,
      "imageId": 19,
      "cred": 40,
      "flags": 2,
      "label": "HALFWAY THERE",
      "description": "Train three skills to 50 percent.",
      "howto": "Train three skills to 50 percent."
    },
    {
      "id": 32,
      "imageId": 6,
      "cred": 50,
      "flags": 2,
      "label": "ALMOST THERE",
      "description": "Train two skills to 75 percent.",
      "howto": "Train two skills to 75 percent."
    },
    {
      "id": 33,
      "imageId": 23,
      "cred": 60,
      "flags": 4,
      "label": "OVER THE FINISH LINE",
      "description": "Max out a skill.",
      "howto": "Max out a skill."
    },
    {
      "id": 34,
      "imageId": 1,
      "cred": 70,
      "flags": 4,
      "label": "GOLD RUSH",
      "description": "Collect 30 gold medals in single player.",
      "howto": "Collect 30 gold medals in single player."
    },
    {
      "id": 35,
      "imageId": 38,
      "cred": 90,
      "flags": 4,
      "label": "DO IT YOURSELF",
      "description": "Win the career.",
      "howto": "Win the career."
    },
    {
      "id": 36,
      "imageId": 32,
      "cred": 100,
      "flags": 4,
      "label": "ZEUS",
      "description": "Win a gold medal in all events in single player.",
      "howto": "Win a gold medal in all events in single player."
    },
    {
      "id": 37,
      "imageId": 26,
      "cred": 100,
      "flags": 4,
      "label": "SHARPSHOOTER",
      "description": "Get 90 points in three rounds of archery in single player.",
      "howto": "Get 90 points in three rounds of archery in single player."
    },
    {
      "id": 38,
      "imageId": 22,
      "cred": 100,
      "flags": 4,
      "label": "ALL-ROUNDER",
      "description": "Maximize all of your skills.",
      "howto": "Maximize all of your skills."
    },
    {
      "id": 39,
      "imageId": 36,
      "cred": 100,
      "flags": 4,
      "label": "HIGHEST, FASTEST, FARTHEST",
      "description": "Win all Competitions.",
      "howto": "Win all Competitions."
    }
  ]
}