{
  "achievementsPossible": 50,
  "credPossible": 1000,
  "achievements": [
    {
      "id": 1,
      "imageId": 1,
      "cred": 2,
      "flags": 4,
      "label": "Win A Match",
      "description": "You have guided your team to victory in a competitive fixture",
      "howto": "You will need to win a competitive match to unlock this achievement."
    },
    {
      "id": 2,
      "imageId": 2,
      "cred": 1,
      "flags": 4,
      "label": "Sign A Player",
      "description": "You have signed a player for your team",
      "howto": "You will need to sign a player for your team to unlock this achievement"
    },
    {
      "id": 3,
      "imageId": 3,
      "cred": 3,
      "flags": 4,
      "label": "Clean Sheet",
      "description": "You have managed to play a match without conceding a goal",
      "howto": "Your team will need to play a match without conceding a goal to unlock this achievement"
    },
    {
      "id": 4,
      "imageId": 4,
      "cred": 5,
      "flags": 4,
      "label": "Hattrick",
      "description": "You have inspired one of your players to score a hattrick (3 goals+)",
      "howto": "You will need to inspire one of your players to score a hattrick to unlock this achievement"
    },
    {
      "id": 5,
      "imageId": 5,
      "cred": 10,
      "flags": 4,
      "label": "10 Matches Without Losing",
      "description": "You have managed to play 10 competitive matches in a row without losing",
      "howto": "Your team will need to play 10 competitive matches in a row without losing"
    },
    {
      "id": 6,
      "imageId": 6,
      "cred": 15,
      "flags": 4,
      "label": "10 Match Winning Streak",
      "description": "You have managed to win 10 competitive matches in a row",
      "howto": "Your team will need to win 10 competitive matches in a row to unlock this achievement"
    },
    {
      "id": 7,
      "imageId": 7,
      "cred": 15,
      "flags": 5,
      "label": "Win Promotion",
      "description": "You have won promotion in a domestic competition",
      "howto": "You will need to guide your team to promotion in a domestic league to unlock this achievement"
    },
    {
      "id": 8,
      "imageId": 8,
      "cred": 20,
      "flags": 5,
      "label": "Win Domestic Cup",
      "description": "You have won the top domestic cup in a nation",
      "howto": "You will need to win the top domestic cup in a nation to unlock this achievement"
    },
    {
      "id": 9,
      "imageId": 9,
      "cred": 25,
      "flags": 5,
      "label": "Win Domestic Championship",
      "description": "You have won the top league in a nation",
      "howto": "You will need to win the top league in a nation to unlock this achievement"
    },
    {
      "id": 10,
      "imageId": 10,
      "cred": 25,
      "flags": 5,
      "label": "Qualify for Int. Championship",
      "description": "You have managed to qualify for an international competition",
      "howto": "You will need to ensure your team qualify for an international competition"
    },
    {
      "id": 11,
      "imageId": 11,
      "cred": 40,
      "flags": 5,
      "label": "Qualify For World Cup",
      "description": "You have managed to qualify for the World Cup",
      "howto": "You will need to ensure your team qualify for the World Cup to unlock this achievement"
    },
    {
      "id": 12,
      "imageId": 12,
      "cred": 50,
      "flags": 5,
      "label": "Win A Continental Cup",
      "description": "You have guided your team to glory in a continental club competition to unlock this achievement",
      "howto": "You will need to guide your team to glory in a continental club competition"
    },
    {
      "id": 13,
      "imageId": 13,
      "cred": 40,
      "flags": 5,
      "label": "Win International Championship",
      "description": "You have won an International Championship",
      "howto": "You will need to win an International Championship"
    },
    {
      "id": 14,
      "imageId": 14,
      "cred": 100,
      "flags": 5,
      "label": "Win World Cup",
      "description": "You have won the World Cup",
      "howto": "You will need to win the World Cup to unlock this achievement"
    },
    {
      "id": 15,
      "imageId": 15,
      "cred": 50,
      "flags": 5,
      "label": "Win Confederations Cup",
      "description": "You have managed to win the Confederations Cup",
      "howto": "You will need to guide your team to glory in the Confederations Cup to unlock this achievement"
    },
    {
      "id": 16,
      "imageId": 16,
      "cred": 150,
      "flags": 4,
      "label": "Undefeated Season",
      "description": "Congratulations! You have managed to play a whole season without losing a league game",
      "howto": "You will need to ensure your team does not lose a single league match throughout the entire season"
    },
    {
      "id": 17,
      "imageId": 17,
      "cred": 10,
      "flags": 5,
      "label": "Win an Xbox Live Cup",
      "description": "You have won an Xbox Live Cup",
      "howto": "You will need to win an Xbox Live Cup to unlock this achievement"
    },
    {
      "id": 18,
      "imageId": 18,
      "cred": 15,
      "flags": 5,
      "label": "Win an Xbox Live League",
      "description": "You have won an Xbox Live League",
      "howto": "You will need to win an Xbox Live League to unlock this achievement"
    },
    {
      "id": 19,
      "imageId": 19,
      "cred": 20,
      "flags": 4,
      "label": "Least Goals Conceded In League",
      "description": "Your team conceded the least goals in your league over an entire season",
      "howto": "Your team will need to concede the least goals in your league over an entire season"
    },
    {
      "id": 20,
      "imageId": 20,
      "cred": 20,
      "flags": 4,
      "label": "Most Goals Scored In League",
      "description": "Your team scored the most goals in your league over an entire season",
      "howto": "Your team will need to score the most goals in your league over an entire season"
    },
    {
      "id": 21,
      "imageId": 21,
      "cred": 10,
      "flags": 4,
      "label": "Top Goalscorer In League",
      "description": "Your player was the top league goalscorer over an entire season",
      "howto": "One of your players will need to be the top league goalscorer over an entire season"
    },
    {
      "id": 22,
      "imageId": 22,
      "cred": 20,
      "flags": 4,
      "label": "10 Goal Of The Month Awards",
      "description": "Your players have collected 10 goal of the month awards",
      "howto": "Your team will need to collect 10 goal of the month awards"
    },
    {
      "id": 23,
      "imageId": 23,
      "cred": 5,
      "flags": 4,
      "label": "Goal Of The Month Award",
      "description": "One of your players has collected a goal of the month award",
      "howto": "One of your players will need to collect a goal of the month award"
    },
    {
      "id": 24,
      "imageId": 24,
      "cred": 20,
      "flags": 4,
      "label": "Goal Of The Season Award",
      "description": "One of your players has collected a goal of the season award",
      "howto": "One of your players will need to collect a goal of the season award"
    },
    {
      "id": 25,
      "imageId": 25,
      "cred": 5,
      "flags": 4,
      "label": "Golden Boot Award",
      "description": "One of your players was the overall top scorer at a World Cup",
      "howto": "One of your players will need to be the overall top scorer at a World Cup"
    },
    {
      "id": 26,
      "imageId": 26,
      "cred": 10,
      "flags": 4,
      "label": "5 Players In Team Of The Week",
      "description": "You have managed to have 5 players named in a team of the week",
      "howto": "You will need to have 5 players named in a team of the week"
    },
    {
      "id": 27,
      "imageId": 27,
      "cred": 10,
      "flags": 4,
      "label": "Buy 30 Million Plus Player",
      "description": "You have bought a player for 30 million pounds or more",
      "howto": "Buy a player for 30 million pounds or more"
    },
    {
      "id": 28,
      "imageId": 28,
      "cred": 25,
      "flags": 1,
      "label": "Play 30 Seasons",
      "description": "Congratulations! You have played Football Manager for 30 seasons",
      "howto": "Play Football Manager for 30 seasons"
    },
    {
      "id": 29,
      "imageId": 29,
      "cred": 25,
      "flags": 4,
      "label": "20 Seasons At One Club",
      "description": "You have stayed at one club for 20 seasons",
      "howto": "You will need to stay at a club for 20 seasons to unlock this achievement"
    },
    {
      "id": 30,
      "imageId": 30,
      "cred": 15,
      "flags": 4,
      "label": "10 Seasons At One Club",
      "description": "You have stayed at one club for 10 seasons",
      "howto": "You will need to stay at a club for 10 seasons to unlock this achievement"
    },
    {
      "id": 31,
      "imageId": 31,
      "cred": 5,
      "flags": 4,
      "label": "5 Seasons At One Club",
      "description": "You have stayed at one club for 5 seasons",
      "howto": "You will need to stay at a club for 5 seasons to unlock this achievement"
    },
    {
      "id": 32,
      "imageId": 32,
      "cred": 35,
      "flags": 4,
      "label": "5 Manager Of The Year Awards",
      "description": "You have won the Manager Of The Year award an amazing 5 times",
      "howto": "You will need to win Manager Of The Year 5 times to unlock this achievement"
    },
    {
      "id": 33,
      "imageId": 33,
      "cred": 15,
      "flags": 4,
      "label": "Double Hattrick",
      "description": "You have inspired one of your players to score a double hattrick (6 goals+)",
      "howto": "You will need to inspire one of your players to score a double hattrick (6 or more goals)"
    },
    {
      "id": 34,
      "imageId": 34,
      "cred": 10,
      "flags": 4,
      "label": "5 Clean Sheets In A Row",
      "description": "Your team have managed not to concede for 5 league games in a row",
      "howto": "Your team will need to not concede a goal for 5 league games in a row"
    },
    {
      "id": 35,
      "imageId": 35,
      "cred": 20,
      "flags": 4,
      "label": "10 Manager Of The Month Awards",
      "description": "You have won the Manager Of The Month award an impressive 10 times",
      "howto": "You will need to win Manager Of The Month 10 times to unlock this achievement"
    },
    {
      "id": 36,
      "imageId": 36,
      "cred": 3,
      "flags": 4,
      "label": "First Xbox Live Game",
      "description": "You have played a cup or tournament on Xbox Live",
      "howto": "Unlock this achievement when you play your first cup or tournament on Xbox Live"
    },
    {
      "id": 37,
      "imageId": 37,
      "cred": 6,
      "flags": 4,
      "label": "5 Xbox Live Games",
      "description": "You have played 5 cups or tournaments on Xbox Live",
      "howto": "Play 5 cups or tournaments on Xbox Live to unlock this achievement"
    },
    {
      "id": 38,
      "imageId": 38,
      "cred": 10,
      "flags": 4,
      "label": "20 Xbox Live Games",
      "description": "You have played 20 cups or tournaments on Xbox Live",
      "howto": "Play 20 cups or tournaments on Xbox Live to unlock this achievement"
    },
    {
      "id": 39,
      "imageId": 39,
      "cred": 20,
      "flags": 4,
      "label": "50 Xbox Live Games",
      "description": "You have played 50 cups or tournaments on Xbox Live",
      "howto": "Play 50 cups or tournaments on Xbox Live to unlock this achievement"
    },
    {
      "id": 40,
      "imageId": 40,
      "cred": 10,
      "flags": 4,
      "label": "Sell 30 Million Plus Player",
      "description": "You have sold a player for 30 million pounds or more",
      "howto": "Sell a player for 30 million pounds or more to unlock this achievement"
    },
    {
      "id": 41,
      "imageId": 41,
      "cred": 15,
      "flags": 5,
      "label": "Win 5 Separate League Comps",
      "description": "You have won 5 different league competitions",
      "howto": "You will need to win 5 different league competitions to unlock this achievement"
    },
    {
      "id": 42,
      "imageId": 42,
      "cred": 5,
      "flags": 5,
      "label": "Win 5 Separate Cup Comps",
      "description": "You have won 5 different cup competitions",
      "howto": "You will need to win 5 different cup competitions to unlock this achievement"
    },
    {
      "id": 43,
      "imageId": 43,
      "cred": 25,
      "flags": 5,
      "label": "Win 5 Separate Top League Comps",
      "description": "You have won 5 different top league competitions",
      "howto": "You will need to win 5 different top league competitions to unlock this achievement"
    },
    {
      "id": 44,
      "imageId": 44,
      "cred": 15,
      "flags": 5,
      "label": "Win 20 Cup Competitions",
      "description": "You have won 20 cup competitions",
      "howto": "You will need to win 20 cup competitions to unlock this achievement"
    },
    {
      "id": 45,
      "imageId": 45,
      "cred": 10,
      "flags": 4,
      "label": "World Player Of The Year",
      "description": "You have inspired one of your players to win the World Player Of The Year award",
      "howto": "You will need to get one of your players to win the World Player Of The Year award"
    },
    {
      "id": 46,
      "imageId": 46,
      "cred": 5,
      "flags": 4,
      "label": "Player In World Cup Best XI",
      "description": "You have managed to have one of your players selected in the World Cup Best XI",
      "howto": "You will need to have one of your players selected in the World Cup Best XI"
    },
    {
      "id": 47,
      "imageId": 47,
      "cred": 5,
      "flags": 4,
      "label": "Player In Team Of The Year",
      "description": "One of your players was selected in the Team Of The Year award",
      "howto": "You will need to have one of your players selected in the Team Of The Year award"
    },
    {
      "id": 48,
      "imageId": 48,
      "cred": 5,
      "flags": 4,
      "label": "Player Of The Year Award",
      "description": "You have inspired one of your players to win a European Player Of The Year award",
      "howto": "You will need to get one of your players to win a European Player Of The Year award"
    },
    {
      "id": 49,
      "imageId": 49,
      "cred": 5,
      "flags": 4,
      "label": "Manager Of The Month",
      "description": "You have won a Manager Of The Month award",
      "howto": "You will need to win a Manager Of The Month award to unlock this achievement"
    },
    {
      "id": 50,
      "imageId": 50,
      "cred": 15,
      "flags": 4,
      "label": "Manager Of The Year",
      "description": "You have won a Manager Of The Year award",
      "howto": "You will need to win a Manager Of The Year award to unlock this achievement"
    }
  ]
}