{
  "achievementsPossible": 12,
  "credPossible": 200,
  "achievements": [
    {
      "id": 3,
      "imageId": 1,
      "cred": 15,
      "flags": 4,
      "label": "Beat The Developers",
      "description": "Play to the end of the credits",
      "howto": "Play to the end of the credits"
    },
    {
      "id": 4,
      "imageId": 2,
      "cred": 15,
      "flags": 4,
      "label": "Golden Harvest",
      "description": "Achieve gold in all time trials",
      "howto": "Achieve gold in all time trials"
    },
    {
      "id": 5,
      "imageId": 3,
      "cred": 5,
      "flags": 4,
      "label": "Double Take",
      "description": "Kill 2 enemies in a single hit",
      "howto": "Kill 2 enemies in a single hit"
    },
    {
      "id": 6,
      "imageId": 4,
      "cred": 15,
      "flags": 4,
      "label": "Zen Master",
      "description": "Unleash the perfect Zen",
      "howto": "Unleash the perfect Zen"
    },
    {
      "id": 7,
      "imageId": 5,
      "cred": 15,
      "flags": 4,
      "label": "Dragon Lord",
      "description": "Achieve dragon rank",
      "howto": "Achieve dragon rank"
    },
    {
      "id": 8,
      "imageId": 6,
      "cred": 20,
      "flags": 4,
      "label": "No Heals",
      "description": "Beat a level without meditating",
      "howto": "Beat a level without meditating"
    },
    {
      "id": 9,
      "imageId": 7,
      "cred": 20,
      "flags": 4,
      "label": "Overkill",
      "description": "Score 100,000 in a single kill",
      "howto": "Score 100,000 in a single kill"
    },
    {
      "id": 10,
      "imageId": 8,
      "cred": 10,
      "flags": 4,
      "label": "No Warriors Hurt During Filming",
      "description": "Kill no stone warriors",
      "howto": "Kill no stone warriors"
    },
    {
      "id": 11,
      "imageId": 9,
      "cred": 15,
      "flags": 4,
      "label": "Float Like A Butterfly",
      "description": "Perform 200 dodges",
      "howto": "Perform 200 dodges"
    },
    {
      "id": 12,
      "imageId": 10,
      "cred": 15,
      "flags": 4,
      "label": "Sting Like A Bee",
      "description": "Use Smart Bomb on every level",
      "howto": "Use Smart Bomb on every level"
    },
    {
      "id": 13,
      "imageId": 11,
      "cred": 30,
      "flags": 4,
      "label": "Kick The Bucket",
      "description": "Kick 100 buckets!",
      "howto": "Kick 100 buckets!"
    },
    {
      "id": 14,
      "imageId": 12,
      "cred": 25,
      "flags": 4,
      "label": "Terracotta Army",
      "description": "Defeat 10,000 enemies",
      "howto": "Defeat 10,000 enemies"
    }
  ]
}