{
  "achievementsPossible": 12,
  "credPossible": 200,
  "achievements": [
    {
      "id": 24,
      "imageId": 11,
      "cred": 10,
      "flags": 1,
      "label": "Fish Upgrade",
      "description": "Awarded for your first fish upgrade in the single player story mode",
      "howto": "Complete all of Boris' Story Mode levels to unlock your first fish upgrade"
    },
    {
      "id": 25,
      "imageId": 9,
      "cred": 15,
      "flags": 1,
      "label": "Full Tank",
      "description": "Awarded for unlocking all Fish Upgrades in the single player story mode",
      "howto": "Keep playing!"
    },
    {
      "id": 26,
      "imageId": 10,
      "cred": 25,
      "flags": 1,
      "label": "The Intruder",
      "description": "Awarded for defeating the Intruder and completing the single player story mode",
      "howto": "Defeat the Intruder!"
    },
    {
      "id": 27,
      "imageId": 12,
      "cred": 15,
      "flags": 1,
      "label": "Frenzyfest Master",
      "description": "Awarded for coming first in a Frenzyfest",
      "howto": "Come first in a Frenzyfest Tournament"
    },
    {
      "id": 28,
      "imageId": 1,
      "cred": 25,
      "flags": 1,
      "label": "Well Fed Fish",
      "description": "Awarded for eating 5000 fish",
      "howto": "Accumulate 5000 fish in your food bank"
    },
    {
      "id": 29,
      "imageId": 3,
      "cred": 20,
      "flags": 1,
      "label": "Fast Food",
      "description": "Awarded for chomping through Time Attack!",
      "howto": "Complete Time Attack!"
    },
    {
      "id": 30,
      "imageId": 2,
      "cred": 15,
      "flags": 1,
      "label": "Life of the Party",
      "description": "Awarded for accumulating 1000 Party Points in Party Games",
      "howto": "Compete in Party Games to accumulate 1000 Party Points"
    },
    {
      "id": 31,
      "imageId": 6,
      "cred": 5,
      "flags": 1,
      "label": "Mega Frenzy",
      "description": "Awarded for reaching the maximum FRENZY multiplier in a single player game",
      "howto": "Rapidly eat fish to max out the FRENZY meter in a single player game"
    },
    {
      "id": 32,
      "imageId": 7,
      "cred": 10,
      "flags": 1,
      "label": "Well Defended",
      "description": "Awarded for accumulating 3 simultaneous fish shields",
      "howto": "Accumulate three simultaneous fish shields"
    },
    {
      "id": 33,
      "imageId": 4,
      "cred": 25,
      "flags": 1,
      "label": "Barracuda Bully",
      "description": "Awarded for completing a 'Barracuda Bonus'",
      "howto": "Score a 'Barracuda Bonus' by biting a barracuda's tail four times in a row"
    },
    {
      "id": 34,
      "imageId": 8,
      "cred": 20,
      "flags": 1,
      "label": "School Teacher",
      "description": "Awarded for consuming 500 schools or swarms",
      "howto": "Eat 500 entire schools of fish, or swarms of bugs"
    },
    {
      "id": 35,
      "imageId": 5,
      "cred": 15,
      "flags": 1,
      "label": "Flippin' Good Time",
      "description": "Awarded for completing a Quadruple Flip",
      "howto": "Complete a Quadruple Flip"
    }
  ]
}