{
  "achievementsPossible": 21,
  "credPossible": 1000,
  "achievements": [
    {
      "id": 4,
      "imageId": 14,
      "cred": 15,
      "flags": 3,
      "label": "Washington Tutorial Complete",
      "description": "Completed the Washington Tutorial",
      "howto": "Complete the Washington Tutorial."
    },
    {
      "id": 5,
      "imageId": 1,
      "cred": 25,
      "flags": 3,
      "label": "Unlocked Georgia",
      "description": "Unlocked Georgia",
      "howto": "Earn 1000 Reputation in Washington."
    },
    {
      "id": 6,
      "imageId": 15,
      "cred": 25,
      "flags": 3,
      "label": "Unlocked Wyoming",
      "description": "Unlocked Wyoming",
      "howto": "Earn 1200 Reputation in Georgia."
    },
    {
      "id": 7,
      "imageId": 7,
      "cred": 25,
      "flags": 3,
      "label": "Unlocked Maine",
      "description": "Unlocked Maine",
      "howto": "Earn 1200 Reputation in Wyoming."
    },
    {
      "id": 8,
      "imageId": 9,
      "cred": 25,
      "flags": 3,
      "label": "Unlocked Missouri",
      "description": "Unlocked Missouri",
      "howto": "Earn 1400 Reputation in Maine."
    },
    {
      "id": 10,
      "imageId": 10,
      "cred": 25,
      "flags": 3,
      "label": "Unlocked New Mexico",
      "description": "Unlocked New Mexico",
      "howto": "Earn 1400 Reputation in Missouri."
    },
    {
      "id": 11,
      "imageId": 8,
      "cred": 25,
      "flags": 3,
      "label": "Unlocked Minnesota",
      "description": "Unlocked Minnesota",
      "howto": "Earn 1600 Reputation in New Mexico."
    },
    {
      "id": 15,
      "imageId": 3,
      "cred": 25,
      "flags": 3,
      "label": "Unlocked Florida",
      "description": "Unlocked Florida",
      "howto": "Earn 1600 Reputation in Minnesota."
    },
    {
      "id": 17,
      "imageId": 16,
      "cred": 40,
      "flags": 3,
      "label": "Unlocked Alberta",
      "description": "Unlocked Alberta",
      "howto": "Earn 1800 Reputation in Florida."
    },
    {
      "id": 28,
      "imageId": 2,
      "cred": 40,
      "flags": 3,
      "label": "Unlocked Alaska",
      "description": "Unlocked Alaska",
      "howto": "Earn 2000 Reputation in Alberta."
    },
    {
      "id": 29,
      "imageId": 20,
      "cred": 50,
      "flags": 1,
      "label": "Tournament Complete",
      "description": "Complete the Tournament",
      "howto": "Earn 2000 Reputation in Alaska to complete the Tournament."
    },
    {
      "id": 30,
      "imageId": 17,
      "cred": 50,
      "flags": 1,
      "label": "Bass Pro",
      "description": "Completed the Tournament in Bass Pro mode",
      "howto": "Complete the Tournament in Bass Pro mode."
    },
    {
      "id": 31,
      "imageId": 11,
      "cred": 25,
      "flags": 4,
      "label": "One Hit Wonder",
      "description": "25 Instant Kills in Career Mode",
      "howto": "Kill 25 animals with one shot, excluding Turkeys, Raccoons, Ducks and Rabbits."
    },
    {
      "id": 32,
      "imageId": 13,
      "cred": 50,
      "flags": 4,
      "label": "Sharp Shooter",
      "description": "Score over 1200 points in Indoor Target Range",
      "howto": "Score over 1200 points in the Indoor Target Range."
    },
    {
      "id": 33,
      "imageId": 12,
      "cred": 50,
      "flags": 4,
      "label": "Rock'n Railer",
      "description": "Score over 1000 points in Forest Frenzy minigame",
      "howto": "Score over 1000 points in the Forest Frenzy minigame."
    },
    {
      "id": 34,
      "imageId": 5,
      "cred": 75,
      "flags": 4,
      "label": "Landmark'd",
      "description": "Found all Exploration Points",
      "howto": "Find all Exploration Points in one career."
    },
    {
      "id": 35,
      "imageId": 18,
      "cred": 80,
      "flags": 1,
      "label": "Podium Finisher",
      "description": "Finished the Tournament in the top 3",
      "howto": "Finish the Tournament in the top 3."
    },
    {
      "id": 36,
      "imageId": 6,
      "cred": 100,
      "flags": 4,
      "label": "Legendary Hunter",
      "description": "Claimed all legendary animals",
      "howto": "Claim one of each legendary animal in one career."
    },
    {
      "id": 37,
      "imageId": 4,
      "cred": 100,
      "flags": 4,
      "label": "King of Hunters",
      "description": "Claimed  all King of Bucks",
      "howto": "Claim one of each King of Bucks in one career."
    },
    {
      "id": 38,
      "imageId": 19,
      "cred": 100,
      "flags": 4,
      "label": "Tournament Champion",
      "description": "Finished First in the Tournament",
      "howto": "Finish first in the Tournament."
    },
    {
      "id": 39,
      "imageId": 21,
      "cred": 50,
      "flags": 4,
      "label": "Hot Shot",
      "description": "Beat BlindFire.",
      "howto": "Complete BlindFire Round 3 Wave 10."
    }
  ]
}