{
  "avatarAssetsPossible": 15,
  "maleAvatarAssetsPossible": 6,
  "femaleAvatarAssetsPossible": 6,
  "avatarAssets": [
    {
      "id": "00000ab8-000b-f1b1-ca3f-3b544d5308bc",
      "imageId": 3,
      "subcategory": 0,
      "unknown": 0,
      "isMale": true,
      "isFemale": false,
      "isUnisex": false,
      "label": "Green Agent Suit",
      "description": "A special, Level 5 Agent suit. Big, mean, and green.",
      "howto": "(Toy Box Add-on only) Complete ‘Rocketeer.’"
    },
    {
      "id": "00000ab8-000b-d102-c576-f6a54d5308bc",
      "imageId": 2,
      "subcategory": 0,
      "unknown": 2015221016,
      "isMale": false,
      "isFemale": true,
      "isUnisex": false,
      "label": "Green Agent Suit",
      "description": "A special, Level 5 Agent suit. Big, mean, and green.",
      "howto": "(Toy Box Add-on only) Complete ‘Rocketeer.’"
    },
    {
      "id": "00000544-000c-e123-c0ed-32a04d5308bc",
      "imageId": 4,
      "subcategory": 0,
      "unknown": 2015221016,
      "isMale": false,
      "isFemale": false,
      "isUnisex": true,
      "label": "Green Agent Helmet",
      "description": "A special, Level 5 Agent helmet. Big, mean, and green.",
      "howto": "(Toy Box Add-on only) Thank you for buying!"
    },
    {
      "id": "00000ab8-000d-a1d1-c561-baee4d5308bc",
      "imageId": 6,
      "subcategory": 0,
      "unknown": 2015221016,
      "isMale": true,
      "isFemale": false,
      "isUnisex": false,
      "label": "PVP Agent Suit",
      "description": "Red, like the spilled blood of your opponents!",
      "howto": "(Deluge Add-on only) Complete ‘15 Minutes Of Maim.’"
    },
    {
      "id": "00000ab8-000d-3152-cbb8-f4da4d5308bc",
      "imageId": 5,
      "subcategory": 0,
      "unknown": 2015221016,
      "isMale": false,
      "isFemale": true,
      "isUnisex": false,
      "label": "PVP Agent Suit",
      "description": "Red, like the spilled blood of your opponents!",
      "howto": "(Deluge Add-on only) Complete ‘15 Minutes Of Maim.’"
    },
    {
      "id": "00000544-000e-5163-c613-e68f4d5308bc",
      "imageId": 7,
      "subcategory": 0,
      "unknown": 2015221016,
      "isMale": false,
      "isFemale": false,
      "isUnisex": true,
      "label": "PVP Agent Helmet",
      "description": "Red, like the spilled blood of your opponents!",
      "howto": "(Deluge Add-on only) Thank you for buying!"
    },
    {
      "id": "00000208-000f-61d1-c018-dc014d5308bc",
      "imageId": 12,
      "subcategory": 0,
      "unknown": 2015221016,
      "isMale": true,
      "isFemale": false,
      "isUnisex": false,
      "label": "Agency Hoodie",
      "description": "Fully endorsed by the Voice of the Agency.",
      "howto": "Complete 'Jack of all Trades.'"
    },
    {
      "id": "00000208-000f-b132-c026-38014d5308bc",
      "imageId": 8,
      "subcategory": 0,
      "unknown": 2015221016,
      "isMale": false,
      "isFemale": true,
      "isUnisex": false,
      "label": "Agency Hoodie",
      "description": "Fully endorsed by the Voice of the Agency.",
      "howto": "Complete 'Jack of all Trades.'"
    },
    {
      "id": "00000020-0010-51b1-c9a5-ecc94d5308bc",
      "imageId": 13,
      "subcategory": 0,
      "unknown": 2015221016,
      "isMale": true,
      "isFemale": false,
      "isUnisex": false,
      "label": "Freak Slippers",
      "description": "Freaky comfort for your feet.",
      "howto": "Complete 'First Hurdle.'"
    },
    {
      "id": "00000020-0010-9112-c240-79914d5308bc",
      "imageId": 9,
      "subcategory": 0,
      "unknown": 2015221016,
      "isMale": false,
      "isFemale": true,
      "isUnisex": false,
      "label": "Freak Slippers",
      "description": "Freaky comfort for your feet.",
      "howto": "Complete 'First Hurdle.'"
    },
    {
      "id": "00000ab8-0011-1121-cba3-b8234d5308bc",
      "imageId": 14,
      "subcategory": 0,
      "unknown": 2015221016,
      "isMale": true,
      "isFemale": false,
      "isUnisex": false,
      "label": "Level 1 Agent Suit",
      "description": "Even an Agent's humble beginnings look thoroughly bad-ass.",
      "howto": "Complete 'Light Bringer.'"
    },
    {
      "id": "00000ab8-0011-f1e2-c53d-f1444d5308bc",
      "imageId": 10,
      "subcategory": 0,
      "unknown": 2015221016,
      "isMale": false,
      "isFemale": true,
      "isUnisex": false,
      "label": "Level 1 Agent Suit",
      "description": "Even an Agent's humble beginnings look thoroughly bad-ass.",
      "howto": "Complete 'Light Bringer.'"
    },
    {
      "id": "00000008-0012-b1d1-ca95-8bfa4d5308bc",
      "imageId": 15,
      "subcategory": 0,
      "unknown": 2015221016,
      "isMale": true,
      "isFemale": false,
      "isUnisex": false,
      "label": "Orb Shirt",
      "description": "You know you want to grab any Orb you find - even if it's only a shirt.",
      "howto": "'First Blood' detected from first game."
    },
    {
      "id": "00000008-0012-5142-c521-b7f24d5308bc",
      "imageId": 11,
      "subcategory": 0,
      "unknown": 2015221016,
      "isMale": false,
      "isFemale": true,
      "isUnisex": false,
      "label": "Orb Shirt",
      "description": "You know you want to grab any Orb you find - even if it's only a shirt.",
      "howto": "'First Blood' detected from first game."
    },
    {
      "id": "00000040-0013-c113-c1dc-f98f4d5308bc",
      "imageId": 16,
      "subcategory": 0,
      "unknown": 2015221016,
      "isMale": false,
      "isFemale": false,
      "isUnisex": true,
      "label": "Ruffian Hat",
      "description": "The official Ruffian Games logo cap.",
      "howto": "Complete 'Hope Springs Savior.'"
    }
  ]
}