{
  "achievementsPossible": 43,
  "credPossible": 1000,
  "achievements": [
    {
      "id": 8,
      "imageId": 1,
      "cred": 30,
      "flags": 6,
      "label": "Police Sergeant",
      "description": "Completed all Bank Robbery missions.",
      "howto": "Complete all Bank Robbery missions."
    },
    {
      "id": 10,
      "imageId": 2,
      "cred": 30,
      "flags": 6,
      "label": "Police Officer",
      "description": "Completed all Crime Spree missions.",
      "howto": "Complete all Crime Spree missions."
    },
    {
      "id": 11,
      "imageId": 3,
      "cred": 30,
      "flags": 6,
      "label": "Police Corporal",
      "description": "Complete all Petty Theft missions.",
      "howto": "Complete all Petty Theft missions."
    },
    {
      "id": 14,
      "imageId": 48,
      "cred": 30,
      "flags": 6,
      "label": "Cold Blooded Super Master",
      "description": "Completed all Connors missions.",
      "howto": "Complete all Connors missions."
    },
    {
      "id": 15,
      "imageId": 52,
      "cred": 30,
      "flags": 6,
      "label": "Deputy",
      "description": "Completed all DeWolfe missions.",
      "howto": "Complete all DeWolfe missions."
    },
    {
      "id": 16,
      "imageId": 8,
      "cred": 10,
      "flags": 4,
      "label": "Frequent Flyer",
      "description": "Collected all Skyscraper tokens.",
      "howto": "Collect all Skyscraper tokens."
    },
    {
      "id": 20,
      "imageId": 11,
      "cred": 20,
      "flags": 4,
      "label": "Splat Master 2007",
      "description": "Splatted into the ground 25 times.",
      "howto": "Splat into the ground 25 times."
    },
    {
      "id": 23,
      "imageId": 15,
      "cred": 30,
      "flags": 6,
      "label": "Police Detective",
      "description": "Completed 25 random city missions.",
      "howto": "Complete 25 random city missions."
    },
    {
      "id": 24,
      "imageId": 16,
      "cred": 30,
      "flags": 6,
      "label": "Police Chief",
      "description": "Completed all combat tours.",
      "howto": "Complete all combat tours."
    },
    {
      "id": 25,
      "imageId": 17,
      "cred": 10,
      "flags": 4,
      "label": "Punk Rocker",
      "description": "Collected all Apocalypse Gang tokens.",
      "howto": "Collect all Apocalypse Gang tokens."
    },
    {
      "id": 26,
      "imageId": 18,
      "cred": 10,
      "flags": 4,
      "label": "Sweet Tooth",
      "description": "Collected all Arsenic Candy tokens.",
      "howto": "Collect all Arsenic Candy tokens."
    },
    {
      "id": 27,
      "imageId": 19,
      "cred": 10,
      "flags": 4,
      "label": "Fire Breather",
      "description": "Collected all Order of the Dragon Tail tokens.",
      "howto": "Collect all Order of the Dragon Tail tokens."
    },
    {
      "id": 28,
      "imageId": 20,
      "cred": 10,
      "flags": 4,
      "label": "Arachnophile",
      "description": "Collected all Secret tokens.",
      "howto": "Collect all Secret tokens."
    },
    {
      "id": 29,
      "imageId": 51,
      "cred": 10,
      "flags": 4,
      "label": "Pied Piper",
      "description": "Collected all Subway tokens.",
      "howto": "Collect all Subway tokens."
    },
    {
      "id": 30,
      "imageId": 50,
      "cred": 20,
      "flags": 4,
      "label": "Hitch Hiker",
      "description": "Rode a car or truck for 5 miles.",
      "howto": "Ride a car or truck for 5 miles."
    },
    {
      "id": 31,
      "imageId": 47,
      "cred": 40,
      "flags": 6,
      "label": "Eddie Brock",
      "description": "Defeated Venom.",
      "howto": "Defeat this nemesis."
    },
    {
      "id": 32,
      "imageId": 46,
      "cred": 30,
      "flags": 6,
      "label": "Flint Marko",
      "description": "Defeated Sandman.",
      "howto": "Defeat this nemesis."
    },
    {
      "id": 33,
      "imageId": 45,
      "cred": 30,
      "flags": 6,
      "label": "Harry Osborn",
      "description": "Defeated New Goblin.",
      "howto": "Defeat this nemesis."
    },
    {
      "id": 34,
      "imageId": 44,
      "cred": 30,
      "flags": 6,
      "label": "Wilson Fisk",
      "description": "Defeated Kingpin.",
      "howto": "Defeat this nemesis."
    },
    {
      "id": 35,
      "imageId": 43,
      "cred": 30,
      "flags": 6,
      "label": "Aleksei Sytsevich",
      "description": "Defeated Rhino.",
      "howto": "Defeat this nemesis."
    },
    {
      "id": 36,
      "imageId": 49,
      "cred": 40,
      "flags": 6,
      "label": "Macdonald Gargan",
      "description": "Rescued Scorpion.",
      "howto": "Rescue this adversary."
    },
    {
      "id": 37,
      "imageId": 42,
      "cred": 30,
      "flags": 6,
      "label": "Sergei Kravinoff",
      "description": "Defeated Kraven.",
      "howto": "Defeat this nemesis."
    },
    {
      "id": 38,
      "imageId": 41,
      "cred": 30,
      "flags": 6,
      "label": "Curtis Connors",
      "description": "Defeated Lizard.",
      "howto": "Defeat this nemesis."
    },
    {
      "id": 39,
      "imageId": 40,
      "cred": 30,
      "flags": 6,
      "label": "Luke Carlyle",
      "description": "Defeated Carlyle.",
      "howto": "Defeat this nemesis."
    },
    {
      "id": 40,
      "imageId": 39,
      "cred": 30,
      "flags": 4,
      "label": "Gold Medal Winner",
      "description": "Got Gold on all trick races.",
      "howto": "Get Gold on all trick races."
    },
    {
      "id": 42,
      "imageId": 37,
      "cred": 20,
      "flags": 4,
      "label": "Silver Finalist",
      "description": "Got at least Silver on all trick races.",
      "howto": "Get at least Silver on all trick races."
    },
    {
      "id": 43,
      "imageId": 36,
      "cred": 20,
      "flags": 4,
      "label": "Bronze Finalist",
      "description": "Got at least Bronze on all trick races.",
      "howto": "Get at least Bronze on all trick races."
    },
    {
      "id": 44,
      "imageId": 35,
      "cred": 20,
      "flags": 4,
      "label": "Trick Novice",
      "description": "Got at least Bronze on all easy trick races.",
      "howto": "Get at least Bronze on all easy trick races."
    },
    {
      "id": 45,
      "imageId": 34,
      "cred": 20,
      "flags": 6,
      "label": "Mary Jane Thriller",
      "description": "Completed all Mary Jane thrill rides.",
      "howto": "Complete all Mary Jane thrill rides."
    },
    {
      "id": 46,
      "imageId": 33,
      "cred": 20,
      "flags": 4,
      "label": "Bomb Squad",
      "description": "Got at least Bronze on all bomb tours.",
      "howto": "Get at least Bronze on all bomb tours."
    },
    {
      "id": 48,
      "imageId": 31,
      "cred": 10,
      "flags": 4,
      "label": "Mega Tourist",
      "description": "Took a photograph from the tallest building in the city.",
      "howto": "Take a photograph from a great height."
    },
    {
      "id": 49,
      "imageId": 30,
      "cred": 20,
      "flags": 4,
      "label": "Master Tourist",
      "description": "Took a 500-point photograph.",
      "howto": "Take a 500-point photograph."
    },
    {
      "id": 50,
      "imageId": 29,
      "cred": 20,
      "flags": 6,
      "label": "Shutterbug",
      "description": "Completed all Daily Bugle photo missions.",
      "howto": "Complete all Daily Bugle photo missions."
    },
    {
      "id": 51,
      "imageId": 28,
      "cred": 20,
      "flags": 4,
      "label": "Web Slinger",
      "description": "Webbed up 25 enemies.",
      "howto": "Web up 25 enemies."
    },
    {
      "id": 52,
      "imageId": 21,
      "cred": 20,
      "flags": 4,
      "label": "Fast Swinger",
      "description": "Swung at the maximum swing speed of 200 miles per hour.",
      "howto": "Swing at 200 miles per hour."
    },
    {
      "id": 53,
      "imageId": 22,
      "cred": 10,
      "flags": 4,
      "label": "Pole Swinger",
      "description": "Swung on 50 poles.",
      "howto": "Swing on 50 poles."
    },
    {
      "id": 55,
      "imageId": 24,
      "cred": 50,
      "flags": 1,
      "label": "Spider-Man",
      "description": "Completed all missions.",
      "howto": "Complete all missions."
    },
    {
      "id": 56,
      "imageId": 25,
      "cred": 10,
      "flags": 4,
      "label": "Collateral Damage",
      "description": "Destroyed 25 objects.",
      "howto": "Destroy 25 objects."
    },
    {
      "id": 57,
      "imageId": 26,
      "cred": 20,
      "flags": 3,
      "label": "A Dark Reward",
      "description": "Unlocked Black-Suited Spider-Man.",
      "howto": "Secret Achievement"
    },
    {
      "id": 60,
      "imageId": 21,
      "cred": 20,
      "flags": 4,
      "label": "Web Swinger",
      "description": "Swung a total of 10 miles.",
      "howto": "Swing a total of 10 miles."
    },
    {
      "id": 61,
      "imageId": 13,
      "cred": 20,
      "flags": 4,
      "label": "Master Web Swinger",
      "description": "Swung a total of 50 miles.",
      "howto": "Swing a total of 50 miles."
    },
    {
      "id": 62,
      "imageId": 21,
      "cred": 30,
      "flags": 4,
      "label": "Mega Web Swinger",
      "description": "Swung a total of 200 miles.",
      "howto": "Swing a total of 200 miles."
    },
    {
      "id": 63,
      "imageId": 35,
      "cred": 20,
      "flags": 4,
      "label": "Intermediate Racer",
      "description": "Got at least Bronze on all easy and medium trick races.",
      "howto": "Get at least Bronze on all easy and medium trick races."
    }
  ]
}