{
  "achievementsPossible": 58,
  "credPossible": 1200,
  "achievements": [
    {
      "id": 1,
      "imageId": 1,
      "cred": 20,
      "flags": 6,
      "label": "Escape from Kamino",
      "description": "Escape Kamino in Vader's TIE Advanced.",
      "howto": "Escape Kamino in Vader's TIE Advanced."
    },
    {
      "id": 2,
      "imageId": 2,
      "cred": 20,
      "flags": 6,
      "label": "The Nemesis in Flames",
      "description": "Destroy the Gunship.",
      "howto": "Destroy the Gunship."
    },
    {
      "id": 3,
      "imageId": 3,
      "cred": 20,
      "flags": 6,
      "label": "Bring Down the Giant",
      "description": "Defeat the Gorog.",
      "howto": "Defeat the Gorog."
    },
    {
      "id": 4,
      "imageId": 4,
      "cred": 20,
      "flags": 6,
      "label": "The Exterminator",
      "description": "Defeat the Terror Walker.",
      "howto": "Defeat the Terror Walker."
    },
    {
      "id": 5,
      "imageId": 5,
      "cred": 20,
      "flags": 6,
      "label": "Crack the Sky",
      "description": "Destroy the Star Destroyer.",
      "howto": "Destroy the Star Destroyer."
    },
    {
      "id": 6,
      "imageId": 6,
      "cred": 20,
      "flags": 6,
      "label": "Meeting of the Jedi",
      "description": "Reunite with Kota.",
      "howto": "Reunite with Kota."
    },
    {
      "id": 7,
      "imageId": 7,
      "cred": 20,
      "flags": 1,
      "label": "Betrayed By Rage",
      "description": "Complete the game and choose the Dark Side ending.",
      "howto": "Complete the game and choose the Dark Side ending."
    },
    {
      "id": 8,
      "imageId": 8,
      "cred": 50,
      "flags": 1,
      "label": "Padawan",
      "description": "Complete the game on Easy difficulty.",
      "howto": "Complete the game on Easy difficulty."
    },
    {
      "id": 9,
      "imageId": 9,
      "cred": 50,
      "flags": 1,
      "label": "Jedi Master",
      "description": "Complete the game on Hard difficulty.",
      "howto": "Complete the game on Hard difficulty."
    },
    {
      "id": 10,
      "imageId": 10,
      "cred": 20,
      "flags": 1,
      "label": "A Measure of Mercy",
      "description": "Complete the game and choose the Light Side ending.",
      "howto": "Complete the game and choose the Light Side ending."
    },
    {
      "id": 11,
      "imageId": 11,
      "cred": 50,
      "flags": 1,
      "label": "Jedi Knight",
      "description": "Complete the game on Medium difficulty.",
      "howto": "Complete the game on Medium difficulty."
    },
    {
      "id": 12,
      "imageId": 12,
      "cred": 50,
      "flags": 1,
      "label": "Jedi Grand Master",
      "description": "Complete the game on Unleashed difficulty.",
      "howto": "Complete the game on Unleashed difficulty."
    },
    {
      "id": 13,
      "imageId": 13,
      "cred": 10,
      "flags": 2,
      "label": "Amplified",
      "description": "Kill 10 enemies with the lightning towers.",
      "howto": "Kill 10 enemies with the lightning towers."
    },
    {
      "id": 14,
      "imageId": 14,
      "cred": 10,
      "flags": 2,
      "label": "Kamfetti",
      "description": "Kill 5 enemies with the fans on Kamino.",
      "howto": "Kill 5 enemies with the fans on Kamino."
    },
    {
      "id": 15,
      "imageId": 15,
      "cred": 10,
      "flags": 4,
      "label": "Imperial Painball",
      "description": "Throw 10 enemies into the Kamino generators.",
      "howto": "Throw 10 enemies into the Kamino generators."
    },
    {
      "id": 16,
      "imageId": 16,
      "cred": 10,
      "flags": 4,
      "label": "Droid Rage",
      "description": "Control the Terror Walker and destroy all the Terror Biodroids.",
      "howto": "Control the Terror Walker and destroy all the Terror Biodroids."
    },
    {
      "id": 17,
      "imageId": 17,
      "cred": 10,
      "flags": 4,
      "label": "Strike!",
      "description": "Kill three enemies with a single ‘bowling’ ball.",
      "howto": "Kill three enemies with a single ‘bowling’ ball."
    },
    {
      "id": 18,
      "imageId": 18,
      "cred": 10,
      "flags": 4,
      "label": "Shattered",
      "description": "Shatter 10 enemies frozen in carbonite.",
      "howto": "Shatter 10 enemies frozen in carbonite."
    },
    {
      "id": 19,
      "imageId": 19,
      "cred": 10,
      "flags": 4,
      "label": "Break the Bank",
      "description": "Smash up 10 game machines.",
      "howto": "Smash up 10 game machines."
    },
    {
      "id": 20,
      "imageId": 20,
      "cred": 10,
      "flags": 4,
      "label": "Valet",
      "description": "Use Vader's TIE Advanced to destroy the AT-MP.",
      "howto": "Use Vader's TIE Advanced to destroy the AT-MP."
    },
    {
      "id": 21,
      "imageId": 21,
      "cred": 10,
      "flags": 4,
      "label": "Stay On Target…",
      "description": "Get to the falling Gorog without crashing into any debris.",
      "howto": "Get to the falling Gorog without crashing into any debris."
    },
    {
      "id": 22,
      "imageId": 22,
      "cred": 10,
      "flags": 4,
      "label": "Master of Disaster",
      "description": "Break all of the coolant tanks aboard the Salvation without dying.",
      "howto": "Break all of the coolant tanks aboard the Salvation without dying."
    },
    {
      "id": 23,
      "imageId": 23,
      "cred": 10,
      "flags": 4,
      "label": "Stakross Medal of Excellence",
      "description": "Destroy 12 lightning pylons on the Kamino dive.",
      "howto": "Destroy 12 lightning pylons on the Kamino dive."
    },
    {
      "id": 24,
      "imageId": 24,
      "cred": 10,
      "flags": 4,
      "label": "Jedi Bomb Squad",
      "description": "Remove all of the Terror Spider Bombs on the Salvation.",
      "howto": "Remove all of the Terror Spider Bombs on the Salvation."
    },
    {
      "id": 25,
      "imageId": 25,
      "cred": 10,
      "flags": 4,
      "label": "“No match for a good blaster...”",
      "description": "Kill 10 enemies using the turbolasers on the Kamino Drill Grounds.",
      "howto": "Kill 10 enemies using the turbolasers on the Kamino Drill Grounds."
    },
    {
      "id": 26,
      "imageId": 26,
      "cred": 10,
      "flags": 4,
      "label": "Top of the World",
      "description": "Reach the top of the Spire without falling once.",
      "howto": "Reach the top of the Spire without falling once."
    },
    {
      "id": 27,
      "imageId": 27,
      "cred": 30,
      "flags": 4,
      "label": "Champion",
      "description": "Complete the first ten challenges with at least a Gold medal in each.",
      "howto": "Complete the first ten challenges with at least a Gold medal in each."
    },
    {
      "id": 28,
      "imageId": 28,
      "cred": 30,
      "flags": 4,
      "label": "Rookie",
      "description": "Complete the first ten challenges with at least a Bronze medal in each.",
      "howto": "Complete the first ten challenges with at least a Bronze medal in each."
    },
    {
      "id": 29,
      "imageId": 29,
      "cred": 10,
      "flags": 4,
      "label": "Challenger",
      "description": "Complete one challenge and receive at least a Bronze medal.",
      "howto": "Complete one challenge and receive at least a Bronze medal."
    },
    {
      "id": 30,
      "imageId": 30,
      "cred": 30,
      "flags": 4,
      "label": "Hat Trick ",
      "description": "Get a Gold medal on any 3 challenges.",
      "howto": "Get a Gold medal on any 3 challenges."
    },
    {
      "id": 31,
      "imageId": 31,
      "cred": 30,
      "flags": 4,
      "label": "Platinum",
      "description": "Get a Platinum medal on any challenge.",
      "howto": "Get a Platinum medal on any challenge."
    },
    {
      "id": 32,
      "imageId": 32,
      "cred": 20,
      "flags": 4,
      "label": "Competitor",
      "description": "Get a Silver medal on any 5 challenges.",
      "howto": "Get a Silver medal on any 5 challenges."
    },
    {
      "id": 33,
      "imageId": 33,
      "cred": 10,
      "flags": 4,
      "label": "Unleashed",
      "description": "Activate Force Fury 10 times.",
      "howto": "Activate Force Fury 10 times."
    },
    {
      "id": 34,
      "imageId": 34,
      "cred": 10,
      "flags": 4,
      "label": "Enjoy The Trip See You Next Fall",
      "description": "Cause 50 enemies to fall to their deaths. ",
      "howto": "Cause 50 enemies to fall to their deaths. "
    },
    {
      "id": 35,
      "imageId": 35,
      "cred": 30,
      "flags": 4,
      "label": "Maxed Out",
      "description": "Upgrade all Force Powers to Rank 3.",
      "howto": "Upgrade all Force Powers to Rank 3."
    },
    {
      "id": 36,
      "imageId": 36,
      "cred": 20,
      "flags": 4,
      "label": "Use the Force, Luke",
      "description": "Complete any combat level using only Force Powers.",
      "howto": "Complete any combat level using only Force Powers."
    },
    {
      "id": 37,
      "imageId": 37,
      "cred": 20,
      "flags": 4,
      "label": "Lucky Streak",
      "description": "Defeat 300 consecutive enemies without dying.",
      "howto": "Defeat 300 consecutive enemies without dying."
    },
    {
      "id": 38,
      "imageId": 38,
      "cred": 20,
      "flags": 4,
      "label": "Sky Killer",
      "description": "Destroy 15 TIE Fighters.",
      "howto": "Destroy 15 TIE Fighters."
    },
    {
      "id": 39,
      "imageId": 39,
      "cred": 20,
      "flags": 4,
      "label": "Arachnophobia",
      "description": "Destroy 200 Terror Spider Droids.",
      "howto": "Destroy 200 Terror Spider Droids."
    },
    {
      "id": 40,
      "imageId": 40,
      "cred": 20,
      "flags": 4,
      "label": "It Burns!",
      "description": "Disintegrate 15 enemies by throwing them into red force fields.",
      "howto": "Disintegrate 15 enemies by throwing them into red force fields."
    },
    {
      "id": 41,
      "imageId": 41,
      "cred": 20,
      "flags": 4,
      "label": "Pied Piper",
      "description": "Entice 10 Stormtroopers to leap to their deaths with Mind Trick.",
      "howto": "Entice 10 Stormtroopers to leap to their deaths with Mind Trick."
    },
    {
      "id": 42,
      "imageId": 42,
      "cred": 40,
      "flags": 4,
      "label": "Holocron Hunter",
      "description": "Find every holocron.",
      "howto": "Find every holocron."
    },
    {
      "id": 43,
      "imageId": 43,
      "cred": 10,
      "flags": 4,
      "label": "Poor Bob",
      "description": "Force Grip a Stormtrooper, impale him, zap him with Lightning, then throw him into an object.",
      "howto": "Force Grip a Stormtrooper, impale him, zap him with Lightning, then throw him into an object."
    },
    {
      "id": 44,
      "imageId": 44,
      "cred": 20,
      "flags": 4,
      "label": "Return to Sender",
      "description": "Kill an AT-MP by gripping its own missiles and throwing them back.",
      "howto": "Kill an AT-MP by gripping its own missiles and throwing them back."
    },
    {
      "id": 45,
      "imageId": 45,
      "cred": 20,
      "flags": 4,
      "label": "Up, Up and Away",
      "description": "Overload 20 Jumptrooper jet packs.",
      "howto": "Overload 20 Jumptrooper jet packs."
    },
    {
      "id": 46,
      "imageId": 46,
      "cred": 20,
      "flags": 4,
      "label": "Passive Aggressive",
      "description": "Parry and counter 10 melee attacks.",
      "howto": "Parry and counter 10 melee attacks."
    },
    {
      "id": 47,
      "imageId": 47,
      "cred": 30,
      "flags": 4,
      "label": "Awww Yeah…",
      "description": "Perform every combat move in the game (excluding combos that require Rank 3 Saber).",
      "howto": "Perform every combat move in the game (excluding combos that require Rank 3 Saber)."
    },
    {
      "id": 48,
      "imageId": 48,
      "cred": 20,
      "flags": 4,
      "label": "To the Face!",
      "description": "Reflect 20 missiles back at AT-MPs.",
      "howto": "Reflect 20 missiles back at AT-MPs."
    },
    {
      "id": 49,
      "imageId": 49,
      "cred": 10,
      "flags": 4,
      "label": "Specialist",
      "description": "Upgrade one Power to Rank 3.",
      "howto": "Upgrade one Power to Rank 3."
    },
    {
      "id": 50,
      "imageId": 50,
      "cred": 10,
      "flags": 4,
      "label": "Fully Charged",
      "description": "Use an entire bar of Force power on a Lightning attack.",
      "howto": "Use an entire bar of Force power on a Lightning attack."
    },
    {
      "id": 51,
      "imageId": 51,
      "cred": 25,
      "flags": 4,
      "label": "Yub Yub",
      "description": "Complete the level defeating 20 Ewoks or more.",
      "howto": "Complete the level defeating 20 Ewoks or more."
    },
    {
      "id": 52,
      "imageId": 52,
      "cred": 20,
      "flags": 4,
      "label": "Returning the favor",
      "description": "Defeat a grenadier with his own grenade.",
      "howto": "Defeat a grenadier with his own grenade."
    },
    {
      "id": 53,
      "imageId": 53,
      "cred": 30,
      "flags": 4,
      "label": "One with the Force",
      "description": "Complete Endor without dying.",
      "howto": "Complete Endor without dying."
    },
    {
      "id": 54,
      "imageId": 54,
      "cred": 10,
      "flags": 4,
      "label": "Sith Kicker",
      "description": "Drop kick 10 Ewoks.",
      "howto": "Drop kick 10 Ewoks."
    },
    {
      "id": 55,
      "imageId": 55,
      "cred": 30,
      "flags": 4,
      "label": "Holocron Hunter",
      "description": "Find all the holocrons in Endor.",
      "howto": "Find all the holocrons in Endor."
    },
    {
      "id": 56,
      "imageId": 56,
      "cred": 40,
      "flags": 1,
      "label": "Never Tell me the Odds",
      "description": "Complete Endor on UNLEASHED difficulty.",
      "howto": "Complete Endor on UNLEASHED difficulty."
    },
    {
      "id": 57,
      "imageId": 57,
      "cred": 30,
      "flags": 1,
      "label": "Victory!",
      "description": "Complete Endor.",
      "howto": "Complete Endor."
    },
    {
      "id": 58,
      "imageId": 58,
      "cred": 15,
      "flags": 4,
      "label": "Don’t let the Wookiee win",
      "description": "Defeat Han and Chewie.",
      "howto": "Defeat Han and Chewie."
    }
  ]
}