{
  "achievementsPossible": 49,
  "credPossible": 1000,
  "achievements": [
    {
      "id": 2,
      "imageId": 1,
      "cred": 10,
      "flags": 4,
      "label": "Be a Rookie",
      "description": "Win your first race",
      "howto": "Win your first race"
    },
    {
      "id": 3,
      "imageId": 2,
      "cred": 15,
      "flags": 4,
      "label": "Transmission Wizard",
      "description": "Win a race using manual transmission with opponents at Professional or Real level",
      "howto": "Win a race using manual transmission with opponents at Professional or Real level"
    },
    {
      "id": 4,
      "imageId": 3,
      "cred": 15,
      "flags": 4,
      "label": "Simulation Wizard",
      "description": "Win a race in extreme simulation mode with opponents at Professional or Real level",
      "howto": "Win a race in extreme simulation mode with opponents at Professional or Real level"
    },
    {
      "id": 5,
      "imageId": 4,
      "cred": 10,
      "flags": 4,
      "label": "Who Needs Wheels?",
      "description": "Perform at least 10 seconds of wheelies and win the race",
      "howto": "Perform at least 10 seconds of wheelies and win the race"
    },
    {
      "id": 6,
      "imageId": 5,
      "cred": 15,
      "flags": 4,
      "label": "King of Assen",
      "description": "Win a race on Assen with less than a 3 second gap at Professional or Real",
      "howto": "Win a race on Assen with less than a 3 second gap at Professional or Real"
    },
    {
      "id": 10,
      "imageId": 7,
      "cred": 10,
      "flags": 4,
      "label": "Tires are Expensive",
      "description": "Win a race with tyre wear activated and with a minimum waste of tires",
      "howto": "Win a race with tyre wear activated and with a minimum waste of tires"
    },
    {
      "id": 11,
      "imageId": 8,
      "cred": 10,
      "flags": 4,
      "label": "Back to my First Love",
      "description": "Win a race at least at professional difficulty level using Max Biaggi and his Aprilia",
      "howto": "Win a race at least at professional difficulty level using Max Biaggi and his Aprilia"
    },
    {
      "id": 12,
      "imageId": 9,
      "cred": 10,
      "flags": 4,
      "label": "Milestone Best Friend",
      "description": "Win a race at Misano Adriatico using Luca Scassa",
      "howto": "Win a race at Misano Adriatico using Luca Scassa"
    },
    {
      "id": 13,
      "imageId": 10,
      "cred": 10,
      "flags": 7,
      "label": "Telemetry Expert",
      "description": "Compare two telemetries",
      "howto": "Compare two telemetries"
    },
    {
      "id": 14,
      "imageId": 11,
      "cred": 10,
      "flags": 4,
      "label": "Somebody Will Be Quite Angry Now",
      "description": "Win a race with a gap of less than 1\" from second place",
      "howto": "Win a race with a gap of less than 1\" from second place"
    },
    {
      "id": 15,
      "imageId": 12,
      "cred": 10,
      "flags": 4,
      "label": "Despite bad luck",
      "description": "Win a race with a heavily damaged bike",
      "howto": "Win a race with a heavily damaged bike"
    },
    {
      "id": 16,
      "imageId": 13,
      "cred": 10,
      "flags": 4,
      "label": "Impossible Comeback",
      "description": "Win a quick race starting from last position at Professional difficulty level",
      "howto": "Win a quick race starting from last position at Professional difficulty level"
    },
    {
      "id": 18,
      "imageId": 15,
      "cred": 10,
      "flags": 4,
      "label": "Italy Rules the World",
      "description": "Win a race with all the Italian riders",
      "howto": "Win a race with all the Italian riders"
    },
    {
      "id": 19,
      "imageId": 16,
      "cred": 10,
      "flags": 4,
      "label": "Turnaround",
      "description": "Win a race performing at least 2 360's",
      "howto": "Win a race performing at least 2 360's"
    },
    {
      "id": 20,
      "imageId": 17,
      "cred": 10,
      "flags": 4,
      "label": "I'm the Wizard",
      "description": "Win a race at Monza using Michel Fabrizio",
      "howto": "Win a race at Monza using Michel Fabrizio"
    },
    {
      "id": 21,
      "imageId": 18,
      "cred": 10,
      "flags": 4,
      "label": "Milk Shake",
      "description": "Damage a Team Sterilgarda bike to the retirement",
      "howto": "Damage a Team Sterilgarda bike to the retirement"
    },
    {
      "id": 22,
      "imageId": 19,
      "cred": 10,
      "flags": 4,
      "label": "Dorifuto Kingu",
      "description": "Win a race performing at least 10 seconds of skids",
      "howto": "Win a race performing at least 10 seconds of skids"
    },
    {
      "id": 23,
      "imageId": 20,
      "cred": 10,
      "flags": 4,
      "label": "The Pirate lands in America",
      "description": "Win a race with Biaggi at Salt Lake City",
      "howto": "Win a race with Biaggi at Salt Lake City"
    },
    {
      "id": 24,
      "imageId": 21,
      "cred": 15,
      "flags": 4,
      "label": "Straight out of the factory",
      "description": "Win a race at Imola using a Ducati Xerox",
      "howto": "Win a race at Imola using a Ducati Xerox"
    },
    {
      "id": 35,
      "imageId": 6,
      "cred": 15,
      "flags": 4,
      "label": "Mr. Crocodile Under the Water",
      "description": "Win a rainy race using Troy Corser",
      "howto": "Win a rainy race using Troy Corser"
    },
    {
      "id": 36,
      "imageId": 14,
      "cred": 15,
      "flags": 4,
      "label": "Living on the Edge",
      "description": "Perform 10 seconds of wheelies and 10 seconds of skids in any game mode",
      "howto": "Perform 10 seconds of wheelies and 10 seconds of skids in any game mode"
    },
    {
      "id": 37,
      "imageId": 22,
      "cred": 10,
      "flags": 4,
      "label": "Out of time",
      "description": "Win a race with a 10 second gap or more from second place",
      "howto": "Win a race with a 10 second gap or more from second place"
    },
    {
      "id": 38,
      "imageId": 23,
      "cred": 30,
      "flags": 7,
      "label": "Someone has to read them now",
      "description": "Watch all credits",
      "howto": "Watch all credits"
    },
    {
      "id": 39,
      "imageId": 24,
      "cred": 20,
      "flags": 4,
      "label": "Teatime",
      "description": "Win at least 5 races at Donington",
      "howto": "Win at least 5 races at Donington"
    },
    {
      "id": 40,
      "imageId": 25,
      "cred": 30,
      "flags": 4,
      "label": "Teamwork",
      "description": "Win at least one race with each of the SBK® teams",
      "howto": "Win at least one race with each of the SBK® teams"
    },
    {
      "id": 41,
      "imageId": 26,
      "cred": 20,
      "flags": 5,
      "label": "Mr. Superpole",
      "description": "Achieve at least 10 Superpoles in the same Single Player championship",
      "howto": "Achieve at least 10 Superpoles in the same Single Player championship"
    },
    {
      "id": 42,
      "imageId": 27,
      "cred": 25,
      "flags": 4,
      "label": "Pure ruler, out of the box",
      "description": "Win on all tracks on-line ",
      "howto": "Win on all tracks on-line "
    },
    {
      "id": 43,
      "imageId": 28,
      "cred": 20,
      "flags": 1,
      "label": "Italian Miracle",
      "description": "Win a Single Player Championship with Pedercini team",
      "howto": "Win a Single Player Championship with Pedercini team"
    },
    {
      "id": 44,
      "imageId": 29,
      "cred": 10,
      "flags": 4,
      "label": "The SBK® Kamikaze",
      "description": "Win at least one race with all the Japanese riders",
      "howto": "Win at least one race with all the Japanese riders"
    },
    {
      "id": 45,
      "imageId": 30,
      "cred": 15,
      "flags": 4,
      "label": "The Prancing Pony",
      "description": "Perform 60 seconds of wheelie and finish at least in fourth position",
      "howto": "Perform 60 seconds of wheelie and finish at least in fourth position"
    },
    {
      "id": 46,
      "imageId": 31,
      "cred": 20,
      "flags": 1,
      "label": "I'm the Star",
      "description": "Win a Single Player championship using the team Suzuki Alstare ",
      "howto": "Win a Single Player championship using the team Suzuki Alstare"
    },
    {
      "id": 47,
      "imageId": 32,
      "cred": 20,
      "flags": 3,
      "label": "Bronze Medal",
      "description": "Win at least a bronze medal in every Scenario",
      "howto": "Win at least a bronze medal in every Scenario"
    },
    {
      "id": 48,
      "imageId": 33,
      "cred": 30,
      "flags": 3,
      "label": "Silver Medal",
      "description": "Win at least a silver medal in every Scenario",
      "howto": "Win at least a silver medal in every Scenario"
    },
    {
      "id": 49,
      "imageId": 34,
      "cred": 40,
      "flags": 4,
      "label": "Tight Rope Walker",
      "description": "Finish 10 races in a row without falling",
      "howto": "Finish 10 races in a row without falling"
    },
    {
      "id": 50,
      "imageId": 35,
      "cred": 30,
      "flags": 1,
      "label": "The championship is on the line",
      "description": "Win an on-line Championship",
      "howto": "Win an on-line Championship"
    },
    {
      "id": 51,
      "imageId": 36,
      "cred": 30,
      "flags": 4,
      "label": "Winning Streak",
      "description": "Win 10 races in a row",
      "howto": "Win 10 races in a row"
    },
    {
      "id": 52,
      "imageId": 37,
      "cred": 40,
      "flags": 4,
      "label": "Pure Ruler",
      "description": "Win on all tracks",
      "howto": "Win on all tracks"
    },
    {
      "id": 53,
      "imageId": 38,
      "cred": 40,
      "flags": 3,
      "label": "Gold Medal",
      "description": "Win at least a gold medal in every Scenario",
      "howto": "Win at least a gold medal in every Scenario"
    },
    {
      "id": 54,
      "imageId": 39,
      "cred": 40,
      "flags": 3,
      "label": "How Cool are my Trophies?",
      "description": "Complete the Cups board",
      "howto": "Complete the Cups board"
    },
    {
      "id": 55,
      "imageId": 40,
      "cred": 40,
      "flags": 7,
      "label": "The True SBK®  Hero",
      "description": "Win at least 3 Single Player championships",
      "howto": "Win at least 3 Single Player championships"
    },
    {
      "id": 56,
      "imageId": 41,
      "cred": 50,
      "flags": 1,
      "label": "Rainbow Decks",
      "description": "Win all the cards of the game decks",
      "howto": "Win all the cards of the game decks"
    },
    {
      "id": 57,
      "imageId": 42,
      "cred": 30,
      "flags": 4,
      "label": "Style Victory",
      "description": "Win a clean race, without falls and shortcuts",
      "howto": "Win a clean race, without falls and shortcuts"
    },
    {
      "id": 58,
      "imageId": 43,
      "cred": 15,
      "flags": 1,
      "label": "Once he was Bayliss",
      "description": "Win a Single Player championship using a Ducati Xerox Team bike",
      "howto": "Win a Single Player championship using a Ducati Xerox Team bike"
    },
    {
      "id": 59,
      "imageId": 44,
      "cred": 35,
      "flags": 1,
      "label": "A True Rider",
      "description": "Win a Single Player championship using the simulation mode",
      "howto": "Win a Single Player championship using the simulation mode"
    },
    {
      "id": 60,
      "imageId": 45,
      "cred": 30,
      "flags": 5,
      "label": "A Perfect Weekend",
      "description": "Get pole position and win race 1 and race 2 in the same Event",
      "howto": "Get pole position and win race 1 and race 2 in the same Event"
    },
    {
      "id": 61,
      "imageId": 46,
      "cred": 20,
      "flags": 4,
      "label": "Victories in 5 continents",
      "description": "Win a race at Phillip Island, Losail, Salt Lake City, Kyalami and Monza",
      "howto": "Win a race at Phillip Island, Losail, Salt Lake City, Kyalami and Monza"
    },
    {
      "id": 63,
      "imageId": 48,
      "cred": 30,
      "flags": 4,
      "label": "Lucky Man",
      "description": "Get 7th place three times in the same Single Player championship",
      "howto": "Get 7th place three times in the same Single Player championship"
    },
    {
      "id": 64,
      "imageId": 49,
      "cred": 25,
      "flags": 4,
      "label": "Unlucky Man",
      "description": "Lose 13 on-line races",
      "howto": "Lose 13 on-line races"
    },
    {
      "id": 65,
      "imageId": 50,
      "cred": 15,
      "flags": 4,
      "label": "I pwn n00bs",
      "description": "Perform a 360 burnout and win an on-line quick race",
      "howto": "Perform a 360 burnout and win an on-line quick race"
    }
  ]
}