{
  "achievementsPossible": 12,
  "credPossible": 200,
  "achievements": [
    {
      "id": 1,
      "imageId": 1,
      "cred": 10,
      "flags": 1,
      "label": "Become a Duelist",
      "description": "Play a single player game",
      "howto": "Play a single player game"
    },
    {
      "id": 2,
      "imageId": 2,
      "cred": 10,
      "flags": 1,
      "label": "First to become a true Duelist",
      "description": "Win a Preliminary Tournament",
      "howto": "Win a Preliminary Tournament"
    },
    {
      "id": 3,
      "imageId": 3,
      "cred": 10,
      "flags": 1,
      "label": "Become a Signer",
      "description": "Defeat Yusei",
      "howto": "Defeat Yusei"
    },
    {
      "id": 4,
      "imageId": 4,
      "cred": 10,
      "flags": 1,
      "label": "Absolute King of the Turbo Duel",
      "description": "Defeat Jack",
      "howto": "Defeat Jack"
    },
    {
      "id": 5,
      "imageId": 5,
      "cred": 10,
      "flags": 1,
      "label": "You have talent!",
      "description": "Save an original Deck Recipe",
      "howto": "Save an original Deck Recipe"
    },
    {
      "id": 6,
      "imageId": 6,
      "cred": 10,
      "flags": 1,
      "label": "Create a friend!",
      "description": "Play a Tag Duel",
      "howto": "Play a Tag Duel"
    },
    {
      "id": 7,
      "imageId": 7,
      "cred": 10,
      "flags": 1,
      "label": "You became a tag Duelist!",
      "description": "Win a Tag Duel for the first time",
      "howto": "Win a Tag Duel for the first time"
    },
    {
      "id": 8,
      "imageId": 8,
      "cred": 10,
      "flags": 1,
      "label": "Becoming a special Duelist",
      "description": "Win and get a Rare Card",
      "howto": "Win and get a Rare Card"
    },
    {
      "id": 9,
      "imageId": 9,
      "cred": 20,
      "flags": 1,
      "label": "Violent Duelist",
      "description": "Inflict at least 1 million total damage",
      "howto": "Inflict at least 1 million total damage"
    },
    {
      "id": 10,
      "imageId": 10,
      "cred": 30,
      "flags": 1,
      "label": "Lonely Duelist",
      "description": "100 wins in Single Mode",
      "howto": "100 wins in Single Mode"
    },
    {
      "id": 11,
      "imageId": 11,
      "cred": 30,
      "flags": 1,
      "label": "Friendly Duelist",
      "description": "100 wins in Tag Duel",
      "howto": "100 wins in Tag Duel"
    },
    {
      "id": 12,
      "imageId": 12,
      "cred": 40,
      "flags": 1,
      "label": "Ultimate Duelist",
      "description": "200 wins in any mode",
      "howto": "200 wins in any mode"
    }
  ]
}