{
  "achievementsPossible": 25,
  "credPossible": 1000,
  "achievements": [
    {
      "id": 155,
      "imageId": 167,
      "cred": 100,
      "flags": 1,
      "label": "Fast and Furious",
      "description": "You completed the initial drive.",
      "howto": "Complete the initial drive."
    },
    {
      "id": 156,
      "imageId": 168,
      "cred": 40,
      "flags": 1,
      "label": "900 Horses of Detroit Muscle",
      "description": "Acquired the Dodge Charger '70",
      "howto": "Acquire the Dodge Charger '70"
    },
    {
      "id": 157,
      "imageId": 169,
      "cred": 40,
      "flags": 1,
      "label": "10 Second Car",
      "description": "Acquired the Toyota Supra '98",
      "howto": "Acquire the Toyota Supra '98"
    },
    {
      "id": 158,
      "imageId": 182,
      "cred": 40,
      "flags": 1,
      "label": "Winning's Winning",
      "description": "Acquired the Jeep Wrangler",
      "howto": "Acquire the Jeep Wrangler"
    },
    {
      "id": 159,
      "imageId": 190,
      "cred": 40,
      "flags": 1,
      "label": "A Quarter Mile at a Time",
      "description": "Acquired the Plymouth Cuda",
      "howto": "Acquire the Plymouth Cuda"
    },
    {
      "id": 160,
      "imageId": 172,
      "cred": 40,
      "flags": 1,
      "label": "Just Don't Scratch It",
      "description": "Acquired the McLaren P1",
      "howto": "Acquire the McLaren P1"
    },
    {
      "id": 161,
      "imageId": 173,
      "cred": 40,
      "flags": 1,
      "label": "Fully Charged ",
      "description": "Acquired the Dodge Charger '15",
      "howto": "Acquire the Dodge Charger '15"
    },
    {
      "id": 162,
      "imageId": 174,
      "cred": 40,
      "flags": 1,
      "label": "What Do You Drift For? ",
      "description": "Acquired the Nissan GT-R",
      "howto": "Acquire the Nissan GT-R"
    },
    {
      "id": 163,
      "imageId": 175,
      "cred": 40,
      "flags": 1,
      "label": "Drift to Win",
      "description": "Acquired the Dodge Challenger '15",
      "howto": "Acquire the Dodge Challenger '15"
    },
    {
      "id": 164,
      "imageId": 171,
      "cred": 40,
      "flags": 1,
      "label": "9 Second Car",
      "description": "Acquired the Bugatti Veyron",
      "howto": "Acquire the Bugatti Veyron"
    },
    {
      "id": 165,
      "imageId": 170,
      "cred": 40,
      "flags": 1,
      "label": "Perks of the Job",
      "description": "Acquired the Maserati Ghibli",
      "howto": "Acquire the Maserati Ghibli"
    },
    {
      "id": 166,
      "imageId": 178,
      "cred": 40,
      "flags": 1,
      "label": "Got Nothin' But Time",
      "description": "Restored the Plymouth Roadrunner",
      "howto": "Restore the Plymouth Roadrunner"
    },
    {
      "id": 167,
      "imageId": 179,
      "cred": 100,
      "flags": 1,
      "label": "How Long Was That Runway?",
      "description": "Completed the Cargo Plane Showcase",
      "howto": "Complete the Cargo Plane Showcase"
    },
    {
      "id": 168,
      "imageId": 177,
      "cred": 30,
      "flags": 1,
      "label": "Burning Rubber",
      "description": "Performed 10 \"Burnout\" Skills",
      "howto": "Perform 10 \"Burnout\" Skills"
    },
    {
      "id": 169,
      "imageId": 183,
      "cred": 30,
      "flags": 1,
      "label": "Tokyo Drift",
      "description": "Performed 20 \"Drift\" or \"E-Drift\" Skills",
      "howto": "Perform 20 \"Drift\" or \"E-Drift\" Skills"
    },
    {
      "id": 170,
      "imageId": 191,
      "cred": 30,
      "flags": 1,
      "label": "High Flyer",
      "description": "Performed 5 \"Air\" Skills",
      "howto": "Perform 5 \"Air\" Skills "
    },
    {
      "id": 171,
      "imageId": 189,
      "cred": 30,
      "flags": 1,
      "label": "2 Furious",
      "description": "Performed 10 \"Wreckage\" Skills",
      "howto": "Perform 10 \"Wreckage\" Skills"
    },
    {
      "id": 172,
      "imageId": 176,
      "cred": 30,
      "flags": 1,
      "label": "2 Fast",
      "description": "Performed 5 \"Speed\" Skills",
      "howto": "Perform 5 \"Speed\" Skills"
    },
    {
      "id": 173,
      "imageId": 180,
      "cred": 30,
      "flags": 1,
      "label": "An Inch or a Mile",
      "description": "Performed 15 \"Near Miss\" Skills",
      "howto": "Perform 15 \"Near Miss\" Skills"
    },
    {
      "id": 174,
      "imageId": 181,
      "cred": 30,
      "flags": 1,
      "label": "Scratch That",
      "description": "Performed 3 \"Trading Paint\" Skills",
      "howto": "Perform 3 \"Trading Paint\" Skills"
    },
    {
      "id": 175,
      "imageId": 184,
      "cred": 30,
      "flags": 1,
      "label": "First Draft",
      "description": "Performed 5 \"Drafting\" Skills",
      "howto": "Perform 5 \"Drafting\" Skills"
    },
    {
      "id": 176,
      "imageId": 185,
      "cred": 30,
      "flags": 1,
      "label": "Fast 3000",
      "description": "Banked a Skill Chain of 3,000 or more",
      "howto": "Bank a Skill Chain of 3,000 or more"
    },
    {
      "id": 177,
      "imageId": 186,
      "cred": 30,
      "flags": 1,
      "label": "Selfie!",
      "description": "Took a photo of the 1970 Dodge Charger R/T",
      "howto": "Take a photo of the 1970 Dodge Charger R/T"
    },
    {
      "id": 178,
      "imageId": 187,
      "cred": 30,
      "flags": 1,
      "label": "Chain Reaction",
      "description": "Banked a Skill Chain of 15,000 or more",
      "howto": "Bank a Skill Chain of 15,000 or more "
    },
    {
      "id": 179,
      "imageId": 188,
      "cred": 30,
      "flags": 1,
      "label": "Wheelman",
      "description": "Earned a total of 100,000 skill points",
      "howto": "Earn a total of 100,000 skill points"
    }
  ]
}