{
  "achievementsPossible": 50,
  "credPossible": 1000,
  "achievements": [
    {
      "id": 1,
      "imageId": 26,
      "cred": 30,
      "flags": 6,
      "label": "Southern Hemisphere Kings",
      "description": "Win the Super Rugby Competition",
      "howto": "Win the Super Rugby Competition"
    },
    {
      "id": 2,
      "imageId": 28,
      "cred": 30,
      "flags": 6,
      "label": "Best Of Four",
      "description": "Win the Quad Nations Competition",
      "howto": "Win the Quad Nations Competition"
    },
    {
      "id": 3,
      "imageId": 29,
      "cred": 30,
      "flags": 6,
      "label": "English Premiers",
      "description": "Win the AVIVA Premiership Competition",
      "howto": "Win the AVIVA Premiership Competition"
    },
    {
      "id": 4,
      "imageId": 30,
      "cred": 30,
      "flags": 6,
      "label": "Euro Elite",
      "description": "Win the Elite 12 Competition",
      "howto": "Win the Elite 12 Competition"
    },
    {
      "id": 5,
      "imageId": 27,
      "cred": 30,
      "flags": 6,
      "label": "Oui Won!",
      "description": "Win the French Division 1 Competition",
      "howto": "Win the French Division 1 Competition"
    },
    {
      "id": 6,
      "imageId": 31,
      "cred": 30,
      "flags": 6,
      "label": "Oui Won Again!",
      "description": "Win the French Division 2 Competition",
      "howto": "Win the French Division 2 Competition"
    },
    {
      "id": 7,
      "imageId": 25,
      "cred": 30,
      "flags": 6,
      "label": "Kia Kaha!",
      "description": "Win the ITM Cup Competition",
      "howto": "Win the ITM Cup Competition"
    },
    {
      "id": 8,
      "imageId": 90,
      "cred": 30,
      "flags": 1,
      "label": "NRC Victory",
      "description": "Win the Buildcorp National Rugby Championship",
      "howto": "Win the Buildcorp National Rugby Championship"
    },
    {
      "id": 9,
      "imageId": 91,
      "cred": 50,
      "flags": 6,
      "label": "Global Clean Sweep",
      "description": "Win the World Championship Competition without losing or drawing a match",
      "howto": "Win the World Championship Competition without losing or drawing a match"
    },
    {
      "id": 10,
      "imageId": 40,
      "cred": 50,
      "flags": 6,
      "label": "Nine From 9",
      "description": "Win the cup for every tournament in the International Seven-A-Side Series",
      "howto": "Win the cup for every tournament in the International Seven-A-Side Series"
    },
    {
      "id": 11,
      "imageId": 2,
      "cred": 10,
      "flags": 6,
      "label": "Against The Throw",
      "description": "Win 60% of lineouts in a match that aren't thrown by your team",
      "howto": "Win 60% of lineouts in a match that aren't thrown by your team"
    },
    {
      "id": 12,
      "imageId": 3,
      "cred": 20,
      "flags": 6,
      "label": "11 Legend",
      "description": "Score 4 consecutive tries in a match with Jonah Lomu vs England",
      "howto": "Score 4 consecutive tries in a match with Jonah Lomu vs England"
    },
    {
      "id": 13,
      "imageId": 24,
      "cred": 20,
      "flags": 6,
      "label": "Who Ran Over The Catt?",
      "description": "Break through a full back with Jonah Lomu",
      "howto": "Break through a full back with Jonah Lomu"
    },
    {
      "id": 14,
      "imageId": 6,
      "cred": 10,
      "flags": 6,
      "label": "Own The Ball",
      "description": "Maintain over 80% possession in a match",
      "howto": "Maintain over 80% possession in a match"
    },
    {
      "id": 15,
      "imageId": 7,
      "cred": 10,
      "flags": 6,
      "label": "Get Off My Lawn",
      "description": "Maintain over 80% territory in a match",
      "howto": "Maintain over 80% territory in a match"
    },
    {
      "id": 16,
      "imageId": 8,
      "cred": 10,
      "flags": 6,
      "label": "Sinner",
      "description": "The ref calls a yellow or red card against you",
      "howto": "The ref calls a yellow or red card against you"
    },
    {
      "id": 17,
      "imageId": 9,
      "cred": 15,
      "flags": 6,
      "label": "Saint",
      "description": "Do not concede any penalties in a match",
      "howto": "Do not concede any penalties in a match"
    },
    {
      "id": 18,
      "imageId": 10,
      "cred": 40,
      "flags": 6,
      "label": "Length Of The Field",
      "description": "Make a try-scoring run which starts within your own in-goal area",
      "howto": "Make a try-scoring run which starts within your own in-goal area"
    },
    {
      "id": 19,
      "imageId": 11,
      "cred": 10,
      "flags": 6,
      "label": "Up The Guts",
      "description": "Use the \"send runner\" strategy to gain more than 5 metres past the ruck",
      "howto": "Use the \"send runner\" strategy to gain more than 5 metres past the ruck"
    },
    {
      "id": 20,
      "imageId": 14,
      "cred": 20,
      "flags": 6,
      "label": "Clairvoyance",
      "description": "Intercept a pass and score with that player",
      "howto": "Intercept a pass and score with that player"
    },
    {
      "id": 21,
      "imageId": 15,
      "cred": 10,
      "flags": 6,
      "label": "You Bloody Ripper!",
      "description": "Successfully steal the ball at a breakdown before the ruck forms",
      "howto": "Successfully steal the ball at a breakdown before the ruck forms"
    },
    {
      "id": 22,
      "imageId": 16,
      "cred": 20,
      "flags": 6,
      "label": "Wrong Game!",
      "description": "Grubber kick the ball between the goalposts during a match",
      "howto": "Grubber kick the ball between the goalposts during a match"
    },
    {
      "id": 23,
      "imageId": 18,
      "cred": 20,
      "flags": 6,
      "label": "Stick Or Cross",
      "description": "Score a penalty, conversion or drop goal which bounces in off the goalpost or crossbar",
      "howto": "Score a penalty, conversion or drop goal which bounces in off the goalpost or crossbar"
    },
    {
      "id": 24,
      "imageId": 20,
      "cred": 10,
      "flags": 6,
      "label": "Front Row Challenge",
      "description": "Score a drop goal with a prop or hooker",
      "howto": "Score a drop goal with a prop or hooker"
    },
    {
      "id": 25,
      "imageId": 22,
      "cred": 15,
      "flags": 6,
      "label": "2 Point Pro",
      "description": "Score a conversion on pro difficulty",
      "howto": "Score a conversion on pro difficulty"
    },
    {
      "id": 26,
      "imageId": 12,
      "cred": 5,
      "flags": 6,
      "label": "Shorty",
      "description": "Use a shortened lineout in a Fifteens match",
      "howto": "Use a shortened lineout in a Fifteens match"
    },
    {
      "id": 27,
      "imageId": 13,
      "cred": 5,
      "flags": 6,
      "label": "Number 8 Pickup",
      "description": "Use a number eight pickup in a Fifteens match",
      "howto": "Use a number eight pickup in a Fifteens match"
    },
    {
      "id": 28,
      "imageId": 19,
      "cred": 20,
      "flags": 6,
      "label": "Five Within Five",
      "description": "Score a try in a Fifteens match within the first five minutes on the game clock",
      "howto": "Score a try in a Fifteens match within the first five minutes on the game clock"
    },
    {
      "id": 29,
      "imageId": 75,
      "cred": 20,
      "flags": 6,
      "label": "Quick Off The Block",
      "description": "Score a try in a Sevens match within the first minute on the game clock",
      "howto": "Score a try in a Sevens match within the first minute on the game clock"
    },
    {
      "id": 30,
      "imageId": 73,
      "cred": 20,
      "flags": 6,
      "label": "2 Less Than You",
      "description": "Win a match while 2 players have been sent off",
      "howto": "Win a match while 2 players have been sent off"
    },
    {
      "id": 31,
      "imageId": 17,
      "cred": 20,
      "flags": 6,
      "label": "Master Negotiator",
      "description": "Successfully hire a player rated 80 or higher for your club in Coach Career Mode",
      "howto": "Successfully hire a player rated 80 or higher for your club in Coach Career Mode"
    },
    {
      "id": 32,
      "imageId": 36,
      "cred": 55,
      "flags": 6,
      "label": "Leaving a Legacy",
      "description": "Complete Coach Career Mode",
      "howto": "Complete Coach Career Mode"
    },
    {
      "id": 33,
      "imageId": 79,
      "cred": 5,
      "flags": 6,
      "label": "Go Pro!",
      "description": "Create and save a pro player",
      "howto": "Create and save a pro player"
    },
    {
      "id": 35,
      "imageId": 83,
      "cred": 55,
      "flags": 6,
      "label": "Hall Of Famer",
      "description": "Complete Pro Career Mode",
      "howto": "Complete Pro Career Mode"
    },
    {
      "id": 37,
      "imageId": 85,
      "cred": 50,
      "flags": 6,
      "label": "Club Legend",
      "description": "Complete a Fifteens Pro Career Mode while sticking with your starting club",
      "howto": "Complete a Fifteens Pro Career Mode while sticking with your starting club"
    },
    {
      "id": 38,
      "imageId": 87,
      "cred": 10,
      "flags": 6,
      "label": "I'm The Captain Now",
      "description": "Get promoted to team captain",
      "howto": "Get promoted to team captain"
    },
    {
      "id": 39,
      "imageId": 82,
      "cred": 10,
      "flags": 6,
      "label": "Taking On Responsibilities",
      "description": "Become the goal or play kicker for your team",
      "howto": "Become the goal or play kicker for your team"
    },
    {
      "id": 40,
      "imageId": 76,
      "cred": 20,
      "flags": 6,
      "label": "Easy Peasy",
      "description": "Complete all goals in a single Pro Career match",
      "howto": "Complete all goals in a single Pro Career match"
    },
    {
      "id": 41,
      "imageId": 81,
      "cred": 5,
      "flags": 6,
      "label": "Taking It Easy",
      "description": "In Fifteens Pro Career Mode, accept a contract from a team in a lower competition tier",
      "howto": "In Fifteens Pro Career Mode, accept a contract from a team in a lower competition tier"
    },
    {
      "id": 42,
      "imageId": 88,
      "cred": 5,
      "flags": 6,
      "label": "Challenging Myself",
      "description": "In Fifteens Pro Career Mode, accept a contract from a team in a higher competition tier",
      "howto": "In Fifteens Pro Career Mode, accept a contract from a team in a higher competition tier"
    },
    {
      "id": 43,
      "imageId": 77,
      "cred": 20,
      "flags": 6,
      "label": "Patriotic Player",
      "description": "In Fifteens Pro Career Mode, get selected and play for international duty",
      "howto": "In Fifteens Pro Career Mode, get selected and play for international duty"
    },
    {
      "id": 44,
      "imageId": 23,
      "cred": 30,
      "flags": 6,
      "label": "The Ten Team Test",
      "description": "Win 10 matches, each as a different team",
      "howto": "Win 10 matches, each as a different team"
    },
    {
      "id": 45,
      "imageId": 35,
      "cred": 5,
      "flags": 6,
      "label": "It's Alive!",
      "description": "Create and save a custom player",
      "howto": "Create and save a custom player"
    },
    {
      "id": 46,
      "imageId": 80,
      "cred": 5,
      "flags": 6,
      "label": "Show Us Your Tatts!",
      "description": "Create and save a custom player with a tattoo on every limb",
      "howto": "Create and save a custom player with a tattoo on every limb"
    },
    {
      "id": 47,
      "imageId": 78,
      "cred": 5,
      "flags": 6,
      "label": "Giver",
      "description": "Share a custom player or team",
      "howto": "Share a custom player or team"
    },
    {
      "id": 48,
      "imageId": 84,
      "cred": 5,
      "flags": 6,
      "label": "Taker",
      "description": "Download a custom player or team",
      "howto": "Download a custom player or team"
    },
    {
      "id": 49,
      "imageId": 89,
      "cred": 5,
      "flags": 6,
      "label": "Curator",
      "description": "Rate 100 custom players or teams",
      "howto": "Rate 100 custom players or teams"
    },
    {
      "id": 50,
      "imageId": 1,
      "cred": 5,
      "flags": 6,
      "label": "Quitters Never Win",
      "description": "Complete an online match",
      "howto": "Complete an online match"
    },
    {
      "id": 51,
      "imageId": 33,
      "cred": 5,
      "flags": 6,
      "label": "Thanks Team",
      "description": "Watch through the credits to unlock hidden teams",
      "howto": "Watch through the credits to unlock hidden teams"
    },
    {
      "id": 52,
      "imageId": 34,
      "cred": 30,
      "flags": 6,
      "label": "Going For Gold",
      "description": "Get gold medals in every tutorial",
      "howto": "Get gold medals in every tutorial"
    }
  ]
}