{
  "achievementsPossible": 34,
  "credPossible": 1000,
  "achievements": [
    {
      "id": 1,
      "imageId": 1,
      "cred": 10,
      "flags": 4,
      "label": "Everybody Starts Somewhere",
      "description": "Buy your first property",
      "howto": "Buy your first property"
    },
    {
      "id": 2,
      "imageId": 1,
      "cred": 20,
      "flags": 4,
      "label": "Now You're On Your Way",
      "description": "Own your first monopoly",
      "howto": "Own your first monopoly"
    },
    {
      "id": 3,
      "imageId": 1,
      "cred": 30,
      "flags": 4,
      "label": "Climbing Your Way Up The Ladder",
      "description": "Build your first set of houses.  Classic mode only.",
      "howto": "Build your first set of houses.  Classic mode only."
    },
    {
      "id": 4,
      "imageId": 1,
      "cred": 50,
      "flags": 4,
      "label": "The View From The Top",
      "description": "Build your first set of hotels. Classic mode only.",
      "howto": "Build your first set of hotels. Classic mode only."
    },
    {
      "id": 5,
      "imageId": 1,
      "cred": 10,
      "flags": 4,
      "label": "High Roller",
      "description": "Roll a double six",
      "howto": "Roll a double six"
    },
    {
      "id": 6,
      "imageId": 1,
      "cred": 10,
      "flags": 4,
      "label": "Rolled To Jail",
      "description": "Roll three doubles in a row and get sent to jail",
      "howto": "Roll three doubles in a row and get sent to jail"
    },
    {
      "id": 7,
      "imageId": 1,
      "cred": 10,
      "flags": 4,
      "label": "Rolled To Freedom",
      "description": "Rolled a double to get out of jail",
      "howto": "Rolled a double to get out of jail"
    },
    {
      "id": 8,
      "imageId": 1,
      "cred": 50,
      "flags": 4,
      "label": "Globe Trotter",
      "description": "Land on every property on the World board",
      "howto": "Land on every property on the World board"
    },
    {
      "id": 9,
      "imageId": 1,
      "cred": 50,
      "flags": 4,
      "label": "Taking Sides",
      "description": "Own every property, including any ports and utilities, down one whole side of the board",
      "howto": "Own every property, including any ports and utilities, down one whole side of the board"
    },
    {
      "id": 10,
      "imageId": 1,
      "cred": 20,
      "flags": 4,
      "label": "Transport King",
      "description": "Own the monopoly on the transport properties",
      "howto": "Own the monopoly on the transport properties"
    },
    {
      "id": 11,
      "imageId": 1,
      "cred": 20,
      "flags": 4,
      "label": "You've Got The Power",
      "description": "Own the monopoly on the utilities",
      "howto": "Own the monopoly on the utilities"
    },
    {
      "id": 12,
      "imageId": 1,
      "cred": 20,
      "flags": 4,
      "label": "Deal Of The Century",
      "description": "Form a monopoly as a result of trading",
      "howto": "Form a monopoly as a result of trading"
    },
    {
      "id": 13,
      "imageId": 1,
      "cred": 20,
      "flags": 4,
      "label": "No Mercy",
      "description": "Be responsible for the bankruptcy of another player",
      "howto": "Be responsible for the bankruptcy of another player"
    },
    {
      "id": 14,
      "imageId": 1,
      "cred": 10,
      "flags": 4,
      "label": "Went For Broke",
      "description": "Bankrupted yourself out of the game for the first time",
      "howto": "Bankrupted yourself out of the game for the first time"
    },
    {
      "id": 15,
      "imageId": 1,
      "cred": 10,
      "flags": 4,
      "label": "A Good Start",
      "description": "Win your first mini-game in any mode of Richest",
      "howto": "Win your first mini-game in any mode of Richest"
    },
    {
      "id": 16,
      "imageId": 1,
      "cred": 50,
      "flags": 4,
      "label": "He Who Controls The Dice...",
      "description": "Win every mini-game in a full game of Developer",
      "howto": "Win every mini-game in a full game of Developer"
    },
    {
      "id": 17,
      "imageId": 1,
      "cred": 20,
      "flags": 4,
      "label": "Last But Not Least",
      "description": "Win all the mini-games in a full game of Developer but don't finish first",
      "howto": "Win all the mini-games in a full game of Developer but don't finish first"
    },
    {
      "id": 18,
      "imageId": 1,
      "cred": 10,
      "flags": 4,
      "label": "Taken A Chance",
      "description": "Take your first property from another player using Chance in any mode of Richest",
      "howto": "Take your first property from another player using Chance in any mode of Richest"
    },
    {
      "id": 19,
      "imageId": 1,
      "cred": 20,
      "flags": 4,
      "label": "Forcibly Formed",
      "description": "Form a monopoly in any mode of Richest by taking one or more of the properties from another player.",
      "howto": "Form a monopoly in any mode of Richest by taking one or more of the properties from another player."
    },
    {
      "id": 20,
      "imageId": 1,
      "cred": 10,
      "flags": 4,
      "label": "Dashed Hopes",
      "description": "Break up another player's Monopoly",
      "howto": "Break up another player's Monopoly"
    },
    {
      "id": 21,
      "imageId": 1,
      "cred": 10,
      "flags": 4,
      "label": "A Quick Victory",
      "description": "Win a game of Developer mode Richest",
      "howto": "Win a game of Developer mode Richest"
    },
    {
      "id": 22,
      "imageId": 1,
      "cred": 20,
      "flags": 4,
      "label": "Faster Better",
      "description": "Win a game of Industrialist mode Richest",
      "howto": "Win a game of Industrialist mode Richest"
    },
    {
      "id": 24,
      "imageId": 1,
      "cred": 40,
      "flags": 4,
      "label": "Becoming The Master",
      "description": "Win a game of Tycoon mode Richest",
      "howto": "Win a game of Tycoon mode Richest"
    },
    {
      "id": 25,
      "imageId": 1,
      "cred": 50,
      "flags": 4,
      "label": "The Underdog",
      "description": "Don't finish first in any mini-game but still win overall in any mode of Richest",
      "howto": "Don't finish first in any mini-game but still win overall in any mode of Richest"
    },
    {
      "id": 26,
      "imageId": 1,
      "cred": 50,
      "flags": 4,
      "label": "From The Flames",
      "description": "Come from last in the previous round to win overall in any mode of Richest",
      "howto": "Come from last in the previous round to win overall in any mode of Richest"
    },
    {
      "id": 27,
      "imageId": 1,
      "cred": 100,
      "flags": 4,
      "label": "You Are The Richest",
      "description": "Own every property on the board in any mode of Richest",
      "howto": "Own every property on the board in any mode of Richest"
    },
    {
      "id": 28,
      "imageId": 1,
      "cred": 30,
      "flags": 4,
      "label": "Started Your Empire",
      "description": "Build a set of houses in any mode of Richest",
      "howto": "Build a set of houses in any mode of Richest"
    },
    {
      "id": 29,
      "imageId": 1,
      "cred": 50,
      "flags": 4,
      "label": "Established Your Hold",
      "description": "Build a set of hotels in any mode of Richest",
      "howto": "Build a set of hotels in any mode of Richest"
    },
    {
      "id": 30,
      "imageId": 1,
      "cred": 10,
      "flags": 4,
      "label": "Time To Collect",
      "description": "Collect your first rent payment from any other player in any mode of Richest",
      "howto": "Collect your first rent payment from any other player in any mode of Richest"
    },
    {
      "id": 31,
      "imageId": 1,
      "cred": 10,
      "flags": 4,
      "label": "Expensive To Stop Here",
      "description": "Land on another player's set of hotels in any mode of Richest.",
      "howto": "Land on another player's set of hotels in any mode of Richest."
    },
    {
      "id": 33,
      "imageId": 1,
      "cred": 20,
      "flags": 4,
      "label": "Sight Seer",
      "description": "Unlock a passport.  Awarded to the passport holder",
      "howto": "Unlock a passport.  Awarded to the passport holder"
    },
    {
      "id": 34,
      "imageId": 1,
      "cred": 100,
      "flags": 4,
      "label": "Jet Setter",
      "description": "Fill all the passports.  Awarded to the passport holder",
      "howto": "Fill all the passports.  Awarded to the passport holder"
    },
    {
      "id": 35,
      "imageId": 1,
      "cred": 10,
      "flags": 4,
      "label": "Try Something New",
      "description": "Unlock your first new board",
      "howto": "Unlock your first new board"
    },
    {
      "id": 36,
      "imageId": 1,
      "cred": 50,
      "flags": 4,
      "label": "The First MONOPOLY",
      "description": "Get the same amount of money as the year MONOPOLY was released",
      "howto": "Get the same amount of money as the year MONOPOLY was released"
    }
  ]
}