{
  "achievementsPossible": 12,
  "credPossible": 200,
  "achievements": [
    {
      "id": 1,
      "imageId": 1,
      "cred": 14,
      "flags": 4,
      "label": "12 Gates of Luxor Temple",
      "description": "Awarded for matching 12 or more spheres with a single shot.",
      "howto": "Match 12 or more spheres with a single shot."
    },
    {
      "id": 2,
      "imageId": 2,
      "cred": 15,
      "flags": 4,
      "label": "5 Days of Thoth",
      "description": "Awarded for putting together 5 chain reactions.",
      "howto": "Put together 5 chain reactions."
    },
    {
      "id": 3,
      "imageId": 3,
      "cred": 15,
      "flags": 4,
      "label": "Life! Health! Prosperity!",
      "description": "Awarded for completing a level without losing a life.",
      "howto": "Complete a level without losing a life."
    },
    {
      "id": 4,
      "imageId": 4,
      "cred": 15,
      "flags": 1,
      "label": "Feather of Ma'at",
      "description": "Awarded for completing Adventure Mode on the Easy difficulty level.",
      "howto": "Complete Adventure Mode on the Easy difficulty level."
    },
    {
      "id": 5,
      "imageId": 5,
      "cred": 16,
      "flags": 4,
      "label": "Pharaoh's Treasury",
      "description": "Awarded for collecting 100 pieces of gems and jewelry.",
      "howto": "Collect 100 pieces of gems and jewelry."
    },
    {
      "id": 6,
      "imageId": 6,
      "cred": 16,
      "flags": 4,
      "label": "Royal Sharpshooter",
      "description": "Awarded for completing a level with 100% accuracy.",
      "howto": "Complete a level with 100% accuracy."
    },
    {
      "id": 7,
      "imageId": 7,
      "cred": 16,
      "flags": 4,
      "label": "Golden Ankh Coin",
      "description": "Awarded for collecting 15 or more coins in a single level.",
      "howto": "Collect 15 or more coins in a single level."
    },
    {
      "id": 8,
      "imageId": 8,
      "cred": 17,
      "flags": 1,
      "label": "Horns of Hathor",
      "description": "Awarded for completing Adventure Mode on the Normal difficulty.",
      "howto": "Complete Adventure Mode on the Normal difficulty."
    },
    {
      "id": 9,
      "imageId": 9,
      "cred": 18,
      "flags": 4,
      "label": "Glory of Osiris",
      "description": "Awarded for achieving a perfect rating on all bonus rounds.",
      "howto": "Achieve a perfect rating on all bonus rounds."
    },
    {
      "id": 10,
      "imageId": 10,
      "cred": 19,
      "flags": 1,
      "label": "Magic of Isis",
      "description": "Awarded for completing Adventure Mode on the Expert difficulty level.",
      "howto": "Complete Adventure Mode on the Expert difficulty level."
    },
    {
      "id": 11,
      "imageId": 11,
      "cred": 19,
      "flags": 1,
      "label": "Challenge of Horus",
      "description": "Awarded for completing the Challenge of Horus.",
      "howto": "Complete the Challenge of Horus."
    },
    {
      "id": 12,
      "imageId": 12,
      "cred": 20,
      "flags": 1,
      "label": "Pharaoh of the Two Lands",
      "description": "Awarded for earning the play rank of Pharaoh of the Two Lands.",
      "howto": "Earn the play rank of Pharaoh of the Two Lands."
    }
  ]
}