{
  "achievementsPossible": 41,
  "credPossible": 1000,
  "achievements": [
    {
      "id": 9,
      "imageId": 9,
      "cred": 20,
      "flags": 4,
      "label": "Instant Gratification",
      "description": "Completed all Instant Action maps.",
      "howto": "Complete all Instant Action maps on any difficulty in any order."
    },
    {
      "id": 10,
      "imageId": 8,
      "cred": 55,
      "flags": 4,
      "label": "Glutton for Punishment",
      "description": "Completed all Instant Action  maps on Extreme.",
      "howto": "Complete all Instant Action maps on Extreme difficulty in any order."
    },
    {
      "id": 13,
      "imageId": 5,
      "cred": 30,
      "flags": 4,
      "label": "Entering Desolation",
      "description": "Completed the Extraction Point campaign through “Holiday”.",
      "howto": "Complete the Extraction Point campaign through “Holiday”."
    },
    {
      "id": 14,
      "imageId": 11,
      "cred": 30,
      "flags": 4,
      "label": "Confronting the Leviathans",
      "description": "Completed the Extraction Point campaign through “The L” .",
      "howto": "Complete the Extraction Point campaign through “The L”."
    },
    {
      "id": 21,
      "imageId": 12,
      "cred": 60,
      "flags": 4,
      "label": "Living in Fear",
      "description": "Completed the Extraction Point campaign.",
      "howto": "Complete the Extraction Point campaign."
    },
    {
      "id": 22,
      "imageId": 13,
      "cred": 75,
      "flags": 4,
      "label": "Mastery of Fear",
      "description": "Completed the Extraction Point campaign on Extreme.",
      "howto": "Complete the Extraction Point campaign on Extreme."
    },
    {
      "id": 25,
      "imageId": 1,
      "cred": 40,
      "flags": 4,
      "label": "Achievement Boost",
      "description": "Found all the health and slo-mo boosters in the Extraction Point campaign.",
      "howto": "Find all the health and slo-mo boosters in the Extraction Point campaign."
    },
    {
      "id": 26,
      "imageId": 15,
      "cred": 15,
      "flags": 4,
      "label": "No Batteries",
      "description": "Completed the Extraction Point campaign without letting the flashlight run down.",
      "howto": "Complete the Extraction Point campaign without letting the flashlight run down."
    },
    {
      "id": 29,
      "imageId": 7,
      "cred": 55,
      "flags": 4,
      "label": "Fear My Wrath",
      "description": "Killed every enemy in the Extraction Point campaign.",
      "howto": "Kill every enemy in the Extraction Point campaign."
    },
    {
      "id": 31,
      "imageId": 16,
      "cred": 15,
      "flags": 4,
      "label": "Take a Message",
      "description": "Answered all the phones in the Extraction Point campaign.",
      "howto": "Answered all the phones in the Extraction Point campaign."
    },
    {
      "id": 38,
      "imageId": 10,
      "cred": 15,
      "flags": 4,
      "label": "Laser Showoff",
      "description": "Killed 30 enemies with the Type-12 Laser Carbine.",
      "howto": "Kill 30 enemies with the Type-12 Laser Carbine."
    },
    {
      "id": 42,
      "imageId": 14,
      "cred": 15,
      "flags": 4,
      "label": "Minigun Marauder",
      "description": "Killed 30 enemies with the TG-2A Minigun.",
      "howto": "Kill 30 enemies with the TG-2A Minigun."
    },
    {
      "id": 43,
      "imageId": 3,
      "cred": 15,
      "flags": 4,
      "label": "Control Freak",
      "description": "Captured 25 control points in ranked Control matches.",
      "howto": "Capture 25 control points in ranked Control matches."
    },
    {
      "id": 44,
      "imageId": 2,
      "cred": 15,
      "flags": 4,
      "label": "Conquering Hero",
      "description": "Captured 25 control points in ranked Conquer All matches.",
      "howto": "Capture 25 control points in ranked Conquer All matches."
    },
    {
      "id": 46,
      "imageId": 4,
      "cred": 35,
      "flags": 4,
      "label": "Cycle of F.E.A.R.",
      "description": "Won a ranked multiplayer game on all maps.",
      "howto": "Win a ranked multiplayer game on all maps (gametype not important)."
    },
    {
      "id": 49,
      "imageId": 6,
      "cred": 10,
      "flags": 4,
      "label": "Fear the Reaper",
      "description": "Killed 3 players while SloMo is active in a ranked SloMo multiplayer match.",
      "howto": "Kill 3 players while SloMo is active in a ranked SloMo multiplayer match."
    },
    {
      "id": 51,
      "imageId": 24,
      "cred": 20,
      "flags": 6,
      "label": "Arrival At the Scene",
      "description": "Completed the Perseus Mandate campaign through \"Underneath\".",
      "howto": "Complete the Perseus Mandate campaign through \"Underneath\"."
    },
    {
      "id": 52,
      "imageId": 31,
      "cred": 10,
      "flags": 4,
      "label": "First Encounter",
      "description": "Defeated the first Nightcrawler Elite.",
      "howto": "Defeat the First Nightcrawler Elite."
    },
    {
      "id": 53,
      "imageId": 17,
      "cred": 20,
      "flags": 6,
      "label": "Understanding the Enemy",
      "description": "Completed the Perseus Mandate campaign through \"Disturbance\".",
      "howto": "Complete the Perseus Mandate campaign through \"Disturbance\"."
    },
    {
      "id": 54,
      "imageId": 32,
      "cred": 20,
      "flags": 6,
      "label": "Beginning of the End",
      "description": "Completed the Perseus Mandate campaign through \"The Plaza Chase\".",
      "howto": "Complete the Perseus Mandate campaign through \"The Plaza Chase\"."
    },
    {
      "id": 55,
      "imageId": 18,
      "cred": 10,
      "flags": 4,
      "label": "A Friend in Need",
      "description": "Tried to save Chen.",
      "howto": "Try to save Chen."
    },
    {
      "id": 56,
      "imageId": 19,
      "cred": 20,
      "flags": 6,
      "label": "Former Foes",
      "description": "Completed the Perseus Mandate campaign through \"Basecamp\".",
      "howto": "Complete the Perseus Mandate campaign through \"Basecamp\"."
    },
    {
      "id": 57,
      "imageId": 33,
      "cred": 20,
      "flags": 6,
      "label": "A Darker Place",
      "description": "Completed the Perseus Mandate campaign through \"Labyrinth\".",
      "howto": "Complete the Perseus Mandate campaign through \"Labyrinth\"."
    },
    {
      "id": 59,
      "imageId": 20,
      "cred": 10,
      "flags": 4,
      "label": "Cutting Off the Head",
      "description": "Defeated the Nightcrawler Commander.",
      "howto": "Defeat the Nightcrawler Commander."
    },
    {
      "id": 60,
      "imageId": 21,
      "cred": 35,
      "flags": 1,
      "label": "An End to FEAR",
      "description": "Completed the Perseus Mandate campaign.",
      "howto": "Complete the Perseus Mandate campaign."
    },
    {
      "id": 61,
      "imageId": 22,
      "cred": 50,
      "flags": 1,
      "label": "Nothing to FEAR",
      "description": "Completed the Perseus Mandate campaign on Extreme difficulty.",
      "howto": "Complete the Perseus Mandate campaign on Extreme difficulty."
    },
    {
      "id": 62,
      "imageId": 23,
      "cred": 40,
      "flags": 4,
      "label": "More Assault Than Recon",
      "description": "Killed every enemy in the Perseus Mandate campaign.",
      "howto": "Kill every enemy in the Perseus Mandate campaign."
    },
    {
      "id": 63,
      "imageId": 25,
      "cred": 10,
      "flags": 4,
      "label": "High-Tech Hitman",
      "description": "Killed 20 enemies with the LP4 Lightning Arc Weapon in the Perseus Mandate Campaign.",
      "howto": "Kill 20 enemies with the LP4 Lightning Arc Weapon in the Perseus Mandate Campaign."
    },
    {
      "id": 64,
      "imageId": 35,
      "cred": 10,
      "flags": 4,
      "label": "An Advanced Arsenal",
      "description": "Killed 30 enemies with the VES Advanced Rifle in the Perseus Mandate Campaign.",
      "howto": "Kill 30 enemies with the VES Advanced Rifle the Perseus Mandate Campaign."
    },
    {
      "id": 65,
      "imageId": 36,
      "cred": 10,
      "flags": 4,
      "label": "The Bouncing Boom",
      "description": "Killed 20 enemies with the K3-BT Grenade Launcher in the Perseus Mandate Campaign.",
      "howto": "Kill 20 enemies with the K3-BT Grenade Launcher in the Perseus Mandate Campaign."
    },
    {
      "id": 66,
      "imageId": 28,
      "cred": 10,
      "flags": 4,
      "label": "Arms Master",
      "description": "Killed enemies with every weapon at least once in the Perseus Mandate campaign.",
      "howto": "Kill enemies with every weapon at least once in the Perseus Mandate campaign."
    },
    {
      "id": 68,
      "imageId": 26,
      "cred": 10,
      "flags": 4,
      "label": "Detective",
      "description": "Found all phone messages and laptops in the Perseus Mandate campaign.",
      "howto": "Find all phone messages and laptops in the Perseus Mandate campaign."
    },
    {
      "id": 71,
      "imageId": 27,
      "cred": 10,
      "flags": 4,
      "label": "You Like the Juice",
      "description": "Found every booster in the Perseus Mandate campaign.",
      "howto": "Find every booster in the Perseus Mandate campaign."
    },
    {
      "id": 72,
      "imageId": 29,
      "cred": 5,
      "flags": 4,
      "label": "While You're Down There",
      "description": "Killed 10 critters during the Perseus Mandate campaign.",
      "howto": "Kill 10 critters during the Perseus Mandate campaign."
    },
    {
      "id": 73,
      "imageId": 30,
      "cred": 50,
      "flags": 1,
      "label": "Mastered Your FEAR",
      "description": "Completed the Perseus Mandate campaign without dying.",
      "howto": "Complete the Perseus Mandate campaign without dying."
    },
    {
      "id": 75,
      "imageId": 37,
      "cred": 5,
      "flags": 4,
      "label": "You Must Be on the Team",
      "description": "Viewed the entire Perseus Mandate credits.",
      "howto": "View the entire Perseus Mandate credits."
    },
    {
      "id": 77,
      "imageId": 38,
      "cred": 25,
      "flags": 4,
      "label": "Action Initiate",
      "description": "Completed an Instant Action map.",
      "howto": "Complete any Instant Action map."
    },
    {
      "id": 78,
      "imageId": 39,
      "cred": 25,
      "flags": 4,
      "label": "Action Veteran",
      "description": "Completed an Instant Action map on Extreme difficulty.",
      "howto": "Complete any Instant Action map on Extreme difficulty."
    },
    {
      "id": 79,
      "imageId": 40,
      "cred": 25,
      "flags": 4,
      "label": "Camping the Goods",
      "description": "Obtained 150 Health and 100 Armor in a multiplayer game.",
      "howto": "Obtain 150 Health and 100 Armor in a multiplayer game."
    },
    {
      "id": 80,
      "imageId": 41,
      "cred": 25,
      "flags": 4,
      "label": "Test Drive the New Toys",
      "description": "Killed players in ranked multiplayer with the VES, K3-BT, LP4, TG-2A, and Type-12.",
      "howto": "Kill players in ranked multiplayer with the VES, K3-BT, LP4, TG-2A, and Type-12."
    },
    {
      "id": 81,
      "imageId": 34,
      "cred": 25,
      "flags": 4,
      "label": "A Player to FEAR",
      "description": "Killed 10 players without dying in multiplayer.",
      "howto": "Kill 10 players without dying in multiplayer."
    }
  ]
}