{
  "achievementsPossible": 13,
  "credPossible": 1000,
  "achievements": [
    {
      "id": 2,
      "imageId": 1,
      "cred": 25,
      "flags": 6,
      "label": "Complete Civil War",
      "description": "Complete all levels in the Civil War campaign.",
      "howto": "Complete all levels in the Civil War campaign."
    },
    {
      "id": 3,
      "imageId": 5,
      "cred": 25,
      "flags": 6,
      "label": "Complete WW1",
      "description": "Complete all levels in the WW1 campaign.",
      "howto": "Complete all levels in the WW1 campaign."
    },
    {
      "id": 4,
      "imageId": 6,
      "cred": 25,
      "flags": 6,
      "label": "Complete WW2",
      "description": "Complete all levels in the WW2 campaign.",
      "howto": "Complete all levels in the WW2 campaign."
    },
    {
      "id": 5,
      "imageId": 4,
      "cred": 75,
      "flags": 6,
      "label": "Secret Mission",
      "description": "Locate and complete the secret mission at the end of the game.",
      "howto": "Locate and complete the secret mission at the end of the game."
    },
    {
      "id": 6,
      "imageId": 3,
      "cred": 100,
      "flags": 1,
      "label": "Complete Darkest of Days",
      "description": "Complete all levels in the game on normal difficulty or higher.",
      "howto": "Complete all levels in the game on normal difficulty or higher."
    },
    {
      "id": 7,
      "imageId": 2,
      "cred": 200,
      "flags": 1,
      "label": "With Chest Hair",
      "description": "Complete all the levels in the game on the highest difficulty.",
      "howto": "Complete all the levels in the game on the highest difficulty."
    },
    {
      "id": 8,
      "imageId": 12,
      "cred": 100,
      "flags": 2,
      "label": "Pistol Upgrade",
      "description": "Fully upgrade all pistol settings.",
      "howto": "Fully upgrade all pistol settings."
    },
    {
      "id": 9,
      "imageId": 13,
      "cred": 100,
      "flags": 2,
      "label": "Rifle Upgrade",
      "description": "Fully upgrade all rifle settings.",
      "howto": "Fully upgrade all rifle settings."
    },
    {
      "id": 10,
      "imageId": 7,
      "cred": 100,
      "flags": 7,
      "label": "Horse Puncher",
      "description": "Punch a horse in the face, killing it.",
      "howto": "Punch a horse in the face, killing it."
    },
    {
      "id": 11,
      "imageId": 8,
      "cred": 100,
      "flags": 7,
      "label": "Ghandi Award",
      "description": "Complete a combat level without using any lethal attacks.",
      "howto": "Complete a combat level without using any lethal attacks."
    },
    {
      "id": 12,
      "imageId": 9,
      "cred": 100,
      "flags": 7,
      "label": "Rage Fists",
      "description": "Kill at least 25 NPCs with your bare hands.",
      "howto": "Kill at least 25 NPCs with your bare hands."
    },
    {
      "id": 13,
      "imageId": 11,
      "cred": 25,
      "flags": 7,
      "label": "Bomb Technician",
      "description": "Kill yourself with an explosive device.",
      "howto": "Kill yourself with an explosive device."
    },
    {
      "id": 14,
      "imageId": 10,
      "cred": 25,
      "flags": 7,
      "label": "Tethered Swimming",
      "description": "Die of suffocation underwater.",
      "howto": "Die of suffocation underwater."
    }
  ]
}