{
  "avatarAssetsPossible": 4,
  "maleAvatarAssetsPossible": 1,
  "femaleAvatarAssetsPossible": 1,
  "avatarAssets": [
    {
      "id": "00000040-0001-5133-c98b-4f4c4d5308ab",
      "imageId": 54,
      "subcategory": 0,
      "unknown": 0,
      "isMale": false,
      "isFemale": false,
      "isUnisex": true,
      "label": "Marcus' Doo-Rag",
      "description": "Completed campaign on any difficulty",
      "howto": "Complete campaign on any difficulty"
    },
    {
      "id": "00000008-0004-0131-cff4-17644d5308ab",
      "imageId": 74,
      "subcategory": 0,
      "unknown": 2015221016,
      "isMale": true,
      "isFemale": false,
      "isUnisex": false,
      "label": "Horde Shirt Male",
      "description": "Earned \"Welcome to Horde Mode\" achievement",
      "howto": "Earn \"Welcome to Horde Mode\" achievement"
    },
    {
      "id": "00000008-0004-e102-cddf-bfc54d5308ab",
      "imageId": 71,
      "subcategory": 0,
      "unknown": 2015221016,
      "isMale": false,
      "isFemale": true,
      "isUnisex": false,
      "label": "Horde Shirt Female",
      "description": "Earned \"Welcome to Horde Mode\" achievement",
      "howto": "Earn \"Welcome to Horde Mode\" achievement"
    },
    {
      "id": "00000544-0005-5143-c933-d5e54d5308ab",
      "imageId": 76,
      "subcategory": 0,
      "unknown": 2015221016,
      "isMale": false,
      "isFemale": false,
      "isUnisex": true,
      "label": "Locust Drone Mask",
      "description": "Earned \"Welcome to Beast Mode\" achievement",
      "howto": "Earn \"Welcome to Beast Mode\" achievement"
    }
  ]
}