{
  "achievementsPossible": 70,
  "credPossible": 1500,
  "achievements": [
    {
      "id": 1,
      "imageId": 2,
      "cred": 20,
      "flags": 1,
      "label": "Dictatorship 101",
      "description": "Finished all tutorials",
      "howto": "Finish all tutorials"
    },
    {
      "id": 2,
      "imageId": 47,
      "cred": 10,
      "flags": 6,
      "label": "A New Dawn",
      "description": "Completed \"A New Dawn\"",
      "howto": "Complete \"A New Dawn\""
    },
    {
      "id": 3,
      "imageId": 48,
      "cred": 20,
      "flags": 6,
      "label": "Day 0",
      "description": "Completed \"Day 0\"",
      "howto": "Complete \"Day 0\""
    },
    {
      "id": 4,
      "imageId": 49,
      "cred": 20,
      "flags": 6,
      "label": "Back to the Past",
      "description": "Completed \"Back to the Past\"",
      "howto": "Complete \"Back to the Past\""
    },
    {
      "id": 5,
      "imageId": 50,
      "cred": 20,
      "flags": 6,
      "label": "Leon Must Die!",
      "description": "Completed \"Leon Must Die!\"",
      "howto": "Complete \"Leon Must Die!\""
    },
    {
      "id": 6,
      "imageId": 51,
      "cred": 40,
      "flags": 1,
      "label": "Hope",
      "description": "Completed \"Hope\"",
      "howto": "Complete \"Hope\""
    },
    {
      "id": 7,
      "imageId": 3,
      "cred": 10,
      "flags": 1,
      "label": "Good Sportsmanship",
      "description": "Finished a multiplayer game",
      "howto": "Finish a multiplayer game"
    },
    {
      "id": 8,
      "imageId": 4,
      "cred": 20,
      "flags": 1,
      "label": "Project Beale",
      "description": "Won a multiplayer game by points",
      "howto": "Win a multiplayer game by points"
    },
    {
      "id": 9,
      "imageId": 5,
      "cred": 20,
      "flags": 1,
      "label": "It Prints Money!",
      "description": "Won a multiplayer game by money",
      "howto": "Win a multiplayer game by money"
    },
    {
      "id": 10,
      "imageId": 6,
      "cred": 20,
      "flags": 1,
      "label": "Architerissimo",
      "description": "Won a multiplayer game by construction",
      "howto": "Win a multiplayer game by construction"
    },
    {
      "id": 11,
      "imageId": 7,
      "cred": 20,
      "flags": 4,
      "label": "Naughty Docks",
      "description": "Connected a dock with that of another player",
      "howto": "Connect a dock with that of another player"
    },
    {
      "id": 12,
      "imageId": 8,
      "cred": 30,
      "flags": 4,
      "label": "What Energy Crisis?",
      "description": "Produced and shared 1 000 MW of power with another player",
      "howto": "Produce and share 1 000 MW of power with another player"
    },
    {
      "id": 13,
      "imageId": 9,
      "cred": 30,
      "flags": 4,
      "label": "Sheep For Wood",
      "description": "Had a fleet of 12 trade ships",
      "howto": "Have a fleet of 12 trade ships"
    },
    {
      "id": 15,
      "imageId": 10,
      "cred": 20,
      "flags": 4,
      "label": "Mine! All Mine!",
      "description": "Mined 100 000 ores and coal in a single game",
      "howto": "Mine 100 000 ores and coal in a single game"
    },
    {
      "id": 16,
      "imageId": 11,
      "cred": 20,
      "flags": 4,
      "label": "Middle Manager Of The Revolution",
      "description": "Had managers in more than 15 buildings in a single game",
      "howto": "Have managers in more than 15 buildings in a single game"
    },
    {
      "id": 17,
      "imageId": 12,
      "cred": 30,
      "flags": 4,
      "label": "Friends With Benefits",
      "description": "Had relations higher than 90 with all factions in the Modern Era",
      "howto": "Have relations higher than 90 with all factions in the Modern Era"
    },
    {
      "id": 18,
      "imageId": 13,
      "cred": 20,
      "flags": 4,
      "label": "Everlasting Colony",
      "description": "Ruled for 100 months as a colonial governor",
      "howto": "Rule for 100 months as a colonial governor"
    },
    {
      "id": 19,
      "imageId": 14,
      "cred": 20,
      "flags": 4,
      "label": "Made In Tropico",
      "description": "Exported 100 000 Luxury Goods",
      "howto": "Export 100 000 Luxury Goods"
    },
    {
      "id": 20,
      "imageId": 15,
      "cred": 20,
      "flags": 4,
      "label": "Agricultural Community",
      "description": "Had more than 20 Plantations, Hydroponic Farms, Factory Farms and Ranches in a single game",
      "howto": "Have more than 20 Plantations, Hydroponic Farms, Factory Farms and Ranches in a single game"
    },
    {
      "id": 21,
      "imageId": 16,
      "cred": 10,
      "flags": 4,
      "label": "The Madness Of Crowds",
      "description": "Had more than 500 citizens in a single game",
      "howto": "Have more than 500 citizens in a single game"
    },
    {
      "id": 23,
      "imageId": 17,
      "cred": 20,
      "flags": 4,
      "label": "The Town Of Cityville",
      "description": "Built 150 buildings in a single game",
      "howto": "Build 150 buildings in a single game"
    },
    {
      "id": 24,
      "imageId": 18,
      "cred": 30,
      "flags": 4,
      "label": "Pension Plan",
      "description": "Earned over $$200 000 Swiss bank account",
      "howto": "Earn over $$200 000 Swiss bank account"
    },
    {
      "id": 25,
      "imageId": 19,
      "cred": 10,
      "flags": 4,
      "label": "Infrastructor",
      "description": "Built more than 2 000 meters of roads in a single game",
      "howto": "Build more than 2 000 meters of roads in a single game"
    },
    {
      "id": 26,
      "imageId": 20,
      "cred": 20,
      "flags": 4,
      "label": "The China Card",
      "description": "Successfully completed 5 trade routes with China in a single game",
      "howto": "Successfully complete 5 trade routes with China in a single game"
    },
    {
      "id": 27,
      "imageId": 21,
      "cred": 20,
      "flags": 4,
      "label": "United States of Tropico",
      "description": "Finished a game with relations of 100 with the US",
      "howto": "Finish a game with relations of 100 with the US"
    },
    {
      "id": 28,
      "imageId": 22,
      "cred": 10,
      "flags": 4,
      "label": "Globalist",
      "description": "Had 5 foreign powers in your Embassies at the same time",
      "howto": "Have 5 foreign powers in your Embassies at the same time"
    },
    {
      "id": 29,
      "imageId": 23,
      "cred": 10,
      "flags": 4,
      "label": "Booked Solid",
      "description": "Had Slob, Family, Cultural, Eco and Wealthy tourists at the same time on the island",
      "howto": "Have Slob, Family, Cultural, Eco and Wealthy tourists at the same time on the island"
    },
    {
      "id": 30,
      "imageId": 24,
      "cred": 30,
      "flags": 4,
      "label": "A Barrel Of Monkeys",
      "description": "Earned $50 000 yearly revenue from Entertainment buildings",
      "howto": "Earn $50 000 yearly revenue from Entertainment buildings"
    },
    {
      "id": 31,
      "imageId": 25,
      "cred": 20,
      "flags": 4,
      "label": "The Great Mogul",
      "description": "Had 10 different industry buildings in a single game",
      "howto": "Have 10 different industry buildings in a single game"
    },
    {
      "id": 32,
      "imageId": 26,
      "cred": 20,
      "flags": 4,
      "label": "Extraordinary Popular Delusions",
      "description": "Had all happiness values above 50",
      "howto": "Have all happiness values above 50"
    },
    {
      "id": 33,
      "imageId": 27,
      "cred": 30,
      "flags": 4,
      "label": "In Seventh Heaven",
      "description": "Reached overall happiness of 77 ",
      "howto": "Reach overall happiness of 77 "
    },
    {
      "id": 34,
      "imageId": 28,
      "cred": 10,
      "flags": 4,
      "label": "Cause of Death",
      "description": "Executed a Rebel Leader",
      "howto": "Execute a Rebel Leader"
    },
    {
      "id": 35,
      "imageId": 29,
      "cred": 10,
      "flags": 4,
      "label": "Greasing Palms",
      "description": "Bribed a Faction Leader",
      "howto": "Bribe a Faction Leader"
    },
    {
      "id": 36,
      "imageId": 30,
      "cred": 10,
      "flags": 4,
      "label": "Overqualified",
      "description": "Had a dynasty member with a level 5 skill",
      "howto": "Have a dynasty member with a level 5 skill"
    },
    {
      "id": 37,
      "imageId": 31,
      "cred": 10,
      "flags": 4,
      "label": "Heir And Now",
      "description": "Recognized a new heir",
      "howto": "Recognize a new heir"
    },
    {
      "id": 38,
      "imageId": 32,
      "cred": 20,
      "flags": 4,
      "label": "Mirror, Mirror On The Wall",
      "description": "Changed the looks of a dynasty member",
      "howto": "Change the looks of a dynasty member"
    },
    {
      "id": 39,
      "imageId": 33,
      "cred": 30,
      "flags": 4,
      "label": "Presidente's Seven",
      "description": "Had 7 Dynasty members",
      "howto": "Have 7 Dynasty members"
    },
    {
      "id": 40,
      "imageId": 34,
      "cred": 10,
      "flags": 4,
      "label": "History Will Absolve Me",
      "description": "Survived a rebel attack against the Palace",
      "howto": "Survive a rebel attack against the Palace"
    },
    {
      "id": 41,
      "imageId": 35,
      "cred": 20,
      "flags": 4,
      "label": "Let Them Eat Cake",
      "description": "Survived an uprising",
      "howto": "Survive an uprising"
    },
    {
      "id": 42,
      "imageId": 36,
      "cred": 20,
      "flags": 4,
      "label": "Putsch and Judy",
      "description": "Survived a Military Coup",
      "howto": "Survive a Military Coup"
    },
    {
      "id": 43,
      "imageId": 37,
      "cred": 30,
      "flags": 4,
      "label": "The Bay Of Pigs",
      "description": "Survived an invasion from the USA",
      "howto": "Survive an invasion from the USA"
    },
    {
      "id": 44,
      "imageId": 38,
      "cred": 30,
      "flags": 4,
      "label": "Think Tanks",
      "description": "Had 5 Army Bases in a single game",
      "howto": "Have 5 Army Bases in a single game"
    },
    {
      "id": 45,
      "imageId": 39,
      "cred": 30,
      "flags": 4,
      "label": "Tower Defense",
      "description": "Had 20 Guard Towers in a single game",
      "howto": "Have 20 Guard Towers in a single game"
    },
    {
      "id": 46,
      "imageId": 40,
      "cred": 20,
      "flags": 4,
      "label": "Retro-futurism",
      "description": "Advanced to the Modern Era before the year 1960",
      "howto": "Advance to the Modern Era before the year 1960"
    },
    {
      "id": 47,
      "imageId": 41,
      "cred": 30,
      "flags": 4,
      "label": "For Science!",
      "description": "Researched all technologies at least once before the year 2005 in a single game",
      "howto": "Research all technologies at least once before the year 2005 in a single game"
    },
    {
      "id": 48,
      "imageId": 42,
      "cred": 10,
      "flags": 4,
      "label": "Fundamental Principles",
      "description": "Amended the Constitution 6 times in a single game",
      "howto": "Amend the Constitution 6 times in a single game"
    },
    {
      "id": 49,
      "imageId": 43,
      "cred": 10,
      "flags": 4,
      "label": "Bureaucrat",
      "description": "Issued 20 edicts in a single game",
      "howto": "Issue 20 edicts in a single game"
    },
    {
      "id": 50,
      "imageId": 44,
      "cred": 20,
      "flags": 4,
      "label": "... But To Take Part",
      "description": "Issued the \"Host the Olympics\" edict",
      "howto": "Issue the \"Host the Olympics\" edict"
    },
    {
      "id": 51,
      "imageId": 45,
      "cred": 20,
      "flags": 1,
      "label": "Claustrophilia",
      "description": "Won a Sandbox game on a Tiny island",
      "howto": "Win a Sandbox game on a Tiny island"
    },
    {
      "id": 52,
      "imageId": 46,
      "cred": 20,
      "flags": 1,
      "label": "To Live In Interesting Times",
      "description": "Won a Sandbox game on an island with Relentless Disasters",
      "howto": "Win a Sandbox game on an island with Relentless Disasters"
    },
    {
      "id": 53,
      "imageId": 52,
      "cred": 20,
      "flags": 1,
      "label": "The Black Pearl",
      "description": "Completed \"Treasure Hunt\"",
      "howto": "Complete \"Treasure Hunt\""
    },
    {
      "id": 54,
      "imageId": 53,
      "cred": 40,
      "flags": 1,
      "label": "Surfin' Tropico!",
      "description": "Completed Waterborne campaign",
      "howto": "Complete Waterborne campaign"
    },
    {
      "id": 55,
      "imageId": 54,
      "cred": 40,
      "flags": 4,
      "label": "Herbivore",
      "description": "Defeated Captain Plant in the final battle",
      "howto": "Defeat Captain Plant in the final battle"
    },
    {
      "id": 56,
      "imageId": 55,
      "cred": 30,
      "flags": 1,
      "label": "My Precious",
      "description": "Finished the Waterborne campaign with the Black Pearl in your possession",
      "howto": "Finish the Waterborne campaign with the Black Pearl in your possession"
    },
    {
      "id": 57,
      "imageId": 56,
      "cred": 10,
      "flags": 4,
      "label": "Thanks for all the fish!",
      "description": "Had a fleet of 3 Fishing Trawlers",
      "howto": "Have a fleet of 3 Fishing Trawlers"
    },
    {
      "id": 58,
      "imageId": 57,
      "cred": 20,
      "flags": 4,
      "label": "The King of Pearls",
      "description": "Had 3 Oyster Farms and a Jewelry Workshop",
      "howto": "Have 3 Oyster Farms and a Jewelry Workshop"
    },
    {
      "id": 59,
      "imageId": 58,
      "cred": 30,
      "flags": 4,
      "label": "Do not press!",
      "description": "Fired missiles from a Nuclear Submarine during a battle against another player",
      "howto": "Fire missiles from a Nuclear Submarine during a battle against another player"
    },
    {
      "id": 60,
      "imageId": 59,
      "cred": 30,
      "flags": 4,
      "label": "Waterworld",
      "description": "Had 10 Floating Apartments and no residential buildings on land (excluding shacks)",
      "howto": "Have 10 Floating Apartments and no residential buildings on land (excluding shacks)"
    },
    {
      "id": 61,
      "imageId": 60,
      "cred": 20,
      "flags": 4,
      "label": "Seasteading",
      "description": "Had 1 of each waterborne buildings in a single playthrough",
      "howto": "Have 1 of each waterborne buildings in a single playthrough"
    },
    {
      "id": 62,
      "imageId": 61,
      "cred": 10,
      "flags": 4,
      "label": "Offshore Haven",
      "description": "Have 5 superpowers in Offshore Offices",
      "howto": "Have 5 superpowers in Offshore Offices"
    },
    {
      "id": 63,
      "imageId": 62,
      "cred": 20,
      "flags": 1,
      "label": "The Maltese Toucan",
      "description": "Completed mission 1",
      "howto": "Complete mission 1"
    },
    {
      "id": 64,
      "imageId": 63,
      "cred": 40,
      "flags": 1,
      "label": "Presidente 007",
      "description": "Completed Espionage campaign",
      "howto": "Complete Espionage campaign"
    },
    {
      "id": 65,
      "imageId": 64,
      "cred": 20,
      "flags": 4,
      "label": "The Silent Front",
      "description": "Completed a Sabotage action in multiplayer",
      "howto": "Complete a Sabotage action in multiplayer"
    },
    {
      "id": 66,
      "imageId": 65,
      "cred": 10,
      "flags": 4,
      "label": "Tropicoleaks",
      "description": "Exposed secrets of 2 different superpowers in a single game",
      "howto": "Expose secrets of 2 different superpowers in a single game"
    },
    {
      "id": 67,
      "imageId": 66,
      "cred": 30,
      "flags": 4,
      "label": "Catch me a Spy",
      "description": "Dealed with 10 foreign spies in a single game",
      "howto": "Deal with 10 foreign spies in a single game"
    },
    {
      "id": 68,
      "imageId": 67,
      "cred": 30,
      "flags": 4,
      "label": "Antiutopia",
      "description": "Had Ministry of Information, Dungeon and 10 Security Checkpoint",
      "howto": "Have Ministry of Information, Dungeon and 10 Security Checkpoint"
    },
    {
      "id": 69,
      "imageId": 68,
      "cred": 20,
      "flags": 4,
      "label": "Big Brother",
      "description": "Had 5 Police Blimps",
      "howto": "Have 5 Police Blimps"
    },
    {
      "id": 70,
      "imageId": 69,
      "cred": 30,
      "flags": 4,
      "label": "From Tropico with love",
      "description": "Had 13 loyal spies at the same time",
      "howto": "Have 13 loyal spies at the same time"
    },
    {
      "id": 71,
      "imageId": 70,
      "cred": 10,
      "flags": 4,
      "label": "The Greybar Hotel",
      "description": "Had 20 prisoners in Dungeons and Supermax Prisons",
      "howto": "Have 20 prisoners in Dungeons and Supermax Prisons"
    },
    {
      "id": 72,
      "imageId": 71,
      "cred": 40,
      "flags": 4,
      "label": "Kill all Humans",
      "description": "Eliminated 20 undesirable citizens with drones",
      "howto": "Eliminate 20 undesirable citizens with drones"
    }
  ]
}