[
  {
    "titleId": 1145898974,
    "largeId": 132096,
    "smallId": 66560,
    "commonId": 1024
  },
  {
    "titleId": 1145898974,
    "largeId": 132097,
    "smallId": 66561,
    "commonId": 1025
  },
  {
    "titleId": 1145898974,
    "largeId": 132098,
    "smallId": 66562,
    "commonId": 1026
  },
  {
    "titleId": 1145898974,
    "largeId": 132099,
    "smallId": 66563,
    "commonId": 1027
  },
  {
    "titleId": 1145898974,
    "largeId": 132100,
    "smallId": 66564,
    "commonId": 1028
  },
  {
    "titleId": 1145898974,
    "largeId": 132101,
    "smallId": 66565,
    "commonId": 1029
  },
  {
    "titleId": 1145898974,
    "largeId": 132102,
    "smallId": 66566,
    "commonId": 1030
  },
  {
    "titleId": 1145898974,
    "largeId": 132103,
    "smallId": 66567,
    "commonId": 1031
  },
  {
    "titleId": 1145898974,
    "largeId": 132104,
    "smallId": 66568,
    "commonId": 1032
  },
  {
    "titleId": 1145898974,
    "largeId": 132105,
    "smallId": 66569,
    "commonId": 1033
  },
  {
    "titleId": 1145898974,
    "largeId": 132106,
    "smallId": 66570,
    "commonId": 1034
  },
  {
    "titleId": 1145898974,
    "largeId": 132107,
    "smallId": 66571,
    "commonId": 1035
  },
  {
    "titleId": 1145898974,
    "largeId": 132108,
    "smallId": 66572,
    "commonId": 1036
  },
  {
    "titleId": 1145898974,
    "largeId": 132109,
    "smallId": 66573,
    "commonId": 1037
  },
  {
    "titleId": 1145898974,
    "largeId": 132110,
    "smallId": 66574,
    "commonId": 1038
  },
  {
    "titleId": 1145898974,
    "largeId": 132111,
    "smallId": 66575,
    "commonId": 1039
  },
  {
    "titleId": 1145898974,
    "largeId": 132112,
    "smallId": 66576,
    "commonId": 1040
  },
  {
    "titleId": 1145898974,
    "largeId": 132113,
    "smallId": 66577,
    "commonId": 1041
  },
  {
    "titleId": 1145898974,
    "largeId": 132114,
    "smallId": 66578,
    "commonId": 1042
  },
  {
    "titleId": 1145898974,
    "largeId": 132115,
    "smallId": 66579,
    "commonId": 1043
  },
  {
    "titleId": 1145898974,
    "largeId": 132116,
    "smallId": 66580,
    "commonId": 1044
  },
  {
    "titleId": 1145898974,
    "largeId": 132117,
    "smallId": 66581,
    "commonId": 1045
  },
  {
    "titleId": 1145898974,
    "largeId": 132118,
    "smallId": 66582,
    "commonId": 1046
  },
  {
    "titleId": 1145898974,
    "largeId": 132119,
    "smallId": 66583,
    "commonId": 1047
  },
  {
    "titleId": 1145898974,
    "largeId": 132120,
    "smallId": 66584,
    "commonId": 1048
  },
  {
    "titleId": 1145898974,
    "largeId": 132121,
    "smallId": 66585,
    "commonId": 1049
  },
  {
    "titleId": 1145898974,
    "largeId": 132122,
    "smallId": 66586,
    "commonId": 1050
  },
  {
    "titleId": 1145898974,
    "largeId": 132123,
    "smallId": 66587,
    "commonId": 1051
  },
  {
    "titleId": 1145898974,
    "largeId": 132124,
    "smallId": 66588,
    "commonId": 1052
  },
  {
    "titleId": 1145898974,
    "largeId": 132125,
    "smallId": 66589,
    "commonId": 1053
  },
  {
    "titleId": 1145898974,
    "largeId": 132126,
    "smallId": 66590,
    "commonId": 1054
  },
  {
    "titleId": 1145898974,
    "largeId": 132127,
    "smallId": 66591,
    "commonId": 1055
  },
  {
    "titleId": 1145898974,
    "largeId": 132128,
    "smallId": 66592,
    "commonId": 1056
  },
  {
    "titleId": 1145898974,
    "largeId": 132129,
    "smallId": 66593,
    "commonId": 1057
  },
  {
    "titleId": 1145898974,
    "largeId": 132130,
    "smallId": 66594,
    "commonId": 1058
  },
  {
    "titleId": 1145898974,
    "largeId": 132131,
    "smallId": 66595,
    "commonId": 1059
  },
  {
    "titleId": 1145898974,
    "largeId": 132132,
    "smallId": 66596,
    "commonId": 1060
  },
  {
    "titleId": 1145898974,
    "largeId": 132133,
    "smallId": 66597,
    "commonId": 1061
  },
  {
    "titleId": 1145898974,
    "largeId": 132134,
    "smallId": 66598,
    "commonId": 1062
  },
  {
    "titleId": 1145898974,
    "largeId": 132135,
    "smallId": 66599,
    "commonId": 1063
  },
  {
    "titleId": 1145898974,
    "largeId": 132136,
    "smallId": 66600,
    "commonId": 1064
  },
  {
    "titleId": 1145898974,
    "largeId": 132137,
    "smallId": 66601,
    "commonId": 1065
  },
  {
    "titleId": 1145898974,
    "largeId": 132138,
    "smallId": 66602,
    "commonId": 1066
  },
  {
    "titleId": 1145898974,
    "largeId": 132139,
    "smallId": 66603,
    "commonId": 1067
  },
  {
    "titleId": 1145898974,
    "largeId": 132140,
    "smallId": 66604,
    "commonId": 1068
  },
  {
    "titleId": 1145898974,
    "largeId": 132141,
    "smallId": 66605,
    "commonId": 1069
  },
  {
    "titleId": 1145898974,
    "largeId": 132142,
    "smallId": 66606,
    "commonId": 1070
  },
  {
    "titleId": 1145898974,
    "largeId": 132143,
    "smallId": 66607,
    "commonId": 1071
  },
  {
    "titleId": 1145898974,
    "largeId": 132144,
    "smallId": 66608,
    "commonId": 1072
  },
  {
    "titleId": 1145898974,
    "largeId": 132145,
    "smallId": 66609,
    "commonId": 1073
  },
  {
    "titleId": 1145898974,
    "largeId": 132146,
    "smallId": 66610,
    "commonId": 1074
  },
  {
    "titleId": 1145898974,
    "largeId": 132147,
    "smallId": 66611,
    "commonId": 1075
  },
  {
    "titleId": 1145898974,
    "largeId": 132148,
    "smallId": 66612,
    "commonId": 1076
  },
  {
    "titleId": 1145898974,
    "largeId": 132149,
    "smallId": 66613,
    "commonId": 1077
  },
  {
    "titleId": 1145898974,
    "largeId": 132150,
    "smallId": 66614,
    "commonId": 1078
  },
  {
    "titleId": 1145898974,
    "largeId": 132151,
    "smallId": 66615,
    "commonId": 1079
  },
  {
    "titleId": 1145898974,
    "largeId": 132152,
    "smallId": 66616,
    "commonId": 1080
  },
  {
    "titleId": 1145898974,
    "largeId": 132153,
    "smallId": 66617,
    "commonId": 1081
  },
  {
    "titleId": 1145898974,
    "largeId": 132154,
    "smallId": 66618,
    "commonId": 1082
  },
  {
    "titleId": 1145898974,
    "largeId": 132155,
    "smallId": 66619,
    "commonId": 1083
  },
  {
    "titleId": 1145898974,
    "largeId": 132156,
    "smallId": 66620,
    "commonId": 1084
  },
  {
    "titleId": 1145898974,
    "largeId": 132157,
    "smallId": 66621,
    "commonId": 1085
  },
  {
    "titleId": 1145898974,
    "largeId": 132158,
    "smallId": 66622,
    "commonId": 1086
  },
  {
    "titleId": 1145898974,
    "largeId": 132159,
    "smallId": 66623,
    "commonId": 1087
  },
  {
    "titleId": 1145898974,
    "largeId": 132160,
    "smallId": 66624,
    "commonId": 1088
  },
  {
    "titleId": 1145898974,
    "largeId": 132161,
    "smallId": 66625,
    "commonId": 1089
  },
  {
    "titleId": 1145898974,
    "largeId": 132162,
    "smallId": 66626,
    "commonId": 1090
  },
  {
    "titleId": 1145898974,
    "largeId": 132163,
    "smallId": 66627,
    "commonId": 1091
  },
  {
    "titleId": 1145898974,
    "largeId": 132164,
    "smallId": 66628,
    "commonId": 1092
  },
  {
    "titleId": 1145898974,
    "largeId": 132165,
    "smallId": 66629,
    "commonId": 1093
  },
  {
    "titleId": 1145898974,
    "largeId": 132166,
    "smallId": 66630,
    "commonId": 1094
  },
  {
    "titleId": 1145898974,
    "largeId": 132167,
    "smallId": 66631,
    "commonId": 1095
  },
  {
    "titleId": 1145898974,
    "largeId": 132168,
    "smallId": 66632,
    "commonId": 1096
  },
  {
    "titleId": 1145898974,
    "largeId": 132169,
    "smallId": 66633,
    "commonId": 1097
  },
  {
    "titleId": 1145898974,
    "largeId": 132170,
    "smallId": 66634,
    "commonId": 1098
  },
  {
    "titleId": 1145898974,
    "largeId": 132171,
    "smallId": 66635,
    "commonId": 1099
  },
  {
    "titleId": 1145898974,
    "largeId": 132172,
    "smallId": 66636,
    "commonId": 1100
  },
  {
    "titleId": 1145898974,
    "largeId": 132173,
    "smallId": 66637,
    "commonId": 1101
  },
  {
    "titleId": 1145898974,
    "largeId": 132174,
    "smallId": 66638,
    "commonId": 1102
  },
  {
    "titleId": 1145898974,
    "largeId": 132175,
    "smallId": 66639,
    "commonId": 1103
  },
  {
    "titleId": 1145898974,
    "largeId": 132176,
    "smallId": 66640,
    "commonId": 1104
  },
  {
    "titleId": 1145898974,
    "largeId": 132177,
    "smallId": 66641,
    "commonId": 1105
  },
  {
    "titleId": 1145898974,
    "largeId": 132178,
    "smallId": 66642,
    "commonId": 1106
  },
  {
    "titleId": 1145898974,
    "largeId": 132179,
    "smallId": 66643,
    "commonId": 1107
  },
  {
    "titleId": 1145898974,
    "largeId": 132180,
    "smallId": 66644,
    "commonId": 1108
  },
  {
    "titleId": 1145898974,
    "largeId": 132181,
    "smallId": 66645,
    "commonId": 1109
  },
  {
    "titleId": 1145898974,
    "largeId": 132182,
    "smallId": 66646,
    "commonId": 1110
  },
  {
    "titleId": 1145898974,
    "largeId": 132183,
    "smallId": 66647,
    "commonId": 1111
  },
  {
    "titleId": 1145898974,
    "largeId": 132184,
    "smallId": 66648,
    "commonId": 1112
  },
  {
    "titleId": 1145898974,
    "largeId": 132185,
    "smallId": 66649,
    "commonId": 1113
  },
  {
    "titleId": 1145898974,
    "largeId": 132186,
    "smallId": 66650,
    "commonId": 1114
  },
  {
    "titleId": 1145898974,
    "largeId": 132187,
    "smallId": 66651,
    "commonId": 1115
  },
  {
    "titleId": 1145898974,
    "largeId": 132188,
    "smallId": 66652,
    "commonId": 1116
  },
  {
    "titleId": 1145898974,
    "largeId": 132189,
    "smallId": 66653,
    "commonId": 1117
  },
  {
    "titleId": 1145898974,
    "largeId": 132190,
    "smallId": 66654,
    "commonId": 1118
  },
  {
    "titleId": 1145898974,
    "largeId": 132191,
    "smallId": 66655,
    "commonId": 1119
  },
  {
    "titleId": 1145898974,
    "largeId": 132192,
    "smallId": 66656,
    "commonId": 1120
  },
  {
    "titleId": 1145898974,
    "largeId": 132193,
    "smallId": 66657,
    "commonId": 1121
  },
  {
    "titleId": 1145898974,
    "largeId": 132194,
    "smallId": 66658,
    "commonId": 1122
  },
  {
    "titleId": 1145898974,
    "largeId": 132195,
    "smallId": 66659,
    "commonId": 1123
  },
  {
    "titleId": 1145898974,
    "largeId": 132196,
    "smallId": 66660,
    "commonId": 1124
  },
  {
    "titleId": 1145898974,
    "largeId": 132197,
    "smallId": 66661,
    "commonId": 1125
  },
  {
    "titleId": 1145898974,
    "largeId": 132198,
    "smallId": 66662,
    "commonId": 1126
  },
  {
    "titleId": 1145898974,
    "largeId": 132199,
    "smallId": 66663,
    "commonId": 1127
  },
  {
    "titleId": 1145898974,
    "largeId": 132200,
    "smallId": 66664,
    "commonId": 1128
  },
  {
    "titleId": 1145898974,
    "largeId": 132201,
    "smallId": 66665,
    "commonId": 1129
  },
  {
    "titleId": 1145898974,
    "largeId": 132202,
    "smallId": 66666,
    "commonId": 1130
  },
  {
    "titleId": 1145898974,
    "largeId": 132203,
    "smallId": 66667,
    "commonId": 1131
  },
  {
    "titleId": 1145898974,
    "largeId": 132204,
    "smallId": 66668,
    "commonId": 1132
  },
  {
    "titleId": 1145898974,
    "largeId": 132205,
    "smallId": 66669,
    "commonId": 1133
  },
  {
    "titleId": 1145898974,
    "largeId": 132206,
    "smallId": 66670,
    "commonId": 1134
  },
  {
    "titleId": 1145898974,
    "largeId": 132207,
    "smallId": 66671,
    "commonId": 1135
  },
  {
    "titleId": 1145898974,
    "largeId": 132208,
    "smallId": 66672,
    "commonId": 1136
  },
  {
    "titleId": 1145898974,
    "largeId": 132209,
    "smallId": 66673,
    "commonId": 1137
  },
  {
    "titleId": 1145898974,
    "largeId": 132210,
    "smallId": 66674,
    "commonId": 1138
  },
  {
    "titleId": 1145898974,
    "largeId": 132211,
    "smallId": 66675,
    "commonId": 1139
  },
  {
    "titleId": 1145898974,
    "largeId": 132212,
    "smallId": 66676,
    "commonId": 1140
  },
  {
    "titleId": 1145898974,
    "largeId": 132213,
    "smallId": 66677,
    "commonId": 1141
  },
  {
    "titleId": 1145898974,
    "largeId": 132214,
    "smallId": 66678,
    "commonId": 1142
  },
  {
    "titleId": 1145898974,
    "largeId": 132215,
    "smallId": 66679,
    "commonId": 1143
  },
  {
    "titleId": 1145898974,
    "largeId": 132216,
    "smallId": 66680,
    "commonId": 1144
  },
  {
    "titleId": 1145898974,
    "largeId": 132217,
    "smallId": 66681,
    "commonId": 1145
  },
  {
    "titleId": 1145898974,
    "largeId": 132218,
    "smallId": 66682,
    "commonId": 1146
  },
  {
    "titleId": 1145898974,
    "largeId": 132219,
    "smallId": 66683,
    "commonId": 1147
  },
  {
    "titleId": 1145898974,
    "largeId": 132220,
    "smallId": 66684,
    "commonId": 1148
  },
  {
    "titleId": 1145898974,
    "largeId": 132221,
    "smallId": 66685,
    "commonId": 1149
  },
  {
    "titleId": 1145898974,
    "largeId": 132222,
    "smallId": 66686,
    "commonId": 1150
  },
  {
    "titleId": 1145898974,
    "largeId": 132223,
    "smallId": 66687,
    "commonId": 1151
  },
  {
    "titleId": 1145898974,
    "largeId": 132224,
    "smallId": 66688,
    "commonId": 1152
  },
  {
    "titleId": 1145898974,
    "largeId": 132225,
    "smallId": 66689,
    "commonId": 1153
  },
  {
    "titleId": 1145898974,
    "largeId": 132226,
    "smallId": 66690,
    "commonId": 1154
  },
  {
    "titleId": 1145898974,
    "largeId": 132227,
    "smallId": 66691,
    "commonId": 1155
  },
  {
    "titleId": 1145898974,
    "largeId": 132228,
    "smallId": 66692,
    "commonId": 1156
  },
  {
    "titleId": 1145898974,
    "largeId": 132229,
    "smallId": 66693,
    "commonId": 1157
  },
  {
    "titleId": 1145898974,
    "largeId": 132230,
    "smallId": 66694,
    "commonId": 1158
  },
  {
    "titleId": 1145898974,
    "largeId": 132231,
    "smallId": 66695,
    "commonId": 1159
  },
  {
    "titleId": 1145898974,
    "largeId": 132232,
    "smallId": 66696,
    "commonId": 1160
  },
  {
    "titleId": 1145898974,
    "largeId": 132233,
    "smallId": 66697,
    "commonId": 1161
  },
  {
    "titleId": 1145898974,
    "largeId": 132234,
    "smallId": 66698,
    "commonId": 1162
  },
  {
    "titleId": 1145898974,
    "largeId": 132235,
    "smallId": 66699,
    "commonId": 1163
  },
  {
    "titleId": 1145898974,
    "largeId": 132236,
    "smallId": 66700,
    "commonId": 1164
  },
  {
    "titleId": 1145898974,
    "largeId": 132237,
    "smallId": 66701,
    "commonId": 1165
  },
  {
    "titleId": 1145898974,
    "largeId": 132238,
    "smallId": 66702,
    "commonId": 1166
  },
  {
    "titleId": 1145898974,
    "largeId": 132239,
    "smallId": 66703,
    "commonId": 1167
  },
  {
    "titleId": 1145898974,
    "largeId": 132240,
    "smallId": 66704,
    "commonId": 1168
  },
  {
    "titleId": 1145898974,
    "largeId": 132241,
    "smallId": 66705,
    "commonId": 1169
  },
  {
    "titleId": 1145898974,
    "largeId": 132242,
    "smallId": 66706,
    "commonId": 1170
  },
  {
    "titleId": 1145898974,
    "largeId": 132243,
    "smallId": 66707,
    "commonId": 1171
  },
  {
    "titleId": 1145898974,
    "largeId": 132244,
    "smallId": 66708,
    "commonId": 1172
  },
  {
    "titleId": 1145898974,
    "largeId": 132245,
    "smallId": 66709,
    "commonId": 1173
  },
  {
    "titleId": 1145898974,
    "largeId": 132246,
    "smallId": 66710,
    "commonId": 1174
  },
  {
    "titleId": 1145898974,
    "largeId": 132247,
    "smallId": 66711,
    "commonId": 1175
  },
  {
    "titleId": 1145898974,
    "largeId": 132248,
    "smallId": 66712,
    "commonId": 1176
  },
  {
    "titleId": 1145898974,
    "largeId": 132249,
    "smallId": 66713,
    "commonId": 1177
  },
  {
    "titleId": 1145898974,
    "largeId": 132250,
    "smallId": 66714,
    "commonId": 1178
  },
  {
    "titleId": 1145898974,
    "largeId": 132251,
    "smallId": 66715,
    "commonId": 1179
  },
  {
    "titleId": 1145898974,
    "largeId": 132252,
    "smallId": 66716,
    "commonId": 1180
  },
  {
    "titleId": 1145898974,
    "largeId": 132253,
    "smallId": 66717,
    "commonId": 1181
  },
  {
    "titleId": 1145898974,
    "largeId": 132254,
    "smallId": 66718,
    "commonId": 1182
  },
  {
    "titleId": 1145898974,
    "largeId": 132255,
    "smallId": 66719,
    "commonId": 1183
  },
  {
    "titleId": 1145898974,
    "largeId": 132256,
    "smallId": 66720,
    "commonId": 1184
  },
  {
    "titleId": 1145898974,
    "largeId": 132257,
    "smallId": 66721,
    "commonId": 1185
  },
  {
    "titleId": 1145898974,
    "largeId": 132258,
    "smallId": 66722,
    "commonId": 1186
  },
  {
    "titleId": 1145898974,
    "largeId": 132259,
    "smallId": 66723,
    "commonId": 1187
  },
  {
    "titleId": 1145898974,
    "largeId": 132260,
    "smallId": 66724,
    "commonId": 1188
  },
  {
    "titleId": 1145898974,
    "largeId": 132261,
    "smallId": 66725,
    "commonId": 1189
  },
  {
    "titleId": 1145898974,
    "largeId": 132262,
    "smallId": 66726,
    "commonId": 1190
  },
  {
    "titleId": 1145898974,
    "largeId": 132263,
    "smallId": 66727,
    "commonId": 1191
  },
  {
    "titleId": 1145898974,
    "largeId": 132264,
    "smallId": 66728,
    "commonId": 1192
  },
  {
    "titleId": 1145898974,
    "largeId": 132265,
    "smallId": 66729,
    "commonId": 1193
  },
  {
    "titleId": 1145898974,
    "largeId": 132266,
    "smallId": 66730,
    "commonId": 1194
  },
  {
    "titleId": 1145898974,
    "largeId": 132267,
    "smallId": 66731,
    "commonId": 1195
  },
  {
    "titleId": 1145898974,
    "largeId": 132268,
    "smallId": 66732,
    "commonId": 1196
  },
  {
    "titleId": 1145898974,
    "largeId": 132269,
    "smallId": 66733,
    "commonId": 1197
  },
  {
    "titleId": 1145898974,
    "largeId": 132270,
    "smallId": 66734,
    "commonId": 1198
  },
  {
    "titleId": 1145898974,
    "largeId": 132271,
    "smallId": 66735,
    "commonId": 1199
  },
  {
    "titleId": 1145898974,
    "largeId": 132272,
    "smallId": 66736,
    "commonId": 1200
  },
  {
    "titleId": 1145898974,
    "largeId": 132273,
    "smallId": 66737,
    "commonId": 1201
  },
  {
    "titleId": 1145898974,
    "largeId": 132274,
    "smallId": 66738,
    "commonId": 1202
  },
  {
    "titleId": 1145898974,
    "largeId": 132275,
    "smallId": 66739,
    "commonId": 1203
  },
  {
    "titleId": 1145898974,
    "largeId": 132276,
    "smallId": 66740,
    "commonId": 1204
  },
  {
    "titleId": 1145898974,
    "largeId": 132277,
    "smallId": 66741,
    "commonId": 1205
  },
  {
    "titleId": 1145898974,
    "largeId": 132278,
    "smallId": 66742,
    "commonId": 1206
  },
  {
    "titleId": 1145898974,
    "largeId": 132279,
    "smallId": 66743,
    "commonId": 1207
  },
  {
    "titleId": 1145898974,
    "largeId": 132280,
    "smallId": 66744,
    "commonId": 1208
  },
  {
    "titleId": 1145898974,
    "largeId": 132281,
    "smallId": 66745,
    "commonId": 1209
  },
  {
    "titleId": 1145898974,
    "largeId": 132282,
    "smallId": 66746,
    "commonId": 1210
  },
  {
    "titleId": 1145898974,
    "largeId": 132283,
    "smallId": 66747,
    "commonId": 1211
  },
  {
    "titleId": 1145898974,
    "largeId": 132284,
    "smallId": 66748,
    "commonId": 1212
  },
  {
    "titleId": 1145898974,
    "largeId": 132285,
    "smallId": 66749,
    "commonId": 1213
  },
  {
    "titleId": 1145898974,
    "largeId": 132286,
    "smallId": 66750,
    "commonId": 1214
  },
  {
    "titleId": 1145898974,
    "largeId": 132287,
    "smallId": 66751,
    "commonId": 1215
  },
  {
    "titleId": 1145898974,
    "largeId": 132288,
    "smallId": 66752,
    "commonId": 1216
  },
  {
    "titleId": 1145898974,
    "largeId": 132289,
    "smallId": 66753,
    "commonId": 1217
  },
  {
    "titleId": 1145898974,
    "largeId": 132290,
    "smallId": 66754,
    "commonId": 1218
  },
  {
    "titleId": 1145898974,
    "largeId": 132291,
    "smallId": 66755,
    "commonId": 1219
  },
  {
    "titleId": 1145898974,
    "largeId": 132292,
    "smallId": 66756,
    "commonId": 1220
  },
  {
    "titleId": 1145898974,
    "largeId": 132293,
    "smallId": 66757,
    "commonId": 1221
  },
  {
    "titleId": 1145898974,
    "largeId": 132294,
    "smallId": 66758,
    "commonId": 1222
  },
  {
    "titleId": 1145898974,
    "largeId": 132295,
    "smallId": 66759,
    "commonId": 1223
  },
  {
    "titleId": 1145898974,
    "largeId": 132296,
    "smallId": 66760,
    "commonId": 1224
  },
  {
    "titleId": 1145898974,
    "largeId": 132297,
    "smallId": 66761,
    "commonId": 1225
  },
  {
    "titleId": 1145898974,
    "largeId": 132298,
    "smallId": 66762,
    "commonId": 1226
  },
  {
    "titleId": 1145898974,
    "largeId": 132299,
    "smallId": 66763,
    "commonId": 1227
  },
  {
    "titleId": 1145898974,
    "largeId": 132300,
    "smallId": 66764,
    "commonId": 1228
  },
  {
    "titleId": 1145898974,
    "largeId": 132301,
    "smallId": 66765,
    "commonId": 1229
  },
  {
    "titleId": 1145898974,
    "largeId": 132302,
    "smallId": 66766,
    "commonId": 1230
  },
  {
    "titleId": 1145898974,
    "largeId": 132303,
    "smallId": 66767,
    "commonId": 1231
  },
  {
    "titleId": 1145898974,
    "largeId": 132304,
    "smallId": 66768,
    "commonId": 1232
  },
  {
    "titleId": 1145898974,
    "largeId": 132305,
    "smallId": 66769,
    "commonId": 1233
  },
  {
    "titleId": 1145898974,
    "largeId": 132306,
    "smallId": 66770,
    "commonId": 1234
  },
  {
    "titleId": 1145898974,
    "largeId": 132307,
    "smallId": 66771,
    "commonId": 1235
  },
  {
    "titleId": 1145898974,
    "largeId": 132308,
    "smallId": 66772,
    "commonId": 1236
  },
  {
    "titleId": 1145898974,
    "largeId": 132309,
    "smallId": 66773,
    "commonId": 1237
  },
  {
    "titleId": 1145898974,
    "largeId": 132310,
    "smallId": 66774,
    "commonId": 1238
  },
  {
    "titleId": 1145898974,
    "largeId": 132311,
    "smallId": 66775,
    "commonId": 1239
  },
  {
    "titleId": 1145898974,
    "largeId": 132312,
    "smallId": 66776,
    "commonId": 1240
  },
  {
    "titleId": 1145898974,
    "largeId": 132313,
    "smallId": 66777,
    "commonId": 1241
  },
  {
    "titleId": 1145898974,
    "largeId": 132314,
    "smallId": 66778,
    "commonId": 1242
  },
  {
    "titleId": 1145898974,
    "largeId": 132315,
    "smallId": 66779,
    "commonId": 1243
  },
  {
    "titleId": 1145898974,
    "largeId": 132316,
    "smallId": 66780,
    "commonId": 1244
  },
  {
    "titleId": 1145898974,
    "largeId": 132317,
    "smallId": 66781,
    "commonId": 1245
  },
  {
    "titleId": 1145898974,
    "largeId": 132318,
    "smallId": 66782,
    "commonId": 1246
  },
  {
    "titleId": 1145898974,
    "largeId": 132319,
    "smallId": 66783,
    "commonId": 1247
  },
  {
    "titleId": 1145898974,
    "largeId": 132320,
    "smallId": 66784,
    "commonId": 1248
  },
  {
    "titleId": 1145898974,
    "largeId": 132321,
    "smallId": 66785,
    "commonId": 1249
  },
  {
    "titleId": 1145898974,
    "largeId": 132322,
    "smallId": 66786,
    "commonId": 1250
  },
  {
    "titleId": 1145898974,
    "largeId": 132323,
    "smallId": 66787,
    "commonId": 1251
  },
  {
    "titleId": 1145898974,
    "largeId": 132324,
    "smallId": 66788,
    "commonId": 1252
  },
  {
    "titleId": 1145898974,
    "largeId": 132325,
    "smallId": 66789,
    "commonId": 1253
  },
  {
    "titleId": 1145898974,
    "largeId": 132326,
    "smallId": 66790,
    "commonId": 1254
  },
  {
    "titleId": 1145898974,
    "largeId": 132327,
    "smallId": 66791,
    "commonId": 1255
  },
  {
    "titleId": 1145898974,
    "largeId": 132328,
    "smallId": 66792,
    "commonId": 1256
  },
  {
    "titleId": 1145898974,
    "largeId": 132329,
    "smallId": 66793,
    "commonId": 1257
  },
  {
    "titleId": 1145898974,
    "largeId": 132330,
    "smallId": 66794,
    "commonId": 1258
  },
  {
    "titleId": 1145898974,
    "largeId": 132331,
    "smallId": 66795,
    "commonId": 1259
  },
  {
    "titleId": 1145898974,
    "largeId": 132332,
    "smallId": 66796,
    "commonId": 1260
  },
  {
    "titleId": 1145898974,
    "largeId": 132333,
    "smallId": 66797,
    "commonId": 1261
  },
  {
    "titleId": 1145898974,
    "largeId": 132334,
    "smallId": 66798,
    "commonId": 1262
  },
  {
    "titleId": 1145898974,
    "largeId": 132335,
    "smallId": 66799,
    "commonId": 1263
  },
  {
    "titleId": 1145898974,
    "largeId": 132336,
    "smallId": 66800,
    "commonId": 1264
  },
  {
    "titleId": 1145898974,
    "largeId": 132337,
    "smallId": 66801,
    "commonId": 1265
  },
  {
    "titleId": 1145898974,
    "largeId": 132338,
    "smallId": 66802,
    "commonId": 1266
  },
  {
    "titleId": 1145898974,
    "largeId": 132339,
    "smallId": 66803,
    "commonId": 1267
  },
  {
    "titleId": 1145898974,
    "largeId": 132340,
    "smallId": 66804,
    "commonId": 1268
  },
  {
    "titleId": 1145898974,
    "largeId": 132341,
    "smallId": 66805,
    "commonId": 1269
  },
  {
    "titleId": 1145898974,
    "largeId": 132342,
    "smallId": 66806,
    "commonId": 1270
  },
  {
    "titleId": 1145898974,
    "largeId": 132343,
    "smallId": 66807,
    "commonId": 1271
  },
  {
    "titleId": 1145898974,
    "largeId": 132344,
    "smallId": 66808,
    "commonId": 1272
  },
  {
    "titleId": 1145898974,
    "largeId": 132345,
    "smallId": 66809,
    "commonId": 1273
  },
  {
    "titleId": 1145898974,
    "largeId": 132346,
    "smallId": 66810,
    "commonId": 1274
  },
  {
    "titleId": 1145898974,
    "largeId": 132347,
    "smallId": 66811,
    "commonId": 1275
  },
  {
    "titleId": 1145898974,
    "largeId": 132348,
    "smallId": 66812,
    "commonId": 1276
  },
  {
    "titleId": 1145898974,
    "largeId": 132349,
    "smallId": 66813,
    "commonId": 1277
  },
  {
    "titleId": 1145898974,
    "largeId": 132350,
    "smallId": 66814,
    "commonId": 1278
  },
  {
    "titleId": 1145898974,
    "largeId": 132351,
    "smallId": 66815,
    "commonId": 1279
  },
  {
    "titleId": 1145898974,
    "largeId": 132352,
    "smallId": 66816,
    "commonId": 1280
  },
  {
    "titleId": 1145898974,
    "largeId": 132353,
    "smallId": 66817,
    "commonId": 1281
  },
  {
    "titleId": 1145898974,
    "largeId": 132354,
    "smallId": 66818,
    "commonId": 1282
  },
  {
    "titleId": 1145898974,
    "largeId": 132355,
    "smallId": 66819,
    "commonId": 1283
  },
  {
    "titleId": 1145898974,
    "largeId": 132356,
    "smallId": 66820,
    "commonId": 1284
  },
  {
    "titleId": 1145898974,
    "largeId": 132357,
    "smallId": 66821,
    "commonId": 1285
  },
  {
    "titleId": 1145898974,
    "largeId": 132358,
    "smallId": 66822,
    "commonId": 1286
  },
  {
    "titleId": 1145898974,
    "largeId": 132359,
    "smallId": 66823,
    "commonId": 1287
  },
  {
    "titleId": 1145898974,
    "largeId": 132360,
    "smallId": 66824,
    "commonId": 1288
  },
  {
    "titleId": 1145898974,
    "largeId": 132361,
    "smallId": 66825,
    "commonId": 1289
  },
  {
    "titleId": 1145898974,
    "largeId": 132362,
    "smallId": 66826,
    "commonId": 1290
  },
  {
    "titleId": 1145898974,
    "largeId": 132363,
    "smallId": 66827,
    "commonId": 1291
  },
  {
    "titleId": 1145898974,
    "largeId": 132364,
    "smallId": 66828,
    "commonId": 1292
  },
  {
    "titleId": 1145898974,
    "largeId": 132365,
    "smallId": 66829,
    "commonId": 1293
  },
  {
    "titleId": 1145898974,
    "largeId": 132366,
    "smallId": 66830,
    "commonId": 1294
  },
  {
    "titleId": 1145898974,
    "largeId": 132367,
    "smallId": 66831,
    "commonId": 1295
  },
  {
    "titleId": 1145898974,
    "largeId": 132368,
    "smallId": 66832,
    "commonId": 1296
  },
  {
    "titleId": 1145898974,
    "largeId": 132369,
    "smallId": 66833,
    "commonId": 1297
  },
  {
    "titleId": 1145898974,
    "largeId": 132370,
    "smallId": 66834,
    "commonId": 1298
  },
  {
    "titleId": 1145898974,
    "largeId": 132371,
    "smallId": 66835,
    "commonId": 1299
  },
  {
    "titleId": 1145898974,
    "largeId": 132372,
    "smallId": 66836,
    "commonId": 1300
  },
  {
    "titleId": 1145898974,
    "largeId": 132373,
    "smallId": 66837,
    "commonId": 1301
  },
  {
    "titleId": 1145898974,
    "largeId": 132374,
    "smallId": 66838,
    "commonId": 1302
  },
  {
    "titleId": 1145898974,
    "largeId": 132375,
    "smallId": 66839,
    "commonId": 1303
  },
  {
    "titleId": 1145898974,
    "largeId": 132376,
    "smallId": 66840,
    "commonId": 1304
  },
  {
    "titleId": 1145898974,
    "largeId": 132377,
    "smallId": 66841,
    "commonId": 1305
  },
  {
    "titleId": 1145898974,
    "largeId": 132378,
    "smallId": 66842,
    "commonId": 1306
  },
  {
    "titleId": 1145898974,
    "largeId": 132379,
    "smallId": 66843,
    "commonId": 1307
  },
  {
    "titleId": 1145898974,
    "largeId": 132380,
    "smallId": 66844,
    "commonId": 1308
  },
  {
    "titleId": 1145898974,
    "largeId": 132381,
    "smallId": 66845,
    "commonId": 1309
  },
  {
    "titleId": 1145898974,
    "largeId": 132382,
    "smallId": 66846,
    "commonId": 1310
  },
  {
    "titleId": 1145898974,
    "largeId": 132383,
    "smallId": 66847,
    "commonId": 1311
  },
  {
    "titleId": 1145898974,
    "largeId": 132384,
    "smallId": 66848,
    "commonId": 1312
  },
  {
    "titleId": 1145898974,
    "largeId": 132385,
    "smallId": 66849,
    "commonId": 1313
  },
  {
    "titleId": 1145898974,
    "largeId": 132386,
    "smallId": 66850,
    "commonId": 1314
  },
  {
    "titleId": 1145898974,
    "largeId": 132387,
    "smallId": 66851,
    "commonId": 1315
  },
  {
    "titleId": 1145898974,
    "largeId": 132388,
    "smallId": 66852,
    "commonId": 1316
  },
  {
    "titleId": 1145898974,
    "largeId": 132389,
    "smallId": 66853,
    "commonId": 1317
  },
  {
    "titleId": 1145898974,
    "largeId": 132390,
    "smallId": 66854,
    "commonId": 1318
  },
  {
    "titleId": 1145898974,
    "largeId": 132391,
    "smallId": 66855,
    "commonId": 1319
  },
  {
    "titleId": 1145898974,
    "largeId": 132392,
    "smallId": 66856,
    "commonId": 1320
  },
  {
    "titleId": 1145898974,
    "largeId": 132393,
    "smallId": 66857,
    "commonId": 1321
  },
  {
    "titleId": 1145898974,
    "largeId": 132394,
    "smallId": 66858,
    "commonId": 1322
  },
  {
    "titleId": 1145898974,
    "largeId": 132395,
    "smallId": 66859,
    "commonId": 1323
  },
  {
    "titleId": 1145898974,
    "largeId": 132396,
    "smallId": 66860,
    "commonId": 1324
  },
  {
    "titleId": 1145898974,
    "largeId": 132397,
    "smallId": 66861,
    "commonId": 1325
  },
  {
    "titleId": 1145898974,
    "largeId": 132398,
    "smallId": 66862,
    "commonId": 1326
  },
  {
    "titleId": 1145898974,
    "largeId": 132399,
    "smallId": 66863,
    "commonId": 1327
  },
  {
    "titleId": 1145898974,
    "largeId": 132400,
    "smallId": 66864,
    "commonId": 1328
  },
  {
    "titleId": 1145898974,
    "largeId": 132401,
    "smallId": 66865,
    "commonId": 1329
  },
  {
    "titleId": 1145898974,
    "largeId": 132402,
    "smallId": 66866,
    "commonId": 1330
  },
  {
    "titleId": 1145898974,
    "largeId": 132403,
    "smallId": 66867,
    "commonId": 1331
  },
  {
    "titleId": 1145898974,
    "largeId": 132404,
    "smallId": 66868,
    "commonId": 1332
  },
  {
    "titleId": 1145898974,
    "largeId": 132405,
    "smallId": 66869,
    "commonId": 1333
  },
  {
    "titleId": 1145898974,
    "largeId": 132406,
    "smallId": 66870,
    "commonId": 1334
  },
  {
    "titleId": 1145898974,
    "largeId": 132407,
    "smallId": 66871,
    "commonId": 1335
  },
  {
    "titleId": 1145898974,
    "largeId": 132408,
    "smallId": 66872,
    "commonId": 1336
  },
  {
    "titleId": 1145898974,
    "largeId": 132409,
    "smallId": 66873,
    "commonId": 1337
  },
  {
    "titleId": 1145898974,
    "largeId": 132410,
    "smallId": 66874,
    "commonId": 1338
  },
  {
    "titleId": 1145898974,
    "largeId": 132411,
    "smallId": 66875,
    "commonId": 1339
  },
  {
    "titleId": 1145898974,
    "largeId": 132412,
    "smallId": 66876,
    "commonId": 1340
  },
  {
    "titleId": 1145898974,
    "largeId": 132413,
    "smallId": 66877,
    "commonId": 1341
  },
  {
    "titleId": 1145898974,
    "largeId": 132414,
    "smallId": 66878,
    "commonId": 1342
  },
  {
    "titleId": 1145898974,
    "largeId": 132415,
    "smallId": 66879,
    "commonId": 1343
  },
  {
    "titleId": 1145898974,
    "largeId": 132416,
    "smallId": 66880,
    "commonId": 1344
  },
  {
    "titleId": 1145898974,
    "largeId": 132417,
    "smallId": 66881,
    "commonId": 1345
  },
  {
    "titleId": 1145898974,
    "largeId": 132418,
    "smallId": 66882,
    "commonId": 1346
  },
  {
    "titleId": 1145898974,
    "largeId": 132419,
    "smallId": 66883,
    "commonId": 1347
  },
  {
    "titleId": 1145898974,
    "largeId": 132420,
    "smallId": 66884,
    "commonId": 1348
  },
  {
    "titleId": 1145898974,
    "largeId": 132421,
    "smallId": 66885,
    "commonId": 1349
  },
  {
    "titleId": 1145898974,
    "largeId": 132422,
    "smallId": 66886,
    "commonId": 1350
  },
  {
    "titleId": 1145898974,
    "largeId": 132423,
    "smallId": 66887,
    "commonId": 1351
  },
  {
    "titleId": 1145898974,
    "largeId": 132424,
    "smallId": 66888,
    "commonId": 1352
  },
  {
    "titleId": 1145898974,
    "largeId": 132425,
    "smallId": 66889,
    "commonId": 1353
  },
  {
    "titleId": 1145898974,
    "largeId": 132426,
    "smallId": 66890,
    "commonId": 1354
  },
  {
    "titleId": 1145898974,
    "largeId": 132427,
    "smallId": 66891,
    "commonId": 1355
  },
  {
    "titleId": 1145898974,
    "largeId": 132428,
    "smallId": 66892,
    "commonId": 1356
  },
  {
    "titleId": 1145898974,
    "largeId": 132429,
    "smallId": 66893,
    "commonId": 1357
  },
  {
    "titleId": 1145898974,
    "largeId": 132430,
    "smallId": 66894,
    "commonId": 1358
  },
  {
    "titleId": 1145898974,
    "largeId": 132431,
    "smallId": 66895,
    "commonId": 1359
  },
  {
    "titleId": 1145898974,
    "largeId": 132432,
    "smallId": 66896,
    "commonId": 1360
  },
  {
    "titleId": 1145898974,
    "largeId": 132433,
    "smallId": 66897,
    "commonId": 1361
  },
  {
    "titleId": 1145898974,
    "largeId": 132434,
    "smallId": 66898,
    "commonId": 1362
  },
  {
    "titleId": 1145898974,
    "largeId": 132435,
    "smallId": 66899,
    "commonId": 1363
  },
  {
    "titleId": 1145898974,
    "largeId": 132436,
    "smallId": 66900,
    "commonId": 1364
  },
  {
    "titleId": 1145898974,
    "largeId": 132437,
    "smallId": 66901,
    "commonId": 1365
  },
  {
    "titleId": 1145898974,
    "largeId": 132438,
    "smallId": 66902,
    "commonId": 1366
  },
  {
    "titleId": 1145898974,
    "largeId": 132439,
    "smallId": 66903,
    "commonId": 1367
  },
  {
    "titleId": 1145898974,
    "largeId": 132440,
    "smallId": 66904,
    "commonId": 1368
  },
  {
    "titleId": 1145898974,
    "largeId": 132441,
    "smallId": 66905,
    "commonId": 1369
  },
  {
    "titleId": 1145898974,
    "largeId": 132442,
    "smallId": 66906,
    "commonId": 1370
  },
  {
    "titleId": 1145898974,
    "largeId": 132443,
    "smallId": 66907,
    "commonId": 1371
  },
  {
    "titleId": 1145898974,
    "largeId": 132444,
    "smallId": 66908,
    "commonId": 1372
  },
  {
    "titleId": 1145898974,
    "largeId": 132445,
    "smallId": 66909,
    "commonId": 1373
  },
  {
    "titleId": 1145898974,
    "largeId": 132446,
    "smallId": 66910,
    "commonId": 1374
  },
  {
    "titleId": 1145898974,
    "largeId": 132447,
    "smallId": 66911,
    "commonId": 1375
  },
  {
    "titleId": 1145898974,
    "largeId": 132448,
    "smallId": 66912,
    "commonId": 1376
  },
  {
    "titleId": 1145898974,
    "largeId": 132449,
    "smallId": 66913,
    "commonId": 1377
  },
  {
    "titleId": 1145898974,
    "largeId": 132450,
    "smallId": 66914,
    "commonId": 1378
  },
  {
    "titleId": 1145898974,
    "largeId": 132451,
    "smallId": 66915,
    "commonId": 1379
  },
  {
    "titleId": 1145898974,
    "largeId": 132452,
    "smallId": 66916,
    "commonId": 1380
  },
  {
    "titleId": 1145898974,
    "largeId": 132453,
    "smallId": 66917,
    "commonId": 1381
  },
  {
    "titleId": 1145898974,
    "largeId": 132454,
    "smallId": 66918,
    "commonId": 1382
  },
  {
    "titleId": 1145898974,
    "largeId": 132455,
    "smallId": 66919,
    "commonId": 1383
  },
  {
    "titleId": 1145898974,
    "largeId": 132456,
    "smallId": 66920,
    "commonId": 1384
  },
  {
    "titleId": 1145898974,
    "largeId": 132457,
    "smallId": 66921,
    "commonId": 1385
  },
  {
    "titleId": 1145898974,
    "largeId": 132458,
    "smallId": 66922,
    "commonId": 1386
  },
  {
    "titleId": 1145898974,
    "largeId": 132459,
    "smallId": 66923,
    "commonId": 1387
  },
  {
    "titleId": 1145898974,
    "largeId": 132460,
    "smallId": 66924,
    "commonId": 1388
  },
  {
    "titleId": 1145898974,
    "largeId": 132461,
    "smallId": 66925,
    "commonId": 1389
  },
  {
    "titleId": 1145898974,
    "largeId": 132462,
    "smallId": 66926,
    "commonId": 1390
  },
  {
    "titleId": 1145898974,
    "largeId": 132463,
    "smallId": 66927,
    "commonId": 1391
  },
  {
    "titleId": 1145898974,
    "largeId": 132464,
    "smallId": 66928,
    "commonId": 1392
  },
  {
    "titleId": 1145898974,
    "largeId": 132465,
    "smallId": 66929,
    "commonId": 1393
  },
  {
    "titleId": 1145898974,
    "largeId": 132466,
    "smallId": 66930,
    "commonId": 1394
  },
  {
    "titleId": 1145898974,
    "largeId": 132467,
    "smallId": 66931,
    "commonId": 1395
  },
  {
    "titleId": 1145898974,
    "largeId": 132468,
    "smallId": 66932,
    "commonId": 1396
  },
  {
    "titleId": 1145898974,
    "largeId": 132469,
    "smallId": 66933,
    "commonId": 1397
  },
  {
    "titleId": 1145898974,
    "largeId": 132470,
    "smallId": 66934,
    "commonId": 1398
  },
  {
    "titleId": 1145898974,
    "largeId": 132471,
    "smallId": 66935,
    "commonId": 1399
  },
  {
    "titleId": 1145898974,
    "largeId": 132472,
    "smallId": 66936,
    "commonId": 1400
  },
  {
    "titleId": 1145898974,
    "largeId": 132473,
    "smallId": 66937,
    "commonId": 1401
  },
  {
    "titleId": 1145898974,
    "largeId": 132474,
    "smallId": 66938,
    "commonId": 1402
  },
  {
    "titleId": 1145898974,
    "largeId": 132475,
    "smallId": 66939,
    "commonId": 1403
  },
  {
    "titleId": 1145898974,
    "largeId": 132476,
    "smallId": 66940,
    "commonId": 1404
  },
  {
    "titleId": 1145898974,
    "largeId": 132477,
    "smallId": 66941,
    "commonId": 1405
  },
  {
    "titleId": 1145898974,
    "largeId": 132478,
    "smallId": 66942,
    "commonId": 1406
  },
  {
    "titleId": 1145898974,
    "largeId": 132479,
    "smallId": 66943,
    "commonId": 1407
  },
  {
    "titleId": 1145898974,
    "largeId": 132480,
    "smallId": 66944,
    "commonId": 1408
  },
  {
    "titleId": 1145898974,
    "largeId": 132481,
    "smallId": 66945,
    "commonId": 1409
  },
  {
    "titleId": 1145898974,
    "largeId": 132482,
    "smallId": 66946,
    "commonId": 1410
  },
  {
    "titleId": 1145898974,
    "largeId": 132483,
    "smallId": 66947,
    "commonId": 1411
  },
  {
    "titleId": 1145898974,
    "largeId": 132484,
    "smallId": 66948,
    "commonId": 1412
  },
  {
    "titleId": 1145898974,
    "largeId": 132485,
    "smallId": 66949,
    "commonId": 1413
  },
  {
    "titleId": 1145898974,
    "largeId": 132486,
    "smallId": 66950,
    "commonId": 1414
  },
  {
    "titleId": 1145898974,
    "largeId": 132487,
    "smallId": 66951,
    "commonId": 1415
  },
  {
    "titleId": 1145898974,
    "largeId": 132488,
    "smallId": 66952,
    "commonId": 1416
  },
  {
    "titleId": 1145898974,
    "largeId": 132489,
    "smallId": 66953,
    "commonId": 1417
  },
  {
    "titleId": 1145898974,
    "largeId": 132490,
    "smallId": 66954,
    "commonId": 1418
  },
  {
    "titleId": 1145898974,
    "largeId": 132491,
    "smallId": 66955,
    "commonId": 1419
  },
  {
    "titleId": 1145898974,
    "largeId": 132492,
    "smallId": 66956,
    "commonId": 1420
  },
  {
    "titleId": 1145898974,
    "largeId": 132493,
    "smallId": 66957,
    "commonId": 1421
  },
  {
    "titleId": 1145898974,
    "largeId": 132494,
    "smallId": 66958,
    "commonId": 1422
  },
  {
    "titleId": 1145898974,
    "largeId": 132495,
    "smallId": 66959,
    "commonId": 1423
  },
  {
    "titleId": 1145898974,
    "largeId": 132496,
    "smallId": 66960,
    "commonId": 1424
  },
  {
    "titleId": 1145898974,
    "largeId": 132497,
    "smallId": 66961,
    "commonId": 1425
  },
  {
    "titleId": 1145898974,
    "largeId": 132498,
    "smallId": 66962,
    "commonId": 1426
  },
  {
    "titleId": 1145898974,
    "largeId": 132499,
    "smallId": 66963,
    "commonId": 1427
  },
  {
    "titleId": 1145898974,
    "largeId": 132500,
    "smallId": 66964,
    "commonId": 1428
  },
  {
    "titleId": 1145898974,
    "largeId": 132501,
    "smallId": 66965,
    "commonId": 1429
  },
  {
    "titleId": 1145898974,
    "largeId": 132502,
    "smallId": 66966,
    "commonId": 1430
  },
  {
    "titleId": 1145898974,
    "largeId": 132503,
    "smallId": 66967,
    "commonId": 1431
  },
  {
    "titleId": 1145898974,
    "largeId": 132504,
    "smallId": 66968,
    "commonId": 1432
  },
  {
    "titleId": 1145898974,
    "largeId": 132505,
    "smallId": 66969,
    "commonId": 1433
  },
  {
    "titleId": 1145898974,
    "largeId": 132506,
    "smallId": 66970,
    "commonId": 1434
  },
  {
    "titleId": 1145898974,
    "largeId": 132507,
    "smallId": 66971,
    "commonId": 1435
  },
  {
    "titleId": 1145898974,
    "largeId": 132508,
    "smallId": 66972,
    "commonId": 1436
  },
  {
    "titleId": 1145898974,
    "largeId": 132509,
    "smallId": 66973,
    "commonId": 1437
  },
  {
    "titleId": 1145898974,
    "largeId": 132510,
    "smallId": 66974,
    "commonId": 1438
  },
  {
    "titleId": 1145898974,
    "largeId": 132511,
    "smallId": 66975,
    "commonId": 1439
  },
  {
    "titleId": 1145898974,
    "largeId": 132512,
    "smallId": 66976,
    "commonId": 1440
  },
  {
    "titleId": 1145898974,
    "largeId": 132513,
    "smallId": 66977,
    "commonId": 1441
  },
  {
    "titleId": 1145898974,
    "largeId": 132514,
    "smallId": 66978,
    "commonId": 1442
  },
  {
    "titleId": 1145898974,
    "largeId": 132515,
    "smallId": 66979,
    "commonId": 1443
  },
  {
    "titleId": 1145898974,
    "largeId": 132516,
    "smallId": 66980,
    "commonId": 1444
  },
  {
    "titleId": 1145898974,
    "largeId": 132517,
    "smallId": 66981,
    "commonId": 1445
  },
  {
    "titleId": 1145898974,
    "largeId": 132518,
    "smallId": 66982,
    "commonId": 1446
  },
  {
    "titleId": 1145898974,
    "largeId": 132519,
    "smallId": 66983,
    "commonId": 1447
  },
  {
    "titleId": 1145898974,
    "largeId": 132520,
    "smallId": 66984,
    "commonId": 1448
  },
  {
    "titleId": 1145898974,
    "largeId": 132521,
    "smallId": 66985,
    "commonId": 1449
  },
  {
    "titleId": 1145898974,
    "largeId": 132522,
    "smallId": 66986,
    "commonId": 1450
  },
  {
    "titleId": 1145898974,
    "largeId": 132523,
    "smallId": 66987,
    "commonId": 1451
  },
  {
    "titleId": 1145898974,
    "largeId": 132524,
    "smallId": 66988,
    "commonId": 1452
  },
  {
    "titleId": 1145898974,
    "largeId": 132525,
    "smallId": 66989,
    "commonId": 1453
  },
  {
    "titleId": 1145898974,
    "largeId": 132526,
    "smallId": 66990,
    "commonId": 1454
  },
  {
    "titleId": 1145898974,
    "largeId": 132527,
    "smallId": 66991,
    "commonId": 1455
  },
  {
    "titleId": 1145898974,
    "largeId": 132528,
    "smallId": 66992,
    "commonId": 1456
  },
  {
    "titleId": 1145898974,
    "largeId": 132529,
    "smallId": 66993,
    "commonId": 1457
  },
  {
    "titleId": 1145898974,
    "largeId": 132530,
    "smallId": 66994,
    "commonId": 1458
  },
  {
    "titleId": 1145898974,
    "largeId": 132531,
    "smallId": 66995,
    "commonId": 1459
  },
  {
    "titleId": 1145898974,
    "largeId": 132532,
    "smallId": 66996,
    "commonId": 1460
  },
  {
    "titleId": 1145898974,
    "largeId": 132533,
    "smallId": 66997,
    "commonId": 1461
  },
  {
    "titleId": 1145898974,
    "largeId": 132534,
    "smallId": 66998,
    "commonId": 1462
  },
  {
    "titleId": 1145898974,
    "largeId": 132535,
    "smallId": 66999,
    "commonId": 1463
  },
  {
    "titleId": 1145898974,
    "largeId": 132536,
    "smallId": 67000,
    "commonId": 1464
  },
  {
    "titleId": 1145898974,
    "largeId": 132537,
    "smallId": 67001,
    "commonId": 1465
  },
  {
    "titleId": 1145898974,
    "largeId": 132538,
    "smallId": 67002,
    "commonId": 1466
  },
  {
    "titleId": 1145898974,
    "largeId": 132539,
    "smallId": 67003,
    "commonId": 1467
  },
  {
    "titleId": 1145898974,
    "largeId": 132540,
    "smallId": 67004,
    "commonId": 1468
  },
  {
    "titleId": 1145898974,
    "largeId": 132541,
    "smallId": 67005,
    "commonId": 1469
  },
  {
    "titleId": 1145898974,
    "largeId": 132542,
    "smallId": 67006,
    "commonId": 1470
  },
  {
    "titleId": 1145898974,
    "largeId": 132543,
    "smallId": 67007,
    "commonId": 1471
  },
  {
    "titleId": 1145898974,
    "largeId": 132544,
    "smallId": 67008,
    "commonId": 1472
  },
  {
    "titleId": 1145898974,
    "largeId": 132545,
    "smallId": 67009,
    "commonId": 1473
  },
  {
    "titleId": 1145898974,
    "largeId": 132546,
    "smallId": 67010,
    "commonId": 1474
  },
  {
    "titleId": 1145898974,
    "largeId": 132547,
    "smallId": 67011,
    "commonId": 1475
  },
  {
    "titleId": 1145898974,
    "largeId": 132548,
    "smallId": 67012,
    "commonId": 1476
  },
  {
    "titleId": 1145898974,
    "largeId": 132549,
    "smallId": 67013,
    "commonId": 1477
  },
  {
    "titleId": 1145898974,
    "largeId": 132550,
    "smallId": 67014,
    "commonId": 1478
  },
  {
    "titleId": 1145898974,
    "largeId": 132551,
    "smallId": 67015,
    "commonId": 1479
  },
  {
    "titleId": 1145898974,
    "largeId": 132552,
    "smallId": 67016,
    "commonId": 1480
  },
  {
    "titleId": 1145898974,
    "largeId": 132553,
    "smallId": 67017,
    "commonId": 1481
  },
  {
    "titleId": 1145898974,
    "largeId": 132554,
    "smallId": 67018,
    "commonId": 1482
  },
  {
    "titleId": 1145898974,
    "largeId": 132555,
    "smallId": 67019,
    "commonId": 1483
  },
  {
    "titleId": 1145898974,
    "largeId": 132556,
    "smallId": 67020,
    "commonId": 1484
  },
  {
    "titleId": 1145898974,
    "largeId": 132557,
    "smallId": 67021,
    "commonId": 1485
  },
  {
    "titleId": 1145898974,
    "largeId": 132558,
    "smallId": 67022,
    "commonId": 1486
  },
  {
    "titleId": 1145898974,
    "largeId": 132559,
    "smallId": 67023,
    "commonId": 1487
  },
  {
    "titleId": 1145898974,
    "largeId": 132560,
    "smallId": 67024,
    "commonId": 1488
  },
  {
    "titleId": 1145898974,
    "largeId": 132561,
    "smallId": 67025,
    "commonId": 1489
  },
  {
    "titleId": 1145898974,
    "largeId": 132562,
    "smallId": 67026,
    "commonId": 1490
  },
  {
    "titleId": 1145898974,
    "largeId": 132563,
    "smallId": 67027,
    "commonId": 1491
  },
  {
    "titleId": 1145898974,
    "largeId": 132564,
    "smallId": 67028,
    "commonId": 1492
  },
  {
    "titleId": 1145898974,
    "largeId": 132565,
    "smallId": 67029,
    "commonId": 1493
  },
  {
    "titleId": 1145898974,
    "largeId": 132566,
    "smallId": 67030,
    "commonId": 1494
  },
  {
    "titleId": 1145898974,
    "largeId": 132567,
    "smallId": 67031,
    "commonId": 1495
  },
  {
    "titleId": 1145898974,
    "largeId": 132568,
    "smallId": 67032,
    "commonId": 1496
  },
  {
    "titleId": 1145898974,
    "largeId": 132569,
    "smallId": 67033,
    "commonId": 1497
  },
  {
    "titleId": 1145898974,
    "largeId": 132570,
    "smallId": 67034,
    "commonId": 1498
  },
  {
    "titleId": 1145898974,
    "largeId": 132571,
    "smallId": 67035,
    "commonId": 1499
  },
  {
    "titleId": 1145898974,
    "largeId": 132572,
    "smallId": 67036,
    "commonId": 1500
  },
  {
    "titleId": 1145898974,
    "largeId": 132573,
    "smallId": 67037,
    "commonId": 1501
  },
  {
    "titleId": 1145898974,
    "largeId": 132574,
    "smallId": 67038,
    "commonId": 1502
  }
]