{
  "achievementsPossible": 45,
  "credPossible": 1180,
  "achievements": [
    {
      "id": 16,
      "imageId": 99,
      "cred": 15,
      "flags": 6,
      "label": "Welcome to Ancaria",
      "description": "Complete the Rank 1 mission",
      "howto": "Complete the Rank 1 mission"
    },
    {
      "id": 17,
      "imageId": 100,
      "cred": 15,
      "flags": 6,
      "label": "Journey's End",
      "description": "Complete all Rank 2 missions",
      "howto": "Complete all Rank 2 missions"
    },
    {
      "id": 19,
      "imageId": 101,
      "cred": 30,
      "flags": 1,
      "label": "Sacred Ancaria",
      "description": "Complete all main missions on Legend difficulty",
      "howto": "Complete all main missions on Legend difficulty"
    },
    {
      "id": 20,
      "imageId": 102,
      "cred": 90,
      "flags": 1,
      "label": "Sacred Savior",
      "description": "Complete all main missions on Deity difficulty",
      "howto": "Complete all main missions on Deity difficulty"
    },
    {
      "id": 21,
      "imageId": 103,
      "cred": 15,
      "flags": 2,
      "label": "Skilled Culture",
      "description": "Max out any culture's Combat Arts, Skills, and Equipment trees",
      "howto": "Max out any culture's Combat Arts, Skills, and Equipment trees"
    },
    {
      "id": 22,
      "imageId": 104,
      "cred": 30,
      "flags": 2,
      "label": "Perfectionist",
      "description": "Max out all cultures' Combat Arts, Skills, and Equipment trees",
      "howto": "Max out all cultures' Combat Arts, Skills, and Equipment trees"
    },
    {
      "id": 23,
      "imageId": 105,
      "cred": 90,
      "flags": 2,
      "label": "Overprepared",
      "description": "Unlock all item upgrades",
      "howto": "Unlock all item upgrades"
    },
    {
      "id": 24,
      "imageId": 106,
      "cred": 30,
      "flags": 4,
      "label": "In a Blink of an Eye",
      "description": "Defeat something big with only one hit using a smart bomb",
      "howto": "Defeat something big with only one hit using a smart bomb"
    },
    {
      "id": 25,
      "imageId": 107,
      "cred": 10,
      "flags": 2,
      "label": "Ding!",
      "description": "Get a level up",
      "howto": "Get a level up"
    },
    {
      "id": 26,
      "imageId": 108,
      "cred": 15,
      "flags": 2,
      "label": "Regular",
      "description": "Reach level 10 with any character",
      "howto": "Reach level 10 with any character"
    },
    {
      "id": 27,
      "imageId": 109,
      "cred": 30,
      "flags": 2,
      "label": "Experienced",
      "description": "Reach level 30 with any character",
      "howto": "Reach level 30 with any character"
    },
    {
      "id": 29,
      "imageId": 110,
      "cred": 90,
      "flags": 2,
      "label": "Veteran",
      "description": "Reach level 50 with any character",
      "howto": "Reach level 50 with any character"
    },
    {
      "id": 30,
      "imageId": 111,
      "cred": 15,
      "flags": 4,
      "label": "Couch Party",
      "description": "Complete one main mission in local co-op mode",
      "howto": "Complete one main mission in local co-op mode"
    },
    {
      "id": 31,
      "imageId": 112,
      "cred": 30,
      "flags": 4,
      "label": "Party Like It's 1999",
      "description": "Complete all main missions in local co-op mode",
      "howto": "Complete all main missions in local co-op mode"
    },
    {
      "id": 32,
      "imageId": 113,
      "cred": 15,
      "flags": 4,
      "label": "On the Line",
      "description": "Complete a main mission with three other players",
      "howto": "Complete a main mission with three other players"
    },
    {
      "id": 33,
      "imageId": 114,
      "cred": 15,
      "flags": 4,
      "label": "Online Master",
      "description": "Complete all main missions with three other players",
      "howto": "Complete all main missions with three other players"
    },
    {
      "id": 34,
      "imageId": 115,
      "cred": 30,
      "flags": 4,
      "label": "Leading by Example",
      "description": "Complete a main mission as the top scorer in a game with three other players",
      "howto": "Complete a main mission as the top scorer in a game with three other players"
    },
    {
      "id": 37,
      "imageId": 116,
      "cred": 15,
      "flags": 4,
      "label": "Tons of Damage",
      "description": "Achieve the highest multiplier in a damage run",
      "howto": "Achieve the highest multiplier in a damage run"
    },
    {
      "id": 39,
      "imageId": 117,
      "cred": 90,
      "flags": 4,
      "label": "Who You Gonna Call?",
      "description": "Break the shields of all ghostly orbs and destroy them in a single phase",
      "howto": "Break the shields of all ghostly orbs and destroy them in a single phase"
    },
    {
      "id": 40,
      "imageId": 118,
      "cred": 15,
      "flags": 4,
      "label": "One For All",
      "description": "Use your Battle Prayer 10 times",
      "howto": "Use your Battle Prayer 10 times"
    },
    {
      "id": 41,
      "imageId": 119,
      "cred": 15,
      "flags": 4,
      "label": "Bodyguard",
      "description": "Interrupt five enemies while they are targeting other players",
      "howto": "Interrupt five enemies while they are targeting other players"
    },
    {
      "id": 42,
      "imageId": 120,
      "cred": 15,
      "flags": 4,
      "label": "Medic!",
      "description": "Revive every other player in a single mission with three other players",
      "howto": "Revive every other player in a single mission with three other players"
    },
    {
      "id": 43,
      "imageId": 121,
      "cred": 15,
      "flags": 6,
      "label": "Speak No Evil",
      "description": "Stop the Unspeakable Evil",
      "howto": "Stop the Unspeakable Evil"
    },
    {
      "id": 44,
      "imageId": 122,
      "cred": 30,
      "flags": 4,
      "label": "Group Hug",
      "description": "Kill 8 Grimmoc-sized enemies with one attack",
      "howto": "Kill 8 Grimmoc-sized enemies with one attack"
    },
    {
      "id": 46,
      "imageId": 123,
      "cred": 15,
      "flags": 4,
      "label": "Arts Training",
      "description": "Use your Combat Arts 80 times in N'Aquali during a single playthrough",
      "howto": "Use your Combat Arts 80 times in N'Aquali during a single playthrough"
    },
    {
      "id": 47,
      "imageId": 124,
      "cred": 30,
      "flags": 4,
      "label": "Judge, Jury, Executioner",
      "description": "Execute 5 enemies in a row",
      "howto": "Execute 5 enemies in a row"
    },
    {
      "id": 48,
      "imageId": 125,
      "cred": 15,
      "flags": 4,
      "label": "Too Close",
      "description": "Die from an explosive destructible",
      "howto": "Die from an explosive destructible"
    },
    {
      "id": 49,
      "imageId": 126,
      "cred": 15,
      "flags": 4,
      "label": "Multi Culti",
      "description": "Complete a mission with four characters from different cultures in co-op mode",
      "howto": "Complete a mission with four characters from different cultures in co-op mode"
    },
    {
      "id": 50,
      "imageId": 127,
      "cred": 30,
      "flags": 4,
      "label": "Untrollable",
      "description": "Kill a Troll without getting hit by it in single player mode",
      "howto": "Kill a Troll without getting hit by it in single player mode"
    },
    {
      "id": 51,
      "imageId": 128,
      "cred": 30,
      "flags": 4,
      "label": "Zane's Bane",
      "description": "Defeat the final form of Zane within 30 seconds",
      "howto": "Defeat the final form of Zane within 30 seconds"
    },
    {
      "id": 53,
      "imageId": 129,
      "cred": 15,
      "flags": 4,
      "label": "Tap Water",
      "description": "Complete Khorad Basin with the Well purity at 70% or greater",
      "howto": "Complete Khorad Basin with the Well purity at 70% or greater"
    },
    {
      "id": 54,
      "imageId": 130,
      "cred": 15,
      "flags": 4,
      "label": "Sophia's Blood",
      "description": "Complete Icecreek Sanctuary with the Seraphim",
      "howto": "Complete Icecreek Sanctuary with the Seraphim"
    },
    {
      "id": 55,
      "imageId": 131,
      "cred": 15,
      "flags": 4,
      "label": "Sea Dog",
      "description": "Complete Vorios with the Safiri",
      "howto": "Complete Vorios with the Safiri"
    },
    {
      "id": 56,
      "imageId": 132,
      "cred": 15,
      "flags": 4,
      "label": "Vive la Résistance",
      "description": "Complete Greyveil with the Ancarian",
      "howto": "Complete Greyveil with the Ancarian"
    },
    {
      "id": 57,
      "imageId": 133,
      "cred": 15,
      "flags": 4,
      "label": "Cool as Ice",
      "description": "Complete Enigmar Fortress with the Khukuri",
      "howto": "Complete Enigmar Fortress with the Khukuri"
    },
    {
      "id": 58,
      "imageId": 134,
      "cred": 15,
      "flags": 4,
      "label": "Ashen to Ashes",
      "description": "Defeat Zane",
      "howto": "Defeat Zane"
    },
    {
      "id": 59,
      "imageId": 135,
      "cred": 15,
      "flags": 4,
      "label": "Girls' Night Out",
      "description": "Complete a mission with four female characters in online co-op mode",
      "howto": "Complete a mission with four female characters in online co-op mode"
    },
    {
      "id": 60,
      "imageId": 136,
      "cred": 15,
      "flags": 4,
      "label": "Vengeance of the Fallen",
      "description": "Complete Braverock with the Malakhim",
      "howto": "Complete Braverock with the Malakhim"
    },
    {
      "id": 61,
      "imageId": 137,
      "cred": 30,
      "flags": 2,
      "label": "The Shadow Lord",
      "description": "Reach level 50 with the Malakhim",
      "howto": "Reach level 50 with the Malakhim"
    },
    {
      "id": 62,
      "imageId": 138,
      "cred": 30,
      "flags": 6,
      "label": "Purged",
      "description": "Defeat the Black Seraphim",
      "howto": "Defeat the Black Seraphim"
    },
    {
      "id": 63,
      "imageId": 139,
      "cred": 15,
      "flags": 6,
      "label": "The Cleansing",
      "description": "Complete all side missions of Underworld Story",
      "howto": "Complete all side missions of Underworld Story"
    },
    {
      "id": 64,
      "imageId": 140,
      "cred": 15,
      "flags": 4,
      "label": "Ancient Roots",
      "description": "Complete Khorad Basin with the Orc",
      "howto": "Complete Khorad Basin with the Orc"
    },
    {
      "id": 65,
      "imageId": 141,
      "cred": 30,
      "flags": 2,
      "label": "A Free Orc",
      "description": "Reach level 50 with the Orc",
      "howto": "Reach level 50 with the Orc"
    },
    {
      "id": 66,
      "imageId": 142,
      "cred": 30,
      "flags": 6,
      "label": "Grim Demise",
      "description": "Kill Gragon",
      "howto": "Kill Gragon"
    },
    {
      "id": 67,
      "imageId": 143,
      "cred": 15,
      "flags": 6,
      "label": "A New Beginning",
      "description": "Complete all side missions of Orcland Story",
      "howto": "Complete all side missions of Orcland Story"
    }
  ]
}