{
  "achievementsPossible": 34,
  "credPossible": 1000,
  "achievements": [
    {
      "id": 1,
      "imageId": 1,
      "cred": 25,
      "flags": 1,
      "label": "Get Rich",
      "description": "Alex Kidd: Collect 1,000 in currency",
      "howto": "Alex Kidd: Collect 1,000 in currency"
    },
    {
      "id": 2,
      "imageId": 2,
      "cred": 25,
      "flags": 1,
      "label": "Don't Die",
      "description": "Alien Storm: Reach Mission 3 without losing a life",
      "howto": "Alien Storm: Reach Mission 3 without losing a life"
    },
    {
      "id": 3,
      "imageId": 3,
      "cred": 10,
      "flags": 1,
      "label": "Enter the Beast",
      "description": "Altered Beast: Collect 100,000 pts or higher by the end of the first level",
      "howto": "Altered Beast: Collect 100,000 pts or higher by the end of the first level"
    },
    {
      "id": 4,
      "imageId": 4,
      "cred": 20,
      "flags": 1,
      "label": "Holy Water",
      "description": "The Story of Thor: Unlock the Water Spirit",
      "howto": "The Story of Thor: Unlock the Water Spirit"
    },
    {
      "id": 5,
      "imageId": 5,
      "cred": 20,
      "flags": 1,
      "label": "Stealing Points",
      "description": "Bonanza Brothers: Reach 40,000 points on the first level",
      "howto": "Bonanza Brothers: Reach 40,000 points on the first level"
    },
    {
      "id": 6,
      "imageId": 6,
      "cred": 15,
      "flags": 1,
      "label": "Easy as Pie",
      "description": "Columns: Get 20,000 points only on Easy Mode",
      "howto": "Columns: Get 20,000 points only on Easy Mode"
    },
    {
      "id": 7,
      "imageId": 7,
      "cred": 20,
      "flags": 1,
      "label": "Hardly a Hero",
      "description": "Comix Zone: Complete first episode",
      "howto": "Comix Zone: Complete first episode"
    },
    {
      "id": 8,
      "imageId": 8,
      "cred": 30,
      "flags": 1,
      "label": "Get Ahead",
      "description": "Decap Attack: Collect 5 Bonus Coins",
      "howto": "Decap Attack: Collect 5 Bonus Coins"
    },
    {
      "id": 9,
      "imageId": 9,
      "cred": 10,
      "flags": 1,
      "label": "Communication is Key",
      "description": "Ecco: Talk to another dolphin",
      "howto": "Ecco: Talk to another dolphin"
    },
    {
      "id": 10,
      "imageId": 10,
      "cred": 20,
      "flags": 1,
      "label": "Taste Like Tuna",
      "description": "Ecco: The Tides of Time: Eat 200 fish",
      "howto": "Ecco: The Tides of Time: Eat 200 fish"
    },
    {
      "id": 11,
      "imageId": 11,
      "cred": 30,
      "flags": 1,
      "label": "Suit up",
      "description": "E-SWAT: Obtain the Combat Suit (Complete Mission 2)",
      "howto": "E-SWAT: Obtain the Combat Suit (Complete Mission 2)"
    },
    {
      "id": 12,
      "imageId": 12,
      "cred": 30,
      "flags": 1,
      "label": "Don't Get Lost",
      "description": "Fatal Labyrinth: Progress to the fifth level of the labyrinth",
      "howto": "Fatal Labyrinth: Progress to the fifth level of the labyrinth"
    },
    {
      "id": 13,
      "imageId": 13,
      "cred": 25,
      "flags": 1,
      "label": "Getting Chicks",
      "description": "Flicky: Collect 80,000 points",
      "howto": "Flicky: Collect 80,000 points"
    },
    {
      "id": 14,
      "imageId": 14,
      "cred": 20,
      "flags": 1,
      "label": "Garden Gnomes",
      "description": "Golden Axe: Collect 20 magic power-ups",
      "howto": "Golden Axe: Collect 20 magic power-ups"
    },
    {
      "id": 15,
      "imageId": 15,
      "cred": 35,
      "flags": 1,
      "label": "Tower Up",
      "description": "Golden Axe II: Complete Tower Level",
      "howto": "Golden Axe II: Complete Tower Level"
    },
    {
      "id": 16,
      "imageId": 16,
      "cred": 20,
      "flags": 1,
      "label": "Saved by Magic",
      "description": "Golden Axe III: Use magic 10 times",
      "howto": "Golden Axe III: Use magic 10 times"
    },
    {
      "id": 17,
      "imageId": 17,
      "cred": 35,
      "flags": 1,
      "label": "TGIF",
      "description": "Kid Chameleon: Collect Maniaxe",
      "howto": "Kid Chameleon: Collect Maniaxe"
    },
    {
      "id": 18,
      "imageId": 18,
      "cred": 30,
      "flags": 1,
      "label": "Twinkle Twinkle",
      "description": "Ristar: Collect 5 Yellow Stars",
      "howto": "Ristar: Collect 5 Yellow Stars"
    },
    {
      "id": 19,
      "imageId": 19,
      "cred": 50,
      "flags": 1,
      "label": "Yatta!",
      "description": "Dr. Robotnik's M.B.M.: Complete the game",
      "howto": "Dr. Robotnik's M.B.M.: Complete the game"
    },
    {
      "id": 20,
      "imageId": 20,
      "cred": 30,
      "flags": 1,
      "label": "True Ninja Skills",
      "description": "Shinobi III: Complete first level without using continues",
      "howto": "Shinobi III: Complete first level without using continues"
    },
    {
      "id": 21,
      "imageId": 21,
      "cred": 30,
      "flags": 1,
      "label": "Complete Chaos",
      "description": "Sonic The Hedgehog: Obtain a Chaos Emerald",
      "howto": "Sonic The Hedgehog: Obtain a Chaos Emerald"
    },
    {
      "id": 22,
      "imageId": 22,
      "cred": 35,
      "flags": 1,
      "label": "A Different Tail",
      "description": "Sonic The Hedgehog 3: Collect 100 rings with Tails anywhere on Angel Island Zone",
      "howto": "Sonic The Hedgehog 3: Collect 100 rings with Tails anywhere on Angel Island Zone"
    },
    {
      "id": 23,
      "imageId": 23,
      "cred": 15,
      "flags": 1,
      "label": "Flicky to the Rescue",
      "description": "Sonic 3D Flickies' Island: Rescue 20 Flickies.",
      "howto": "Sonic 3D Flickies' Island: Rescue 20 Flickies."
    },
    {
      "id": 24,
      "imageId": 24,
      "cred": 30,
      "flags": 1,
      "label": "Lots of Zeros",
      "description": "Sonic Spinball: Get 10,000,000 points in the first level",
      "howto": "Sonic Spinball: Get 10,000,000 points in the first level"
    },
    {
      "id": 25,
      "imageId": 25,
      "cred": 15,
      "flags": 1,
      "label": "Get to the Chopper",
      "description": "Super Thunder Blade: Score over 1,500,000 points in the first level",
      "howto": "Super Thunder Blade: Score over 1,500,000 points in the first level"
    },
    {
      "id": 26,
      "imageId": 26,
      "cred": 20,
      "flags": 1,
      "label": "Three Times a Charm",
      "description": "Streets of Rage: Complete 1st Level using all 3 characters",
      "howto": "Streets of Rage: Complete 1st Level using all 3 characters"
    },
    {
      "id": 27,
      "imageId": 27,
      "cred": 15,
      "flags": 1,
      "label": "Good Day Mate",
      "description": "Streets of Rage 3: Unlock Roo the Kangaroo as a playable character",
      "howto": "Streets of Rage 3: Unlock Roo the Kangaroo as a playable character"
    },
    {
      "id": 28,
      "imageId": 28,
      "cred": 45,
      "flags": 1,
      "label": "Super Charged",
      "description": "VectorMan: Collect 500 photons",
      "howto": "VectorMan: Collect 500 photons"
    },
    {
      "id": 29,
      "imageId": 29,
      "cred": 45,
      "flags": 1,
      "label": "Can You Dig It?",
      "description": "VectorMan 2: Reach Scene 11",
      "howto": "VectorMan 2: Reach Scene 11"
    },
    {
      "id": 30,
      "imageId": 30,
      "cred": 50,
      "flags": 1,
      "label": "Blast Processing",
      "description": "Play all MEGA DRIVE™ Titles",
      "howto": "Play all MEGA DRIVE™ Titles"
    },
    {
      "id": 31,
      "imageId": 31,
      "cred": 50,
      "flags": 1,
      "label": "Master the System",
      "description": "Unlock Everything",
      "howto": "Unlock Everything"
    },
    {
      "id": 32,
      "imageId": 32,
      "cred": 50,
      "flags": 1,
      "label": "No Life",
      "description": "Watch Every Video",
      "howto": "Watch Every Video"
    },
    {
      "id": 33,
      "imageId": 33,
      "cred": 50,
      "flags": 1,
      "label": "Critique",
      "description": "View all Artwork",
      "howto": "View all Artwork"
    },
    {
      "id": 34,
      "imageId": 34,
      "cred": 50,
      "flags": 1,
      "label": "Only in the '80s",
      "description": "Play all Arcade Titles",
      "howto": "Play all Arcade Titles"
    }
  ]
}