{
  "achievementsPossible": 21,
  "credPossible": 1000,
  "achievements": [
    {
      "id": 1,
      "imageId": 46,
      "cred": 25,
      "flags": 1,
      "label": "Social network junkie",
      "description": "Find all the Wi-Fi hotspots",
      "howto": "Find all the Wi-Fi hotspots"
    },
    {
      "id": 2,
      "imageId": 35,
      "cred": 25,
      "flags": 1,
      "label": "Street artist",
      "description": "Cross out all the graffiti",
      "howto": "Cross out all the graffiti"
    },
    {
      "id": 3,
      "imageId": 27,
      "cred": 50,
      "flags": 1,
      "label": "Killing Death",
      "description": "Defeat Black Death",
      "howto": "Defeat Black Death"
    },
    {
      "id": 4,
      "imageId": 34,
      "cred": 50,
      "flags": 1,
      "label": "Villain Chop Suey",
      "description": "Defeat Genghis Carnage",
      "howto": "Defeat Genghis Carnage"
    },
    {
      "id": 5,
      "imageId": 39,
      "cred": 50,
      "flags": 1,
      "label": "The Sickle and Hammer",
      "description": "Survive the clash with Mother Russia",
      "howto": "Survive the clash with Mother Russia"
    },
    {
      "id": 6,
      "imageId": 45,
      "cred": 50,
      "flags": 1,
      "label": "Successful surgery",
      "description": "Get rid of the Tumor",
      "howto": "Get rid of the Tumor"
    },
    {
      "id": 7,
      "imageId": 38,
      "cred": 50,
      "flags": 1,
      "label": "Wimpcrusher",
      "description": "Finish off Chris D'Amico once and for all",
      "howto": "Finish off Chris D'Amico once and for all"
    },
    {
      "id": 8,
      "imageId": 25,
      "cred": 50,
      "flags": 1,
      "label": "Partners in trouble",
      "description": "Rescue Dr. Gravity",
      "howto": "Rescue Dr. Gravity"
    },
    {
      "id": 9,
      "imageId": 26,
      "cred": 50,
      "flags": 1,
      "label": "Gothic nightmare",
      "description": "Fight your way through the Goths to the subway entrance",
      "howto": "Fight your way through the Goths to the subway entrance"
    },
    {
      "id": 10,
      "imageId": 42,
      "cred": 50,
      "flags": 1,
      "label": "Careful with the hole",
      "description": "Reach the Goths' Lair in the subway",
      "howto": "Reach the Goths' Lair in the subway"
    },
    {
      "id": 11,
      "imageId": 29,
      "cred": 50,
      "flags": 1,
      "label": "Dime store",
      "description": "Cross Chinatown",
      "howto": "Cross Chinatown"
    },
    {
      "id": 12,
      "imageId": 30,
      "cred": 50,
      "flags": 1,
      "label": "Adults over 18 only",
      "description": "Reach Genghis Carnage's whorehouse",
      "howto": "Reach Genghis Carnage's whorehouse"
    },
    {
      "id": 13,
      "imageId": 43,
      "cred": 50,
      "flags": 1,
      "label": "Call for help",
      "description": "Leave the subway",
      "howto": "Leave the subway"
    },
    {
      "id": 14,
      "imageId": 37,
      "cred": 50,
      "flags": 1,
      "label": "Kick-Ass to the rescue!",
      "description": "Reach the entrance to Headquarters",
      "howto": "Reach the entrance to Headquarters"
    },
    {
      "id": 15,
      "imageId": 36,
      "cred": 50,
      "flags": 1,
      "label": "They're inside…",
      "description": "Eliminate all the enemies in the Justice Forever Headquarters",
      "howto": "Eliminate all the enemies in the Justice Forever Headquarters"
    },
    {
      "id": 16,
      "imageId": 28,
      "cred": 50,
      "flags": 1,
      "label": "I'm too young to die",
      "description": "Escape with your life from the Cemetery",
      "howto": "Escape with your life from the Cemetery"
    },
    {
      "id": 17,
      "imageId": 44,
      "cred": 50,
      "flags": 1,
      "label": "See you later, Alligator",
      "description": "Chase the Tumor through the sewers",
      "howto": "Chase the Tumor through the sewers"
    },
    {
      "id": 18,
      "imageId": 40,
      "cred": 50,
      "flags": 1,
      "label": "A walk in the Park",
      "description": "Cross Central Park",
      "howto": "Cross Central Park"
    },
    {
      "id": 19,
      "imageId": 41,
      "cred": 50,
      "flags": 1,
      "label": "Good Guys against Bad Guys",
      "description": "Survive the battle for Manhattan",
      "howto": "Survive the battle for Manhattan"
    },
    {
      "id": 20,
      "imageId": 33,
      "cred": 50,
      "flags": 1,
      "label": "The Fall of the Wall",
      "description": "Defeat Mother Russia",
      "howto": "Defeat Mother Russia"
    },
    {
      "id": 21,
      "imageId": 32,
      "cred": 50,
      "flags": 1,
      "label": "Toxicity",
      "description": "Defeat Chris D'Amico's thugs",
      "howto": "Defeat Chris D'Amico's thugs"
    }
  ]
}