{
  "achievementsPossible": 40,
  "credPossible": 1000,
  "achievements": [
    {
      "id": 1,
      "imageId": 1,
      "cred": 30,
      "flags": 6,
      "label": "ジャック確保",
      "description": "ストーリーモードでチャプター1をクリア",
      "howto": "ストーリーモードでチャプター1をクリア"
    },
    {
      "id": 2,
      "imageId": 2,
      "cred": 30,
      "flags": 6,
      "label": "ティニー確保",
      "description": "ストーリーモードでチャプター2をクリア",
      "howto": "ストーリーモードでチャプター2をクリア"
    },
    {
      "id": 49,
      "imageId": 3,
      "cred": 30,
      "flags": 1,
      "label": "ガーナ確保",
      "description": "ストーリーモードでチャプター3をクリア",
      "howto": "ストーリーモードでチャプター3をクリア"
    },
    {
      "id": 50,
      "imageId": 4,
      "cred": 30,
      "flags": 1,
      "label": "セラム確保",
      "description": "ストーリーモードでチャプター4をクリア",
      "howto": "ストーリーモードでチャプター4をクリア"
    },
    {
      "id": 51,
      "imageId": 5,
      "cred": 30,
      "flags": 1,
      "label": "ゲンゾウ確保",
      "description": "ストーリーモードでチャプター5をクリア",
      "howto": "ストーリーモードでチャプター5をクリア"
    },
    {
      "id": 52,
      "imageId": 6,
      "cred": 30,
      "flags": 1,
      "label": "フアン確保",
      "description": "ストーリーモードでチャプター6をクリア",
      "howto": "ストーリーモードでチャプター6をクリア"
    },
    {
      "id": 53,
      "imageId": 7,
      "cred": 30,
      "flags": 1,
      "label": "真実の先",
      "description": "ストーリーモードでチャプター7をクリア",
      "howto": "ストーリーモードでチャプター7をクリア"
    },
    {
      "id": 54,
      "imageId": 8,
      "cred": 30,
      "flags": 1,
      "label": "共同戦線",
      "description": "ストーリーモードでチャプター8をクリア",
      "howto": "ストーリーモードでチャプター8をクリア"
    },
    {
      "id": 55,
      "imageId": 9,
      "cred": 30,
      "flags": 1,
      "label": "決死の抑制",
      "description": "ストーリーモードでチャプター9をクリア",
      "howto": "ストーリーモードでチャプター9をクリア"
    },
    {
      "id": 58,
      "imageId": 10,
      "cred": 50,
      "flags": 1,
      "label": "セブンティアの夜明け",
      "description": "ストーリーモードでチャプター10をクリア",
      "howto": "ストーリーモードでチャプター10をクリア"
    },
    {
      "id": 59,
      "imageId": 11,
      "cred": 30,
      "flags": 1,
      "label": "ジャッジメントフォース タイガー",
      "description": "ストーリーモードでチャプターXをクリア",
      "howto": "ストーリーモードでチャプターXをクリア"
    },
    {
      "id": 60,
      "imageId": 12,
      "cred": 30,
      "flags": 1,
      "label": "ジャッジメントフォース ドラゴン",
      "description": "ストーリーモードでチャプターYをクリア",
      "howto": "ストーリーモードでチャプターYをクリア"
    },
    {
      "id": 61,
      "imageId": 13,
      "cred": 10,
      "flags": 1,
      "label": "イージークリア",
      "description": "ストーリーモード　イージーをクリア",
      "howto": "ストーリーモード　イージーをクリア"
    },
    {
      "id": 62,
      "imageId": 14,
      "cred": 30,
      "flags": 1,
      "label": "ノーマルクリア",
      "description": "ストーリーモード  ノーマルをクリア",
      "howto": "ストーリーモード  ノーマルをクリア"
    },
    {
      "id": 63,
      "imageId": 15,
      "cred": 50,
      "flags": 1,
      "label": "ハードクリア",
      "description": "ストーリーモード　ハードをクリア",
      "howto": "ストーリーモード　ハードをクリア"
    },
    {
      "id": 64,
      "imageId": 16,
      "cred": 10,
      "flags": 1,
      "label": "カスタムコーディネート",
      "description": "特定の装備(ヘヴィレーザーガン、ホーミングミサイル、カウンターシールド)をセレクトした",
      "howto": "特定の装備をセレクトする"
    },
    {
      "id": 65,
      "imageId": 17,
      "cred": 50,
      "flags": 1,
      "label": "ソールドアウト",
      "description": "ショップの全てのアイテムを購入(追加コンテンツは含まない)",
      "howto": "ショップの全てのアイテムを購入(追加コンテンツは含まない)"
    },
    {
      "id": 66,
      "imageId": 18,
      "cred": 30,
      "flags": 1,
      "label": "チャプター1 ミッション達成",
      "description": "ボスのパーツ破壊数を最高ランクでクリア(ストーリーモードのみ)",
      "howto": "ボスのパーツ破壊数を最高ランクでクリア(ストーリーモードのみ)"
    },
    {
      "id": 67,
      "imageId": 19,
      "cred": 30,
      "flags": 1,
      "label": "チャプター2 ミッション達成",
      "description": "サーチライトでボスを完全に暴いてクリア(ストーリーモードのみ)",
      "howto": "サーチライトでボスを完全に暴いてクリア(ストーリーモードのみ)"
    },
    {
      "id": 68,
      "imageId": 20,
      "cred": 30,
      "flags": 1,
      "label": "チャプター3 ミッション達成",
      "description": "ミサイルを2発とも撃墜してクリア(ストーリーモードのみ)",
      "howto": "ミサイルを2発とも撃墜してクリア(ストーリーモードのみ)"
    },
    {
      "id": 70,
      "imageId": 21,
      "cred": 30,
      "flags": 1,
      "label": "チャプター4 ミッション達成",
      "description": "ボスのパーツ破壊数を最高ランクでクリア(ストーリーモードのみ)",
      "howto": "ボスのパーツ破壊数を最高ランクでクリア(ストーリーモードのみ)"
    },
    {
      "id": 71,
      "imageId": 22,
      "cred": 30,
      "flags": 1,
      "label": "チャプター5 ミッション達成",
      "description": "セプトニウム回収を最高ランクでクリア(ストーリーモードのみ)",
      "howto": "セプトニウム回収を最高ランクでクリア(ストーリーモードのみ)"
    },
    {
      "id": 72,
      "imageId": 23,
      "cred": 30,
      "flags": 1,
      "label": "チャプター6 ミッション達成",
      "description": "シャトルの護衛を成功させてクリア(ストーリーモードのみ)",
      "howto": "シャトルの護衛を成功させてクリア(ストーリーモードのみ)"
    },
    {
      "id": 73,
      "imageId": 24,
      "cred": 30,
      "flags": 1,
      "label": "チャプター7 ミッション達成",
      "description": "2基のエレベータを破壊してクリア(ストーリーモードのみ)",
      "howto": "2基のエレベータを破壊してクリア(ストーリーモードのみ)"
    },
    {
      "id": 74,
      "imageId": 25,
      "cred": 30,
      "flags": 1,
      "label": "チャプター8 ミッション達成",
      "description": "後半の敵の撃墜数を最高ランクでクリア(ストーリーモードのみ)",
      "howto": "後半の敵の撃墜数を最高ランクでクリア(ストーリーモードのみ)"
    },
    {
      "id": 75,
      "imageId": 26,
      "cred": 30,
      "flags": 1,
      "label": "チャプター9 ミッション達成",
      "description": "ボスのパーツ破壊数を最高ランクでクリア(ストーリーモードのみ)",
      "howto": "ボスのパーツ破壊数を最高ランクでクリア(ストーリーモードのみ)"
    },
    {
      "id": 76,
      "imageId": 27,
      "cred": 10,
      "flags": 1,
      "label": "ストーリーモード全チャプタープレイ",
      "description": "ストーリーモードで全てのチャプターをプレイした",
      "howto": "ストーリーモードで全てのチャプターをプレイしよう"
    },
    {
      "id": 77,
      "imageId": 28,
      "cred": 10,
      "flags": 1,
      "label": "スコアアタック全チャプタープレイ",
      "description": "スコアアタックで全てのチャプターをプレイした",
      "howto": "スコアアタックで全てのチャプターをプレイしよう"
    },
    {
      "id": 78,
      "imageId": 29,
      "cred": 10,
      "flags": 1,
      "label": "破壊の順番",
      "description": "チャプター9のルートを真ん中→左→右の順で攻略(ストーリーモードのみ)",
      "howto": "（秘密）"
    },
    {
      "id": 79,
      "imageId": 30,
      "cred": 30,
      "flags": 1,
      "label": "オンラインランキングエントリー",
      "description": "オンラインランキングにスコアをアップロードした！",
      "howto": "キミもオンラインランキングに参戦！"
    },
    {
      "id": 80,
      "imageId": 31,
      "cred": 10,
      "flags": 1,
      "label": "最大警備",
      "description": "いずれかのチャプターの初期残機数を最大(30機)まで増やした！(ストーリーモードのみ)",
      "howto": "(秘密)"
    },
    {
      "id": 81,
      "imageId": 32,
      "cred": 10,
      "flags": 1,
      "label": "安地発見！？",
      "description": "チャプター1の最初の戦闘シーンで強制的に振り切られた！(ストーリーモードのみ)",
      "howto": "（秘密）"
    },
    {
      "id": 82,
      "imageId": 33,
      "cred": 10,
      "flags": 1,
      "label": "セキュリティ突破",
      "description": "チャプター2でジャミングユニット未使用でサーチライトに発見されずにクリア！(ストーリーモードのみ)",
      "howto": "（秘密）"
    },
    {
      "id": 83,
      "imageId": 34,
      "cred": 10,
      "flags": 1,
      "label": "NICE RECOVERY!",
      "description": "ゲームオーバー間際にエクステンドアイテムを取得して復活した！",
      "howto": "（秘密）"
    },
    {
      "id": 84,
      "imageId": 35,
      "cred": 10,
      "flags": 1,
      "label": "そしてベテランへ",
      "description": "累計スコアが5億点を超えた！（ストーリーモードのみ）",
      "howto": "（秘密）"
    },
    {
      "id": 85,
      "imageId": 36,
      "cred": 10,
      "flags": 1,
      "label": "タイムアタッカー",
      "description": "いずれかの難易度の全チャプタークリア合計が1時間を切った！（ストーリーモードのみ。スペシャルチャプターも含む）",
      "howto": "（秘密）"
    },
    {
      "id": 86,
      "imageId": 37,
      "cred": 10,
      "flags": 1,
      "label": "バックアタック返し",
      "description": "スピード切替時のバックファイアで敵を破壊した！",
      "howto": "（秘密）"
    },
    {
      "id": 87,
      "imageId": 38,
      "cred": 50,
      "flags": 1,
      "label": "稼ぎ頭",
      "description": "累計100万クレジット到達(ストーリーモードのみ)",
      "howto": "累計100万クレジット到達(ストーリーモードのみ)"
    },
    {
      "id": 88,
      "imageId": 39,
      "cred": 10,
      "flags": 1,
      "label": "鑑賞",
      "description": "ライバルのリプレイを再生",
      "howto": "ライバルのリプレイを再生"
    },
    {
      "id": 89,
      "imageId": 40,
      "cred": 10,
      "flags": 1,
      "label": "100回プレイ",
      "description": "スコアアタックのプレイ回数が100回を超えた！",
      "howto": "（秘密）"
    }
  ]
}