{
  "achievementsPossible": 12,
  "credPossible": 400,
  "achievements": [
    {
      "id": 0,
      "imageId": 1,
      "cred": 10,
      "flags": 1,
      "label": "Dream Twist",
      "description": "Unlock the power to warp your dreams.",
      "howto": "Unlock the power to warp your dreams."
    },
    {
      "id": 1,
      "imageId": 2,
      "cred": 20,
      "flags": 1,
      "label": "Beattime Story",
      "description": "Defeat Hansel and Gretel",
      "howto": "Defeat Hansel and Gretel"
    },
    {
      "id": 2,
      "imageId": 3,
      "cred": 40,
      "flags": 1,
      "label": "Unconscious Subconscious",
      "description": "Defeat Octor Freud",
      "howto": "Defeat Octor Freud"
    },
    {
      "id": 3,
      "imageId": 4,
      "cred": 60,
      "flags": 1,
      "label": "Fiery Awakening",
      "description": "Defeat Gurglewocky",
      "howto": "Defeat Gurglewocky"
    },
    {
      "id": 5,
      "imageId": 5,
      "cred": 10,
      "flags": 1,
      "label": "Ruby-Red Pirouette",
      "description": "Collect a red gem while twirling",
      "howto": "Collect a red gem while twirling"
    },
    {
      "id": 7,
      "imageId": 6,
      "cred": 10,
      "flags": 1,
      "label": "Flurry of Feathers",
      "description": "Jump or dash onto three owls without touching the ground",
      "howto": "Jump or dash onto three owls without touching the ground"
    },
    {
      "id": 9,
      "imageId": 7,
      "cred": 10,
      "flags": 1,
      "label": "Topsy-Turvy Trampoline",
      "description": "Use a spiky box like a trampoline",
      "howto": "Use a spiky box like a trampoline"
    },
    {
      "id": 12,
      "imageId": 9,
      "cred": 60,
      "flags": 1,
      "label": "Brilliant!",
      "description": "Obtain five stars in all levels",
      "howto": "Obtain five stars in all levels"
    },
    {
      "id": 13,
      "imageId": 11,
      "cred": 40,
      "flags": 1,
      "label": "Hardcore",
      "description": "Unlock Hardcore Mode",
      "howto": "Unlock Hardcore Mode"
    },
    {
      "id": 14,
      "imageId": 12,
      "cred": 60,
      "flags": 1,
      "label": "Hardercore",
      "description": "Unlock Über Hardcore Mode",
      "howto": "Unlock Über Hardcore Mode"
    },
    {
      "id": 15,
      "imageId": 13,
      "cred": 40,
      "flags": 1,
      "label": "Microsleeper",
      "description": "Obtain a trophy in all Time Attack levels",
      "howto": "Obtain a trophy in all Time Attack levels"
    },
    {
      "id": 16,
      "imageId": 14,
      "cred": 40,
      "flags": 1,
      "label": "Hypnotist",
      "description": "Obtain a trophy in all Score Attack levels",
      "howto": "Obtain a trophy in all Score Attack levels"
    }
  ]
}