{
  "achievementsPossible": 23,
  "credPossible": 1000,
  "achievements": [
    {
      "id": 6,
      "imageId": 11,
      "cred": 40,
      "flags": 5,
      "label": "Won the Serie A",
      "description": "You have won the Serie A.",
      "howto": "Aim to win the Serie A."
    },
    {
      "id": 7,
      "imageId": 12,
      "cred": 40,
      "flags": 5,
      "label": "Won the Eredivisie",
      "description": "You have won the Eredivisie.",
      "howto": "Aim to win the Eredivisie."
    },
    {
      "id": 8,
      "imageId": 13,
      "cred": 40,
      "flags": 5,
      "label": "Won the Liga Española",
      "description": "You have won the Liga Española.",
      "howto": "Aim to win the Liga Española."
    },
    {
      "id": 9,
      "imageId": 8,
      "cred": 40,
      "flags": 5,
      "label": "Won the Ligue 1",
      "description": "You have won the Ligue 1.",
      "howto": "Aim to win the Ligue 1."
    },
    {
      "id": 10,
      "imageId": 7,
      "cred": 40,
      "flags": 5,
      "label": "Won the England League",
      "description": "You have won the England League.",
      "howto": "Aim to win the England League."
    },
    {
      "id": 12,
      "imageId": 10,
      "cred": 40,
      "flags": 5,
      "label": "Won the International League",
      "description": "You have won the International League.",
      "howto": "Aim to win the International League."
    },
    {
      "id": 16,
      "imageId": 9,
      "cred": 40,
      "flags": 5,
      "label": "Won the PUMA Cup",
      "description": "You have won the PUMA Cup.",
      "howto": "Aim to win the PUMA Cup."
    },
    {
      "id": 17,
      "imageId": 5,
      "cred": 40,
      "flags": 5,
      "label": "Won the International Cup",
      "description": "You have won the International Cup.",
      "howto": "Aim to win the International Cup."
    },
    {
      "id": 18,
      "imageId": 4,
      "cred": 40,
      "flags": 5,
      "label": "Won the European Cup",
      "description": "You have won the European Cup.",
      "howto": "Aim to win the European Cup."
    },
    {
      "id": 19,
      "imageId": 1,
      "cred": 40,
      "flags": 5,
      "label": "Won the African Cup",
      "description": "You have won the African Cup.",
      "howto": "Aim to win the African Cup."
    },
    {
      "id": 20,
      "imageId": 2,
      "cred": 40,
      "flags": 5,
      "label": "Won the American Cup",
      "description": "You have won the American Cup.",
      "howto": "Aim to win the American Cup."
    },
    {
      "id": 21,
      "imageId": 3,
      "cred": 40,
      "flags": 5,
      "label": "Won the Asia-Oceanian Cup",
      "description": "You have won the Asia-Oceanian Cup.",
      "howto": "Aim to win the Asia-Oceanian Cup."
    },
    {
      "id": 22,
      "imageId": 6,
      "cred": 40,
      "flags": 5,
      "label": "Won the Konami Cup",
      "description": "You have won the Konami Cup.",
      "howto": "Aim to win the Konami Cup."
    },
    {
      "id": 23,
      "imageId": 17,
      "cred": 40,
      "flags": 5,
      "label": "Won the Master League: D2 League",
      "description": "You have won the Master League: D2 League.",
      "howto": "Aim to win the Master League: D2 League."
    },
    {
      "id": 24,
      "imageId": 16,
      "cred": 40,
      "flags": 5,
      "label": "Won the Master League: D2 Cup",
      "description": "You have won the Master League: D2 Cup.",
      "howto": "Aim to win the Master League: D2 Cup."
    },
    {
      "id": 25,
      "imageId": 15,
      "cred": 40,
      "flags": 5,
      "label": "Won the Master League: D1 League",
      "description": "You have won the Master League: D1 League.",
      "howto": "Aim to win the Master League: D1 League."
    },
    {
      "id": 26,
      "imageId": 14,
      "cred": 40,
      "flags": 5,
      "label": "Won the Master League: D1 Cup",
      "description": "You have won the Master League: D1 Cup.",
      "howto": "Aim to win the Master League: D1 Cup."
    },
    {
      "id": 27,
      "imageId": 18,
      "cred": 20,
      "flags": 4,
      "label": "First online match",
      "description": "First online match. (ranked match)",
      "howto": "Experience online matches. (ranked match)"
    },
    {
      "id": 28,
      "imageId": 19,
      "cred": 10,
      "flags": 4,
      "label": "10 online matches",
      "description": "10 online matches played. (ranked match)",
      "howto": "Aim to play 10 online matches. (ranked match)"
    },
    {
      "id": 29,
      "imageId": 20,
      "cred": 100,
      "flags": 4,
      "label": "100 online matches",
      "description": "100 online matches played. (ranked match)",
      "howto": "Aim to play 100 online matches. (ranked match)"
    },
    {
      "id": 30,
      "imageId": 21,
      "cred": 20,
      "flags": 4,
      "label": "10 online matches won",
      "description": "10 online matches won. (ranked match)",
      "howto": "Aim to win 10 online matches. (ranked match)"
    },
    {
      "id": 31,
      "imageId": 22,
      "cred": 50,
      "flags": 4,
      "label": "50 online matches won",
      "description": "50 online matches won. (ranked match)",
      "howto": "Aim to win 50 online matches. (ranked match)"
    },
    {
      "id": 32,
      "imageId": 23,
      "cred": 120,
      "flags": 4,
      "label": "100 online matches won",
      "description": "An amazing 100 online matches won! (ranked match)",
      "howto": "Aim to win 100 online matches. (ranked match)"
    }
  ]
}