{
  "avatarAssetsPossible": 3,
  "maleAvatarAssetsPossible": 1,
  "femaleAvatarAssetsPossible": 1,
  "avatarAssets": [
    {
      "id": "00000008-0001-d131-c34d-b90958410a8b",
      "imageId": 15,
      "subcategory": 0,
      "unknown": 0,
      "isMale": true,
      "isFemale": false,
      "isUnisex": false,
      "label": "DeathSpank Libre Tee (Male)",
      "description": "Dispense justice, vanquish evil and look great in this heroic T-shirt.",
      "howto": "Learn the super-secret password from the Orque guards."
    },
    {
      "id": "00000008-0001-71f2-c790-121158410a8b",
      "imageId": 16,
      "subcategory": 0,
      "unknown": 2015221016,
      "isMale": false,
      "isFemale": true,
      "isUnisex": false,
      "label": "DeathSpank Libre Tee (Female)",
      "description": "Dispense justice, vanquish evil and look great in this heroic T-shirt.",
      "howto": "Learn the super-secret password from the Orque guards."
    },
    {
      "id": "00001000-0002-f1e3-c5c1-9ab258410a8b",
      "imageId": 17,
      "subcategory": 0,
      "unknown": 2015221016,
      "isMale": false,
      "isFemale": false,
      "isUnisex": true,
      "label": "John Rumball Avatar Pet",
      "description": "The ultimate blend of flavor, loyalty and viciousness.",
      "howto": "Defeat the ultimate cookie warrior in the Jungle."
    }
  ]
}