{
  "achievementsPossible": 12,
  "credPossible": 200,
  "achievements": [
    {
      "id": 99,
      "imageId": 3,
      "cred": 35,
      "flags": 4,
      "label": "Log in on a Monday game day",
      "description": "Log in on a Monday game day to unlock this achievement!",
      "howto": "Log in on a Monday game day to unlock this achievement!"
    },
    {
      "id": 100,
      "imageId": 12,
      "cred": 35,
      "flags": 4,
      "label": "Log in on a Sunday game day",
      "description": "Log in on a Sunday game day to unlock this achievement!",
      "howto": "Log in on a Sunday game day to unlock this achievement!"
    },
    {
      "id": 101,
      "imageId": 4,
      "cred": 10,
      "flags": 4,
      "label": "View other team matchup",
      "description": "View a league matchup other than your own team's to unlock this achievement.",
      "howto": "View a league matchup other than your own team's to unlock this achievement."
    },
    {
      "id": 102,
      "imageId": 5,
      "cred": 35,
      "flags": 4,
      "label": "Change a setting",
      "description": "Change a setting to unlock this achievement!",
      "howto": "Change a setting to unlock this achievement!"
    },
    {
      "id": 103,
      "imageId": 6,
      "cred": 10,
      "flags": 4,
      "label": "Log in on a Thursday game day",
      "description": "Log in on a Thursday game day to unlock this achievement!",
      "howto": "Log in on a Thursday game day to unlock this achievement!"
    },
    {
      "id": 104,
      "imageId": 13,
      "cred": 5,
      "flags": 4,
      "label": "View How To Play screen",
      "description": "Select the How To Play screen to unlock this achievement.",
      "howto": "Select the How To Play screen to unlock this achievement."
    },
    {
      "id": 105,
      "imageId": 10,
      "cred": 10,
      "flags": 4,
      "label": "View League Standings screen",
      "description": "View the League Standings screen to unlock this achievement.",
      "howto": "View the League Standings screen to unlock this achievement."
    },
    {
      "id": 106,
      "imageId": 9,
      "cred": 10,
      "flags": 4,
      "label": "View own team matchup",
      "description": "View the league matchup for your team to unlock this achievement.\r\n",
      "howto": "View the league matchup for your team to unlock this achievement.\r\n"
    },
    {
      "id": 107,
      "imageId": 11,
      "cred": 5,
      "flags": 4,
      "label": "Switch Matchup to PIP view",
      "description": "Switch the Matchup screen to the PIP view to unlock this achievement.",
      "howto": "Switch the Matchup screen to the PIP view to unlock this achievement."
    },
    {
      "id": 108,
      "imageId": 7,
      "cred": 5,
      "flags": 4,
      "label": "Press START",
      "description": "Press START at the Press START screen to unlock this achievement!",
      "howto": "Press START at the Press START screen to unlock this achievement!"
    },
    {
      "id": 109,
      "imageId": 8,
      "cred": 35,
      "flags": 4,
      "label": "Enter the Pause Menu",
      "description": "Enter the Pause Menu to unlock this achievement!",
      "howto": "Enter the Pause Menu to unlock this achievement!"
    },
    {
      "id": 110,
      "imageId": 2,
      "cred": 5,
      "flags": 4,
      "label": "Log in on a Saturday game day",
      "description": "Log in on a Saturday game day to unlock this achievement!",
      "howto": "Log in on a Saturday game day to unlock this achievement!"
    }
  ]
}