{
  "achievementsPossible": 50,
  "credPossible": 1000,
  "achievements": [
    {
      "id": 1,
      "imageId": 11,
      "cred": 10,
      "flags": 4,
      "label": "Just A Scratch",
      "description": "REPAIRED YOUR VEHICLE 50 TIMES.",
      "howto": "USE PIT LANE TO REPAIR YOUR VEHICLE 50 TIMES."
    },
    {
      "id": 2,
      "imageId": 12,
      "cred": 10,
      "flags": 4,
      "label": "Not On My Watch",
      "description": "WRECKED A CAR IN PIT LANE BEFORE THE REPAIR.",
      "howto": "WRECK A CAR IN PIT LANE BEFORE THE REPAIR."
    },
    {
      "id": 3,
      "imageId": 13,
      "cred": 10,
      "flags": 4,
      "label": "The Hard Way",
      "description": "FINISHED 5 RACES WITHOUT USING PIT LANE.",
      "howto": "FINISH 5 RACES WITHOUT USING PIT LANE."
    },
    {
      "id": 4,
      "imageId": 14,
      "cred": 10,
      "flags": 4,
      "label": "Just That Good",
      "description": "FINISHED 3 RACES WITHOUT WRECKING OR USING PIT LANE.",
      "howto": "FINISH 3 RACES WITHOUT WRECKING OR USING PIT LANE."
    },
    {
      "id": 7,
      "imageId": 15,
      "cred": 10,
      "flags": 4,
      "label": "I Meant To Do That",
      "description": "DROVE OVER 15 OIL SLICKS.",
      "howto": "DRIVE OVER 15 OIL SLICKS."
    },
    {
      "id": 8,
      "imageId": 16,
      "cred": 10,
      "flags": 4,
      "label": "Watch Your Step",
      "description": "BUMPED ANOTHER CAR INTO AN OIL SLICK.",
      "howto": "BUMP ANOTHER CAR INTO AN OIL SLICK."
    },
    {
      "id": 9,
      "imageId": 17,
      "cred": 10,
      "flags": 4,
      "label": "Didn’t See You There",
      "description": "BUMPED ANOTHER CAR INTO A HAZARD.",
      "howto": "BUMP ANOTHER CAR INTO A HAZARD."
    },
    {
      "id": 10,
      "imageId": 18,
      "cred": 10,
      "flags": 4,
      "label": "Turbo Speed!",
      "description": "PERFORMED 50 SLINGSHOT BOOSTS.",
      "howto": "PERFORM 50 SLINGSHOT BOOSTS."
    },
    {
      "id": 11,
      "imageId": 19,
      "cred": 10,
      "flags": 4,
      "label": "It Still Counts!",
      "description": "WRECKED YOUR CAR ACROSS THE FINISH LINE.",
      "howto": "WRECK YOUR CAR ACROSS THE FINISH LINE."
    },
    {
      "id": 12,
      "imageId": 20,
      "cred": 10,
      "flags": 4,
      "label": "Winner!",
      "description": "PLACED 1ST ON THE DAYTONA OVAL.",
      "howto": "PLACE 1ST ON THE DAYTONA OVAL."
    },
    {
      "id": 13,
      "imageId": 21,
      "cred": 10,
      "flags": 4,
      "label": "Showoff",
      "description": "PERFORMED A DONUT AND WENT ON TO WIN THE RACE.",
      "howto": "PERFORM A DONUT AND GO ON TO WIN THE RACE."
    },
    {
      "id": 14,
      "imageId": 22,
      "cred": 10,
      "flags": 4,
      "label": "2 Birds, 1 Stone",
      "description": "MADE 2 RIVALS AT THE SAME TIME.",
      "howto": "MAKE 2 RIVALS AT THE SAME TIME."
    },
    {
      "id": 15,
      "imageId": 23,
      "cred": 10,
      "flags": 4,
      "label": "Showboater!",
      "description": "DRIFTED AROUND 75 TURNS.",
      "howto": "DRIFT AROUND 75 TURNS."
    },
    {
      "id": 16,
      "imageId": 24,
      "cred": 10,
      "flags": 4,
      "label": "High Score",
      "description": "SCORED HIGHER THAN 175,000 IN A SINGLE RACE.",
      "howto": "SCORE HIGHER THAN 175,000 IN A SINGLE RACE."
    },
    {
      "id": 17,
      "imageId": 25,
      "cred": 10,
      "flags": 4,
      "label": "The Sun Was In My Eyes",
      "description": "WRECKED YOUR CAR 15 TIMES.",
      "howto": "WRECK YOUR CAR 15 TIMES."
    },
    {
      "id": 18,
      "imageId": 26,
      "cred": 10,
      "flags": 4,
      "label": "Look Mom!",
      "description": "DROVE OVER 35 RAMP JUMPS.",
      "howto": "DRIVE OVER 35 RAMP JUMPS."
    },
    {
      "id": 19,
      "imageId": 27,
      "cred": 10,
      "flags": 4,
      "label": "Stuntman",
      "description": "PERFORMED 5 BARREL ROLLS IN MID-AIR.",
      "howto": "PERFORM 5 BARREL ROLLS IN MID-AIR."
    },
    {
      "id": 20,
      "imageId": 28,
      "cred": 10,
      "flags": 4,
      "label": "Rocketman",
      "description": "PERFORMED SLINGSHOT BOOSTS INTO 25 RAMP JUMPS.",
      "howto": "SLINGSHOT INTO 25 RAMP JUMPS."
    },
    {
      "id": 21,
      "imageId": 29,
      "cred": 10,
      "flags": 4,
      "label": "Beat The Clock!",
      "description": "EARNED A TROPHY ON ANY TIME TRIAL TRACK.",
      "howto": "EARN A TROPHY ON ANY TIME TRIAL TRACK."
    },
    {
      "id": 22,
      "imageId": 30,
      "cred": 10,
      "flags": 4,
      "label": "Stylin’",
      "description": "CUSTOMIZED ANY CAR WITH AN UNLOCKED PAINT JOB.",
      "howto": "CUSTOMIZE ANY CAR WITH AN UNLOCKED PAINT JOB."
    },
    {
      "id": 23,
      "imageId": 31,
      "cred": 10,
      "flags": 4,
      "label": "Eat My Dust",
      "description": "PLACED 1ST IN ANY RACE AGAINST A FRIEND.",
      "howto": "PLACE 1ST IN ANY RACE AGAINST YOUR FRIEND."
    },
    {
      "id": 24,
      "imageId": 32,
      "cred": 10,
      "flags": 4,
      "label": "Good Effort!",
      "description": "FINISHED A QUICK RACE SEASON IN ANY PLACE BUT 1ST.",
      "howto": "FINISH A QUICK RACE SEASON IN ANY PLACE BUT 1ST."
    },
    {
      "id": 25,
      "imageId": 33,
      "cred": 10,
      "flags": 4,
      "label": "The Real Deal",
      "description": "PLACED 1ST IN A QUICK RACE SEASON.",
      "howto": "PLACE 1ST IN A QUICK RACE SEASON."
    },
    {
      "id": 26,
      "imageId": 34,
      "cred": 10,
      "flags": 4,
      "label": "Friendly Rivalry",
      "description": "WRECKED YOUR FRIEND MAKING HIM/HER A RIVAL.",
      "howto": "WRECK YOUR FRIEND MAKING HIM/HER A RIVAL."
    },
    {
      "id": 27,
      "imageId": 35,
      "cred": 10,
      "flags": 4,
      "label": "Tough Guy",
      "description": "MADE 75 RIVALS.",
      "howto": "MAKE 75 RIVALS."
    },
    {
      "id": 28,
      "imageId": 36,
      "cred": 10,
      "flags": 4,
      "label": "Well Played",
      "description": "SCORED HIGHER THAN A FRIEND IN A QUICK RACE SEASON.",
      "howto": "SCORE HIGHER THAN YOUR FRIEND IN A QUICK RACE SEASON."
    },
    {
      "id": 29,
      "imageId": 37,
      "cred": 10,
      "flags": 4,
      "label": "Revenge!",
      "description": "SCORED A PAYBACK.",
      "howto": "SCORE A PAYBACK."
    },
    {
      "id": 30,
      "imageId": 38,
      "cred": 10,
      "flags": 4,
      "label": "That’ll Learn Ya!",
      "description": "SCORED 10 PAYBACKS.",
      "howto": "SCORE 10 PAYBACKS."
    },
    {
      "id": 31,
      "imageId": 39,
      "cred": 10,
      "flags": 4,
      "label": "Light Touch",
      "description": "PERFORMED 125 SLAMS.",
      "howto": "PERFORM 125 SLAMS."
    },
    {
      "id": 32,
      "imageId": 40,
      "cred": 10,
      "flags": 4,
      "label": "Unnecessary Roughness",
      "description": "PERFORMED 250 SLAMS.",
      "howto": "PERFORM 250 SLAMS."
    },
    {
      "id": 33,
      "imageId": 41,
      "cred": 10,
      "flags": 4,
      "label": "Beatdown!",
      "description": "MADE 3 RIVALS IN A SINGLE RACE.",
      "howto": "MAKE 3 RIVALS IN A SINGLE RACE."
    },
    {
      "id": 34,
      "imageId": 42,
      "cred": 10,
      "flags": 4,
      "label": "Thrashing!",
      "description": "MADE 5 RIVALS IN A SINGLE RACE.",
      "howto": "MAKE 5 RIVALS IN A SINGLE RACE."
    },
    {
      "id": 35,
      "imageId": 43,
      "cred": 10,
      "flags": 4,
      "label": "Scenic Route",
      "description": "DROVE OVER OIL, DIRT, SAND, GRAVEL, WATER, AND GRASS.",
      "howto": "DRIVE OVER OIL, DIRT, SAND, GRAVEL, WATER, AND GRASS."
    },
    {
      "id": 36,
      "imageId": 44,
      "cred": 10,
      "flags": 4,
      "label": "Hot Shot",
      "description": "PLACED 1ST IN ANY RACE.",
      "howto": "PLACE 1ST IN ANY RACE."
    },
    {
      "id": 37,
      "imageId": 45,
      "cred": 10,
      "flags": 4,
      "label": "Learning The Ropes",
      "description": "COMPLETED THE ROOKIE TIER IN CHAMPIONSHIP MODE.",
      "howto": "COMPLETE THE ROOKIE TIER IN CHAMPIONSHIP MODE."
    },
    {
      "id": 38,
      "imageId": 46,
      "cred": 10,
      "flags": 4,
      "label": "Showing Promise",
      "description": "COMPLETED THE PROFESSIONAL TIER IN CHAMPIONSHIP MODE.",
      "howto": "COMPLETE THE PROFESSIONAL TIER IN CHAMPIONSHIP MODE."
    },
    {
      "id": 39,
      "imageId": 47,
      "cred": 10,
      "flags": 4,
      "label": "World Traveler",
      "description": "UNLOCKED ALL RACE TRACKS.",
      "howto": "UNLOCK ALL RACE TRACKS."
    },
    {
      "id": 40,
      "imageId": 48,
      "cred": 10,
      "flags": 4,
      "label": "Drive By Healing",
      "description": "BOOSTED THROUGH THE PIT LANE RESTORE.",
      "howto": "BOOST THROUGH THE PIT LANE RESTORE."
    },
    {
      "id": 41,
      "imageId": 49,
      "cred": 10,
      "flags": 4,
      "label": "Piece Of Cake",
      "description": "COMPLETED 10 CHALLENGES.",
      "howto": "COMPLETE 10 CHALLENGES."
    },
    {
      "id": 42,
      "imageId": 50,
      "cred": 10,
      "flags": 4,
      "label": "Over Achiever",
      "description": "COMPLETED 5 CHALLENGES IN ONE RACE.",
      "howto": "COMPLETE 5 CHALLENGES IN ONE RACE."
    },
    {
      "id": 43,
      "imageId": 51,
      "cred": 40,
      "flags": 4,
      "label": "Domination!",
      "description": "SCORED HIGHER THAN 225,000 IN A SINGLE RACE.",
      "howto": "SCORE HIGHER THAN 225,000 IN A SINGLE RACE."
    },
    {
      "id": 44,
      "imageId": 52,
      "cred": 40,
      "flags": 4,
      "label": "Time To Spare",
      "description": "EARNED A GOLD TROPHY ON A TIME TRIAL TRACK.",
      "howto": "EARN A GOLD TROPHY ON ANY TIME TRIAL TRACK."
    },
    {
      "id": 45,
      "imageId": 53,
      "cred": 40,
      "flags": 4,
      "label": "Gotta Have ‘em All",
      "description": "UNLOCKED ALL VEHICLE PAINT JOBS.",
      "howto": "UNLOCK ALL VEHICLE PAINT JOBS."
    },
    {
      "id": 46,
      "imageId": 54,
      "cred": 40,
      "flags": 4,
      "label": "Lightning Reflexes",
      "description": "DROVE IN BOOST MODE FOR 12 SECONDS.",
      "howto": "DRIVE IN BOOST MODE FOR 12 SECONDS."
    },
    {
      "id": 47,
      "imageId": 55,
      "cred": 40,
      "flags": 4,
      "label": "So Close",
      "description": "EARNED SILVER TROPHIES ON ALL TIME TRIAL TRACKS.",
      "howto": "EARN SILVER TROPHIES ON ALL TIME TRIAL TRACKS."
    },
    {
      "id": 48,
      "imageId": 56,
      "cred": 80,
      "flags": 4,
      "label": "That All You Got?",
      "description": "COMPLETED THE LEGEND TIER IN CHAMPIONSHIP MODE.",
      "howto": "COMPLETE THE LEGEND TIER IN CHAMPIONSHIP MODE."
    },
    {
      "id": 49,
      "imageId": 57,
      "cred": 80,
      "flags": 4,
      "label": "In The Groove",
      "description": "AVOIDED WALLS AND TRACK BARRIERS TO SCORE 2 PERFECT LAPS IN ONE RACE.",
      "howto": "AVOID WALLS AND TRACK BARRIERS TO SCORE 2 PERFECT LAPS IN ONE RACE."
    },
    {
      "id": 50,
      "imageId": 58,
      "cred": 80,
      "flags": 4,
      "label": "Perfectionist",
      "description": "EARNED GOLD TROPHIES ON ALL TIME TRIAL TRACKS.",
      "howto": "EARN GOLD TROPHIES ON ALL TIME TRIAL TRACKS."
    },
    {
      "id": 51,
      "imageId": 59,
      "cred": 80,
      "flags": 4,
      "label": "Heavy Hitter",
      "description": "SCORED 25 SLAMS IN A SINGLE RACE.",
      "howto": "SCORE 25 SLAMS IN A SINGLE RACE."
    },
    {
      "id": 52,
      "imageId": 60,
      "cred": 80,
      "flags": 4,
      "label": "Crowd Pleaser",
      "description": "MADE 7 RIVALS IN A SINGLE RACE.",
      "howto": "MAKE 7 RIVALS IN A SINGLE RACE."
    }
  ]
}