{
  "avatarAssetsPossible": 4,
  "maleAvatarAssetsPossible": 2,
  "femaleAvatarAssetsPossible": 2,
  "avatarAssets": [
    {
      "id": "00000008-0001-e1d1-cca7-065358410afd",
      "imageId": 50,
      "subcategory": 0,
      "unknown": 0,
      "isMale": true,
      "isFemale": false,
      "isUnisex": false,
      "label": "Ultimate Mayhem Male Tee",
      "description": "Earned an achievement in Worms: Ultimate Mayhem",
      "howto": "Earn any Achievement in Worms: Ultimate Mayhem"
    },
    {
      "id": "00000008-0001-b142-c945-9da358410afd",
      "imageId": 48,
      "subcategory": 0,
      "unknown": 2015221016,
      "isMale": false,
      "isFemale": true,
      "isUnisex": false,
      "label": "Ultimate Mayhem Female Tee",
      "description": "Earned an achievement in Worms: Ultimate Mayhem",
      "howto": "Earn any Achievement in Worms: Ultimate Mayhem"
    },
    {
      "id": "00000008-0002-b141-c945-9da358410afd",
      "imageId": 54,
      "subcategory": 0,
      "unknown": 2015221016,
      "isMale": true,
      "isFemale": false,
      "isUnisex": false,
      "label": "Worm Male Tee",
      "description": "Found the 5 Easter Eggs in Worms: Ultimate Mayhem",
      "howto": "Locate the 5 hidden Easter Eggs in Worms: Ultimate Mayhem"
    },
    {
      "id": "00000008-0002-4132-c380-da4458410afd",
      "imageId": 52,
      "subcategory": 0,
      "unknown": 2015221016,
      "isMale": false,
      "isFemale": true,
      "isUnisex": false,
      "label": "Worm Female Tee",
      "description": "Found the 5 Easter Eggs in Worms: Ultimate Mayhem",
      "howto": "Locate the 5 hidden Easter Eggs in Worms: Ultimate Mayhem"
    }
  ]
}