{
  "achievementsPossible": 12,
  "credPossible": 200,
  "achievements": [
    {
      "id": 1,
      "imageId": 3,
      "cred": 15,
      "flags": 1,
      "label": "Escaped from Wolfenstein",
      "description": "Complete episode one on Don't Hurt Me or harder",
      "howto": "Complete episode one on Don't Hurt Me or harder"
    },
    {
      "id": 2,
      "imageId": 4,
      "cred": 15,
      "flags": 1,
      "label": "Operation: Eisenfaust Complete",
      "description": "Complete episode two on Don't Hurt Me or harder",
      "howto": "Complete episode two on Don't Hurt Me or harder"
    },
    {
      "id": 3,
      "imageId": 5,
      "cred": 15,
      "flags": 1,
      "label": "One Fewer Fuhrer",
      "description": "Complete episode three on Don't Hurt Me or harder",
      "howto": "Complete episode three on Don't Hurt Me or harder"
    },
    {
      "id": 4,
      "imageId": 6,
      "cred": 15,
      "flags": 1,
      "label": "A Dark Secret Revealed",
      "description": "Complete episode four on Don't Hurt Me or harder",
      "howto": "Complete episode four on Don't Hurt Me or harder"
    },
    {
      "id": 5,
      "imageId": 7,
      "cred": 15,
      "flags": 1,
      "label": "Sentenced the Madman",
      "description": "Complete episode five on Don't Hurt Me or harder",
      "howto": "Complete episode five on Don't Hurt Me or harder"
    },
    {
      "id": 6,
      "imageId": 8,
      "cred": 15,
      "flags": 1,
      "label": "Confronted",
      "description": "Complete episode six on Don't Hurt Me or harder",
      "howto": "Complete episode six on Don't Hurt Me or harder"
    },
    {
      "id": 7,
      "imageId": 1,
      "cred": 20,
      "flags": 1,
      "label": "None Left Standing",
      "description": "Get 100% kills on any floor on Don't Hurt Me or harder",
      "howto": "Get 100% kills on any floor on Don't Hurt Me or harder"
    },
    {
      "id": 8,
      "imageId": 2,
      "cred": 20,
      "flags": 1,
      "label": "Clean out the Castle",
      "description": "Get 100% of the treasure in any floor",
      "howto": "Get 100% of the treasure in any floor"
    },
    {
      "id": 9,
      "imageId": 11,
      "cred": 10,
      "flags": 1,
      "label": "One of Many",
      "description": "Exit any floor at any difficulty",
      "howto": "Exit any floor at any difficulty"
    },
    {
      "id": 10,
      "imageId": 9,
      "cred": 10,
      "flags": 1,
      "label": "Hey, That Wall Moves!",
      "description": "Find one secret",
      "howto": "Find one secret"
    },
    {
      "id": 11,
      "imageId": 12,
      "cred": 10,
      "flags": 1,
      "label": "You Are Death Incarnate",
      "description": "Complete one floor on \"I Am Death Incarnate\"",
      "howto": "Complete one floor on \"I Am Death Incarnate\""
    },
    {
      "id": 12,
      "imageId": 10,
      "cred": 40,
      "flags": 1,
      "label": "Blazkowicz-ed!",
      "description": "Complete all six episodes on Bring 'Em On! or harder",
      "howto": "Complete all six episodes on Bring 'Em On! or harder"
    }
  ]
}