{
  "achievementsPossible": 12,
  "credPossible": 200,
  "achievements": [
    {
      "id": 1,
      "imageId": 2,
      "cred": 10,
      "flags": 4,
      "label": "Alpha Launch",
      "description": "Launched from level one in single player Refuelled",
      "howto": "Launch from level one in single player Refuelled"
    },
    {
      "id": 2,
      "imageId": 3,
      "cred": 10,
      "flags": 4,
      "label": "Squid Port Pacifist",
      "description": "Completed level three in single player Refuelled without using lasers or EMP's",
      "howto": "Complete level three in single player Refuelled without using lasers or EMP's"
    },
    {
      "id": 3,
      "imageId": 5,
      "cred": 10,
      "flags": 4,
      "label": "Power Hungry",
      "description": "Upgraded my laser to full capacity in single player Refuelled",
      "howto": "Upgrade your laser to full capacity in single player Refuelled"
    },
    {
      "id": 4,
      "imageId": 7,
      "cred": 10,
      "flags": 6,
      "label": "Score More",
      "description": "Scored 250,000 points in single player Refuelled",
      "howto": "Score 250,000 points in single player Refuelled"
    },
    {
      "id": 5,
      "imageId": 8,
      "cred": 20,
      "flags": 6,
      "label": "Survival",
      "description": "Reached level ten without dying in single player Refuelled",
      "howto": "Starting from level one, reach level ten without dying in single player Refuelled"
    },
    {
      "id": 6,
      "imageId": 9,
      "cred": 20,
      "flags": 1,
      "label": "Retro Cyclist",
      "description": "Completed all 16 levels in Retro",
      "howto": "Complete all 16 levels in Retro"
    },
    {
      "id": 7,
      "imageId": 10,
      "cred": 20,
      "flags": 4,
      "label": "Robo Rocket",
      "description": "Built Robo Rocket in single player Refuelled",
      "howto": "Build Robo Rocket in single player Refuelled"
    },
    {
      "id": 8,
      "imageId": 11,
      "cred": 20,
      "flags": 6,
      "label": "Half Mill Man",
      "description": "Scored 500,000 points playing multi player Refuelled over Xbox Live.",
      "howto": "Score 500,000 points playing multi player Refuelled over Xbox Live"
    },
    {
      "id": 9,
      "imageId": 12,
      "cred": 30,
      "flags": 6,
      "label": "Millionaire Man",
      "description": "Scored 1,000,000 points in single player Refuelled",
      "howto": "Score 1,000,000 points in single player Refuelled"
    },
    {
      "id": 10,
      "imageId": 13,
      "cred": 20,
      "flags": 1,
      "label": "Been through your Milky Way",
      "description": "Played on level 44 in single player Refuelled",
      "howto": "Play level 44 in single player Refuelled"
    },
    {
      "id": 11,
      "imageId": 14,
      "cred": 30,
      "flags": 1,
      "label": "You can stop now!",
      "description": "I have completed Jetpac Refuelled",
      "howto": "Complete all 128 levels in single player Refuelled"
    },
    {
      "id": 12,
      "imageId": 15,
      "cred": 0,
      "flags": 4,
      "label": "Infection",
      "description": "I'm infected with the Jetpac virus",
      "howto": "Play with another infected player on Xbox LIVE"
    }
  ]
}