{
  "achievementsPossible": 50,
  "credPossible": 1000,
  "achievements": [
    {
      "id": 6,
      "imageId": 1,
      "cred": 10,
      "flags": 1,
      "label": "Good Fluffy!",
      "description": "Praised or scolded a pet enough times to add a trait.",
      "howto": "Praise or scold a pet enough times to add a trait."
    },
    {
      "id": 7,
      "imageId": 7,
      "cred": 25,
      "flags": 1,
      "label": "Personality: I Haz It",
      "description": "Trained a pet to have 9 traits.",
      "howto": "Train a pet to have 9 traits."
    },
    {
      "id": 8,
      "imageId": 8,
      "cred": 20,
      "flags": 1,
      "label": "Sit! Play Dead!",
      "description": "Earned more than §1,000 during a trick exhibition.",
      "howto": "Earn more than §1,000 during a trick exhibition."
    },
    {
      "id": 9,
      "imageId": 9,
      "cred": 20,
      "flags": 1,
      "label": "Have You Seen This Pet?",
      "description": "Found your lost pet.",
      "howto": "Find your lost pet."
    },
    {
      "id": 10,
      "imageId": 10,
      "cred": 20,
      "flags": 1,
      "label": "It's Genetic",
      "description": "Bred a Natural-Born Hunter cat or Natural-Born Digger dog.",
      "howto": "Breed a Natural-Born Hunter cat or Natural-Born Digger dog."
    },
    {
      "id": 11,
      "imageId": 11,
      "cred": 10,
      "flags": 1,
      "label": "Sim’s Best Friend",
      "description": "Became a BFF with a dog.",
      "howto": "Become a BFF with a dog."
    },
    {
      "id": 12,
      "imageId": 12,
      "cred": 15,
      "flags": 1,
      "label": "Wingman, er… Dog",
      "description": "Fetched a date.",
      "howto": "Fetch a date."
    },
    {
      "id": 13,
      "imageId": 13,
      "cred": 15,
      "flags": 1,
      "label": "Where'd You Get That!?",
      "description": "Fetched something worth at least §2,000 with a dog.",
      "howto": "Fetch something worth at least §2,000 with a dog."
    },
    {
      "id": 14,
      "imageId": 14,
      "cred": 35,
      "flags": 1,
      "label": "Do Not Want!",
      "description": "Successfully bathed your cat.",
      "howto": "Successfully bathe your cat."
    },
    {
      "id": 15,
      "imageId": 15,
      "cred": 15,
      "flags": 1,
      "label": "Smooth Criminal",
      "description": "Stole something worth at least §2,000 with a cat.",
      "howto": "Steal something worth at least §2,000 with a cat."
    },
    {
      "id": 16,
      "imageId": 16,
      "cred": 10,
      "flags": 1,
      "label": "Cat-A-Kinesis",
      "description": "Used a telekinetic cat to make a Sim fix a meal from the fridge.",
      "howto": "Use a telekinetic cat to make a Sim fix a meal from the fridge."
    },
    {
      "id": 18,
      "imageId": 18,
      "cred": 30,
      "flags": 1,
      "label": "The Parent Challenge",
      "description": "Completed each of the parenting Challenges.",
      "howto": "Complete each of the parenting Challenges."
    },
    {
      "id": 19,
      "imageId": 19,
      "cred": 10,
      "flags": 1,
      "label": "I'd Rather Be Fishing",
      "description": "Completed each of the fishing Challenges.",
      "howto": "Complete each of the fishing Challenges."
    },
    {
      "id": 20,
      "imageId": 20,
      "cred": 50,
      "flags": 1,
      "label": "All You Need",
      "description": "Completed each of the love and romance Challenges.",
      "howto": "Complete each of the love and romance Challenges."
    },
    {
      "id": 24,
      "imageId": 24,
      "cred": 35,
      "flags": 1,
      "label": "Cat-astrophe",
      "description": "Completed each of the Cat-astrophe scenario Challenges.",
      "howto": "Complete each of the Cat-astrophe scenario Challenges."
    },
    {
      "id": 25,
      "imageId": 25,
      "cred": 30,
      "flags": 1,
      "label": "K9 Cop",
      "description": "Completed each of the k9 cop scenario Challenges.",
      "howto": "Complete each of the k9 cop scenario Challenges."
    },
    {
      "id": 26,
      "imageId": 26,
      "cred": 15,
      "flags": 1,
      "label": "Mass Hysteria",
      "description": "Had a dog and a cat become best friends.",
      "howto": "Have a dog and a cat become best friends."
    },
    {
      "id": 27,
      "imageId": 27,
      "cred": 25,
      "flags": 1,
      "label": "Is This... Okay?",
      "description": "Made a Sim transmogrified from a cat and a Sim transmogrified from a dog become a couple.",
      "howto": "Make a Sim transmogrified from a cat and a Sim transmogrified from a dog become a couple."
    },
    {
      "id": 28,
      "imageId": 28,
      "cred": 20,
      "flags": 1,
      "label": "Family Feud",
      "description": "Activated the Cry Havoc karma power during a wedding party.",
      "howto": "Activate the Cry Havoc karma power during a wedding party."
    },
    {
      "id": 29,
      "imageId": 29,
      "cred": 20,
      "flags": 1,
      "label": "Maid-out",
      "description": "Made out with the maid.",
      "howto": "Make out with the maid."
    },
    {
      "id": 30,
      "imageId": 30,
      "cred": 15,
      "flags": 1,
      "label": "Employee Benefits",
      "description": "Became a romantic interest of your boss.",
      "howto": "Become a romantic interest of your boss."
    },
    {
      "id": 31,
      "imageId": 31,
      "cred": 30,
      "flags": 1,
      "label": "TMI",
      "description": "Had your Sim kiss their brother’s/sister’s best friend.",
      "howto": "Have your Sim kiss their brother’s/sister’s best friend."
    },
    {
      "id": 32,
      "imageId": 32,
      "cred": 20,
      "flags": 1,
      "label": "Flirting with Disaster",
      "description": "Thwarted karmic backlash.",
      "howto": "Escape a karmic backlash by quickly balancing the meter after dropping below -50."
    },
    {
      "id": 33,
      "imageId": 33,
      "cred": 15,
      "flags": 1,
      "label": "Yoink!",
      "description": "With a pet, stole a Sim's clothes who is skinny dipping.",
      "howto": "With a pet, steal a Sim's clothes who is skinny dipping."
    },
    {
      "id": 34,
      "imageId": 34,
      "cred": 20,
      "flags": 1,
      "label": "Dogzilla vs. Cat-Kong",
      "description": "Destroyed §10,000 worth of objects with a dog or cat.",
      "howto": "Destroy §10,000 worth of objects with a dog or cat."
    },
    {
      "id": 35,
      "imageId": 35,
      "cred": 25,
      "flags": 1,
      "label": "Leonardo Reborn",
      "description": "Completed each of the Leonardo Reborn Sub-Challenges.",
      "howto": "Complete each of the Leonardo Reborn Sub-Challenges."
    },
    {
      "id": 37,
      "imageId": 37,
      "cred": 15,
      "flags": 1,
      "label": "What Ghosts?",
      "description": "Caught every ghost spawned by the Ghost Invasion karma power before it ends.",
      "howto": "Catch every ghost spawned by the Ghost Invasion karma power before it ends."
    },
    {
      "id": 38,
      "imageId": 38,
      "cred": 10,
      "flags": 1,
      "label": "Bad Neighbor",
      "description": "Targeted your neighbor with the Ghostify Power, then captured them with a cat or Ghost Zapper.",
      "howto": "Target your neighbor with the Ghostify Power, then catch them with a cat or Ghost Zapper."
    },
    {
      "id": 39,
      "imageId": 39,
      "cred": 20,
      "flags": 1,
      "label": "Indubitably!",
      "description": "Completed each of the mystery chapters.",
      "howto": "Complete each of the mystery chapters."
    },
    {
      "id": 40,
      "imageId": 40,
      "cred": 10,
      "flags": 1,
      "label": "The Missing Link",
      "description": "Discovered the lost pirate ship anchor.",
      "howto": "Discover the lost pirate ship anchor."
    },
    {
      "id": 41,
      "imageId": 41,
      "cred": 10,
      "flags": 1,
      "label": "Zombie Bears, Oh My!",
      "description": "Avoided the zombie bears to find the pirate ship's log.",
      "howto": "Avoid the zombie bears to find the pirate ship's log."
    },
    {
      "id": 42,
      "imageId": 42,
      "cred": 10,
      "flags": 1,
      "label": "Doggie Duties",
      "description": "Dealt with the feline in the Dog Days of Summer mystery.",
      "howto": "Deal with the feline in the Dog Days of Summer mystery."
    },
    {
      "id": 43,
      "imageId": 43,
      "cred": 10,
      "flags": 1,
      "label": "Search and Rescue",
      "description": "Explored the Abandoned Mine in search of Timmy.",
      "howto": "Explore the Abandoned Mine in search of Timmy."
    },
    {
      "id": 44,
      "imageId": 44,
      "cred": 10,
      "flags": 1,
      "label": "A Punishable Offense",
      "description": "Punished the Sims for their crumb-filled, sub-standard furniture.",
      "howto": "Punish the Sims for their crumb-filled, sub-standard furniture."
    },
    {
      "id": 45,
      "imageId": 45,
      "cred": 10,
      "flags": 1,
      "label": "Don't Talk About Socialite Club",
      "description": "Got the attention of the Socialite Club.",
      "howto": "Get the attention of the Socialite Club."
    },
    {
      "id": 46,
      "imageId": 46,
      "cred": 10,
      "flags": 1,
      "label": "Great Scott!",
      "description": "Created a flux combobulator.",
      "howto": "Create a flux combobulator."
    },
    {
      "id": 47,
      "imageId": 47,
      "cred": 10,
      "flags": 1,
      "label": "From the Ground Up",
      "description": "Built your house from the ground up by replacing your property with an empty lot.",
      "howto": "Build your house from the ground up by replacing your property with an empty lot."
    },
    {
      "id": 48,
      "imageId": 48,
      "cred": 25,
      "flags": 1,
      "label": "Mansion Builder",
      "description": "Built a house with 5 stories and an unfurnished value of at least §100,000.",
      "howto": "Build a house with 5 stories and an unfurnished value of at least §100,000."
    },
    {
      "id": 50,
      "imageId": 50,
      "cred": 50,
      "flags": 1,
      "label": "It's Good to be a Sim",
      "description": "Completed each of the Sim happiness Challenges.",
      "howto": "Complete each of the Sim happiness Challenges."
    },
    {
      "id": 51,
      "imageId": 51,
      "cred": 25,
      "flags": 1,
      "label": "Curator's Best Friend",
      "description": "Completed each of the relic collection Challenges.",
      "howto": "Complete each of the relic collection Challenges."
    },
    {
      "id": 52,
      "imageId": 52,
      "cred": 25,
      "flags": 1,
      "label": "Dancing Fiend",
      "description": "Completed each of the dancing Challenges.",
      "howto": "Complete each of the dancing Challenges."
    },
    {
      "id": 53,
      "imageId": 53,
      "cred": 20,
      "flags": 1,
      "label": "Exhibitionist",
      "description": "Completed each of the exhibitionist Challenges.",
      "howto": "Complete each of the exhibitionist Challenges."
    },
    {
      "id": 54,
      "imageId": 54,
      "cred": 10,
      "flags": 1,
      "label": "Explorer",
      "description": "Completed each of the explorer Challenges.",
      "howto": "Complete each of the explorer Challenges."
    },
    {
      "id": 55,
      "imageId": 2,
      "cred": 25,
      "flags": 1,
      "label": "Don't Fear the Reaper",
      "description": "Scared the reaper.",
      "howto": "Scare the reaper."
    },
    {
      "id": 56,
      "imageId": 3,
      "cred": 25,
      "flags": 1,
      "label": "Leet Skillz",
      "description": "Completed 10 Skill Journal Milestones.",
      "howto": "Complete any 10 Skill Journal Milestones."
    },
    {
      "id": 57,
      "imageId": 4,
      "cred": 25,
      "flags": 1,
      "label": "No Fate But What We Make",
      "description": "Sent a simbot back in time.",
      "howto": "Send a simbot back in time."
    },
    {
      "id": 58,
      "imageId": 5,
      "cred": 20,
      "flags": 1,
      "label": "Overqualified",
      "description": "Went to work with 4 career performance requirements at Outstanding.",
      "howto": "Go to work with 4 career performance requirements at Outstanding."
    },
    {
      "id": 59,
      "imageId": 6,
      "cred": 10,
      "flags": 1,
      "label": "Sunken Treasure",
      "description": "Found a special plant while fishing.",
      "howto": "Find a special plant while fishing."
    },
    {
      "id": 60,
      "imageId": 55,
      "cred": 25,
      "flags": 1,
      "label": "You Da Boss",
      "description": "Reached level 10 of a career.",
      "howto": "Reach level 10 of a career."
    },
    {
      "id": 61,
      "imageId": 17,
      "cred": 35,
      "flags": 1,
      "label": "Must Love Pets",
      "description": "Completed a pet-related Lifetime Wish.",
      "howto": "Promise and complete a pet-related Lifetime Wish."
    }
  ]
}