{
  "achievementsPossible": 42,
  "credPossible": 1000,
  "achievements": [
    {
      "id": 1,
      "imageId": 4,
      "cred": 25,
      "flags": 6,
      "label": "Phoney War",
      "description": "Complete the mission Phoney War.",
      "howto": "Complete the mission Phoney War."
    },
    {
      "id": 2,
      "imageId": 2,
      "cred": 15,
      "flags": 6,
      "label": "352 FG Rookie",
      "description": "Complete 352 FG campaign on Rookie or higher difficulty.",
      "howto": "Complete 352 FG campaign on Rookie or higher difficulty."
    },
    {
      "id": 3,
      "imageId": 2,
      "cred": 15,
      "flags": 6,
      "label": "72 Sqn Rookie",
      "description": "Complete 72 Sqn campaign on Rookie or higher difficulty.",
      "howto": "Complete 72 Sqn campaign on Rookie or higher difficulty."
    },
    {
      "id": 4,
      "imageId": 2,
      "cred": 15,
      "flags": 1,
      "label": "79 Sqn Rookie",
      "description": "Complete 79 Sqn campaign on Rookie or higher difficulty.",
      "howto": "Complete 79 Sqn campaign on Rookie or higher difficulty."
    },
    {
      "id": 5,
      "imageId": 2,
      "cred": 15,
      "flags": 6,
      "label": "487 Sqn Rookie",
      "description": "Complete 487 Sqn campaign on Rookie or higher difficulty.",
      "howto": "Complete 487 Sqn campaign on Rookie or higher difficulty."
    },
    {
      "id": 6,
      "imageId": 4,
      "cred": 30,
      "flags": 1,
      "label": "Seasoned Rookie",
      "description": "Complete all campaigns on Rookie or higher difficulty.",
      "howto": "Complete all campaigns on Rookie or higher difficulty."
    },
    {
      "id": 7,
      "imageId": 4,
      "cred": 30,
      "flags": 6,
      "label": "352 FG Pilot",
      "description": "Complete 352 FG campaign on Pilot or higher difficulty.",
      "howto": "Complete 352 FG campaign on Pilot or higher difficulty."
    },
    {
      "id": 8,
      "imageId": 4,
      "cred": 30,
      "flags": 6,
      "label": "72 Sqn Pilot",
      "description": "Complete 72 Sqn campaign on Pilot or higher difficulty.",
      "howto": "Complete 72 Sqn campaign on Pilot or higher difficulty."
    },
    {
      "id": 9,
      "imageId": 4,
      "cred": 30,
      "flags": 6,
      "label": "79 Sqn Pilot",
      "description": "Complete 79 Sqn campaign on Pilot or higher difficulty.",
      "howto": "Complete 79 Sqn campaign on Pilot or higher difficulty."
    },
    {
      "id": 10,
      "imageId": 4,
      "cred": 30,
      "flags": 6,
      "label": "487 Sqn Pilot",
      "description": "Complete 487 Sqn campaign on Pilot or higher difficulty.",
      "howto": "Complete 487 Sqn campaign on Pilot or higher difficulty."
    },
    {
      "id": 11,
      "imageId": 4,
      "cred": 30,
      "flags": 1,
      "label": "Seasoned Pilot",
      "description": "Complete all campaigns on Pilot or higher difficulty.",
      "howto": "Complete all campaigns on Pilot or higher difficulty."
    },
    {
      "id": 12,
      "imageId": 4,
      "cred": 30,
      "flags": 6,
      "label": "352 FG Ace",
      "description": "Complete 352 FG campaign on Ace difficulty. ",
      "howto": "Complete 352 FG campaign on Ace difficulty. "
    },
    {
      "id": 13,
      "imageId": 4,
      "cred": 30,
      "flags": 6,
      "label": "72 Sqn Ace",
      "description": "Complete 72 Sqn campaign on Ace difficulty.",
      "howto": "Complete 72 Sqn campaign on Ace difficulty."
    },
    {
      "id": 14,
      "imageId": 4,
      "cred": 30,
      "flags": 6,
      "label": "79 Sqn Ace",
      "description": "Complete 79 Sqn campaign on Ace difficulty.",
      "howto": "Complete 79 Sqn campaign on Ace difficulty."
    },
    {
      "id": 15,
      "imageId": 4,
      "cred": 30,
      "flags": 6,
      "label": "487 Sqn Ace",
      "description": "Complete 487 Sqn campaign on Ace difficulty.",
      "howto": "Complete 487 Sqn campaign on Ace difficulty."
    },
    {
      "id": 16,
      "imageId": 7,
      "cred": 90,
      "flags": 1,
      "label": "Seasoned Ace",
      "description": "Complete all campaigns on Ace difficulty.",
      "howto": "Complete all campaigns on Ace difficulty."
    },
    {
      "id": 17,
      "imageId": 1,
      "cred": 15,
      "flags": 4,
      "label": "Ace Killer",
      "description": "Ace Kill an enemy.",
      "howto": "Ace Kill an enemy."
    },
    {
      "id": 18,
      "imageId": 3,
      "cred": 15,
      "flags": 4,
      "label": "Fireworks Display",
      "description": "Perform an ammo box Ace Kill.",
      "howto": "Perform an ammo box Ace Kill."
    },
    {
      "id": 19,
      "imageId": 5,
      "cred": 15,
      "flags": 4,
      "label": "Air To Air",
      "description": "Destroy an enemy fighter with rockets.",
      "howto": "Destroy an enemy fighter with rockets."
    },
    {
      "id": 20,
      "imageId": 6,
      "cred": 15,
      "flags": 4,
      "label": "Dive! Dive! Dive!",
      "description": "Dive bomb a ground target.",
      "howto": "Dive bomb a ground target."
    },
    {
      "id": 21,
      "imageId": 8,
      "cred": 15,
      "flags": 4,
      "label": "Bombardier",
      "description": "Destroy a ground target with a bomb.",
      "howto": "Destroy a ground target with a bomb."
    },
    {
      "id": 22,
      "imageId": 9,
      "cred": 15,
      "flags": 4,
      "label": "Vivisectionist",
      "description": "Take out two engines and a gunner in one Ace Kill.",
      "howto": "Take out two engines and a gunner in one Ace Kill."
    },
    {
      "id": 23,
      "imageId": 10,
      "cred": 15,
      "flags": 4,
      "label": "The Sweetspot",
      "description": "Chain two Ace Kills in the 'Zone'.",
      "howto": "Chain two Ace Kills in the 'Zone'."
    },
    {
      "id": 24,
      "imageId": 11,
      "cred": 30,
      "flags": 4,
      "label": "Big Game Hunter",
      "description": "Ace Kill every enemy plane type.",
      "howto": "Ace Kill every enemy plane type."
    },
    {
      "id": 25,
      "imageId": 12,
      "cred": 15,
      "flags": 7,
      "label": "On The Edge",
      "description": "Complete a mission with only 25% health remaining.",
      "howto": "Complete a mission with only 25% health remaining."
    },
    {
      "id": 26,
      "imageId": 13,
      "cred": 15,
      "flags": 4,
      "label": "Ramming Speed",
      "description": "Destroy three bombers by ramming.",
      "howto": "Destroy three bombers by ramming."
    },
    {
      "id": 27,
      "imageId": 14,
      "cred": 15,
      "flags": 4,
      "label": "Energy Attack",
      "description": "Destroy a plane while diving at full speed.",
      "howto": "Destroy a plane while diving at full speed."
    },
    {
      "id": 28,
      "imageId": 15,
      "cred": 15,
      "flags": 4,
      "label": "Ace of Spades",
      "description": "Pilot Ace Kill an enemy boss.",
      "howto": "Pilot Ace Kill an enemy boss."
    },
    {
      "id": 29,
      "imageId": 16,
      "cred": 15,
      "flags": 4,
      "label": "Pilot Hunter",
      "description": "Pilot Ace Kill 10 enemies.",
      "howto": "Pilot Ace Kill 10 enemies."
    },
    {
      "id": 30,
      "imageId": 17,
      "cred": 30,
      "flags": 7,
      "label": "Sharp Shooter",
      "description": "Complete a mission with 75% accuracy or higher.",
      "howto": "Complete a mission with 75% accuracy or higher."
    },
    {
      "id": 31,
      "imageId": 18,
      "cred": 30,
      "flags": 4,
      "label": "Death from Above",
      "description": "Bomb an airborne enemy plane.",
      "howto": "Bomb an airborne enemy plane."
    },
    {
      "id": 32,
      "imageId": 19,
      "cred": 30,
      "flags": 7,
      "label": "Cautious",
      "description": "Complete a mission with full health.",
      "howto": "Complete a mission with full health."
    },
    {
      "id": 33,
      "imageId": 20,
      "cred": 30,
      "flags": 4,
      "label": "Tank Hunter",
      "description": "Destroy 50 tanks using rockets in Battle of the Bulge.",
      "howto": "Destroy 50 tanks using rockets in Battle of the Bulge."
    },
    {
      "id": 34,
      "imageId": 21,
      "cred": 30,
      "flags": 3,
      "label": "Collector",
      "description": "Unlock all plane upgrades.",
      "howto": "Unlock all plane upgrades."
    },
    {
      "id": 35,
      "imageId": 22,
      "cred": 15,
      "flags": 4,
      "label": "Super Ace",
      "description": "Score 50 kills in ranked match.",
      "howto": "Score 50 kills in ranked match."
    },
    {
      "id": 36,
      "imageId": 23,
      "cred": 15,
      "flags": 7,
      "label": "Specialist",
      "description": "Play a full multiplayer round using each type of plane available in a level.",
      "howto": "Play a full multiplayer round using each type of plane available in a level."
    },
    {
      "id": 37,
      "imageId": 24,
      "cred": 15,
      "flags": 5,
      "label": "Spectator",
      "description": "On the winning team without a kill in multiplayer with 5 or more players.\r\n",
      "howto": "On the winning team without a kill in multiplayer with 5 or more players.\r\n"
    },
    {
      "id": 38,
      "imageId": 25,
      "cred": 15,
      "flags": 5,
      "label": "Fighter Ace",
      "description": "Come first in a multiplayer game with five or more players flying a fighter.",
      "howto": "Come first in a multiplayer game with five or more players flying a fighter."
    },
    {
      "id": 39,
      "imageId": 26,
      "cred": 15,
      "flags": 5,
      "label": "Support Chief",
      "description": "Come first in a multiplayer game with five or more players flying a fighter-bomber.",
      "howto": "Come first in a multiplayer game with five or more players flying a fighter-bomber."
    },
    {
      "id": 40,
      "imageId": 27,
      "cred": 30,
      "flags": 4,
      "label": "Red Baron",
      "description": "Shoot down five enemies with a single life in a multiplayer game.",
      "howto": "Shoot down five enemies with a single life in a multiplayer game."
    },
    {
      "id": 41,
      "imageId": 28,
      "cred": 30,
      "flags": 4,
      "label": "Ultimate Ace",
      "description": "Score 250 kills in ranked match.",
      "howto": "Score 250 kills in ranked match."
    },
    {
      "id": 42,
      "imageId": 29,
      "cred": 30,
      "flags": 4,
      "label": "The Oskar",
      "description": "Use rockets to destroy 5 enemies on a single life in multiplayer with 5 or more players.",
      "howto": "Use rockets to destroy 5 enemies on a single life in multiplayer with 5 or more players."
    }
  ]
}