{
  "achievementsPossible": 12,
  "credPossible": 200,
  "achievements": [
    {
      "id": 1,
      "imageId": 1,
      "cred": 20,
      "flags": 1,
      "label": "孤独な勝利",
      "description": "1Pプレイでエピソード 1をクリアした。",
      "howto": "1Pプレイでエピソード 1をクリアせよ。"
    },
    {
      "id": 2,
      "imageId": 2,
      "cred": 20,
      "flags": 1,
      "label": "一時的な平和",
      "description": "1Pプレイでエピソード 2をクリアした。",
      "howto": "1Pプレイでエピソード 2をクリアせよ。"
    },
    {
      "id": 3,
      "imageId": 3,
      "cred": 10,
      "flags": 1,
      "label": "任務完遂への一歩（Episode 1）",
      "description": "エピソード 1をノーコンティニューでラウンド 10までクリアした。",
      "howto": "エピソード 1をノーコンティニューでラウンド 10までクリアせよ。"
    },
    {
      "id": 4,
      "imageId": 4,
      "cred": 25,
      "flags": 1,
      "label": "DOH勲章",
      "description": "エピソード 1をノーコンティニューでラウンド  30までクリアした。",
      "howto": "エピソード 1をノーコンティニューでラウンド  30までクリアせよ。"
    },
    {
      "id": 5,
      "imageId": 5,
      "cred": 10,
      "flags": 1,
      "label": "任務完遂への一歩（Episode 2）",
      "description": "エピソード 2をノーコンティニューでラウンド 10までクリアした。",
      "howto": "エピソード 2をノーコンティニューでラウンド 10までクリアせよ。"
    },
    {
      "id": 6,
      "imageId": 6,
      "cred": 25,
      "flags": 1,
      "label": "骸骨勲章",
      "description": "エピソード 2をノーコンティニューでラウンド 30までクリアした。",
      "howto": "エピソード 2をノーコンティニューでラウンド 30までクリアせよ。"
    },
    {
      "id": 7,
      "imageId": 7,
      "cred": 10,
      "flags": 1,
      "label": "頼れる仲間",
      "description": "2P協力プレイでエピソードをクリアした。",
      "howto": "仲間と協力してエピソードをクリアせよ。"
    },
    {
      "id": 8,
      "imageId": 8,
      "cred": 15,
      "flags": 1,
      "label": "模擬戦のスペシャリスト",
      "description": "CPU対戦で10勝した。",
      "howto": "コンピュータに勝利せよ。"
    },
    {
      "id": 9,
      "imageId": 9,
      "cred": 15,
      "flags": 1,
      "label": "実戦のスペシャリスト",
      "description": "Xbox LIVE対戦のランクマッチで10戦した。",
      "howto": "世界中のライバル達と戦え！"
    },
    {
      "id": 10,
      "imageId": 10,
      "cred": 10,
      "flags": 1,
      "label": "撃墜の名手",
      "description": "エネミーを累計１００体以上撃墜した。",
      "howto": "大量のエネミーを倒せ！"
    },
    {
      "id": 11,
      "imageId": 11,
      "cred": 20,
      "flags": 1,
      "label": "華麗なバウスさばき",
      "description": "ミニバウスでスペースブロックを10個以上破壊した。",
      "howto": "ミニバウスを使いこなせ！"
    },
    {
      "id": 12,
      "imageId": 12,
      "cred": 20,
      "flags": 1,
      "label": "果てまで届く光",
      "description": "レーザー貫通弾で一度にスペースブロックを１６個以上破壊した。",
      "howto": "レーザー貫通弾を使いこなせ！"
    }
  ]
}