{
  "achievementsPossible": 50,
  "credPossible": 1000,
  "achievements": [
    {
      "id": 2,
      "imageId": 1,
      "cred": 50,
      "flags": 7,
      "label": "All achievements attained!",
      "description": "You've attained all the achievements!",
      "howto": "Attain all the achievements."
    },
    {
      "id": 3,
      "imageId": 2,
      "cred": 10,
      "flags": 6,
      "label": "Welcome to DDR!",
      "description": "You've tried the lessons in HOW TO PLAY.",
      "howto": "Try the lessons in HOW TO PLAY."
    },
    {
      "id": 4,
      "imageId": 3,
      "cred": 20,
      "flags": 6,
      "label": "Playing the Real Thing.",
      "description": "You've completed all the lessons in HOW TO PLAY.",
      "howto": "Complete all the lessons in HOW TO PLAY."
    },
    {
      "id": 5,
      "imageId": 4,
      "cred": 10,
      "flags": 4,
      "label": "High Scorer",
      "description": "You've got a score of 1,500,000 or higher.",
      "howto": "Get a score of 1,500,000 or higher."
    },
    {
      "id": 6,
      "imageId": 5,
      "cred": 20,
      "flags": 4,
      "label": "FIRST AAA",
      "description": "You've achieved a rank of AAA.",
      "howto": "Get a rank of AAA."
    },
    {
      "id": 7,
      "imageId": 6,
      "cred": 10,
      "flags": 4,
      "label": "FIRST AA",
      "description": "You've achieved a rank of AA.",
      "howto": "Get a rank of AA."
    },
    {
      "id": 8,
      "imageId": 7,
      "cred": 10,
      "flags": 4,
      "label": "FIRST A",
      "description": "You've achieved a rank of A.",
      "howto": "Get a rank of A."
    },
    {
      "id": 9,
      "imageId": 8,
      "cred": 10,
      "flags": 4,
      "label": "FIRST B",
      "description": "You've achieved a rank of B.",
      "howto": "Get a rank of B."
    },
    {
      "id": 11,
      "imageId": 9,
      "cred": 10,
      "flags": 4,
      "label": "FIRST C",
      "description": "You've achieved a rank of C.",
      "howto": "Get a rank of C."
    },
    {
      "id": 12,
      "imageId": 10,
      "cred": 10,
      "flags": 4,
      "label": "Give it all you've got!",
      "description": "You've achieved a rank of D.",
      "howto": "Get a rank of D."
    },
    {
      "id": 13,
      "imageId": 11,
      "cred": 10,
      "flags": 4,
      "label": "FULL COMBO (BEGINNER)",
      "description": "You pulled off a FULL COMBO with difficulty set to BEGINNER.",
      "howto": "Pull off a FULL COMBO with difficulty set to BEGINNER."
    },
    {
      "id": 14,
      "imageId": 12,
      "cred": 10,
      "flags": 4,
      "label": "FULL COMBO (BASIC)",
      "description": "You pulled off a FULL COMBO with difficulty set to BASIC.",
      "howto": "Pull off a FULL COMBO with difficulty set to BASIC."
    },
    {
      "id": 15,
      "imageId": 13,
      "cred": 10,
      "flags": 4,
      "label": "FULL COMBO (DIFFICULT)",
      "description": "You pulled off a FULL COMBO with difficulty set to DIFFICULT.",
      "howto": "Pull off a FULL COMBO with difficulty set to DIFFICULT."
    },
    {
      "id": 16,
      "imageId": 14,
      "cred": 20,
      "flags": 4,
      "label": "FULL COMBO (EXPERT)",
      "description": "You pulled off a FULL COMBO with difficulty set to EXPERT.",
      "howto": "Pull off a FULL COMBO with difficulty set to EXPERT."
    },
    {
      "id": 17,
      "imageId": 15,
      "cred": 30,
      "flags": 4,
      "label": "FULL COMBO (CHALLENGE)",
      "description": "You pulled off a FULL COMBO with difficulty set to CHALLENGE.",
      "howto": ""
    },
    {
      "id": 18,
      "imageId": 16,
      "cred": 10,
      "flags": 4,
      "label": "FIRST GREAT FULL COMBO",
      "description": "You pulled off a GREAT FULL COMBO!",
      "howto": "Pull off a GREAT FULL COMBO!"
    },
    {
      "id": 19,
      "imageId": 17,
      "cred": 10,
      "flags": 4,
      "label": "FIRST PERFECT FULL COMBO",
      "description": "You pulled off a PERFECT FULL COMBO!",
      "howto": "Pull off a PERFECT FULL COMBO!"
    },
    {
      "id": 20,
      "imageId": 18,
      "cred": 10,
      "flags": 4,
      "label": "REVERSE DANCER",
      "description": "You've cleared a song with SCROLL for arrows set to REVERSE, with difficulty at EXPERT or higher.",
      "howto": "With difficulty at EXPERT or higher, Clear a song with SCROLL for arrows set to REVERSE."
    },
    {
      "id": 21,
      "imageId": 19,
      "cred": 10,
      "flags": 4,
      "label": "DARK DANCER",
      "description": "You've cleared a song on EXPERT or higher with DARK set to ON.",
      "howto": "Clear a song on EXPERT or higher with DARK set to ON."
    },
    {
      "id": 22,
      "imageId": 20,
      "cred": 10,
      "flags": 4,
      "label": "SUDDEN DANCER",
      "description": "You've cleared a song on DIFFICULT or higher with the arrows' APPEARANCE set to SUDDEN.",
      "howto": "Clear a song on DIFFICULT or higher with the arrows' APPEARANCE set to SUDDEN."
    },
    {
      "id": 23,
      "imageId": 21,
      "cred": 10,
      "flags": 4,
      "label": "HIDDEN DANCER",
      "description": "You've cleared a song on DIFFICULT or higher with the arrows' APPEARANCE set to HIDDEN.",
      "howto": "Clear a song on DIFFICULT or higher with the arrows' APPEARANCE set to HIDDEN."
    },
    {
      "id": 24,
      "imageId": 22,
      "cred": 30,
      "flags": 4,
      "label": "ULTIMATE DANCER",
      "description": "You've cleared a song on DIFFICULT or higher with the arrows' APPEARANCE set to STEALTH.",
      "howto": ""
    },
    {
      "id": 25,
      "imageId": 23,
      "cred": 10,
      "flags": 4,
      "label": "CHAIN CHAIN CHAIN",
      "description": "In a single song, you've managed to rack up 3 CHAIN ARROW BONUSES.",
      "howto": "Rack up 3 CHAIN ARROW BONUSES in the course of a single song."
    },
    {
      "id": 26,
      "imageId": 24,
      "cred": 30,
      "flags": 4,
      "label": "TRIGGER 5",
      "description": "On EXPERT or higher, in the course of a single song you've launched GROOVE TRIGGER 5 times.",
      "howto": "Launch GROOVE TRIGGER 5 times in the course of a single song on EXPERT or higher."
    },
    {
      "id": 27,
      "imageId": 25,
      "cred": 30,
      "flags": 3,
      "label": "CHALLENGER",
      "description": "You've unlocked the CHALLENGE difficulty level on every song (excluding downloaded songs).",
      "howto": ""
    },
    {
      "id": 28,
      "imageId": 27,
      "cred": 10,
      "flags": 4,
      "label": "MILLIONAIRE 10",
      "description": "You've got 10 or more scores of at least 1,000,000 in RECORDS.",
      "howto": "Get 10 or more scores of at least 1,000,000 in RECORDS."
    },
    {
      "id": 29,
      "imageId": 28,
      "cred": 30,
      "flags": 4,
      "label": "MILLIONAIRE 50",
      "description": "You've got 50 or more scores of at least 1,000,000 in RECORDS.",
      "howto": "Get 50 or more scores of at least 1,000,000 in RECORDS."
    },
    {
      "id": 30,
      "imageId": 29,
      "cred": 50,
      "flags": 4,
      "label": "MILLIONAIRE 100",
      "description": "You've got 100 or more scores of at least 1,000,000 in RECORDS.",
      "howto": ""
    },
    {
      "id": 31,
      "imageId": 30,
      "cred": 20,
      "flags": 4,
      "label": "A COLLECTOR",
      "description": "You've got 20 or more ranks of A or above in RECORDS.",
      "howto": "Get 20 or more ranks of A or above in RECORDS."
    },
    {
      "id": 32,
      "imageId": 31,
      "cred": 30,
      "flags": 4,
      "label": "AA COLLECTOR",
      "description": "You've got 50 or more ranks of AA or above in RECORDS.",
      "howto": "Get 50 or more ranks of AA or above in RECORDS."
    },
    {
      "id": 33,
      "imageId": 32,
      "cred": 50,
      "flags": 4,
      "label": "AAA COLLECTOR",
      "description": "You've got 100 or more ranks of AAA or above in RECORDS.",
      "howto": ""
    },
    {
      "id": 34,
      "imageId": 33,
      "cred": 50,
      "flags": 4,
      "label": "STAR COLLECTOR",
      "description": "You've got 100 or more FULL COMBO marks in RECORDS.",
      "howto": "Get 100 or more FULL COMBO marks in RECORDS."
    },
    {
      "id": 35,
      "imageId": 34,
      "cred": 10,
      "flags": 6,
      "label": "DANCE PARTY",
      "description": "You've had a DANCE OFF with 4 players.",
      "howto": "Have a DANCE OFF with 4 players."
    },
    {
      "id": 36,
      "imageId": 35,
      "cred": 20,
      "flags": 6,
      "label": "WHITE-HOT DANCE BATTLE",
      "description": "You've played 15 turns in a DANCE OFF.",
      "howto": "Play 15 turns in a DANCE OFF."
    },
    {
      "id": 37,
      "imageId": 36,
      "cred": 10,
      "flags": 6,
      "label": "KEEPING THE RHYTHM",
      "description": "You've played in TRAINING MODE with HAND CLAPS and METRONOME set to ON.",
      "howto": "Play in TRAINING MODE with HAND CLAPS and METRONOME set to ON."
    },
    {
      "id": 38,
      "imageId": 37,
      "cred": 10,
      "flags": 6,
      "label": "SILENT DANCER",
      "description": "You've played in TRAINING MODE with the MUSIC SPEED not set at 5.",
      "howto": "Play in TRAINING MODE with the MUSIC SPEED not set at 5."
    },
    {
      "id": 39,
      "imageId": 38,
      "cred": 10,
      "flags": 4,
      "label": "BURNING 300",
      "description": "You've racked up a total of 300 or more kcal burned.",
      "howto": "Get a total of 300 or more kcal burned."
    },
    {
      "id": 40,
      "imageId": 39,
      "cred": 20,
      "flags": 4,
      "label": "BURNING 1000",
      "description": "You've racked up a total of 1,000 or more kcal burned.",
      "howto": "Get a total of 1,000 or more kcal burned."
    },
    {
      "id": 41,
      "imageId": 40,
      "cred": 50,
      "flags": 4,
      "label": "BURNING 5000",
      "description": "You've racked up a total of 5,000 or more kcal burned.",
      "howto": ""
    },
    {
      "id": 42,
      "imageId": 41,
      "cred": 20,
      "flags": 4,
      "label": "CLUB MASTER",
      "description": "You've attained the rank of CLUB MASTER in CLUB MODE.",
      "howto": "Attain the rank of CLUB MASTER in CLUB MODE."
    },
    {
      "id": 43,
      "imageId": 42,
      "cred": 10,
      "flags": 4,
      "label": "SUPERSTAR ",
      "description": "You've attained the rank of SUPERSTAR in CLUB MODE.",
      "howto": "Attain the rank of SUPERSTAR in CLUB MODE."
    },
    {
      "id": 44,
      "imageId": 43,
      "cred": 10,
      "flags": 4,
      "label": "LEAD DANCER",
      "description": "You've attained the rank of LEAD DANCER in CLUB MODE.",
      "howto": "Attain the rank of LEAD DANCER in CLUB MODE."
    },
    {
      "id": 45,
      "imageId": 44,
      "cred": 10,
      "flags": 4,
      "label": "BACK DANCER",
      "description": "You've attained the rank of BACK DANCER in CLUB MODE.",
      "howto": "Attain the rank of BACK DANCER in CLUB MODE."
    },
    {
      "id": 46,
      "imageId": 45,
      "cred": 10,
      "flags": 4,
      "label": "NEWCOMER",
      "description": "You've attained the rank of NEWCOMER in CLUB MODE.",
      "howto": "Attain the rank of NEWCOMER in CLUB MODE."
    },
    {
      "id": 47,
      "imageId": 46,
      "cred": 10,
      "flags": 4,
      "label": "TRAINEE",
      "description": "You've attained the rank of TRAINEE in CLUB MODE.",
      "howto": "Attain the rank of TRAINEE in CLUB MODE."
    },
    {
      "id": 48,
      "imageId": 47,
      "cred": 10,
      "flags": 4,
      "label": "1000 COMBO! ",
      "description": "You've racked up 1,000 or more combos in CLUB MODE.",
      "howto": "Rack up 1,000 or more combos in CLUB MODE."
    },
    {
      "id": 49,
      "imageId": 48,
      "cred": 20,
      "flags": 4,
      "label": "BILLIONAIRE",
      "description": "You've scored 1,000,000,000 or more in CLUB MODE.",
      "howto": "Score 1,000,000,000 or more in CLUB MODE."
    },
    {
      "id": 50,
      "imageId": 49,
      "cred": 30,
      "flags": 4,
      "label": "DANCE MASTER",
      "description": "With the number of songs set to 20, you've cleared OTHER CLUBS in CLUB MODE.\r\n",
      "howto": "Clear OTHER CLUBS in CLUB MODE with the number of songs set to 20."
    },
    {
      "id": 51,
      "imageId": 50,
      "cred": 50,
      "flags": 4,
      "label": "TRICK MASTER",
      "description": "You've got the SONG STATUS to the max for every song in CLUB MODE (excluding downloaded songs).",
      "howto": ""
    },
    {
      "id": 52,
      "imageId": 26,
      "cred": 50,
      "flags": 3,
      "label": "SONG COLLECTOR",
      "description": "You've unlocked all the hidden songs.",
      "howto": ""
    }
  ]
}