{
  "achievementsPossible": 50,
  "credPossible": 1000,
  "achievements": [
    {
      "id": 7,
      "imageId": 1,
      "cred": 5,
      "flags": 6,
      "label": "Getting Familiar",
      "description": "Moved your demon friend!\r\nVer 1.1",
      "howto": "Move your demon friend!\r\nVer 1.1"
    },
    {
      "id": 8,
      "imageId": 2,
      "cred": 5,
      "flags": 1,
      "label": "Opening Salvo",
      "description": "Played any mode once.\r\nXbox 360 / Arcade",
      "howto": "Play any mode once.\r\nXbox 360 / Arcade"
    },
    {
      "id": 9,
      "imageId": 3,
      "cred": 5,
      "flags": 1,
      "label": "Resurgence",
      "description": "Continued once while playing.\r\nXbox 360 / Arcade",
      "howto": "Continue once while playing.\r\nXbox 360 / Arcade"
    },
    {
      "id": 10,
      "imageId": 4,
      "cred": 15,
      "flags": 1,
      "label": "Infernal Scythe",
      "description": "Defeated Deathscythe, the Wandering Reaper!\r\nXbox 360 / Arcade",
      "howto": "Defeat Deathscythe, the Wandering Reaper!\r\nXbox 360 / Arcade"
    },
    {
      "id": 11,
      "imageId": 5,
      "cred": 15,
      "flags": 1,
      "label": "Buried Alive",
      "description": "Defeated Jordan, the Buried Baron!\r\nXbox 360 / Arcade",
      "howto": "Defeat Jordan, the Buried Baron!\r\nXbox 360 / Arcade"
    },
    {
      "id": 12,
      "imageId": 6,
      "cred": 15,
      "flags": 1,
      "label": "Putting down Roots ",
      "description": "Defeated Ulan, Conjurer of the Forest!\r\nXbox 360 / Arcade",
      "howto": "Defeat Ulan, Conjurer of the Forest!\r\nXbox 360 / Arcade"
    },
    {
      "id": 13,
      "imageId": 7,
      "cred": 15,
      "flags": 1,
      "label": "Successor",
      "description": "Defeated Sakura, Witch of the Bog Wastes!\r\nXbox 360 / Arcade",
      "howto": "Defeat Sakura, Witch of the Bog Wastes!\r\nXbox 360 / Arcade"
    },
    {
      "id": 14,
      "imageId": 8,
      "cred": 15,
      "flags": 1,
      "label": "Boss Milking",
      "description": "Defeated Mary, the Giant Cow!\r\nXbox 360 / Arcade",
      "howto": "Defeat Mary, the Giant Cow!\r\nXbox 360 / Arcade"
    },
    {
      "id": 15,
      "imageId": 9,
      "cred": 15,
      "flags": 1,
      "label": "Flame Dragon",
      "description": "Defeated Bavaria, the God of Flames!\r\nXbox 360 / Arcade",
      "howto": "Defeat Bavaria, the God of Flames!\r\nXbox 360 / Arcade"
    },
    {
      "id": 16,
      "imageId": 10,
      "cred": 15,
      "flags": 1,
      "label": "The Twin Wyrms",
      "description": "Defeated Devaria and Givaria, the Twin Wyrms!\r\nXbox 360 / Arcade",
      "howto": "Defeat Devaria and Givaria, the Twin Wyrms!\r\nXbox 360 / Arcade"
    },
    {
      "id": 17,
      "imageId": 11,
      "cred": 25,
      "flags": 1,
      "label": "Gatekeeper",
      "description": "Defeated Jitterbug, He who Opens the Door!\r\nXbox 360 / Arcade",
      "howto": "Defeat Jitterbug, He who Opens the Door!\r\nXbox 360 / Arcade"
    },
    {
      "id": 18,
      "imageId": 12,
      "cred": 40,
      "flags": 1,
      "label": "Emperor of Darkness",
      "description": "Defeated Tyrannosatan, the Demonic Imperitor!\r\nXbox 360 / Arcade",
      "howto": "Defeat Tyrannosatan, the Demonic Imperitor!\r\nXbox 360 / Arcade"
    },
    {
      "id": 19,
      "imageId": 13,
      "cred": 20,
      "flags": 1,
      "label": "Descent to Hell",
      "description": "Selected Level 3 five times while playing.\r\nXbox 360 / Arcade",
      "howto": "Select Level 3 five times while playing.\r\nXbox 360 / Arcade"
    },
    {
      "id": 20,
      "imageId": 14,
      "cred": 50,
      "flags": 1,
      "label": "To Hell and Back",
      "description": "Cleared the Gorge and Hades Castle having selected Lv3 for all stages.\r\nXbox 360 / Arcade",
      "howto": "Clear the Gorge and Hades Castle having selected Lv3 for all stages.\r\nXbox 360 / Arcade"
    },
    {
      "id": 22,
      "imageId": 16,
      "cred": 30,
      "flags": 1,
      "label": "Explosives Prohibited",
      "description": "Cleared the game without using any bombs.\r\nXbox 360 / Arcade",
      "howto": "Clear the game without using any bombs.\r\nXbox 360 / Arcade"
    },
    {
      "id": 23,
      "imageId": 17,
      "cred": 10,
      "flags": 1,
      "label": "Eldest Daughter",
      "description": "Cleared the game with Rosa.\r\nXbox 360 / Arcade",
      "howto": "Clear the game with Rosa.\r\nXbox 360 / Arcade"
    },
    {
      "id": 24,
      "imageId": 18,
      "cred": 30,
      "flags": 1,
      "label": "Rosa's True Power",
      "description": "Cleared the game using Rosa without continuing.\r\nXbox 360 / Arcade",
      "howto": "Clear the game using Rosa without continuing.\r\nXbox 360 / Arcade"
    },
    {
      "id": 25,
      "imageId": 19,
      "cred": 10,
      "flags": 1,
      "label": "Second Daughter",
      "description": "Cleared the game with Follett.\r\nXbox 360 / Arcade",
      "howto": "Clear the game with Follett.\r\nXbox 360 / Arcade"
    },
    {
      "id": 26,
      "imageId": 20,
      "cred": 30,
      "flags": 1,
      "label": "Follett's True Power",
      "description": "Cleared the game using Follett without continuing.\r\nXbox 360 / Arcade",
      "howto": "Clear the game using Follett without continuing.\r\nXbox 360 / Arcade"
    },
    {
      "id": 27,
      "imageId": 21,
      "cred": 10,
      "flags": 1,
      "label": "Third Daughter",
      "description": "Cleared the game with Windia.\r\nXbox 360 / Arcade",
      "howto": "Clear the game with Windia.\r\nXbox 360 / Arcade"
    },
    {
      "id": 28,
      "imageId": 22,
      "cred": 30,
      "flags": 1,
      "label": "Windia's True Power",
      "description": "Cleared the game using Windia without continuing.\r\nXbox 360 / Arcade",
      "howto": "Clear the game using Windia without continuing.\r\nXbox 360 / Arcade"
    },
    {
      "id": 29,
      "imageId": 23,
      "cred": 10,
      "flags": 1,
      "label": "Fourth Daughter",
      "description": "Cleared the game with Casper.\r\nXbox 360 / Arcade",
      "howto": "Clear the game with Casper.\r\nXbox 360 / Arcade"
    },
    {
      "id": 30,
      "imageId": 24,
      "cred": 30,
      "flags": 1,
      "label": "Casper's True Power",
      "description": "Cleared the game using Casper without continuing.\r\nXbox 360 / Arcade",
      "howto": "Clear the game using Casper without continuing.\r\nXbox 360 / Arcade"
    },
    {
      "id": 31,
      "imageId": 25,
      "cred": 80,
      "flags": 1,
      "label": "Four Daughters of Dior",
      "description": "Cleared the game with all characters.\r\nXbox 360 / Arcade",
      "howto": "Clear the game with all characters.\r\nXbox 360 / Arcade"
    },
    {
      "id": 32,
      "imageId": 26,
      "cred": 15,
      "flags": 1,
      "label": "Family Reunion",
      "description": "Returned Windia to the real world.\r\nXbox 360 / Arcade",
      "howto": "Return Windia to the real world.\r\nXbox 360 / Arcade"
    },
    {
      "id": 33,
      "imageId": 27,
      "cred": 15,
      "flags": 1,
      "label": "My Friends...",
      "description": "Chose to stay in Gilverado with Windia.\r\nXbox 360 / Arcade",
      "howto": "Choose to stay in Gilverado with Windia.\r\nXbox 360 / Arcade"
    },
    {
      "id": 34,
      "imageId": 28,
      "cred": 15,
      "flags": 1,
      "label": "Go Easy on 'Em, Kid",
      "description": "Returned Casper to the real world.\r\nXbox 360 / Arcade",
      "howto": "Return Casper to the real world.\r\nXbox 360 / Arcade"
    },
    {
      "id": 35,
      "imageId": 29,
      "cred": 15,
      "flags": 1,
      "label": "Seconds Please",
      "description": "Chose to stay in Gilverado with Casper.\r\nXbox 360 / Arcade",
      "howto": "Choose to stay in Gilverado with Casper.\r\nXbox 360 / Arcade"
    },
    {
      "id": 36,
      "imageId": 30,
      "cred": 15,
      "flags": 1,
      "label": "I'm Home!",
      "description": "Returned Follett to the real world.\r\nXbox 360 / Arcade",
      "howto": "Return Follett to the real world.\r\nXbox 360 / Arcade"
    },
    {
      "id": 37,
      "imageId": 31,
      "cred": 15,
      "flags": 1,
      "label": "Bath Time!",
      "description": "Chose to stay in Gilverado with Follett.\r\nXbox 360 / Arcade",
      "howto": "Choose to stay in Gilverado with Follett.\r\nXbox 360 / Arcade"
    },
    {
      "id": 38,
      "imageId": 32,
      "cred": 15,
      "flags": 1,
      "label": "Local Girl",
      "description": "Returned Rosa to the real world.\r\nXbox 360 / Arcade",
      "howto": "Return Rosa to the real world.\r\nXbox 360 / Arcade"
    },
    {
      "id": 39,
      "imageId": 33,
      "cred": 15,
      "flags": 1,
      "label": "Melancholy of the Eldest",
      "description": "Chose to stay in Gilverado with Rosa.\r\nXbox 360 / Arcade",
      "howto": "Choose to stay in Gilverado with Rosa.\r\nXbox 360 / Arcade"
    },
    {
      "id": 40,
      "imageId": 34,
      "cred": 80,
      "flags": 1,
      "label": "Deathsmiles Virtuoso",
      "description": "Cleared Deathsmiles Version 1.1 with all maps at Lv3! (No Continues, Ex Map included）",
      "howto": "Clear Deathsmiles Version 1.1 with all maps at Lv3! (No Continues, Ex Map included）"
    },
    {
      "id": 41,
      "imageId": 35,
      "cred": 10,
      "flags": 1,
      "label": "Distinguished Angel",
      "description": "Cleared Deathsmiles Version 1.1!",
      "howto": "Clear Deathsmiles Version 1.1! "
    },
    {
      "id": 44,
      "imageId": 38,
      "cred": 10,
      "flags": 1,
      "label": "Just Barely!",
      "description": "Cleared any stage with 0.5 lives and 0 bombs. (Secret Achievement)\r\nXbox 360 / Arcade",
      "howto": ""
    },
    {
      "id": 45,
      "imageId": 39,
      "cred": 10,
      "flags": 1,
      "label": "Sweet Tooth",
      "description": "Picked up 4 life-recovery items in one playthrough. (Secret Achievement)\r\nXbox 360 / Arcade",
      "howto": ""
    },
    {
      "id": 46,
      "imageId": 40,
      "cred": 5,
      "flags": 1,
      "label": "I Can't Hurt a Friend!",
      "description": "Waited for Sakura to explode while playing as Windia. (Secret Achievement)\r\nXbox 360 / Arcade",
      "howto": ""
    },
    {
      "id": 48,
      "imageId": 42,
      "cred": 5,
      "flags": 1,
      "label": "Everything's Stopped!",
      "description": "Pressed the pause button during a stage. (Secret Achievement)\r\nXbox 360 / Arcade",
      "howto": ""
    },
    {
      "id": 53,
      "imageId": 47,
      "cred": 10,
      "flags": 1,
      "label": "Hundred Millionaire",
      "description": "Score has reached 100,000,000 points. (Secret Achievement)\r\nXbox 360 / Arcade",
      "howto": ""
    },
    {
      "id": 54,
      "imageId": 48,
      "cred": 20,
      "flags": 1,
      "label": "Double Hundred Millionaire",
      "description": "Score has reached 200,000,000 points. (Secret Achievement)\r\nXbox 360 / Arcade",
      "howto": ""
    },
    {
      "id": 55,
      "imageId": 49,
      "cred": 50,
      "flags": 1,
      "label": "Triple Hundred Millionaire",
      "description": "Score has reached 300,000,000 points. (Secret Achievement)\r\nXbox 360 / Arcade",
      "howto": ""
    },
    {
      "id": 68,
      "imageId": 51,
      "cred": 5,
      "flags": 4,
      "label": "Halfway there",
      "description": "Powered up at 500.\r\nMBL",
      "howto": "Power up at 500.\r\nMBL"
    },
    {
      "id": 69,
      "imageId": 52,
      "cred": 15,
      "flags": 1,
      "label": "The Path I Choose",
      "description": "Returned Sakura to the real world.\r\nMBL",
      "howto": "Return to the real world with Sakura.\r\nMBL"
    },
    {
      "id": 70,
      "imageId": 53,
      "cred": 15,
      "flags": 1,
      "label": "A New Family",
      "description": "Chose to stay in Gilverado with Sakura.\r\nMBL",
      "howto": "Remain in Gilverado with Sakura.\r\nMBL"
    },
    {
      "id": 71,
      "imageId": 54,
      "cred": 15,
      "flags": 1,
      "label": "Forgotten Guardian",
      "description": "Defeated Ozier.\r\nMBL",
      "howto": "Defeat Ozier.\r\nMBL"
    },
    {
      "id": 72,
      "imageId": 55,
      "cred": 10,
      "flags": 1,
      "label": "A Challenge from CAVE",
      "description": "Cleared all 6 chapters at level 999 (continue may be used).\r\nMBL",
      "howto": "Clear all 6 chapters at level 999 (continue may be used).\r\nMBL"
    },
    {
      "id": 73,
      "imageId": 56,
      "cred": 25,
      "flags": 1,
      "label": "The True Tyrant",
      "description": "Defeated Bloody Jitterbug.\r\nMBL",
      "howto": ""
    },
    {
      "id": 75,
      "imageId": 58,
      "cred": 5,
      "flags": 4,
      "label": "Opening the Door to Hell",
      "description": "Chose Level 999 once.\r\nMBL",
      "howto": "Choose Level 999 once.\r\nMBL"
    },
    {
      "id": 87,
      "imageId": 70,
      "cred": 50,
      "flags": 1,
      "label": "MBL 1.1's Hidden Challenge",
      "description": "Score has reached 10,000,000,000 points in Mega Black Label 1.1 mode.",
      "howto": ""
    },
    {
      "id": 88,
      "imageId": 72,
      "cred": 15,
      "flags": 1,
      "label": "Mother...",
      "description": "Chose to stay in Gilverado with Sakura.(Secret Achievement)\r\nMBL",
      "howto": ""
    }
  ]
}