{
  "achievementsPossible": 37,
  "credPossible": 1000,
  "achievements": [
    {
      "id": 1,
      "imageId": 114,
      "cred": 15,
      "flags": 1,
      "label": "Warming up...",
      "description": "Completed all \"Warm-up\" exercises with the Vocal Coach",
      "howto": "Completed all \"Warm-up\" exercises with the Vocal Coach"
    },
    {
      "id": 2,
      "imageId": 101,
      "cred": 15,
      "flags": 1,
      "label": "Mastering the basics...",
      "description": "Completed all \"Basic \" exercises with the Vocal Coach",
      "howto": "Completed all \"Basic \" exercises with the Vocal Coach"
    },
    {
      "id": 3,
      "imageId": 115,
      "cred": 15,
      "flags": 1,
      "label": "Working on technique",
      "description": "Completed all \"Advanced \" exercises with the Vocal Coach",
      "howto": "Completed all \"Advanced \" exercises with the Vocal Coach"
    },
    {
      "id": 4,
      "imageId": 103,
      "cred": 15,
      "flags": 1,
      "label": "Polishing my vocals",
      "description": "Completed all \"Expert\" exercises with the Vocal Coach",
      "howto": "Completed all \"Expert\" exercises with the Vocal Coach"
    },
    {
      "id": 5,
      "imageId": 104,
      "cred": 30,
      "flags": 1,
      "label": "Practice makes perfect!",
      "description": "Completed all exercises with the Vocal Coach",
      "howto": "Completed all exercises with the Vocal Coach"
    },
    {
      "id": 6,
      "imageId": 111,
      "cred": 20,
      "flags": 1,
      "label": "The first of many...",
      "description": "Completed your first song",
      "howto": "Completed your first song"
    },
    {
      "id": 7,
      "imageId": 98,
      "cred": 40,
      "flags": 1,
      "label": "Impressive back catalogue",
      "description": "Played and completed every song",
      "howto": "Played and completed every song"
    },
    {
      "id": 8,
      "imageId": 92,
      "cred": 20,
      "flags": 1,
      "label": "Double trouble",
      "description": "Completed a two-player duet",
      "howto": "Completed a two-player duet"
    },
    {
      "id": 9,
      "imageId": 82,
      "cred": 20,
      "flags": 1,
      "label": "And so it begins...",
      "description": "Played Season for the first time",
      "howto": "Played Season for the first time"
    },
    {
      "id": 10,
      "imageId": 99,
      "cred": 20,
      "flags": 1,
      "label": "In this together!",
      "description": "Started a Season in Duet mode",
      "howto": "Started a Season in Duet mode"
    },
    {
      "id": 11,
      "imageId": 102,
      "cred": 20,
      "flags": 1,
      "label": "Party time!",
      "description": "Played a song in Voice Party",
      "howto": "Played a song in Voice Party"
    },
    {
      "id": 16,
      "imageId": 91,
      "cred": 25,
      "flags": 1,
      "label": "Double knockout",
      "description": "Won both Battle Rounds in Season",
      "howto": "Won both Battle Rounds in Season"
    },
    {
      "id": 17,
      "imageId": 113,
      "cred": 20,
      "flags": 1,
      "label": "By the skin of your teeth...",
      "description": "Got your only \"I Want You\" in the last three pages of a song",
      "howto": "Got your only \"I Want You\" in the last three pages of a song"
    },
    {
      "id": 18,
      "imageId": 85,
      "cred": 30,
      "flags": 1,
      "label": "Coach Full House!",
      "description": "Had all four coaches \"I Want You\" on four separate occasions",
      "howto": "Had all four coaches \"I Want You\" on four separate occasions"
    },
    {
      "id": 20,
      "imageId": 95,
      "cred": 15,
      "flags": 1,
      "label": "Five in the bag",
      "description": "Completed five coach challenges",
      "howto": "Completed five coach challenges"
    },
    {
      "id": 21,
      "imageId": 110,
      "cred": 30,
      "flags": 1,
      "label": "Ten in the bag",
      "description": "Completed ten coach challenges",
      "howto": "Completed ten coach challenges"
    },
    {
      "id": 22,
      "imageId": 83,
      "cred": 40,
      "flags": 1,
      "label": "Challenge master",
      "description": "Completed all sixteen coach challenges",
      "howto": "Completed all sixteen coach challenges"
    },
    {
      "id": 24,
      "imageId": 105,
      "cred": 15,
      "flags": 1,
      "label": "Promising Vocalist",
      "description": "Completed five unique songs with more than 90% average technique",
      "howto": "Completed five unique songs with more than 90% average technique"
    },
    {
      "id": 25,
      "imageId": 108,
      "cred": 20,
      "flags": 1,
      "label": "Silver Vocalist",
      "description": "Completed ten unique songs with more than 90% average technique",
      "howto": "Completed ten unique songs with more than 90% average technique"
    },
    {
      "id": 26,
      "imageId": 97,
      "cred": 30,
      "flags": 1,
      "label": "Gold Vocalist",
      "description": "Completed fifteen unique songs with more than 90% average technique",
      "howto": "Completed fifteen unique songs with more than 90% average technique"
    },
    {
      "id": 27,
      "imageId": 89,
      "cred": 40,
      "flags": 1,
      "label": "Diamond Vocalist",
      "description": "Completed twenty unique songs with more than 90% average technique",
      "howto": "Completed twenty unique songs with more than 90% average technique"
    },
    {
      "id": 28,
      "imageId": 80,
      "cred": 20,
      "flags": 1,
      "label": "All you need is one!",
      "description": "Progressed from the Blind Auditions with one coach turn",
      "howto": "Progressed from the Blind Auditions with one coach turn"
    },
    {
      "id": 32,
      "imageId": 84,
      "cred": 30,
      "flags": 1,
      "label": "Clean Sweep!",
      "description": "Progressed from the Blind Auditions with all four coaches turned",
      "howto": "Progressed from the Blind Auditions with all four coaches turned"
    },
    {
      "id": 33,
      "imageId": 94,
      "cred": 25,
      "flags": 1,
      "label": "Each step at a time",
      "description": "Won and progressed from the first Battle Round in Season",
      "howto": "Won and progressed from the first Battle Round in Season"
    },
    {
      "id": 37,
      "imageId": 93,
      "cred": 20,
      "flags": 1,
      "label": "Down but not out!",
      "description": "Progressed from the first Battle Round in Season with a Steal",
      "howto": "Progressed from the first Battle Round in Season with a Steal"
    },
    {
      "id": 38,
      "imageId": 88,
      "cred": 20,
      "flags": 1,
      "label": "Decisions decisions",
      "description": "Chose a new coach after receiving two or three Steals after one performance",
      "howto": "Chose a new coach after receiving two or three Steals after one performance"
    },
    {
      "id": 39,
      "imageId": 100,
      "cred": 25,
      "flags": 1,
      "label": "Made the Playoffs!",
      "description": "Progressed from the second Battle Round in Season",
      "howto": "Progressed from the second Battle Round in Season"
    },
    {
      "id": 40,
      "imageId": 109,
      "cred": 20,
      "flags": 1,
      "label": "Someone still likes you!",
      "description": "Progressed from the second Battle Round with a Coach Steal",
      "howto": "Progressed from the second Battle Round with a Coach Steal"
    },
    {
      "id": 41,
      "imageId": 107,
      "cred": 20,
      "flags": 1,
      "label": "Scraping it through...",
      "description": "Made it to the Live Playoffs in Season after two Coach Steals",
      "howto": "Made it to the Live Playoffs in Season after two Coach Steals"
    },
    {
      "id": 43,
      "imageId": 96,
      "cred": 30,
      "flags": 1,
      "label": "Getting serious now!",
      "description": "Progressed to the Final 12 in Season by being in your coach's final three",
      "howto": "Progressed to the Final 12 in Season by being in your coach's final three"
    },
    {
      "id": 44,
      "imageId": 87,
      "cred": 25,
      "flags": 1,
      "label": "Crowd favorite",
      "description": "Got the public vote for the first time and progressed to the Quarter-Finals",
      "howto": "Got the public vote for the first time and progressed to the Quarter-Finals"
    },
    {
      "id": 45,
      "imageId": 81,
      "cred": 40,
      "flags": 1,
      "label": "Almost there...",
      "description": "Progressed to the Semi-Finals in Season",
      "howto": "Progressed to the Semi-Finals in Season"
    },
    {
      "id": 46,
      "imageId": 155,
      "cred": 40,
      "flags": 1,
      "label": "You made it!",
      "description": "Made it to the Final of The Voice in Season",
      "howto": "Made it to the Final of The Voice in Season"
    },
    {
      "id": 47,
      "imageId": 116,
      "cred": 50,
      "flags": 1,
      "label": "You are The Voice!",
      "description": "Won The Voice",
      "howto": "Won The Voice"
    },
    {
      "id": 48,
      "imageId": 112,
      "cred": 10,
      "flags": 1,
      "label": "There's always next season...",
      "description": "Got eliminated from The Voice in Season",
      "howto": "Got eliminated from The Voice in Season"
    },
    {
      "id": 49,
      "imageId": 90,
      "cred": 60,
      "flags": 1,
      "label": "Double Champion!",
      "description": "Won The Voice with two different coaches",
      "howto": "Won The Voice with two different coaches"
    },
    {
      "id": 50,
      "imageId": 106,
      "cred": 70,
      "flags": 1,
      "label": "Quadruple Champion!",
      "description": "Won The Voice with four different coaches",
      "howto": "Won The Voice with four different coaches"
    }
  ]
}