{
  "achievementsPossible": 40,
  "credPossible": 500,
  "achievements": [
    {
      "id": 1,
      "imageId": 1,
      "cred": 10,
      "flags": 1,
      "label": "River Runs Cold",
      "description": "Arrived at the shore.",
      "howto": "Arrive at the shore."
    },
    {
      "id": 2,
      "imageId": 2,
      "cred": 10,
      "flags": 1,
      "label": "Shelter",
      "description": "Found a campsite.",
      "howto": "Find a campsite."
    },
    {
      "id": 3,
      "imageId": 3,
      "cred": 10,
      "flags": 1,
      "label": "On the Path",
      "description": "Met new people.",
      "howto": "Meet new people."
    },
    {
      "id": 4,
      "imageId": 4,
      "cred": 10,
      "flags": 1,
      "label": "Now What?",
      "description": "Arrived at the cabin.",
      "howto": "Arrive at the cabin."
    },
    {
      "id": 5,
      "imageId": 5,
      "cred": 10,
      "flags": 1,
      "label": "Sneaky",
      "description": "Got what you needed.",
      "howto": "Get what you need."
    },
    {
      "id": 6,
      "imageId": 6,
      "cred": 10,
      "flags": 1,
      "label": "Still. Not. Bitten.",
      "description": "Took care of yourself.",
      "howto": "Take care of yourself."
    },
    {
      "id": 7,
      "imageId": 7,
      "cred": 15,
      "flags": 1,
      "label": "Headed Out",
      "description": "Headed out with the group.",
      "howto": "Head out with the group."
    },
    {
      "id": 8,
      "imageId": 8,
      "cred": 25,
      "flags": 1,
      "label": "Split Decision",
      "description": "Completed Episode 1: \"All That Remains\"",
      "howto": "Complete Episode 1: \"All That Remains\""
    },
    {
      "id": 9,
      "imageId": 17,
      "cred": 10,
      "flags": 1,
      "label": "New Morning",
      "description": "Helped someone through a difficult time.",
      "howto": "Help someone through a difficult time."
    },
    {
      "id": 10,
      "imageId": 18,
      "cred": 10,
      "flags": 1,
      "label": "The Intruder",
      "description": "Talked to a stranger.",
      "howto": "Talk to a stranger."
    },
    {
      "id": 11,
      "imageId": 19,
      "cred": 10,
      "flags": 1,
      "label": "Moving On",
      "description": "Left the cabin.",
      "howto": "Leave the cabin."
    },
    {
      "id": 12,
      "imageId": 20,
      "cred": 10,
      "flags": 1,
      "label": "Over the Bridge",
      "description": "Found a way across the water.",
      "howto": "Find a way across the water."
    },
    {
      "id": 13,
      "imageId": 21,
      "cred": 10,
      "flags": 1,
      "label": "A Stranger",
      "description": "Met someone on a bridge.",
      "howto": "Meet someone on a bridge"
    },
    {
      "id": 14,
      "imageId": 22,
      "cred": 10,
      "flags": 1,
      "label": "Old Friends",
      "description": "Made it to the ski lodge.",
      "howto": "Make it to the ski lodge."
    },
    {
      "id": 15,
      "imageId": 23,
      "cred": 15,
      "flags": 1,
      "label": "Past Midnight",
      "description": "Settled things with a new friend.",
      "howto": "Settle things with a new friend."
    },
    {
      "id": 16,
      "imageId": 24,
      "cred": 25,
      "flags": 1,
      "label": "Reunion",
      "description": "Completed Episode 2: \"A House Divided\"",
      "howto": "Complete Episode 2: \"A House Divided\""
    },
    {
      "id": 17,
      "imageId": 25,
      "cred": 10,
      "flags": 1,
      "label": "Fresh Fish",
      "description": "Arrived at your new home.",
      "howto": "Arrive at your new home."
    },
    {
      "id": 18,
      "imageId": 26,
      "cred": 10,
      "flags": 1,
      "label": "Long Way Down",
      "description": "Witnessed a murder.",
      "howto": "Witness a murder."
    },
    {
      "id": 19,
      "imageId": 27,
      "cred": 10,
      "flags": 1,
      "label": "One Long Day",
      "description": "Made it through your first day.",
      "howto": "Make it through your first day."
    },
    {
      "id": 20,
      "imageId": 28,
      "cred": 10,
      "flags": 1,
      "label": "Always the Quiet Ones",
      "description": "Committed larceny.",
      "howto": "Commit larceny."
    },
    {
      "id": 21,
      "imageId": 29,
      "cred": 10,
      "flags": 1,
      "label": "Not in Nottingham",
      "description": "Got beaten down.",
      "howto": "Get beaten down."
    },
    {
      "id": 22,
      "imageId": 30,
      "cred": 10,
      "flags": 1,
      "label": "Come Hither",
      "description": "Invited some friends into the compound. ",
      "howto": "Invite some friends into the compound. "
    },
    {
      "id": 23,
      "imageId": 31,
      "cred": 15,
      "flags": 1,
      "label": "Rehabilitated",
      "description": "Gave what you got.",
      "howto": "Give what you got."
    },
    {
      "id": 24,
      "imageId": 32,
      "cred": 25,
      "flags": 1,
      "label": "Eye of the Storm",
      "description": "Completed Episode 3: \"In Harm's Way\"",
      "howto": "Complete Episode 3: \"In Harm's Way\""
    },
    {
      "id": 25,
      "imageId": 33,
      "cred": 10,
      "flags": 1,
      "label": "Best Laid Plans",
      "description": "Got separated from the group.",
      "howto": "Get separated from the group."
    },
    {
      "id": 26,
      "imageId": 34,
      "cred": 10,
      "flags": 1,
      "label": "Path Less Traveled",
      "description": "Learned new survival skills.",
      "howto": "Learn new survival skills."
    },
    {
      "id": 27,
      "imageId": 35,
      "cred": 10,
      "flags": 1,
      "label": "A Heavy Burden",
      "description": "Returned to the meeting place.",
      "howto": "Return to the meeting place."
    },
    {
      "id": 28,
      "imageId": 36,
      "cred": 10,
      "flags": 1,
      "label": "History Lesson",
      "description": "Reached the museum.",
      "howto": "Reach the museum."
    },
    {
      "id": 29,
      "imageId": 37,
      "cred": 10,
      "flags": 1,
      "label": "Making an Observation",
      "description": "Found the Observation Deck.",
      "howto": "Find the Observation Deck."
    },
    {
      "id": 30,
      "imageId": 38,
      "cred": 10,
      "flags": 1,
      "label": "All Fall Down",
      "description": "Survived the attack.",
      "howto": "Survive the attack."
    },
    {
      "id": 31,
      "imageId": 39,
      "cred": 15,
      "flags": 1,
      "label": "On Foot",
      "description": "Got back on the road.",
      "howto": "Get back on the road."
    },
    {
      "id": 32,
      "imageId": 40,
      "cred": 25,
      "flags": 1,
      "label": "Beyond the Trees",
      "description": "Completed Episode 4: \"Amid the Ruins\"",
      "howto": "Complete Episode 4: \"Amid the Ruins\""
    },
    {
      "id": 33,
      "imageId": 41,
      "cred": 10,
      "flags": 1,
      "label": "Blood and Iron",
      "description": "Made it out alive.",
      "howto": "Make it out alive."
    },
    {
      "id": 34,
      "imageId": 42,
      "cred": 10,
      "flags": 1,
      "label": "Miles To Go",
      "description": "Took a breather.",
      "howto": "Take a breather."
    },
    {
      "id": 35,
      "imageId": 43,
      "cred": 10,
      "flags": 1,
      "label": "Right of Frost",
      "description": "Stopped for the night.",
      "howto": "Stop for the night."
    },
    {
      "id": 36,
      "imageId": 44,
      "cred": 10,
      "flags": 1,
      "label": "Center Cannot Hold",
      "description": "Reached the other side.",
      "howto": "Reach the other side."
    },
    {
      "id": 37,
      "imageId": 45,
      "cred": 10,
      "flags": 1,
      "label": "All the Dark Night",
      "description": "Made it through to morning.",
      "howto": "Make it through to morning."
    },
    {
      "id": 38,
      "imageId": 46,
      "cred": 10,
      "flags": 1,
      "label": "We Slowly Drove",
      "description": "Reached the terminus.",
      "howto": "Reach the terminus."
    },
    {
      "id": 39,
      "imageId": 47,
      "cred": 15,
      "flags": 1,
      "label": "Kindly Stop for Me",
      "description": "Found your way through.",
      "howto": "Find your way through."
    },
    {
      "id": 40,
      "imageId": 48,
      "cred": 25,
      "flags": 1,
      "label": "All The Dead Lie Down",
      "description": "Completed Episode 5: \"No Going Back\"",
      "howto": "Complete Episode 5: \"No Going Back\""
    }
  ]
}