{
  "achievementsPossible": 58,
  "credPossible": 1250,
  "achievements": [
    {
      "id": 8,
      "imageId": 14,
      "cred": 5,
      "flags": 7,
      "label": "会えて嬉しいぞ！",
      "description": "VS.モード：ロビーに参加する前にフレンドを招待し、ランク マッチをプレイした",
      "howto": ""
    },
    {
      "id": 9,
      "imageId": 6,
      "cred": 5,
      "flags": 4,
      "label": "ビッグ・ゲーム・ハンティング",
      "description": "VS.モード：ランク マッチで、2人組のメンバー両方を始末した",
      "howto": ""
    },
    {
      "id": 10,
      "imageId": 26,
      "cred": 10,
      "flags": 4,
      "label": "求職者",
      "description": "VS.モード：ランクマッチで、全ての武器セットからプライマリーウェポンまたはセカンダリーウェポンを選んでプレイヤーを始末した",
      "howto": ""
    },
    {
      "id": 11,
      "imageId": 12,
      "cred": 10,
      "flags": 7,
      "label": "DIY PMC",
      "description": "VS.モード：オンライン(www.armyoftwo.com)でカスタムフェイスマスクを作成し、ランク マッチで着用した",
      "howto": ""
    },
    {
      "id": 12,
      "imageId": 11,
      "cred": 10,
      "flags": 4,
      "label": "死のディーラー",
      "description": "VS.モード：ランク マッチのシングルマップ上でプレイヤー10人をヘッドショットで始末した",
      "howto": ""
    },
    {
      "id": 13,
      "imageId": 40,
      "cred": 15,
      "flags": 4,
      "label": "パワーチーム",
      "description": "VS.モード：ランク マッチのCo-opデスマッチ、制圧任務、総合任務のいずれかで、最も高いパートナーシップスコアを獲得した",
      "howto": ""
    },
    {
      "id": 14,
      "imageId": 1,
      "cred": 30,
      "flags": 4,
      "label": "全銃口が火を噴いている",
      "description": "VS.モード：ランク マッチで、スペシャルウェポンを含むあらゆる武器を使用し、プレイヤーを始末した",
      "howto": ""
    },
    {
      "id": 15,
      "imageId": 7,
      "cred": 30,
      "flags": 4,
      "label": "命がけの絆",
      "description": "VS.モード：ランクマッチで、チームが全滅することなく、脱出任務マップで生き延びた",
      "howto": ""
    },
    {
      "id": 16,
      "imageId": 27,
      "cred": 30,
      "flags": 4,
      "label": "支配者",
      "description": "VS.モード：ランク マッチのCo-opデスマッチ、制圧任務、総合任務のいずれかで、最も高いパートナーシップスコアを獲得した",
      "howto": ""
    },
    {
      "id": 17,
      "imageId": 48,
      "cred": 50,
      "flags": 4,
      "label": "弱肉強食",
      "description": "VS.モード：ランク マッチの脱出任務の全16ラウンドをクリアした",
      "howto": ""
    },
    {
      "id": 18,
      "imageId": 15,
      "cred": 5,
      "flags": 7,
      "label": "フレッシュミート",
      "description": "VS.モード：同じランク マッチ内でパートナーの治療と、パートナーリロードを行った",
      "howto": ""
    },
    {
      "id": 21,
      "imageId": 37,
      "cred": 5,
      "flags": 1,
      "label": "想定外",
      "description": "いずれかの難易度でチャプター1をクリアした",
      "howto": "いずれかの難易度でチャプター1をクリアする"
    },
    {
      "id": 22,
      "imageId": 5,
      "cred": 10,
      "flags": 1,
      "label": "急な下り坂",
      "description": "いずれかの難易度でチャプター2をクリアした",
      "howto": "いずれかの難易度でチャプター2をクリアする"
    },
    {
      "id": 23,
      "imageId": 4,
      "cred": 15,
      "flags": 1,
      "label": "マトモな動物",
      "description": "いずれかの難易度でチャプター3をクリアした",
      "howto": "いずれかの難易度でチャプター3をクリアする"
    },
    {
      "id": 24,
      "imageId": 13,
      "cred": 20,
      "flags": 1,
      "label": "緊急救命室",
      "description": "いずれかの難易度でチャプター4をクリアした",
      "howto": "いずれかの難易度でチャプター4をクリアする"
    },
    {
      "id": 25,
      "imageId": 18,
      "cred": 25,
      "flags": 1,
      "label": "ショッピング終了",
      "description": "いずれかの難易度でチャプター5をクリアした",
      "howto": "いずれかの難易度でチャプター5をクリアする"
    },
    {
      "id": 26,
      "imageId": 49,
      "cred": 30,
      "flags": 1,
      "label": "サバイバー?",
      "description": "いずれかの難易度でゲームをクリアした",
      "howto": "いずれかの難易度でゲームをクリアする"
    },
    {
      "id": 27,
      "imageId": 47,
      "cred": 50,
      "flags": 1,
      "label": "ソフトコア",
      "description": "難易度ベテランでゲームの半分をクリアした",
      "howto": "ベテランの難易度でゲームの半分をクリアする"
    },
    {
      "id": 28,
      "imageId": 20,
      "cred": 100,
      "flags": 1,
      "label": "ハードコア",
      "description": "難易度ベテランでゲームをクリアした",
      "howto": "難易度ベテランの状態でゲームをクリアする"
    },
    {
      "id": 29,
      "imageId": 29,
      "cred": 15,
      "flags": 1,
      "label": "ミートバッグ",
      "description": "敵15人をヒューマンシールドとして使った",
      "howto": "敵15人をヒューマンシールドとして使う"
    },
    {
      "id": 30,
      "imageId": 9,
      "cred": 15,
      "flags": 1,
      "label": "突撃!!!",
      "description": "敵20人にタックルした",
      "howto": "敵20人にタックルする"
    },
    {
      "id": 31,
      "imageId": 50,
      "cred": 50,
      "flags": 1,
      "label": "ザ・ビースト",
      "description": "いずれかのゲームモードで、6666人始末した",
      "howto": "いずれかのゲームモードで、6666人始末する"
    },
    {
      "id": 32,
      "imageId": 19,
      "cred": 10,
      "flags": 1,
      "label": "手榴弾兵",
      "description": "1つのグレネードで、3人以上の敵を始末した",
      "howto": "1つのグレネードで、3人以上の敵を始末する"
    },
    {
      "id": 33,
      "imageId": 39,
      "cred": 20,
      "flags": 1,
      "label": "ピストリアー",
      "description": "敵150人をピストルで始末した",
      "howto": "敵150人をピストルで始末する"
    },
    {
      "id": 34,
      "imageId": 2,
      "cred": 20,
      "flags": 1,
      "label": "オールド・フェイスフル",
      "description": "敵400人を、アサルト・ライフル、サブ・マシンガン、もしくはショットガンで始末した",
      "howto": "敵400人を、アサルト・ライフル、サブ・マシンガン、もしくはショットガンで始末する"
    },
    {
      "id": 35,
      "imageId": 46,
      "cred": 20,
      "flags": 1,
      "label": "ワンショット・ワンキル",
      "description": "敵100人をスナイパーライフルで始末した",
      "howto": "敵１００人をスナイパーライフルで始末する"
    },
    {
      "id": 36,
      "imageId": 43,
      "cred": 15,
      "flags": 1,
      "label": "早撃ち",
      "description": "敵25人を偽りの降伏から早撃ちで始末した",
      "howto": "敵25人を偽りの降伏から早撃ちで始末する"
    },
    {
      "id": 37,
      "imageId": 38,
      "cred": 15,
      "flags": 1,
      "label": "ビンタ！",
      "description": "敵50人を近接攻撃またはベイヨネットで始末した",
      "howto": "敵50人を近接攻撃またはベイヨネットで始末する"
    },
    {
      "id": 38,
      "imageId": 56,
      "cred": 25,
      "flags": 1,
      "label": "アンブレイカブル",
      "description": "ノーマル以上の難易度で、治療されることなく1つのチャプターを生き延びた",
      "howto": "ノーマル以上の難易度で、治療されることなく1つのチャプターを生き延びる"
    },
    {
      "id": 39,
      "imageId": 36,
      "cred": 10,
      "flags": 1,
      "label": "結果オーライ",
      "description": "敵戦闘員15人を始末せずに拘束した",
      "howto": "敵戦闘員15人を始末せずに拘束する"
    },
    {
      "id": 40,
      "imageId": 22,
      "cred": 10,
      "flags": 1,
      "label": "治療者",
      "description": "パートナーを10回治療した",
      "howto": "パートナーを10回治療する"
    },
    {
      "id": 41,
      "imageId": 10,
      "cred": 10,
      "flags": 1,
      "label": "CO-OP スナイパー",
      "description": "敵5人をCO-OPスナイプで始末した",
      "howto": "敵5人をCO-OPスナイプで始末する"
    },
    {
      "id": 42,
      "imageId": 3,
      "cred": 10,
      "flags": 1,
      "label": "人目を引くモノ",
      "description": "偽りの降伏の間、パートナーに5人狙撃させた",
      "howto": "偽りの降伏の間、パートナーに5人狙撃させる"
    },
    {
      "id": 43,
      "imageId": 25,
      "cred": 10,
      "flags": 1,
      "label": "シンクロ",
      "description": "CO-OP偽りの降伏の間、早撃ちを行い、同時に敵2人を始末した",
      "howto": "CO-OP偽りの降伏の間、早撃ちを行い、同時に敵2人を始末する"
    },
    {
      "id": 44,
      "imageId": 41,
      "cred": 10,
      "flags": 1,
      "label": "カボチャ畑",
      "description": "弾1発で、敵2人の頭を撃った",
      "howto": "弾1発で、敵2人の頭を撃つ"
    },
    {
      "id": 45,
      "imageId": 44,
      "cred": 5,
      "flags": 1,
      "label": "ジャンケン",
      "description": "ジャンケンで、パートナーに3回連続勝った",
      "howto": ""
    },
    {
      "id": 46,
      "imageId": 55,
      "cred": 10,
      "flags": 1,
      "label": "破壊する拳",
      "description": "親友同士の状態でゲームをクリアした",
      "howto": "親友同士の状態でゲームを完了する"
    },
    {
      "id": 47,
      "imageId": 54,
      "cred": 10,
      "flags": 1,
      "label": "寸止めの拳",
      "description": "壊れた友情の状態で、ゲームをクリアした",
      "howto": "壊れた友情の状態で、ゲームを完了する"
    },
    {
      "id": 48,
      "imageId": 53,
      "cred": 20,
      "flags": 1,
      "label": "真実はここにある",
      "description": "全てのラジオ放送を聴いた",
      "howto": "全てのラジオ放送を聴くこと"
    },
    {
      "id": 49,
      "imageId": 28,
      "cred": 20,
      "flags": 1,
      "label": "戦利品",
      "description": "$1,000,000集めた",
      "howto": "$1,000,000集める"
    },
    {
      "id": 50,
      "imageId": 16,
      "cred": 30,
      "flags": 1,
      "label": "完全な武器庫",
      "description": "全ての武器とパーツを集めた",
      "howto": "全ての武器とパーツを集める"
    },
    {
      "id": 51,
      "imageId": 8,
      "cred": 50,
      "flags": 1,
      "label": "無防備な猫",
      "description": "ゲーム内の全ての招き猫を撃った",
      "howto": "ゲーム内の全ての招き猫を撃つ"
    },
    {
      "id": 52,
      "imageId": 21,
      "cred": 10,
      "flags": 1,
      "label": "扇動家",
      "description": "アグロが上昇するように、武器をカスタマイズした",
      "howto": "アグロが上昇するように、武器をカスタマイズする"
    },
    {
      "id": 53,
      "imageId": 45,
      "cred": 15,
      "flags": 1,
      "label": "スカベンジャー",
      "description": "即席のパーツを3つ使って、銃を組み立てた",
      "howto": ""
    },
    {
      "id": 54,
      "imageId": 51,
      "cred": 5,
      "flags": 1,
      "label": "楽観主義者",
      "description": "二人の決断においてプラスの行動を行った",
      "howto": "二人の決断においてプラスの行動を行う"
    },
    {
      "id": 55,
      "imageId": 42,
      "cred": 20,
      "flags": 1,
      "label": "純粋主義者",
      "description": "二人の決断において全てプラスの行動を行った",
      "howto": "二人の決断において全てプラスの行動を行う"
    },
    {
      "id": 56,
      "imageId": 52,
      "cred": 5,
      "flags": 1,
      "label": "悲観主義者",
      "description": "二人の決断においてマイナスの行動を行った",
      "howto": "二人の決断においてマイナスの行動を行う"
    },
    {
      "id": 57,
      "imageId": 23,
      "cred": 20,
      "flags": 1,
      "label": "無情",
      "description": "二人の決断において全てマイナスの行動を行った",
      "howto": "二人の決断において全てマイナスの行動を行う"
    },
    {
      "id": 58,
      "imageId": 24,
      "cred": 30,
      "flags": 1,
      "label": "人間主義者",
      "description": "人質全員救出",
      "howto": "人質を全員救う"
    },
    {
      "id": 59,
      "imageId": 17,
      "cred": 30,
      "flags": 1,
      "label": "将来の展望",
      "description": "二人の決断を全てアンロックした",
      "howto": "二人の決断を全てアンロックする"
    },
    {
      "id": 60,
      "imageId": 34,
      "cred": 25,
      "flags": 1,
      "label": "男の中の男",
      "description": "全ての人質を救出",
      "howto": "全ての人質を救出"
    },
    {
      "id": 61,
      "imageId": 31,
      "cred": 15,
      "flags": 1,
      "label": "生まれ変われるならこの顔で",
      "description": "この街にはかなりヤバいマスクがあるもんだ",
      "howto": "「The 40th Dayの策略」で新しいマスクを見つけろ"
    },
    {
      "id": 62,
      "imageId": 35,
      "cred": 50,
      "flags": 1,
      "label": "無計画",
      "description": "いずれかの難易度でチャプター8をクリアする",
      "howto": "情報をかき集めて、ヨナを追い込め。だが全てが上手く行くとは思っていてはだめだ"
    },
    {
      "id": 63,
      "imageId": 58,
      "cred": 50,
      "flags": 1,
      "label": "列車事故",
      "description": "いずれかの難易度でチャプター9をクリアする",
      "howto": "チャプター9をクリアしつつ、FDIのヤツらを懲らしめよう。"
    },
    {
      "id": 64,
      "imageId": 57,
      "cred": 35,
      "flags": 1,
      "label": "ウー先生、お呼びです",
      "description": "ウー先生が情報を入手してくれている。情報が手に入るまでは必ず生かしておかなければ",
      "howto": "ウー先生をFDIから守れ"
    },
    {
      "id": 65,
      "imageId": 33,
      "cred": 25,
      "flags": 1,
      "label": "理解者",
      "description": "メイリン・ジュンは裏切り者だが、自分には関係ない話だ。殺すまではない。",
      "howto": "前向きな道徳的選択を行い、裏切り者を見逃す"
    },
    {
      "id": 66,
      "imageId": 32,
      "cred": 25,
      "flags": 1,
      "label": "いいヤツら",
      "description": "メイリン・ジュンは裏切り者だ。殺しても誰も恨みはしない。",
      "howto": "後ろ向きな道徳的選択を行い、裏切り者を殺す"
    },
    {
      "id": 67,
      "imageId": 30,
      "cred": 25,
      "flags": 1,
      "label": "本当にこれでいいのか？",
      "description": "FDIのリーダーであるヨナを殺すチャンスだ。失敗は許されないぞ",
      "howto": "FDIのリーダーを殺せ。答えはそんなに簡単でいいのか？"
    }
  ]
}