{
  "achievementsPossible": 12,
  "credPossible": 200,
  "achievements": [
    {
      "id": 17,
      "imageId": 1,
      "cred": 5,
      "flags": 1,
      "label": "Technologique",
      "description": "Reached any Goal in automatic transmission",
      "howto": "Reach any Goal in automatic transmission"
    },
    {
      "id": 18,
      "imageId": 2,
      "cred": 10,
      "flags": 1,
      "label": "Stick Shift",
      "description": "Reached any Goal in manual transmission",
      "howto": "Reach any Goal in manual transmission"
    },
    {
      "id": 19,
      "imageId": 3,
      "cred": 10,
      "flags": 4,
      "label": "Grand Tour",
      "description": "Arrive at all Goals (A - E)",
      "howto": "Arrive at all Goals (A - E)"
    },
    {
      "id": 20,
      "imageId": 4,
      "cred": 20,
      "flags": 4,
      "label": "Cardiogram",
      "description": "Scored an overall AAA in Heart Attack Mode",
      "howto": "Score an overall  AAA in Heart Attack Mode"
    },
    {
      "id": 21,
      "imageId": 5,
      "cred": 20,
      "flags": 4,
      "label": "Millionaires Club",
      "description": "Scored more than 1 Million on OutRun Mode",
      "howto": "Score more than 1 Million on OutRun Mode"
    },
    {
      "id": 22,
      "imageId": 6,
      "cred": 20,
      "flags": 4,
      "label": "Passing Breeze",
      "description": "Completed Time Attack Mode in Under 4'30\"00",
      "howto": "Complete Time Attack Mode in Under 4'30\"00"
    },
    {
      "id": 23,
      "imageId": 7,
      "cred": 30,
      "flags": 4,
      "label": "Risky Ride",
      "description": "Scored more than 2.5 Million in 15 Course Continuous OutRun Mode",
      "howto": "Score more than 2.5 Million in 15 Course Continuous OutRun Mode"
    },
    {
      "id": 24,
      "imageId": 8,
      "cred": 30,
      "flags": 4,
      "label": "Gumball King",
      "description": "Completed 15 Course Continuous Time Attack Mode in Under 14'30\"00",
      "howto": "Complete 15 Course Continuous Time Attack Mode in Under 14'30\"00\r\n"
    },
    {
      "id": 25,
      "imageId": 9,
      "cred": 10,
      "flags": 4,
      "label": "Leader of the pack",
      "description": "Was first at all junctions on a multiplayer match",
      "howto": "Be first at all junctions on a multiplayer match"
    },
    {
      "id": 26,
      "imageId": 10,
      "cred": 20,
      "flags": 4,
      "label": "Legend",
      "description": "Finished in first place in 5 multiplayer matches in a row",
      "howto": "Finish in first place in 5 multiplayer matches in a row"
    },
    {
      "id": 27,
      "imageId": 11,
      "cred": 15,
      "flags": 4,
      "label": "Frequent Flyer",
      "description": "Completed 50 Single Player games",
      "howto": "Complete 50 Single Player games"
    },
    {
      "id": 28,
      "imageId": 12,
      "cred": 10,
      "flags": 4,
      "label": "660 Horses",
      "description": "Driven above 300km/h (186.4mph) for 10 seconds",
      "howto": "Drive above 300km/h (186.4mph) for 10 seconds"
    }
  ]
}