{
  "achievementsPossible": 27,
  "credPossible": 1000,
  "achievements": [
    {
      "id": 1,
      "imageId": 27,
      "cred": 50,
      "flags": 3,
      "label": "The MVP",
      "description": "Completed your first pass\r\n",
      "howto": "Completed your first pass"
    },
    {
      "id": 3,
      "imageId": 9,
      "cred": 50,
      "flags": 3,
      "label": "Sweetness...",
      "description": "Rush for 5 touchdowns with a single player in a Play Now, Classics Mode or Championship Mode game\r\n",
      "howto": "Rush for 5 touchdowns with a single player in a Play Now, Classics Mode or Championship Mode game"
    },
    {
      "id": 4,
      "imageId": 11,
      "cred": 50,
      "flags": 3,
      "label": "Athlete of the Year",
      "description": "Catch 4 TDs with 1 player\r\n",
      "howto": "Catch 4 TDs 1 player (Max. 5 min. quarters)\r\n"
    },
    {
      "id": 5,
      "imageId": 10,
      "cred": 50,
      "flags": 3,
      "label": "The Satellite Express\r\n",
      "description": "Catch 24 passes with a single player (Max. 5 min. quarters, Single Player Mode)\r\n",
      "howto": "Catch 24 passes with a single player (Max. 5 min. quarters, Single Player Mode)"
    },
    {
      "id": 7,
      "imageId": 12,
      "cred": 50,
      "flags": 1,
      "label": "Legendary O-Line",
      "description": "Allow no sacks in a Play Now, Classics Mode or Championship Mode game (Min. 5 min. quarters)\r\n",
      "howto": "Allow no sacks in a Play Now, Classics Mode or Championship Mode game (Min. 5 min. quarters)"
    },
    {
      "id": 9,
      "imageId": 13,
      "cred": 50,
      "flags": 3,
      "label": "Interception Master\r\n",
      "description": "Intercept 3 passes with one player (Max. 5 min. quarters) \r\n",
      "howto": "Intercept 3 passes with one player (Max. 5 min. quarters) "
    },
    {
      "id": 10,
      "imageId": 24,
      "cred": 50,
      "flags": 1,
      "label": "Sack Attack",
      "description": "Sack the opposing quarterback 5 times in one game with one player (Max. 5 min. quarters)\r\n",
      "howto": "Sack the opposing quarterback 5 times in one game with one player (Max. 5 min. quarters)"
    },
    {
      "id": 11,
      "imageId": 1,
      "cred": 35,
      "flags": 1,
      "label": "Air it Out!",
      "description": "Throw for 400 or more yards with a single player (Max. 5 min. quarters)  \r\n",
      "howto": "Throw for 400 or more yards with a single player (Max. 5 min. quarters)  "
    },
    {
      "id": 12,
      "imageId": 2,
      "cred": 40,
      "flags": 1,
      "label": "40 Completions",
      "description": "Complete 40 or more passes with a single player (Max. 5 min. quarters)  \r\n",
      "howto": "Complete 40 or more passes with a single player (Max. 5 min. quarters)  "
    },
    {
      "id": 13,
      "imageId": 6,
      "cred": 30,
      "flags": 1,
      "label": "Dialing Long Distance",
      "description": "Complete a touchdown pass of 80 yards or more",
      "howto": "Complete a touchdown pass of 80 yards or more in a Play Now, Classics Mode or Championship Mode Game"
    },
    {
      "id": 14,
      "imageId": 3,
      "cred": 40,
      "flags": 1,
      "label": "Dual Threat Tailback",
      "description": "Gain 150 Yards Rushing and 150 Yards Receiving with a single player \r\n",
      "howto": "Gain 150 Yards Rushing and 150 Yards Receiving with a single player "
    },
    {
      "id": 15,
      "imageId": 4,
      "cred": 40,
      "flags": 1,
      "label": "Dual Threat QB 1",
      "description": "Throw for 300 Yards and Run for 100 Yards with a Single Player (Max. 5 m. quarters)\r\n",
      "howto": "Throw for 300 Yards and Run for 100 Yards with a Single Player (Max. 5 m. quarters)"
    },
    {
      "id": 16,
      "imageId": 5,
      "cred": 40,
      "flags": 1,
      "label": "Dual Threat QB 2",
      "description": "Throw for 3 TD Passes and Run for 3 TDs with a Single Player(Max. 5 min. quarters)\r\n",
      "howto": "Throw for 3 TD Passes and Run for 3 TDs with a Single Player(Max. 5 min. quarters)"
    },
    {
      "id": 17,
      "imageId": 7,
      "cred": 40,
      "flags": 1,
      "label": "Grind it Out",
      "description": "Run the Ball 40 times with a single player (Max. 5 Min. quarters)\r\n",
      "howto": "Run the Ball 40 times with a single player (Max. 5 Min. quarters)"
    },
    {
      "id": 18,
      "imageId": 8,
      "cred": 30,
      "flags": 1,
      "label": "Off to the Races!",
      "description": "Run for a touchdown of 80 yards or more in a Play Now, Classics Mode or Championship Mode Game\r\n",
      "howto": "Run for a touchdown of 80 yards or more in a Play Now, Classics Mode or Championship Mode Game"
    },
    {
      "id": 19,
      "imageId": 26,
      "cred": 30,
      "flags": 1,
      "label": "Pick 6!",
      "description": "Return an interception for a touchdown in a Play Now, Classics Mode or Championship Mode Game\r\n",
      "howto": "Return an interception for a touchdown in a Play Now, Classics Mode or Championship Mode Game"
    },
    {
      "id": 20,
      "imageId": 25,
      "cred": 35,
      "flags": 1,
      "label": "Stingy Secondary",
      "description": "Allow no receiving touchdowns (Min. 5 min. quarters)\r\n",
      "howto": "Allow no receiving touchdowns (Min. 5 min. quarters)"
    },
    {
      "id": 21,
      "imageId": 15,
      "cred": 30,
      "flags": 1,
      "label": "Scoop 'N Score!",
      "description": "Return a fumble for a touchdown in a Play Now, Classics Mode, or Championship Mode Game \r\n",
      "howto": "Return a fumble for a touchdown in a Play Now, Classics Mode, or Championship Mode Game "
    },
    {
      "id": 22,
      "imageId": 17,
      "cred": 20,
      "flags": 1,
      "label": "Safety",
      "description": "Record a safety in a Play Now, Classics Mode, or Championship Mode Game\r\n",
      "howto": "Record a safety in a Play Now, Classics Mode, or Championship Mode Game"
    },
    {
      "id": 23,
      "imageId": 16,
      "cred": 35,
      "flags": 1,
      "label": "Zilch!",
      "description": "Shut out your opponent (Min. 5 min. quarters)\r\n",
      "howto": "Shut out your opponent in a Play Now, Classics Mode or Championship Mode Game (Min. 5 min. quarters)"
    },
    {
      "id": 24,
      "imageId": 14,
      "cred": 30,
      "flags": 1,
      "label": "Butter Fingers!",
      "description": "Recover 3 opp. fumbles in a Play Now, Classics Mode or Championship Mode Game (Max. 5 min. quarters)",
      "howto": "Recover 3 opp. fumbles in a Play Now, Classics Mode or Championship Mode Game (Max. 5 min. quarters)"
    },
    {
      "id": 25,
      "imageId": 23,
      "cred": 25,
      "flags": 1,
      "label": "Power AND Accuracy!",
      "description": "Make a 50 yard field goal in a Play Now, Classics Mode, or Championship Mode Game\r\n",
      "howto": "Make a 50 yard field goal in a Play Now, Classics Mode, or Championship Mode Game"
    },
    {
      "id": 26,
      "imageId": 21,
      "cred": 25,
      "flags": 1,
      "label": "Special Teams Specialist 1",
      "description": "Return a kickoff for a touchdown in a Play Now, Classics Mode or Championship Mode Game\r\n",
      "howto": "Return a kickoff for a touchdown in a Play Now, Classics Mode or Championship Mode Game"
    },
    {
      "id": 27,
      "imageId": 22,
      "cred": 25,
      "flags": 1,
      "label": "Special Teams Specialist 2",
      "description": "Return a punt for a touchdown in a Play Now, Classics Mode or Championship Mode Game \r\n",
      "howto": "Return a punt for a touchdown in a Play Now, Classics Mode or Championship Mode Game "
    },
    {
      "id": 28,
      "imageId": 18,
      "cred": 50,
      "flags": 1,
      "label": "BCFx Championship",
      "description": "Win the BCF Championship!\r\n",
      "howto": "Win the BCF Championship!"
    },
    {
      "id": 29,
      "imageId": 20,
      "cred": 25,
      "flags": 1,
      "label": "Marching Band Master!",
      "description": "Score a perfect score in the half-time mini-game on Master difficulty\r\n",
      "howto": "Score a perfect score in the half-time mini-game on Master difficulty"
    },
    {
      "id": 30,
      "imageId": 19,
      "cred": 25,
      "flags": 1,
      "label": "Drum Line Master!",
      "description": "Get a 50 note streak in the Drum Line Challenge Mini Game\r\n",
      "howto": "Get a 50 note streak in the Drum Line Challenge Mini Game"
    }
  ]
}