{
  "achievementsPossible": 12,
  "credPossible": 200,
  "achievements": [
    {
      "id": 1,
      "imageId": 2,
      "cred": 10,
      "flags": 1,
      "label": "Space Explorer",
      "description": "Complete the game with any Lion.",
      "howto": "Complete the game with any Lion."
    },
    {
      "id": 2,
      "imageId": 10,
      "cred": 30,
      "flags": 1,
      "label": "Space Legend",
      "description": "Complete the game with all five Lions.",
      "howto": "Complete the game with all five Lions."
    },
    {
      "id": 3,
      "imageId": 11,
      "cred": 30,
      "flags": 1,
      "label": "King Alfor's Blessing",
      "description": "Get five Survivor bonuses in a single play session.",
      "howto": "Get five Survivor bonuses in a single play session."
    },
    {
      "id": 4,
      "imageId": 12,
      "cred": 20,
      "flags": 1,
      "label": "Defender of the Universe",
      "description": "Rescue 100 groups of civilians.",
      "howto": "Rescue 100 groups of civilians."
    },
    {
      "id": 5,
      "imageId": 13,
      "cred": 10,
      "flags": 1,
      "label": "Lion Heart",
      "description": "Complete any level without the Lion deactivating once.",
      "howto": "Complete any level without the Lion deactivating once."
    },
    {
      "id": 6,
      "imageId": 14,
      "cred": 20,
      "flags": 1,
      "label": "Five Keys",
      "description": "Complete a level in an Xbox LIVE game with four other players.",
      "howto": "Complete a level in an Xbox LIVE game with four other players."
    },
    {
      "id": 7,
      "imageId": 15,
      "cred": 10,
      "flags": 1,
      "label": "Zarkon's Bane",
      "description": "Complete any three levels without seeing a game over in a single play session.",
      "howto": "Complete any three levels without seeing a game over in a single play session."
    },
    {
      "id": 8,
      "imageId": 16,
      "cred": 10,
      "flags": 1,
      "label": "Fly Swatter",
      "description": "Achieve ten air pounces in a single level.",
      "howto": "Achieve ten air pounces in a single level."
    },
    {
      "id": 9,
      "imageId": 17,
      "cred": 10,
      "flags": 1,
      "label": "The Vendetta Begins",
      "description": "Beat a friend's level score after they have beaten yours in the same Xbox LIVE game session.",
      "howto": "Beat a friend's level score after they have beaten yours in the same Xbox LIVE game session."
    },
    {
      "id": 10,
      "imageId": 18,
      "cred": 20,
      "flags": 1,
      "label": "Carried The Team",
      "description": "Complete a level in an Xbox LIVE game where you are the only surviving player.",
      "howto": "Complete a level in an Xbox LIVE game where you are the only surviving player."
    },
    {
      "id": 11,
      "imageId": 19,
      "cred": 10,
      "flags": 1,
      "label": "Lion Ace",
      "description": "Earn a x10 score combo five times in a single level.",
      "howto": "Earn a x10 score combo five times in a single level."
    },
    {
      "id": 12,
      "imageId": 20,
      "cred": 20,
      "flags": 1,
      "label": "Blazing Victory",
      "description": "Kill a Robeast without Voltron losing any health.",
      "howto": "Kill a Robeast without Voltron losing any health."
    }
  ]
}