{
  "avatarAssetsPossible": 2,
  "maleAvatarAssetsPossible": 1,
  "femaleAvatarAssetsPossible": 1,
  "avatarAssets": [
    {
      "id": "00000008-0001-c161-c527-fa7b58410b8f",
      "imageId": 21,
      "subcategory": 0,
      "unknown": 0,
      "isMale": true,
      "isFemale": false,
      "isUnisex": false,
      "label": "Voltron unlock T-Shirt",
      "description": "Purchase the game to unlock",
      "howto": "NOT USED"
    },
    {
      "id": "00000008-0001-6162-cb45-74f558410b8f",
      "imageId": 22,
      "subcategory": 0,
      "unknown": 2015221016,
      "isMale": false,
      "isFemale": true,
      "isUnisex": false,
      "label": "Voltron unlock T-Shirt",
      "description": "Purchase the game to unlock",
      "howto": "NOT USED"
    }
  ]
}