{
  "achievementsPossible": 20,
  "credPossible": 400,
  "achievements": [
    {
      "id": 14,
      "imageId": 45,
      "cred": 5,
      "flags": 1,
      "label": "Sink or Swim",
      "description": "Dive into the Money Bin",
      "howto": "Dive into the Money Bin"
    },
    {
      "id": 15,
      "imageId": 46,
      "cred": 10,
      "flags": 1,
      "label": "Work Smarter Not Harder",
      "description": "Defeat Big Time Beagle using your noggin",
      "howto": "Defeat Big Time Beagle using your noggin"
    },
    {
      "id": 16,
      "imageId": 47,
      "cred": 15,
      "flags": 1,
      "label": "Superstitious Hocus Pocus",
      "description": "Collect the Coin of the Lost Realm",
      "howto": "Collect the Coin of the Lost Realm"
    },
    {
      "id": 17,
      "imageId": 48,
      "cred": 15,
      "flags": 1,
      "label": "Extravagant Housewares",
      "description": "Collect the Sceptre of the Incan King",
      "howto": "Collect the Sceptre of the Incan King"
    },
    {
      "id": 18,
      "imageId": 49,
      "cred": 15,
      "flags": 1,
      "label": "Where No Duck Has Gone Before",
      "description": "Collect the Green Cheese of Longevity",
      "howto": "Collect the Green Cheese of Longevity"
    },
    {
      "id": 19,
      "imageId": 50,
      "cred": 15,
      "flags": 1,
      "label": "Any Crash You Can Walk Away From",
      "description": "Collect the Lost Crown of Ghengis Khan",
      "howto": "Collect the Lost Crown of Ghengis Khan"
    },
    {
      "id": 20,
      "imageId": 51,
      "cred": 15,
      "flags": 1,
      "label": "Garbage Collector",
      "description": "Collect the Giant Diamond of Inner Earth",
      "howto": "Collect the Giant Diamond of Inner Earth"
    },
    {
      "id": 21,
      "imageId": 52,
      "cred": 25,
      "flags": 1,
      "label": "Luck o' the Ducks",
      "description": "Get back what Magica stole",
      "howto": "Get back what Magica stole"
    },
    {
      "id": 22,
      "imageId": 53,
      "cred": 15,
      "flags": 1,
      "label": "The Duck Who Would Be King",
      "description": "Collect $10,000,000",
      "howto": "Collect $10,000,000"
    },
    {
      "id": 23,
      "imageId": 54,
      "cred": 10,
      "flags": 1,
      "label": "Score to Settle",
      "description": "Scrooge doesn't take kindly to being swindled by statues",
      "howto": "Scrooge doesn't take kindly to being swindled by statues"
    },
    {
      "id": 24,
      "imageId": 55,
      "cred": 35,
      "flags": 1,
      "label": "Bless Me Bagpipes",
      "description": "Collect All the Heart Containers on Easy or Medium difficulty",
      "howto": "Collect All the Heart Containers on Easy or Medium difficulty"
    },
    {
      "id": 25,
      "imageId": 56,
      "cred": 40,
      "flags": 1,
      "label": "Tougher than the Toughies",
      "description": "Beat game on Hard difficulty",
      "howto": "Beat game on Hard difficulty"
    },
    {
      "id": 26,
      "imageId": 57,
      "cred": 75,
      "flags": 1,
      "label": "Smarter than the Smarties",
      "description": "Beat game on Extreme difficulty",
      "howto": "Beat game on Extreme difficulty"
    },
    {
      "id": 27,
      "imageId": 58,
      "cred": 50,
      "flags": 1,
      "label": "Connoisseur of the Arts",
      "description": "Unlock all art in the Gallery",
      "howto": "Unlock all art in the Gallery"
    },
    {
      "id": 28,
      "imageId": 59,
      "cred": 5,
      "flags": 1,
      "label": "Art Aficionado",
      "description": "Buy art in the gallery",
      "howto": "Buy art in the gallery"
    },
    {
      "id": 29,
      "imageId": 60,
      "cred": 15,
      "flags": 1,
      "label": "Look Ma, No Spats!",
      "description": "Enter the underground section of Amazon and climb up the other side using only the pogo jump.",
      "howto": "Enter the underground section of Amazon and climb up the other side using only the pogo jump."
    },
    {
      "id": 30,
      "imageId": 64,
      "cred": 10,
      "flags": 1,
      "label": "A Few Gears Loose",
      "description": "Get to the secret gyro area in the clouds",
      "howto": "Get to the secret gyro area in the clouds"
    },
    {
      "id": 31,
      "imageId": 61,
      "cred": 10,
      "flags": 1,
      "label": "It's A Duck Blur",
      "description": "Defeat 5 enemies under the effect of 1 magic coin",
      "howto": "Defeat 5 enemies under the effect of 1 magic coin"
    },
    {
      "id": 32,
      "imageId": 62,
      "cred": 5,
      "flags": 1,
      "label": "Healthy Appetite",
      "description": "Eat some of Mrs. Beakley's delicious treats.",
      "howto": "Eat some of Mrs. Beakley's delicious treats."
    },
    {
      "id": 33,
      "imageId": 63,
      "cred": 15,
      "flags": 1,
      "label": "Pogo A Go Go",
      "description": "Defeat 5 enemies in a row with pogo jump without touching the ground",
      "howto": "Defeat 5 enemies in a row with pogo jump without touching the ground"
    }
  ]
}