{
  "achievementsPossible": 12,
  "credPossible": 200,
  "achievements": [
    {
      "id": 1,
      "imageId": 1,
      "cred": 10,
      "flags": 1,
      "label": "Attacker ",
      "description": "Capture five flags",
      "howto": "Capture five flags"
    },
    {
      "id": 2,
      "imageId": 2,
      "cred": 20,
      "flags": 1,
      "label": "Best Squad",
      "description": "Be in the best squad on all three maps",
      "howto": "Be in the best squad on all three maps"
    },
    {
      "id": 3,
      "imageId": 3,
      "cred": 30,
      "flags": 1,
      "label": "Tour of Duty II",
      "description": "Play one hundred matches",
      "howto": "Play one hundred matches"
    },
    {
      "id": 4,
      "imageId": 4,
      "cred": 10,
      "flags": 1,
      "label": "Defender ",
      "description": "Defend five flags",
      "howto": "Defend five flags"
    },
    {
      "id": 5,
      "imageId": 5,
      "cred": 20,
      "flags": 1,
      "label": "Master of your domain ",
      "description": "Get one kill playing as each class ",
      "howto": "Get one kill playing as each class "
    },
    {
      "id": 6,
      "imageId": 6,
      "cred": 20,
      "flags": 1,
      "label": "Milkrun ",
      "description": "Fly a plane for 10 minutes ",
      "howto": "Fly a plane for 10 minutes "
    },
    {
      "id": 7,
      "imageId": 7,
      "cred": 20,
      "flags": 1,
      "label": "Motorman ",
      "description": "Get one kill with car, tank and plane ",
      "howto": "Get one kill with car, tank and plane "
    },
    {
      "id": 8,
      "imageId": 8,
      "cred": 10,
      "flags": 1,
      "label": "Parachutist ",
      "description": "Use the parachute once (2 seconds) ",
      "howto": "Use the parachute once (2 seconds) "
    },
    {
      "id": 9,
      "imageId": 9,
      "cred": 10,
      "flags": 1,
      "label": "The Pacific Campaign ",
      "description": "Win once on every map as any team ",
      "howto": "Win once on every map as any team "
    },
    {
      "id": 10,
      "imageId": 10,
      "cred": 10,
      "flags": 1,
      "label": "Tour of Duty I ",
      "description": "Play 30 matches ",
      "howto": "Play 30 matches "
    },
    {
      "id": 11,
      "imageId": 11,
      "cred": 20,
      "flags": 1,
      "label": "Veteran ",
      "description": "Cap 25 enemy flags ",
      "howto": "Cap 25 enemy flags "
    },
    {
      "id": 12,
      "imageId": 12,
      "cred": 20,
      "flags": 1,
      "label": "Melee Man ",
      "description": "Melee kill one enemy player ",
      "howto": "Melee kill one enemy player "
    }
  ]
}