{
  "achievementsPossible": 15,
  "credPossible": 250,
  "achievements": [
    {
      "id": 1,
      "imageId": 1,
      "cred": 10,
      "flags": 4,
      "label": "Sowing the seeds of love",
      "description": "Grow your first fruit tree",
      "howto": "Grow your first fruit tree"
    },
    {
      "id": 2,
      "imageId": 2,
      "cred": 25,
      "flags": 4,
      "label": "Color your world",
      "description": "Grow all the flowers on every level",
      "howto": "Grow all the flowers on every level"
    },
    {
      "id": 3,
      "imageId": 3,
      "cred": 25,
      "flags": 4,
      "label": "Rainbow collection",
      "description": "Collect all the bonus flowers in the game",
      "howto": "Collect all the bonus flowers in the game"
    },
    {
      "id": 4,
      "imageId": 4,
      "cred": 20,
      "flags": 4,
      "label": "I wanna be a rock star",
      "description": "Pickup up every musician in the game at least once",
      "howto": "Pickup up every musician in the game at least once"
    },
    {
      "id": 5,
      "imageId": 5,
      "cred": 15,
      "flags": 7,
      "label": "Blown away",
      "description": "Grow 50% of plants in \"Wind Surfing\", \"Kaboom!\", \"Blown Away\" and \"Handle With Care\"",
      "howto": "Grow 50% of plants in \"Wind Surfing\", \"Kaboom!\", \"Blown Away\" and \"Handle With Care\""
    },
    {
      "id": 6,
      "imageId": 6,
      "cred": 10,
      "flags": 4,
      "label": "Turn that thing off",
      "description": "Drop a bomb on a musician",
      "howto": "Drop a bomb on a musician"
    },
    {
      "id": 7,
      "imageId": 7,
      "cred": 15,
      "flags": 4,
      "label": "Listen to the flower people",
      "description": "Re-bloom some flowers carrying 3 musicians at once",
      "howto": "Re-bloom some flowers carrying 3 musicians at once"
    },
    {
      "id": 8,
      "imageId": 8,
      "cred": 15,
      "flags": 4,
      "label": "Time to hit the sack",
      "description": "Hit every pollen sack in \"Batteries Not Included\", \"Zap!\" and \"Into the Machine\"",
      "howto": "Hit every pollen sack in \"Batteries Not Included\", \"Zap!\" and \"Into the Machine\""
    },
    {
      "id": 9,
      "imageId": 9,
      "cred": 20,
      "flags": 7,
      "label": "Happy Birthday to Me",
      "description": "Complete \"Grab Hold\", \"Watch Out, They Spit\", and \"Hold on Tight\" in under 20 minutes",
      "howto": "Complete \"Grab Hold\", \"Watch Out, They Spit\", and \"Hold on Tight\" in under 20 minutes"
    },
    {
      "id": 10,
      "imageId": 10,
      "cred": 10,
      "flags": 4,
      "label": "Someone set us up the bomb",
      "description": "Drop a bomb on the second player in a co-op game",
      "howto": "Drop a bomb on the second player in a co-op game"
    },
    {
      "id": 11,
      "imageId": 11,
      "cred": 15,
      "flags": 4,
      "label": "Let's clear the air",
      "description": "Clear most of the smog in the smoggy levels",
      "howto": "Clear most of the smog in the smoggy levels"
    },
    {
      "id": 12,
      "imageId": 12,
      "cred": 20,
      "flags": 4,
      "label": "The Devil wears Produce",
      "description": "Hold a musician, heavy fruit, lantern fruit, and explosive fruit while wearing red horns",
      "howto": "Hold a musician, heavy fruit, lantern fruit, and explosive fruit while wearing red horns"
    },
    {
      "id": 13,
      "imageId": 13,
      "cred": 15,
      "flags": 1,
      "label": "It's the journey that counts",
      "description": "Successfully complete “Horn of Plenty” either alone or with a friend.",
      "howto": "Successfully complete “Horn of Plenty” either alone or with a friend."
    },
    {
      "id": 14,
      "imageId": 14,
      "cred": 15,
      "flags": 1,
      "label": "The UnderGardener",
      "description": "Successfully complete “The Sum of all Things”, either alone or with a friend. \r\n",
      "howto": "Successfully complete “The Sum of all Things”, either alone or with a friend. \r\n"
    },
    {
      "id": 15,
      "imageId": 15,
      "cred": 20,
      "flags": 1,
      "label": "A very good year",
      "description": "Collect 17 crystals in the game",
      "howto": "Collect 17 crystals in the game"
    }
  ]
}