{
  "achievementsPossible": 22,
  "credPossible": 1000,
  "achievements": [
    {
      "id": 2,
      "imageId": 21,
      "cred": 30,
      "flags": 1,
      "label": "長い坂道",
      "description": "プロローグをクリアする",
      "howto": "プロローグをクリアすると解除されます"
    },
    {
      "id": 3,
      "imageId": 3,
      "cred": 100,
      "flags": 1,
      "label": "CLANNAD",
      "description": "全てのシナリオをクリアする",
      "howto": "すべてのシナリオをクリアすると解除されます"
    },
    {
      "id": 4,
      "imageId": 10,
      "cred": 50,
      "flags": 1,
      "label": "どこまでもふたりで",
      "description": "古河渚のシナリオをクリアする",
      "howto": ""
    },
    {
      "id": 5,
      "imageId": 5,
      "cred": 50,
      "flags": 1,
      "label": "いつか来る日",
      "description": "伊吹風子のシナリオをクリアする",
      "howto": ""
    },
    {
      "id": 6,
      "imageId": 7,
      "cred": 50,
      "flags": 1,
      "label": "広いお庭",
      "description": "一ノ瀬ことみのシナリオをクリアする",
      "howto": ""
    },
    {
      "id": 8,
      "imageId": 8,
      "cred": 50,
      "flags": 1,
      "label": "髪、また伸ばすね",
      "description": "藤林杏のシナリオをクリアする",
      "howto": ""
    },
    {
      "id": 9,
      "imageId": 13,
      "cred": 50,
      "flags": 1,
      "label": "満開の桜",
      "description": "坂上智代のシナリオをクリアする",
      "howto": ""
    },
    {
      "id": 10,
      "imageId": 15,
      "cred": 40,
      "flags": 1,
      "label": "優しい風景",
      "description": "宮沢有紀寧のシナリオをクリアする",
      "howto": ""
    },
    {
      "id": 11,
      "imageId": 9,
      "cred": 40,
      "flags": 1,
      "label": "ずっとそばに",
      "description": "相楽美佐枝のシナリオをクリアする",
      "howto": ""
    },
    {
      "id": 12,
      "imageId": 12,
      "cred": 40,
      "flags": 1,
      "label": "楽しみを重ねて",
      "description": "春原兄妹のシナリオをクリアする",
      "howto": ""
    },
    {
      "id": 13,
      "imageId": 6,
      "cred": 40,
      "flags": 1,
      "label": "二人だけの灯り",
      "description": "柊勝平のシナリオをクリアする",
      "howto": ""
    },
    {
      "id": 14,
      "imageId": 14,
      "cred": 40,
      "flags": 1,
      "label": "旅の終わりに",
      "description": "幸村俊夫のシナリオをクリアする",
      "howto": ""
    },
    {
      "id": 15,
      "imageId": 11,
      "cred": 40,
      "flags": 1,
      "label": "これからの歩み",
      "description": "藤林椋のシナリオをクリアする",
      "howto": ""
    },
    {
      "id": 16,
      "imageId": 18,
      "cred": 30,
      "flags": 4,
      "label": "最初の輝き",
      "description": "光の玉を入手する",
      "howto": ""
    },
    {
      "id": 17,
      "imageId": 19,
      "cred": 50,
      "flags": 4,
      "label": "幻想世界",
      "description": "光の玉を全て入手する",
      "howto": ""
    },
    {
      "id": 18,
      "imageId": 2,
      "cred": 50,
      "flags": 1,
      "label": "小さなてのひら",
      "description": "アフターストーリーでトゥルーエンドを迎える",
      "howto": ""
    },
    {
      "id": 19,
      "imageId": 16,
      "cred": 40,
      "flags": 4,
      "label": "風子マスター！",
      "description": "風子マスターにクラスチェンジする",
      "howto": ""
    },
    {
      "id": 20,
      "imageId": 1,
      "cred": 40,
      "flags": 4,
      "label": "智代最終兵器",
      "description": "智代のコンボで64ヒットを達成する",
      "howto": ""
    },
    {
      "id": 21,
      "imageId": 4,
      "cred": 50,
      "flags": 4,
      "label": "栄光の古河ベイカーズ！",
      "description": "草野球のシナリオをクリアする",
      "howto": ""
    },
    {
      "id": 22,
      "imageId": 17,
      "cred": 40,
      "flags": 1,
      "label": "こちらときめき☆学園",
      "description": "ゲームブック「こちら☆ときめき学園」をクリアする",
      "howto": ""
    },
    {
      "id": 23,
      "imageId": 20,
      "cred": 40,
      "flags": 4,
      "label": "ジェット斉藤出現！",
      "description": "ジェット斉藤を出現させる",
      "howto": ""
    },
    {
      "id": 24,
      "imageId": 22,
      "cred": 40,
      "flags": 1,
      "label": "ひいいぃぃぃーーっ！",
      "description": "春原エンドを迎える",
      "howto": ""
    }
  ]
}