{
  "achievementsPossible": 15,
  "credPossible": 250,
  "achievements": [
    {
      "id": 126,
      "imageId": 28,
      "cred": 5,
      "flags": 1,
      "label": "Appetizer",
      "description": "Win your first race (Single player)",
      "howto": "Win your first race (Single player)"
    },
    {
      "id": 127,
      "imageId": 30,
      "cred": 25,
      "flags": 1,
      "label": "Done and done",
      "description": "Win the last Tournament race (complete the tournament)",
      "howto": "Win the last Tournament race (complete the tournament)"
    },
    {
      "id": 128,
      "imageId": 31,
      "cred": 40,
      "flags": 1,
      "label": "The day I won it all",
      "description": "Win all races in all tournament cards including Offroad Elite races",
      "howto": "Win all races in all tournament cards including Offroad Elite races"
    },
    {
      "id": 129,
      "imageId": 41,
      "cred": 15,
      "flags": 1,
      "label": "I can’t stop!",
      "description": "Collect 100 boost tokens",
      "howto": "Collect 100 boost tokens"
    },
    {
      "id": 130,
      "imageId": 32,
      "cred": 20,
      "flags": 1,
      "label": "Mad skillz, I has them",
      "description": "Perform 250 Stunts",
      "howto": "Perform 250 Stunts"
    },
    {
      "id": 131,
      "imageId": 27,
      "cred": 15,
      "flags": 1,
      "label": "Goon riding, hah!",
      "description": "Perform 100 Stunts",
      "howto": "Perform 100 Stunts"
    },
    {
      "id": 132,
      "imageId": 33,
      "cred": 15,
      "flags": 1,
      "label": "Runway runaway",
      "description": "Land in the target zone 50 times",
      "howto": "Land in the target zone 50 times"
    },
    {
      "id": 133,
      "imageId": 34,
      "cred": 15,
      "flags": 1,
      "label": "Power Extreme!",
      "description": "Activate Recharge 66 times",
      "howto": "Activate Recharge 66 times"
    },
    {
      "id": 134,
      "imageId": 35,
      "cred": 15,
      "flags": 1,
      "label": "Detour",
      "description": "Activate a Shortcut 50 times",
      "howto": "Activate a Shortcut 50 times"
    },
    {
      "id": 135,
      "imageId": 36,
      "cred": 15,
      "flags": 1,
      "label": "Racing nobility",
      "description": "Win all \"Offroad Elite\" events",
      "howto": "Win all \"Offroad Elite\" events"
    },
    {
      "id": 136,
      "imageId": 39,
      "cred": 5,
      "flags": 1,
      "label": "Feel the connection",
      "description": "Win a multiplayer race",
      "howto": "Win a multiplayer race"
    },
    {
      "id": 137,
      "imageId": 38,
      "cred": 15,
      "flags": 1,
      "label": "Here for the long ride",
      "description": "Achieve level 10 in multiplayer",
      "howto": "Achieve level 10 in multiplayer"
    },
    {
      "id": 139,
      "imageId": 43,
      "cred": 20,
      "flags": 1,
      "label": "Encore",
      "description": "Achieve a 3-star rating in all \"High Stakes\" and \"Balance of Forces\" races",
      "howto": "Achieve a 3-star rating in all \"High Stakes\" and \"Balance of Forces\" races"
    },
    {
      "id": 140,
      "imageId": 42,
      "cred": 10,
      "flags": 1,
      "label": "Alpha and Omega",
      "description": "Reach driver level 15",
      "howto": "Reach driver level 15"
    },
    {
      "id": 141,
      "imageId": 44,
      "cred": 20,
      "flags": 1,
      "label": "Keep on sharing",
      "description": "Win 10 multiplayer races on tracks from \"High Stakes\" and \"Balance of Forces\" events",
      "howto": "Win 10 multiplayer races on tracks from \"High Stakes\" and \"Balance of Forces\" events"
    }
  ]
}