{
  "achievementsPossible": 12,
  "credPossible": 200,
  "achievements": [
    {
      "id": 16,
      "imageId": 6,
      "cred": 36,
      "flags": 3,
      "label": "Morally Superior",
      "description": "Complete the game as Nite Owl.",
      "howto": "Complete the game as Nite Owl."
    },
    {
      "id": 17,
      "imageId": 7,
      "cred": 36,
      "flags": 3,
      "label": "Street Justice",
      "description": "Complete the game as Rorschach.",
      "howto": "Complete the game as Rorschach."
    },
    {
      "id": 18,
      "imageId": 11,
      "cred": 36,
      "flags": 3,
      "label": "Friends Forever?",
      "description": "Complete the game in Co-operative mode.",
      "howto": "Complete the game in Co-operative mode."
    },
    {
      "id": 19,
      "imageId": 3,
      "cred": 15,
      "flags": 3,
      "label": "Martial Artist",
      "description": "Perform all 8 Nite Owl combos within 60 seconds.",
      "howto": "Perform all 8 Nite Owl combos within 60 seconds."
    },
    {
      "id": 20,
      "imageId": 4,
      "cred": 15,
      "flags": 3,
      "label": "Feral Fighter",
      "description": "Perform all 8 Rorschach combos within 60 seconds.",
      "howto": "Perform all 8 Rorschach combos within 60 seconds."
    },
    {
      "id": 21,
      "imageId": 13,
      "cred": 11,
      "flags": 3,
      "label": "You Tag 'em - I Bag 'em",
      "description": "Eliminate an enemy that your partner has knocked down or thrown in your direction.",
      "howto": "Eliminate an enemy that your partner has knocked down or thrown in your direction."
    },
    {
      "id": 22,
      "imageId": 9,
      "cred": 11,
      "flags": 3,
      "label": "Focus Fire",
      "description": "Take down 10 enemies in a row finishing off each of them before doing damage to anybody else.",
      "howto": "Take down 10 enemies in a row finishing off each of them before doing damage to anybody else.\r\n"
    },
    {
      "id": 23,
      "imageId": 16,
      "cred": 8,
      "flags": 3,
      "label": "Electric Explosion",
      "description": "Hit 14 enemies with a single electrify armor blast.",
      "howto": "Hit 14 enemies with a single electrify armor blast."
    },
    {
      "id": 24,
      "imageId": 12,
      "cred": 8,
      "flags": 3,
      "label": "Rrarararghgh!!!",
      "description": "Sustain a single rage mode for 60 seconds.",
      "howto": "Sustain a single rage mode for 60 seconds."
    },
    {
      "id": 25,
      "imageId": 5,
      "cred": 8,
      "flags": 3,
      "label": "Ping Pong",
      "description": "Hit at least 4 different enemies while building up a combo.",
      "howto": "Hit at least 4 different enemies while building up a combo."
    },
    {
      "id": 26,
      "imageId": 14,
      "cred": 8,
      "flags": 3,
      "label": "Unending Combo",
      "description": "String a single uninterrupted combo that's at least 10 hits long.",
      "howto": "String a single uninterrupted combo that's at least 10 hits long."
    },
    {
      "id": 27,
      "imageId": 15,
      "cred": 8,
      "flags": 3,
      "label": "Gentleman",
      "description": "Complete Chapter III without hitting any ladies before they hit you.",
      "howto": "Complete Chapter III without hitting any ladies before they hit you."
    }
  ]
}