{
  "achievementsPossible": 50,
  "credPossible": 1000,
  "achievements": [
    {
      "id": 2,
      "imageId": 1,
      "cred": 15,
      "flags": 3,
      "label": "Private - Act 1",
      "description": "Completed Act 1 with the rank of Private.",
      "howto": "Completed Act 1 with the rank of Private."
    },
    {
      "id": 3,
      "imageId": 2,
      "cred": 20,
      "flags": 1,
      "label": "Private - Act 2",
      "description": "Completed Act 1 and Act 2 with the rank of Private.",
      "howto": "Completed Act 1 and Act 2 with the rank of Private."
    },
    {
      "id": 5,
      "imageId": 3,
      "cred": 25,
      "flags": 1,
      "label": "Private - Defeated the Strogg",
      "description": "Completed the game with the rank of Private.",
      "howto": "Completed the game with the rank of Private."
    },
    {
      "id": 6,
      "imageId": 9,
      "cred": 5,
      "flags": 2,
      "label": "Basic Training",
      "description": "Played over 100 Ranked Multiplayer Matches.",
      "howto": "Played over 100 Ranked Multiplayer Matches."
    },
    {
      "id": 7,
      "imageId": 10,
      "cred": 10,
      "flags": 2,
      "label": "First tour of Duty",
      "description": "Played over 500 Ranked Multiplayer Matches.",
      "howto": "Played over 500 Ranked Multiplayer Matches."
    },
    {
      "id": 8,
      "imageId": 27,
      "cred": 25,
      "flags": 2,
      "label": "Combat Veteran",
      "description": "Played over 1000 Ranked Multiplayer Matches.",
      "howto": "Played over 1000 Ranked Multiplayer Matches."
    },
    {
      "id": 9,
      "imageId": 28,
      "cred": 50,
      "flags": 2,
      "label": "Seasoned warrior",
      "description": "Played over 5000 Ranked Multiplayer Matches.",
      "howto": "Played over 5000 Ranked Multiplayer Matches."
    },
    {
      "id": 10,
      "imageId": 5,
      "cred": 20,
      "flags": 4,
      "label": "Number One",
      "description": "Achieved the number one rank on the All Gametypes leaderboard.",
      "howto": "Achieved the number one rank on the All Gametypes leaderboard."
    },
    {
      "id": 11,
      "imageId": 4,
      "cred": 15,
      "flags": 1,
      "label": "Top Ten",
      "description": "Achieved a ranking in the top ten on the All Gametypes leaderboard.",
      "howto": "Achieved a ranking in the top ten on the All Gametypes leaderboard."
    },
    {
      "id": 12,
      "imageId": 34,
      "cred": 5,
      "flags": 4,
      "label": "Perfect Win",
      "description": "Won a Ranked match without ever being fragged.",
      "howto": "Won a Ranked match without ever being fragged."
    },
    {
      "id": 13,
      "imageId": 11,
      "cred": 10,
      "flags": 4,
      "label": "Untouchable",
      "description": "Completed a  level without taking any damage.",
      "howto": "Completed a  level without taking any damage."
    },
    {
      "id": 14,
      "imageId": 43,
      "cred": 15,
      "flags": 4,
      "label": "Blaster Master",
      "description": "Completed a level using only the blaster.",
      "howto": "Completed a level using only the blaster."
    },
    {
      "id": 15,
      "imageId": 47,
      "cred": 15,
      "flags": 4,
      "label": "Hyperactive",
      "description": "Completed a level using only the hyperblaster.",
      "howto": "Completed a level using only the hyperblaster."
    },
    {
      "id": 16,
      "imageId": 44,
      "cred": 15,
      "flags": 4,
      "label": "The Blazing Buckshot",
      "description": "Completed a level using only the shotgun.",
      "howto": "Completed a level using only the shotgun."
    },
    {
      "id": 17,
      "imageId": 45,
      "cred": 15,
      "flags": 4,
      "label": "The machine",
      "description": "Completed a level using only the machine gun.",
      "howto": "Completed a level using only the machine gun."
    },
    {
      "id": 18,
      "imageId": 48,
      "cred": 15,
      "flags": 4,
      "label": "Tooth and Nail",
      "description": "Completed a level using only the nailgun.",
      "howto": "Completed a level using only the nailgun."
    },
    {
      "id": 19,
      "imageId": 46,
      "cred": 15,
      "flags": 4,
      "label": "The Pineapple King",
      "description": "Completed a level using only the grenade launcher.",
      "howto": "Completed a level using only the grenade launcher."
    },
    {
      "id": 20,
      "imageId": 49,
      "cred": 15,
      "flags": 4,
      "label": "Ballistics Expert",
      "description": "Completed a level using only the rocket launcher.",
      "howto": "Completed a level using only the rocket launcher."
    },
    {
      "id": 21,
      "imageId": 51,
      "cred": 15,
      "flags": 4,
      "label": "Enlightening",
      "description": "Completed a level using only the lightning gun.",
      "howto": "Completed a level using only the lightning gun."
    },
    {
      "id": 22,
      "imageId": 52,
      "cred": 15,
      "flags": 4,
      "label": "The Dark Lord",
      "description": "Completed a level using only the dark matter gun.",
      "howto": "Completed a level using only the dark matter gun."
    },
    {
      "id": 23,
      "imageId": 50,
      "cred": 15,
      "flags": 4,
      "label": "The Sniper",
      "description": "Completed a level only using the railgun.",
      "howto": "Completed a level only using the railgun."
    },
    {
      "id": 24,
      "imageId": 12,
      "cred": 5,
      "flags": 2,
      "label": "The Bronze Flag",
      "description": "Over 100 captures in Ranked matches.",
      "howto": "Over 100 captures in Ranked matches."
    },
    {
      "id": 25,
      "imageId": 13,
      "cred": 10,
      "flags": 2,
      "label": "The Silver Flag",
      "description": "Over 500 captures in Ranked matches.",
      "howto": "Over 500 captures in Ranked matches."
    },
    {
      "id": 26,
      "imageId": 23,
      "cred": 25,
      "flags": 2,
      "label": "The Golden Flag",
      "description": "Over 1000 captures in Ranked matches.",
      "howto": "Over 1000 captures in Ranked matches."
    },
    {
      "id": 27,
      "imageId": 7,
      "cred": 5,
      "flags": 2,
      "label": "Viper Squad",
      "description": "Over 100 frags in Ranked matches.",
      "howto": "Over 100 frags in Ranked matches."
    },
    {
      "id": 28,
      "imageId": 8,
      "cred": 10,
      "flags": 2,
      "label": "Warthog squad",
      "description": "Over 500 frags in Ranked matches.",
      "howto": "Over 500 frags in Ranked matches."
    },
    {
      "id": 29,
      "imageId": 24,
      "cred": 20,
      "flags": 4,
      "label": "Galactic Order of Heroism",
      "description": "For heroism in battle, SGT Raffle of Raven Squad has awarded you the Galactic Order of Heroism.",
      "howto": "For heroism in battle, SGT Raffle of Raven Squad has awarded you the Galactic Order of Heroism."
    },
    {
      "id": 30,
      "imageId": 25,
      "cred": 50,
      "flags": 2,
      "label": "Raven Squad",
      "description": "Over 5000 frags in Ranked matches.",
      "howto": "Over 5000 frags in Ranked matches."
    },
    {
      "id": 31,
      "imageId": 26,
      "cred": 75,
      "flags": 2,
      "label": "Rhino Squad",
      "description": "Over 10000 frags in Ranked matches.",
      "howto": "Over 10000 frags in Ranked matches."
    },
    {
      "id": 32,
      "imageId": 35,
      "cred": 25,
      "flags": 1,
      "label": "Corporal - Act 1",
      "description": "Completed Act 1 with the rank of Corporal.",
      "howto": "Completed Act 1 with the rank of Corporal."
    },
    {
      "id": 33,
      "imageId": 38,
      "cred": 25,
      "flags": 1,
      "label": "Corporal - Act 2",
      "description": "Completed Act 1 and Act 2 with the rank of Corporal.",
      "howto": "Completed Act 1 and Act 2 with the rank of Corporal."
    },
    {
      "id": 34,
      "imageId": 6,
      "cred": 30,
      "flags": 1,
      "label": "Corporal - Defeated the Strogg",
      "description": "Completed the game with the rank of Corporal.",
      "howto": "Completed the game with the rank of Corporal."
    },
    {
      "id": 35,
      "imageId": 36,
      "cred": 25,
      "flags": 1,
      "label": "Lieutenant - Act 1",
      "description": "Completed Act 1 with the rank of Lieutenant.",
      "howto": "Completed Act 1 with the rank of Lieutenant."
    },
    {
      "id": 36,
      "imageId": 39,
      "cred": 25,
      "flags": 1,
      "label": "Lieutenant - Act 2",
      "description": "Completed Act 1 and Act 2 with the rank of Lieutenant.",
      "howto": "Completed Act 1 and Act 2 with the rank of Lieutenant."
    },
    {
      "id": 37,
      "imageId": 21,
      "cred": 30,
      "flags": 1,
      "label": "Lieutenant - Defeated the Strogg",
      "description": "Completed the game with the rank of Lieutenant.",
      "howto": "Completed the game with the rank of Lieutenant."
    },
    {
      "id": 38,
      "imageId": 37,
      "cred": 25,
      "flags": 1,
      "label": "General - Act 1",
      "description": "Completed Act 1 with the rank of General.",
      "howto": "Completed Act 1 with the rank of General."
    },
    {
      "id": 39,
      "imageId": 40,
      "cred": 25,
      "flags": 1,
      "label": "General - Act 2",
      "description": "Completed Act 1 and Act 2 with the rank of General.",
      "howto": "Completed Act 1 and Act 2 with the rank of General."
    },
    {
      "id": 40,
      "imageId": 41,
      "cred": 30,
      "flags": 1,
      "label": "General - Defeated the Strogg",
      "description": "Completed the game with the rank of General.",
      "howto": "Completed the game with the rank of General."
    },
    {
      "id": 41,
      "imageId": 30,
      "cred": 5,
      "flags": 2,
      "label": "Private - Multiplayer",
      "description": "Over 100 win points in Ranked matches.",
      "howto": "Over 100 win points in Ranked matches."
    },
    {
      "id": 42,
      "imageId": 31,
      "cred": 10,
      "flags": 2,
      "label": "Corporal - Multiplayer",
      "description": "Over 500 win points in Ranked matches.",
      "howto": "Over 500 win points in Ranked matches."
    },
    {
      "id": 43,
      "imageId": 32,
      "cred": 25,
      "flags": 2,
      "label": "Lieutenant - Multiplayer",
      "description": "Over 1000 win points in Ranked matches.",
      "howto": "Over 1000 win points in Ranked matches."
    },
    {
      "id": 44,
      "imageId": 33,
      "cred": 50,
      "flags": 2,
      "label": "General - Multiplayer",
      "description": "Over 5000 win points in Ranked matches.",
      "howto": "Over 5000 win points in Ranked matches."
    },
    {
      "id": 45,
      "imageId": 29,
      "cred": 20,
      "flags": 1,
      "label": "The Golden Gauntlet",
      "description": "Over 250 players have been humilated by you.",
      "howto": "Over 250 players have been humilated by you."
    },
    {
      "id": 46,
      "imageId": 22,
      "cred": 20,
      "flags": 1,
      "label": "Solar Star of Courage",
      "description": "For courage in battle alongside Viper Squad, CPL Mahler has awarded you the Solar Star of Courage.",
      "howto": "For courage in battle alongside Viper Squad, CPL Mahler has awarded you the Solar Star of Courage."
    },
    {
      "id": 47,
      "imageId": 42,
      "cred": 20,
      "flags": 1,
      "label": "Full Arsenal",
      "description": "Awarded on completion of a level where a shot was landed with every weapon in a full arsenal.",
      "howto": "Awarded on completion of a level where a shot was landed with every weapon in a full arsenal."
    },
    {
      "id": 48,
      "imageId": 54,
      "cred": 10,
      "flags": 1,
      "label": "The Best Impression",
      "description": "Over 250 Impressives in Ranked matches.",
      "howto": "<String Placeholder>"
    },
    {
      "id": 49,
      "imageId": 57,
      "cred": 10,
      "flags": 1,
      "label": "Your Excellency",
      "description": "Over 500 Excellents in Ranked matches.",
      "howto": "<String Placeholder>"
    },
    {
      "id": 50,
      "imageId": 55,
      "cred": 10,
      "flags": 1,
      "label": "Guts but no Glory",
      "description": "Over 100 Assists in Ranked matches.",
      "howto": "<String Placeholder>"
    },
    {
      "id": 51,
      "imageId": 56,
      "cred": 10,
      "flags": 1,
      "label": "The Defender",
      "description": "Over 250 Defense awards in Ranked matches.",
      "howto": "<String Placeholder>"
    },
    {
      "id": 52,
      "imageId": 53,
      "cred": 20,
      "flags": 4,
      "label": "Sky Marshall's Medal of Valor",
      "description": "For rescuing PVT Lanier of Eagle Squad, you have been awarded the Sky Marshall's Medal of Valor",
      "howto": "<String Placeholder>"
    }
  ]
}