{
  "avatarAssetsPossible": 2,
  "maleAvatarAssetsPossible": 1,
  "femaleAvatarAssetsPossible": 1,
  "avatarAssets": [
    {
      "id": "00000008-0001-b141-c931-fc374d530a8c",
      "imageId": 32,
      "subcategory": 0,
      "unknown": 0,
      "isMale": true,
      "isFemale": false,
      "isUnisex": false,
      "label": "World of Tanks T-Shirt",
      "description": "World of Tanks Logo T-Shirt.",
      "howto": "Survive, and win a battle."
    },
    {
      "id": "00000008-0001-4132-c359-986d4d530a8c",
      "imageId": 33,
      "subcategory": 0,
      "unknown": 2015221016,
      "isMale": false,
      "isFemale": true,
      "isUnisex": false,
      "label": "World of Tanks T-Shirt",
      "description": "World of Tanks Logo T-Shirt.",
      "howto": "Survive, and win a battle."
    }
  ]
}