{
  "achievementsPossible": 24,
  "credPossible": 1000,
  "achievements": [
    {
      "id": 1,
      "imageId": 1,
      "cred": 10,
      "flags": 1,
      "label": "welcome to DUNAMIS base",
      "description": "デュナミスベースへの一歩を踏み出した。",
      "howto": "デュナミスベースに足を踏み込もう"
    },
    {
      "id": 2,
      "imageId": 2,
      "cred": 10,
      "flags": 1,
      "label": "過去を振り返る哀れな羊",
      "description": "バックログを確認した。",
      "howto": "バックログを確認してみよう"
    },
    {
      "id": 3,
      "imageId": 3,
      "cred": 10,
      "flags": 1,
      "label": "神の定めた旋律に反する羊",
      "description": "CONFIGを変更した。",
      "howto": "CONFIGを変更してみよう"
    },
    {
      "id": 4,
      "imageId": 4,
      "cred": 10,
      "flags": 1,
      "label": "知識を獲る羊",
      "description": "TIPSをひとつ確認した。",
      "howto": "TIPSを確認してみよう"
    },
    {
      "id": 5,
      "imageId": 5,
      "cred": 50,
      "flags": 1,
      "label": "全てを知った羊",
      "description": "TIPSを全て確認した。",
      "howto": "TIPSをコンプリートしよう"
    },
    {
      "id": 6,
      "imageId": 6,
      "cred": 30,
      "flags": 1,
      "label": "無垢な乙女に憧れる羊",
      "description": "少女の日記をすべて確認した。",
      "howto": ""
    },
    {
      "id": 7,
      "imageId": 7,
      "cred": 10,
      "flags": 1,
      "label": "とある羊たちのなれそめ",
      "description": "七生と夏來のなれそめを確認した。",
      "howto": ""
    },
    {
      "id": 8,
      "imageId": 8,
      "cred": 10,
      "flags": 1,
      "label": "真理に近づきすぎた羊",
      "description": "大輔のメッセージを確認した。",
      "howto": ""
    },
    {
      "id": 9,
      "imageId": 9,
      "cred": 20,
      "flags": 1,
      "label": "イベントCGコンプリート率25%",
      "description": "25％のイベントCGを確認した。",
      "howto": "イベントCGを鑑賞しよう"
    },
    {
      "id": 10,
      "imageId": 10,
      "cred": 30,
      "flags": 1,
      "label": "イベントCGコンプリート率50%",
      "description": "50％のイベントCGを確認した。",
      "howto": "イベントCGをもっと鑑賞しよう"
    },
    {
      "id": 11,
      "imageId": 11,
      "cred": 40,
      "flags": 1,
      "label": "イベントCGコンプリート率75%",
      "description": "75％のイベントCGを確認した。",
      "howto": "イベントCGをもっともっと鑑賞しよう"
    },
    {
      "id": 12,
      "imageId": 12,
      "cred": 50,
      "flags": 1,
      "label": "イベントCGコンプリート率100%",
      "description": "全てのイベントCGを確認した。",
      "howto": "イベントCGをもっともっともっと確認しよう"
    },
    {
      "id": 13,
      "imageId": 13,
      "cred": 80,
      "flags": 1,
      "label": "第１章2ndループクリア",
      "description": "2度目のループを観測した。",
      "howto": ""
    },
    {
      "id": 14,
      "imageId": 14,
      "cred": 80,
      "flags": 1,
      "label": "第２章3rdループクリア",
      "description": "3度目のループを観測した。",
      "howto": ""
    },
    {
      "id": 15,
      "imageId": 15,
      "cred": 80,
      "flags": 1,
      "label": "第３章1stループクリア",
      "description": "時の流れに抗い、1度目のループを観測した。",
      "howto": ""
    },
    {
      "id": 16,
      "imageId": 16,
      "cred": 80,
      "flags": 1,
      "label": "第４章4thループクリア",
      "description": "4度目のループを観測した。",
      "howto": ""
    },
    {
      "id": 17,
      "imageId": 17,
      "cred": 80,
      "flags": 1,
      "label": "第５章5thループクリア",
      "description": "5度目のループを観測した。",
      "howto": ""
    },
    {
      "id": 18,
      "imageId": 18,
      "cred": 150,
      "flags": 1,
      "label": "ループを断ち切る羊",
      "description": "ループを収束させた。",
      "howto": ""
    },
    {
      "id": 19,
      "imageId": 19,
      "cred": 50,
      "flags": 1,
      "label": "死への導きにあらがえぬ羊",
      "description": "いずれかのバッドエンドを観測した。",
      "howto": ""
    },
    {
      "id": 20,
      "imageId": 20,
      "cred": 10,
      "flags": 1,
      "label": "食べ盛りな羊",
      "description": "食事を食べている眞波を全パターン確認した。",
      "howto": "眞波の朝食を全て確認しよう"
    },
    {
      "id": 21,
      "imageId": 21,
      "cred": 30,
      "flags": 1,
      "label": "祝福の音色を奏でる羊",
      "description": "MUSICを開いてみた。",
      "howto": "全ての楽曲に酔いしれてみよう"
    },
    {
      "id": 22,
      "imageId": 22,
      "cred": 30,
      "flags": 1,
      "label": "想い出の中の羊たち",
      "description": "GALLERYを開いてみた。",
      "howto": "GALLERYを活用してみよう"
    },
    {
      "id": 23,
      "imageId": 23,
      "cred": 50,
      "flags": 1,
      "label": "羊たちの語らい",
      "description": "FREETALKを全て聞いた。",
      "howto": "FREETALKを聞いて見よう"
    },
    {
      "id": 24,
      "imageId": 24,
      "cred": 0,
      "flags": 1,
      "label": "オペレーション・フィフティーン",
      "description": "DUNAMIS15を遊びつくした。",
      "howto": ""
    }
  ]
}