{
  "achievementsPossible": 48,
  "credPossible": 1000,
  "achievements": [
    {
      "id": 1,
      "imageId": 1,
      "cred": 10,
      "flags": 1,
      "label": "This is just the beginning!",
      "description": "Complete Geonosian Arena.",
      "howto": "Complete Geonosian Arena."
    },
    {
      "id": 2,
      "imageId": 2,
      "cred": 10,
      "flags": 1,
      "label": "The pleasure is all mine my dear",
      "description": "Complete The Hidden Enemy.",
      "howto": "Complete The Hidden Enemy."
    },
    {
      "id": 3,
      "imageId": 3,
      "cred": 10,
      "flags": 1,
      "label": "Okay clankers, suck lasers!",
      "description": "Complete Ambush.",
      "howto": "Complete Ambush."
    },
    {
      "id": 4,
      "imageId": 4,
      "cred": 10,
      "flags": 1,
      "label": "Me'sa rescued you",
      "description": "Complete Gungan General.",
      "howto": "Complete Gungan General."
    },
    {
      "id": 5,
      "imageId": 5,
      "cred": 10,
      "flags": 1,
      "label": "Are all Jedi so reckless?",
      "description": "Complete Jedi Crash.",
      "howto": "Complete Jedi Crash."
    },
    {
      "id": 6,
      "imageId": 6,
      "cred": 10,
      "flags": 1,
      "label": "There goes my promotion",
      "description": "Complete Defenders of Peace.",
      "howto": "Complete Defenders of Peace."
    },
    {
      "id": 7,
      "imageId": 7,
      "cred": 10,
      "flags": 1,
      "label": "Oops. What happened?",
      "description": "Complete Blue Shadow Virus.",
      "howto": "Complete Blue Shadow Virus."
    },
    {
      "id": 8,
      "imageId": 8,
      "cred": 10,
      "flags": 1,
      "label": "Follow me, boys!",
      "description": "Complete Duel of the Droids.",
      "howto": "Complete Duel of the Droids."
    },
    {
      "id": 9,
      "imageId": 9,
      "cred": 10,
      "flags": 1,
      "label": "Torpedoes away!",
      "description": "Complete Shadow of Malevolence.",
      "howto": "Complete Shadow of Malevolence."
    },
    {
      "id": 10,
      "imageId": 10,
      "cred": 10,
      "flags": 1,
      "label": "Abandon ship!",
      "description": "Complete Destroy Malevolence.",
      "howto": "Complete Destroy Malevolence."
    },
    {
      "id": 11,
      "imageId": 11,
      "cred": 10,
      "flags": 1,
      "label": "R6 take me home",
      "description": "Complete Lair of Grievous.",
      "howto": "Complete Lair of Grievous."
    },
    {
      "id": 12,
      "imageId": 12,
      "cred": 10,
      "flags": 1,
      "label": "Not so tough now are ya Sparky?",
      "description": "Complete Rookies.",
      "howto": "Complete Rookies."
    },
    {
      "id": 13,
      "imageId": 13,
      "cred": 10,
      "flags": 1,
      "label": "We live to fight another day",
      "description": "Complete Grievous Intrigue.",
      "howto": "Complete Grievous Intrigue."
    },
    {
      "id": 14,
      "imageId": 14,
      "cred": 10,
      "flags": 1,
      "label": "That's no moon",
      "description": "Complete Battle of Geonosis.",
      "howto": "Complete Battle of Geonosis."
    },
    {
      "id": 15,
      "imageId": 15,
      "cred": 10,
      "flags": 1,
      "label": "You can have my ship!",
      "description": "Complete Storm Over Ryloth.",
      "howto": "Complete Storm Over Ryloth."
    },
    {
      "id": 16,
      "imageId": 16,
      "cred": 10,
      "flags": 1,
      "label": "Time to take the capital",
      "description": "Complete Innocents of Ryloth.",
      "howto": "Complete Innocents of Ryloth."
    },
    {
      "id": 17,
      "imageId": 17,
      "cred": 10,
      "flags": 1,
      "label": "Liberation!",
      "description": "Complete Liberty on Ryloth.",
      "howto": "Complete Liberty on Ryloth."
    },
    {
      "id": 18,
      "imageId": 18,
      "cred": 10,
      "flags": 1,
      "label": "Tank 'n' Spank",
      "description": "Complete Weapons Factory.",
      "howto": "Complete Weapons Factory."
    },
    {
      "id": 19,
      "imageId": 19,
      "cred": 10,
      "flags": 1,
      "label": "Another bug hunt",
      "description": "Complete Legacy of Terror.",
      "howto": "Complete Legacy of Terror."
    },
    {
      "id": 20,
      "imageId": 20,
      "cred": 10,
      "flags": 1,
      "label": "What a Rotta!",
      "description": "Complete Castle of Doom.",
      "howto": "Complete Castle of Doom."
    },
    {
      "id": 21,
      "imageId": 21,
      "cred": 10,
      "flags": 1,
      "label": "Sure, as long as I get paid",
      "description": "Complete Hostage Crisis.",
      "howto": "Complete Hostage Crisis."
    },
    {
      "id": 22,
      "imageId": 22,
      "cred": 10,
      "flags": 1,
      "label": "Zillo Tolerance",
      "description": "Complete Zillo Beast.",
      "howto": "Complete Zillo Beast."
    },
    {
      "id": 23,
      "imageId": 23,
      "cred": 100,
      "flags": 1,
      "label": "Impressive, most impressive",
      "description": "Complete the game to 100% (Single Player Only)",
      "howto": "Complete the game to 100% (Single Player Only)"
    },
    {
      "id": 24,
      "imageId": 24,
      "cred": 70,
      "flags": 1,
      "label": "A presence I've not felt since",
      "description": "Collect all the minikits. (Single Player Only)",
      "howto": "Collect all the minikits. (Single Player Only)"
    },
    {
      "id": 25,
      "imageId": 25,
      "cred": 10,
      "flags": 1,
      "label": "The Force is with you",
      "description": "Complete a story level without dying (and no invincibility cheat).",
      "howto": "Complete a story level without dying (and no invincibility cheat)."
    },
    {
      "id": 26,
      "imageId": 26,
      "cred": 30,
      "flags": 1,
      "label": "Viceroy of the fleet",
      "description": "Convert every system to CIS. (Single Player Only)",
      "howto": "Convert every system to CIS. (Single Player Only)"
    },
    {
      "id": 27,
      "imageId": 27,
      "cred": 30,
      "flags": 1,
      "label": "Admiral of the fleet",
      "description": "Convert every system to the Republic. (Single Player Only)",
      "howto": "Convert every system to the Republic. (Single Player Only)"
    },
    {
      "id": 28,
      "imageId": 28,
      "cred": 50,
      "flags": 1,
      "label": "The dark side I sense in you",
      "description": "Free all villains from the Resolute brig. (Single Player Only)",
      "howto": "Free all villains from the Resolute brig. (Single Player Only)"
    },
    {
      "id": 29,
      "imageId": 29,
      "cred": 10,
      "flags": 1,
      "label": "Got a bad feeling about this",
      "description": "Land on the Invisible Hand.",
      "howto": "Land on the Invisible Hand."
    },
    {
      "id": 30,
      "imageId": 30,
      "cred": 10,
      "flags": 1,
      "label": "Field commander",
      "description": "Using the Radio ability, command troops 50 times.",
      "howto": "Using the Radio ability, command troops 50 times."
    },
    {
      "id": 31,
      "imageId": 31,
      "cred": 10,
      "flags": 1,
      "label": "Goldie Blocks",
      "description": "Overheat and destroy 50 gold LEGO bricks.",
      "howto": "Overheat and destroy 50 gold LEGO bricks."
    },
    {
      "id": 32,
      "imageId": 32,
      "cred": 10,
      "flags": 1,
      "label": "Saberang Master",
      "description": "Use Yoda to defeat 5 enemies with one lightsaber throw.",
      "howto": "Use Yoda to defeat 5 enemies with one lightsaber throw."
    },
    {
      "id": 33,
      "imageId": 33,
      "cred": 10,
      "flags": 1,
      "label": "Twice the pride, double the fall",
      "description": "Defeat Anakin with Count Dooku",
      "howto": "Defeat Anakin with Count Dooku"
    },
    {
      "id": 34,
      "imageId": 34,
      "cred": 20,
      "flags": 1,
      "label": "Isn't negotiation the Jedi way?",
      "description": "Complete all Bounty missions. (Single Player Only)",
      "howto": "Complete all Bounty missions. (Single Player Only)"
    },
    {
      "id": 35,
      "imageId": 35,
      "cred": 10,
      "flags": 1,
      "label": "We really did say no prisoners",
      "description": "Destroy 100 Droids with the Clone Chain-gun.",
      "howto": "Destroy 100 Droids with the Clone Chain-gun."
    },
    {
      "id": 36,
      "imageId": 36,
      "cred": 20,
      "flags": 1,
      "label": "UH OH!",
      "description": "Using the Force, take control of a Super Battle Droid and destroy 50 other Droids.",
      "howto": "Using the Force, take control of a Super Battle Droid and destroy 50 other Droids."
    },
    {
      "id": 37,
      "imageId": 37,
      "cred": 10,
      "flags": 1,
      "label": "Blending in",
      "description": "Have all your party members disguised as Senate Commandos in Hostage Crisis. (Story mode only)",
      "howto": "Have all your party members disguised as Senate Commandos in Hostage Crisis. (Story mode only)"
    },
    {
      "id": 38,
      "imageId": 38,
      "cred": 20,
      "flags": 1,
      "label": "They'll never see us coming",
      "description": "Win 3 consecutive Arcade Mode Battles.",
      "howto": "Win 3 consecutive Arcade Mode Battles."
    },
    {
      "id": 39,
      "imageId": 39,
      "cred": 10,
      "flags": 1,
      "label": "Attack of the clones!",
      "description": "Deploy 500 Clones.",
      "howto": "Deploy 500 Clones."
    },
    {
      "id": 40,
      "imageId": 40,
      "cred": 10,
      "flags": 1,
      "label": "Finders Keepers",
      "description": "Hijack 20 enemy units in Ground Battles.",
      "howto": "Hijack 20 enemy units in Ground Battles."
    },
    {
      "id": 41,
      "imageId": 41,
      "cred": 10,
      "flags": 1,
      "label": "Great shot kid",
      "description": "Destroy an enemy building with a proton torpedo",
      "howto": "Destroy an enemy building with a proton torpedo"
    },
    {
      "id": 42,
      "imageId": 42,
      "cred": 10,
      "flags": 1,
      "label": "It ain't like dusting crops boy",
      "description": "Complete: 5 Loop the loops, 5 Back flips, 5 corkscrews.",
      "howto": "Complete: 5 Loop the loops, 5 Back flips, 5 corkscrews."
    },
    {
      "id": 43,
      "imageId": 43,
      "cred": 10,
      "flags": 1,
      "label": "Land-o Calrissian",
      "description": "On a flying level, land a space ship whilst controlling Lando Calrissian.",
      "howto": "On a flying level, land a space ship whilst controlling Lando Calrissian."
    },
    {
      "id": 44,
      "imageId": 44,
      "cred": 50,
      "flags": 1,
      "label": "Jango's army!",
      "description": "Unlock/purchase all 'Clone' characters. (Single Player Only)",
      "howto": "Unlock/purchase all 'Clone' characters. (Single Player Only)"
    },
    {
      "id": 45,
      "imageId": 45,
      "cred": 50,
      "flags": 1,
      "label": "Clanker collector",
      "description": "Unlock/purchase all 'Droid' characters. (Single Player Only)",
      "howto": "Unlock/purchase all 'Droid' characters. (Single Player Only)"
    },
    {
      "id": 46,
      "imageId": 46,
      "cred": 70,
      "flags": 1,
      "label": "Jedi Master",
      "description": "True Jedi in every level. (Single Player Only)",
      "howto": "True Jedi in every level. (Single Player Only)"
    },
    {
      "id": 47,
      "imageId": 47,
      "cred": 70,
      "flags": 1,
      "label": "Cheat!",
      "description": "Collect all Red Power Bricks. (Single Player Only)",
      "howto": "Collect all Red Power Bricks. (Single Player Only)"
    },
    {
      "id": 48,
      "imageId": 48,
      "cred": 70,
      "flags": 1,
      "label": "Stealth wealth",
      "description": "Collect all Gold bricks. (Single Player Only)",
      "howto": "Collect all Gold bricks. (Single Player Only)"
    }
  ]
}