[
  {
    "titleId": 1480657116,
    "largeId": 131090,
    "smallId": 65554,
    "commonId": 18
  },
  {
    "titleId": 1480657116,
    "largeId": 131091,
    "smallId": 65555,
    "commonId": 19
  }
]