{
  "achievementsPossible": 26,
  "credPossible": 1000,
  "achievements": [
    {
      "id": 20,
      "imageId": 57,
      "cred": 25,
      "flags": 1,
      "label": "Warm-up",
      "description": "Win 1 game in solo mode",
      "howto": "Win 1 game in solo mode"
    },
    {
      "id": 21,
      "imageId": 58,
      "cred": 35,
      "flags": 1,
      "label": "Prove yourself in battle",
      "description": "Win 10 games in solo mode",
      "howto": "Win 10 games in solo mode"
    },
    {
      "id": 22,
      "imageId": 59,
      "cred": 50,
      "flags": 1,
      "label": "For Glory",
      "description": "Win 25 games in solo mode",
      "howto": "Win 25 games in solo mode"
    },
    {
      "id": 23,
      "imageId": 60,
      "cred": 50,
      "flags": 1,
      "label": "Hard-nosed!",
      "description": "Win 10 maximum difficulty games in solo mode",
      "howto": "Win 10 maximum difficulty games in solo mode"
    },
    {
      "id": 24,
      "imageId": 61,
      "cred": 35,
      "flags": 1,
      "label": "Lincoln's pride",
      "description": "Win 10 games as a Yankee in solo mode",
      "howto": "Win 10 games as a Yankee in solo mode"
    },
    {
      "id": 25,
      "imageId": 62,
      "cred": 35,
      "flags": 1,
      "label": "Approved by Lee",
      "description": "Win 10 games as a Confederate in solo mode",
      "howto": "Win 10 games as a Confederate in solo mode"
    },
    {
      "id": 26,
      "imageId": 63,
      "cred": 35,
      "flags": 1,
      "label": "All the ranks",
      "description": "Win 1 game in each difficulty level in solo mode",
      "howto": "Win 1 game in each difficulty level in solo mode"
    },
    {
      "id": 27,
      "imageId": 64,
      "cred": 50,
      "flags": 1,
      "label": "Grinder",
      "description": "Win 3 consecutive games against a strong AI in solo mode",
      "howto": "Win 3 consecutive games against a strong AI in solo mode"
    },
    {
      "id": 28,
      "imageId": 65,
      "cred": 25,
      "flags": 1,
      "label": "Shrewd strategist",
      "description": "Capture 25 states in solo mode",
      "howto": "Capture 25 states in solo mode"
    },
    {
      "id": 29,
      "imageId": 66,
      "cred": 35,
      "flags": 1,
      "label": "General",
      "description": "Capture 100 states in solo mode",
      "howto": "Capture 100 states in solo mode"
    },
    {
      "id": 35,
      "imageId": 67,
      "cred": 50,
      "flags": 1,
      "label": "Heroes",
      "description": "Capture 250 states in solo mode",
      "howto": "Capture 250 states in solo mode"
    },
    {
      "id": 36,
      "imageId": 68,
      "cred": 25,
      "flags": 1,
      "label": "Unbeatable",
      "description": "Win 1 battle in solo mode",
      "howto": "Win 1 battle in solo mode"
    },
    {
      "id": 37,
      "imageId": 69,
      "cred": 35,
      "flags": 1,
      "label": "Show no mercy",
      "description": "Win 15 battles in solo mode",
      "howto": "Win 15 battles in solo mode"
    },
    {
      "id": 38,
      "imageId": 70,
      "cred": 50,
      "flags": 1,
      "label": "Warlord",
      "description": "Win 50 battles in solo mode",
      "howto": "Win 50 battles in solo mode"
    },
    {
      "id": 39,
      "imageId": 71,
      "cred": 25,
      "flags": 1,
      "label": "Top shot",
      "description": "Win a fort attack in solo mode once (attack or defense)",
      "howto": "Win a fort attack in solo mode once (attack or defense)"
    },
    {
      "id": 40,
      "imageId": 72,
      "cred": 40,
      "flags": 1,
      "label": "Gatling gun",
      "description": "Win a fort attack in solo mode 15 times (attack or defense)",
      "howto": "Win a fort attack in solo mode 15 times (attack or defense)"
    },
    {
      "id": 43,
      "imageId": 73,
      "cred": 50,
      "flags": 1,
      "label": "Peacemaker",
      "description": "Win a fort attack in solo mode 50 times (attack or defense)",
      "howto": "Win a fort attack in solo mode 50 times (attack or defense)"
    },
    {
      "id": 44,
      "imageId": 74,
      "cred": 25,
      "flags": 1,
      "label": "Aspiring outlaw",
      "description": "Win a train attack in solo mode once (attack or defense)",
      "howto": "Win a train attack in solo mode once (attack or defense)"
    },
    {
      "id": 45,
      "imageId": 75,
      "cred": 40,
      "flags": 1,
      "label": "Train terror",
      "description": "Win a train attack in solo mode 15 times (attack or defense)",
      "howto": "Win a train attack in solo mode 15 times (attack or defense)"
    },
    {
      "id": 46,
      "imageId": 76,
      "cred": 50,
      "flags": 1,
      "label": "King of the train",
      "description": "Win a train attack in solo mode 50 times (attack or defense)",
      "howto": "Win a train attack in solo mode 50 times (attack or defense)"
    },
    {
      "id": 47,
      "imageId": 77,
      "cred": 25,
      "flags": 1,
      "label": "Twice as much fun",
      "description": "Finish a first game with 2 players",
      "howto": "Finish a first game with 2 players"
    },
    {
      "id": 48,
      "imageId": 78,
      "cred": 40,
      "flags": 1,
      "label": "Tactical specialist",
      "description": "Play 10 games with 2 players",
      "howto": "Play 10 games with 2 players"
    },
    {
      "id": 49,
      "imageId": 79,
      "cred": 50,
      "flags": 1,
      "label": "Tactical genius",
      "description": "Play 25 games with 2 players",
      "howto": "Play 25 games with 2 players"
    },
    {
      "id": 50,
      "imageId": 80,
      "cred": 40,
      "flags": 1,
      "label": "What... already?",
      "description": "Finish a game in less than 5 months in solo mode ",
      "howto": "Finish a game in less than 5 months in solo mode "
    },
    {
      "id": 51,
      "imageId": 81,
      "cred": 40,
      "flags": 1,
      "label": "Railroad adventurer",
      "description": "Control all 5 Forts simultaneously in solo mode",
      "howto": "Control all 5 Forts simultaneously in solo mode"
    },
    {
      "id": 52,
      "imageId": 82,
      "cred": 40,
      "flags": 1,
      "label": "Heavy artillery",
      "description": "Control 3 large armies simultaneously in solo mode",
      "howto": "Control 3 large armies simultaneously in solo mode"
    }
  ]
}