{
  "achievementsPossible": 70,
  "credPossible": 1500,
  "achievements": [
    {
      "id": 1,
      "imageId": 134,
      "cred": 10,
      "flags": 6,
      "label": "They Called Him Karn",
      "description": "Completed Museum Of Military Glory",
      "howto": "Complete Museum Of Military Glory"
    },
    {
      "id": 2,
      "imageId": 135,
      "cred": 10,
      "flags": 6,
      "label": "Open Arms",
      "description": "Completed Halvo Bay Military Academy",
      "howto": "Complete Halvo Bay Military Academy"
    },
    {
      "id": 3,
      "imageId": 136,
      "cred": 10,
      "flags": 6,
      "label": "The Real Thing",
      "description": "Completed Seahorse Hills",
      "howto": "Complete Seahorse Hills"
    },
    {
      "id": 4,
      "imageId": 137,
      "cred": 10,
      "flags": 6,
      "label": "Take Back This City",
      "description": "Completed Onyx Point",
      "howto": "Complete Onyx Point"
    },
    {
      "id": 5,
      "imageId": 138,
      "cred": 10,
      "flags": 6,
      "label": "I Told You",
      "description": "Completed Downtown Halvo Bay",
      "howto": "Complete Downtown Halvo Bay"
    },
    {
      "id": 6,
      "imageId": 139,
      "cred": 10,
      "flags": 6,
      "label": "This One's Not Over",
      "description": "Completed Courthouse",
      "howto": "Complete Courthouse"
    },
    {
      "id": 7,
      "imageId": 140,
      "cred": 10,
      "flags": 6,
      "label": "Friends",
      "description": "Completed Aftermath",
      "howto": "Complete Aftermath"
    },
    {
      "id": 8,
      "imageId": 141,
      "cred": 10,
      "flags": 6,
      "label": "Determined",
      "description": "Completed all Campaign Chapters on at least Casual difficulty",
      "howto": "Complete all Campaign Chapters on at least Casual difficulty"
    },
    {
      "id": 9,
      "imageId": 142,
      "cred": 10,
      "flags": 1,
      "label": "Steel Nerves",
      "description": "Completed all Campaign Chapters on at least Normal difficulty",
      "howto": "Complete all Campaign Chapters on at least Normal difficulty"
    },
    {
      "id": 10,
      "imageId": 143,
      "cred": 25,
      "flags": 1,
      "label": "Iron Fist",
      "description": "Completed all Campaign Chapters on at least Hardcore difficulty",
      "howto": "Complete all Campaign Chapters on at least Hardcore difficulty"
    },
    {
      "id": 11,
      "imageId": 144,
      "cred": 50,
      "flags": 1,
      "label": "Lion Heart",
      "description": "Completed all Campaign Chapters on Insane difficulty",
      "howto": "Complete all Campaign Chapters on Insane difficulty"
    },
    {
      "id": 12,
      "imageId": 145,
      "cred": 10,
      "flags": 1,
      "label": "Party People",
      "description": "Played any section in 4 player Co-Op",
      "howto": "Play any section in 4 player Co-Op"
    },
    {
      "id": 13,
      "imageId": 146,
      "cred": 50,
      "flags": 1,
      "label": "Blood Brothers",
      "description": "Completed all Campaign Chapters in Co-op",
      "howto": "Complete all Campaign Chapters in Co-op"
    },
    {
      "id": 14,
      "imageId": 147,
      "cred": 5,
      "flags": 4,
      "label": "Challenge Accepted",
      "description": "Completed your first Declassified mission",
      "howto": "Complete your first Declassified mission"
    },
    {
      "id": 15,
      "imageId": 150,
      "cred": 10,
      "flags": 1,
      "label": "Never Give Up",
      "description": "Completed at least 20 Declassified missions",
      "howto": "Complete at least 20 Declassified missions"
    },
    {
      "id": 16,
      "imageId": 151,
      "cred": 50,
      "flags": 1,
      "label": "Quality Soldiering",
      "description": "Completed all Declassified missions",
      "howto": "Complete all Declassified missions"
    },
    {
      "id": 17,
      "imageId": 148,
      "cred": 10,
      "flags": 3,
      "label": "A Peek into the Future",
      "description": "Watched Aftermath teaser",
      "howto": "Watch the Aftermath teaser"
    },
    {
      "id": 18,
      "imageId": 149,
      "cred": 20,
      "flags": 3,
      "label": "The Aftermath",
      "description": "Unlocked Aftermath",
      "howto": "Unlock Aftermath"
    },
    {
      "id": 19,
      "imageId": 153,
      "cred": 10,
      "flags": 1,
      "label": "Rising Star",
      "description": "Attained 50 Stars on at least Casual Difficulty",
      "howto": "Attain 50 Stars on at least Casual Difficulty"
    },
    {
      "id": 20,
      "imageId": 154,
      "cred": 20,
      "flags": 1,
      "label": "Shooting Star",
      "description": "Attained 75 Stars on at least Normal Difficulty",
      "howto": "Attain 75 Stars on at least Normal Difficulty"
    },
    {
      "id": 21,
      "imageId": 155,
      "cred": 50,
      "flags": 1,
      "label": "Star Struck",
      "description": "Attained 100 Stars on at least Hardcore Difficulty",
      "howto": "Attain 100 Stars on at least Hardcore Difficulty"
    },
    {
      "id": 22,
      "imageId": 156,
      "cred": 50,
      "flags": 1,
      "label": "Superstar",
      "description": "Attained all Stars on Insane Difficulty",
      "howto": "Attain all Stars on Insane Difficulty"
    },
    {
      "id": 23,
      "imageId": 157,
      "cred": 10,
      "flags": 1,
      "label": "Never Forgotten",
      "description": "Recovered 10 COG Tags during the Campaign",
      "howto": "Recover 10 COG Tags during the Campaign"
    },
    {
      "id": 24,
      "imageId": 158,
      "cred": 10,
      "flags": 1,
      "label": "Veteran Remembrance",
      "description": "Recovered 25 COG Tags during the Campaign",
      "howto": "Recover 25 COG Tags during the Campaign"
    },
    {
      "id": 25,
      "imageId": 159,
      "cred": 20,
      "flags": 1,
      "label": "Respect for the Fallen",
      "description": "Recovered all 48 COG Tags during the Campaign",
      "howto": "Recover all 48 COG Tags during the Campaign"
    },
    {
      "id": 26,
      "imageId": 152,
      "cred": 10,
      "flags": 4,
      "label": "Ribbon Master",
      "description": "Earned 3 unique Ribbons in any section",
      "howto": "Earn 3 unique Ribbons in any section"
    },
    {
      "id": 27,
      "imageId": 166,
      "cred": 5,
      "flags": 2,
      "label": "Proud Wearer",
      "description": "Equipped your first Medal",
      "howto": "Equip your first Medal"
    },
    {
      "id": 28,
      "imageId": 167,
      "cred": 20,
      "flags": 4,
      "label": "Ready for War",
      "description": "Earned at least one Onyx medal",
      "howto": "Earn at least one Onyx medal"
    },
    {
      "id": 29,
      "imageId": 168,
      "cred": 50,
      "flags": 4,
      "label": "Sybarite",
      "description": "Earned the Onyx \"War Supporter\" medal",
      "howto": "Earn the Onyx \"War Supporter\" medal"
    },
    {
      "id": 30,
      "imageId": 179,
      "cred": 75,
      "flags": 1,
      "label": "Seriously Judgmental",
      "description": "Completed all Declassified Missions on Insane difficulty",
      "howto": "Complete all Declassified Missions on Insane difficulty"
    },
    {
      "id": 31,
      "imageId": 160,
      "cred": 5,
      "flags": 2,
      "label": "Level 5",
      "description": "Reached level 5",
      "howto": "Reach level 5"
    },
    {
      "id": 32,
      "imageId": 161,
      "cred": 10,
      "flags": 2,
      "label": "Level 10",
      "description": "Reached level 10",
      "howto": "Reach level 10"
    },
    {
      "id": 33,
      "imageId": 162,
      "cred": 10,
      "flags": 2,
      "label": "Level 20",
      "description": "Reached level 20",
      "howto": "Reach level 20"
    },
    {
      "id": 34,
      "imageId": 163,
      "cred": 15,
      "flags": 2,
      "label": "Level 30",
      "description": "Reached level 30",
      "howto": "Reach level 30"
    },
    {
      "id": 35,
      "imageId": 164,
      "cred": 25,
      "flags": 2,
      "label": "Level 40",
      "description": "Reached level 40",
      "howto": "Reach level 40"
    },
    {
      "id": 36,
      "imageId": 165,
      "cred": 25,
      "flags": 2,
      "label": "Level 50",
      "description": "Reached level 50",
      "howto": "Reach level 50"
    },
    {
      "id": 37,
      "imageId": 177,
      "cred": 50,
      "flags": 2,
      "label": "Let's Do This",
      "description": "Achieved level 50 and chose to re-up for another tour of duty",
      "howto": "Achieve level 50 and choose to re-up for another tour of duty"
    },
    {
      "id": 38,
      "imageId": 178,
      "cred": 50,
      "flags": 2,
      "label": "Fearless",
      "description": "Achieved level 50 a second time and chose to re-up for another tour",
      "howto": "Achieve level 50 a second time and choose to re-up for another tour"
    },
    {
      "id": 39,
      "imageId": 183,
      "cred": 50,
      "flags": 2,
      "label": "Unstoppable",
      "description": "Achieved level 50 a third time and chose to re-up for another tour",
      "howto": "Achieve level 50 a third time and choose to re-up for another tour"
    },
    {
      "id": 40,
      "imageId": 169,
      "cred": 10,
      "flags": 1,
      "label": "Death to Locust",
      "description": "Killed with all classes of COG in Overrun or Survival",
      "howto": "Kill with all classes of COG in Overrun or Survival"
    },
    {
      "id": 41,
      "imageId": 170,
      "cred": 10,
      "flags": 1,
      "label": "Death to the COG",
      "description": "Killed with all classes of Locust in Overrun",
      "howto": "Kill with all classes of Locust in Overrun"
    },
    {
      "id": 42,
      "imageId": 182,
      "cred": 10,
      "flags": 1,
      "label": "Survivor",
      "description": "Completed wave 10 on all maps in Survival mode",
      "howto": "Complete wave 10 on all maps in Survival mode"
    },
    {
      "id": 43,
      "imageId": 181,
      "cred": 10,
      "flags": 1,
      "label": "Globe Trotter",
      "description": "Won a match on every map in all Versus modes",
      "howto": "Win a match on every map in all Versus modes"
    },
    {
      "id": 44,
      "imageId": 171,
      "cred": 10,
      "flags": 1,
      "label": "Jack of All Trades",
      "description": "Won 10 matches of Overrun",
      "howto": "Win 10 matches of Overrun"
    },
    {
      "id": 45,
      "imageId": 180,
      "cred": 10,
      "flags": 1,
      "label": "Team Leader",
      "description": "Won 10 rounds of Team Deathmatch",
      "howto": "Win 10 rounds of Team Deathmatch"
    },
    {
      "id": 46,
      "imageId": 172,
      "cred": 10,
      "flags": 1,
      "label": "All Rounder",
      "description": "Won one match in Free For All, Team Deathmatch, and Domination",
      "howto": "Win one match in Free For All, Team Deathmatch, and Domination"
    },
    {
      "id": 47,
      "imageId": 173,
      "cred": 10,
      "flags": 1,
      "label": "Roaming Free",
      "description": "Won one match on every map in Free For All",
      "howto": "Win one match on every map in Free For All"
    },
    {
      "id": 48,
      "imageId": 174,
      "cred": 10,
      "flags": 1,
      "label": "Team On Tour",
      "description": "Won one match on every map in Team Deathmatch",
      "howto": "Win one match on every map in Team Deathmatch"
    },
    {
      "id": 49,
      "imageId": 175,
      "cred": 10,
      "flags": 1,
      "label": "Overran",
      "description": "Won one match on every map in Overrun",
      "howto": "Win one match on every map in Overrun"
    },
    {
      "id": 50,
      "imageId": 176,
      "cred": 10,
      "flags": 1,
      "label": "Dominator",
      "description": "Won one match on every map in Domination",
      "howto": "Win one match on every map in Domination"
    },
    {
      "id": 51,
      "imageId": 184,
      "cred": 50,
      "flags": 1,
      "label": "BOOSHKA!",
      "description": "Earned 50 Double ribbons with the Booshka on Terminal",
      "howto": "Earn 50 Double ribbons with the Booshka on Terminal"
    },
    {
      "id": 52,
      "imageId": 185,
      "cred": 25,
      "flags": 1,
      "label": "Don’t you die on me!",
      "description": "Revived 100 total teammates on Terminal as a Medic",
      "howto": "Revive 100 total teammates on Terminal as a Medic"
    },
    {
      "id": 53,
      "imageId": 186,
      "cred": 10,
      "flags": 4,
      "label": "Surprise!",
      "description": "Got a Double while emerging as a Corpser",
      "howto": "Get a Double while emerging as a Corpser"
    },
    {
      "id": 54,
      "imageId": 187,
      "cred": 75,
      "flags": 1,
      "label": "Professional Locust",
      "description": "Killed 100 enemies with each Locust",
      "howto": "Kill 100 enemies with each Locust"
    },
    {
      "id": 55,
      "imageId": 188,
      "cred": 25,
      "flags": 4,
      "label": "All Aboard!",
      "description": "Won Hardcore Survival on Terminal with 5 Soldiers",
      "howto": "Win Hardcore Survival on Terminal with 5 Soldiers"
    },
    {
      "id": 56,
      "imageId": 189,
      "cred": 10,
      "flags": 4,
      "label": "Captain Sera",
      "description": "Earned a killing spree with the Boomshield on Boneyard",
      "howto": "Earn a killing spree with the Boomshield on Boneyard"
    },
    {
      "id": 57,
      "imageId": 190,
      "cred": 10,
      "flags": 4,
      "label": "Long Bomb",
      "description": "Earned the You’re It ribbon on Boneyard",
      "howto": "Earn the You’re It ribbon on Boneyard"
    },
    {
      "id": 58,
      "imageId": 195,
      "cred": 10,
      "flags": 1,
      "label": "Old School Marathon",
      "description": "Played 10 matches total on BloodDrive",
      "howto": "Play 10 matches total on BloodDrive"
    },
    {
      "id": 59,
      "imageId": 193,
      "cred": 15,
      "flags": 1,
      "label": "Like A Boss",
      "description": "Placed first in Free For All in Boneyard 5 times",
      "howto": "Place first in Free For All in Boneyard 5 times"
    },
    {
      "id": 60,
      "imageId": 194,
      "cred": 20,
      "flags": 4,
      "label": "You Looking At Me?",
      "description": "Won a Team Death Match game with the entire team wearing the Car 13 Armor skin",
      "howto": "Win a Team Death Match game with the entire team wearing the Car 13 Armor skin"
    },
    {
      "id": 61,
      "imageId": 196,
      "cred": 10,
      "flags": 4,
      "label": "You Can’t Hide",
      "description": "Earned the Tree House Predator ribbon on Ward",
      "howto": "Earn the Tree House Predator ribbon on Ward"
    },
    {
      "id": 62,
      "imageId": 197,
      "cred": 30,
      "flags": 4,
      "label": "Getting it Done",
      "description": "Destroyed the generator in under 8 minutes on any DLC map",
      "howto": "Destroy the generator in under 8 minutes on any DLC map"
    },
    {
      "id": 63,
      "imageId": 198,
      "cred": 10,
      "flags": 4,
      "label": "Dread the Rage",
      "description": "Got a multi-kill while playing as an enraged Rager on Ward",
      "howto": "Get a multi-kill while playing as an enraged Rager on Ward"
    },
    {
      "id": 64,
      "imageId": 199,
      "cred": 50,
      "flags": 4,
      "label": "Drop the Mic",
      "description": "Finished wave 10 of Survival at the first e-hole on Ward on at least Normal difficulty",
      "howto": "Finish wave 10 of Survival at the first e-hole on Ward on at least Normal difficulty"
    },
    {
      "id": 65,
      "imageId": 200,
      "cred": 25,
      "flags": 1,
      "label": "Flag Runner",
      "description": "Scored a flag cap on Streets, Rig, Gondola, Library, Lost City, Museum, and Checkout",
      "howto": "Score a flag cap on Streets, Rig, Gondola, Library, Lost City, Museum, and Checkout"
    },
    {
      "id": 66,
      "imageId": 201,
      "cred": 15,
      "flags": 1,
      "label": "Look What I Found",
      "description": "Got a kill with each pickup weapon in FFA during a single game on the map Lost City",
      "howto": "Get a kill with each pickup weapon in FFA during a single game on the map Lost City"
    },
    {
      "id": 67,
      "imageId": 202,
      "cred": 20,
      "flags": 1,
      "label": "Flag Dropped",
      "description": "Killed the flag carrier a total of 20 times",
      "howto": "Kill the flag carrier a total of 20 times"
    },
    {
      "id": 68,
      "imageId": 203,
      "cred": 40,
      "flags": 1,
      "label": "Pendulum Wars",
      "description": "Won a TDM, DOM, and BT match with your entire team wearing the UIR Armor skin",
      "howto": "Win a TDM, DOM, and BT match with your entire team wearing the UIR Armor skin"
    },
    {
      "id": 69,
      "imageId": 204,
      "cred": 20,
      "flags": 1,
      "label": "For Gorasnaya!",
      "description": "Scored 5 flags in BT as Paduk",
      "howto": "Score 5 flags in BT as Paduk"
    },
    {
      "id": 70,
      "imageId": 205,
      "cred": 30,
      "flags": 4,
      "label": "Golden Artifacts",
      "description": "Won public/ranked game of Execution on Museum with all players using Gold character and weapon skins",
      "howto": "Win public/ranked game of Execution on Museum with all players using Gold character and weapon skins"
    }
  ]
}