{
  "achievementsPossible": 50,
  "credPossible": 1000,
  "achievements": [
    {
      "id": 1,
      "imageId": 2,
      "cred": 15,
      "flags": 1,
      "label": "Cashews on The Counter",
      "description": "Complete the Tutorial",
      "howto": "Complete the tutorial\r\n"
    },
    {
      "id": 2,
      "imageId": 3,
      "cred": 15,
      "flags": 1,
      "label": "The Iron Triangle",
      "description": "Complete Chapter 1\r\n",
      "howto": "Complete Chapter 1\r\n"
    },
    {
      "id": 3,
      "imageId": 4,
      "cred": 15,
      "flags": 1,
      "label": "Rockstar",
      "description": "Complete Chapter 2\r\n",
      "howto": "Complete Chapter 2"
    },
    {
      "id": 4,
      "imageId": 5,
      "cred": 15,
      "flags": 1,
      "label": "Kung Fu Graphics",
      "description": "Complete Chapter 3\r\n",
      "howto": "Complete Chapter 3"
    },
    {
      "id": 5,
      "imageId": 6,
      "cred": 15,
      "flags": 1,
      "label": "Mr. Furious",
      "description": "Complete Chapter 4",
      "howto": "Complete Chapter 4"
    },
    {
      "id": 6,
      "imageId": 7,
      "cred": 15,
      "flags": 1,
      "label": "Whatever It Takes",
      "description": "Complete Chapter 5",
      "howto": "Complete Chapter 5"
    },
    {
      "id": 7,
      "imageId": 8,
      "cred": 25,
      "flags": 1,
      "label": "Business of Makin' Sausage",
      "description": "Complete Chapter 6",
      "howto": "Complete Chapter 6"
    },
    {
      "id": 8,
      "imageId": 9,
      "cred": 25,
      "flags": 1,
      "label": "Piddlin' in the Porridge",
      "description": "Adventure Mode - Finished a game where one player drank the Sleg ",
      "howto": "Adventure Mode - Finished a game where one player drank the Sleg "
    },
    {
      "id": 9,
      "imageId": 10,
      "cred": 100,
      "flags": 1,
      "label": "Above the Influence",
      "description": "Adventure Mode - Finished a game where neither player drank Sleg",
      "howto": "Adventure Mode - Finished a game where neither player drank Sleg"
    },
    {
      "id": 10,
      "imageId": 11,
      "cred": 30,
      "flags": 1,
      "label": "Sandy V.",
      "description": "Adventure Mode - Defeat all bosses as E'lara",
      "howto": "Adventure Mode - Defeat all bosses as E'lara"
    },
    {
      "id": 11,
      "imageId": 12,
      "cred": 30,
      "flags": 1,
      "label": "Situation",
      "description": "Adventure Mode - Defeat all bosses as Caddoc",
      "howto": "Adventure Mode - Defeat all bosses as Caddoc"
    },
    {
      "id": 12,
      "imageId": 13,
      "cred": 15,
      "flags": 1,
      "label": "Crystal Clear",
      "description": "Adventure Mode - Collect all possible crystals throughout the game\r\n",
      "howto": "Adventure Mode - Collect all possible crystals throughout the game\r\n"
    },
    {
      "id": 13,
      "imageId": 14,
      "cred": 15,
      "flags": 1,
      "label": "Like Butter",
      "description": "Equip a Rare, or better, quality weapon in both inventory slots",
      "howto": "Equip a Rare, or better, quality weapon in both inventory slots"
    },
    {
      "id": 14,
      "imageId": 15,
      "cred": 15,
      "flags": 1,
      "label": "All That and a Bag of Chips",
      "description": "Obtain an Epic quality weapon",
      "howto": "Obtain an Epic quality weapon"
    },
    {
      "id": 15,
      "imageId": 16,
      "cred": 15,
      "flags": 1,
      "label": "It's All a Top Priority",
      "description": "Adventure Mode - Use the Deathstone to communicate with every spirit in the game\r\n",
      "howto": "Adventure Mode - Used the Deathstone to communicate with every spirit in the game\r\n"
    },
    {
      "id": 16,
      "imageId": 17,
      "cred": 50,
      "flags": 1,
      "label": "Don't Cry, Little Dragon",
      "description": "Adventure Mode - Find all Dragon Tears in the game",
      "howto": "Adventure Mode - Find all Dragon Tears in the game"
    },
    {
      "id": 17,
      "imageId": 19,
      "cred": 15,
      "flags": 1,
      "label": "Life Support",
      "description": "Adventure Mode - Revive your fallen companion 20 times during the game",
      "howto": "Adventure Mode - Revive your fallen companion 20 times during the game"
    },
    {
      "id": 18,
      "imageId": 20,
      "cred": 15,
      "flags": 1,
      "label": "Raise the Not Quite Dead",
      "description": "Adventure Mode - Cooperatively kill 50 levitating enemies",
      "howto": "Adventure Mode - Cooperatively kill 50 levitating enemies"
    },
    {
      "id": 19,
      "imageId": 21,
      "cred": 15,
      "flags": 1,
      "label": "Ice Queen",
      "description": "Adventure Mode - Cooperatively kill 50 frozen enemies",
      "howto": "Adventure Mode - Cooperatively kill 50 frozen enemies"
    },
    {
      "id": 20,
      "imageId": 22,
      "cred": 15,
      "flags": 1,
      "label": "You Broke It, They Bought It",
      "description": "Shatter the shields of 50 enemies",
      "howto": "Shatter the shields of 50 enemies"
    },
    {
      "id": 21,
      "imageId": 23,
      "cred": 15,
      "flags": 1,
      "label": "Kaboom",
      "description": "Kill at least 3 enemies with one explosion",
      "howto": "Kill at least 3 enemies with one explosion"
    },
    {
      "id": 22,
      "imageId": 24,
      "cred": 15,
      "flags": 1,
      "label": "Is Something Burning?",
      "description": "Kill 20 enemies using explosive barrels",
      "howto": "Kill 20 enemies using explosive barrels"
    },
    {
      "id": 23,
      "imageId": 26,
      "cred": 15,
      "flags": 1,
      "label": "Joined at the Hip ",
      "description": "Adventure Mode - Perform a Spell Link with your companion 20 times during the game",
      "howto": "Adventure Mode - Perform a Spell Link with your companion 20 times during the game"
    },
    {
      "id": 24,
      "imageId": 27,
      "cred": 15,
      "flags": 1,
      "label": "Pump YOU Up",
      "description": "Adventure Mode - Battle Charge your companion 50 times during the game",
      "howto": "Adventure Mode - Battle Charge your companion 50 times during the game"
    },
    {
      "id": 25,
      "imageId": 29,
      "cred": 15,
      "flags": 1,
      "label": "God Complex",
      "description": "Create your own Crucible level",
      "howto": "Create your own Crucible level"
    },
    {
      "id": 26,
      "imageId": 30,
      "cred": 15,
      "flags": 1,
      "label": "One Man Wolf Pack",
      "description": "Unlock 1st piece of Crucible content",
      "howto": "Unlock 1st piece of Crucible content"
    },
    {
      "id": 27,
      "imageId": 31,
      "cred": 15,
      "flags": 1,
      "label": "Dungeon Makeover",
      "description": "Unlock 50% of Crucible content",
      "howto": "Unlock 50% of Crucible content"
    },
    {
      "id": 28,
      "imageId": 32,
      "cred": 50,
      "flags": 1,
      "label": "Dungeon Master",
      "description": "Unlock all Crucible content",
      "howto": "Unlock all Crucible content"
    },
    {
      "id": 29,
      "imageId": 33,
      "cred": 50,
      "flags": 1,
      "label": "LF1M Dungeon Crawl",
      "description": "Complete a 25 room map in Crucible",
      "howto": "Complete a 25 room map in Crucible\r\n"
    },
    {
      "id": 30,
      "imageId": 34,
      "cred": 50,
      "flags": 1,
      "label": "Late to the Party",
      "description": "Adventure Mode - Free all bound prisoners throughout the game",
      "howto": "Adventure Mode - Free all bound prisoners throughout the game"
    },
    {
      "id": 31,
      "imageId": 36,
      "cred": 15,
      "flags": 1,
      "label": "Not on My Watch",
      "description": "Kill a fleeing Wargar in the town of Dyfed",
      "howto": "Kill a fleeing Wargar in the town of Dyfed"
    },
    {
      "id": 32,
      "imageId": 40,
      "cred": 15,
      "flags": 1,
      "label": "Rampage",
      "description": "Kill 20 Wargar before the crane platform gets to the bottom in the Dungeons of Dyfed",
      "howto": "Kill 20 Wargar before the crane platform gets to the bottom in the Dungeons of Dyfed"
    },
    {
      "id": 33,
      "imageId": 43,
      "cred": 15,
      "flags": 1,
      "label": "Catch!",
      "description": "Escape the Collapsing Aqueduct without taking any damage",
      "howto": "Escape the Collapsing Aqueduct without taking any damage"
    },
    {
      "id": 34,
      "imageId": 44,
      "cred": 15,
      "flags": 1,
      "label": "Bull in a China Shop",
      "description": "Trick the Minotaur into destroying all the pillars in the Arches of Fire section in Llyr",
      "howto": "Trick the Minotaur into destroying all the pillars in the Arches of Fire section in Llyr"
    },
    {
      "id": 35,
      "imageId": 45,
      "cred": 15,
      "flags": 1,
      "label": "Eye for an Eye",
      "description": "Kill an Eye of Annuvin before it can summon reinforcements on the Road to Kala Moor",
      "howto": "Kill an Eye of Annuvin before it can summon reinforcements on the Road to Kala Moor"
    },
    {
      "id": 36,
      "imageId": 46,
      "cred": 15,
      "flags": 1,
      "label": "Razor Sharp",
      "description": "Kill 15 enemies with the Forest flechette gun on the Road to Kala Moor",
      "howto": "Kill 15 enemies with the Forest flechette gun on the Road to Kala Moor"
    },
    {
      "id": 37,
      "imageId": 48,
      "cred": 15,
      "flags": 1,
      "label": "I'll Huff and I'll Puff...",
      "description": "Trick a blind dragon into shooting down the weak tower in the depths of Kala Moor",
      "howto": "Trick a blind dragon into shooting down the weak tower in the depths of Kala Moor"
    },
    {
      "id": 38,
      "imageId": 50,
      "cred": 50,
      "flags": 1,
      "label": "Gold Finger",
      "description": "Amass 100,000 gold",
      "howto": "Amass 100,000 gold"
    },
    {
      "id": 39,
      "imageId": 51,
      "cred": 10,
      "flags": 1,
      "label": "Hello Nurse!",
      "description": "As E'lara, defeat the Infected at the end of Chapter 1",
      "howto": "As E'lara, defeat the Infected at the end of Chapter 1"
    },
    {
      "id": 40,
      "imageId": 52,
      "cred": 10,
      "flags": 1,
      "label": "The Dr. Is In",
      "description": "As Caddoc, defeat the Infected at the end of Chapter 1",
      "howto": "As Caddoc, defeat the Infected at the end of Chapter 1"
    },
    {
      "id": 41,
      "imageId": 53,
      "cred": 10,
      "flags": 1,
      "label": "Exterminatrix",
      "description": "As E'lara, squash the spider god while holding Caddoc’s hand in Chapter 2",
      "howto": "As E'lara, squash the spider god while holding Caddoc’s hand in Chapter 2"
    },
    {
      "id": 42,
      "imageId": 54,
      "cred": 10,
      "flags": 1,
      "label": "Arachnophobe",
      "description": "As Caddoc, conquer your fear as well as the spider god in Chapter 2",
      "howto": "As Caddoc, conquer your fear as well as the spider god in Chapter 2"
    },
    {
      "id": 43,
      "imageId": 55,
      "cred": 10,
      "flags": 1,
      "label": "Cat Fight",
      "description": "Kill the assassin at the docks in Chapter 3 as E'lara",
      "howto": "Kill the assassin at the docks in Chapter 3 as E'lara"
    },
    {
      "id": 44,
      "imageId": 56,
      "cred": 10,
      "flags": 1,
      "label": "Basic Instinct",
      "description": "Kill the assassin at the docks in Chapter 3 as Caddoc",
      "howto": "Kill the assassin at the docks in Chapter 3 as Caddoc"
    },
    {
      "id": 45,
      "imageId": 57,
      "cred": 10,
      "flags": 1,
      "label": "Banished",
      "description": "As E'lara, send the demon in the library back to hell at the end of Chapter 4",
      "howto": "As E'lara, send the demon in the library back to hell at the end of Chapter 4"
    },
    {
      "id": 46,
      "imageId": 58,
      "cred": 10,
      "flags": 1,
      "label": "Exorcist",
      "description": "As Caddoc, send the demon in the library back to hell at the end of Chapter 4",
      "howto": "As Caddoc, send the demon in the library back to hell at the end of Chapter 4"
    },
    {
      "id": 47,
      "imageId": 59,
      "cred": 10,
      "flags": 1,
      "label": "Boots and a Handbag",
      "description": "As E'lara, kill the Blind Dragon at the conclusion of Chapter 5",
      "howto": "As E'lara, kill the Blind Dragon at the conclusion of Chapter 5"
    },
    {
      "id": 48,
      "imageId": 60,
      "cred": 10,
      "flags": 1,
      "label": "Grounded",
      "description": "As Caddoc, Put down the Blind Dragon at the conclusion of Chapter 5",
      "howto": "As Caddoc, Put down the Blind Dragon at the conclusion of Chapter 5"
    },
    {
      "id": 49,
      "imageId": 61,
      "cred": 10,
      "flags": 1,
      "label": "Femme Fatale",
      "description": "Defeat Annuvin as E'lara",
      "howto": "Defeat Annuvin as E'lara"
    },
    {
      "id": 50,
      "imageId": 62,
      "cred": 10,
      "flags": 1,
      "label": "Man Slaughter",
      "description": "Defeat Annuvin as Caddoc",
      "howto": "Defeat Annuvin as Caddoc"
    }
  ]
}