{
  "achievementsPossible": 49,
  "credPossible": 1000,
  "achievements": [
    {
      "id": 1,
      "imageId": 38,
      "cred": 10,
      "flags": 1,
      "label": "Genesis",
      "description": "As the Lead Profile, Create a Player",
      "howto": "As the Lead Profile, Create a Player"
    },
    {
      "id": 2,
      "imageId": 25,
      "cred": 10,
      "flags": 1,
      "label": "Online First",
      "description": "As the Lead Profile in a single player game win an Xbox LIVE ranked Match",
      "howto": "As the Lead Profile in a single player game win an Xbox LIVE ranked Match"
    },
    {
      "id": 4,
      "imageId": 37,
      "cred": 20,
      "flags": 1,
      "label": "Tournament Creation",
      "description": "As the Lead Profile in a single player game create a tournament",
      "howto": "As the Lead Profile in a single player game create a tournament"
    },
    {
      "id": 5,
      "imageId": 3,
      "cred": 10,
      "flags": 1,
      "label": "English League",
      "description": "As the Lead Profile in a single player game win the Barclays Premier League in Manager Mode",
      "howto": "As the Lead Profile in a single player game win the Barclays Premier League in Manager Mode"
    },
    {
      "id": 6,
      "imageId": 6,
      "cred": 10,
      "flags": 1,
      "label": "German League",
      "description": "As the Lead Profile in a single player game win the Bundesliga in Manager Mode",
      "howto": "As the Lead Profile in a single player game win the Bundesliga in Manager Mode"
    },
    {
      "id": 7,
      "imageId": 7,
      "cred": 10,
      "flags": 1,
      "label": "Italian League",
      "description": "As the Lead Profile in a single player game win Serie A in Manager Mode",
      "howto": "As the Lead Profile in a single player game win Serie A in Manager Mode"
    },
    {
      "id": 8,
      "imageId": 11,
      "cred": 10,
      "flags": 1,
      "label": "French League",
      "description": "As the Lead Profile in a single player game win League 1 Orange in Manager Mode",
      "howto": "As the Lead Profile in a single player game win League 1 Orange in Manager Mode"
    },
    {
      "id": 9,
      "imageId": 5,
      "cred": 10,
      "flags": 1,
      "label": "Dutch League",
      "description": "As the Lead Profile in a single player game win the Dutch Eredivisie in Manager Mode",
      "howto": "As the Lead Profile in a single player game win the Dutch Eredivisie in Manager Mode"
    },
    {
      "id": 10,
      "imageId": 4,
      "cred": 10,
      "flags": 1,
      "label": "US League",
      "description": "As the Lead Profile in a single player game win the MLS in Manager Mode",
      "howto": "As the Lead Profile in a single player game win the MLS in Manager Mode"
    },
    {
      "id": 11,
      "imageId": 2,
      "cred": 10,
      "flags": 1,
      "label": "Spanish League",
      "description": "As the Lead Profile in a single player game win the Spanish Primera in Manager Mode",
      "howto": "As the Lead Profile in a single player game win the Spanish Primera in Manager Mode"
    },
    {
      "id": 13,
      "imageId": 22,
      "cred": 20,
      "flags": 1,
      "label": "Scruffysocks scores",
      "description": "As the Lead Profile in a single player game score a Hat Trick with a created Player",
      "howto": "As the Lead Profile in a single player game score a Hat Trick with a created Player"
    },
    {
      "id": 14,
      "imageId": 16,
      "cred": 5,
      "flags": 1,
      "label": "Grass Roots",
      "description": "As the Lead Profile in a single player game win an Amateur game vs. the CPU",
      "howto": "As the Lead Profile in a single player game win an Amateur game vs. the CPU"
    },
    {
      "id": 15,
      "imageId": 17,
      "cred": 10,
      "flags": 1,
      "label": "Part Time Player",
      "description": "As the Lead Profile in a single player game win a Semi-Professional game vs. the CPU",
      "howto": "As the Lead Profile in a single player game win a Semi-Professional game vs. the CPU"
    },
    {
      "id": 16,
      "imageId": 14,
      "cred": 20,
      "flags": 1,
      "label": "Professional Footballer",
      "description": "As the Lead Profile in a single player game win a Professional game vs. the CPU",
      "howto": "As the Lead Profile in a single player game win a Professional game vs. the CPU"
    },
    {
      "id": 17,
      "imageId": 13,
      "cred": 30,
      "flags": 1,
      "label": "World Class Player",
      "description": "As the Lead Profile in a single player game win a World Class game vs. the CPU",
      "howto": "As the Lead Profile in a single player game win a World Class game vs. the CPU"
    },
    {
      "id": 18,
      "imageId": 15,
      "cred": 45,
      "flags": 1,
      "label": "The Legend",
      "description": "As the Lead Profile in a single player game win a Legendary game vs. the CPU",
      "howto": "As the Lead Profile in a single player game win a Legendary game vs. the CPU"
    },
    {
      "id": 19,
      "imageId": 18,
      "cred": 20,
      "flags": 1,
      "label": "Competition Winner",
      "description": "As the Lead Profile Win a Created tournament",
      "howto": "As the Lead Profile Win a Created tournament"
    },
    {
      "id": 20,
      "imageId": 29,
      "cred": 20,
      "flags": 4,
      "label": "World Wide Hat Trick",
      "description": "As the Lead Profile in a single player game score a Hat Trick in a ranked Xbox LIVE match",
      "howto": "As the Lead Profile in a single player game score a Hat Trick in a ranked Xbox LIVE match"
    },
    {
      "id": 21,
      "imageId": 10,
      "cred": 10,
      "flags": 1,
      "label": "Defensive Hero",
      "description": "As the Lead Profile in a single player game win Man of the Match as a Defender on World Class",
      "howto": "As the Lead Profile in a single player game win Man of the Match as a Defender on World Class"
    },
    {
      "id": 22,
      "imageId": 8,
      "cred": 10,
      "flags": 1,
      "label": "Midfield Maestro",
      "description": "As the Lead Profile in a single player game win Man of the Match as a Midfielder on World Class",
      "howto": "As the Lead Profile in a single player game win Man of the Match as a Midfielder on World Class"
    },
    {
      "id": 23,
      "imageId": 9,
      "cred": 10,
      "flags": 1,
      "label": "Poacher",
      "description": "As the Lead Profile in a single player game win Man of the Match as a Forward on World Class",
      "howto": "As the Lead Profile in a single player game win Man of the Match as a Forward on World Class"
    },
    {
      "id": 24,
      "imageId": 24,
      "cred": 10,
      "flags": 1,
      "label": "Real World",
      "description": "As the Lead Profile, Play an Online Interactive Leagues game to completion ",
      "howto": "As the Lead Profile, Play an Online Interactive Leagues game to completion "
    },
    {
      "id": 26,
      "imageId": 12,
      "cred": 20,
      "flags": 1,
      "label": "Extra bonus",
      "description": "As the Lead Profile in a single player game win by 2 goals in Extra Time on World Class",
      "howto": "As the Lead Profile in a single player game win by 2 goals in Extra Time on World Class"
    },
    {
      "id": 27,
      "imageId": 21,
      "cred": 30,
      "flags": 1,
      "label": "World Class Finisher",
      "description": "As the Lead Profile in a single player game score more than 5 goals on World Class",
      "howto": "As the Lead Profile in a single player game score more than 5 goals on World Class"
    },
    {
      "id": 28,
      "imageId": 34,
      "cred": 10,
      "flags": 1,
      "label": "5 game streak",
      "description": "As the Lead Profile in a single player game have a 5 game winning streak on Professional",
      "howto": "As the Lead Profile in a single player game have a 5 game winning streak on Professional"
    },
    {
      "id": 29,
      "imageId": 35,
      "cred": 10,
      "flags": 1,
      "label": "Single Player Hero",
      "description": "As the Lead Profile in a single player game achieve a 90 player rating in Be a Pro",
      "howto": "As the Lead Profile in a single player game achieve a 90 player rating in Be a Pro"
    },
    {
      "id": 30,
      "imageId": 19,
      "cred": 40,
      "flags": 1,
      "label": "50 game streak",
      "description": "As the Lead Profile in a single player game win 50 games on Professional",
      "howto": "As the Lead Profile in a single player game win 50 games on Professional"
    },
    {
      "id": 31,
      "imageId": 36,
      "cred": 50,
      "flags": 1,
      "label": "10 scored",
      "description": "As the Lead Profile in a single player game get 10 or more goals in one match on Professional",
      "howto": "As the Lead Profile in a single player game get 10 or more goals in one match on Professional"
    },
    {
      "id": 32,
      "imageId": 20,
      "cred": 0,
      "flags": 1,
      "label": "Beat yourself",
      "description": "As the Lead Profile in a single player game score two own goals in a single game",
      "howto": "As the Lead Profile in a single player game score two own goals in a single game"
    },
    {
      "id": 33,
      "imageId": 28,
      "cred": 10,
      "flags": 1,
      "label": "10 up",
      "description": "As the Lead Profile in a single player game win 10 Xbox LIVE ranked matches.",
      "howto": "As the Lead Profile in a single player game win 10 Xbox LIVE ranked matches."
    },
    {
      "id": 34,
      "imageId": 26,
      "cred": 20,
      "flags": 1,
      "label": "Getting Serious",
      "description": "As the Lead Profile in a single player game win 50 Xbox LIVE ranked matches",
      "howto": "As the Lead Profile in a single player game win 50 Xbox LIVE ranked matches"
    },
    {
      "id": 35,
      "imageId": 27,
      "cred": 60,
      "flags": 1,
      "label": "Worldwide Legend",
      "description": "As the Lead Profile in a single player game win 100 Xbox LIVE ranked matches.",
      "howto": "As the Lead Profile in a single player game win 100 Xbox LIVE ranked matches."
    },
    {
      "id": 36,
      "imageId": 30,
      "cred": 20,
      "flags": 1,
      "label": "They drew a blank",
      "description": "As the Lead Profile in a single player game keep a clean sheet in an Xbox LIVE ranked match",
      "howto": "As the Lead Profile in a single player game keep a clean sheet in an Xbox LIVE ranked match"
    },
    {
      "id": 37,
      "imageId": 33,
      "cred": 30,
      "flags": 1,
      "label": "Blank sheet",
      "description": "As the Lead Profile in a single player game keep a clean sheet on World Class difficulty",
      "howto": "As the Lead Profile in a single player game keep a clean sheet on World Class difficulty"
    },
    {
      "id": 38,
      "imageId": 23,
      "cred": 20,
      "flags": 3,
      "label": "Tour Bus",
      "description": "As the Lead Profile Play in every Stadium in the game",
      "howto": "As the Lead Profile Play in every Stadium in the game"
    },
    {
      "id": 39,
      "imageId": 32,
      "cred": 10,
      "flags": 1,
      "label": "Host",
      "description": "As the Lead Profile in a single player game host 10 Xbox LIVE Matches",
      "howto": "As the Lead Profile in a single player game host 10 Xbox LIVE Matches"
    },
    {
      "id": 40,
      "imageId": 31,
      "cred": 40,
      "flags": 1,
      "label": "This is too much",
      "description": "As the Lead Profile in a single player game host 50 Xbox LIVE Matches",
      "howto": "As the Lead Profile in a single player game host 50 Xbox LIVE Matches"
    },
    {
      "id": 41,
      "imageId": 48,
      "cred": 15,
      "flags": 1,
      "label": "Boot Cleaner",
      "description": "As the Lead Profile Complete Challenge Mode Region 1",
      "howto": "As the Lead Profile Complete Challenge Mode Region 1"
    },
    {
      "id": 42,
      "imageId": 46,
      "cred": 15,
      "flags": 1,
      "label": "Youth Teamer",
      "description": "As the Lead Profile Complete Challenge Mode Region 2",
      "howto": "As the Lead Profile Complete Challenge Mode Region 2"
    },
    {
      "id": 43,
      "imageId": 45,
      "cred": 15,
      "flags": 1,
      "label": "Reserve",
      "description": "As the Lead Profile Complete Challenge Mode Region 3",
      "howto": "As the Lead Profile Complete Challenge Mode Region 3"
    },
    {
      "id": 44,
      "imageId": 44,
      "cred": 20,
      "flags": 1,
      "label": "Substitute",
      "description": "As the Lead Profile Complete Challenge Mode Region 4",
      "howto": "As the Lead Profile Complete Challenge Mode Region 4"
    },
    {
      "id": 45,
      "imageId": 43,
      "cred": 20,
      "flags": 1,
      "label": "First Team Debut",
      "description": "As the Lead Profile Complete Challenge Mode Region 5",
      "howto": "As the Lead Profile Complete Challenge Mode Region 5"
    },
    {
      "id": 46,
      "imageId": 42,
      "cred": 25,
      "flags": 1,
      "label": "First Team Regular",
      "description": "As the Lead Profile Complete Challenge Mode Region 6",
      "howto": "As the Lead Profile Complete Challenge Mode Region 6"
    },
    {
      "id": 47,
      "imageId": 41,
      "cred": 25,
      "flags": 1,
      "label": "Man of the Match",
      "description": "As the Lead Profile Complete Challenge Mode Region 7",
      "howto": "As the Lead Profile Complete Challenge Mode Region 7"
    },
    {
      "id": 48,
      "imageId": 40,
      "cred": 30,
      "flags": 1,
      "label": "Captain",
      "description": "As the Lead Profile Complete Challenge Mode Region 8",
      "howto": "As the Lead Profile Complete Challenge Mode Region 8"
    },
    {
      "id": 49,
      "imageId": 39,
      "cred": 30,
      "flags": 1,
      "label": "Veteran",
      "description": "As the Lead Profile Complete Challenge Mode Region 9",
      "howto": "As the Lead Profile Complete Challenge Mode Region 9"
    },
    {
      "id": 50,
      "imageId": 47,
      "cred": 95,
      "flags": 1,
      "label": "Football Legend",
      "description": "As the Lead Profile Complete Challenge Mode Region 10",
      "howto": "As the Lead Profile Complete Challenge Mode Region 10"
    },
    {
      "id": 52,
      "imageId": 50,
      "cred": 10,
      "flags": 1,
      "label": "Lightning Finisher",
      "description": "As the Lead Profile in a single player game score a goal in under 5 minutes",
      "howto": "As the Lead Profile in a single player game score a goal in under 5 minutes"
    },
    {
      "id": 53,
      "imageId": 49,
      "cred": 10,
      "flags": 1,
      "label": "Manager Merry-go-round",
      "description": "As the Lead Profile, Play 15 years for 15 different clubs in 15 different countries.",
      "howto": "As the Lead Profile, Play 15 years for 15 different clubs in 15 different countries."
    }
  ]
}