{
  "achievementsPossible": 65,
  "credPossible": 1370,
  "achievements": [
    {
      "id": 1,
      "imageId": 1,
      "cred": 5,
      "flags": 1,
      "label": "ストーン・コールド",
      "description": "地底回廊で太古岩の死霊を倒した。",
      "howto": "地底回廊で太古岩の死霊を倒す。"
    },
    {
      "id": 2,
      "imageId": 2,
      "cred": 10,
      "flags": 1,
      "label": "キング・オブ・ザ・ヒル",
      "description": "アリショクを倒した。",
      "howto": "アリショクを倒す。"
    },
    {
      "id": 3,
      "imageId": 3,
      "cred": 15,
      "flags": 1,
      "label": "征服者",
      "description": "カークウォールのテンプル騎士団長メレディスを倒した。",
      "howto": "カークウォールのテンプル騎士団長メレディスを倒す。"
    },
    {
      "id": 4,
      "imageId": 4,
      "cred": 5,
      "flags": 1,
      "label": "戦いの才能",
      "description": "タレントまたはスペルをアップグレードした。",
      "howto": "タレントまたはスペルをアップグレードする。"
    },
    {
      "id": 5,
      "imageId": 5,
      "cred": 5,
      "flags": 1,
      "label": "タッグチーム",
      "description": "パーティで協力し、クロスクラス・コンボを成功させた。",
      "howto": "パーティで協力し、クロスクラス・コンボを成功させる。"
    },
    {
      "id": 6,
      "imageId": 6,
      "cred": 25,
      "flags": 1,
      "label": "5本脚の化け物",
      "description": "ヴァーテラルを倒した。",
      "howto": "ヴァーテラルを倒す。"
    },
    {
      "id": 7,
      "imageId": 7,
      "cred": 25,
      "flags": 1,
      "label": "ドラゴンスレイヤー",
      "description": "ハイドラゴンを倒した。",
      "howto": "ハイドラゴンを倒す。"
    },
    {
      "id": 8,
      "imageId": 8,
      "cred": 25,
      "flags": 1,
      "label": "エクソシスト",
      "description": "不死のゼベンケックを倒した。",
      "howto": "どこかに潜んでいると言われる不死の魔物を倒す。"
    },
    {
      "id": 9,
      "imageId": 9,
      "cred": 25,
      "flags": 1,
      "label": "デーモンスレイヤー",
      "description": "\"高慢\"と呼ばれる古代の悪魔を倒した。",
      "howto": "傲慢をつかさどる古代の悪魔を倒す。"
    },
    {
      "id": 10,
      "imageId": 10,
      "cred": 25,
      "flags": 1,
      "label": "武器の達人",
      "description": "一つの武器スタイルを極めた。",
      "howto": "一つの武器スタイルを極める。"
    },
    {
      "id": 11,
      "imageId": 11,
      "cred": 50,
      "flags": 1,
      "label": "アンストッパブル",
      "description": "パーティメンバーが一度も倒れることなく、カークウォールで1年間過ごした。",
      "howto": "パーティメンバーが一度も倒れることなく、カークウォールで1年間過ごす。"
    },
    {
      "id": 12,
      "imageId": 12,
      "cred": 5,
      "flags": 1,
      "label": "クラフトマン",
      "description": "初めて生産レシピを獲得した。",
      "howto": "初めて生産レシピを獲得する。"
    },
    {
      "id": 13,
      "imageId": 13,
      "cred": 10,
      "flags": 1,
      "label": "出資人",
      "description": "地底回廊の探検隊に出資した。",
      "howto": "地底回廊の探検隊に出資する。"
    },
    {
      "id": 14,
      "imageId": 14,
      "cred": 15,
      "flags": 1,
      "label": "歴戦の猛者",
      "description": "レベル10に到達した。",
      "howto": "レベル10に到達する。"
    },
    {
      "id": 15,
      "imageId": 15,
      "cred": 5,
      "flags": 1,
      "label": "戦友",
      "description": "パーティメンバーの1人の防具をアップグレードした。",
      "howto": "パーティメンバーの1人の防具をアップグレードする。"
    },
    {
      "id": 16,
      "imageId": 16,
      "cred": 5,
      "flags": 1,
      "label": "エンチャント！",
      "description": "アイテムにエンチャントを施した。",
      "howto": "アイテムにエンチャントを施す。"
    },
    {
      "id": 17,
      "imageId": 17,
      "cred": 25,
      "flags": 1,
      "label": "マスタークラフトマン",
      "description": "いずれか一つの生産ツリーに属する全てのアイテムを生産した。",
      "howto": "いずれか一つの生産ツリーに属する全てのアイテムを生産する。"
    },
    {
      "id": 18,
      "imageId": 18,
      "cred": 25,
      "flags": 1,
      "label": "大富豪",
      "description": "金貨を100枚以上所持した。",
      "howto": "金貨を100枚以上所持する。"
    },
    {
      "id": 19,
      "imageId": 19,
      "cred": 25,
      "flags": 1,
      "label": "栄光の冠",
      "description": "カークウォールの子爵になった。",
      "howto": "カークウォールの権力者になる。"
    },
    {
      "id": 20,
      "imageId": 20,
      "cred": 25,
      "flags": 1,
      "label": "スペシャリスト",
      "description": "上級クラスを2つ獲得した。",
      "howto": "上級クラスを2つ獲得する。"
    },
    {
      "id": 21,
      "imageId": 21,
      "cred": 25,
      "flags": 1,
      "label": "背中は任せろ！",
      "description": "パーティメンバーの1人の防具を最後までアップグレードした。",
      "howto": "パーティメンバーの1人の防具を最後までアップグレードする。"
    },
    {
      "id": 22,
      "imageId": 22,
      "cred": 50,
      "flags": 1,
      "label": "伝説の勇者",
      "description": "レベル20に到達した。",
      "howto": "レベル20に到達する。"
    },
    {
      "id": 23,
      "imageId": 23,
      "cred": 5,
      "flags": 1,
      "label": "移民",
      "description": "カークウォールの市民となった。",
      "howto": "カークウォールの市民となる。"
    },
    {
      "id": 24,
      "imageId": 24,
      "cred": 10,
      "flags": 1,
      "label": "回廊案内人",
      "description": "探検隊と共に地底回廊を探検した。",
      "howto": "探検隊と共に地底回廊を探検する。"
    },
    {
      "id": 25,
      "imageId": 25,
      "cred": 15,
      "flags": 1,
      "label": "相続",
      "description": "一族の邸宅を奴隷商人の手から取り戻した。",
      "howto": "一族の邸宅を取り戻す。"
    },
    {
      "id": 26,
      "imageId": 26,
      "cred": 5,
      "flags": 1,
      "label": "丑三つ時",
      "description": "初めて夜のマップに切り替えた。",
      "howto": "初めて夜のマップに切り替える。"
    },
    {
      "id": 27,
      "imageId": 27,
      "cred": 5,
      "flags": 1,
      "label": "冒険家",
      "description": "カークウォール郊外を探索した。",
      "howto": "カークウォール郊外を探索する。"
    },
    {
      "id": 28,
      "imageId": 28,
      "cred": 25,
      "flags": 1,
      "label": "スペランカー",
      "description": "カークウォールおよびその周辺にある洞窟を10か所訪れた。",
      "howto": "カークウォールおよびその周辺にある洞窟を10か所訪れる。"
    },
    {
      "id": 29,
      "imageId": 29,
      "cred": 25,
      "flags": 1,
      "label": "エクソダス",
      "description": "すべてのプレイを通じて、すべてのクラスの主人公でカークウォールを訪れた。",
      "howto": "すべてのプレイを通じて、すべてのクラスの主人公でカークウォールを訪れる。"
    },
    {
      "id": 30,
      "imageId": 30,
      "cred": 25,
      "flags": 1,
      "label": "知識人",
      "description": "コーデックスを100個獲得した。",
      "howto": "コーデックスを100個獲得する。"
    },
    {
      "id": 31,
      "imageId": 31,
      "cred": 25,
      "flags": 1,
      "label": "トレジャーハンター",
      "description": "宝箱を50個開けた。",
      "howto": "宝箱を50個開ける。"
    },
    {
      "id": 32,
      "imageId": 32,
      "cred": 25,
      "flags": 1,
      "label": "調達人",
      "description": "すべての生産素材を獲得した。",
      "howto": "すべての生産素材を獲得する。"
    },
    {
      "id": 33,
      "imageId": 33,
      "cred": 50,
      "flags": 1,
      "label": "考古学者",
      "description": "カークウォールでの各年において、隠された「カークウォールの謎」を3つ以上づつ発見した。",
      "howto": "カークウォールでの各年において、隠された「カークウォールの謎」を3つ以上づつ発見する。"
    },
    {
      "id": 34,
      "imageId": 34,
      "cred": 5,
      "flags": 1,
      "label": "物語の中の物語",
      "description": "ヴァリックがカークウォールの英雄に関する物語を語り始めるのを聞いた。",
      "howto": "物語がどのようにして語られたのか、その始まりを聞く。"
    },
    {
      "id": 35,
      "imageId": 35,
      "cred": 10,
      "flags": 1,
      "label": "フルハウス",
      "description": "パーティメンバーを4人仲間にした。",
      "howto": "パーティメンバーを4人仲間にする。"
    },
    {
      "id": 36,
      "imageId": 36,
      "cred": 15,
      "flags": 1,
      "label": "カークウォールの名士たち",
      "description": "エルシナ大司教、デュマ―子爵、騎士団長メレディス、筆頭魔道師オーシノの4人に会った。",
      "howto": "カークウォールの重要人物4人に会う。"
    },
    {
      "id": 37,
      "imageId": 37,
      "cred": 5,
      "flags": 1,
      "label": "プレゼンター",
      "description": "パーティメンバーの1人にギフトをプレゼントした。",
      "howto": "パーティメンバーの1人にギフトをプレゼントする。"
    },
    {
      "id": 38,
      "imageId": 38,
      "cred": 5,
      "flags": 1,
      "label": "恋心",
      "description": "パーティメンバーの1人とロマンスを始めた。",
      "howto": "パーティメンバーの1人とロマンスを始める。"
    },
    {
      "id": 39,
      "imageId": 39,
      "cred": 25,
      "flags": 1,
      "label": "フレンド",
      "description": "パーティメンバーの1人の友好度を最大まで高め、フレンドとなった。",
      "howto": "パーティメンバーの1人の友好度を最大まで高め、フレンドとなる。"
    },
    {
      "id": 40,
      "imageId": 40,
      "cred": 25,
      "flags": 1,
      "label": "ライバル",
      "description": "パーティメンバーの1人の敵対度を最大まで高め、ライバルとなった。",
      "howto": "パーティメンバーの1人の敵対度を最大まで高め、ライバルとなる。"
    },
    {
      "id": 41,
      "imageId": 41,
      "cred": 25,
      "flags": 1,
      "label": "ロマンス",
      "description": "パーティメンバーの1人とのロマンスを成し遂げた。",
      "howto": "パーティメンバーの1人とのロマンスを成し遂げる。"
    },
    {
      "id": 42,
      "imageId": 42,
      "cred": 25,
      "flags": 1,
      "label": "教会の歴史家",
      "description": "修道士ジェニティヴィ著「教会史」全4章を発見した。",
      "howto": "修道士ジェニティヴィ著「教会史」全4章を発見する。"
    },
    {
      "id": 43,
      "imageId": 43,
      "cred": 25,
      "flags": 1,
      "label": "ふさわしき好敵手",
      "description": "アリショクの敬意を得た。",
      "howto": "クナリ族の族長から敬意を得る。"
    },
    {
      "id": 44,
      "imageId": 44,
      "cred": 50,
      "flags": 1,
      "label": "類は友を呼ぶ",
      "description": "パーティメンバー4人の友好度または敵対度のどちらかを最大まで高め、4人がフレンドまたはライバルとなった。",
      "howto": "パーティメンバー4人の友好度または敵対度のどちらかを最大まで高め、4人がフレンドまたはライバルとなる。"
    },
    {
      "id": 45,
      "imageId": 45,
      "cred": 20,
      "flags": 1,
      "label": "カークウォールの英雄",
      "description": "Dragon Age II をクリアした。",
      "howto": "Dragon Age II をクリアする。"
    },
    {
      "id": 46,
      "imageId": 46,
      "cred": 10,
      "flags": 1,
      "label": "傭兵団",
      "description": "カークウォールに到着し、傭兵団に力を貸した。",
      "howto": "とある傭兵団に力を貸す。"
    },
    {
      "id": 47,
      "imageId": 47,
      "cred": 10,
      "flags": 1,
      "label": "闇商人",
      "description": "カークウォールに到着し、闇商人に力を貸した。",
      "howto": "とある闇商人に力を貸す。"
    },
    {
      "id": 48,
      "imageId": 48,
      "cred": 25,
      "flags": 1,
      "label": "魔法の守護者",
      "description": "魔道士を5回支持した。",
      "howto": "魔道士を5回支持する。"
    },
    {
      "id": 49,
      "imageId": 49,
      "cred": 25,
      "flags": 1,
      "label": "魔道士ハンター",
      "description": "テンプル騎士団を5回支持した。",
      "howto": "テンプル騎士団を5回支持する。"
    },
    {
      "id": 50,
      "imageId": 50,
      "cred": 50,
      "flags": 1,
      "label": "叙事詩",
      "description": "Dragon Age II を2回クリアするか、Dragon Age: Origins のセーブをインポートした状態で1回クリアした。",
      "howto": "Dragon Age II を2回クリアするか、Dragon Age: Origins のセーブをインポートした状態で1回クリアする。"
    },
    {
      "id": 51,
      "imageId": 51,
      "cred": 25,
      "flags": 1,
      "label": "復讐劇",
      "description": "ヴェール家殺害の黒幕と対峙した。",
      "howto": "ヴェール家殺害の黒幕と対峙する。"
    },
    {
      "id": 52,
      "imageId": 52,
      "cred": 25,
      "flags": 1,
      "label": "外套と短剣",
      "description": "教皇の使いの者に会った。",
      "howto": "教皇の使いの者に会う。"
    },
    {
      "id": 53,
      "imageId": 53,
      "cred": 25,
      "flags": 1,
      "label": "報復の始まり",
      "description": "ヴェール家を殺害した傭兵団を殲滅した。",
      "howto": "ヴェール家を殺害した傭兵団を殲滅する。"
    },
    {
      "id": 54,
      "imageId": 54,
      "cred": 30,
      "flags": 1,
      "label": "忠誠心",
      "description": "セバスチャンの友好度または敵対度のどちらかを最大まで高め、フレンドまたはライバルとなった。",
      "howto": "セバスチャンの友好度または敵対度のどちらかを最大まで高め、フレンドまたはライバルとなる。"
    },
    {
      "id": 55,
      "imageId": 55,
      "cred": 25,
      "flags": 1,
      "label": "忘れ形見",
      "description": "ヴェール家の家宝を取り戻し、セバスチャンに渡した。",
      "howto": "ヴェール家の家宝を取り戻し、セバスチャンに渡す。"
    },
    {
      "id": 56,
      "imageId": 62,
      "cred": 30,
      "flags": 1,
      "label": "奏でる者",
      "description": "ヴィマーク山脈に眠る古代の魔物を倒した。",
      "howto": "ヴィマーク山脈に眠る古代の魔物を倒す。"
    },
    {
      "id": 57,
      "imageId": 63,
      "cred": 15,
      "flags": 1,
      "label": "地底回廊サファリ",
      "description": "ヴィマーク山脈にてジェンロック、ジェンロックアルファ、ハーロックアルファ、ブロント、ディープストーカーを倒した。",
      "howto": "ヴィマーク山脈にてジェンロック、ジェンロックアルファ、ハーロックアルファ、ブロント、ディープストーカーを倒す。"
    },
    {
      "id": 58,
      "imageId": 65,
      "cred": 30,
      "flags": 1,
      "label": "ホーク家の遺産",
      "description": "ホークの「鍵」に3つの効果を付与させた。",
      "howto": "ホークの「鍵」に3つの効果を付与させる。"
    },
    {
      "id": 59,
      "imageId": 64,
      "cred": 15,
      "flags": 1,
      "label": "家族旅行",
      "description": "ベサニーかカーヴァーがパーティにいる状態で、ヴィマーク山脈のメインクエストをすべてクリアした。",
      "howto": "ベサニーかカーヴァーがパーティにいる状態で、ヴィマーク山脈のメインクエストをすべてクリアする。"
    },
    {
      "id": 60,
      "imageId": 66,
      "cred": 30,
      "flags": 1,
      "label": "塔の掃除人",
      "description": "ヴィマーク山脈の牢獄塔にてサイドクエストをすべてクリアした。",
      "howto": "ヴィマーク山脈の牢獄塔にてサイドクエストをすべてクリアする。"
    },
    {
      "id": 61,
      "imageId": 73,
      "cred": 15,
      "flags": 1,
      "label": "新しき日の始まり",
      "description": "タリスがパーティに参加した。 ",
      "howto": "ハイタウンでタリスに会う。"
    },
    {
      "id": 62,
      "imageId": 75,
      "cred": 30,
      "flags": 1,
      "label": "ハンティング",
      "description": "狩場でアルファワイバーンをおびき出して倒した。",
      "howto": "狩場でアルファワイバーンをおびき出して倒す。"
    },
    {
      "id": 63,
      "imageId": 74,
      "cred": 15,
      "flags": 1,
      "label": "大怪盗",
      "description": "ヘイン宮殿の警備をかいくぐり、宝物庫にたどり着いた。",
      "howto": "ヘイン宮殿の警備をかいくぐり、宝物庫にたどり着く。"
    },
    {
      "id": 64,
      "imageId": 77,
      "cred": 30,
      "flags": 1,
      "label": "火消し人",
      "description": "ヘイン宮殿宝物庫の火の罠を解除した。",
      "howto": "ヘイン宮殿宝物庫の火の罠を解除する。"
    },
    {
      "id": 65,
      "imageId": 76,
      "cred": 30,
      "flags": 1,
      "label": "アサシンの印",
      "description": "プロスパー公爵を倒した。",
      "howto": "プロスパー公爵を倒す。"
    }
  ]
}