{
  "achievementsPossible": 58,
  "credPossible": 1250,
  "achievements": [
    {
      "id": 1,
      "imageId": 3,
      "cred": 20,
      "flags": 1,
      "label": "A.Bell Fever",
      "description": "Catch the A.Bell Fever by beating the creator or someone who has already has the fever",
      "howto": "Catch the A.Bell Fever by beating the creator or someone who has already has the fever"
    },
    {
      "id": 2,
      "imageId": 4,
      "cred": 15,
      "flags": 1,
      "label": "Bend it like a pro",
      "description": "Score from a free kick in a match",
      "howto": "Score from a free kick in a match"
    },
    {
      "id": 3,
      "imageId": 42,
      "cred": 10,
      "flags": 1,
      "label": "Screamer!",
      "description": "Score from over 30 yards out in a match",
      "howto": "Score from over 30 yards out in a match"
    },
    {
      "id": 4,
      "imageId": 31,
      "cred": 5,
      "flags": 1,
      "label": "On the spot",
      "description": "Score from a penalty in a match",
      "howto": "Score from a penalty in a match"
    },
    {
      "id": 5,
      "imageId": 17,
      "cred": 10,
      "flags": 1,
      "label": "Good head on your shoulders",
      "description": "Score with a header in a match",
      "howto": "Score with a header in a match"
    },
    {
      "id": 6,
      "imageId": 15,
      "cred": 5,
      "flags": 1,
      "label": "Gimme five",
      "description": "Score five goals in the arena",
      "howto": "Score five goals in the arena"
    },
    {
      "id": 7,
      "imageId": 30,
      "cred": 10,
      "flags": 1,
      "label": "One goal a season",
      "description": "Score with a defender in a match",
      "howto": "Score with a defender in a match"
    },
    {
      "id": 8,
      "imageId": 10,
      "cred": 10,
      "flags": 1,
      "label": "Eat my chip",
      "description": "Score by chipping the keeper in a match",
      "howto": "Score by chipping the keeper in a match"
    },
    {
      "id": 9,
      "imageId": 50,
      "cred": 30,
      "flags": 1,
      "label": "On yer bike!",
      "description": "Score with a bicycle kick",
      "howto": "Score with a bicycle kick"
    },
    {
      "id": 10,
      "imageId": 21,
      "cred": 20,
      "flags": 6,
      "label": "In off",
      "description": "Score off the woodwork in a match",
      "howto": "Score off the woodwork in a match"
    },
    {
      "id": 11,
      "imageId": 12,
      "cred": 20,
      "flags": 1,
      "label": "Fling yourself at it",
      "description": "Score with a diving header in a match",
      "howto": "Score with a diving header in a match"
    },
    {
      "id": 12,
      "imageId": 26,
      "cred": 10,
      "flags": 1,
      "label": "Like on the training field",
      "description": "Score from a corner",
      "howto": "Score from a corner"
    },
    {
      "id": 13,
      "imageId": 49,
      "cred": 10,
      "flags": 1,
      "label": "Wing play",
      "description": "Score from a cross",
      "howto": "Score from a cross"
    },
    {
      "id": 14,
      "imageId": 48,
      "cred": 5,
      "flags": 1,
      "label": "What a Beauty!",
      "description": "Score on the volley in a match",
      "howto": "Score on the volley in a match"
    },
    {
      "id": 15,
      "imageId": 46,
      "cred": 15,
      "flags": 1,
      "label": "Time you played a match?",
      "description": "Score twenty goals in the arena",
      "howto": "Score twenty goals in the arena"
    },
    {
      "id": 16,
      "imageId": 18,
      "cred": 10,
      "flags": 1,
      "label": "Hero",
      "description": "Save a penalty",
      "howto": "Save a penalty"
    },
    {
      "id": 17,
      "imageId": 8,
      "cred": 10,
      "flags": 1,
      "label": "Director in the making",
      "description": "Upload a video to EA Sports™ football world",
      "howto": "Upload a video to EA Sports™ football world"
    },
    {
      "id": 18,
      "imageId": 25,
      "cred": 19,
      "flags": 1,
      "label": "Last Gasp Goal",
      "description": "Score in the 89th minute",
      "howto": "Score in the 89th minute"
    },
    {
      "id": 19,
      "imageId": 14,
      "cred": 15,
      "flags": 1,
      "label": "Giant Killer",
      "description": "Beat a five star team with a half star team",
      "howto": "Beat a five star team with a half star team"
    },
    {
      "id": 20,
      "imageId": 28,
      "cred": 20,
      "flags": 1,
      "label": "A Man Down",
      "description": "Win a game when down one man",
      "howto": "Win a game when down one man"
    },
    {
      "id": 23,
      "imageId": 6,
      "cred": 50,
      "flags": 1,
      "label": "Custom sixty four winner",
      "description": "Win a Created Tournament that starts with sixty four teams",
      "howto": "Win a Created Tournament that starts with sixty four teams"
    },
    {
      "id": 24,
      "imageId": 1,
      "cred": 75,
      "flags": 1,
      "label": "One star winners",
      "description": "Win a Tournament that starts with sixteen teams, with a one star rated team.",
      "howto": "Win a Tournament that starts with sixteen teams, with a one star rated team."
    },
    {
      "id": 25,
      "imageId": 19,
      "cred": 20,
      "flags": 1,
      "label": "Huge investment",
      "description": "Buy a player in Manager Mode for 50 million of your chosen currency",
      "howto": "Buy a player in Manager Mode for 50 million of your chosen currency"
    },
    {
      "id": 26,
      "imageId": 20,
      "cred": 30,
      "flags": 1,
      "label": "Huge return",
      "description": "Sell a player in Manager Mode for 50 million of your chosen currency",
      "howto": "Sell a player in Manager Mode for 50 million of your chosen currency"
    },
    {
      "id": 27,
      "imageId": 44,
      "cred": 20,
      "flags": 1,
      "label": "Spending spree",
      "description": "Buy 50 players in your career in Manager Mode",
      "howto": "Buy 50 players in your career in Manager Mode"
    },
    {
      "id": 28,
      "imageId": 39,
      "cred": 100,
      "flags": 1,
      "label": "The purist",
      "description": "Complete a Manager Mode season without simming any games",
      "howto": "Complete a Manager Mode season without simming any games"
    },
    {
      "id": 29,
      "imageId": 38,
      "cred": 10,
      "flags": 1,
      "label": "Provider",
      "description": "Perform a cross for a friend who scores from it (co-operative achievement)",
      "howto": "Perform a cross for a friend who scores from it (co-operative achievement)"
    },
    {
      "id": 30,
      "imageId": 45,
      "cred": 5,
      "flags": 1,
      "label": "The ol' switcheroo",
      "description": "Successfully perfom a pass that switches the play from one flank to the other",
      "howto": "Successfully perfom a pass that switches the play from one flank to the other"
    },
    {
      "id": 31,
      "imageId": 43,
      "cred": 10,
      "flags": 1,
      "label": "Sparkly clean",
      "description": "Keep a clean sheet",
      "howto": "Keep a clean sheet"
    },
    {
      "id": 32,
      "imageId": 34,
      "cred": 1,
      "flags": 1,
      "label": "The Peterson",
      "description": "Play for over fifty hours",
      "howto": "Play for over fifty hours"
    },
    {
      "id": 33,
      "imageId": 33,
      "cred": 10,
      "flags": 1,
      "label": "The Parolin Manoeuvre",
      "description": "Win a game whilst not signed in to Xbox LIVE",
      "howto": "Win a game whilst not signed in to Xbox LIVE"
    },
    {
      "id": 34,
      "imageId": 36,
      "cred": 20,
      "flags": 1,
      "label": "The Poon Sang",
      "description": "Win with a team of 11 created players in an unranked Xbox LIVE match",
      "howto": "Win with a team of 11 created players in an unranked Xbox LIVE match"
    },
    {
      "id": 35,
      "imageId": 47,
      "cred": 20,
      "flags": 1,
      "label": "The Venhola Ice",
      "description": "Win a FIFA 09 Clubs match with your club",
      "howto": "Win a FIFA 09 Clubs match with your club"
    },
    {
      "id": 36,
      "imageId": 24,
      "cred": 10,
      "flags": 1,
      "label": "The Kwong",
      "description": "Score a headed goal with the shortest created player",
      "howto": "Score a headed goal with the shortest created player"
    },
    {
      "id": 37,
      "imageId": 23,
      "cred": 10,
      "flags": 1,
      "label": "Judas",
      "description": "Beat your favourite team with their rival",
      "howto": "Beat your favourite team with their rival"
    },
    {
      "id": 38,
      "imageId": 16,
      "cred": 10,
      "flags": 1,
      "label": "The Gipson Curse",
      "description": "Go into an online match after choosing your own arena player",
      "howto": "Go into an online match after choosing your own arena player"
    },
    {
      "id": 39,
      "imageId": 13,
      "cred": 20,
      "flags": 1,
      "label": "Frequent flyer",
      "description": "Win in every stadium",
      "howto": "Win in every stadium"
    },
    {
      "id": 40,
      "imageId": 11,
      "cred": 40,
      "flags": 1,
      "label": "FIFA Fair Play",
      "description": "Play 5 consecutive matches without getting any cards (bookings must be enabled in the settings)",
      "howto": "Play 5 consecutive matches without getting any cards (bookings must be enabled in the settings)"
    },
    {
      "id": 41,
      "imageId": 41,
      "cred": 20,
      "flags": 1,
      "label": "Real world winner",
      "description": "Win 5 Interactive League matches",
      "howto": "Win 5 Interactive League matches"
    },
    {
      "id": 42,
      "imageId": 40,
      "cred": 10,
      "flags": 1,
      "label": "Ranked winner",
      "description": "Win a Ranked Xbox LIVE Match",
      "howto": "Win a Ranked Xbox LIVE Match"
    },
    {
      "id": 43,
      "imageId": 29,
      "cred": 10,
      "flags": 1,
      "label": "Manual labour",
      "description": "Win a match with fully manual settings (no assistance can be switched on)",
      "howto": "Win a match with fully manual settings (no assistance can be switched on)"
    },
    {
      "id": 44,
      "imageId": 2,
      "cred": 10,
      "flags": 1,
      "label": "1st time out",
      "description": "Win an Online League match",
      "howto": "Win an Online League match"
    },
    {
      "id": 45,
      "imageId": 35,
      "cred": 10,
      "flags": 1,
      "label": "Pictures speak a thousand words",
      "description": "Upload 5 screenshots to EA Sports™ football world",
      "howto": "Upload 5 screenshots to EA Sports™ football world"
    },
    {
      "id": 46,
      "imageId": 27,
      "cred": 50,
      "flags": 1,
      "label": "Living legend",
      "description": "Reach legendary status for your country",
      "howto": "Reach legendary status for your country"
    },
    {
      "id": 47,
      "imageId": 5,
      "cred": 40,
      "flags": 1,
      "label": "Club god",
      "description": "Reach legendary status for your club",
      "howto": "Reach legendary status for your club"
    },
    {
      "id": 48,
      "imageId": 9,
      "cred": 50,
      "flags": 1,
      "label": "Duo-Hedgeidecimal",
      "description": "Enter a match with 20 people in a FIFA 09 Clubs Match",
      "howto": "Enter a match with 20 people in a FIFA 09 Clubs Match"
    },
    {
      "id": 49,
      "imageId": 22,
      "cred": 60,
      "flags": 1,
      "label": "Jonzo's lounge",
      "description": "Score 2500 points and win 5 badges in a single Lounge Mode match",
      "howto": "Score 2500 points and win 5 badges in a single Lounge Mode match"
    },
    {
      "id": 50,
      "imageId": 32,
      "cred": 10,
      "flags": 1,
      "label": "Optimus Chung",
      "description": "Win a game with adidas Live Season enabled",
      "howto": "Win a game with adidas Live Season enabled"
    },
    {
      "id": 56,
      "imageId": 53,
      "cred": 50,
      "flags": 1,
      "label": "Club Tournament Mastery",
      "description": "Ultimate Team:Win all gold Club Tournaments",
      "howto": "Ultimate Team:Win all gold Club Tournaments"
    },
    {
      "id": 57,
      "imageId": 59,
      "cred": 15,
      "flags": 1,
      "label": "World Champion",
      "description": "Ultimate Team:Win the Gold World Trophy",
      "howto": "Ultimate Team:Win the Gold World Trophy"
    },
    {
      "id": 58,
      "imageId": 54,
      "cred": 50,
      "flags": 1,
      "label": "Online Tournament Mastery",
      "description": "Ultimate Team:Win All gold Online Tournaments",
      "howto": "Ultimate Team:Win All gold Online Tournaments"
    },
    {
      "id": 59,
      "imageId": 55,
      "cred": 15,
      "flags": 1,
      "label": "Online Champion",
      "description": "Ultimate Team:Win Gold Ultimate Team Trophy\r\n",
      "howto": "Ultimate Team:Win Gold Ultimate Team Trophy\r\n"
    },
    {
      "id": 60,
      "imageId": 56,
      "cred": 5,
      "flags": 1,
      "label": "Silver Packs",
      "description": "Ultimate Team:Open first Silver Pack",
      "howto": "Ultimate Team:Open first Silver Pack"
    },
    {
      "id": 61,
      "imageId": 52,
      "cred": 15,
      "flags": 1,
      "label": "Gold Packs",
      "description": "Ultimate Team:Open First Gold Pack",
      "howto": "Ultimate Team:Open First Gold Pack"
    },
    {
      "id": 62,
      "imageId": 51,
      "cred": 10,
      "flags": 1,
      "label": "Bigger Venue",
      "description": "Ultimate Team:Upgrade to a Silver Rated Stadium",
      "howto": "Ultimate Team:Upgrade to a Silver Rated Stadium"
    },
    {
      "id": 63,
      "imageId": 58,
      "cred": 15,
      "flags": 1,
      "label": "The Collector",
      "description": "Ultimate Team:Complete an 11 player team page in the collection",
      "howto": "Ultimate Team:Complete an 11 player team page in the collection"
    },
    {
      "id": 64,
      "imageId": 57,
      "cred": 70,
      "flags": 1,
      "label": "Solid Gold",
      "description": "Ultimate Team:Obtain 11 gold players",
      "howto": "Ultimate Team:Obtain 11 gold players"
    },
    {
      "id": 65,
      "imageId": 37,
      "cred": 5,
      "flags": 1,
      "label": "Best of the Best",
      "description": "Ultimate Team:Obtain your first Gold Rated Manager",
      "howto": "Ultimate Team:Obtain your first Gold Rated Manager"
    }
  ]
}