{
  "achievementsPossible": 12,
  "credPossible": 200,
  "achievements": [
    {
      "id": 1,
      "imageId": 1,
      "cred": 10,
      "flags": 1,
      "label": "Sure Shot",
      "description": "Defeated a wave of invaders without missing a shot.",
      "howto": "Defeated a wave of invaders without missing a shot."
    },
    {
      "id": 2,
      "imageId": 2,
      "cred": 10,
      "flags": 1,
      "label": "Combo Meal",
      "description": "Destroyed at least 21 invaders in a row.",
      "howto": "Destroyed at least 21 invaders in a row."
    },
    {
      "id": 3,
      "imageId": 3,
      "cred": 10,
      "flags": 1,
      "label": "Goliath Killer",
      "description": "Defeated the first Boss Invader.",
      "howto": "Defeated the first Boss Invader."
    },
    {
      "id": 4,
      "imageId": 4,
      "cred": 10,
      "flags": 1,
      "label": "First Taste of Victory",
      "description": "Won an online match for the first time.",
      "howto": "Won an online match for the first time."
    },
    {
      "id": 5,
      "imageId": 5,
      "cred": 10,
      "flags": 1,
      "label": "Lieutenant Rank A",
      "description": "Achieved Rank A at the end of a level.",
      "howto": "Achieved Rank A at the end of a level."
    },
    {
      "id": 6,
      "imageId": 6,
      "cred": 15,
      "flags": 1,
      "label": "Lone Wolf Victory",
      "description": "Completed the game in Arcade Mode.",
      "howto": "Completed the game in Arcade Mode."
    },
    {
      "id": 7,
      "imageId": 7,
      "cred": 15,
      "flags": 1,
      "label": "Hot Streak",
      "description": "Triggered at least 4 rounds of Fever Time.",
      "howto": "Triggered at least 4 rounds of Fever Time."
    },
    {
      "id": 8,
      "imageId": 8,
      "cred": 20,
      "flags": 1,
      "label": "Space Invader Veteran",
      "description": "Won 25 online matches in VS Mode.",
      "howto": "Won 25 online matches in VS Mode."
    },
    {
      "id": 9,
      "imageId": 9,
      "cred": 20,
      "flags": 1,
      "label": "Team Victory",
      "description": "Completed the game in Co-op Arcade mode.",
      "howto": "Completed the game in Co-op Arcade mode."
    },
    {
      "id": 10,
      "imageId": 10,
      "cred": 25,
      "flags": 1,
      "label": "Hero of Nagoya",
      "description": "Achieved 1 ROW using the Nagoya Attack technique.",
      "howto": "Achieved 1 ROW using the Nagoya Attack technique."
    },
    {
      "id": 11,
      "imageId": 11,
      "cred": 25,
      "flags": 1,
      "label": "Space Commander Rank S\r\n",
      "description": "Achieved Rank S 3 times.",
      "howto": "Achieved Rank S 3 times."
    },
    {
      "id": 12,
      "imageId": 12,
      "cred": 30,
      "flags": 1,
      "label": "Take That!",
      "description": "Defeated a Boss Invader without missing a shot.",
      "howto": "Defeated a Boss Invader without missing a shot."
    }
  ]
}