{
  "avatarAssetsPossible": 5,
  "maleAvatarAssetsPossible": 0,
  "femaleAvatarAssetsPossible": 0,
  "avatarAssets": [
    {
      "id": "00000544-0001-a1e3-c059-959d4d53085b",
      "imageId": 1,
      "subcategory": 0,
      "unknown": 0,
      "isMale": false,
      "isFemale": false,
      "isUnisex": true,
      "label": "Carter's Helmet",
      "description": "Cleared a Campaign mission on Legendary without dying.",
      "howto": "Clear a Campaign mission on Legendary without dying."
    },
    {
      "id": "00000544-0002-3163-c1aa-ca384d53085b",
      "imageId": 2,
      "subcategory": 0,
      "unknown": 2015221016,
      "isMale": false,
      "isFemale": false,
      "isUnisex": true,
      "label": "Emile's Helmet",
      "description": "Earned a Bulltrue medal in either multiplayer or Firefight matchmaking.",
      "howto": "Earn a Bulltrue medal in either multiplayer or Firefight Matchmaking."
    },
    {
      "id": "00000544-0003-b1f3-c1fa-ffd34d53085b",
      "imageId": 3,
      "subcategory": 0,
      "unknown": 2015221016,
      "isMale": false,
      "isFemale": false,
      "isUnisex": true,
      "label": "Jorge's Helmet",
      "description": "Earned a Killtacular in multiplayer Matchmaking.",
      "howto": "Earn a Killtacular in multiplayer Matchmaking."
    },
    {
      "id": "00000544-0004-4173-c24a-356f4d53085b",
      "imageId": 4,
      "subcategory": 0,
      "unknown": 2015221016,
      "isMale": false,
      "isFemale": false,
      "isUnisex": true,
      "label": "Jun's Helmet",
      "description": "Killed 100 enemies in a row without dying in either Campaign or Firefight.",
      "howto": "Kill 100 enemies in a row without dying in either the Campaign or Firefight."
    },
    {
      "id": "00000544-0005-c1f3-c29a-5a0a4d53085b",
      "imageId": 5,
      "subcategory": 0,
      "unknown": 2015221016,
      "isMale": false,
      "isFemale": false,
      "isUnisex": true,
      "label": "Kat's Helmet",
      "description": "Avenged a teammate's death in multiplayer Matchmaking.",
      "howto": "Avenge a teammate's death in multiplayer Matchmaking."
    }
  ]
}