{
  "achievementsPossible": 50,
  "credPossible": 1250,
  "achievements": [
    {
      "id": 10,
      "imageId": 23,
      "cred": 20,
      "flags": 1,
      "label": "Agency Explosives Expert",
      "description": "Bomb your way to a 4-star Explosives rating",
      "howto": "Bomb your way to a 4-star Explosives rating"
    },
    {
      "id": 11,
      "imageId": 12,
      "cred": 20,
      "flags": 1,
      "label": "Agency Athlete",
      "description": "Run & jump your way to a 4-star Agility rating",
      "howto": "Run & jump your way to a 4-star Agility rating"
    },
    {
      "id": 12,
      "imageId": 20,
      "cred": 20,
      "flags": 1,
      "label": "Agency Wheelman",
      "description": "Accelerate and slide your way to a 4-star Driving rating",
      "howto": "Accelerate and slide your way to a 4-star Driving rating"
    },
    {
      "id": 13,
      "imageId": 24,
      "cred": 20,
      "flags": 1,
      "label": "Agency Brawler",
      "description": "Punch, jab, kick, and throw your way to a 4-star Strength rating",
      "howto": "Punch, jab, kick, and throw your way to a 4-star Strength rating"
    },
    {
      "id": 14,
      "imageId": 26,
      "cred": 20,
      "flags": 1,
      "label": "Agency Marksman",
      "description": "Hit your target every time to achieve a 4-star Firearms rating",
      "howto": "Hit your target every time to achieve a 4-star Firearms rating"
    },
    {
      "id": 15,
      "imageId": 21,
      "cred": 40,
      "flags": 1,
      "label": "Master Agent",
      "description": "Earn 4-star ratings in all five skill areas and then max out your Skills Status meters",
      "howto": "Earn 4-star ratings in all five skill areas and then max out your Skills Status meters"
    },
    {
      "id": 18,
      "imageId": 17,
      "cred": 15,
      "flags": 1,
      "label": "Roadkill King",
      "description": "Mow down and massacre 175 gang members while driving",
      "howto": "Mow down and massacre 175 gang members while driving"
    },
    {
      "id": 20,
      "imageId": 34,
      "cred": 10,
      "flags": 1,
      "label": "High Flyer",
      "description": "Make your way to the top of the Agency Tower",
      "howto": "Make your way to the top of the Agency Tower"
    },
    {
      "id": 21,
      "imageId": 25,
      "cred": 15,
      "flags": 1,
      "label": "Firing Squad",
      "description": "Fire away - shoot and kill 500 gang members using firearms",
      "howto": "Fire away - shoot and kill 500 gang members using firearms"
    },
    {
      "id": 22,
      "imageId": 38,
      "cred": 15,
      "flags": 1,
      "label": "Bare-Knuckle Brawler",
      "description": "Kill 150 gang members with your bare hands (or thrown objects)",
      "howto": "Kill 150 gang members with your bare hands (or thrown objects)"
    },
    {
      "id": 23,
      "imageId": 22,
      "cred": 15,
      "flags": 1,
      "label": "Mad Bomber",
      "description": "Show your explosive personality - kill 500 gang members using explosives",
      "howto": "Show your explosive personality - kill 500 gang members using explosives"
    },
    {
      "id": 26,
      "imageId": 37,
      "cred": 15,
      "flags": 1,
      "label": "Untouchable Agent",
      "description": "Kill 200 gang members without dying yourself",
      "howto": "Kill 200 gang members without dying yourself"
    },
    {
      "id": 27,
      "imageId": 29,
      "cred": 20,
      "flags": 1,
      "label": "Body Juggler",
      "description": "Use explosives to keep a body up in the air for 10 seconds",
      "howto": "Use explosives to keep a body up in the air for 10 seconds"
    },
    {
      "id": 28,
      "imageId": 16,
      "cred": 20,
      "flags": 1,
      "label": "Car Juggler",
      "description": "Use explosives to keep a car up in the air for seven seconds",
      "howto": "Use explosives to keep a car up in the air for seven seconds"
    },
    {
      "id": 29,
      "imageId": 15,
      "cred": 10,
      "flags": 1,
      "label": "Hazardous Hangtime",
      "description": "Execute a 6-second jump in a vehicle",
      "howto": "Execute a 6-second jump in a vehicle"
    },
    {
      "id": 31,
      "imageId": 13,
      "cred": 10,
      "flags": 1,
      "label": "Driving High",
      "description": "Achieve a height of 115 feet or more in a vehicle",
      "howto": "Achieve a height of 115 feet or more in a vehicle"
    },
    {
      "id": 34,
      "imageId": 27,
      "cred": 20,
      "flags": 1,
      "label": "Front Flipper",
      "description": "Execute two forward flips in a single jump in a moving vehicle",
      "howto": "Execute two forward flips in a single jump in a moving vehicle"
    },
    {
      "id": 40,
      "imageId": 40,
      "cred": 20,
      "flags": 1,
      "label": "Timed Stunt Driver",
      "description": "Execute six car stunts in 60 seconds",
      "howto": "Execute six car stunts in 60 seconds"
    },
    {
      "id": 59,
      "imageId": 30,
      "cred": 10,
      "flags": 1,
      "label": "Base Jumper",
      "description": "Jump from the top of the Agency Tower and land in the water below",
      "howto": "Jump from the top of the Agency Tower and land in the water below"
    },
    {
      "id": 60,
      "imageId": 39,
      "cred": 20,
      "flags": 1,
      "label": "Stunt Driver",
      "description": "Successfully execute five car stunts - front & back flips, barrel rolls, a long jump",
      "howto": "Successfully execute five car stunts - front & back flips, barrel rolls, a long jump"
    },
    {
      "id": 61,
      "imageId": 28,
      "cred": 50,
      "flags": 1,
      "label": "Orb Hunter",
      "description": "Collect 300 Hidden Orbs",
      "howto": "Collect 300 Hidden Orbs"
    },
    {
      "id": 62,
      "imageId": 4,
      "cred": 50,
      "flags": 1,
      "label": "Free Runner",
      "description": "Collect 500 Agility Orbs",
      "howto": "Collect 500 Agility Orbs"
    },
    {
      "id": 63,
      "imageId": 14,
      "cred": 10,
      "flags": 1,
      "label": "Repo Man",
      "description": "Commandeer 100 gang-controlled vehicles",
      "howto": "Commandeer 100 gang-controlled vehicles"
    },
    {
      "id": 64,
      "imageId": 8,
      "cred": 10,
      "flags": 1,
      "label": "Los Muertos Intel Master",
      "description": "Locate all Los Muertos dossier targets",
      "howto": "Locate all Los Muertos dossier targets"
    },
    {
      "id": 65,
      "imageId": 7,
      "cred": 10,
      "flags": 1,
      "label": "Volk Intel Master",
      "description": "Locate all Volk dossier targets",
      "howto": "Locate all Volk dossier targets"
    },
    {
      "id": 66,
      "imageId": 6,
      "cred": 10,
      "flags": 1,
      "label": "Shai-Gen Intel Master",
      "description": "Locate all Shai-Gen dossier targets",
      "howto": "Locate all Shai-Gen dossier targets"
    },
    {
      "id": 67,
      "imageId": 35,
      "cred": 10,
      "flags": 1,
      "label": "First Blood",
      "description": "Eliminate the first of 21 gang bosses",
      "howto": "Eliminate the first of 21 gang bosses"
    },
    {
      "id": 68,
      "imageId": 33,
      "cred": 20,
      "flags": 1,
      "label": "Los Muertos Cleanser",
      "description": "Murder Los Muertos - kill all Los Muertos gang members",
      "howto": "Murder Los Muertos - kill all Los Muertos gang members"
    },
    {
      "id": 69,
      "imageId": 43,
      "cred": 40,
      "flags": 1,
      "label": "Volk Cleanser",
      "description": "Eviscerate the Volk - take out all Volk gang members",
      "howto": "Eviscerate the Volk - take out all Volk gang members"
    },
    {
      "id": 70,
      "imageId": 19,
      "cred": 50,
      "flags": 1,
      "label": "Shai-Gen Cleanser",
      "description": "Assassinate Shai-Gen - kill all Shai-Gen gang members",
      "howto": "Assassinate Shai-Gen - kill all Shai-Gen gang members"
    },
    {
      "id": 71,
      "imageId": 5,
      "cred": 50,
      "flags": 1,
      "label": "The Trifecta",
      "description": "Wipe the city clean by taking out all members of all three gangs",
      "howto": "Wipe the city clean by taking out all members of all three gangs"
    },
    {
      "id": 72,
      "imageId": 3,
      "cred": 20,
      "flags": 1,
      "label": "Rampage",
      "description": "Wreak havoc in 60-second increments",
      "howto": "Wreak havoc in 60-second increments"
    },
    {
      "id": 73,
      "imageId": 36,
      "cred": 10,
      "flags": 1,
      "label": "Take Me To Your Supply Point",
      "description": "Unlock your first Supply Point",
      "howto": "Unlock your first Supply Point"
    },
    {
      "id": 74,
      "imageId": 10,
      "cred": 30,
      "flags": 1,
      "label": "It's Good To Be Connected",
      "description": "Unlock all Supply Points",
      "howto": "Unlock all Supply Points"
    },
    {
      "id": 75,
      "imageId": 31,
      "cred": 10,
      "flags": 1,
      "label": "Airtime Assassin",
      "description": "Shoot and kill 5 gang members in a single jump (while airborne)",
      "howto": "Shoot and kill 5 gang members in a single jump (while airborne)"
    },
    {
      "id": 76,
      "imageId": 41,
      "cred": 10,
      "flags": 1,
      "label": "Shot-putter",
      "description": "Throw any object (other than a grenade) 205 feet or more",
      "howto": "Throw any object (other than a grenade) 205 feet or more"
    },
    {
      "id": 77,
      "imageId": 32,
      "cred": 15,
      "flags": 1,
      "label": "Global Impact",
      "description": "Kill 15 gang members using the Observatory Globe",
      "howto": "Kill 15 gang members using the Observatory Globe"
    },
    {
      "id": 78,
      "imageId": 42,
      "cred": 20,
      "flags": 1,
      "label": "Ring Leader",
      "description": "Drive through all of the unique Stunt Markers",
      "howto": "Drive through all of the unique Stunt Markers"
    },
    {
      "id": 79,
      "imageId": 18,
      "cred": 10,
      "flags": 1,
      "label": "Chain Banger",
      "description": "Blow up 100 explosive objects in 60 seconds",
      "howto": "Blow up 100 explosive objects in 60 seconds"
    },
    {
      "id": 86,
      "imageId": 11,
      "cred": 10,
      "flags": 1,
      "label": "Double Trouble",
      "description": "Double your fun - complete your first mission in Co-op mode",
      "howto": "Double your fun - complete your first mission in Co-op mode"
    },
    {
      "id": 87,
      "imageId": 9,
      "cred": 40,
      "flags": 1,
      "label": "Tag Teamer",
      "description": "Partner up and complete every mission in Co-op mode",
      "howto": "Partner up and complete every mission in Co-op mode"
    },
    {
      "id": 88,
      "imageId": 1,
      "cred": 30,
      "flags": 1,
      "label": "Road Warrior",
      "description": "Successfully complete all 14 Road Races",
      "howto": "Successfully complete all 14 Road Races"
    },
    {
      "id": 89,
      "imageId": 2,
      "cred": 30,
      "flags": 1,
      "label": "Over Our Heads",
      "description": "Successfully complete all 12 Rooftop Races",
      "howto": "Successfully complete all 12 Rooftop Races"
    },
    {
      "id": 91,
      "imageId": 46,
      "cred": 40,
      "flags": 1,
      "label": "Confiscator",
      "description": "Impound all flagged vehicles and store them in the Agency Garage",
      "howto": "Impound all flagged vehicles and store them in the Agency Garage"
    },
    {
      "id": 92,
      "imageId": 48,
      "cred": 100,
      "flags": 1,
      "label": "Psych Out",
      "description": "Complete all Time Trial missions at the Psychotic difficulty level",
      "howto": "Complete all Time Trial missions at the Psychotic difficulty level"
    },
    {
      "id": 93,
      "imageId": 47,
      "cred": 10,
      "flags": 1,
      "label": "Pack Rat",
      "description": "Complete any Stockpile mini-game in Co-op mode in fewer than 2 minutes and 30 seconds",
      "howto": "Complete any Stockpile mini-game in Co-op mode in fewer than 2 minutes and 30 seconds"
    },
    {
      "id": 94,
      "imageId": 49,
      "cred": 20,
      "flags": 1,
      "label": "Street Racer",
      "description": "Win every Street Race using any vehicle(s)",
      "howto": "Win every Street Race using any vehicle(s)"
    },
    {
      "id": 95,
      "imageId": 50,
      "cred": 150,
      "flags": 1,
      "label": "Street Racer Elite",
      "description": "Win every Street Race using all available vehicles",
      "howto": "Win every Street Race using all available vehicles"
    },
    {
      "id": 96,
      "imageId": 45,
      "cred": 20,
      "flags": 1,
      "label": "Flippin' Crazy",
      "description": "Execute 3 flips of any type in a single jump in any vehicle",
      "howto": "Execute 3 flips of any type in a single jump in any vehicle"
    },
    {
      "id": 97,
      "imageId": 44,
      "cred": 10,
      "flags": 1,
      "label": "Body Armor",
      "description": "Use the Harpoon gun to attach 5 gang member corpses to a single vehicle",
      "howto": "Use the Harpoon gun to attach 5 gang member corpses to a single vehicle"
    }
  ]
}