{
  "achievementsPossible": 26,
  "credPossible": 1000,
  "achievements": [
    {
      "id": 5,
      "imageId": 1,
      "cred": 25,
      "flags": 1,
      "label": "Passing Wizard",
      "description": "Have one player get 3 assists in Rookie Mode in a game",
      "howto": "Have one player get 3 assists in Rookie Mode in a game"
    },
    {
      "id": 6,
      "imageId": 2,
      "cred": 25,
      "flags": 1,
      "label": "Hat Trick in Rookie Mode",
      "description": "Have a player get 3 goals in Rookie Mode in a game",
      "howto": "Have a player get 3 goals in Rookie Mode in a game"
    },
    {
      "id": 7,
      "imageId": 3,
      "cred": 25,
      "flags": 1,
      "label": "Powerplay Mastery",
      "description": "Score 2 goals on the Powerplay with the same player in Pro Mode",
      "howto": "Score 2 goals on the Powerplay with the same player in Pro Mode"
    },
    {
      "id": 8,
      "imageId": 4,
      "cred": 25,
      "flags": 1,
      "label": "Dangerous on the PK",
      "description": "Score a short handed goal in Pro Mode",
      "howto": "Score a short handed goal in Pro Mode"
    },
    {
      "id": 9,
      "imageId": 5,
      "cred": 25,
      "flags": 1,
      "label": "Score a goal in All Star Mode",
      "description": "Score a goal in All Star Mode",
      "howto": "Score a goal in All Star Mode"
    },
    {
      "id": 10,
      "imageId": 6,
      "cred": 25,
      "flags": 1,
      "label": "Powerplay Quarterback",
      "description": "Score a goal on the powerplay with a defenseman in All Star Mode",
      "howto": "Score a goal on the powerplay with a defenseman in All Star Mode"
    },
    {
      "id": 11,
      "imageId": 7,
      "cred": 25,
      "flags": 1,
      "label": "Score a goal in Superstar Mode",
      "description": "Score a goal in Superstar Mode",
      "howto": "Score a goal in Superstar Mode"
    },
    {
      "id": 12,
      "imageId": 8,
      "cred": 50,
      "flags": 1,
      "label": "Hat Trick in Superstar Mode",
      "description": "Have a player get 3 goals in Superstar Mode",
      "howto": "Have a player get 3 goals in Superstar Mode"
    },
    {
      "id": 13,
      "imageId": 9,
      "cred": 50,
      "flags": 1,
      "label": "Shutout in Superstar Mode",
      "description": "Get a shutout in Superstar Mode",
      "howto": "Get a shutout in Superstar Mode"
    },
    {
      "id": 14,
      "imageId": 10,
      "cred": 50,
      "flags": 1,
      "label": "Player scores 5 goals",
      "description": "Score 5 goals in a game with one player",
      "howto": "Score 5 goals in a game with one player"
    },
    {
      "id": 15,
      "imageId": 11,
      "cred": 25,
      "flags": 1,
      "label": "Victory in Rookie Mode",
      "description": "Win a game in Rookie Mode vs. the CPU",
      "howto": "Win a game in Rookie Mode vs. the CPU"
    },
    {
      "id": 16,
      "imageId": 12,
      "cred": 25,
      "flags": 1,
      "label": "Victory in Pro Mode",
      "description": "Win a game in Pro Mode vs. the CPU",
      "howto": "Win a game in Pro Mode vs. the CPU"
    },
    {
      "id": 17,
      "imageId": 13,
      "cred": 25,
      "flags": 1,
      "label": "Victory in All Star Mode",
      "description": "Win a game in All Star mode vs. the CPU",
      "howto": "Win a game in All Star mode vs. the CPU"
    },
    {
      "id": 18,
      "imageId": 14,
      "cred": 50,
      "flags": 1,
      "label": "Victory in Superstar Mode",
      "description": "Win a game in Superstar mode vs. the CPU",
      "howto": "Win a game in Superstar mode vs. the CPU"
    },
    {
      "id": 19,
      "imageId": 15,
      "cred": 25,
      "flags": 1,
      "label": "Complete a ranked online game",
      "description": "Play and Complete an Online ranked game",
      "howto": "Play and Complete an Online ranked game"
    },
    {
      "id": 20,
      "imageId": 16,
      "cred": 50,
      "flags": 1,
      "label": "Tournament Champion",
      "description": "Win a tournament with a minimum of 3 games played in All Star mode",
      "howto": "Win a tournament with a minimum of 3 games played in All Star mode"
    },
    {
      "id": 21,
      "imageId": 17,
      "cred": 25,
      "flags": 1,
      "label": "Shootout Winner",
      "description": "Win a game in shootout mode",
      "howto": "Win a game in shootout mode"
    },
    {
      "id": 22,
      "imageId": 18,
      "cred": 50,
      "flags": 1,
      "label": "Shootout Perfection",
      "description": "Win a shootout 2-0 without taking the third shot in the shootout",
      "howto": "Win a shootout 2-0 without taking the third shot in the shootout"
    },
    {
      "id": 23,
      "imageId": 19,
      "cred": 25,
      "flags": 1,
      "label": "Finish a season in Dynasty Mode™",
      "description": "Complete a season in Dynasty Mode™",
      "howto": "Complete a season in Dynasty Mode™"
    },
    {
      "id": 24,
      "imageId": 20,
      "cred": 50,
      "flags": 1,
      "label": "Earn 100 pts in a season",
      "description": "Your team must earn 100 points in a season in Dynasty Mode™",
      "howto": "Your team must earn 100 points in a season in Dynasty Mode™"
    },
    {
      "id": 25,
      "imageId": 21,
      "cred": 25,
      "flags": 1,
      "label": "Win the President's Trophy",
      "description": "Come in first place overall during a season in Dynasty Mode™",
      "howto": "Come in first place overall during a season in Dynasty Mode™"
    },
    {
      "id": 26,
      "imageId": 22,
      "cred": 25,
      "flags": 1,
      "label": "Stanley Cup® Champions",
      "description": "Win the Stanley Cup®.  A minimum of 10 games must be played during the playoffs",
      "howto": "Win the Stanley Cup®.  A minimum of 10 games must be played during the playoffs"
    },
    {
      "id": 27,
      "imageId": 23,
      "cred": 50,
      "flags": 1,
      "label": "Complete Dynasty Mode™",
      "description": "Complete all 10 years of Dynasty Mode™",
      "howto": "Complete all 10 years of Dynasty Mode™"
    },
    {
      "id": 28,
      "imageId": 24,
      "cred": 75,
      "flags": 1,
      "label": "MVP",
      "description": "Have a player on your team win Most Valuable Player during a season in Dynasty Mode™",
      "howto": "Have a player on your team win Most Valuable Player during a season in Dynasty Mode™"
    },
    {
      "id": 29,
      "imageId": 25,
      "cred": 75,
      "flags": 1,
      "label": "Playoff MVP",
      "description": "Have a player on your team win the Conn Smythe Trophy as Most Valuable Player during the playoffs",
      "howto": "Have a player on your team win the Conn Smythe Trophy as Most Valuable Player during the playoffs"
    },
    {
      "id": 31,
      "imageId": 26,
      "cred": 75,
      "flags": 1,
      "label": "10 game winning streak",
      "description": "Win 10 games in a row in Dynasty Mode™",
      "howto": "Win 10 games in a row in Dynasty Mode™"
    }
  ]
}