{
  "achievementsPossible": 41,
  "credPossible": 1000,
  "achievements": [
    {
      "id": 1,
      "imageId": 1,
      "cred": 15,
      "flags": 6,
      "label": "Beasted",
      "description": "You have bested a Juggernaut... and that's just the beginning!",
      "howto": "Vanquish a Juggernaut"
    },
    {
      "id": 2,
      "imageId": 2,
      "cred": 15,
      "flags": 6,
      "label": "General demoted",
      "description": "You have slain a Deadwalker General and saved the village of Valvenor from a massacre.",
      "howto": "Vanquish a Deadwalker General."
    },
    {
      "id": 3,
      "imageId": 3,
      "cred": 15,
      "flags": 6,
      "label": "Farewell my Concubine",
      "description": "Your aggressive stance on polygamy has taken its first victim in Blackfrost's entourage.",
      "howto": "Vanquish a Concubine"
    },
    {
      "id": 4,
      "imageId": 4,
      "cred": 15,
      "flags": 6,
      "label": "...the harder they fall",
      "description": "You have bested Lord Blackfrost himself!",
      "howto": "Vanquish Lord Blackfrost"
    },
    {
      "id": 5,
      "imageId": 5,
      "cred": 10,
      "flags": 1,
      "label": "The one and only Lord",
      "description": "You have stripped the Ice Lords of their power and taken control of Vertiel.",
      "howto": "Become the most powerful being on Vertiel"
    },
    {
      "id": 6,
      "imageId": 6,
      "cred": 15,
      "flags": 1,
      "label": "Purifying fire",
      "description": "You decided that there was nothing left of Vertiel to save, and taken extreme measures.",
      "howto": "Purify Vertiel by bathing it in flame"
    },
    {
      "id": 7,
      "imageId": 7,
      "cred": 15,
      "flags": 1,
      "label": "Sacrifice",
      "description": "Your heroic actions have saved Vertiel…and you have paid with your own life.",
      "howto": "Use the energy of the Worldheart to annihilate the Ice lords and save Vertiel"
    },
    {
      "id": 8,
      "imageId": 8,
      "cred": 30,
      "flags": 1,
      "label": "Unleash the Beast",
      "description": "To hell with humanity, even your own: you have decided that the power is worth the sacrifice.",
      "howto": "Accomplish your transformation by following the demon's way"
    },
    {
      "id": 9,
      "imageId": 9,
      "cred": 30,
      "flags": 1,
      "label": "Humanist",
      "description": "You have controlled the inner voice and taken care to preserve your humanity until the end.",
      "howto": "Preserve your humanity"
    },
    {
      "id": 10,
      "imageId": 10,
      "cred": 110,
      "flags": 6,
      "label": "Mercenary",
      "description": "Either for love of your fellow human or simple greed, you have accomplished your 20th side quest.",
      "howto": "Accomplish 20 side quests"
    },
    {
      "id": 11,
      "imageId": 11,
      "cred": 30,
      "flags": 6,
      "label": "Ice breaker",
      "description": "You have melted Edwen's frosty facade. Or at least, she checks you out when you're not looking.",
      "howto": "Seduce Edwen"
    },
    {
      "id": 12,
      "imageId": 12,
      "cred": 30,
      "flags": 6,
      "label": "Romance with pointy ears",
      "description": "You have bested Rhelmar at his own game: The ladykiller Elf has a crush on you.",
      "howto": "Seduce Rhelmar"
    },
    {
      "id": 13,
      "imageId": 13,
      "cred": 30,
      "flags": 6,
      "label": "Erudite love",
      "description": "Responding both to your kindness, and your advances, the ravishing Sybil has the hots for you.",
      "howto": "Seduce Sybil"
    },
    {
      "id": 14,
      "imageId": 14,
      "cred": 30,
      "flags": 6,
      "label": "Chivalrandy",
      "description": "Randval has abandoned his deathwish while succumbing to your charms. Double whammy!",
      "howto": "Seduce Randval"
    },
    {
      "id": 15,
      "imageId": 15,
      "cred": 20,
      "flags": 6,
      "label": "Patron",
      "description": "You proved yourself a guardian of the seekers of knowledge by fulfilling all of Sybil's missions.",
      "howto": "Accomplish all of Sybil's personal quests"
    },
    {
      "id": 16,
      "imageId": 16,
      "cred": 20,
      "flags": 6,
      "label": "A fulfilled elf",
      "description": "You have shown Rhelmar he can count on you.",
      "howto": "Accomplish all of Rhelmar's personal quests"
    },
    {
      "id": 17,
      "imageId": 17,
      "cred": 20,
      "flags": 6,
      "label": "Without fear, without reproach",
      "description": "You have helped Randval resolve all of his personal problems...well, most of them anyway.",
      "howto": "Accomplish all of Randval's personal quests"
    },
    {
      "id": 18,
      "imageId": 18,
      "cred": 20,
      "flags": 6,
      "label": "At the lady's service",
      "description": "You have made the effort to respond to all of Edwen's demands. She even thanked you....once.",
      "howto": "Accomplish all of Edwen's personal quests"
    },
    {
      "id": 19,
      "imageId": 19,
      "cred": 25,
      "flags": 1,
      "label": "Hawk",
      "description": "You have reached the end of Bound by Flame. Not bad, for a scout.",
      "howto": "Complete Bound by Flame in the Hawk difficulty mode"
    },
    {
      "id": 20,
      "imageId": 20,
      "cred": 45,
      "flags": 1,
      "label": "Buffalo",
      "description": "As a good veteran, you have managed to complete Bound by Flame under difficult conditions.",
      "howto": "Complete Bound by Flame in the Buffalo difficulty mode"
    },
    {
      "id": 21,
      "imageId": 21,
      "cred": 110,
      "flags": 1,
      "label": "Captain",
      "description": "As a worthy Captain, you have completed Bound by Flame under the most extreme conditions.",
      "howto": "Complete Bound by Flame in the Captain difficulty mode"
    },
    {
      "id": 22,
      "imageId": 22,
      "cred": 10,
      "flags": 4,
      "label": "Just a warm-up",
      "description": "You learn to use your weapons. 25 people have already done so before you.",
      "howto": "Vanquish 25 enemies"
    },
    {
      "id": 23,
      "imageId": 23,
      "cred": 30,
      "flags": 4,
      "label": "Just a warning",
      "description": "You had earned the curiosity of the Ice Lords. 75 kills later, you have their attention.",
      "howto": "Vanquish 75 enemies"
    },
    {
      "id": 24,
      "imageId": 24,
      "cred": 110,
      "flags": 4,
      "label": "Just a slaughter",
      "description": "With 150 victims, you are officially the bane of the Deadwalkers.",
      "howto": "Vanquish 150 enemies"
    },
    {
      "id": 25,
      "imageId": 25,
      "cred": 10,
      "flags": 4,
      "label": "Shot your bolt",
      "description": "Thanks to you, 50 crossbow bolts have found a new home in your enemies' flesh.",
      "howto": "Fire 50 crossbow bolts"
    },
    {
      "id": 26,
      "imageId": 26,
      "cred": 10,
      "flags": 4,
      "label": "Bloody hell",
      "description": "You have killed 50 enemies with a dagger. People often talk about you to frighten small children.",
      "howto": "Kill 50 enemies with daggers"
    },
    {
      "id": 27,
      "imageId": 27,
      "cred": 10,
      "flags": 4,
      "label": "Quite a hammering",
      "description": "You have slain or re-slain more than 50 enemies with a warhammer. That is rather violent.",
      "howto": "Kill 50 enemies with a warhammer"
    },
    {
      "id": 28,
      "imageId": 28,
      "cred": 10,
      "flags": 4,
      "label": "Sword it out",
      "description": "49 enemies killed with a sword. You crossed the line...and then some.",
      "howto": "Kill 50 enemies with a sword"
    },
    {
      "id": 29,
      "imageId": 29,
      "cred": 10,
      "flags": 4,
      "label": "Psycho killer",
      "description": "You have slain enough victims with an axe to fuel urban legends for centuries to come.",
      "howto": "Kill 50 enemies with an axe"
    },
    {
      "id": 30,
      "imageId": 30,
      "cred": 10,
      "flags": 4,
      "label": "It's a trap!",
      "description": "You like setting booby-traps and they work. More than twenty have already fallen to them.",
      "howto": "Set 20 traps and have them sprung"
    },
    {
      "id": 31,
      "imageId": 31,
      "cred": 10,
      "flags": 4,
      "label": "I'm on fire",
      "description": "You have transformed your enemies into flaming torches 50 times. They have probably got the message.",
      "howto": "Set your enemies aflame 50 times"
    },
    {
      "id": 32,
      "imageId": 32,
      "cred": 10,
      "flags": 4,
      "label": "First come, first served",
      "description": "Knowing that no one would argue with you, you have looted 20 chests.",
      "howto": "Loot 20 chests"
    },
    {
      "id": 33,
      "imageId": 33,
      "cred": 10,
      "flags": 4,
      "label": "And I don't throw things away",
      "description": "You've learned to recycle objects that you no longer need, instead of throwing them away.",
      "howto": "Recycle 30 objects"
    },
    {
      "id": 34,
      "imageId": 34,
      "cred": 10,
      "flags": 4,
      "label": "Craftsmanship",
      "description": "Congratulations! With all the objects you have made, you could open up a store.",
      "howto": "Make 100 objects (potions, booby-traps and munitions)"
    },
    {
      "id": 35,
      "imageId": 35,
      "cred": 10,
      "flags": 4,
      "label": "Blacksmith",
      "description": "You have learned the secrets of improving weapons and armour.",
      "howto": "Make 5 improvements to your weapons and armour"
    },
    {
      "id": 36,
      "imageId": 36,
      "cred": 10,
      "flags": 4,
      "label": "Vulture",
      "description": "You have learned the habit of looting the bodies of fallen enemies. That's war for you...",
      "howto": "Search 50 fallen enemies"
    },
    {
      "id": 37,
      "imageId": 37,
      "cred": 10,
      "flags": 4,
      "label": "Chrysalid",
      "description": "You have played the poison card more than 50 times. It works every time.",
      "howto": "Poison your enemies 50 times"
    },
    {
      "id": 38,
      "imageId": 38,
      "cred": 10,
      "flags": 2,
      "label": "First steps",
      "description": "You have upgraded your first skill, and improved your chances of survival at the same time.",
      "howto": "Upgrade a skill"
    },
    {
      "id": 39,
      "imageId": 39,
      "cred": 20,
      "flags": 2,
      "label": "Master at arms",
      "description": "There is no better warrior than you in all of Vertiel. Even among the Freeborn Blades.",
      "howto": "Unlock all the the Warrior skills and their upgrades"
    },
    {
      "id": 40,
      "imageId": 40,
      "cred": 20,
      "flags": 2,
      "label": "Master Ranger",
      "description": "The Ranger skills hold no more secrets for you.",
      "howto": "Unlock all of the skills of a Ranger and their upgrades"
    },
    {
      "id": 41,
      "imageId": 41,
      "cred": 20,
      "flags": 2,
      "label": "Firestarter",
      "description": "Skill after skill, you have truly mastered the art of playing with fire.",
      "howto": "Unlock all the Pyromancer specialization skills and their upgrades"
    }
  ]
}