{
  "achievementsPossible": 12,
  "credPossible": 200,
  "achievements": [
    {
      "id": 1,
      "imageId": 1,
      "cred": 5,
      "flags": 1,
      "label": "1 Round Perfect",
      "description": "Complete a perfect round in single player arcade mode.",
      "howto": "Complete a perfect round in single player arcade mode."
    },
    {
      "id": 2,
      "imageId": 2,
      "cred": 15,
      "flags": 1,
      "label": "the Samurai",
      "description": "Complete the single player arcade mode.",
      "howto": "Complete the single player arcade mode."
    },
    {
      "id": 3,
      "imageId": 3,
      "cred": 30,
      "flags": 1,
      "label": "the Perfect Samurai",
      "description": "Complete the single player arcade mode without losing a round.",
      "howto": "Complete the single player arcade mode without losing a round."
    },
    {
      "id": 4,
      "imageId": 4,
      "cred": 10,
      "flags": 1,
      "label": "Man in Black",
      "description": "Kuroko appeared in game as enemy (CPU).",
      "howto": "Kuroko appeared in game as enemy (CPU)."
    },
    {
      "id": 5,
      "imageId": 5,
      "cred": 10,
      "flags": 1,
      "label": "Point Hunter",
      "description": "Achieve over 200,000 points in single player arcade mode.",
      "howto": "Achieve over 200,000 points in single player arcade mode."
    },
    {
      "id": 6,
      "imageId": 6,
      "cred": 20,
      "flags": 1,
      "label": "Straight 5",
      "description": "Achieve 5 straight victories in online ranked matches.",
      "howto": "Achieve 5 straight victories in online ranked matches."
    },
    {
      "id": 7,
      "imageId": 7,
      "cred": 35,
      "flags": 1,
      "label": "Straight 10",
      "description": "Achieve 10 straight victories in online ranked matches.",
      "howto": "Achieve 10 straight victories in online ranked matches."
    },
    {
      "id": 8,
      "imageId": 8,
      "cred": 10,
      "flags": 1,
      "label": "Victory 10",
      "description": "Achieve 10 victories in online ranked matches.",
      "howto": "Achieve 10 victories in online ranked matches.\r\n"
    },
    {
      "id": 9,
      "imageId": 9,
      "cred": 20,
      "flags": 1,
      "label": "Victory 50",
      "description": "Achieve 50 victories in online ranked matches.",
      "howto": "Achieve 50 victories in online ranked matches."
    },
    {
      "id": 10,
      "imageId": 10,
      "cred": 35,
      "flags": 1,
      "label": "Victory 100",
      "description": "Achieve 100 victories in online ranked matches.",
      "howto": "Achieve 100 victories in online ranked matches."
    },
    {
      "id": 11,
      "imageId": 11,
      "cred": 5,
      "flags": 1,
      "label": "Big Apple",
      "description": "Ukyo Tachibana throw big apple.",
      "howto": "Ukyo Tachibana throw big apple."
    },
    {
      "id": 12,
      "imageId": 12,
      "cred": 5,
      "flags": 1,
      "label": "Am I Cute",
      "description": "In any characters, input command 'Super Deformation Moves' to become doll-like version.",
      "howto": "In any characters, input command 'Super Deformation Moves' to become doll-like version."
    }
  ]
}