{
  "achievementsPossible": 19,
  "credPossible": 1000,
  "achievements": [
    {
      "id": 1,
      "imageId": 1,
      "cred": 50,
      "flags": 6,
      "label": "ALTERNATIVE",
      "description": "再び戦場へ",
      "howto": "再び戦場へ向かえ"
    },
    {
      "id": 2,
      "imageId": 2,
      "cred": 50,
      "flags": 6,
      "label": "去りにし日々の光",
      "description": "episode 1 了",
      "howto": "episode 1を終了しよう"
    },
    {
      "id": 3,
      "imageId": 3,
      "cred": 50,
      "flags": 6,
      "label": "兵士よ問うことなかれ",
      "description": "episode 2 了",
      "howto": "episode 2を終了しよう"
    },
    {
      "id": 4,
      "imageId": 4,
      "cred": 50,
      "flags": 6,
      "label": "島をゆく",
      "description": "episode 3 了",
      "howto": "episode 3を終了しよう"
    },
    {
      "id": 5,
      "imageId": 5,
      "cred": 50,
      "flags": 6,
      "label": "報いなき栄光",
      "description": "episode 4 了",
      "howto": "episode 4を終了しよう"
    },
    {
      "id": 6,
      "imageId": 6,
      "cred": 50,
      "flags": 6,
      "label": "家路",
      "description": "episode 5 了",
      "howto": "episode 5を終了しよう"
    },
    {
      "id": 7,
      "imageId": 7,
      "cred": 50,
      "flags": 6,
      "label": "望蜀の下界",
      "description": "episode 6 了",
      "howto": "episode 6を終了しよう"
    },
    {
      "id": 8,
      "imageId": 8,
      "cred": 50,
      "flags": 6,
      "label": "許されざる者",
      "description": "episode 7 了",
      "howto": "episode 7を終了しよう"
    },
    {
      "id": 9,
      "imageId": 9,
      "cred": 50,
      "flags": 6,
      "label": "涙落ちる果て",
      "description": "episode 8 了",
      "howto": "episode 8を終了しよう"
    },
    {
      "id": 10,
      "imageId": 10,
      "cred": 50,
      "flags": 6,
      "label": "終わりなき戦い",
      "description": "episode 9 了",
      "howto": "episode 9を終了しよう"
    },
    {
      "id": 11,
      "imageId": 11,
      "cred": 50,
      "flags": 6,
      "label": "震える時空",
      "description": "episode 10 了",
      "howto": "episode 10を終了しよう"
    },
    {
      "id": 12,
      "imageId": 12,
      "cred": 100,
      "flags": 6,
      "label": "マブラヴ",
      "description": "恋愛原子核となった",
      "howto": "final episode を終了しよう"
    },
    {
      "id": 13,
      "imageId": 13,
      "cred": 40,
      "flags": 3,
      "label": "千鶴",
      "description": "千鶴の遺書を受取った",
      "howto": "千鶴の遺書を受け取る"
    },
    {
      "id": 14,
      "imageId": 14,
      "cred": 40,
      "flags": 3,
      "label": "慧",
      "description": "慧の遺書を受取った",
      "howto": "慧の遺書を受け取る"
    },
    {
      "id": 15,
      "imageId": 16,
      "cred": 40,
      "flags": 3,
      "label": "壬姫",
      "description": "壬姫の遺書を受取った",
      "howto": "壬姫の遺書を受け取る"
    },
    {
      "id": 16,
      "imageId": 15,
      "cred": 40,
      "flags": 3,
      "label": "美琴",
      "description": "美琴の遺書を受取った",
      "howto": "美琴の遺書を受け取る"
    },
    {
      "id": 17,
      "imageId": 17,
      "cred": 40,
      "flags": 3,
      "label": "霞",
      "description": "霞の告白",
      "howto": "霞の告白を聞く"
    },
    {
      "id": 18,
      "imageId": 18,
      "cred": 100,
      "flags": 3,
      "label": "警告劇場",
      "description": "警告られた",
      "howto": "警告られよう"
    },
    {
      "id": 19,
      "imageId": 19,
      "cred": 50,
      "flags": 3,
      "label": "CHAPTER OPEN",
      "description": "CHAPTERモードが開いた",
      "howto": "クリアしてみよう"
    }
  ]
}