{
  "achievementsPossible": 50,
  "credPossible": 1000,
  "achievements": [
    {
      "id": 73,
      "imageId": 3,
      "cred": 5,
      "flags": 1,
      "label": "烈怒",
      "description": "烈怒モードを使用した。（Black Label ・Novice モードのみ）",
      "howto": "烈怒モードを使用する。（Black Label ・Novice モードのみ）"
    },
    {
      "id": 74,
      "imageId": 5,
      "cred": 5,
      "flags": 1,
      "label": "覚悟OK!",
      "description": "STRONG STYLEを選択した。（Black Label ・Novice モードのみ）",
      "howto": "STRONG STYLEを選択する。（Black Label ・Novice モードのみ）"
    },
    {
      "id": 75,
      "imageId": 8,
      "cred": 5,
      "flags": 1,
      "label": "ハイパー発動！",
      "description": "ボムストックを使用してハイパーカウンターモードを発動した。（Black Label ・Novice モードのみ）",
      "howto": "ボムストックを使用してハイパーカウンターモードを発動する。（Black Label ・Novice モードのみ）"
    },
    {
      "id": 76,
      "imageId": 9,
      "cred": 10,
      "flags": 1,
      "label": "ハイパーキャンセル",
      "description": "ハイパーカウンターモードをキャンセルした。（Black Label ・Novice モードのみ）",
      "howto": "ハイパーカウンターモードをキャンセルする。（Black Label ・Novice モードのみ）"
    },
    {
      "id": 77,
      "imageId": 11,
      "cred": 10,
      "flags": 1,
      "label": "烈怒ＭＡＸ",
      "description": "烈怒ゲージをＭＡＸにした。（Black Label ・Novice モードのみ）",
      "howto": "烈怒ゲージをＭＡＸにする。（Black Label ・Novice モードのみ）"
    },
    {
      "id": 78,
      "imageId": 14,
      "cred": 25,
      "flags": 1,
      "label": "黒BOMB",
      "description": "BOMB STYLE で  ]-[|/34<#! を撃破した。（Black Label モードのみ）",
      "howto": "BOMB STYLE で  ]-[|/34<#! を撃破する。（Black Label モードのみ）"
    },
    {
      "id": 79,
      "imageId": 15,
      "cred": 25,
      "flags": 1,
      "label": "黒POWER",
      "description": "POWER STYLE で ]-[|/34<#! を撃破した。（Black Label モードのみ）",
      "howto": "POWER STYLE で ]-[|/34<#! を撃破する。（Black Label モードのみ）"
    },
    {
      "id": 80,
      "imageId": 16,
      "cred": 50,
      "flags": 1,
      "label": "黒STRONG",
      "description": "STRONG STYLE で ]-[|/34<#! を撃破した。（Black Label モードのみ）",
      "howto": "STRONG STYLE で ]-[|/34<#! を撃破する。（Black Label モードのみ）"
    },
    {
      "id": 81,
      "imageId": 17,
      "cred": 15,
      "flags": 1,
      "label": "かかえおち",
      "description": "BOMBをひとつも使用せずにゲームオーバーになりました。（Black Label モードのみ）（秘密の実績）",
      "howto": "（秘密の実績）"
    },
    {
      "id": 82,
      "imageId": 23,
      "cred": 100,
      "flags": 1,
      "label": "_@-zv_@",
      "description": "_@-zv_@を撃破した。（Black Label モードのみ）（秘密の実績）",
      "howto": "（秘密の実績）"
    },
    {
      "id": 84,
      "imageId": 25,
      "cred": 30,
      "flags": 1,
      "label": "BOMB使い",
      "description": "BOMB STYLE で 3000億取得した。（Black Label ・Novice モードのみ）",
      "howto": "BOMB STYLE で 3000億取得する。（Black Label ・Novice モードのみ）"
    },
    {
      "id": 85,
      "imageId": 26,
      "cred": 30,
      "flags": 1,
      "label": "POWER使い",
      "description": "POWER STYLE で 6000億取得した。（Black Label ・Novice モードのみ）",
      "howto": "POWER STYLE で 6000億取得する。（Black Label ・Novice モードのみ）"
    },
    {
      "id": 86,
      "imageId": 27,
      "cred": 30,
      "flags": 1,
      "label": "STRONG使い",
      "description": "STRONG STYLE で 5000億取得した。（Black Label ・Novice モードのみ）",
      "howto": "STRONG STYLE で 5000億取得する。（Black Label ・Novice モードのみ）"
    },
    {
      "id": 87,
      "imageId": 28,
      "cred": 5,
      "flags": 1,
      "label": "白蜂",
      "description": "白い蜂アイテムを取得した。（Black Label ・Novice モードのみ）",
      "howto": "白い蜂アイテムを取得する。（Black Label ・Novice モードのみ）"
    },
    {
      "id": 88,
      "imageId": 29,
      "cred": 25,
      "flags": 1,
      "label": "作戦終了です。",
      "description": "クリアした。（Black Label ・Novice モードのみ）",
      "howto": "クリアする。（Black Label ・Novice モードのみ）"
    },
    {
      "id": 89,
      "imageId": 30,
      "cred": 20,
      "flags": 1,
      "label": "星",
      "description": "得点アイテム(大)を 1 AREA で5000個取得した。（Black Label ・Novice モードのみ）",
      "howto": "得点アイテム(大)を 1 AREA で5000個取得する。（Black Label ・Novice モードのみ）"
    },
    {
      "id": 90,
      "imageId": 31,
      "cred": 10,
      "flags": 1,
      "label": "遠回り",
      "description": "BOMB STYLE の AREA 1 で裏面に突入した。（Black Label モードのみ）",
      "howto": "BOMB  STYLE の AREA 1 で裏面に突入する。（Black Label モードのみ）"
    },
    {
      "id": 91,
      "imageId": 32,
      "cred": 25,
      "flags": 1,
      "label": "激戦へ",
      "description": "STRONG  STYLE の AREA 1 で裏面に突入した。（Black Label モードのみ）",
      "howto": "STRONG  STYLE の AREA 1 で裏面に突入する。（Black Label モードのみ）"
    },
    {
      "id": 92,
      "imageId": 33,
      "cred": 15,
      "flags": 1,
      "label": "ジクウコウ",
      "description": "ジクウコウを倒した。（Black Label ・Novice モードのみ）",
      "howto": "ジクウコウを倒す。（Black Label ・Novice モードのみ）"
    },
    {
      "id": 93,
      "imageId": 34,
      "cred": 5,
      "flags": 1,
      "label": "アイ",
      "description": "AREA 1 ボス エレメント・ドーター アイを撃破した。（Black Label ・Novice モードのみ）",
      "howto": "AREA 1 ボス エレメント・ドーター アイを撃破する。（Black Label ・Novice モードのみ）"
    },
    {
      "id": 94,
      "imageId": 35,
      "cred": 5,
      "flags": 1,
      "label": "ネクスィ",
      "description": "AREA 2 ボス エレメント・ドーター ネクスィを撃破した。（Black Label ・Novice モードのみ）",
      "howto": "AREA 2 ボス エレメント・ドーター ネクスィを撃破する。（Black Label ・Novice モードのみ）"
    },
    {
      "id": 95,
      "imageId": 36,
      "cred": 5,
      "flags": 1,
      "label": "ぱふぇ☆",
      "description": "AREA 3 ボス エレメント・ドーター ぱふぇ☆を撃破した。（Black Label ・Novice モードのみ）",
      "howto": "AREA 3 ボス エレメント・ドーター ぱふぇ☆を撃破する。（Black Label ・Novice モードのみ）"
    },
    {
      "id": 96,
      "imageId": 37,
      "cred": 10,
      "flags": 1,
      "label": "レイン",
      "description": "AREA 4 ボス エレメント・ドーター レインを撃破した。（Black Label ・Novice モードのみ）",
      "howto": "AREA 4 ボス エレメント・ドーター レインを撃破する。（Black Label ・Novice モードのみ）"
    },
    {
      "id": 97,
      "imageId": 38,
      "cred": 10,
      "flags": 1,
      "label": "シューティ",
      "description": "AREA 5 ボス エレメント・ドーター シューティを撃破した。（Black Label ・Novice モードのみ）",
      "howto": "AREA 5 ボス エレメント・ドーター シューティを撃破する。（Black Label ・Novice モードのみ）"
    },
    {
      "id": 98,
      "imageId": 39,
      "cred": 25,
      "flags": 1,
      "label": "獄滅極戮至高兵器",
      "description": "ゴールデン・ディザスターを撃破した。（Black Label ・Novice モードのみ）",
      "howto": "ゴールデン・ディザスターを撃破する。（Black Label ・Novice モードのみ）"
    },
    {
      "id": 99,
      "imageId": 40,
      "cred": 15,
      "flags": 1,
      "label": "5000Hit!",
      "description": "5000Hit!した。（Black Label ・Novice モードのみ）",
      "howto": "5000Hit!する。（Black Label ・Novice モードのみ）"
    },
    {
      "id": 100,
      "imageId": 41,
      "cred": 50,
      "flags": 1,
      "label": "10000Hit!",
      "description": "10000Hit!した。（Black Label ・Novice モードのみ）",
      "howto": "10000Hit!する。（Black Label ・Novice モードのみ）"
    },
    {
      "id": 101,
      "imageId": 42,
      "cred": 10,
      "flags": 1,
      "label": "烈怒MAX撃破",
      "description": "ボスを烈怒MAXで撃破した。（Black Label ・Novice モードのみ）",
      "howto": "ボスを烈怒MAXで撃破する。（Black Label ・Novice モードのみ）"
    },
    {
      "id": 102,
      "imageId": 43,
      "cred": 50,
      "flags": 1,
      "label": "全エレメントドーター全烈怒MAX全撃破",
      "description": "全てのエレメントドーターを烈怒MAXで撃破した。（Black Label ・Novice モードのみ）",
      "howto": "全てのエレメントドーターを烈怒MAXで撃破する。（Black Label ・Novice モードのみ）"
    },
    {
      "id": 103,
      "imageId": 44,
      "cred": 10,
      "flags": 1,
      "label": "２倍ゲットだぜ！",
      "description": "累計点の倍率を２倍にした。（Black Label ・Novice モードのみ）",
      "howto": "累計点の倍率を２倍にする。（Black Label ・Novice モードのみ）"
    },
    {
      "id": 104,
      "imageId": 45,
      "cred": 15,
      "flags": 1,
      "label": "３倍ゲットだぜ！！",
      "description": "累計点の倍率を３倍にした。（Black Label ・Novice モードのみ）",
      "howto": "累計点の倍率を３倍にする。（Black Label ・Novice モードのみ）"
    },
    {
      "id": 105,
      "imageId": 46,
      "cred": 15,
      "flags": 1,
      "label": "４倍ゲットだぜ！！！",
      "description": "累計点の倍率を４倍にした。（Black Label ・Novice モードのみ）",
      "howto": "累計点の倍率を４倍にする。（Black Label ・Novice モードのみ）"
    },
    {
      "id": 106,
      "imageId": 47,
      "cred": 20,
      "flags": 1,
      "label": "５倍ゲットだぜ！！！！",
      "description": "累計点の倍率を５倍にした。（Black Label ・Novice モードのみ）",
      "howto": "累計点の倍率を５倍にする。（Black Label ・Novice モードのみ）"
    },
    {
      "id": 107,
      "imageId": 48,
      "cred": 20,
      "flags": 1,
      "label": "６倍ゲットだぜ！！！！！",
      "description": "累計点の倍率を６倍にした。（Black Label ・Novice モードのみ）",
      "howto": "累計点の倍率を６倍にする。（Black Label ・Novice モードのみ）"
    },
    {
      "id": 108,
      "imageId": 49,
      "cred": 30,
      "flags": 1,
      "label": "７倍ゲットだぜ！！！！！！",
      "description": "累計点の倍率を７倍にした。（Black Label ・Novice モードのみ）",
      "howto": "累計点の倍率を７倍にする。（Black Label ・Novice モードのみ）"
    },
    {
      "id": 109,
      "imageId": 50,
      "cred": 10,
      "flags": 1,
      "label": "やっちゃった…。",
      "description": "コンボが切れた。（Black Label ・Novice モードのみ）（秘密の実績）",
      "howto": "（秘密の実績）"
    },
    {
      "id": 110,
      "imageId": 51,
      "cred": 20,
      "flags": 1,
      "label": "ティガリリオオスギ",
      "description": "ティガリリの出現数がＭＡＸになった。",
      "howto": "ティガリリの出現数をＭＡＸにする。"
    },
    {
      "id": 111,
      "imageId": 52,
      "cred": 10,
      "flags": 1,
      "label": "倍率チップ[１]１０００個取得しました。",
      "description": "倍率チップ[１]を１エリアで１０００個取得した。（Arrange モードのみ）",
      "howto": "倍率チップ[１]を１エリアで１０００個取得する。（Arrange モードのみ）"
    },
    {
      "id": 112,
      "imageId": 53,
      "cred": 10,
      "flags": 1,
      "label": "倍率チップ[２]２００個取得しました。",
      "description": "倍率チップ[２]を１エリアで２００個取得した。（Arrange モードのみ）",
      "howto": "倍率チップ[２]を１エリアで２００個取得する。（Arrange モードのみ）"
    },
    {
      "id": 113,
      "imageId": 54,
      "cred": 10,
      "flags": 1,
      "label": "倍率チップ[３]２００個取得しました。",
      "description": "倍率チップ[３]を１エリアで２００個取得した。（Arrange モードのみ）",
      "howto": "倍率チップ[３]を１エリアで２００個取得する。（Arrange モードのみ）"
    },
    {
      "id": 114,
      "imageId": 55,
      "cred": 10,
      "flags": 1,
      "label": "倍率チップ[４]２００個取得しました。",
      "description": "倍率チップ[４]を１エリアで２００個取得した。（Arrange モードのみ）",
      "howto": "倍率チップ[４]を１エリアで２００個取得する。（Arrange モードのみ）"
    },
    {
      "id": 115,
      "imageId": 56,
      "cred": 20,
      "flags": 1,
      "label": "倍率チップ[５]１０００個取得しました。",
      "description": "倍率チップ[５]を１エリアで１０００個取得した。（Arrange モードのみ）",
      "howto": "倍率チップ[５]を１エリアで１０００個取得する。（Arrange モードのみ）"
    },
    {
      "id": 116,
      "imageId": 57,
      "cred": 40,
      "flags": 1,
      "label": "倍率チップ[１０]２０００個取得しました。",
      "description": "倍率チップ[１０]を１エリアで２０００個取得した。（Arrange モードのみ）",
      "howto": "倍率チップ[１０]を１エリアで２０００個取得する。（Arrange モードのみ）"
    },
    {
      "id": 117,
      "imageId": 58,
      "cred": 5,
      "flags": 1,
      "label": "倍率チップてんこ盛り",
      "description": "敵破壊時の敵弾消しで倍率チップ[１０]を１００個以上出した。（Arrange モードのみ）",
      "howto": "敵破壊時の敵弾消しで倍率チップ[１０]を１００個以上出す。（Arrange モードのみ）"
    },
    {
      "id": 118,
      "imageId": 59,
      "cred": 5,
      "flags": 1,
      "label": "倍率チップ数珠繋ぎ",
      "description": "レーザーを発射した敵破壊時のレーザー消去時に倍率チップを２０個以上出した。（Arrange モードのみ）",
      "howto": "レーザーを発射した敵破壊時のレーザー消去時に倍率チップを２０個以上出す。（Arrange モードのみ）"
    },
    {
      "id": 119,
      "imageId": 60,
      "cred": 10,
      "flags": 1,
      "label": "倍率本仕込み",
      "description": "ボス撃破時に倍率チップをセットした。（Arrange モードのみ）（秘密の実績）",
      "howto": "（秘密の実績）"
    },
    {
      "id": 120,
      "imageId": 61,
      "cred": 5,
      "flags": 1,
      "label": "ピピピピピピ！",
      "description": "５フレーム以内に同一の敵をFULL LOCKした。（Arrange モードのみ）",
      "howto": "５フレーム以内に同一の敵をFULL LOCKする。（Arrange モードのみ）"
    },
    {
      "id": 121,
      "imageId": 62,
      "cred": 5,
      "flags": 1,
      "label": "FULL LOCK is BOMB",
      "description": "FULL LOCK BOMBを発射した。（Arrange モードのみ）",
      "howto": "FULL LOCK BOMBを発射する。（Arrange モードのみ）"
    },
    {
      "id": 122,
      "imageId": 63,
      "cred": 5,
      "flags": 1,
      "label": "必殺BOMB返し！",
      "description": "BOMBでBOMBを止められた。（Arrange モードのみ）（秘密の実績）",
      "howto": "（秘密の実績）"
    },
    {
      "id": 123,
      "imageId": 64,
      "cred": 100,
      "flags": 1,
      "label": "エヴァッカニア・ドゥーム",
      "description": "エヴァッカニア・ドゥームを撃破した。（Arrange モードのみ）",
      "howto": "エヴァッカニア・ドゥームを撃破する。（Arrange モードのみ）"
    }
  ]
}