[
  {
    "titleId": 1482099164,
    "largeId": 132096,
    "smallId": 66560,
    "commonId": 1024
  },
  {
    "titleId": 1482099164,
    "largeId": 132097,
    "smallId": 66561,
    "commonId": 1025
  },
  {
    "titleId": 1482099164,
    "largeId": 132098,
    "smallId": 66562,
    "commonId": 1026
  },
  {
    "titleId": 1482099164,
    "largeId": 132099,
    "smallId": 66563,
    "commonId": 1027
  },
  {
    "titleId": 1482099164,
    "largeId": 132100,
    "smallId": 66564,
    "commonId": 1028
  },
  {
    "titleId": 1482099164,
    "largeId": 132101,
    "smallId": 66565,
    "commonId": 1029
  },
  {
    "titleId": 1482099164,
    "largeId": 132102,
    "smallId": 66566,
    "commonId": 1030
  },
  {
    "titleId": 1482099164,
    "largeId": 132103,
    "smallId": 66567,
    "commonId": 1031
  },
  {
    "titleId": 1482099164,
    "largeId": 132104,
    "smallId": 66568,
    "commonId": 1032
  },
  {
    "titleId": 1482099164,
    "largeId": 132105,
    "smallId": 66569,
    "commonId": 1033
  },
  {
    "titleId": 1482099164,
    "largeId": 132106,
    "smallId": 66570,
    "commonId": 1034
  },
  {
    "titleId": 1482099164,
    "largeId": 132107,
    "smallId": 66571,
    "commonId": 1035
  },
  {
    "titleId": 1482099164,
    "largeId": 132108,
    "smallId": 66572,
    "commonId": 1036
  },
  {
    "titleId": 1482099164,
    "largeId": 132109,
    "smallId": 66573,
    "commonId": 1037
  },
  {
    "titleId": 1482099164,
    "largeId": 132110,
    "smallId": 66574,
    "commonId": 1038
  },
  {
    "titleId": 1482099164,
    "largeId": 132111,
    "smallId": 66575,
    "commonId": 1039
  },
  {
    "titleId": 1482099164,
    "largeId": 132112,
    "smallId": 66576,
    "commonId": 1040
  },
  {
    "titleId": 1482099164,
    "largeId": 132113,
    "smallId": 66577,
    "commonId": 1041
  },
  {
    "titleId": 1482099164,
    "largeId": 132114,
    "smallId": 66578,
    "commonId": 1042
  },
  {
    "titleId": 1482099164,
    "largeId": 132115,
    "smallId": 66579,
    "commonId": 1043
  },
  {
    "titleId": 1482099164,
    "largeId": 132116,
    "smallId": 66580,
    "commonId": 1044
  },
  {
    "titleId": 1482099164,
    "largeId": 132117,
    "smallId": 66581,
    "commonId": 1045
  },
  {
    "titleId": 1482099164,
    "largeId": 132118,
    "smallId": 66582,
    "commonId": 1046
  },
  {
    "titleId": 1482099164,
    "largeId": 132119,
    "smallId": 66583,
    "commonId": 1047
  },
  {
    "titleId": 1482099164,
    "largeId": 132120,
    "smallId": 66584,
    "commonId": 1048
  },
  {
    "titleId": 1482099164,
    "largeId": 132121,
    "smallId": 66585,
    "commonId": 1049
  },
  {
    "titleId": 1482099164,
    "largeId": 132122,
    "smallId": 66586,
    "commonId": 1050
  },
  {
    "titleId": 1482099164,
    "largeId": 132123,
    "smallId": 66587,
    "commonId": 1051
  }
]