{
  "achievementsPossible": 50,
  "credPossible": 1000,
  "achievements": [
    {
      "id": 1,
      "imageId": 1,
      "cred": 5,
      "flags": 6,
      "label": "始まりの悪夢",
      "description": "ステージ１をクリアした。",
      "howto": "ステージ１をクリアした。"
    },
    {
      "id": 2,
      "imageId": 2,
      "cred": 5,
      "flags": 6,
      "label": "“罪人監獄”脱出！",
      "description": "ステージ２をクリアした。",
      "howto": "ステージ２をクリアした。"
    },
    {
      "id": 3,
      "imageId": 3,
      "cred": 10,
      "flags": 6,
      "label": "“拷問刑場”突破！",
      "description": "ステージ３をクリアした。",
      "howto": "ステージ３をクリアした。"
    },
    {
      "id": 4,
      "imageId": 4,
      "cred": 10,
      "flags": 6,
      "label": "“審問法廷”通過！",
      "description": "ステージ４をクリアした。",
      "howto": "ステージ４をクリアした。"
    },
    {
      "id": 5,
      "imageId": 5,
      "cred": 15,
      "flags": 6,
      "label": "“暴風の中庭”横断！",
      "description": "ステージ５をクリアした。",
      "howto": "ステージ５をクリアした。"
    },
    {
      "id": 6,
      "imageId": 6,
      "cred": 15,
      "flags": 6,
      "label": "“時計塔”攻略！",
      "description": "ステージ６をクリアした。",
      "howto": "ステージ６をクリアした。"
    },
    {
      "id": 7,
      "imageId": 7,
      "cred": 20,
      "flags": 6,
      "label": "“祭壇への路”踏破！",
      "description": "ステージ７をクリアした。",
      "howto": "ステージ７をクリアした。"
    },
    {
      "id": 8,
      "imageId": 8,
      "cred": 20,
      "flags": 6,
      "label": "伝説の達成！",
      "description": "ステージ８をクリアした。",
      "howto": "ステージ８をクリアした。"
    },
    {
      "id": 9,
      "imageId": 9,
      "cred": 30,
      "flags": 6,
      "label": "真なる自由へ！",
      "description": "ステージ９をクリアした。",
      "howto": "ステージ９をクリアした。"
    },
    {
      "id": 10,
      "imageId": 10,
      "cred": 10,
      "flags": 1,
      "label": "グッドナイトベイビー",
      "description": "恋人に振られるエンド（恋人バッド）を見た。",
      "howto": "恋人に振られるエンド（恋人バッド）を見た。"
    },
    {
      "id": 11,
      "imageId": 11,
      "cred": 10,
      "flags": 1,
      "label": "不死身の男",
      "description": "浮気相手に振られるエンド（浮気バッド）を見た。",
      "howto": "浮気相手に振られるエンド（浮気バッド）を見た。"
    },
    {
      "id": 12,
      "imageId": 12,
      "cred": 10,
      "flags": 1,
      "label": "あの頃のままで",
      "description": "恋人との復縁エンド（恋人ノーマル）を見た。",
      "howto": "恋人との復縁エンド（恋人ノーマル）を見た。"
    },
    {
      "id": 13,
      "imageId": 13,
      "cred": 10,
      "flags": 1,
      "label": "眠らない夜",
      "description": "浮気相手との復縁エンド（浮気ノーマル）を見た。",
      "howto": "浮気相手との復縁エンド（浮気ノーマル）を見た。"
    },
    {
      "id": 14,
      "imageId": 14,
      "cred": 10,
      "flags": 1,
      "label": "いい日旅立ち",
      "description": "恋人との結婚エンド（恋人トゥルー）を見た。",
      "howto": "恋人との結婚エンド（恋人トゥルー）を見た。"
    },
    {
      "id": 15,
      "imageId": 15,
      "cred": 10,
      "flags": 1,
      "label": "夜の帝王",
      "description": "浮気相手との結婚エンド（浮気トゥルー）を見た。",
      "howto": "浮気相手との結婚エンド（浮気トゥルー）を見た。"
    },
    {
      "id": 16,
      "imageId": 16,
      "cred": 10,
      "flags": 1,
      "label": "勝手にしやがれ",
      "description": "あえて一人を選ぶエンドを見た（自由ノーマル）。",
      "howto": "あえて一人を選ぶエンドを見た（自由ノーマル）。"
    },
    {
      "id": 17,
      "imageId": 17,
      "cred": 10,
      "flags": 1,
      "label": "終わりなき旅",
      "description": "旅立ちエンドを見た（自由トゥルー）。",
      "howto": "旅立ちエンドを見た（自由トゥルー）。"
    },
    {
      "id": 18,
      "imageId": 18,
      "cred": 100,
      "flags": 1,
      "label": "全ての夢を手にいれた男",
      "description": "全てのエンディングを見た。",
      "howto": "全てのエンディングを見た。"
    },
    {
      "id": 19,
      "imageId": 19,
      "cred": 10,
      "flags": 4,
      "label": "ジャーナリストの決意",
      "description": "ジャスティンの悩みを解決した。",
      "howto": "ジャスティンの悩みを解決した。"
    },
    {
      "id": 20,
      "imageId": 20,
      "cred": 10,
      "flags": 4,
      "label": "支配からの卒業",
      "description": "トッドの悩みを解決した。",
      "howto": "トッドの悩みを解決した。"
    },
    {
      "id": 21,
      "imageId": 21,
      "cred": 10,
      "flags": 4,
      "label": "愛の矯正",
      "description": "アーチーの悩みを解決した。",
      "howto": "アーチーの悩みを解決した。"
    },
    {
      "id": 22,
      "imageId": 22,
      "cred": 10,
      "flags": 4,
      "label": "愛こそがすべて",
      "description": "ダニエルの悩みを解決した。",
      "howto": "ダニエルの悩みを解決した。"
    },
    {
      "id": 23,
      "imageId": 23,
      "cred": 10,
      "flags": 4,
      "label": "最後の酒",
      "description": "モーガンの悩みを解決した。",
      "howto": "モーガンの悩みを解決した。"
    },
    {
      "id": 24,
      "imageId": 24,
      "cred": 50,
      "flags": 4,
      "label": "名もなき英雄",
      "description": "全員の悩みを解決した。",
      "howto": "全員の悩みを解決した。"
    },
    {
      "id": 25,
      "imageId": 25,
      "cred": 5,
      "flags": 4,
      "label": "今夜はあの曲を",
      "description": "ラウンジのジュークボックスで曲を変更した。",
      "howto": "ラウンジのジュークボックスで曲を変更した。"
    },
    {
      "id": 26,
      "imageId": 26,
      "cred": 20,
      "flags": 4,
      "label": "マメールな男",
      "description": "メールの返信を合計２０件以上行い、最終日のバーを出た。",
      "howto": "メールの返信を合計２０件以上行い、最終日のバーを出た。"
    },
    {
      "id": 27,
      "imageId": 27,
      "cred": 10,
      "flags": 3,
      "label": "コロシアムモード解禁！",
      "description": "シナリオモードをクリアした。コロシアムモードが解禁されました。",
      "howto": "シナリオモードをクリアした。コロシアムモードが解禁されました。"
    },
    {
      "id": 28,
      "imageId": 28,
      "cred": 10,
      "flags": 4,
      "label": "まとめ押す男",
      "description": "石を５個まとめて押した（Golden Theaterプレイ）。",
      "howto": "石を５個まとめて押した（Golden Theaterプレイ）。"
    },
    {
      "id": 29,
      "imageId": 29,
      "cred": 10,
      "flags": 4,
      "label": "滑らせる男",
      "description": "「氷の石」を石５個分以上滑らせた（Golden Theaterプレイ）。",
      "howto": "「氷の石」を石５個分以上滑らせた（Golden Theaterプレイ）。"
    },
    {
      "id": 30,
      "imageId": 30,
      "cred": 20,
      "flags": 4,
      "label": "爆風でスランプ",
      "description": "石を１５個以上巻き込んで爆発した（Golden Theaterプレイ）。",
      "howto": "石を１５個以上巻き込んで爆発した（Golden Theaterプレイ）。"
    },
    {
      "id": 31,
      "imageId": 31,
      "cred": 30,
      "flags": 4,
      "label": "鳥人",
      "description": "「ジャンプの石」で三回連続ジャンプした（Golden Theaterプレイ）。",
      "howto": "「ジャンプの石」で三回連続ジャンプした（Golden Theaterプレイ）。"
    },
    {
      "id": 32,
      "imageId": 32,
      "cred": 30,
      "flags": 4,
      "label": "急がば回れ",
      "description": "「黒い石」を１０回連続で動かした（Golden Theaterプレイ）。",
      "howto": "「黒い石」を１０回連続で動かした（Golden Theaterプレイ）。"
    },
    {
      "id": 33,
      "imageId": 33,
      "cred": 10,
      "flags": 4,
      "label": "日本酒博士",
      "description": "日本酒の豆知識をすべて聞いた。",
      "howto": "日本酒の豆知識をすべて聞いた。"
    },
    {
      "id": 34,
      "imageId": 34,
      "cred": 10,
      "flags": 4,
      "label": "ビール博士",
      "description": "ビールの豆知識をすべて聞いた。",
      "howto": "ビールの豆知識をすべて聞いた。"
    },
    {
      "id": 35,
      "imageId": 35,
      "cred": 10,
      "flags": 4,
      "label": "カクテル博士",
      "description": "カクテルの豆知識をすべて聞いた。",
      "howto": "カクテルの豆知識をすべて聞いた。"
    },
    {
      "id": 36,
      "imageId": 36,
      "cred": 10,
      "flags": 4,
      "label": "ウィスキー博士",
      "description": "ウィスキーの豆知識をすべて聞いた。",
      "howto": "ウィスキーの豆知識をすべて聞いた。"
    },
    {
      "id": 37,
      "imageId": 37,
      "cred": 5,
      "flags": 4,
      "label": "そして誰もいなくなった",
      "description": "バーで客が全員帰るまで居続けた。",
      "howto": "バーで客が全員帰るまで居続けた。"
    },
    {
      "id": 38,
      "imageId": 38,
      "cred": 10,
      "flags": 3,
      "label": "バベルへの誘い",
      "description": "ゴールドプライズをNormal以上で初めて取得。バベル・Stage1挑戦に必要なプライズを取得。",
      "howto": "ゴールドプライズをNormal以上で初めて取得。バベル・Stage1挑戦に必要なプライズを取得。"
    },
    {
      "id": 39,
      "imageId": 39,
      "cred": 10,
      "flags": 4,
      "label": "アルター征服！",
      "description": "バベル１、「アルター」をクリアした。",
      "howto": "バベル１、「アルター」をクリアした。"
    },
    {
      "id": 40,
      "imageId": 40,
      "cred": 15,
      "flags": 3,
      "label": "三ツ星の男",
      "description": "ゴールドプライズをNormal以上で３ステージ取得。バベル・Stage2挑戦に必要なプライズを取得。",
      "howto": "ゴールドプライズをNormal以上で３ステージ取得。バベル・Stage2挑戦に必要なプライズを取得。"
    },
    {
      "id": 41,
      "imageId": 41,
      "cred": 15,
      "flags": 4,
      "label": "メンヒル征服！",
      "description": "バベル２、「メンヒル」をクリアした。",
      "howto": "バベル２、「メンヒル」をクリアした。"
    },
    {
      "id": 42,
      "imageId": 42,
      "cred": 20,
      "flags": 3,
      "label": "五ツ星の男",
      "description": "ゴールドプライズをNormal以上で５ステージ取得。バベル・Stage3挑戦に必要なプライズを取得。",
      "howto": "ゴールドプライズをNormal以上で５ステージ取得。バベル・Stage3挑戦に必要なプライズを取得。"
    },
    {
      "id": 43,
      "imageId": 43,
      "cred": 20,
      "flags": 4,
      "label": "オベリスク征服！",
      "description": "バベル３、「オベリスク」をクリアした。",
      "howto": "バベル３、「オベリスク」をクリアした。"
    },
    {
      "id": 44,
      "imageId": 44,
      "cred": 30,
      "flags": 3,
      "label": "神へ挑むべき男",
      "description": "ゴールドプライズをNormal以上で全ステージ取得。バベル・Stage4挑戦に必要なプライズを取得。",
      "howto": "ゴールドプライズをNormal以上で全ステージ取得。バベル・Stage4挑戦に必要なプライズを取得。"
    },
    {
      "id": 45,
      "imageId": 45,
      "cred": 100,
      "flags": 4,
      "label": "現人神の誕生！",
      "description": "バベル・ファイナル「アクシス・ムンディ」をクリアした。",
      "howto": "バベル・ファイナル「アクシス・ムンディ」をクリアした。"
    },
    {
      "id": 46,
      "imageId": 46,
      "cred": 100,
      "flags": 4,
      "label": "金色に輝ける男",
      "description": "ゴールドプライズをHardで全ステージ取得した。",
      "howto": "ゴールドプライズをHardで全ステージ取得した。"
    },
    {
      "id": 47,
      "imageId": 47,
      "cred": 10,
      "flags": 4,
      "label": "謎の一山を超えて",
      "description": "ラプンツェルのステージ６４をクリアした。",
      "howto": "ラプンツェルのステージ６４をクリアした。"
    },
    {
      "id": 48,
      "imageId": 48,
      "cred": 20,
      "flags": 4,
      "label": "謎から出た謎",
      "description": "隠されたラプンツェルを見た。",
      "howto": "隠されたラプンツェルを見た。"
    },
    {
      "id": 49,
      "imageId": 49,
      "cred": 50,
      "flags": 4,
      "label": "伝説のプリンス",
      "description": "ラプンツェルの真実を見た。",
      "howto": "ラプンツェルの真実を見た。"
    },
    {
      "id": 50,
      "imageId": 50,
      "cred": 10,
      "flags": 1,
      "label": "最高の夜に乾杯！",
      "description": "全ての実績を取得。",
      "howto": "全ての実績を取得。"
    }
  ]
}