{
  "achievementsPossible": 50,
  "credPossible": 1000,
  "achievements": [
    {
      "id": 1,
      "imageId": 1,
      "cred": 5,
      "flags": 6,
      "label": "All Rigged Up!",
      "description": "Complete the initial setup",
      "howto": "Complete the initial setup"
    },
    {
      "id": 2,
      "imageId": 2,
      "cred": 10,
      "flags": 1,
      "label": "RTFM",
      "description": "Complete every item and watch every video in Shred U: Introduction",
      "howto": "Complete every item and watch every video in Shred U: Introduction"
    },
    {
      "id": 3,
      "imageId": 3,
      "cred": 25,
      "flags": 1,
      "label": "Getting Started",
      "description": "Complete every item and watch every video in Shred U: Easy Skills",
      "howto": "Complete every item and watch every video in Shred U: Easy Skills"
    },
    {
      "id": 4,
      "imageId": 4,
      "cred": 30,
      "flags": 1,
      "label": "Apt Pupil",
      "description": "Complete every item and watch every video in Shred U: Medium Skills",
      "howto": "Complete every item and watch every video in Shred U: Medium Skills"
    },
    {
      "id": 5,
      "imageId": 5,
      "cred": 50,
      "flags": 1,
      "label": "Skilled Guitarist",
      "description": "Complete every item and watch every video in Shred U: Hard Skills",
      "howto": "Complete every item and watch every video in Shred U: Hard Skills"
    },
    {
      "id": 6,
      "imageId": 6,
      "cred": 100,
      "flags": 1,
      "label": "Path to Mastery",
      "description": "Complete every item and watch every video in Shred U: Expert Skills",
      "howto": "Complete every item and watch every video in Shred U: Expert Skills"
    },
    {
      "id": 7,
      "imageId": 7,
      "cred": 10,
      "flags": 4,
      "label": "Zealous",
      "description": "Complete a Shred U Lick Lab phrase at 110% or 5X",
      "howto": "Complete a Shred U Lick Lab phrase at 110% or 5X"
    },
    {
      "id": 8,
      "imageId": 8,
      "cred": 20,
      "flags": 1,
      "label": "Mastered",
      "description": "Complete all phrases to at least 100% for any song in Lick Lab",
      "howto": "Complete all phrases to at least 100% for any song in Lick Lab"
    },
    {
      "id": 9,
      "imageId": 9,
      "cred": 20,
      "flags": 4,
      "label": "Anger Eighteen",
      "description": "As a guitarist, complete all phrases for \"Hangar 18\" at 5X setting in Lick Lab",
      "howto": "As a guitarist, complete all phrases for \"Hangar 18\" at 5X setting in Lick Lab"
    },
    {
      "id": 10,
      "imageId": 10,
      "cred": 5,
      "flags": 4,
      "label": "Aim for the Stars",
      "description": "As a guitarist, score 5 stars on any song at any difficulty",
      "howto": "As a guitarist, score 5 stars on any song at any difficulty"
    },
    {
      "id": 11,
      "imageId": 11,
      "cred": 5,
      "flags": 4,
      "label": "Lucky Star",
      "description": "As a bassist, score 5 stars on any song at any difficulty",
      "howto": "As a bassist, score 5 stars on any song at any difficulty"
    },
    {
      "id": 12,
      "imageId": 12,
      "cred": 5,
      "flags": 4,
      "label": "Stars in Your Eyes",
      "description": "As a vocalist, score 5 stars on any song at any difficulty",
      "howto": "As a vocalist, score 5 stars on any song at any difficulty"
    },
    {
      "id": 13,
      "imageId": 13,
      "cred": 10,
      "flags": 4,
      "label": "I'm a One Man Band!",
      "description": "Score 5 stars on any same song as a guitarist, bassist, and vocalist",
      "howto": "Score 5 stars on any same song as a guitarist, bassist, and vocalist"
    },
    {
      "id": 14,
      "imageId": 14,
      "cred": 15,
      "flags": 4,
      "label": "Star Struck Guitarist",
      "description": "As a guitarist, score 5 stars on any song at difficulty level 5",
      "howto": "As a guitarist, score 5 stars on any song at difficulty level 5"
    },
    {
      "id": 15,
      "imageId": 15,
      "cred": 15,
      "flags": 4,
      "label": "Star Struck Bassist",
      "description": "As a bassist, score 5 stars on any song at difficulty level 5",
      "howto": "As a bassist, score 5 stars on any song at difficulty level 5"
    },
    {
      "id": 16,
      "imageId": 16,
      "cred": 15,
      "flags": 4,
      "label": "Star Struck Vocalist",
      "description": "As a vocalist, score 5 stars on any song at difficulty level 5",
      "howto": "As a vocalist, score 5 stars on any song at difficulty level 5"
    },
    {
      "id": 17,
      "imageId": 17,
      "cred": 5,
      "flags": 4,
      "label": "It's More Fun with a Friend",
      "description": "Score 5 stars on any difficulty while playing with at least one other player",
      "howto": "Score 5 stars on any difficulty while playing with at least one other player"
    },
    {
      "id": 18,
      "imageId": 18,
      "cred": 10,
      "flags": 4,
      "label": "It's Way More Fun in a Band",
      "description": "Score 5 stars on any song at any difficulty while playing with 3 other players",
      "howto": "Score 5 stars on any song at any difficulty while playing with 3 other players"
    },
    {
      "id": 19,
      "imageId": 19,
      "cred": 20,
      "flags": 4,
      "label": "Going Pro",
      "description": "Complete a song on PRO mode with at least 80% accuracy",
      "howto": "Complete a song on PRO mode with at least 80% accuracy"
    },
    {
      "id": 20,
      "imageId": 20,
      "cred": 5,
      "flags": 4,
      "label": "This Is the Good One",
      "description": "Save a Playback",
      "howto": "Save a Playback"
    },
    {
      "id": 21,
      "imageId": 21,
      "cred": 5,
      "flags": 4,
      "label": "Your Sound",
      "description": "Create and save a custom tone",
      "howto": "Create and save a custom tone"
    },
    {
      "id": 22,
      "imageId": 22,
      "cred": 5,
      "flags": 4,
      "label": "Playing Along",
      "description": "Play along with a backing track",
      "howto": "Play along with a backing track"
    },
    {
      "id": 23,
      "imageId": 23,
      "cred": 20,
      "flags": 1,
      "label": "Session Hesher",
      "description": "Play along with 25 backing tracks",
      "howto": "Play along with 25 backing tracks"
    },
    {
      "id": 24,
      "imageId": 24,
      "cred": 10,
      "flags": 4,
      "label": "Streaker",
      "description": "Get a 100 note streak on any instrument",
      "howto": "Get a 100 note streak on any instrument"
    },
    {
      "id": 25,
      "imageId": 25,
      "cred": 20,
      "flags": 4,
      "label": "Streak Freak!",
      "description": "Get a 200 note streak on any instrument",
      "howto": "Get a 200 note streak on any instrument"
    },
    {
      "id": 26,
      "imageId": 26,
      "cred": 30,
      "flags": 4,
      "label": "Streak Monster!!",
      "description": "Get a 300 note streak on any instrument",
      "howto": "Get a 300 note streak on any instrument"
    },
    {
      "id": 27,
      "imageId": 27,
      "cred": 10,
      "flags": 1,
      "label": "Get in Tune",
      "description": "Play songs in 3 different tunings",
      "howto": "Play songs in 3 different tunings"
    },
    {
      "id": 28,
      "imageId": 28,
      "cred": 10,
      "flags": 1,
      "label": "Multitude Multitune",
      "description": "Play songs in 5 different tunings",
      "howto": "Play songs in 5 different tunings"
    },
    {
      "id": 29,
      "imageId": 29,
      "cred": 25,
      "flags": 1,
      "label": "I Know Rock Fu",
      "description": "Play 55 unique songs at any difficulty",
      "howto": "Play 55 unique songs at any difficulty"
    },
    {
      "id": 30,
      "imageId": 30,
      "cred": 100,
      "flags": 1,
      "label": "Light Up The Sky",
      "description": "Score 5 stars on 55 unique songs on difficulty level 5",
      "howto": "Score 5 stars on 55 unique songs on difficulty level 5"
    },
    {
      "id": 31,
      "imageId": 31,
      "cred": 5,
      "flags": 6,
      "label": "Where's the Van?",
      "description": "Complete a Concert",
      "howto": "Complete a Concert"
    },
    {
      "id": 32,
      "imageId": 32,
      "cred": 20,
      "flags": 6,
      "label": "We're Gonna Be RICH!",
      "description": "Complete the \"Opening Act\" Tour",
      "howto": "Complete the \"Opening Act\" Tour"
    },
    {
      "id": 33,
      "imageId": 33,
      "cred": 20,
      "flags": 6,
      "label": "Melting Like a Boss",
      "description": "Complete the \"Air Pollution\" Tour",
      "howto": "Complete the \"Air Pollution\" Tour"
    },
    {
      "id": 34,
      "imageId": 34,
      "cred": 20,
      "flags": 6,
      "label": "Down with the Establishment",
      "description": "Complete the \"Punk's Not Dead\" Tour",
      "howto": "Complete the \"Punk's Not Dead\" Tour"
    },
    {
      "id": 35,
      "imageId": 35,
      "cred": 20,
      "flags": 6,
      "label": "Native",
      "description": "Complete the \"Alter Native\" Tour",
      "howto": "Complete the \"Alter Native\" Tour"
    },
    {
      "id": 36,
      "imageId": 36,
      "cred": 20,
      "flags": 6,
      "label": "Blood From a Stone",
      "description": "Complete the \"Bleeding Fingers\" Tour",
      "howto": "Complete the \"Bleeding Fingers\" Tour"
    },
    {
      "id": 37,
      "imageId": 37,
      "cred": 20,
      "flags": 6,
      "label": "Let Me Hear Your Battle Cry",
      "description": "Complete the \"Face Melters\" Tour",
      "howto": "Complete the \"Face Melters\" Tour"
    },
    {
      "id": 38,
      "imageId": 38,
      "cred": 20,
      "flags": 6,
      "label": "Smokin'!",
      "description": "Complete the \"Smokin' Riffs\" Tour",
      "howto": "Complete the \"Smokin' Riffs\" Tour"
    },
    {
      "id": 39,
      "imageId": 39,
      "cred": 20,
      "flags": 6,
      "label": "Horns Held High",
      "description": "Complete the \"Metal Havoc\" Tour",
      "howto": "Complete the \"Metal Havoc\" Tour"
    },
    {
      "id": 40,
      "imageId": 40,
      "cred": 20,
      "flags": 6,
      "label": "Shred Master",
      "description": "Complete the \"Behemoths of Rock\" Tour",
      "howto": "Complete the \"Behemoths of Rock\" Tour"
    },
    {
      "id": 41,
      "imageId": 41,
      "cred": 20,
      "flags": 6,
      "label": "Viper Vroom",
      "description": "Complete the \"Venomous Licks\" Tour",
      "howto": "Complete the \"Venomous Licks\" Tour"
    },
    {
      "id": 42,
      "imageId": 42,
      "cred": 30,
      "flags": 1,
      "label": "Back from Bombay",
      "description": "Complete 10 Tours on any difficulty",
      "howto": "Complete 10 Tours on any difficulty"
    },
    {
      "id": 43,
      "imageId": 43,
      "cred": 10,
      "flags": 4,
      "label": "Got a Fan Club?",
      "description": "Get 1,000 Fans to unlock the Silver Fan Achievement",
      "howto": "Get 1,000 Fans to unlock the Silver Fan Achievement"
    },
    {
      "id": 44,
      "imageId": 44,
      "cred": 15,
      "flags": 4,
      "label": "Worth Your Weight in Gold",
      "description": "Get 10,000 Fans to unlock the Gold Fan Achievement",
      "howto": "Get 10,000 Fans to unlock the Gold Fan Achievement"
    },
    {
      "id": 45,
      "imageId": 45,
      "cred": 20,
      "flags": 4,
      "label": "Racking the Awards",
      "description": "Get 100,000 Fans to unlock the Platinum Fan Achievement",
      "howto": "Get 100,000 Fans to unlock the Platinum Fan Achievement"
    },
    {
      "id": 46,
      "imageId": 46,
      "cred": 25,
      "flags": 1,
      "label": "Diamond Artist",
      "description": "Get 500,000 Fans to unlock the Diamond Fan Achievement",
      "howto": "Get 500,000 Fans to unlock the Diamond Fan Achievement"
    },
    {
      "id": 47,
      "imageId": 47,
      "cred": 20,
      "flags": 4,
      "label": "Money in the Bank",
      "description": "Earn $5,000,000 in your career",
      "howto": "Earn $5,000,000 in your career"
    },
    {
      "id": 48,
      "imageId": 48,
      "cred": 10,
      "flags": 4,
      "label": "New Challenger",
      "description": "Complete a Challenge in the game",
      "howto": "Complete a Challenge in the game"
    },
    {
      "id": 49,
      "imageId": 49,
      "cred": 20,
      "flags": 1,
      "label": "Challenge Accepted",
      "description": "Complete 10 Challenges in the game",
      "howto": "Complete 10 Challenges in the game"
    },
    {
      "id": 50,
      "imageId": 50,
      "cred": 30,
      "flags": 1,
      "label": "You Call That a Challenge?",
      "description": "Complete 25 Challenges in the game",
      "howto": "Complete 25 Challenges in the game"
    }
  ]
}