{
  "achievementsPossible": 12,
  "credPossible": 200,
  "achievements": [
    {
      "id": 2,
      "imageId": 1,
      "cred": 10,
      "flags": 6,
      "label": "Into the Light",
      "description": "Escape the garbage can",
      "howto": "Escape the garbage can"
    },
    {
      "id": 3,
      "imageId": 2,
      "cred": 20,
      "flags": 6,
      "label": "If the Shoe Fits...",
      "description": "Beat Semi-Squished",
      "howto": "Beat Semi-Squished"
    },
    {
      "id": 4,
      "imageId": 3,
      "cred": 20,
      "flags": 6,
      "label": "Crybaby",
      "description": "Beat Dolly-Doll",
      "howto": "Beat Dolly-Doll"
    },
    {
      "id": 5,
      "imageId": 4,
      "cred": 20,
      "flags": 6,
      "label": "Eviction Notice",
      "description": "Beat Pump-Kind",
      "howto": "Beat Pump-Kind"
    },
    {
      "id": 6,
      "imageId": 5,
      "cred": 20,
      "flags": 1,
      "label": "Destiny",
      "description": "Beat the Game (only Player 1 eligible)",
      "howto": "Beat the Game (only Player 1 eligible)"
    },
    {
      "id": 7,
      "imageId": 6,
      "cred": 20,
      "flags": 4,
      "label": "Grim Reaper",
      "description": "Sacrifice 1000 followers (only Player 1 eligible)",
      "howto": "Sacrifice 1000 followers (only Player 1 eligible)"
    },
    {
      "id": 8,
      "imageId": 7,
      "cred": 20,
      "flags": 4,
      "label": "Packet Collector",
      "description": "Collect all the Secrets in the game (only Player 1 eligible)",
      "howto": "Collect all the Secrets in the game (only Player 1 eligible)"
    },
    {
      "id": 9,
      "imageId": 8,
      "cred": 10,
      "flags": 1,
      "label": "BFF",
      "description": "Complete a level in co-op",
      "howto": "Complete a level in co-op"
    },
    {
      "id": 10,
      "imageId": 9,
      "cred": 10,
      "flags": 4,
      "label": "Candy Skillz",
      "description": "Complete a non-boss level without dying (only Player 1 eligible)",
      "howto": "Complete a non-boss level without dying (only Player 1 eligible)"
    },
    {
      "id": 11,
      "imageId": 12,
      "cred": 10,
      "flags": 4,
      "label": "It's a Sour life",
      "description": "See 8 different Sour Sacrifices in a single level (only Player 1 eligible)",
      "howto": "See 8 different Sour Sacrifices in a single level (only Player 1 eligible)"
    },
    {
      "id": 12,
      "imageId": 10,
      "cred": 20,
      "flags": 4,
      "label": "Sugar Addict",
      "description": "Earn a Campaign Score greater than 300,000 (only Player 1 eligible)",
      "howto": "Earn a Campaign Score greater than 300,000 (only Player 1 eligible)"
    },
    {
      "id": 13,
      "imageId": 11,
      "cred": 20,
      "flags": 4,
      "label": "I'm Alive!",
      "description": "Earn a score greater than 50,000 in a single level (only Player 1 eligible)",
      "howto": "Earn a score greater than 50,000 in a single level (only Player 1 eligible)"
    }
  ]
}