{
  "achievementsPossible": 12,
  "credPossible": 200,
  "achievements": [
    {
      "id": 1,
      "imageId": 5,
      "cred": 20,
      "flags": 6,
      "label": "Homeless Pups Run Wild",
      "description": "Cheated a chicken, picked a poem and bested a bake-off to discover the dogs.",
      "howto": "Complete chapter 1."
    },
    {
      "id": 2,
      "imageId": 6,
      "cred": 20,
      "flags": 6,
      "label": "Where Are the Whippets?",
      "description": "Wrangled the whippets!",
      "howto": "Complete chapter 2."
    },
    {
      "id": 3,
      "imageId": 7,
      "cred": 20,
      "flags": 6,
      "label": "The Gait Escape",
      "description": "Freed a friend and tore the top off of Muzzle's con.",
      "howto": "Complete chapter 3."
    },
    {
      "id": 4,
      "imageId": 8,
      "cred": 20,
      "flags": 6,
      "label": "Up Up & Away!",
      "description": "Rose above the clouds to catch Muzzle and save the day!",
      "howto": "Complete chapter 4."
    },
    {
      "id": 5,
      "imageId": 10,
      "cred": 10,
      "flags": 4,
      "label": "Memory Lane",
      "description": "Found Preston's dastardly dog food!",
      "howto": "Find an artifact from \"A Close Shave\"."
    },
    {
      "id": 6,
      "imageId": 2,
      "cred": 15,
      "flags": 4,
      "label": "Clone A Cone",
      "description": "You made a copy of a copy!",
      "howto": "Plato's theory of cones."
    },
    {
      "id": 7,
      "imageId": 11,
      "cred": 15,
      "flags": 4,
      "label": "Mmm... Cheese!",
      "description": "Found and devoured a piece of second-hand cheese.",
      "howto": "Find and eat this episode's \"mystery cheese\"."
    },
    {
      "id": 8,
      "imageId": 3,
      "cred": 15,
      "flags": 4,
      "label": "Home Wrecker",
      "description": "Broke up the \"happy\" couple.",
      "howto": "Expose Duncan's plagiarism!"
    },
    {
      "id": 9,
      "imageId": 1,
      "cred": 15,
      "flags": 4,
      "label": "Cheer Up Mr. Paneer",
      "description": "Poor Paneer... It's just not his day.",
      "howto": "Try to cheer up Paneer."
    },
    {
      "id": 10,
      "imageId": 4,
      "cred": 15,
      "flags": 4,
      "label": "Ave a Biscuit Miss Flitt",
      "description": "Hounded Felicity into eating a biscuit.",
      "howto": "A biscuit Miss Flitt! To take the edge off!"
    },
    {
      "id": 11,
      "imageId": 12,
      "cred": 15,
      "flags": 4,
      "label": "Taste Tester Dibbins",
      "description": "Gave Constable Dibbins indigestion.",
      "howto": "P'raps the Constable would fancy an ice cream or six?"
    },
    {
      "id": 12,
      "imageId": 9,
      "cred": 20,
      "flags": 4,
      "label": "Wallaceism",
      "description": "Heavens above, he said it four times!",
      "howto": "Hear Wallace say \"Heaven's above!\" in four situations!"
    }
  ]
}