{
  "achievementsPossible": 12,
  "credPossible": 400,
  "achievements": [
    {
      "id": 1,
      "imageId": 13,
      "cred": 25,
      "flags": 6,
      "label": "From the cold hearted streets",
      "description": "Chapter 2: ‘Stay Focused Young Homie’ complete",
      "howto": "Complete Chapter 2: ‘Stay Focused Young Homie’"
    },
    {
      "id": 2,
      "imageId": 2,
      "cred": 25,
      "flags": 6,
      "label": "Back to the Old School",
      "description": "Chapter 13: ‘Let me take control’ complete",
      "howto": "Complete Chapter 13: ‘Let me take control’"
    },
    {
      "id": 3,
      "imageId": 3,
      "cred": 25,
      "flags": 6,
      "label": "Finish Him!",
      "description": "Chapter 18: ‘Going to the Top’ complete",
      "howto": "Complete Chapter 18: ‘Going to the Top’"
    },
    {
      "id": 4,
      "imageId": 4,
      "cred": 25,
      "flags": 1,
      "label": "The Way",
      "description": "Story Completed",
      "howto": "Complete Story on any difficulty"
    },
    {
      "id": 5,
      "imageId": 5,
      "cred": 50,
      "flags": 1,
      "label": "The Hard Way",
      "description": "Story completed on Hard difficulty",
      "howto": "Complete Story on Hard difficulty"
    },
    {
      "id": 6,
      "imageId": 6,
      "cred": 25,
      "flags": 6,
      "label": "Kick, punch, all in the mind",
      "description": "All Temple chapters completed",
      "howto": "Complete all Temple chapters"
    },
    {
      "id": 7,
      "imageId": 14,
      "cred": 25,
      "flags": 4,
      "label": "That's wassup",
      "description": "S Grade in any Story or Single Battle Chapter",
      "howto": "Get an S Grade in any Story or Single Battle Chapter"
    },
    {
      "id": 8,
      "imageId": 8,
      "cred": 50,
      "flags": 4,
      "label": "Doggfather",
      "description": "S Grade in all Story or Single Battle Chapters",
      "howto": "Get an S Grade in all Story or Single Battle Chapters"
    },
    {
      "id": 9,
      "imageId": 9,
      "cred": 25,
      "flags": 4,
      "label": "For the Gs",
      "description": "Score 1,000,000 points on a Story or Single Battle chapter.",
      "howto": "Score 1,000,000 points on a Story or Single Battle chapter."
    },
    {
      "id": 10,
      "imageId": 10,
      "cred": 50,
      "flags": 4,
      "label": "...to get the job done.",
      "description": "Achieve a 100% hit rate on a single Chapter",
      "howto": "Achieve a 100% hit rate on a single Chapter"
    },
    {
      "id": 11,
      "imageId": 11,
      "cred": 25,
      "flags": 4,
      "label": "Puff puff passed!",
      "description": "Get a C Grade in any Challenge.",
      "howto": "Get a C Grade in any Challenge."
    },
    {
      "id": 12,
      "imageId": 12,
      "cred": 50,
      "flags": 4,
      "label": "Nothin' to it but to do it",
      "description": "Get an S Grade in all Challenges.",
      "howto": "Get an S Grade in all Challenges."
    }
  ]
}