{
  "achievementsPossible": 50,
  "credPossible": 1000,
  "achievements": [
    {
      "id": 90,
      "imageId": 72,
      "cred": 10,
      "flags": 1,
      "label": "The Exodus",
      "description": "Complete Chapter I",
      "howto": "Complete Chapter I on any difficulty"
    },
    {
      "id": 91,
      "imageId": 73,
      "cred": 10,
      "flags": 1,
      "label": "Defend the Ark",
      "description": "Complete Chapter II",
      "howto": "Complete Chapter II on any difficulty"
    },
    {
      "id": 92,
      "imageId": 74,
      "cred": 10,
      "flags": 1,
      "label": "Metroplex Heeds the Call",
      "description": "Complete Chapter III",
      "howto": "Complete Chapter III on any difficulty"
    },
    {
      "id": 93,
      "imageId": 75,
      "cred": 10,
      "flags": 1,
      "label": "Eye of the Storm",
      "description": "Complete Chapter IV",
      "howto": "Complete Chapter IV on any difficulty"
    },
    {
      "id": 94,
      "imageId": 76,
      "cred": 10,
      "flags": 1,
      "label": "Cut and Run",
      "description": "Complete Chapter V",
      "howto": "Complete Chapter V on any difficulty"
    },
    {
      "id": 95,
      "imageId": 77,
      "cred": 10,
      "flags": 1,
      "label": "Death from Above",
      "description": "Complete Chapter VI",
      "howto": "Complete Chapter VI on any difficulty"
    },
    {
      "id": 96,
      "imageId": 78,
      "cred": 10,
      "flags": 1,
      "label": "Belly of the Beast",
      "description": "Complete Chapter VII",
      "howto": "Complete Chapter VII on any difficulty"
    },
    {
      "id": 97,
      "imageId": 79,
      "cred": 10,
      "flags": 1,
      "label": "Combaticons Combine!",
      "description": "Complete Chapter VIII",
      "howto": "Complete Chapter VIII on any difficulty"
    },
    {
      "id": 98,
      "imageId": 80,
      "cred": 10,
      "flags": 1,
      "label": "Megatron Returns",
      "description": "Complete Chapter IX",
      "howto": "Complete Chapter IX on any difficulty"
    },
    {
      "id": 99,
      "imageId": 81,
      "cred": 10,
      "flags": 1,
      "label": "The Final Countdown",
      "description": "Complete Chapter X",
      "howto": "Complete Chapter X on any difficulty"
    },
    {
      "id": 101,
      "imageId": 82,
      "cred": 10,
      "flags": 1,
      "label": "Starscream's Betrayal",
      "description": "Complete Chapter XI",
      "howto": "Complete Chapter XI on any difficulty"
    },
    {
      "id": 103,
      "imageId": 83,
      "cred": 10,
      "flags": 1,
      "label": "Grimlock Smash",
      "description": "Complete Chapter XII",
      "howto": "Complete Chapter XII on any difficulty"
    },
    {
      "id": 104,
      "imageId": 86,
      "cred": 15,
      "flags": 1,
      "label": "Till All Are One - (Optimus)",
      "description": "Complete Chapter XIII as Optimus Prime",
      "howto": "Complete Chapter XIII as Optimus Prime on any difficulty "
    },
    {
      "id": 105,
      "imageId": 87,
      "cred": 15,
      "flags": 1,
      "label": "Till All Are One - (Megatron)",
      "description": "Complete Chapter XIII as Megatron",
      "howto": "Complete Chapter XIII as Megatron on any difficulty "
    },
    {
      "id": 106,
      "imageId": 89,
      "cred": 25,
      "flags": 1,
      "label": "The Battle is Far From Over!",
      "description": "Complete Campaign - Easy",
      "howto": "Complete Campaign - Easy"
    },
    {
      "id": 107,
      "imageId": 88,
      "cred": 50,
      "flags": 1,
      "label": "More Than Meets the Eye",
      "description": "Complete Campaign - Normal",
      "howto": "Complete Campaign - Normal"
    },
    {
      "id": 108,
      "imageId": 90,
      "cred": 100,
      "flags": 1,
      "label": "All Hail You!",
      "description": "Complete Campaign - Hard",
      "howto": "Complete Campaign - Hard"
    },
    {
      "id": 110,
      "imageId": 124,
      "cred": 15,
      "flags": 1,
      "label": "The Last Stand",
      "description": "Chapter II: Save two Autobots when Optimus is downed by the first Leaper",
      "howto": "Chapter II: Save two Autobots when Optimus is downed by the first Leaper"
    },
    {
      "id": 111,
      "imageId": 125,
      "cred": 15,
      "flags": 1,
      "label": "Carnage in C-Major",
      "description": "Chapter III: Take out a cluster of five Decepticons using Metroplex's Air Strike",
      "howto": "Chapter III: Take out a cluster of five Decepticons using Metroplex's Air Strike"
    },
    {
      "id": 112,
      "imageId": 126,
      "cred": 15,
      "flags": 1,
      "label": "Invisibility Spray",
      "description": "Chapter IV: Sneak through the Trash Compactor Facility undetected",
      "howto": "Chapter IV: Sneak through the Trash Compactor Facility undetected"
    },
    {
      "id": 113,
      "imageId": 127,
      "cred": 15,
      "flags": 1,
      "label": "Target Master 2.0",
      "description": "Chapter V: Shoot a Sniper out of the air with a scoped weapon",
      "howto": "Chapter V: Shoot a Sniper out of the air with a scoped weapon"
    },
    {
      "id": 114,
      "imageId": 128,
      "cred": 15,
      "flags": 1,
      "label": "Car Wash of Doom",
      "description": "Chapter VI: Destroy all of the homing mines chasing Blast Off before they self destruct",
      "howto": "Chapter VI: Destroy all of the homing mines chasing Blast Off before they self destruct"
    },
    {
      "id": 115,
      "imageId": 129,
      "cred": 15,
      "flags": 1,
      "label": "Club Con!",
      "description": "Chapter VII: Ram a jet (on the ground or in the air)",
      "howto": "Chapter VII: Ram a jet (on the ground or in the air)"
    },
    {
      "id": 116,
      "imageId": 130,
      "cred": 15,
      "flags": 1,
      "label": "Fusilateral Quintrocombiner",
      "description": "Chapter VIII: Melee an enemy through the goal post",
      "howto": "Chapter VIII: Melee an enemy through the goal post"
    },
    {
      "id": 117,
      "imageId": 131,
      "cred": 15,
      "flags": 1,
      "label": "I, Robot Master",
      "description": "Chapter IX: Destroy all images of Starscream and his Statues",
      "howto": "Chapter IX: Destroy all images of Starscream and his Statues"
    },
    {
      "id": 118,
      "imageId": 133,
      "cred": 15,
      "flags": 1,
      "label": "The Harder They Die",
      "description": "Chapter X: Kill five Autobots with a single hover slam attack",
      "howto": "Chapter X: Kill five Autobots with a single hover slam attack"
    },
    {
      "id": 119,
      "imageId": 134,
      "cred": 15,
      "flags": 1,
      "label": "Internal Affairs!",
      "description": "Chapter XI: Hack all of the security terminals before the Decepticons can activate them",
      "howto": "Chapter XI: Hack all of the security terminals before the Decepticons can activate them"
    },
    {
      "id": 120,
      "imageId": 135,
      "cred": 15,
      "flags": 1,
      "label": "Slap the Grimlock",
      "description": "Chapter XII: Kill a Leaper in the air with an explosive barrel",
      "howto": "Chapter XII: Kill a Leaper in the air with an explosive barrel"
    },
    {
      "id": 121,
      "imageId": 136,
      "cred": 25,
      "flags": 1,
      "label": "Monacus Spender",
      "description": "Spend 250,000 Energon in the Teletraan 1 store",
      "howto": "Spend 250,000 Energon in the Teletraan 1 store"
    },
    {
      "id": 122,
      "imageId": 137,
      "cred": 15,
      "flags": 1,
      "label": "Reconstructor",
      "description": "Fully upgrade one weapon",
      "howto": "Fully upgrade one weapon"
    },
    {
      "id": 123,
      "imageId": 138,
      "cred": 25,
      "flags": 1,
      "label": "Master Builder",
      "description": "Fully upgrade all weapons",
      "howto": "Fully upgrade all weapons"
    },
    {
      "id": 124,
      "imageId": 139,
      "cred": 10,
      "flags": 1,
      "label": "Teletraan 1 Regular",
      "description": "Rate all weapons, weapon upgrades, and equipment",
      "howto": "Rate all weapons, weapon upgrades, and equipment"
    },
    {
      "id": 125,
      "imageId": 140,
      "cred": 50,
      "flags": 1,
      "label": "Chop Shop",
      "description": "Purchase all weapons and perks",
      "howto": "Purchase all weapons and perks"
    },
    {
      "id": 126,
      "imageId": 141,
      "cred": 25,
      "flags": 1,
      "label": "Beachcomber",
      "description": "Collect all blueprints",
      "howto": "Collect all blueprints"
    },
    {
      "id": 127,
      "imageId": 142,
      "cred": 25,
      "flags": 1,
      "label": "Cassetticon Audiophile",
      "description": "Collect all audio logs",
      "howto": "Collect all audio logs"
    },
    {
      "id": 128,
      "imageId": 143,
      "cred": 15,
      "flags": 1,
      "label": "Octopunch Scavenger",
      "description": "Open fifteen Armory Recreators in Campaign or Escalation",
      "howto": "Open fifteen Armory Recreators in Campaign or Escalation"
    },
    {
      "id": 129,
      "imageId": 144,
      "cred": 10,
      "flags": 1,
      "label": "Reconfiguration Matrix",
      "description": "Create a custom character in Multiplayer",
      "howto": "Create a custom character in Multiplayer"
    },
    {
      "id": 130,
      "imageId": 91,
      "cred": 25,
      "flags": 1,
      "label": "Headmaster!",
      "description": "Reach max level in a single class",
      "howto": "Reach max level in a single class"
    },
    {
      "id": 131,
      "imageId": 92,
      "cred": 100,
      "flags": 1,
      "label": "King of the Scrap Heap",
      "description": "Reach max level in all four classes",
      "howto": "Reach max level in all four classes"
    },
    {
      "id": 132,
      "imageId": 145,
      "cred": 25,
      "flags": 1,
      "label": "What Prime Directives?",
      "description": "Unlock Prime Mode",
      "howto": "Unlock Prime Mode"
    },
    {
      "id": 133,
      "imageId": 93,
      "cred": 15,
      "flags": 1,
      "label": "Full Throttle Scramble Power!",
      "description": "Earn MVP in any game mode during a public Multiplayer match",
      "howto": "Earn MVP in any game mode during a public Multiplayer match"
    },
    {
      "id": 134,
      "imageId": 146,
      "cred": 15,
      "flags": 1,
      "label": "Ultimate Menasor",
      "description": "Capture three flags in a single CTF game during a public Multiplayer match",
      "howto": "Capture three flags in a single CTF game during a public Multiplayer match"
    },
    {
      "id": 135,
      "imageId": 147,
      "cred": 15,
      "flags": 1,
      "label": "Moonbase One",
      "description": "Personally capture all 3 nodes in a conquest game during a public Multiplayer match",
      "howto": "Personally capture all 3 nodes in a conquest game during a public Multiplayer match"
    },
    {
      "id": 136,
      "imageId": 148,
      "cred": 15,
      "flags": 1,
      "label": "Ballistic Energon Goodie",
      "description": "Return five heads at once in a headhunter game during a public Multiplayer match",
      "howto": "Return five heads at once in a headhunter game during a public Multiplayer match"
    },
    {
      "id": 137,
      "imageId": 149,
      "cred": 15,
      "flags": 1,
      "label": "Heavy Metal War",
      "description": "Kill 6 different opposing players in a TDM game during a public Multiplayer match",
      "howto": "Kill 6 different opposing players in a TDM game during a public Multiplayer match"
    },
    {
      "id": 138,
      "imageId": 150,
      "cred": 15,
      "flags": 1,
      "label": "Robotopossum",
      "description": "Complete wave 15 in Escalation (Ignition)",
      "howto": "Complete wave 15 in Escalation (Ignition)"
    },
    {
      "id": 139,
      "imageId": 151,
      "cred": 15,
      "flags": 1,
      "label": "Maccadams Old Oil House",
      "description": "Complete wave 15 in Escalation (DownFall)",
      "howto": "Complete wave 15 in Escalation (DownFall)"
    },
    {
      "id": 140,
      "imageId": 152,
      "cred": 15,
      "flags": 1,
      "label": "Space Pirates!",
      "description": "Complete wave 15 in Escalation (Oblivion)",
      "howto": "Complete wave 15 in Escalation (Oblivion)"
    },
    {
      "id": 141,
      "imageId": 153,
      "cred": 15,
      "flags": 1,
      "label": "Rust Marks",
      "description": "Complete wave 15 in Escalation (Ancients)",
      "howto": "Complete wave 15 in Escalation (Ancients)"
    },
    {
      "id": 142,
      "imageId": 154,
      "cred": 25,
      "flags": 1,
      "label": "Ultra Power Master",
      "description": "Spend 100,000 credits in Escalation",
      "howto": "Spend 100,000 credits in Escalation"
    }
  ]
}