{
  "achievementsPossible": 41,
  "credPossible": 1000,
  "achievements": [
    {
      "id": 1,
      "imageId": 17,
      "cred": 40,
      "flags": 1,
      "label": "Colombian Made",
      "description": "Took over Los Carnales territory.",
      "howto": "Take over Los Carnales territory."
    },
    {
      "id": 2,
      "imageId": 31,
      "cred": 40,
      "flags": 1,
      "label": "Regicide",
      "description": "Took over Vice Kings territory.",
      "howto": "Take over Vice Kings territory."
    },
    {
      "id": 3,
      "imageId": 27,
      "cred": 40,
      "flags": 1,
      "label": "Road Warrior",
      "description": "Took over Westside Rollerz territory.",
      "howto": "Take over Westside Rollerz territory."
    },
    {
      "id": 4,
      "imageId": 32,
      "cred": 170,
      "flags": 1,
      "label": "Ruler of Stilwater",
      "description": "Helped the 3rd Streets Saints take over Stilwater.",
      "howto": "Help the 3rd Streets Saints take over Stilwater."
    },
    {
      "id": 5,
      "imageId": 36,
      "cred": 10,
      "flags": 2,
      "label": "Thug",
      "description": "Reached a TrueSkill rank of Thug in any multiplayer mode.",
      "howto": "Reach a TrueSkill rank of Thug in any multiplayer mode."
    },
    {
      "id": 6,
      "imageId": 19,
      "cred": 20,
      "flags": 2,
      "label": "Killa",
      "description": "Reached a TrueSkill rank of Killa in any multiplayer mode.",
      "howto": "Reach a TrueSkill rank of Killa in any multiplayer mode."
    },
    {
      "id": 7,
      "imageId": 12,
      "cred": 40,
      "flags": 2,
      "label": "Gangsta",
      "description": "Reached a TrueSkill rank of Gangster in any multiplayer mode.",
      "howto": "Reach a TrueSkill rank of Gangster in any multiplayer mode."
    },
    {
      "id": 8,
      "imageId": 20,
      "cred": 80,
      "flags": 2,
      "label": "Kingpin",
      "description": "Reached a TrueSkill rank of Kingpin in any multiplayer mode.",
      "howto": "Reach a TrueSkill rank of Kingpin in any multiplayer mode."
    },
    {
      "id": 9,
      "imageId": 24,
      "cred": 10,
      "flags": 1,
      "label": "Penny Pincher",
      "description": "Earned $1,000,000 in the city of Stilwater.",
      "howto": "Earn $1,000,000 in the city of Stilwater."
    },
    {
      "id": 11,
      "imageId": 15,
      "cred": 10,
      "flags": 1,
      "label": "Grifter",
      "description": "Earned $200,000 in Insurance Fraud.",
      "howto": "Earn $200,000 in Insurance Fraud."
    },
    {
      "id": 12,
      "imageId": 18,
      "cred": 10,
      "flags": 1,
      "label": "Jumped the Shark",
      "description": "Withdrew a total of $200,000 from the Loan Office.",
      "howto": "Withdraw a total of $200,000 from the Loan Office."
    },
    {
      "id": 17,
      "imageId": 34,
      "cred": 10,
      "flags": 1,
      "label": "Shopaholic",
      "description": "Acquired 100 clothing and jewelry items for your single player wardrobe.",
      "howto": "Acquire 100 clothing and jewelry items for your single player wardrobe."
    },
    {
      "id": 18,
      "imageId": 16,
      "cred": 10,
      "flags": 1,
      "label": "Coupon Clipper",
      "description": "Acquired 100 clothing and jewelry items for your multiplayer wardrobe.",
      "howto": "Purchase 100 clothing and jewelry items for your multiplayer wardrobe."
    },
    {
      "id": 19,
      "imageId": 21,
      "cred": 10,
      "flags": 1,
      "label": "Leader of the Pack",
      "description": "Acquired all 7 Homies.",
      "howto": "Acquire all 7 Homies."
    },
    {
      "id": 20,
      "imageId": 13,
      "cred": 10,
      "flags": 1,
      "label": "Getting Up",
      "description": "Tagged all tag locations hidden throughout Stilwater.",
      "howto": "Tag all tag locations hidden throughout Stilwater."
    },
    {
      "id": 21,
      "imageId": 14,
      "cred": 10,
      "flags": 1,
      "label": "Grease Monkey",
      "description": "Owned a total of 50 cars.",
      "howto": "Own a total of 50 cars."
    },
    {
      "id": 22,
      "imageId": 30,
      "cred": 160,
      "flags": 1,
      "label": "Racket Lord",
      "description": "Completed all activities in Stilwater.",
      "howto": "Complete all activities in Stilwater."
    },
    {
      "id": 25,
      "imageId": 7,
      "cred": 10,
      "flags": 1,
      "label": "Demo Demon",
      "description": "Completed all levels of Demolition Derby.",
      "howto": "Complete all levels of Demolition Derby."
    },
    {
      "id": 26,
      "imageId": 10,
      "cred": 10,
      "flags": 1,
      "label": "Fast and Furious",
      "description": "Completed all of the Hijacking locations and levels.",
      "howto": "Complete all of the Hijacking locations and levels."
    },
    {
      "id": 27,
      "imageId": 11,
      "cred": 10,
      "flags": 1,
      "label": "Fluffer",
      "description": "Completed all of the Escort locations and levels.",
      "howto": "Complete all of the Escort locations and levels."
    },
    {
      "id": 28,
      "imageId": 25,
      "cred": 10,
      "flags": 1,
      "label": "Pimp",
      "description": "Completed all the Snatch locations and levels.",
      "howto": "Complete all the Snatch locations and levels."
    },
    {
      "id": 29,
      "imageId": 29,
      "cred": 10,
      "flags": 1,
      "label": "Pusher",
      "description": "Completed all of the Drug Trafficking locations and levels.",
      "howto": "Complete all of the Drug Trafficking locations and levels."
    },
    {
      "id": 31,
      "imageId": 33,
      "cred": 10,
      "flags": 1,
      "label": "Scavenger",
      "description": "Completed all of the Chop Shop locations.",
      "howto": "Complete all of the Chop Shop locations."
    },
    {
      "id": 32,
      "imageId": 38,
      "cred": 10,
      "flags": 1,
      "label": "Tuner",
      "description": "Completed all of the Racing locations and levels.",
      "howto": "Complete all of the Racing locations and levels."
    },
    {
      "id": 34,
      "imageId": 4,
      "cred": 10,
      "flags": 1,
      "label": "Bulletproof",
      "description": "Completed Co-op level Turbulence at the highest difficulty level.",
      "howto": "Complete Co-op level Turbulence at the highest difficulty level."
    },
    {
      "id": 36,
      "imageId": 9,
      "cred": 10,
      "flags": 1,
      "label": "Errand Boy",
      "description": "Completed Co-op level Mob Rule at the highest difficulty level.",
      "howto": "Complete Co-op level Mob Rule at the highest difficulty level."
    },
    {
      "id": 37,
      "imageId": 43,
      "cred": 10,
      "flags": 1,
      "label": "Canonized",
      "description": "Joined the 3rd Street Saints.",
      "howto": "Join the 3rd Street Saints."
    },
    {
      "id": 38,
      "imageId": 42,
      "cred": 10,
      "flags": 1,
      "label": "Reclamationist",
      "description": "Retook Saint's Row.",
      "howto": "Retake Saint's Row."
    },
    {
      "id": 39,
      "imageId": 1,
      "cred": 20,
      "flags": 4,
      "label": "Addicted to tha Row",
      "description": "Played Saints Row for a total of 20 hours.",
      "howto": "Play Saints Row for 20 total hours."
    },
    {
      "id": 40,
      "imageId": 22,
      "cred": 20,
      "flags": 4,
      "label": "Marathon Runner",
      "description": "Traveled 26.2 miles on foot.",
      "howto": "Travel 26.2 miles on foot."
    },
    {
      "id": 41,
      "imageId": 37,
      "cred": 20,
      "flags": 4,
      "label": "Tourist",
      "description": "Drove 500 miles in the city of Stilwater.",
      "howto": "Drive 500 miles in the city of Stilwater."
    },
    {
      "id": 42,
      "imageId": 35,
      "cred": 10,
      "flags": 1,
      "label": "Stilwater PD Award",
      "description": "Killed 50 Stilwater residents with only melee attacks.",
      "howto": "Kill 50 Stilwater residents with only melee attacks."
    },
    {
      "id": 43,
      "imageId": 2,
      "cred": 10,
      "flags": 4,
      "label": "Scourge of the Air",
      "description": "Destroyed 50 helicopters.",
      "howto": "Destroy 50 helicopters."
    },
    {
      "id": 44,
      "imageId": 23,
      "cred": 10,
      "flags": 1,
      "label": "Negotiator",
      "description": "Took 50 Hostages.",
      "howto": "Take 50 Hostages."
    },
    {
      "id": 45,
      "imageId": 41,
      "cred": 10,
      "flags": 1,
      "label": "Audiophile",
      "description": "Collected all 60 CD's hidden throughout Stilwater.",
      "howto": "Collect all 60 CD's hidden throughout Stilwater."
    },
    {
      "id": 46,
      "imageId": 28,
      "cred": 10,
      "flags": 1,
      "label": "Professional Thief",
      "description": "Stole 30 boxes and delivered them successfully.",
      "howto": "Steal 30 boxes and deliver them successfully."
    },
    {
      "id": 47,
      "imageId": 8,
      "cred": 20,
      "flags": 1,
      "label": "Dominator",
      "description": "Won 10 ranked matches in a row.",
      "howto": "Win 10 ranked matches in a row."
    },
    {
      "id": 48,
      "imageId": 5,
      "cred": 20,
      "flags": 1,
      "label": "Chain Gang",
      "description": "Dropped off a total of 500 chains in the Big Ass Chains multiplayer mode in ranked matches.",
      "howto": "Drop off a total of 500 chains in the Big Ass Chains multiplayer mode in ranked matches."
    },
    {
      "id": 49,
      "imageId": 6,
      "cred": 20,
      "flags": 1,
      "label": "Clocktower Camper",
      "description": "Head shot and killed a total of 100 enemies with a Sniper Rifle in ranked matches.",
      "howto": "Head shot and kill a total of 100 enemies with a Sniper Rifle in ranked matches."
    },
    {
      "id": 50,
      "imageId": 26,
      "cred": 20,
      "flags": 1,
      "label": "Pimp Killer",
      "description": "Killed the Pimp in Protect Tha Pimp 50 times in ranked matches.",
      "howto": "Kill the Pimp in Protect Tha Pimp 50 times in ranked matches."
    },
    {
      "id": 51,
      "imageId": 40,
      "cred": 20,
      "flags": 1,
      "label": "Xzibitionist",
      "description": "Got your team car to level 4 in the Blinged Out Ride mode a total of 50 times in ranked matches.",
      "howto": "Get your team car to level 4 in the Blinged Out Ride mode a total of 50 times in ranked matches."
    }
  ]
}