{
  "achievementsPossible": 12,
  "credPossible": 200,
  "achievements": [
    {
      "id": 99,
      "imageId": 3,
      "cred": 35,
      "flags": 4,
      "label": "Uber Commissioner",
      "description": "Complete three drafts to unlock this achievement!",
      "howto": "Complete three drafts to unlock this achievement!"
    },
    {
      "id": 100,
      "imageId": 2,
      "cred": 35,
      "flags": 4,
      "label": "Draft Experts",
      "description": "Complete a draft in under two hours to unlock this achievement!",
      "howto": "Complete a draft in under two hours to unlock this achievement!"
    },
    {
      "id": 101,
      "imageId": 4,
      "cred": 10,
      "flags": 4,
      "label": "IDP",
      "description": "Draft an individiual defensive player to unlock this achievement.",
      "howto": "Draft an individiual defensive player to unlock this achievement."
    },
    {
      "id": 102,
      "imageId": 5,
      "cred": 35,
      "flags": 4,
      "label": "Mega Run!",
      "description": "To unlock this achievement the same position must be drafted for an entire round.",
      "howto": "To unlock this achievement the same position must be drafted for an entire round."
    },
    {
      "id": 103,
      "imageId": 6,
      "cred": 10,
      "flags": 4,
      "label": "Mr. Commissioner",
      "description": "Complete a draft to unlock this achievement!",
      "howto": "Complete a draft to unlock this achievement!"
    },
    {
      "id": 104,
      "imageId": 13,
      "cred": 5,
      "flags": 4,
      "label": "Take The Field!",
      "description": "Import a league draft from FANTASY.EASPORTS.COM.",
      "howto": "Import a league draft from FANTASY.EASPORTS.COM."
    },
    {
      "id": 105,
      "imageId": 10,
      "cred": 10,
      "flags": 4,
      "label": "That Was Fast!",
      "description": "Upload the results of a league draft to the FANTASY.EASPORTS.COM website.",
      "howto": "Upload the results of a league draft to the FANTASY.EASPORTS.COM website."
    },
    {
      "id": 106,
      "imageId": 9,
      "cred": 10,
      "flags": 4,
      "label": "Deep Sleeper",
      "description": "Draft a player or team ranked over 500 overall.",
      "howto": "Draft a player or team ranked over 500 overall."
    },
    {
      "id": 107,
      "imageId": 11,
      "cred": 5,
      "flags": 4,
      "label": "Timeout!",
      "description": "Turn the Draft Clock off to unlock this achievement.",
      "howto": "Turn the Draft Clock off to unlock this achievement."
    },
    {
      "id": 108,
      "imageId": 7,
      "cred": 5,
      "flags": 4,
      "label": "Early Rounds",
      "description": "Complete 10 rounds of a draft.",
      "howto": "Complete 10 rounds of a draft."
    },
    {
      "id": 109,
      "imageId": 8,
      "cred": 35,
      "flags": 4,
      "label": "Late Rounds",
      "description": "Complete 30 rounds of a draft.",
      "howto": "Complete 30 rounds of a draft."
    },
    {
      "id": 110,
      "imageId": 12,
      "cred": 5,
      "flags": 4,
      "label": "Videographer",
      "description": "Trigger a highlight video during a draft.",
      "howto": "Trigger a highlight video during a draft."
    }
  ]
}