{
  "achievementsPossible": 50,
  "credPossible": 1000,
  "achievements": [
    {
      "id": 58,
      "imageId": 160,
      "cred": 10,
      "flags": 1,
      "label": "A New Me!",
      "description": "Complete your first scanning.",
      "howto": "Complete your first scanning."
    },
    {
      "id": 59,
      "imageId": 161,
      "cred": 20,
      "flags": 1,
      "label": "Fast Learner",
      "description": "Complete your first episode, alone or with a friend.",
      "howto": "Complete your first episode, alone or with a friend."
    },
    {
      "id": 60,
      "imageId": 162,
      "cred": 20,
      "flags": 1,
      "label": "True Adventurer",
      "description": "Complete your first world, alone or with a friend.",
      "howto": "Complete your first world, alone or with a friend."
    },
    {
      "id": 61,
      "imageId": 163,
      "cred": 15,
      "flags": 3,
      "label": "We Belong Together",
      "description": "Unlock your first buddy, alone or with a friend.",
      "howto": "Unlock your first buddy, alone or with a friend."
    },
    {
      "id": 62,
      "imageId": 164,
      "cred": 20,
      "flags": 3,
      "label": "A New You!",
      "description": "Unlock your first playable character, alone or with a friend.",
      "howto": "Unlock your first playable character, alone or with a friend."
    },
    {
      "id": 63,
      "imageId": 165,
      "cred": 15,
      "flags": 3,
      "label": "Second Helping",
      "description": "Unlock your first secondary goal, alone or with a friend.",
      "howto": "Unlock your first secondary goal, alone or with a friend."
    },
    {
      "id": 64,
      "imageId": 166,
      "cred": 20,
      "flags": 3,
      "label": "Showtime!",
      "description": "Unlock your first special ability, alone or with a friend.",
      "howto": "Unlock your first special ability, alone or with a friend."
    },
    {
      "id": 65,
      "imageId": 167,
      "cred": 10,
      "flags": 1,
      "label": "Bronze Away!",
      "description": "Win your first bronze medal, alone or with a friend.",
      "howto": "Win your first bronze medal, alone or with a friend."
    },
    {
      "id": 66,
      "imageId": 168,
      "cred": 20,
      "flags": 1,
      "label": "Silverado!",
      "description": "Win your first silver medal, alone or with a friend.",
      "howto": "Win your first silver medal, alone or with a friend."
    },
    {
      "id": 67,
      "imageId": 169,
      "cred": 25,
      "flags": 1,
      "label": "Golden!",
      "description": "Win your first gold medal, alone or with a friend.",
      "howto": "Win your first gold medal, alone or with a friend."
    },
    {
      "id": 68,
      "imageId": 170,
      "cred": 30,
      "flags": 1,
      "label": "Absolute Perfection!",
      "description": "Win your first platinum medal, alone or with a friend.",
      "howto": "Win your first platinum medal, alone or with a friend."
    },
    {
      "id": 69,
      "imageId": 171,
      "cred": 15,
      "flags": 1,
      "label": "See What I Did!",
      "description": "Share an award with KinectShare.",
      "howto": "Share an award with KinectShare."
    },
    {
      "id": 70,
      "imageId": 172,
      "cred": 20,
      "flags": 1,
      "label": "Top of the Charts",
      "description": "See the leaderboards for an episode, alone or with a friend.",
      "howto": "See the leaderboards for an episode, alone or with a friend."
    },
    {
      "id": 71,
      "imageId": 173,
      "cred": 30,
      "flags": 1,
      "label": "Hat Trick",
      "description": "Win three gold medals in a row, alone or with a friend.",
      "howto": "Win three gold medals in a row, alone or with a friend."
    },
    {
      "id": 72,
      "imageId": 174,
      "cred": 10,
      "flags": 4,
      "label": "We'll Always Have Paris",
      "description": "Open all buddy areas in all Ratatouille episodes, alone or with a friend.",
      "howto": "Open all buddy areas in all Ratatouille episodes, alone or with a friend."
    },
    {
      "id": 73,
      "imageId": 175,
      "cred": 15,
      "flags": 4,
      "label": "Traffic Jam",
      "description": "Reach all areas using glide and missiles in all Cars episodes, alone or with a friend.",
      "howto": "Reach all areas using glide and missiles in all Cars episodes, alone or with a friend."
    },
    {
      "id": 74,
      "imageId": 176,
      "cred": 20,
      "flags": 4,
      "label": "Toys Stick Together",
      "description": "Open all buddy areas in all Toy Story episodes, alone or with a friend.",
      "howto": "Open all buddy areas in all Toy Story episodes, alone or with a friend."
    },
    {
      "id": 75,
      "imageId": 177,
      "cred": 15,
      "flags": 4,
      "label": "Super Teamwork",
      "description": "Open all buddy areas in all of the Incredibles episodes, alone or with a friend.",
      "howto": "Open all buddy areas in all of the Incredibles episodes, alone or with a friend."
    },
    {
      "id": 76,
      "imageId": 178,
      "cred": 15,
      "flags": 4,
      "label": "Loyal to the End",
      "description": "Open all buddy areas in all UP episodes, alone or with a friend.",
      "howto": "Open all buddy areas in all UP episodes, alone or with a friend."
    },
    {
      "id": 77,
      "imageId": 179,
      "cred": 30,
      "flags": 4,
      "label": "A Friend Indeed",
      "description": "Open all buddy areas in the game, alone or with a friend.",
      "howto": "Open all buddy areas in the game, alone or with a friend."
    },
    {
      "id": 78,
      "imageId": 180,
      "cred": 10,
      "flags": 7,
      "label": "Stay 'Til the Lights Come Up",
      "description": "Watch the credits without skipping.",
      "howto": "Watch the credits without skipping."
    },
    {
      "id": 79,
      "imageId": 181,
      "cred": 30,
      "flags": 3,
      "label": "Friends Forever",
      "description": "Unlock all buddy characters, alone or with a friend.",
      "howto": "Unlock all buddy characters, alone or with a friend."
    },
    {
      "id": 80,
      "imageId": 182,
      "cred": 30,
      "flags": 3,
      "label": "The Gang's All Here",
      "description": "Unlock all playable characters, alone or with a friend.",
      "howto": "Unlock all playable characters, alone or with a friend."
    },
    {
      "id": 81,
      "imageId": 183,
      "cred": 30,
      "flags": 3,
      "label": "You Can Do It All",
      "description": "Unlock all special abilities, alone or with a friend.",
      "howto": "Unlock all special abilities, alone or with a friend."
    },
    {
      "id": 82,
      "imageId": 184,
      "cred": 30,
      "flags": 1,
      "label": "All Around the World",
      "description": "Unlock all of the episodes in the game, alone or with a friend.",
      "howto": "Unlock all of the episodes in the game, alone or with a friend."
    },
    {
      "id": 83,
      "imageId": 185,
      "cred": 40,
      "flags": 1,
      "label": "You're Not the Boss of Me",
      "description": "Defeat all bosses, alone or with a friend.",
      "howto": "Defeat all bosses, alone or with a friend."
    },
    {
      "id": 84,
      "imageId": 186,
      "cred": 25,
      "flags": 1,
      "label": "Better the Second Time Around",
      "description": "Unlock all secondary goals in a world, alone or with a friend.",
      "howto": "Unlock all secondary goals in a world, alone or with a friend."
    },
    {
      "id": 85,
      "imageId": 187,
      "cred": 30,
      "flags": 1,
      "label": "Second to None",
      "description": "Unlock all secondary goals in the game, alone or with a friend.",
      "howto": "Unlock all secondary goals in the game, alone or with a friend."
    },
    {
      "id": 86,
      "imageId": 188,
      "cred": 20,
      "flags": 1,
      "label": "Spirit of Adventure",
      "description": "Complete the UP world, alone or with a friend.",
      "howto": "Complete the UP world, alone or with a friend."
    },
    {
      "id": 87,
      "imageId": 189,
      "cred": 20,
      "flags": 1,
      "label": "You … Are … a …TOY!",
      "description": "Complete the Toy Story world, alone or with a friend.",
      "howto": "Complete the Toy Story world, alone or with a friend."
    },
    {
      "id": 88,
      "imageId": 190,
      "cred": 20,
      "flags": 1,
      "label": "Checkered Flag",
      "description": "Complete the Cars world, alone or with a friend.",
      "howto": "Complete the Cars world, alone or with a friend."
    },
    {
      "id": 89,
      "imageId": 191,
      "cred": 20,
      "flags": 1,
      "label": "Can I Cook or What?",
      "description": "Complete the Ratatouille world, alone or with a friend.",
      "howto": "Complete the Ratatouille world, alone or with a friend."
    },
    {
      "id": 90,
      "imageId": 192,
      "cred": 20,
      "flags": 1,
      "label": "Simply Super",
      "description": "Complete the Incredibles world, alone or with a friend.",
      "howto": "Complete the Incredibles world, alone or with a friend."
    },
    {
      "id": 91,
      "imageId": 193,
      "cred": 20,
      "flags": 1,
      "label": "See? I Can Do Anything!",
      "description": "Share 10 KinectShare awards.",
      "howto": "Share 10 KinectShare awards."
    },
    {
      "id": 92,
      "imageId": 194,
      "cred": 15,
      "flags": 1,
      "label": "Throw It All Away",
      "description": "Throw 20 tennis balls in the “Floodgates” episode, alone or with a friend.",
      "howto": "Throw 20 tennis balls in the “Floodgates” episode, alone or with a friend."
    },
    {
      "id": 93,
      "imageId": 211,
      "cred": 15,
      "flags": 1,
      "label": "Linear Thinking",
      "description": "Jump from zipline to zipline 10 times in the “Free the Birds!” episode, alone or with a friend.",
      "howto": "Jump from zipline to zipline 10 times in the “Free the Birds!” episode, alone or with a friend."
    },
    {
      "id": 94,
      "imageId": 212,
      "cred": 15,
      "flags": 1,
      "label": "To Infinity … and Beyond!",
      "description": "Play the entire Toy Story world as Buzz Lightyear, alone or with a friend.",
      "howto": "Play the entire Toy Story world as Buzz Lightyear, alone or with a friend."
    },
    {
      "id": 95,
      "imageId": 213,
      "cred": 15,
      "flags": 1,
      "label": "Just Like Old Times",
      "description": "Play the entire Incredibles world as Mr. Incredible, alone or with a friend.",
      "howto": "Play the entire Incredibles world as Mr. Incredible, alone or with a friend."
    },
    {
      "id": 96,
      "imageId": 214,
      "cred": 15,
      "flags": 1,
      "label": "Compliments to the Chef",
      "description": "Play the entire Ratatouille world as Remy, alone or with a friend.",
      "howto": "Play the entire Ratatouille world as Remy, alone or with a friend."
    },
    {
      "id": 97,
      "imageId": 215,
      "cred": 15,
      "flags": 1,
      "label": "Senior Wilderness Explorer",
      "description": "Play the entire UP world as Russell, alone or with a friend.",
      "howto": "Play the entire UP world as Russell, alone or with a friend."
    },
    {
      "id": 98,
      "imageId": 216,
      "cred": 15,
      "flags": 1,
      "label": "I Am Speed",
      "description": "Play the entire Cars world as Lightning McQueen, alone or with a friend.",
      "howto": "Play the entire Cars world as Lightning McQueen, alone or with a friend."
    },
    {
      "id": 99,
      "imageId": 217,
      "cred": 25,
      "flags": 1,
      "label": "Super Poise",
      "description": "Slide through the entire “Save Metroville” episode without falling.",
      "howto": "Slide through the entire “Save Metroville” episode without falling."
    },
    {
      "id": 100,
      "imageId": 218,
      "cred": 20,
      "flags": 1,
      "label": "The Grand Canyoneer",
      "description": "Survive the entire “Canyon Expedition” episode without falling.",
      "howto": "Survive the entire “Canyon Expedition” episode without falling."
    },
    {
      "id": 101,
      "imageId": 219,
      "cred": 15,
      "flags": 1,
      "label": "Steady Drivin’",
      "description": "Complete the entire “Fancy Drivin'” episode without hitting any obstacles.",
      "howto": "Complete the entire “Fancy Drivin'” episode without hitting any obstacles."
    },
    {
      "id": 102,
      "imageId": 220,
      "cred": 15,
      "flags": 1,
      "label": "Work/Play Balance",
      "description": "Complete the entire “Daycare Dash” episode without falling.",
      "howto": "Complete the entire “Daycare Dash” episode without falling."
    },
    {
      "id": 103,
      "imageId": 221,
      "cred": 20,
      "flags": 1,
      "label": "You Will Believe a Rat Can Fly",
      "description": "Perform an 8-second glide in the “Rooftop Run” episode in one try.",
      "howto": "Perform an 8-second glide in the “Rooftop Run” episode in one try."
    },
    {
      "id": 104,
      "imageId": 222,
      "cred": 20,
      "flags": 1,
      "label": "Whip It Good",
      "description": "Open all areas with the whip in the “House Chase” episode, alone or with a friend.",
      "howto": "Open all areas with the whip in the “House Chase” episode, alone or with a friend."
    },
    {
      "id": 105,
      "imageId": 223,
      "cred": 20,
      "flags": 1,
      "label": "Say It with Rockets",
      "description": "Open all boxes with rockets in the “Daycare Dash” episode, alone or with a friend.",
      "howto": "Open all boxes with rockets in the “Daycare Dash” episode, alone or with a friend."
    },
    {
      "id": 106,
      "imageId": 224,
      "cred": 20,
      "flags": 1,
      "label": "We Don't Need Roads",
      "description": "Perform a 100-meter glide in the “Bomb Squad” episode.",
      "howto": "Perform a 100-meter glide in the “Bomb Squad” episode."
    },
    {
      "id": 108,
      "imageId": 225,
      "cred": 20,
      "flags": 1,
      "label": "I Can See in the Dark",
      "description": "Find all night vision areas in \"Omnidroid Bash\" episode, alone or with a friend.",
      "howto": "Find all night vision areas in the “Omnidroid Bash” episode, alone or with a friend."
    }
  ]
}