{
  "achievementsPossible": 45,
  "credPossible": 1000,
  "achievements": [
    {
      "id": 1,
      "imageId": 46,
      "cred": 40,
      "flags": 4,
      "label": "エクス入隊",
      "description": "特務隊エクスに入隊しました。",
      "howto": "<String Placeholder>"
    },
    {
      "id": 2,
      "imageId": 47,
      "cred": 40,
      "flags": 4,
      "label": "暗躍する黒騎士",
      "description": "任務「女子高生グループ失踪事件」を完了しました。",
      "howto": "<String Placeholder>"
    },
    {
      "id": 3,
      "imageId": 48,
      "cred": 40,
      "flags": 4,
      "label": "アイオン壊滅",
      "description": "任務「地下婚活パーティ阻止指令」を完了しました。",
      "howto": "<String Placeholder>"
    },
    {
      "id": 4,
      "imageId": 49,
      "cred": 20,
      "flags": 4,
      "label": "恐るべき精神攻撃",
      "description": "任務「心の処刑人　討伐任務」を完了しました。",
      "howto": "<String Placeholder>"
    },
    {
      "id": 5,
      "imageId": 50,
      "cred": 20,
      "flags": 4,
      "label": "地下王国の太子様",
      "description": "任務「太子の復活　阻止任務」を完了しました。",
      "howto": "<String Placeholder>"
    },
    {
      "id": 6,
      "imageId": 51,
      "cred": 20,
      "flags": 4,
      "label": "廃墟の奥の楽園",
      "description": "任務「イルカの楽園　調査任務」を完了しました。",
      "howto": "<String Placeholder>"
    },
    {
      "id": 7,
      "imageId": 52,
      "cred": 20,
      "flags": 4,
      "label": "災い呼びし赤き狐",
      "description": "任務「国に祟りし者　封印任務」を完了しました。",
      "howto": "<String Placeholder>"
    },
    {
      "id": 8,
      "imageId": 53,
      "cred": 20,
      "flags": 4,
      "label": "狂気の監獄",
      "description": "任務「刑務所長　討伐任務」を完了しました。",
      "howto": "<String Placeholder>"
    },
    {
      "id": 9,
      "imageId": 54,
      "cred": 20,
      "flags": 4,
      "label": "開かれた真実への扉",
      "description": "Ⅹブラッドを使用し、封印されていた扉を開きました。",
      "howto": "<String Placeholder>"
    },
    {
      "id": 10,
      "imageId": 55,
      "cred": 50,
      "flags": 4,
      "label": "黒騎士の最期",
      "description": "任務「天羽ヴェルン阻止指令」を完了しました。",
      "howto": "<String Placeholder>"
    },
    {
      "id": 11,
      "imageId": 56,
      "cred": 100,
      "flags": 4,
      "label": "残された希望",
      "description": "ゲームをクリアしました。",
      "howto": "<String Placeholder>"
    },
    {
      "id": 12,
      "imageId": 57,
      "cred": 30,
      "flags": 4,
      "label": "相・死・相・愛",
      "description": "任務「アイオン幹部逮捕指令」を完了しました。",
      "howto": "<String Placeholder>"
    },
    {
      "id": 13,
      "imageId": 58,
      "cred": 30,
      "flags": 4,
      "label": "７つの手",
      "description": "任務「セブンハンド排除指令」を完了しました。",
      "howto": "<String Placeholder>"
    },
    {
      "id": 14,
      "imageId": 59,
      "cred": 30,
      "flags": 4,
      "label": "カレーファン",
      "description": "任務「まぼろしのドリンク」を完了しました。",
      "howto": "ハチの望みを叶えてあげましょう。"
    },
    {
      "id": 15,
      "imageId": 60,
      "cred": 30,
      "flags": 1,
      "label": "カレーマニア",
      "description": "飲むカレーを売っている全ての自販機で、飲むカレーを購入しました。",
      "howto": "汝、カレーの道を極めるべし。"
    },
    {
      "id": 16,
      "imageId": 61,
      "cred": 30,
      "flags": 4,
      "label": "ＸＰＤ外部協力者",
      "description": "任務「ＸＰＤ一般支援要請」を完了しました。",
      "howto": "ＸＰＤの頼みを聞いてあげましょう。"
    },
    {
      "id": 17,
      "imageId": 62,
      "cred": 20,
      "flags": 4,
      "label": "謎多き収集家",
      "description": "初めてソウルリバースにソウルトークンを渡しました。",
      "howto": "ある収集家に、彼（？）の求めているアイテムをプレゼントしましょう。"
    },
    {
      "id": 18,
      "imageId": 63,
      "cred": 10,
      "flags": 4,
      "label": "自販機デビュー",
      "description": "初めて自販機でドリンクを購入しました。",
      "howto": "<String Placeholder>"
    },
    {
      "id": 19,
      "imageId": 64,
      "cred": 10,
      "flags": 4,
      "label": "蛇口デビュー",
      "description": "初めて蛇口で水を飲みました。",
      "howto": "<String Placeholder>"
    },
    {
      "id": 20,
      "imageId": 65,
      "cred": 10,
      "flags": 4,
      "label": "シズラーポイントデビュー",
      "description": "初めてシズラーポイントに接触しました。",
      "howto": "<String Placeholder>"
    },
    {
      "id": 21,
      "imageId": 66,
      "cred": 10,
      "flags": 6,
      "label": "水中デビュー",
      "description": "初めて水の中に進入しました。",
      "howto": "<String Placeholder>"
    },
    {
      "id": 22,
      "imageId": 67,
      "cred": 20,
      "flags": 4,
      "label": "キケンな初詣",
      "description": "葵神宮の本殿に参詣し、ムラマサ☆ラビットを討伐しました。",
      "howto": "新年は初詣から始まります。敬虔な気持ちでお参りしましょう。"
    },
    {
      "id": 23,
      "imageId": 68,
      "cred": 20,
      "flags": 1,
      "label": "Ｕｌｔｉｍａｔｅ　Ａｂｙｓｓ",
      "description": "任務「オメガフィールド掃討指令」を完了しました。",
      "howto": "最難関ダンジョンをクリアしましょう。"
    },
    {
      "id": 24,
      "imageId": 69,
      "cred": 20,
      "flags": 1,
      "label": "手配異形駆除完了",
      "description": "指名手配異形を全て退治しました。",
      "howto": "名のある異形は全て倒す！　それがエクス隊だ！"
    },
    {
      "id": 25,
      "imageId": 70,
      "cred": 20,
      "flags": 1,
      "label": "ロッカーの中は白亜紀",
      "description": "ロッカーに潜む恐竜をすべて倒しました。",
      "howto": "迷宮の中にロッカーはいくつ存在するのでしょうか？"
    },
    {
      "id": 26,
      "imageId": 71,
      "cred": 20,
      "flags": 1,
      "label": "スタンプラリー完走",
      "description": "無限迷宮Ωのスタンプラリーを完走しました。",
      "howto": "遊園地の迷路の醍醐味といえばコレですよね。"
    },
    {
      "id": 27,
      "imageId": 72,
      "cred": 20,
      "flags": 1,
      "label": "１００万ＧＰ突破",
      "description": "功績値が１００万ＧＰを突破しました。",
      "howto": "功績値があって困ることはありません。"
    },
    {
      "id": 28,
      "imageId": 73,
      "cred": 30,
      "flags": 2,
      "label": "一般エクス隊員",
      "description": "レベルキャップ（Ｌｖ７）が解放されました。",
      "howto": "レベルキャップ（Ｌｖ７）を解放しましょう。"
    },
    {
      "id": 29,
      "imageId": 74,
      "cred": 30,
      "flags": 2,
      "label": "歴戦エクス隊員",
      "description": "レベルキャップ（Ｌｖ１５）が解放されました。",
      "howto": "レベルキャップ（Ｌｖ１５）を解放しましょう。"
    },
    {
      "id": 30,
      "imageId": 75,
      "cred": 30,
      "flags": 2,
      "label": "熟練エクス隊員",
      "description": "レベルキャップ（Ｌｖ２７）が解放されました。",
      "howto": "レベルキャップ（Ｌｖ２７）を解放しましょう。"
    },
    {
      "id": 31,
      "imageId": 76,
      "cred": 30,
      "flags": 2,
      "label": "Ｓ級エクス隊員",
      "description": "レベルキャップ（Ｌｖ３９）が解放されました。",
      "howto": "レベルキャップ（Ｌｖ３９）を解放しましょう。"
    },
    {
      "id": 32,
      "imageId": 77,
      "cred": 30,
      "flags": 2,
      "label": "伝説級エクス隊員",
      "description": "レベルキャップ（Ｌｖ５５）が解放されました。",
      "howto": "レベルキャップ（Ｌｖ５５）を解放しましょう。"
    },
    {
      "id": 33,
      "imageId": 78,
      "cred": 10,
      "flags": 6,
      "label": "収集任務の開始",
      "description": "初めてアイテム収集任務を完了しました",
      "howto": "アイテム収集任務を達成しましょう。"
    },
    {
      "id": 34,
      "imageId": 79,
      "cred": 10,
      "flags": 1,
      "label": "収集任務の完了",
      "description": "全てのアイテム収集任務を完了しました",
      "howto": "全てのアイテム収集任務を達成しましょう。"
    },
    {
      "id": 35,
      "imageId": 80,
      "cred": 10,
      "flags": 1,
      "label": "シズラーの至宝",
      "description": "ＢＬＡＤＥ－ＳＩＺ、ＲＡＳ－ＣＨＡＩＮ、Ｉ－ＬＩＬＩ－ＴＨのいずれかを手に入れました。",
      "howto": "異世界の英雄の名を冠した装備品を手に入れましょう。"
    },
    {
      "id": 36,
      "imageId": 81,
      "cred": 10,
      "flags": 1,
      "label": "妖刀村正",
      "description": "村正を手に入れました。「村正」の名がつく刀はこれ以外にも存在します。果たして発見できるでしょうか？",
      "howto": "幻の妖刀を手に入れましょう。"
    },
    {
      "id": 37,
      "imageId": 82,
      "cred": 10,
      "flags": 1,
      "label": "機械じかけの妖刀",
      "description": "クドウムラマサ（もしくは改）を手に入れました。",
      "howto": "<String Placeholder>"
    },
    {
      "id": 38,
      "imageId": 83,
      "cred": 10,
      "flags": 1,
      "label": "Ｂｅｗｉｔｃｈｅｄ　Ｓｗｏｒｄ",
      "description": "ＭＵＲＡＭＡＳＡを手に入れました。",
      "howto": "<String Placeholder>"
    },
    {
      "id": 39,
      "imageId": 84,
      "cred": 10,
      "flags": 1,
      "label": "究極のＭＵＲＡＭＡＳＡ",
      "description": "ＭＵＲＡＭＡＳＡ天を手に入れました。",
      "howto": "<String Placeholder>"
    },
    {
      "id": 40,
      "imageId": 85,
      "cred": 10,
      "flags": 1,
      "label": "バルキリアスコレクター",
      "description": "３種類のバルキリアスを手に入れました。",
      "howto": "神槍と名高いバルキリアス。そのシリーズ全３種を集めましょう。"
    },
    {
      "id": 41,
      "imageId": 86,
      "cred": 10,
      "flags": 1,
      "label": "Ｉ　ＬＯＶＥ　ＭＵＲＰＨＹ’Ｓ！！",
      "description": "マーフィーズボンとマーフィークロスを手に入れました。",
      "howto": "人気レストラン「マーフィーズ」の制服の上下を手に入れましょう。ある異形が持っているとの噂も。"
    },
    {
      "id": 42,
      "imageId": 87,
      "cred": 10,
      "flags": 1,
      "label": "マテリアルマスター",
      "description": "ＭＴスキンⅥ、ＭＴメタルⅥ、ＭＴファイバーⅥ、ＭＴゲノムⅥ、ＭＴスターを手に入れました。",
      "howto": "最高級のマテリアルを集めましょう。全部で５種あります。"
    },
    {
      "id": 43,
      "imageId": 88,
      "cred": 10,
      "flags": 1,
      "label": "メリークリスマス♪",
      "description": "サンタ装備６種を手に入れました。",
      "howto": "クリスマス気分になれそうな装備品を集めましょう。全部で６種あります。"
    },
    {
      "id": 44,
      "imageId": 89,
      "cred": 10,
      "flags": 1,
      "label": "やっぱりネコが好き",
      "description": "ネコ装備を５種手に入れました。",
      "howto": "猫っぽい装備品を集めましょう。全部で５種あります。"
    },
    {
      "id": 45,
      "imageId": 90,
      "cred": 10,
      "flags": 1,
      "label": "下着？　いいえ戦闘服です",
      "description": "下着装備を４種手に入れました。",
      "howto": "エッチな装備品を集めましょう。中には開発事故でしか手に入らないものも。全部で４種あります。"
    }
  ]
}