{
  "achievementsPossible": 46,
  "credPossible": 1000,
  "achievements": [
    {
      "id": 1,
      "imageId": 34,
      "cred": 20,
      "flags": 1,
      "label": "Winner",
      "description": "Win a round of the Season Championship.",
      "howto": "Win a round of the Season Championship."
    },
    {
      "id": 2,
      "imageId": 1,
      "cred": 10,
      "flags": 1,
      "label": "Qualifier",
      "description": "Qualify for the first round of the Season Championship.",
      "howto": "Qualify for the first round of the Season Championship."
    },
    {
      "id": 3,
      "imageId": 6,
      "cred": 25,
      "flags": 1,
      "label": "Survivor",
      "description": "Complete round six of the Season Championship.",
      "howto": "Complete round six of the Season Championship."
    },
    {
      "id": 4,
      "imageId": 7,
      "cred": 40,
      "flags": 1,
      "label": "Made The Podium",
      "description": "Complete the Season Championship.",
      "howto": "Complete the Season Championship."
    },
    {
      "id": 5,
      "imageId": 9,
      "cred": 80,
      "flags": 1,
      "label": "Season Champion",
      "description": "Complete the Season Championship in first place.",
      "howto": "Complete the Season Championship in first place."
    },
    {
      "id": 6,
      "imageId": 8,
      "cred": 130,
      "flags": 1,
      "label": "Perfection",
      "description": "Complete every event and Season Championship race in first place.",
      "howto": "Complete every event and Season Championship race in first place."
    },
    {
      "id": 7,
      "imageId": 10,
      "cred": 10,
      "flags": 1,
      "label": "Right On Track",
      "description": "Win your first Bonus Round.",
      "howto": "Win your first Bonus Round."
    },
    {
      "id": 8,
      "imageId": 11,
      "cred": 25,
      "flags": 1,
      "label": "Moving Ahead",
      "description": "Win 6 Bonus Rounds.",
      "howto": "Win 6 Bonus Rounds."
    },
    {
      "id": 9,
      "imageId": 12,
      "cred": 50,
      "flags": 1,
      "label": "Leading The Way",
      "description": "Win every Bonus Round.",
      "howto": "Win every Bonus Round."
    },
    {
      "id": 10,
      "imageId": 16,
      "cred": 10,
      "flags": 4,
      "label": "Race Winner",
      "description": "Win your first Race event.",
      "howto": "Win your first Race event."
    },
    {
      "id": 11,
      "imageId": 17,
      "cred": 10,
      "flags": 4,
      "label": "Untouchable",
      "description": "Win a Race event without crashing.",
      "howto": "Win a Race event without crashing."
    },
    {
      "id": 12,
      "imageId": 18,
      "cred": 10,
      "flags": 4,
      "label": "Split/Second",
      "description": "Win a Race event by less than a second.",
      "howto": "Win a Race event by less than a second."
    },
    {
      "id": 13,
      "imageId": 19,
      "cred": 10,
      "flags": 4,
      "label": "Eliminator",
      "description": "Win your first Season Elimination event.",
      "howto": "Win your first Season Elimination event."
    },
    {
      "id": 14,
      "imageId": 20,
      "cred": 10,
      "flags": 4,
      "label": "Eliminator Efficiency",
      "description": "Win a Season Elimination event by being in 1st place at each elimination.",
      "howto": "Win a Season Elimination event by being in 1st place at each elimination."
    },
    {
      "id": 15,
      "imageId": 21,
      "cred": 10,
      "flags": 4,
      "label": "Rope A Dope",
      "description": "With 5 seconds or less on the clock, escape from last place and certain elimination.",
      "howto": "With 5 seconds or less on the clock, escape from last place and certain elimination."
    },
    {
      "id": 16,
      "imageId": 22,
      "cred": 5,
      "flags": 4,
      "label": "Power Up",
      "description": "Trigger your first Level 1 Power Play.",
      "howto": "Trigger your first Level 1 Power Play."
    },
    {
      "id": 17,
      "imageId": 2,
      "cred": 5,
      "flags": 4,
      "label": "I Have The Power",
      "description": "Trigger your first Level 2 Power Play.",
      "howto": "Trigger your first Level 2 Power Play."
    },
    {
      "id": 18,
      "imageId": 3,
      "cred": 15,
      "flags": 4,
      "label": "Follow Me",
      "description": "In an event, change the track twice with a Route Changer Power Play.",
      "howto": "In an event, change the track twice with a Route Changer Power Play."
    },
    {
      "id": 19,
      "imageId": 4,
      "cred": 20,
      "flags": 4,
      "label": "Bully",
      "description": "In an event, wreck every rival with a Power Play.",
      "howto": "In an event, wreck every rival with a Power Play."
    },
    {
      "id": 20,
      "imageId": 5,
      "cred": 10,
      "flags": 4,
      "label": "Cheapskate",
      "description": "Use a shortcut that a rival has triggered.",
      "howto": "Use a shortcut that a rival has triggered."
    },
    {
      "id": 21,
      "imageId": 23,
      "cred": 0,
      "flags": 4,
      "label": "Better Luck Next Time",
      "description": "Get wrecked by a shortcut that a rival has triggered.",
      "howto": "Get wrecked by a shortcut that a rival has triggered."
    },
    {
      "id": 22,
      "imageId": 24,
      "cred": 20,
      "flags": 4,
      "label": "Zero To Hero",
      "description": "Use a route changer to go from 8th to 1st place.\r\n",
      "howto": "Use a route changer to go from 8th to 1st place.\r\n"
    },
    {
      "id": 23,
      "imageId": 25,
      "cred": 20,
      "flags": 4,
      "label": "Frequent Flyer",
      "description": "In an event, wreck 3 rivals by crash landing a plane.",
      "howto": "In an event, wreck 3 rivals by crash landing a plane."
    },
    {
      "id": 24,
      "imageId": 26,
      "cred": 20,
      "flags": 4,
      "label": "Swept Away",
      "description": "In an event, wreck 3 rivals by destroying a dam.",
      "howto": "In an event, wreck 3 rivals by destroying a dam."
    },
    {
      "id": 25,
      "imageId": 27,
      "cred": 20,
      "flags": 4,
      "label": "The Pain Train",
      "description": "In an event, wreck 3 rivals by derailing a train.",
      "howto": "In an event, wreck 3 rivals by derailing a train."
    },
    {
      "id": 26,
      "imageId": 28,
      "cred": 20,
      "flags": 4,
      "label": "Shipwrecked",
      "description": "In an event, wreck 3 rivals by launching a ship sideways across the track.",
      "howto": "In an event, wreck 3 rivals by launching a ship sideways across the track."
    },
    {
      "id": 27,
      "imageId": 29,
      "cred": 20,
      "flags": 4,
      "label": "High Pipe",
      "description": "In an event, wreck 3 rivals by demolishing a cooling tower.",
      "howto": "In an event, wreck 3 rivals by demolishing a cooling tower."
    },
    {
      "id": 28,
      "imageId": 30,
      "cred": 25,
      "flags": 4,
      "label": "Heavyweight",
      "description": "Wreck 1000 rivals with Power Plays.",
      "howto": "Wreck 1000 rivals with Power Plays."
    },
    {
      "id": 29,
      "imageId": 31,
      "cred": 25,
      "flags": 4,
      "label": "High Five",
      "description": "Spend a total of five minutes airborne.",
      "howto": "Spend a total of five minutes airborne."
    },
    {
      "id": 30,
      "imageId": 32,
      "cred": 30,
      "flags": 4,
      "label": "Great Explorer",
      "description": "Trigger a total of 50 route changer Power Plays.",
      "howto": "Trigger a total of 50 route changer Power Plays."
    },
    {
      "id": 31,
      "imageId": 33,
      "cred": 30,
      "flags": 4,
      "label": "Going The Distance",
      "description": "Drive a total of 1,081 miles.\r\n",
      "howto": "Drive a total of 1,081 miles.\r\n"
    },
    {
      "id": 32,
      "imageId": 35,
      "cred": 10,
      "flags": 4,
      "label": "The Time Is Right",
      "description": "Win your first Season Detonator event.",
      "howto": "Win your first Season Detonator event."
    },
    {
      "id": 33,
      "imageId": 36,
      "cred": 25,
      "flags": 4,
      "label": "Beat The Team",
      "description": "Beat 1 minute 7 seconds on Construction Site in Detonator.",
      "howto": "Beat 1 minute 7 seconds on Construction Site in Detonator."
    },
    {
      "id": 34,
      "imageId": 38,
      "cred": 25,
      "flags": 4,
      "label": "Beat The Team II: The Revenge",
      "description": "Beat 1 minute 18 seconds on Power Plant in Detonator.",
      "howto": "Beat 1 minute 18 seconds on Power Plant in Detonator."
    },
    {
      "id": 35,
      "imageId": 39,
      "cred": 10,
      "flags": 4,
      "label": "Keep On Truckin'",
      "description": "Win your first Season Survival event.",
      "howto": "Win your first Season Survival event."
    },
    {
      "id": 36,
      "imageId": 40,
      "cred": 25,
      "flags": 3,
      "label": "Convoy",
      "description": "Overtake 12 trucks in row without crashing in a Survival event.",
      "howto": "Overtake 12 trucks in row without crashing in a Survival event."
    },
    {
      "id": 37,
      "imageId": 41,
      "cred": 10,
      "flags": 4,
      "label": "Fearless",
      "description": "Overtake 5 trucks in a row during Sudden Death in a Survival event.",
      "howto": "Overtake 5 trucks in a row during Sudden Death in a Survival event."
    },
    {
      "id": 38,
      "imageId": 42,
      "cred": 10,
      "flags": 4,
      "label": "On The Run",
      "description": "Win your first Season Air Strike event.",
      "howto": "Win your first Season Air Strike event."
    },
    {
      "id": 39,
      "imageId": 43,
      "cred": 10,
      "flags": 4,
      "label": "Clear Skies",
      "description": "Win your first Season Air Revenge event.",
      "howto": "Win your first Season Air Revenge event."
    },
    {
      "id": 40,
      "imageId": 44,
      "cred": 10,
      "flags": 4,
      "label": "Once, twice, three times evasive",
      "description": "Get three Perfect Waves in a row in either an Air Strike or Air Revenge event.",
      "howto": "Get three Perfect Waves in a row in either an Air Strike or Air Revenge event."
    },
    {
      "id": 41,
      "imageId": 45,
      "cred": 10,
      "flags": 4,
      "label": "Start Me Up",
      "description": "Win an online Race.",
      "howto": "Win an online Race."
    },
    {
      "id": 42,
      "imageId": 46,
      "cred": 10,
      "flags": 4,
      "label": "In Good Form",
      "description": "Get an online form of 75 or better.",
      "howto": "Get an online form of 75 or better."
    },
    {
      "id": 43,
      "imageId": 47,
      "cred": 25,
      "flags": 4,
      "label": "Out Of Reach",
      "description": "Get an online form of 25 or better.",
      "howto": "Get an online form of 25 or better."
    },
    {
      "id": 44,
      "imageId": 48,
      "cred": 50,
      "flags": 3,
      "label": "World Beater",
      "description": "Get an online form of 1.",
      "howto": "Get an online form of 1."
    },
    {
      "id": 45,
      "imageId": 49,
      "cred": 25,
      "flags": 4,
      "label": "Giant Killer",
      "description": "Beat an opponent with an online form of 10 or better.",
      "howto": "Beat an opponent with an online form of 10 or better."
    },
    {
      "id": 46,
      "imageId": 50,
      "cred": 10,
      "flags": 4,
      "label": "Team BlackRock",
      "description": "Beat a member of the development team or someone who has beaten them.",
      "howto": "Beat a member of the development team or someone who has beaten them."
    }
  ]
}