{
  "achievementsPossible": 10,
  "credPossible": 50,
  "achievements": [
    {
      "id": 1,
      "imageId": 205,
      "cred": 5,
      "flags": 2,
      "label": "Spectator",
      "description": "Good start! You reached level 1 (or observed another player doing so) to become a Spectator.",
      "howto": "Reach level 1 (or observe another player doing so) to gain the rank of Spectator."
    },
    {
      "id": 2,
      "imageId": 206,
      "cred": 5,
      "flags": 2,
      "label": "The Ponger",
      "description": "Imposing! You reached level 2 (or observed another player doing so), rising to The Ponger.",
      "howto": "Reach level 2 (or observe another player doing so) to gain the rank of The Ponger."
    },
    {
      "id": 3,
      "imageId": 207,
      "cred": 5,
      "flags": 2,
      "label": "Amateur Acer",
      "description": "Wicked! You reached level 3 (or observed another player doing so) to advance to Amateur Acer.",
      "howto": "Reach level 3 (or observe another player doing so) to gain the rank of Amateur Acer."
    },
    {
      "id": 4,
      "imageId": 208,
      "cred": 5,
      "flags": 2,
      "label": "Top Spinner",
      "description": "Sharp work! You reached level 4 (or observed another player doing so) to rank as Top Spinner.",
      "howto": "Reach level 4 (or observe another player doing so) to gain the rank of Top Spinner."
    },
    {
      "id": 5,
      "imageId": 209,
      "cred": 5,
      "flags": 2,
      "label": "Net Vet",
      "description": "Looking up! You reached level 5 (or observed another player doing so) for promotion to Net Vet.",
      "howto": "Reach level 5 (or observe another player doing so) to gain the rank of Net Vet."
    },
    {
      "id": 6,
      "imageId": 210,
      "cred": 5,
      "flags": 2,
      "label": "Rally Master",
      "description": "Yeah! You reached level 6 (or observed another player doing so) to climb to Rally Master.",
      "howto": "Reach level 6 (or observe another player doing so) to gain the rank of Rally Master."
    },
    {
      "id": 7,
      "imageId": 211,
      "cred": 5,
      "flags": 2,
      "label": "Paddle Prodigy",
      "description": "No going back! You reached level 7 (or observed another player doing so) to rank as Paddle Prodigy.",
      "howto": "Reach level 7 (or observe another player doing so) to gain the rank of Paddle Prodigy."
    },
    {
      "id": 8,
      "imageId": 212,
      "cred": 5,
      "flags": 2,
      "label": "The Natural",
      "description": "Rapid fire! You reached level 8 (or observed another player doing so) to qualify as The Natural.",
      "howto": "Reach level 8 (or observe another player doing so) to gain the rank of The Natural."
    },
    {
      "id": 9,
      "imageId": 214,
      "cred": 5,
      "flags": 2,
      "label": "Super Smasher",
      "description": "Blinding! You reached level 9 (or observed another player doing so) to move up to Super Smasher.",
      "howto": "Reach level 9 (or observe another player doing so) to gain the rank of Super Smasher."
    },
    {
      "id": 10,
      "imageId": 213,
      "cred": 5,
      "flags": 2,
      "label": "King Pong",
      "description": "Towering! You reached level 10 (or observed another player doing so) to rule all as King Pong.",
      "howto": "Reach level 10 (or observe another player doing so) to gain the rank of King Pong."
    }
  ]
}