{
  "achievementsPossible": 50,
  "credPossible": 1000,
  "achievements": [
    {
      "id": 6,
      "imageId": 5,
      "cred": 5,
      "flags": 1,
      "label": "Learning the Ropes",
      "description": "You completed a tutorial",
      "howto": "Complete a tutorial"
    },
    {
      "id": 7,
      "imageId": 2,
      "cred": 5,
      "flags": 1,
      "label": "One Time Solo Artist",
      "description": "You completed a song solo",
      "howto": "Completed a song (Solo)"
    },
    {
      "id": 8,
      "imageId": 6,
      "cred": 5,
      "flags": 1,
      "label": "Stix",
      "description": "You performed as a Drummer",
      "howto": "Perform as a Drummer (Band or Solo)"
    },
    {
      "id": 9,
      "imageId": 7,
      "cred": 5,
      "flags": 1,
      "label": "Yodeler",
      "description": "You performed as a Vocalist",
      "howto": "Perform as a Vocalist (Band or Solo)"
    },
    {
      "id": 10,
      "imageId": 8,
      "cred": 5,
      "flags": 1,
      "label": "Pick and Axe",
      "description": "You performed as a Guitarist",
      "howto": "Perform as a Guitarist (Band or Solo)"
    },
    {
      "id": 11,
      "imageId": 28,
      "cred": 5,
      "flags": 1,
      "label": "Feeding the Beast",
      "description": "You uploaded a song to GHTunes",
      "howto": "Upload a song to GHTunes"
    },
    {
      "id": 12,
      "imageId": 29,
      "cred": 5,
      "flags": 1,
      "label": "Download Junkie",
      "description": "You downloaded a few songs from GHTunes",
      "howto": "Download a few songs from GHTunes"
    },
    {
      "id": 13,
      "imageId": 31,
      "cred": 5,
      "flags": 1,
      "label": "A Pair Beats A Pair",
      "description": "You completed an Xbox LIVE 2 v 2 Pro Face-Off match",
      "howto": "Complete an Xbox LIVE 2 v 2 Pro Face-Off match (win or lose)"
    },
    {
      "id": 14,
      "imageId": 32,
      "cred": 5,
      "flags": 1,
      "label": "Survival of the Fittest",
      "description": "You completed an Xbox LIVE Battle Mode match ",
      "howto": "Complete an Xbox LIVE Battle Mode match win or lose"
    },
    {
      "id": 15,
      "imageId": 30,
      "cred": 5,
      "flags": 1,
      "label": "Mine is Bigger Than Yours",
      "description": "You completed an Xbox LIVE Band v Band match",
      "howto": "Complete an Xbox LIVE Band v Band match (win or lose)"
    },
    {
      "id": 16,
      "imageId": 9,
      "cred": 10,
      "flags": 1,
      "label": "First of Many",
      "description": "You completed a gig",
      "howto": "Complete a gig (Band or Solo)"
    },
    {
      "id": 17,
      "imageId": 16,
      "cred": 10,
      "flags": 1,
      "label": "One Man Band",
      "description": "You performed as every instrument at least once",
      "howto": "Perform as every instrument at least once (Vocals, Lead, Bass & Drums)"
    },
    {
      "id": 18,
      "imageId": 20,
      "cred": 10,
      "flags": 1,
      "label": "Should We Stick Together?",
      "description": "You completed a song in a band ",
      "howto": "Complete a song in a band (4 player band) "
    },
    {
      "id": 19,
      "imageId": 17,
      "cred": 15,
      "flags": 1,
      "label": "50 Note Posse",
      "description": "All band members got a 50 note streak at the same time",
      "howto": "All band members get a 50 note streak at the same time (4 player band)"
    },
    {
      "id": 20,
      "imageId": 11,
      "cred": 25,
      "flags": 1,
      "label": "Easy There",
      "description": "You completed Career on easy. Have you tried medium yet?",
      "howto": "Complete a Career on easy (Band or Solo)"
    },
    {
      "id": 21,
      "imageId": 4,
      "cred": 25,
      "flags": 1,
      "label": "Solo Artist",
      "description": "You completed a solo career",
      "howto": "Complete a solo career (any difficulty)"
    },
    {
      "id": 22,
      "imageId": 3,
      "cred": 25,
      "flags": 1,
      "label": "Band on a Mission",
      "description": "You completed the majority of the gigs. Just a few more to go.",
      "howto": "Complete the majority of the gigs (Band or Solo)"
    },
    {
      "id": 23,
      "imageId": 10,
      "cred": 30,
      "flags": 1,
      "label": "Bling, Bling",
      "description": "You earned $1,000,000 in lifetime earnings",
      "howto": "Earn $1,000,000 in lifetime earnings"
    },
    {
      "id": 25,
      "imageId": 19,
      "cred": 30,
      "flags": 1,
      "label": "Top of the Charts",
      "description": "You completed a band career",
      "howto": "Complete a band career (any difficulty)"
    },
    {
      "id": 26,
      "imageId": 12,
      "cred": 30,
      "flags": 1,
      "label": "Medium Musician",
      "description": "You completed Career on medium. Have you tried hard yet?",
      "howto": "Complete a Career on medium (Band or Solo)"
    },
    {
      "id": 27,
      "imageId": 23,
      "cred": 30,
      "flags": 1,
      "label": "Solid Gold Rockstars",
      "description": "You got 100% on a song in a band",
      "howto": "100% a song as a band (4 player band)"
    },
    {
      "id": 28,
      "imageId": 24,
      "cred": 50,
      "flags": 1,
      "label": "Platinum Rockstars",
      "description": "You got 100% on a song in a band on hard or expert",
      "howto": "100% a song as a band, hard or expert only (4 player band)"
    },
    {
      "id": 29,
      "imageId": 13,
      "cred": 60,
      "flags": 1,
      "label": "Hardcore",
      "description": "You completed Career on hard. Have you tried expert yet?",
      "howto": "Complete a Career on hard (Band or Solo)"
    },
    {
      "id": 30,
      "imageId": 14,
      "cred": 100,
      "flags": 1,
      "label": "Hall of Famer",
      "description": "You completed Career on expert",
      "howto": "Complete a Career on expert (Band or Solo)"
    },
    {
      "id": 31,
      "imageId": 15,
      "cred": 150,
      "flags": 1,
      "label": "Jack of All Trades",
      "description": "You completed all of the instrument careers",
      "howto": "Complete all instrument careers - any difficulty (Band or Solo)"
    },
    {
      "id": 32,
      "imageId": 38,
      "cred": 5,
      "flags": 1,
      "label": "Inked",
      "description": "You created a custom tattoo",
      "howto": "Create a custom tattoo"
    },
    {
      "id": 33,
      "imageId": 37,
      "cred": 5,
      "flags": 1,
      "label": "Custom Beats",
      "description": "You created your own custom drums",
      "howto": "Create your own custom drums"
    },
    {
      "id": 34,
      "imageId": 36,
      "cred": 5,
      "flags": 1,
      "label": "One of a Kind Axe",
      "description": "You created your own custom guitar",
      "howto": "You performed as every instrument at least once"
    },
    {
      "id": 35,
      "imageId": 35,
      "cred": 5,
      "flags": 1,
      "label": "Stamp of Approval",
      "description": "You created you own band logo",
      "howto": "Create your own band logo"
    },
    {
      "id": 36,
      "imageId": 33,
      "cred": 5,
      "flags": 1,
      "label": "Rock Maiden",
      "description": "You created a female band member",
      "howto": "Create a female band member"
    },
    {
      "id": 37,
      "imageId": 34,
      "cred": 5,
      "flags": 1,
      "label": "Warrior of Rock",
      "description": "You created a male band member",
      "howto": "Create a male band member"
    },
    {
      "id": 38,
      "imageId": 47,
      "cred": 10,
      "flags": 1,
      "label": "The Dark Prince",
      "description": "You rocked out as Ozzy Osbourne",
      "howto": "Rock out as Ozzy Osbourne in any venue"
    },
    {
      "id": 39,
      "imageId": 46,
      "cred": 10,
      "flags": 1,
      "label": "Leading Lady",
      "description": "You rocked out as Hayley Williams",
      "howto": "Rock out as Hayley Williams in any venue"
    },
    {
      "id": 40,
      "imageId": 45,
      "cred": 10,
      "flags": 1,
      "label": "Motorcity Madman",
      "description": "You rocked out as Ted Nugent",
      "howto": "Rock out as Ted Nugent in any venue"
    },
    {
      "id": 41,
      "imageId": 44,
      "cred": 10,
      "flags": 1,
      "label": "The Experience",
      "description": "You rocked out as Jimi Hendrix",
      "howto": "Rock out as Jimi Hendrix in any venue"
    },
    {
      "id": 42,
      "imageId": 43,
      "cred": 10,
      "flags": 1,
      "label": "Don't Blink",
      "description": "You rocked out as Travis Barker",
      "howto": "Rock out as Travis Barker in any venue"
    },
    {
      "id": 43,
      "imageId": 41,
      "cred": 10,
      "flags": 1,
      "label": "Pumpkin Smasher",
      "description": "You rocked out as Billy Corgan",
      "howto": "Rock out as Billy Corgan in any venue"
    },
    {
      "id": 44,
      "imageId": 42,
      "cred": 10,
      "flags": 1,
      "label": "Wylde Man",
      "description": "You rocked out as Zakk Wylde",
      "howto": "Rock out as Zakk Wylde in any venue"
    },
    {
      "id": 45,
      "imageId": 40,
      "cred": 10,
      "flags": 1,
      "label": "Shiny Metal Thingy",
      "description": "You rocked out as the Rockubot",
      "howto": "Rock out as the Rockubot in any venue"
    },
    {
      "id": 46,
      "imageId": 39,
      "cred": 10,
      "flags": 1,
      "label": "Bad to the Bone",
      "description": "You rocked out as the Skeleton",
      "howto": "Rock out as the Skeleton in any venue"
    },
    {
      "id": 47,
      "imageId": 21,
      "cred": 10,
      "flags": 1,
      "label": "Guitarist's Coattails",
      "description": "Get the highest score in the band as the lead or bass guitar (4 player band)",
      "howto": "You got the highest score in a band as the lead or bass guitar"
    },
    {
      "id": 48,
      "imageId": 22,
      "cred": 10,
      "flags": 1,
      "label": "Vocalist's Coattails",
      "description": "You got the highest score in a band as the vocalist",
      "howto": "Get the highest score in the band as the vocalist (4 player band)"
    },
    {
      "id": 49,
      "imageId": 18,
      "cred": 15,
      "flags": 1,
      "label": "1.21 Jigowatts?!?!",
      "description": "All band members activated star power at the same time",
      "howto": "All band members use star power at the same time (4 player band)"
    },
    {
      "id": 50,
      "imageId": 27,
      "cred": 15,
      "flags": 1,
      "label": "Super Group Unite",
      "description": "You earned an 8x multiplier with the rest of the band at the same time",
      "howto": "All band members earn an 8x multiplier at the same time (4 player band)"
    },
    {
      "id": 51,
      "imageId": 51,
      "cred": 20,
      "flags": 1,
      "label": "Axe Museum",
      "description": "You unlocked all of the guitars",
      "howto": "Unlock all of the guitars "
    },
    {
      "id": 52,
      "imageId": 50,
      "cred": 30,
      "flags": 1,
      "label": "Get Your Boogie On",
      "description": "You scored 222,222 or higher on the song Satch Boogie as the Lead guitarist",
      "howto": "Score 222,222 or higher on the song Satch Boogie as the Lead Guitarist (Solo)"
    },
    {
      "id": 53,
      "imageId": 48,
      "cred": 30,
      "flags": 1,
      "label": "Muse to My Ears",
      "description": "You scored 222,222 or higher on the song Assassin as a Drummer",
      "howto": "Score 222,222 or higher on the song Assassin as a Drummer (Solo)"
    },
    {
      "id": 54,
      "imageId": 49,
      "cred": 30,
      "flags": 1,
      "label": "Mike Checka'",
      "description": "You scored 123,450 or higher on the song Beat It as a Vocalist",
      "howto": "Score 123,450 or higher on the song Beat It as a Vocalist (Solo)"
    },
    {
      "id": 55,
      "imageId": 25,
      "cred": 35,
      "flags": 1,
      "label": "TOOL of Destruction",
      "description": "You scored 444,444 or more on the song Schism",
      "howto": "Score 444,444 or higher on the song Schism in a band (4 player band)"
    },
    {
      "id": 56,
      "imageId": 26,
      "cred": 35,
      "flags": 1,
      "label": "Heavy Metall…",
      "description": "You scored 444,444 or more on the song Trapped Under Ice",
      "howto": "Score 444,444 or higher on the song Trapped Under Ice (4 player band)"
    }
  ]
}