{
  "achievementsPossible": 48,
  "credPossible": 1000,
  "achievements": [
    {
      "id": 1,
      "imageId": 1,
      "cred": 5,
      "flags": 1,
      "label": "Welcome to Harri",
      "description": "Completed Mission 1",
      "howto": "Complete Mission 1"
    },
    {
      "id": 2,
      "imageId": 2,
      "cred": 5,
      "flags": 1,
      "label": "Alamo Compound",
      "description": "Completed Mission 2",
      "howto": "Complete Mission 2"
    },
    {
      "id": 3,
      "imageId": 3,
      "cred": 5,
      "flags": 1,
      "label": "The Bridge",
      "description": "Completed Mission 3",
      "howto": "Complete Mission 3"
    },
    {
      "id": 4,
      "imageId": 4,
      "cred": 5,
      "flags": 1,
      "label": "The Exiled Leader",
      "description": "Completed Mission 4",
      "howto": "Complete Mission 4"
    },
    {
      "id": 5,
      "imageId": 5,
      "cred": 10,
      "flags": 1,
      "label": "Rescue Dila",
      "description": "Completed Mission 5",
      "howto": "Complete Mission 5"
    },
    {
      "id": 6,
      "imageId": 6,
      "cred": 20,
      "flags": 1,
      "label": "The Long Way Back",
      "description": "Completed Mission 6",
      "howto": "Complete Mission 6"
    },
    {
      "id": 7,
      "imageId": 7,
      "cred": 20,
      "flags": 1,
      "label": "Over Easy",
      "description": "Completed all missions on Easy",
      "howto": "Complete all missions on Easy"
    },
    {
      "id": 8,
      "imageId": 8,
      "cred": 40,
      "flags": 1,
      "label": "Just Normal",
      "description": "Completed all missions on Normal",
      "howto": "Complete all missions on Normal"
    },
    {
      "id": 9,
      "imageId": 9,
      "cred": 60,
      "flags": 1,
      "label": "Nothing's Too Hard",
      "description": "Completed all missions on Hard",
      "howto": "Complete all missions on Hard"
    },
    {
      "id": 10,
      "imageId": 10,
      "cred": 10,
      "flags": 1,
      "label": "Tight-Aim",
      "description": "Got 50 headshots",
      "howto": "Get 50 headshots"
    },
    {
      "id": 11,
      "imageId": 11,
      "cred": 20,
      "flags": 1,
      "label": "Sir, You Forgot Your Hat",
      "description": "Got 200 headshots",
      "howto": "Get 200 headshots"
    },
    {
      "id": 12,
      "imageId": 12,
      "cred": 10,
      "flags": 1,
      "label": "Here, Hold This…",
      "description": "Got 50 grenade kills",
      "howto": "Get 50 grenade kills"
    },
    {
      "id": 13,
      "imageId": 13,
      "cred": 20,
      "flags": 1,
      "label": "Grenade!",
      "description": "Got 200 grenade kills",
      "howto": "Get 200 grenade kills"
    },
    {
      "id": 14,
      "imageId": 14,
      "cred": 5,
      "flags": 1,
      "label": "Hat-Trick",
      "description": "Killed 3 enemies with one grenade",
      "howto": "Kill 3 enemies with one grenade"
    },
    {
      "id": 15,
      "imageId": 15,
      "cred": 10,
      "flags": 1,
      "label": "No Mercenaries",
      "description": "Killed 5 Foreign Fighters",
      "howto": "Kill 5 Foreign Fighters"
    },
    {
      "id": 16,
      "imageId": 16,
      "cred": 60,
      "flags": 1,
      "label": "Best in Town",
      "description": "Killed all 6 Foreign Fighters on each difficulty",
      "howto": "Kill all 6 Foreign Fighters on each difficulty"
    },
    {
      "id": 17,
      "imageId": 17,
      "cred": 10,
      "flags": 1,
      "label": "Cut the Chatter",
      "description": "Found 5 Death Radios",
      "howto": "Find 5 Death Radios"
    },
    {
      "id": 18,
      "imageId": 18,
      "cred": 20,
      "flags": 1,
      "label": "Off the Air",
      "description": "Found all Death Radios",
      "howto": "Find all Death Radios"
    },
    {
      "id": 19,
      "imageId": 19,
      "cred": 10,
      "flags": 1,
      "label": "Figure It Out",
      "description": "Found 5 Limbano Lions",
      "howto": "Find 5 Limbano Lions"
    },
    {
      "id": 20,
      "imageId": 20,
      "cred": 20,
      "flags": 1,
      "label": "Lion's Den",
      "description": "Found all Limbano Lions",
      "howto": "Find all Limbano Lions"
    },
    {
      "id": 21,
      "imageId": 21,
      "cred": 10,
      "flags": 1,
      "label": "Propaganda",
      "description": "Found 5 Graffiti",
      "howto": "Find 5 Graffiti"
    },
    {
      "id": 22,
      "imageId": 22,
      "cred": 20,
      "flags": 1,
      "label": "Stop This Madness",
      "description": "Found all Graffiti",
      "howto": "Find all Graffiti"
    },
    {
      "id": 23,
      "imageId": 23,
      "cred": 20,
      "flags": 1,
      "label": "Bravo!",
      "description": "Got over 100% accuracy in a combat arena",
      "howto": "Get over 100% accuracy in a combat arena"
    },
    {
      "id": 24,
      "imageId": 24,
      "cred": 5,
      "flags": 1,
      "label": "Plan B",
      "description": "Got 5 kills with the pistol",
      "howto": "Get 5 kills with the pistol"
    },
    {
      "id": 25,
      "imageId": 25,
      "cred": 20,
      "flags": 1,
      "label": "Quick Draw",
      "description": "Got 200 kills with the pistol",
      "howto": "Get 200 kills with the pistol"
    },
    {
      "id": 28,
      "imageId": 28,
      "cred": 10,
      "flags": 1,
      "label": "Going Pro",
      "description": "Got a Pro time in a combat arena",
      "howto": "Get Pro time in a combat arena"
    },
    {
      "id": 29,
      "imageId": 29,
      "cred": 5,
      "flags": 1,
      "label": "Elite Club",
      "description": "Got a Veteran time in a combat arena",
      "howto": "Get Veteran time in a combat arena"
    },
    {
      "id": 30,
      "imageId": 30,
      "cred": 20,
      "flags": 1,
      "label": "This Ain't Your Daddy's Shotgun!",
      "description": "Killed 6 enemies with the shotgun without reloading",
      "howto": "Kill 6 enemies with the shotgun without reloading"
    },
    {
      "id": 31,
      "imageId": 31,
      "cred": 40,
      "flags": 1,
      "label": "What Time? Can't Tell.",
      "description": "Got at least 7,000 points in a combat arena",
      "howto": "Get at least 7,000 points in a combat arena"
    },
    {
      "id": 32,
      "imageId": 32,
      "cred": 5,
      "flags": 1,
      "label": "No Score in Sight",
      "description": "Got less than 2,000 points in a combat arena",
      "howto": "Get less than 2,000 points in a combat arena"
    },
    {
      "id": 33,
      "imageId": 33,
      "cred": 5,
      "flags": 1,
      "label": "Foot First",
      "description": "Completed 100 kick quick-time events",
      "howto": "Complete 100 kick quick-time events"
    },
    {
      "id": 34,
      "imageId": 34,
      "cred": 5,
      "flags": 1,
      "label": "Jumping Jack",
      "description": "Completed 100 jump quick-time events",
      "howto": "Complete 100 jump quick-time events"
    },
    {
      "id": 35,
      "imageId": 35,
      "cred": 10,
      "flags": 1,
      "label": "Don't Cross This Line",
      "description": "Killed 25 melee attackers before they could strike",
      "howto": "Kill 25 melee attackers before they strike"
    },
    {
      "id": 36,
      "imageId": 36,
      "cred": 10,
      "flags": 1,
      "label": "Recon Recruit",
      "description": "Discovered all paths in a combat arena",
      "howto": "Discover all paths in a combat arena"
    },
    {
      "id": 37,
      "imageId": 37,
      "cred": 20,
      "flags": 1,
      "label": "Recon Expert",
      "description": "Discovered 50% of all combat arena paths",
      "howto": "Discover 50% of the paths in all combat arenas"
    },
    {
      "id": 38,
      "imageId": 38,
      "cred": 60,
      "flags": 1,
      "label": "Recon Master",
      "description": "Discovered ALL of the paths in the game",
      "howto": "Discover ALL of the paths in the game"
    },
    {
      "id": 39,
      "imageId": 39,
      "cred": 5,
      "flags": 1,
      "label": "Brought to You By...",
      "description": "Watched the credits from beginning to end",
      "howto": "Watch the credits from begining to end"
    },
    {
      "id": 40,
      "imageId": 40,
      "cred": 5,
      "flags": 1,
      "label": "Nothing Thrown",
      "description": "Completed a combat arena without using grenades",
      "howto": "Complete a combat arena without using grenades"
    },
    {
      "id": 41,
      "imageId": 41,
      "cred": 5,
      "flags": 1,
      "label": "The Red Barrel",
      "description": "Blew up 50 red barrels",
      "howto": "Blow up 50 red barrels"
    },
    {
      "id": 42,
      "imageId": 42,
      "cred": 5,
      "flags": 1,
      "label": "Recruit",
      "description": "Completed the training map",
      "howto": "Complete the training map"
    },
    {
      "id": 43,
      "imageId": 43,
      "cred": 5,
      "flags": 1,
      "label": "Party Time",
      "description": "Completed a competition map with 8 players",
      "howto": "Complete a competition map with 8 players"
    },
    {
      "id": 44,
      "imageId": 44,
      "cred": 5,
      "flags": 1,
      "label": "After Party",
      "description": "Completed all competition maps with 8 players",
      "howto": "Complete all competition maps with 8 players"
    },
    {
      "id": 45,
      "imageId": 45,
      "cred": 60,
      "flags": 1,
      "label": "Blackwater Operator",
      "description": "Reached experience level 56",
      "howto": "Reach experience level 56"
    },
    {
      "id": 46,
      "imageId": 46,
      "cred": 60,
      "flags": 1,
      "label": "The Right Person",
      "description": "Fully upgraded Baird",
      "howto": "Fully upgrade Baird"
    },
    {
      "id": 47,
      "imageId": 47,
      "cred": 40,
      "flags": 1,
      "label": "Spray and Pray",
      "description": "Fully upgraded Devon",
      "howto": "Fully upgrade Devon"
    },
    {
      "id": 48,
      "imageId": 48,
      "cred": 60,
      "flags": 1,
      "label": "Riding Shotgun",
      "description": "Fully upgraded Smash",
      "howto": "Fully upgrade Smash"
    },
    {
      "id": 49,
      "imageId": 49,
      "cred": 60,
      "flags": 1,
      "label": "Overwatch",
      "description": "Fully upgraded Eddi",
      "howto": "Fully upgrade Eddi"
    },
    {
      "id": 50,
      "imageId": 50,
      "cred": 60,
      "flags": 1,
      "label": "Tired Yet?",
      "description": "Completed 1,000 quick-time events",
      "howto": "Complete 1,000 quick-time events"
    }
  ]
}