{
  "achievementsPossible": 49,
  "credPossible": 1000,
  "achievements": [
    {
      "id": 6,
      "imageId": 8,
      "cred": 30,
      "flags": 6,
      "label": "エピソード1",
      "description": "シーケンスを1つもスキップせずにエピソードをクリアする",
      "howto": "シーケンスを1つもスキップせずにエピソードをクリアする"
    },
    {
      "id": 7,
      "imageId": 8,
      "cred": 30,
      "flags": 6,
      "label": "エピソード2",
      "description": "シーケンスを1つもスキップせずにエピソードをクリアする",
      "howto": "シーケンスを1つもスキップせずにエピソードをクリアする"
    },
    {
      "id": 8,
      "imageId": 8,
      "cred": 30,
      "flags": 6,
      "label": "エピソード3",
      "description": "シーケンスを1つもスキップせずにエピソードをクリアする",
      "howto": "シーケンスを1つもスキップせずにエピソードをクリアする"
    },
    {
      "id": 9,
      "imageId": 8,
      "cred": 30,
      "flags": 6,
      "label": "エピソード4",
      "description": "シーケンスを1つもスキップせずにエピソードをクリアする",
      "howto": "シーケンスを1つもスキップせずにエピソードをクリアする"
    },
    {
      "id": 10,
      "imageId": 8,
      "cred": 30,
      "flags": 6,
      "label": "エピソード5",
      "description": "シーケンスを1つもスキップせずにエピソードをクリアする",
      "howto": "シーケンスを1つもスキップせずにエピソードをクリアする"
    },
    {
      "id": 11,
      "imageId": 8,
      "cred": 30,
      "flags": 6,
      "label": "エピソード6",
      "description": "シーケンスを1つもスキップせずにエピソードをクリアする",
      "howto": "シーケンスを1つもスキップせずにエピソードをクリアする"
    },
    {
      "id": 12,
      "imageId": 8,
      "cred": 30,
      "flags": 6,
      "label": "エピソード7",
      "description": "シーケンスを1つもスキップせずにエピソードをクリアする",
      "howto": "シーケンスを1つもスキップせずにエピソードをクリアする"
    },
    {
      "id": 13,
      "imageId": 8,
      "cred": 30,
      "flags": 6,
      "label": "エピソード8",
      "description": "シーケンスを1つもスキップせずにエピソードをクリアする",
      "howto": "シーケンスを1つもスキップせずにエピソードをクリアする"
    },
    {
      "id": 14,
      "imageId": 32768,
      "cred": 150,
      "flags": 6,
      "label": "セントラルパークでの1日",
      "description": "ゲームを完全にクリアする",
      "howto": "ゲームを完全にクリアする"
    },
    {
      "id": 15,
      "imageId": 6,
      "cred": 20,
      "flags": 6,
      "label": "運転席依存症",
      "description": "一人称視点で「59丁目通り」をクリアする",
      "howto": "一人称視点で「59丁目通り」をクリアする"
    },
    {
      "id": 16,
      "imageId": 4,
      "cred": 10,
      "flags": 6,
      "label": "ブラインド・マン",
      "description": "シーケンス「目覚め」をまばたきせずにクリアする",
      "howto": "シーケンス「目覚め」をまばたきせずにクリアする"
    },
    {
      "id": 17,
      "imageId": 7,
      "cred": 10,
      "flags": 6,
      "label": "死へのカウントダウン",
      "description": "傷口の出血を止める",
      "howto": "傷口の出血を止める"
    },
    {
      "id": 18,
      "imageId": 13,
      "cred": 10,
      "flags": 6,
      "label": "炎による浄化",
      "description": "アンデッド・ヴァンパイアの巣を破壊する",
      "howto": "アンデッド・ヴァンパイアの巣を破壊する"
    },
    {
      "id": 19,
      "imageId": 10,
      "cred": 10,
      "flags": 6,
      "label": "再会",
      "description": "943号室でテオに会う",
      "howto": "943号室でテオに会う"
    },
    {
      "id": 20,
      "imageId": 15,
      "cred": 10,
      "flags": 6,
      "label": "復活",
      "description": "サラを蘇生させる",
      "howto": "サラを蘇生させる"
    },
    {
      "id": 21,
      "imageId": 16,
      "cred": 10,
      "flags": 6,
      "label": "スタントマン",
      "description": "レッカー車で崖をジャンプして渡る",
      "howto": "レッカー車で崖をジャンプして渡る"
    },
    {
      "id": 22,
      "imageId": 17,
      "cred": 10,
      "flags": 6,
      "label": "秘密の洞くつ",
      "description": "セントラルパークの秘密を暴く",
      "howto": "セントラルパークの秘密を暴く"
    },
    {
      "id": 23,
      "imageId": 12,
      "cred": 15,
      "flags": 6,
      "label": "光の道",
      "description": "サラを生かす",
      "howto": "サラを生かす"
    },
    {
      "id": 24,
      "imageId": 11,
      "cred": 15,
      "flags": 6,
      "label": "闇の道",
      "description": "サラを殺す",
      "howto": "サラを殺す"
    },
    {
      "id": 25,
      "imageId": 14,
      "cred": 10,
      "flags": 6,
      "label": "燃える根源",
      "description": "悪の根源を焼き払う",
      "howto": "悪の根源を焼き払う"
    },
    {
      "id": 26,
      "imageId": 14,
      "cred": 25,
      "flags": 6,
      "label": "燃え盛る根源",
      "description": "悪の根源を全体の半分以上焼き払う",
      "howto": "悪の根源を全体の半分以上焼き払う"
    },
    {
      "id": 27,
      "imageId": 14,
      "cred": 50,
      "flags": 6,
      "label": "激しく燃え盛る根源",
      "description": "全ての悪の根源を焼き払う",
      "howto": "全ての悪の根源を焼き払う"
    },
    {
      "id": 28,
      "imageId": 2,
      "cred": 5,
      "flags": 4,
      "label": "基本的な合成",
      "description": "ボトルにテープを巻く",
      "howto": "ボトルにテープを巻く"
    },
    {
      "id": 29,
      "imageId": 3,
      "cred": 25,
      "flags": 4,
      "label": "核兵器",
      "description": "同時に3人を倒す",
      "howto": "同時に3人を倒す"
    },
    {
      "id": 30,
      "imageId": 3,
      "cred": 5,
      "flags": 4,
      "label": "賢明な戦士",
      "description": "「スプレー」と「ライター」を合成してモンスターを倒す",
      "howto": "「スプレー」と「ライター」を合成してモンスターを倒す"
    },
    {
      "id": 31,
      "imageId": 2,
      "cred": 5,
      "flags": 4,
      "label": "火炎びん",
      "description": "可燃性物質入りボトルに芯を入れる",
      "howto": "可燃性物質入りボトルに芯を入れる"
    },
    {
      "id": 32,
      "imageId": 3,
      "cred": 20,
      "flags": 4,
      "label": "コクーン",
      "description": "悪魔のまゆを焼き払う",
      "howto": "悪魔のまゆを焼き払う"
    },
    {
      "id": 33,
      "imageId": 2,
      "cred": 5,
      "flags": 4,
      "label": "空中爆弾",
      "description": "可燃性物質入りのボトルを投げて空中で撃ち抜く",
      "howto": "可燃性物質入りのボトルを投げて空中で撃ち抜く"
    },
    {
      "id": 34,
      "imageId": 2,
      "cred": 5,
      "flags": 4,
      "label": "粘着爆弾",
      "description": "可燃性物質入りボトルまたはスプレーを粘着性のものと合成する",
      "howto": "可燃性物質入りボトルまたはスプレーを粘着性のものと合成する"
    },
    {
      "id": 35,
      "imageId": 2,
      "cred": 5,
      "flags": 4,
      "label": "火炎弾",
      "description": "銃弾に可燃性物質をかけて火炎弾にする",
      "howto": "銃弾に可燃性物質をかけて火炎弾にする"
    },
    {
      "id": 36,
      "imageId": 2,
      "cred": 5,
      "flags": 4,
      "label": "ライトスティック爆弾",
      "description": "「テープを巻いたボトル」と「可燃性物質」または「ライトスティック」を合成する",
      "howto": "「テープを巻いたボトル」と「可燃性物質」または「ライトスティック」を合成する"
    },
    {
      "id": 37,
      "imageId": 2,
      "cred": 10,
      "flags": 4,
      "label": "役立たず！",
      "description": "テープを巻いた芯付きの空きボトルと緊急用照明弾を合成する",
      "howto": "テープを巻いた芯付きの空きボトルと緊急用照明弾を合成する"
    },
    {
      "id": 38,
      "imageId": 2,
      "cred": 30,
      "flags": 4,
      "label": "便利屋カーンビー",
      "description": "所持品リスト内にあるすべての合成パターンを試す",
      "howto": "所持品リスト内にあるすべての合成パターンを試す"
    },
    {
      "id": 39,
      "imageId": 2,
      "cred": 20,
      "flags": 4,
      "label": "射撃の名手",
      "description": "モンスターの亀裂に火炎弾を撃ち込んで倒す",
      "howto": "モンスターの亀裂に火炎弾を撃ち込んで倒す"
    },
    {
      "id": 40,
      "imageId": 2,
      "cred": 20,
      "flags": 4,
      "label": "破壊のエキスパート",
      "description": "最も破壊力のある武器を作る",
      "howto": "最も破壊力のある武器を作る"
    },
    {
      "id": 41,
      "imageId": 2,
      "cred": 20,
      "flags": 4,
      "label": "地割れ",
      "description": "地割れを焼き払う",
      "howto": "地割れを焼き払う"
    },
    {
      "id": 42,
      "imageId": 3,
      "cred": 25,
      "flags": 6,
      "label": "最大級",
      "description": "美術館のモンスターを倒す",
      "howto": "美術館のモンスターを倒す"
    },
    {
      "id": 43,
      "imageId": 3,
      "cred": 20,
      "flags": 4,
      "label": "ゴール！",
      "description": "アンデッド・ラッツを10匹キックする",
      "howto": "アンデッド・ラッツを10匹キックする"
    },
    {
      "id": 44,
      "imageId": 3,
      "cred": 20,
      "flags": 4,
      "label": "焼き卵",
      "description": "アンデッド・ラッツの巣を焼き払う",
      "howto": "アンデッド・ラッツの巣を焼き払う"
    },
    {
      "id": 45,
      "imageId": 3,
      "cred": 20,
      "flags": 4,
      "label": "ヴァンパイア",
      "description": "アンデッド・ヴァンパイアを１匹焼き殺す",
      "howto": "アンデッド・ヴァンパイアを１匹焼き殺す"
    },
    {
      "id": 46,
      "imageId": 9,
      "cred": 10,
      "flags": 4,
      "label": "漁師の敵",
      "description": "金魚を１匹撃つ",
      "howto": "金魚を１匹撃つ"
    },
    {
      "id": 47,
      "imageId": 18,
      "cred": 10,
      "flags": 4,
      "label": "無限のオファー",
      "description": "アドレス帳の連絡先すべてに電話をかける",
      "howto": "アドレス帳の連絡先すべてに電話をかける"
    },
    {
      "id": 48,
      "imageId": 1,
      "cred": 10,
      "flags": 4,
      "label": "ワイヤード",
      "description": "キーなしで車のエンジンをかける",
      "howto": "キーなしで車のエンジンをかける"
    },
    {
      "id": 49,
      "imageId": 1,
      "cred": 10,
      "flags": 4,
      "label": "車泥棒",
      "description": "窓を破り車のドアロックを開錠する",
      "howto": "窓を破り車のドアロックを開錠する"
    },
    {
      "id": 50,
      "imageId": 1,
      "cred": 10,
      "flags": 4,
      "label": "ガソリン無料",
      "description": "車のガソリンタンクに穴を開けてボトルに燃料を詰める",
      "howto": "車のガソリンタンクに穴を開けてボトルに燃料を詰める"
    },
    {
      "id": 51,
      "imageId": 1,
      "cred": 10,
      "flags": 4,
      "label": "ここにキーを置くべからず",
      "description": "サンバイザーの裏から車のキーを見つける",
      "howto": "サンバイザーの裏から車のキーを見つける"
    },
    {
      "id": 52,
      "imageId": 1,
      "cred": 20,
      "flags": 4,
      "label": "10マイルレース",
      "description": "10マイル以上車を運転する",
      "howto": "10マイル以上車を運転する"
    },
    {
      "id": 53,
      "imageId": 3,
      "cred": 50,
      "flags": 4,
      "label": "根絶",
      "description": "モンスターを100体倒す",
      "howto": "モンスターを100体倒す"
    },
    {
      "id": 54,
      "imageId": 5,
      "cred": 10,
      "flags": 4,
      "label": "ブラッディ・メアリー",
      "description": "出血している5ヶ所の傷に包帯を巻く",
      "howto": "出血している5ヶ所の傷に包帯を巻く"
    }
  ]
}