{
  "achievementsPossible": 12,
  "credPossible": 400,
  "achievements": [
    {
      "id": 1,
      "imageId": 1,
      "cred": 40,
      "flags": 4,
      "label": "You Win",
      "description": "Win a match in Arcade Mode without losing a round (any difficulty level)",
      "howto": "Win a match in Arcade Mode without losing a round (any difficulty level)"
    },
    {
      "id": 2,
      "imageId": 2,
      "cred": 40,
      "flags": 4,
      "label": "Ring Out",
      "description": "Win a round by knocking your opponent out of the ring in Arcade Mode (any difficulty level)",
      "howto": "Win a round by knocking your opponent out of the ring in Arcade Mode (any difficulty level)"
    },
    {
      "id": 3,
      "imageId": 3,
      "cred": 40,
      "flags": 4,
      "label": "Excellent",
      "description": "Win a round without taking any damage in Arcade Mode (any difficulty level)",
      "howto": "Win a round without taking any damage in Arcade Mode (any difficulty level)"
    },
    {
      "id": 4,
      "imageId": 4,
      "cred": 60,
      "flags": 4,
      "label": "VS Dural",
      "description": "Face off against Dural in Arcade Mode (any difficulty level)",
      "howto": "Face off against Dural in Arcade Mode (any difficulty level)"
    },
    {
      "id": 5,
      "imageId": 5,
      "cred": 40,
      "flags": 4,
      "label": "Score Attacker",
      "description": "Play Score Attack Mode",
      "howto": "Play Score Attack Mode"
    },
    {
      "id": 6,
      "imageId": 6,
      "cred": 20,
      "flags": 4,
      "label": "5 Hit Combo",
      "description": "Perform a five-hit combo in Score Attack Mode",
      "howto": "Perform a five-hit combo in Score Attack Mode"
    },
    {
      "id": 7,
      "imageId": 7,
      "cred": 20,
      "flags": 1,
      "label": "Test Complete",
      "description": "Complete a test in License Challenge Mode",
      "howto": "Complete a test in License Challenge Mode"
    },
    {
      "id": 8,
      "imageId": 8,
      "cred": 20,
      "flags": 1,
      "label": "Five Tests Complete",
      "description": "Complete five tests in License Challenge Mode",
      "howto": "Complete five tests in License Challenge Mode"
    },
    {
      "id": 9,
      "imageId": 9,
      "cred": 20,
      "flags": 1,
      "label": "Ten Tests Complete",
      "description": "Complete ten tests in License Challenge Mode",
      "howto": "Complete ten tests in License Challenge Mode"
    },
    {
      "id": 10,
      "imageId": 10,
      "cred": 20,
      "flags": 4,
      "label": "Up and Coming",
      "description": "Play one ranked match",
      "howto": "Play one ranked match"
    },
    {
      "id": 11,
      "imageId": 11,
      "cred": 20,
      "flags": 4,
      "label": "Challenger",
      "description": "Play ten ranked matches",
      "howto": "Play ten ranked matches"
    },
    {
      "id": 12,
      "imageId": 12,
      "cred": 60,
      "flags": 4,
      "label": "Student",
      "description": "Play any training session in Tutorial Mode",
      "howto": "Play any training session in Tutorial Mode"
    }
  ]
}