{
  "achievementsPossible": 27,
  "credPossible": 1000,
  "achievements": [
    {
      "id": 13,
      "imageId": 24,
      "cred": 40,
      "flags": 6,
      "label": "The Canyon",
      "description": "Complete \"Call of the Chariots\".",
      "howto": "Complete \"Call of the Chariots\"."
    },
    {
      "id": 14,
      "imageId": 2,
      "cred": 40,
      "flags": 6,
      "label": "Antarctica",
      "description": "Complete \"Promise\".",
      "howto": "Complete \"Promise\"."
    },
    {
      "id": 15,
      "imageId": 6,
      "cred": 40,
      "flags": 6,
      "label": "Destruction",
      "description": "Complete \"Chorus of Destruction\".",
      "howto": "Complete \"Chorus of Destruction\"."
    },
    {
      "id": 16,
      "imageId": 5,
      "cred": 40,
      "flags": 6,
      "label": "Constantine",
      "description": "Complete \"Defense of Constantine\".",
      "howto": "Complete \"Defense of Constantine\"."
    },
    {
      "id": 17,
      "imageId": 4,
      "cred": 40,
      "flags": 6,
      "label": "Babel",
      "description": "Complete \"Tower of Babel\".",
      "howto": "Complete \"Tower of Babel\"."
    },
    {
      "id": 18,
      "imageId": 18,
      "cred": 40,
      "flags": 6,
      "label": "No Borders",
      "description": "Complete \"No Borders\".",
      "howto": "Complete \"No Borders\"."
    },
    {
      "id": 19,
      "imageId": 21,
      "cred": 80,
      "flags": 1,
      "label": "Power of Device",
      "description": "Complete the game.",
      "howto": "Complete the game."
    },
    {
      "id": 20,
      "imageId": 22,
      "cred": 100,
      "flags": 1,
      "label": "Power of Human Ingenuity",
      "description": "Complete the game on hard difficulty.",
      "howto": "Complete the game on hard difficulty."
    },
    {
      "id": 21,
      "imageId": 17,
      "cred": 20,
      "flags": 4,
      "label": "Looking Well",
      "description": "Find 15 hidden emblems.",
      "howto": "Find 15 hidden emblems."
    },
    {
      "id": 22,
      "imageId": 16,
      "cred": 50,
      "flags": 4,
      "label": "Looking Great",
      "description": "Find all 42 hidden emblems.",
      "howto": "Find all 42 hidden emblems."
    },
    {
      "id": 23,
      "imageId": 11,
      "cred": 50,
      "flags": 4,
      "label": "Great Shot",
      "description": "Destroy all Sensors in the game.",
      "howto": "Destroy all Sensors in the game."
    },
    {
      "id": 24,
      "imageId": 8,
      "cred": 50,
      "flags": 4,
      "label": "Easy Logistics",
      "description": "Earn $75,000 total cash in the single player campaign.",
      "howto": "Earn $75,000 total cash in the single player campaign."
    },
    {
      "id": 25,
      "imageId": 14,
      "cred": 10,
      "flags": 4,
      "label": "Infinity Plus One",
      "description": "Clear the landing zone while firing from the gunship at Fort Monus.",
      "howto": "Clear the landing zone while firing from the gunship at Fort Monus."
    },
    {
      "id": 26,
      "imageId": 26,
      "cred": 20,
      "flags": 4,
      "label": "Ultimate Zephyr",
      "description": "Purchase all 4 of the Zephyr EX parts in the single player campaign.",
      "howto": "Purchase all 4 of the Zephyr EX parts in the single player campaign."
    },
    {
      "id": 27,
      "imageId": 1,
      "cred": 10,
      "flags": 4,
      "label": "Amplified Warrior",
      "description": "Equip a Mark III battle skill in the single player campaign.",
      "howto": "Equip a Mark III battle skill in the single player campaign."
    },
    {
      "id": 28,
      "imageId": 28,
      "cred": 10,
      "flags": 4,
      "label": "Wicked Shot",
      "description": "Break all body parts on a single opponent in the single player campaign.",
      "howto": "Break all body parts on a single opponent in the single player campaign."
    },
    {
      "id": 29,
      "imageId": 9,
      "cred": 40,
      "flags": 4,
      "label": "E.D.G.E. Master",
      "description": "Kill 50 enemies while in E.D.G.E. mode.",
      "howto": "Kill 50 enemies while in E.D.G.E. mode."
    },
    {
      "id": 30,
      "imageId": 12,
      "cred": 10,
      "flags": 7,
      "label": "Gritty Competitor",
      "description": "Play 10 multiplayer matches.",
      "howto": "Play 10 multiplayer matches."
    },
    {
      "id": 31,
      "imageId": 7,
      "cred": 10,
      "flags": 7,
      "label": "Diversity Rocks",
      "description": "Win a multiplayer match of all 4 types.",
      "howto": "Win a multiplayer match of all 4 types."
    },
    {
      "id": 32,
      "imageId": 3,
      "cred": 10,
      "flags": 7,
      "label": "Around the World",
      "description": "Win a multiplayer match on every level.",
      "howto": "Win a multiplayer match on every level."
    },
    {
      "id": 33,
      "imageId": 15,
      "cred": 30,
      "flags": 7,
      "label": "Lead by Example",
      "description": "Get the top score in Team Deathmatch.",
      "howto": "Get the top score in Team Deathmatch."
    },
    {
      "id": 34,
      "imageId": 23,
      "cred": 30,
      "flags": 7,
      "label": "Team Player",
      "description": "Accumulate a total score of 10,000 while playing Domination and Supremacy.",
      "howto": "Accumulate a total score of 10,000 while playing Domination and Supremacy."
    },
    {
      "id": 35,
      "imageId": 13,
      "cred": 100,
      "flags": 2,
      "label": "My Hero Zero",
      "description": "Reach Rank 70 in multiplayer.",
      "howto": "Reach Rank 70 in multiplayer."
    },
    {
      "id": 36,
      "imageId": 20,
      "cred": 10,
      "flags": 7,
      "label": "Petals of Edelweiss",
      "description": "Defeat a player who has the Petals of Edelweiss achievement over Xbox LIVE.",
      "howto": "Defeat a player who has the Petals of Edelweiss achievement over Xbox LIVE."
    },
    {
      "id": 38,
      "imageId": 25,
      "cred": 40,
      "flags": 6,
      "label": "The Show",
      "description": "Complete \"Long Island Research Facility\".",
      "howto": "Complete \"Long Island Research Facility\"."
    },
    {
      "id": 39,
      "imageId": 19,
      "cred": 40,
      "flags": 6,
      "label": "Percival",
      "description": "Complete \"Apollo's Chariot\".",
      "howto": "Complete \"Apollo's Chariot\"."
    },
    {
      "id": 40,
      "imageId": 10,
      "cred": 40,
      "flags": 6,
      "label": "Fort Monus",
      "description": "Complete \"Fort Monus\".",
      "howto": "Complete \"Fort Monus\"."
    }
  ]
}