{
  "achievementsPossible": 20,
  "credPossible": 1000,
  "achievements": [
    {
      "id": 1,
      "imageId": 1,
      "cred": 30,
      "flags": 1,
      "label": "Entirety",
      "description": "Complete all levels",
      "howto": "You must play through all levels."
    },
    {
      "id": 2,
      "imageId": 2,
      "cred": 220,
      "flags": 1,
      "label": "Hard to Complete",
      "description": "Complete all levels on Hard",
      "howto": "You must complete all levels on the Hard difficulty setting.\r\n"
    },
    {
      "id": 3,
      "imageId": 3,
      "cred": 100,
      "flags": 1,
      "label": "Immortal",
      "description": "Complete all levels without dying\r\n",
      "howto": "You must play through all levels without dying in any level."
    },
    {
      "id": 4,
      "imageId": 4,
      "cred": 10,
      "flags": 6,
      "label": "Cosmic Combat",
      "description": "Complete Cosmic Combat\r\n",
      "howto": "You must play through the entire Cosmic Combat level."
    },
    {
      "id": 5,
      "imageId": 5,
      "cred": 10,
      "flags": 6,
      "label": "Deep Sea Danger",
      "description": "Complete Deep Sea Danger\r\n",
      "howto": "You must play through the entire Deep Sea Danger level."
    },
    {
      "id": 6,
      "imageId": 6,
      "cred": 10,
      "flags": 6,
      "label": "Emperor's Tomb\r\n",
      "description": "Complete Emperor's Tomb",
      "howto": "You must play through the entire Emperor's Tomb level."
    },
    {
      "id": 7,
      "imageId": 7,
      "cred": 10,
      "flags": 6,
      "label": "Graveyard Gunfight",
      "description": "Complete Graveyard Gunfight\r\n",
      "howto": "You must play through the entire Graveyard Gunfight level."
    },
    {
      "id": 8,
      "imageId": 8,
      "cred": 10,
      "flags": 6,
      "label": "Insect Invasion",
      "description": "Complete Insect Invasion",
      "howto": "You must play through the entire Insect Invasion level.\r\n"
    },
    {
      "id": 9,
      "imageId": 9,
      "cred": 10,
      "flags": 6,
      "label": "Robot Rebellion",
      "description": "Complete Robot Rebellion\r\n",
      "howto": "You must play through the entire Robot Rebellion level."
    },
    {
      "id": 10,
      "imageId": 10,
      "cred": 10,
      "flags": 1,
      "label": "Third Dimension",
      "description": "Complete a level in 3D",
      "howto": "You must play through any level in 3D."
    },
    {
      "id": 11,
      "imageId": 12,
      "cred": 150,
      "flags": 1,
      "label": "Single Shot",
      "description": "Complete any level using Single Shot gun",
      "howto": "You must play through any level using only the single shot weapon.\r\n"
    },
    {
      "id": 12,
      "imageId": 11,
      "cred": 80,
      "flags": 1,
      "label": "Staying Alive",
      "description": "Complete any level without dying",
      "howto": "You must play through and complete any level without dying."
    },
    {
      "id": 13,
      "imageId": 13,
      "cred": 50,
      "flags": 4,
      "label": "100 Ant Kill",
      "description": "Insect Invasion - Kill 100 Ants",
      "howto": "You must kill 100 ants in one play through of Insect Invasion."
    },
    {
      "id": 14,
      "imageId": 14,
      "cred": 50,
      "flags": 4,
      "label": "Reactor Destruction",
      "description": "Cosmic Combat - Destroy all reactors",
      "howto": "You must destroy all the ship reactors in one play through of Cosmic Combat.\r\n"
    },
    {
      "id": 15,
      "imageId": 15,
      "cred": 50,
      "flags": 4,
      "label": "Underwater Mine Expert",
      "description": "Deep Sea Danger - Destroy all mines",
      "howto": "You must destroy all the mines in one play through of Deep Sea Danger."
    },
    {
      "id": 16,
      "imageId": 16,
      "cred": 50,
      "flags": 4,
      "label": "Bottle Shoot",
      "description": "Graveyard Gunfight - Shoot all bottles",
      "howto": "You must shoot all bottles in Graveyard Gunfight."
    },
    {
      "id": 17,
      "imageId": 17,
      "cred": 50,
      "flags": 4,
      "label": "Mine Expert",
      "description": "Robot Rebellion - Destroy all mines",
      "howto": "You must destroy all mines in one play through of Robot Rebellion.\r\n"
    },
    {
      "id": 18,
      "imageId": 18,
      "cred": 25,
      "flags": 4,
      "label": "Hotshot",
      "description": "Get hit streak of 20 shots",
      "howto": "You must get a hit streak of 20 shots in any level."
    },
    {
      "id": 19,
      "imageId": 19,
      "cred": 25,
      "flags": 4,
      "label": "Big Score",
      "description": "Score 75,000 points",
      "howto": "Earn a score of at least 75,000 points in any one level."
    },
    {
      "id": 20,
      "imageId": 20,
      "cred": 50,
      "flags": 4,
      "label": "Stolen Idol",
      "description": "Steal the Idol",
      "howto": "You must steal the Idol from the Emperor's Tomb."
    }
  ]
}