{
  "avatarAssetsPossible": 3,
  "maleAvatarAssetsPossible": 1,
  "femaleAvatarAssetsPossible": 1,
  "avatarAssets": [
    {
      "id": "00000008-0001-6151-c275-736758410a20",
      "imageId": 15,
      "subcategory": 0,
      "unknown": 0,
      "isMale": true,
      "isFemale": false,
      "isUnisex": false,
      "label": "Star Shirt",
      "description": "Sell off your individualism by wearing our Authentic Captain Smiley apparel. ",
      "howto": "Earn this item after completing the first level of the game."
    },
    {
      "id": "00000008-0001-a142-c4e1-66cc58410a20",
      "imageId": 17,
      "subcategory": 0,
      "unknown": 2015221016,
      "isMale": false,
      "isFemale": true,
      "isUnisex": false,
      "label": "Gerda Shirt",
      "description": "Sell off your individualism by wearing our Authentic Captain Smiley apparel. ",
      "howto": "Earn this item after completing the first level of the game."
    },
    {
      "id": "00000544-0002-e1e3-cdd1-32d958410a20",
      "imageId": 16,
      "subcategory": 0,
      "unknown": 2015221016,
      "isMale": false,
      "isFemale": false,
      "isUnisex": true,
      "label": "Captain Smiley Giant Head",
      "description": "A giant Captain Smiley head, quite possibly the coolest accessory we've ever made.",
      "howto": "Earn this item once you complete the game."
    }
  ]
}