{
  "achievementsPossible": 41,
  "credPossible": 1000,
  "achievements": [
    {
      "id": 1,
      "imageId": 45,
      "cred": 100,
      "flags": 7,
      "label": "True Warrior of the 3 Kingdoms",
      "description": "Obtained all achievements.",
      "howto": "Obtain all achievements."
    },
    {
      "id": 2,
      "imageId": 44,
      "cred": 60,
      "flags": 1,
      "label": "Master of Chaos",
      "description": "Completed all of the stages on the \"Chaos\" difficulty level.",
      "howto": "Complete all of the stages on the \"Chaos\" difficulty level."
    },
    {
      "id": 3,
      "imageId": 43,
      "cred": 60,
      "flags": 4,
      "label": "Unwavering Ambition",
      "description": "Fought 50 straight battles in Ambition Mode.",
      "howto": "Fight 50 straight battles in Ambition Mode."
    },
    {
      "id": 4,
      "imageId": 42,
      "cred": 30,
      "flags": 1,
      "label": "Weapon Collector",
      "description": "Obtained all of the weapons in the game.",
      "howto": "Obtain all of the weapons in the game."
    },
    {
      "id": 5,
      "imageId": 41,
      "cred": 30,
      "flags": 6,
      "label": "Heaven and Earth",
      "description": "Built a Tongquetai and welcomed the Emperor to your town.",
      "howto": "Build a Tongquetai and welcome the Emperor to your town."
    },
    {
      "id": 6,
      "imageId": 40,
      "cred": 30,
      "flags": 1,
      "label": "A Shout of Triumph",
      "description": "Finished all of the stages within Story Mode and Free Mode with the exception of the tutorial.",
      "howto": "Finish all of the stages within Story Mode and Free Mode with the exception of the tutorial."
    },
    {
      "id": 7,
      "imageId": 39,
      "cred": 30,
      "flags": 4,
      "label": "The Land of Plenty",
      "description": "Obtained more than 1,000 materials for weapons and facilities in Ambition Mode.",
      "howto": "Obtain more than 1,000 materials for weapons and facilities in Ambition Mode."
    },
    {
      "id": 8,
      "imageId": 38,
      "cred": 30,
      "flags": 1,
      "label": "The Ties that Bind Us",
      "description": "Became allies with all of the officers in Ambition Mode.",
      "howto": "Become allies with all of the officers in Ambition Mode."
    },
    {
      "id": 9,
      "imageId": 37,
      "cred": 30,
      "flags": 1,
      "label": "The Height of Prosperity",
      "description": "Obtained all of the facilities in Ambition Mode.",
      "howto": "Obtain all of the facilities in Ambition Mode."
    },
    {
      "id": 10,
      "imageId": 36,
      "cred": 30,
      "flags": 1,
      "label": "A Majestic Manner",
      "description": "Reached the maximum Fame level in Ambition Mode.",
      "howto": "Reach the maximum Fame level in Ambition Mode."
    },
    {
      "id": 11,
      "imageId": 46,
      "cred": 30,
      "flags": 1,
      "label": "A Collector of Rarities",
      "description": "Obtained all of the Camp Symbols.",
      "howto": "Obtain all of the Camp Symbols."
    },
    {
      "id": 12,
      "imageId": 47,
      "cred": 30,
      "flags": 4,
      "label": "Battle-hardened Veteran",
      "description": "Won 100 battles with the same officer.",
      "howto": "Win 100 battles with the same officer."
    },
    {
      "id": 13,
      "imageId": 48,
      "cred": 30,
      "flags": 4,
      "label": "Unstoppable Might",
      "description": "Defeated a total of more than 100,000 enemies.",
      "howto": "Defeat a total of more than 100,000 enemies."
    },
    {
      "id": 14,
      "imageId": 49,
      "cred": 30,
      "flags": 4,
      "label": "The Path of Ambition",
      "description": "Fought 20 straight battles in Ambition Mode.",
      "howto": "Fight 20 straight battles in Ambition Mode."
    },
    {
      "id": 15,
      "imageId": 50,
      "cred": 30,
      "flags": 1,
      "label": "An Intricate Tale",
      "description": "Completed all of the stages in Story Mode.",
      "howto": "Complete all of the stages in Story Mode."
    },
    {
      "id": 16,
      "imageId": 51,
      "cred": 30,
      "flags": 1,
      "label": "Revelation",
      "description": "Upgraded all skills to Level 10 or higher.",
      "howto": "Upgrade all skills to Level 10 or higher."
    },
    {
      "id": 17,
      "imageId": 52,
      "cred": 30,
      "flags": 4,
      "label": "Legend of Wei",
      "description": "Viewed the ending (Historical & Hypothetical) for the Wei story.",
      "howto": "View the ending (Historical & Hypothetical) for the Wei story."
    },
    {
      "id": 18,
      "imageId": 53,
      "cred": 30,
      "flags": 4,
      "label": "Legend of Wu",
      "description": "Viewed the ending (Historical & Hypothetical) for the Wu story.",
      "howto": "View the ending (Historical & Hypothetical) for the Wu story."
    },
    {
      "id": 19,
      "imageId": 54,
      "cred": 30,
      "flags": 4,
      "label": "Legend of Shu",
      "description": "Viewed the ending (Historical & Hypothetical) for the Shu story.",
      "howto": "View the ending (Historical & Hypothetical) for the Shu story."
    },
    {
      "id": 20,
      "imageId": 55,
      "cred": 30,
      "flags": 4,
      "label": "Legend of Jin",
      "description": "Viewed the ending (Historical & Hypothetical) for the Jin story.",
      "howto": "View the ending (Historical & Hypothetical) for the Jin story."
    },
    {
      "id": 21,
      "imageId": 56,
      "cred": 30,
      "flags": 6,
      "label": "Friends to the End",
      "description": "Formed a bond at the maximum level with another officer.",
      "howto": "Form a bond at the maximum level with another officer."
    },
    {
      "id": 22,
      "imageId": 57,
      "cred": 30,
      "flags": 4,
      "label": "The Destroyer",
      "description": "Destroyed a total of 1,000 siege weapons.",
      "howto": "Destroy a total of 1,000 siege weapons."
    },
    {
      "id": 23,
      "imageId": 58,
      "cred": 30,
      "flags": 4,
      "label": "Untold Legends",
      "description": "Completed all of the stages for the Other story.",
      "howto": "Complete all of the stages for the Other story."
    },
    {
      "id": 24,
      "imageId": 59,
      "cred": 10,
      "flags": 3,
      "label": "Facility Construction",
      "description": "Had a new facility built in Ambition Mode.",
      "howto": "Have a new facility built in Ambition Mode."
    },
    {
      "id": 25,
      "imageId": 60,
      "cred": 10,
      "flags": 3,
      "label": "Facility Expansion",
      "description": "Had a facility expanded in Ambition Mode.",
      "howto": "Have a facility expanded in Ambition Mode."
    },
    {
      "id": 26,
      "imageId": 61,
      "cred": 10,
      "flags": 4,
      "label": "The Birth of a Leader",
      "description": "Fought 5 straight battles in Ambition Mode.",
      "howto": "Fight 5 straight battles in Ambition Mode."
    },
    {
      "id": 27,
      "imageId": 62,
      "cred": 10,
      "flags": 4,
      "label": "Death from Above",
      "description": "Defeated an enemy after juggling them in the air for at least 10 seconds.",
      "howto": "Defeat an enemy after juggling them in the air for at least 10 seconds."
    },
    {
      "id": 28,
      "imageId": 63,
      "cred": 10,
      "flags": 4,
      "label": "True Rage",
      "description": "Used a True Rage Attack.",
      "howto": "Use a True Rage Attack."
    },
    {
      "id": 29,
      "imageId": 64,
      "cred": 10,
      "flags": 4,
      "label": "In an Instant",
      "description": "Defeated 3 enemy officers with a Storm Rush in a single battle.",
      "howto": "Defeat 3 enemy officers with a Storm Rush in a single battle."
    },
    {
      "id": 30,
      "imageId": 65,
      "cred": 10,
      "flags": 4,
      "label": "Comeback Kid",
      "description": "Defeated 3 enemy officers with a Switch Counter in a single battle.",
      "howto": "Defeat 3 enemy officers with a Switch Counter in a single battle."
    },
    {
      "id": 31,
      "imageId": 66,
      "cred": 10,
      "flags": 4,
      "label": "King of the Combos",
      "description": "Achieved a 1,000 hit combo.",
      "howto": "Achieve a 1,000 hit combo."
    },
    {
      "id": 32,
      "imageId": 67,
      "cred": 10,
      "flags": 4,
      "label": "One Warrior vs. a Thousand",
      "description": "Defeated 1,000 enemies in a single battle.",
      "howto": "Defeat 1,000 enemies in a single battle."
    },
    {
      "id": 33,
      "imageId": 68,
      "cred": 10,
      "flags": 6,
      "label": "Graduation Day",
      "description": "Completed the tutorials for all of the kingdoms.",
      "howto": "Complete the tutorials for all of the kingdoms."
    },
    {
      "id": 34,
      "imageId": 69,
      "cred": 10,
      "flags": 4,
      "label": "Mounted Terror",
      "description": "Defeated 1,000 enemies while mounted on a riding-type animal.",
      "howto": "Defeat 1,000 enemies while mounted on a riding-type animal."
    },
    {
      "id": 35,
      "imageId": 70,
      "cred": 10,
      "flags": 4,
      "label": "The Beastmaster Awakens",
      "description": "Defeated 100 enemies with a companion-type animal.",
      "howto": "Defeat 100 enemies with a companion-type animal."
    },
    {
      "id": 36,
      "imageId": 71,
      "cred": 10,
      "flags": 1,
      "label": "Vocal Enthusiast",
      "description": "Listened to all of the voice lines within the Gallery.",
      "howto": "Listen to all of the voice lines within the Gallery."
    },
    {
      "id": 37,
      "imageId": 72,
      "cred": 10,
      "flags": 1,
      "label": "Animal Collector",
      "description": "Obtained all of the animals within the game.",
      "howto": "Obtain all of the animals within the game."
    },
    {
      "id": 38,
      "imageId": 73,
      "cred": 10,
      "flags": 1,
      "label": "Movie Collector",
      "description": "Unlocked all of the movies within the game.",
      "howto": "Unlock all of the movies within the game."
    },
    {
      "id": 39,
      "imageId": 74,
      "cred": 10,
      "flags": 1,
      "label": "Event Collector",
      "description": "Unlocked all of the event scenes within the game.",
      "howto": "Unlock all of the event scenes within the game."
    },
    {
      "id": 40,
      "imageId": 75,
      "cred": 10,
      "flags": 1,
      "label": "Wallpaper Collector",
      "description": "Unlocked all of the wallpapers within the game.",
      "howto": "Unlock all of the wallpapers within the game."
    },
    {
      "id": 41,
      "imageId": 76,
      "cred": 10,
      "flags": 4,
      "label": "Like a Shadow",
      "description": "Finished any stage of the game, except for the tutorial, without taking any damage.",
      "howto": "Finish any stage of the game, except for the tutorial, without taking any damage."
    }
  ]
}