{
  "achievementsPossible": 50,
  "credPossible": 1000,
  "achievements": [
    {
      "id": 1,
      "imageId": 1,
      "cred": 20,
      "flags": 4,
      "label": "Red Sports Car",
      "description": " sports car you'd like to drive just once",
      "howto": "And passes directly over several pillars at the beginning Stage 2"
    },
    {
      "id": 2,
      "imageId": 2,
      "cred": 20,
      "flags": 4,
      "label": "EXZEAL Bomb",
      "description": "Don't accept death, use a bomb when you're in trouble!",
      "howto": "Bomb used in EXZEAL"
    },
    {
      "id": 4,
      "imageId": 3,
      "cred": 20,
      "flags": 6,
      "label": "EXZEAL UNIT-1 All Clear!",
      "description": "Cleared by EXZEAL Unit-1",
      "howto": "All Clear in EXZEAL UNIT-1"
    },
    {
      "id": 5,
      "imageId": 4,
      "cred": 20,
      "flags": 6,
      "label": "EXZEAL UNIT-2 All Clear!",
      "description": "Cleared by EXZEAL Unit-2",
      "howto": "All Clear in EXZEAL UNIT-2"
    },
    {
      "id": 6,
      "imageId": 5,
      "cred": 20,
      "flags": 6,
      "label": "EXZEAL UNIT-3 All Clear!",
      "description": "Cleared by EXZEAL Unit-3",
      "howto": "All Clear in EXZEAL UNIT-3"
    },
    {
      "id": 7,
      "imageId": 6,
      "cred": 20,
      "flags": 6,
      "label": "EXZEAL UNIT-4 All Clear!",
      "description": "Cleared by EXZEAL Unit-4",
      "howto": "All Clear in EXZEAL UNIT-4"
    },
    {
      "id": 8,
      "imageId": 8,
      "cred": 20,
      "flags": 6,
      "label": "EXZEAL UNIT-3e All Clear!",
      "description": "Cleared by EXZEAL Unit-3e",
      "howto": "All Clear in EXZEAL UNIT-3e"
    },
    {
      "id": 9,
      "imageId": 9,
      "cred": 20,
      "flags": 4,
      "label": "UFO",
      "description": "This ain't my dish",
      "howto": "<String Placeholder>"
    },
    {
      "id": 10,
      "imageId": 10,
      "cred": 20,
      "flags": 4,
      "label": "Three-Headed Dragon",
      "description": "It's a mecha",
      "howto": "<String Placeholder>"
    },
    {
      "id": 11,
      "imageId": 11,
      "cred": 20,
      "flags": 4,
      "label": "Sitting Robot",
      "description": "Get it to sit down!",
      "howto": "<String Placeholder>"
    },
    {
      "id": 12,
      "imageId": 12,
      "cred": 20,
      "flags": 4,
      "label": "Blue Block",
      "description": "Well-carried",
      "howto": "<String Placeholder>"
    },
    {
      "id": 13,
      "imageId": 13,
      "cred": 20,
      "flags": 4,
      "label": "A-1 Rescue",
      "description": "Wham! You caught it.",
      "howto": "<String Placeholder>"
    },
    {
      "id": 14,
      "imageId": 14,
      "cred": 20,
      "flags": 4,
      "label": "Space Battleship Tomato",
      "description": "How many days does the earth have left?",
      "howto": "<String Placeholder>"
    },
    {
      "id": 15,
      "imageId": 15,
      "cred": 20,
      "flags": 4,
      "label": "Salute!",
      "description": "Good job so far. Keep it up!",
      "howto": "<String Placeholder>"
    },
    {
      "id": 16,
      "imageId": 16,
      "cred": 20,
      "flags": 6,
      "label": "TRIZEAL Clear!",
      "description": "TRIZEAL All Clear",
      "howto": "TRIZEAL all clear"
    },
    {
      "id": 17,
      "imageId": 17,
      "cred": 20,
      "flags": 4,
      "label": "Breakout!",
      "description": "STAGE 1 Breakout achieved!",
      "howto": "TRIZEAL stage 1 breakout success"
    },
    {
      "id": 18,
      "imageId": 18,
      "cred": 20,
      "flags": 4,
      "label": "Breakout!",
      "description": "STAGE 4 Breakout achieved!",
      "howto": "TRIZEAL stage 4 breakout success"
    },
    {
      "id": 19,
      "imageId": 19,
      "cred": 20,
      "flags": 4,
      "label": "TRIZEAL UFO",
      "description": "Da-dadada, da-dadada... dah-dah, dah-dah, dah-dah, UFO!",
      "howto": "<String Placeholder>"
    },
    {
      "id": 20,
      "imageId": 20,
      "cred": 20,
      "flags": 4,
      "label": "White Bird",
      "description": "Cluck-oo",
      "howto": "<String Placeholder>"
    },
    {
      "id": 21,
      "imageId": 21,
      "cred": 20,
      "flags": 4,
      "label": "Lifting King",
      "description": "Impressive!",
      "howto": "<String Placeholder>"
    },
    {
      "id": 22,
      "imageId": 22,
      "cred": 20,
      "flags": 4,
      "label": "Flying Turtle",
      "description": "Real turtles don't fly",
      "howto": "<String Placeholder>"
    },
    {
      "id": 23,
      "imageId": 23,
      "cred": 20,
      "flags": 4,
      "label": "Spaceship",
      "description": "It's HOPE",
      "howto": "<String Placeholder>"
    },
    {
      "id": 24,
      "imageId": 24,
      "cred": 20,
      "flags": 4,
      "label": "Train",
      "description": "The side-tunnels go on forever",
      "howto": "<String Placeholder>"
    },
    {
      "id": 25,
      "imageId": 25,
      "cred": 20,
      "flags": 4,
      "label": "Got it!",
      "description": "Got a bomb!",
      "howto": "<String Placeholder>"
    },
    {
      "id": 26,
      "imageId": 26,
      "cred": 20,
      "flags": 4,
      "label": "Tank A Master",
      "description": "Vroom vroom rumble rumble",
      "howto": "<String Placeholder>"
    },
    {
      "id": 27,
      "imageId": 27,
      "cred": 20,
      "flags": 4,
      "label": "Tank B Master",
      "description": "A miraculous tank series.",
      "howto": "<String Placeholder>"
    },
    {
      "id": 28,
      "imageId": 28,
      "cred": 20,
      "flags": 4,
      "label": "8bit Master",
      "description": "This is a nice track, isn't it?",
      "howto": "<String Placeholder>"
    },
    {
      "id": 29,
      "imageId": 29,
      "cred": 20,
      "flags": 4,
      "label": "Building Dodge Master",
      "description": "In addition to flying cars, there are birds and balloons that fly, too.",
      "howto": "<String Placeholder>"
    },
    {
      "id": 30,
      "imageId": 30,
      "cred": 20,
      "flags": 4,
      "label": "Ball Dodge Master",
      "description": "Bloop-bloop-bloop balls",
      "howto": "<String Placeholder>"
    },
    {
      "id": 31,
      "imageId": 31,
      "cred": 20,
      "flags": 4,
      "label": "Bullet Bullet Bullet A Master",
      "description": "Bullet hell is nothing",
      "howto": "<String Placeholder>"
    },
    {
      "id": 32,
      "imageId": 32,
      "cred": 20,
      "flags": 4,
      "label": "Bullet Bullet Bullet B Master",
      "description": "Perfect foresight",
      "howto": "<String Placeholder>"
    },
    {
      "id": 33,
      "imageId": 33,
      "cred": 20,
      "flags": 4,
      "label": "Great!",
      "description": "I know your secret. It's that you're great.",
      "howto": "<String Placeholder>"
    },
    {
      "id": 34,
      "imageId": 34,
      "cred": 20,
      "flags": 4,
      "label": "Screw-Up",
      "description": "You really screwed up...",
      "howto": "<String Placeholder>"
    },
    {
      "id": 35,
      "imageId": 35,
      "cred": 20,
      "flags": 4,
      "label": "Don't Let It Get Away!",
      "description": "Break them all, without letting them get away! Reach Level 99! That board is nothing.",
      "howto": "<String Placeholder>"
    },
    {
      "id": 36,
      "imageId": 36,
      "cred": 20,
      "flags": 4,
      "label": "Bomb Disposal Squad",
      "description": "Perfect time-limit bombing",
      "howto": "<String Placeholder>"
    },
    {
      "id": 37,
      "imageId": 37,
      "cred": 20,
      "flags": 4,
      "label": "Saw It Through!",
      "description": "You saw it through!",
      "howto": "<String Placeholder>"
    },
    {
      "id": 38,
      "imageId": 38,
      "cred": 20,
      "flags": 4,
      "label": "Surprisingly Impressive!",
      "description": "That's actually the harder option.",
      "howto": "<String Placeholder>"
    },
    {
      "id": 39,
      "imageId": 39,
      "cred": 20,
      "flags": 4,
      "label": "Rare Game",
      "description": "You got quizzed",
      "howto": "<String Placeholder>"
    },
    {
      "id": 40,
      "imageId": 40,
      "cred": 20,
      "flags": 4,
      "label": "Cheers To Me!",
      "description": "You saved the earth",
      "howto": "<String Placeholder>"
    },
    {
      "id": 41,
      "imageId": 41,
      "cred": 20,
      "flags": 4,
      "label": "Get the Red Master",
      "description": "When you abbreviate Item Master...",
      "howto": "<String Placeholder>"
    },
    {
      "id": 42,
      "imageId": 42,
      "cred": 20,
      "flags": 4,
      "label": "Hold Out! Master",
      "description": "That's what Hold Out is all about",
      "howto": "<String Placeholder>"
    },
    {
      "id": 43,
      "imageId": 43,
      "cred": 20,
      "flags": 4,
      "label": "Nice Bomb!",
      "description": "Nice bombing",
      "howto": "<String Placeholder>"
    },
    {
      "id": 44,
      "imageId": 44,
      "cred": 20,
      "flags": 4,
      "label": "Game Over",
      "description": "These things happen",
      "howto": "<String Placeholder>"
    },
    {
      "id": 45,
      "imageId": 45,
      "cred": 20,
      "flags": 4,
      "label": "You're Young",
      "description": "Thank you very young!",
      "howto": "<String Placeholder>"
    },
    {
      "id": 46,
      "imageId": 46,
      "cred": 20,
      "flags": 4,
      "label": "All Games Unlocked",
      "description": "Now the real game begins!",
      "howto": "<String Placeholder>"
    },
    {
      "id": 47,
      "imageId": 47,
      "cred": 20,
      "flags": 4,
      "label": "Shooting Love.",
      "description": "I haven't given up on love yet!",
      "howto": "<String Placeholder>"
    },
    {
      "id": 48,
      "imageId": 48,
      "cred": 20,
      "flags": 4,
      "label": "Side-Scrolling Love.",
      "description": "Side-scrolling shooters in horizontal mode!",
      "howto": "<String Placeholder>"
    },
    {
      "id": 49,
      "imageId": 49,
      "cred": 20,
      "flags": 4,
      "label": "BGM Love.",
      "description": "Game music is great, isn't it?",
      "howto": "<String Placeholder>"
    },
    {
      "id": 50,
      "imageId": 50,
      "cred": 20,
      "flags": 4,
      "label": "MINUS ZERO Max Level",
      "description": "Reached the maximum level, but that's not the end. Actually, it's just the beginning.",
      "howto": "<String Placeholder>"
    },
    {
      "id": 51,
      "imageId": 51,
      "cred": 20,
      "flags": 4,
      "label": "Long Time No See",
      "description": "You sometimes find new appeal to games. Try playing with a fresh start!",
      "howto": "<String Placeholder>"
    }
  ]
}