{
  "achievementsPossible": 47,
  "credPossible": 1000,
  "achievements": [
    {
      "id": 1,
      "imageId": 3,
      "cred": 10,
      "flags": 4,
      "label": "Grinner",
      "description": "Winners are these!",
      "howto": "Winners are these!"
    },
    {
      "id": 2,
      "imageId": 4,
      "cred": 30,
      "flags": 4,
      "label": "Hard Charger",
      "description": "Start in last position and win an A Feature",
      "howto": "Start in last position and win an A Feature"
    },
    {
      "id": 3,
      "imageId": 5,
      "cred": 20,
      "flags": 4,
      "label": "Trio",
      "description": "Place first in 3 events in a row",
      "howto": "Place first in 3 events in a row"
    },
    {
      "id": 4,
      "imageId": 6,
      "cred": 30,
      "flags": 4,
      "label": "Half-Dozen",
      "description": "Place first in 6 events in a row",
      "howto": "Place first in 6 events in a row"
    },
    {
      "id": 5,
      "imageId": 7,
      "cred": 25,
      "flags": 4,
      "label": "Skin Of Your Teeth",
      "description": "Finish an A Feature with two or more parts of your vehicle severely damaged",
      "howto": "Finish an A Feature with two or more parts of your vehicle severely damaged"
    },
    {
      "id": 6,
      "imageId": 8,
      "cred": 30,
      "flags": 6,
      "label": "Cross Country",
      "description": "Complete a race at each Sprint Car track in single player",
      "howto": "Complete a race at each Sprint Car track in single player"
    },
    {
      "id": 7,
      "imageId": 9,
      "cred": 15,
      "flags": 4,
      "label": "Gonzalez",
      "description": "Set a lap record in single player",
      "howto": "Set a lap record in single player"
    },
    {
      "id": 8,
      "imageId": 10,
      "cred": 15,
      "flags": 4,
      "label": "1.21 Jigawatts?!",
      "description": "Hit a top speed greater than 88MPH in single player",
      "howto": "Hit a top speed greater than 88MPH in single player"
    },
    {
      "id": 9,
      "imageId": 11,
      "cred": 15,
      "flags": 4,
      "label": "Handle With Care",
      "description": "Finish an A-Feature in Arcade raceday with damage turned on",
      "howto": "Finish an A-Feature in Arcade raceday with damage turned on"
    },
    {
      "id": 10,
      "imageId": 12,
      "cred": 20,
      "flags": 4,
      "label": "Running Blind",
      "description": "Finish a race without using a Tear-Off in single player",
      "howto": "Finish a race without using a Tear-Off in single player"
    },
    {
      "id": 11,
      "imageId": 13,
      "cred": 20,
      "flags": 4,
      "label": "20/20 Vision",
      "description": "Use 40 Tear-Offs in single player",
      "howto": "Use 40 Tear-Offs in single player"
    },
    {
      "id": 14,
      "imageId": 16,
      "cred": 10,
      "flags": 6,
      "label": "Baby Steps",
      "description": "Complete Volusia's first event",
      "howto": "Complete Volusia's first event"
    },
    {
      "id": 15,
      "imageId": 17,
      "cred": 15,
      "flags": 4,
      "label": "Cashing In",
      "description": "Get your first payout from a sponsor",
      "howto": "Get your first payout from a sponsor"
    },
    {
      "id": 16,
      "imageId": 18,
      "cred": 30,
      "flags": 6,
      "label": "Local Star",
      "description": "Place first in all Career events on a single track",
      "howto": "Place first in all Career events on a single track"
    },
    {
      "id": 17,
      "imageId": 19,
      "cred": 20,
      "flags": 4,
      "label": "Racer X",
      "description": "Get a Large Trophy in a Speed Challenge event",
      "howto": "Get a Large Trophy in a Speed Challenge event"
    },
    {
      "id": 18,
      "imageId": 20,
      "cred": 20,
      "flags": 4,
      "label": "Dodgem Car",
      "description": "Get a Large Trophy in an Accuracy Challenge event",
      "howto": "Get a Large Trophy in an Accuracy Challenge event"
    },
    {
      "id": 19,
      "imageId": 21,
      "cred": 20,
      "flags": 4,
      "label": "Time Bandit",
      "description": "Get a Large Trophy in a Time Challenge event",
      "howto": "Get a Large Trophy in a Time Challenge event"
    },
    {
      "id": 20,
      "imageId": 22,
      "cred": 30,
      "flags": 6,
      "label": "On Your Way",
      "description": "Earn 2,500 points in Career mode",
      "howto": "Earn 2,500 points in Career mode"
    },
    {
      "id": 21,
      "imageId": 23,
      "cred": 45,
      "flags": 6,
      "label": "Big Earner",
      "description": "Earn 5,000 points in Career mode",
      "howto": "Earn 5,000 points in Career mode"
    },
    {
      "id": 22,
      "imageId": 24,
      "cred": 15,
      "flags": 3,
      "label": "Ka-Ching!",
      "description": "Purchase your first upgrade component",
      "howto": "Purchase your first upgrade component"
    },
    {
      "id": 23,
      "imageId": 25,
      "cred": 35,
      "flags": 3,
      "label": "Fully Tricked",
      "description": "Deck out your car with the best upgrade components",
      "howto": "Deck out your car with the best upgrade components"
    },
    {
      "id": 24,
      "imageId": 41,
      "cred": 15,
      "flags": 6,
      "label": "Volusia Victor",
      "description": "Complete all events at Volusia Speedway Park",
      "howto": "Complete all events at Volusia Speedway Park"
    },
    {
      "id": 25,
      "imageId": 42,
      "cred": 15,
      "flags": 6,
      "label": "I-55 Conqueror",
      "description": "Complete all events at I-55",
      "howto": "Complete all events at I-55"
    },
    {
      "id": 26,
      "imageId": 43,
      "cred": 15,
      "flags": 6,
      "label": "Knoxville Master",
      "description": "Complete all events at Knoxville Raceway",
      "howto": "Complete all events at Knoxville Raceway"
    },
    {
      "id": 27,
      "imageId": 44,
      "cred": 15,
      "flags": 6,
      "label": "Dodge City Slicker",
      "description": "Complete all events at Dodge City Raceway Park",
      "howto": "Complete all events at Dodge City Raceway Park"
    },
    {
      "id": 28,
      "imageId": 45,
      "cred": 15,
      "flags": 6,
      "label": "Cedar Lake Champ",
      "description": "Complete all events at Cedar Lake Speedway",
      "howto": "Complete all events at Cedar Lake Speedway"
    },
    {
      "id": 29,
      "imageId": 46,
      "cred": 20,
      "flags": 6,
      "label": "Huset's Hero",
      "description": "Complete all events at Huset's Speedway",
      "howto": "Complete all events at Huset's Speedway"
    },
    {
      "id": 30,
      "imageId": 47,
      "cred": 20,
      "flags": 6,
      "label": "Eldora Expert",
      "description": "Complete all events at Eldora Speedway",
      "howto": "Complete all events at Eldora Speedway"
    },
    {
      "id": 31,
      "imageId": 48,
      "cred": 20,
      "flags": 6,
      "label": "Lernerville Legend",
      "description": "Complete all events at Lernerville Speedway",
      "howto": "Complete all events at Lernerville Speedway"
    },
    {
      "id": 32,
      "imageId": 49,
      "cred": 20,
      "flags": 6,
      "label": "Williams Winner",
      "description": "Complete all events at Williams Grove",
      "howto": "Complete all events at Williams Grove"
    },
    {
      "id": 33,
      "imageId": 50,
      "cred": 20,
      "flags": 6,
      "label": "Skagit Success",
      "description": "Complete all events at Skagit Speedway",
      "howto": "Complete all events at Skagit Speedway"
    },
    {
      "id": 34,
      "imageId": 51,
      "cred": 30,
      "flags": 6,
      "label": "Silver Dollar Jackpot",
      "description": "Complete all events at Silver Dollar Speedway",
      "howto": "Complete all events at Silver Dollar Speedway"
    },
    {
      "id": 35,
      "imageId": 52,
      "cred": 30,
      "flags": 6,
      "label": "Down and Dirty",
      "description": "Complete all events at The Dirt Track at Charlotte",
      "howto": "Complete all events at The Dirt Track at Charlotte"
    },
    {
      "id": 36,
      "imageId": 26,
      "cred": 90,
      "flags": 1,
      "label": "Veteran",
      "description": "Complete Career Mode",
      "howto": "Complete Career Mode"
    },
    {
      "id": 38,
      "imageId": 28,
      "cred": 5,
      "flags": 4,
      "label": "Come On Down!",
      "description": "Host an Xbox LIVE game",
      "howto": "Host an Xbox LIVE game"
    },
    {
      "id": 39,
      "imageId": 29,
      "cred": 10,
      "flags": 4,
      "label": "Just Visiting",
      "description": "Join someone else's Xbox LIVE multiplayer game",
      "howto": "Join someone else's Xbox LIVE multiplayer game"
    },
    {
      "id": 40,
      "imageId": 30,
      "cred": 15,
      "flags": 4,
      "label": "Red Hot",
      "description": "Be 2 Hot Spots ahead of your opponents in an Xbox LIVE Hot Spot game",
      "howto": "Be 2 Hot Spots ahead of your opponents in an Xbox LIVE Hot Spot game"
    },
    {
      "id": 41,
      "imageId": 31,
      "cred": 20,
      "flags": 4,
      "label": "On Fire!",
      "description": "Deliver 10 Hot Spots in Xbox LIVE Hot Spot Delivery games",
      "howto": "Deliver 10 Hot Spots in Xbox LIVE Hot Spot Delivery games"
    },
    {
      "id": 42,
      "imageId": 32,
      "cred": 20,
      "flags": 4,
      "label": "Tag Sale",
      "description": "Rack up 30 Tags in Xbox LIVE Tag games",
      "howto": "Rack up 30 Tags in Xbox LIVE Tag games"
    },
    {
      "id": 43,
      "imageId": 33,
      "cred": 20,
      "flags": 4,
      "label": "Discombombulated",
      "description": "Win 10 Xbox LIVE Bomb Tag Matches",
      "howto": "Win 10 Xbox LIVE Bomb Tag Matches"
    },
    {
      "id": 44,
      "imageId": 34,
      "cred": 15,
      "flags": 4,
      "label": "Home Run!",
      "description": "Finish a Xbox LIVE Bomb Tag game without getting the bomb",
      "howto": "Finish a Xbox LIVE Bomb Tag game without getting the bomb"
    },
    {
      "id": 45,
      "imageId": 35,
      "cred": 20,
      "flags": 4,
      "label": "The Need For Speed",
      "description": "Hit 5 Hot Spots in a row in a Xbox LIVE Hot Spot game",
      "howto": "Hit 5 Hot Spots in a row in a Xbox LIVE Hot Spot game"
    },
    {
      "id": 46,
      "imageId": 36,
      "cred": 15,
      "flags": 4,
      "label": "Fender Bender",
      "description": "Collide with an opponent in mid-air in an Xbox LIVE game",
      "howto": "Collide with an opponent in mid-air in an Xbox LIVE game"
    },
    {
      "id": 47,
      "imageId": 37,
      "cred": 15,
      "flags": 4,
      "label": "See Ya!",
      "description": "Give the Bomb to an opponent with 2 seconds or less on the clock in an Xbox LIVE Bomb Tag game",
      "howto": "Give the Bomb to an opponent with 2 seconds or less on the clock in an Xbox LIVE Bomb Tag game"
    },
    {
      "id": 48,
      "imageId": 38,
      "cred": 20,
      "flags": 4,
      "label": "Airtime",
      "description": "Fly through the air for 3 seconds in an Xbox LIVE game",
      "howto": "Fly through the air for 3 seconds in an Xbox LIVE game"
    },
    {
      "id": 49,
      "imageId": 39,
      "cred": 10,
      "flags": 5,
      "label": "Mud Runner",
      "description": "Win a Xbox LIVE match",
      "howto": "Win a Xbox LIVE match"
    },
    {
      "id": 50,
      "imageId": 40,
      "cred": 20,
      "flags": 5,
      "label": "Mud Eater",
      "description": "Win 10 Xbox LIVE matches",
      "howto": "Win 10 Xbox LIVE matches"
    }
  ]
}