{
  "achievementsPossible": 43,
  "credPossible": 1000,
  "achievements": [
    {
      "id": 56,
      "imageId": 2,
      "cred": 10,
      "flags": 1,
      "label": "Ride Your Way",
      "description": "Host a multiplayer race.",
      "howto": "Host a multiplayer race."
    },
    {
      "id": 57,
      "imageId": 1,
      "cred": 15,
      "flags": 1,
      "label": "Online Dominator",
      "description": "Win 21 races online.",
      "howto": "Win 21 races online."
    },
    {
      "id": 58,
      "imageId": 3,
      "cred": 15,
      "flags": 1,
      "label": "Hometown Champion",
      "description": "Win on your home circuit in Career Mode. Not unlockable by Co-riders.",
      "howto": "Win on your home circuit in Career Mode. Not unlockable by Co-riders."
    },
    {
      "id": 59,
      "imageId": 4,
      "cred": 15,
      "flags": 1,
      "label": "DIY",
      "description": "Customise every aspect of your bike and rider. Not applicable to Co-riders.",
      "howto": "Customise every aspect of your bike and rider. Not applicable to Co-riders."
    },
    {
      "id": 60,
      "imageId": 5,
      "cred": 15,
      "flags": 1,
      "label": "Dinner with Friends",
      "description": "Win a race against a full grid of human riders.",
      "howto": "Win a race against a full grid of human riders."
    },
    {
      "id": 61,
      "imageId": 6,
      "cred": 15,
      "flags": 1,
      "label": "Collected",
      "description": "Obtain a full complement of sponsors. Not unlockable by Co-riders.",
      "howto": "Obtain a full complement of sponsors. Not unlockable by Co-riders."
    },
    {
      "id": 62,
      "imageId": 7,
      "cred": 15,
      "flags": 1,
      "label": "Running the Economy",
      "description": "Spend a total of 10 minutes slipstreaming in Challenge Mode.",
      "howto": "Spend a total of 10 minutes slipstreaming in Challenge Mode."
    },
    {
      "id": 63,
      "imageId": 8,
      "cred": 15,
      "flags": 1,
      "label": "Spick and Span",
      "description": "Win with no penalties, all clean sections, no crashes, no collisions. Not unlockable by Co-riders.",
      "howto": "Win with no penalties, all clean sections, no crashes, no collisions. Not unlockable by Co-riders."
    },
    {
      "id": 64,
      "imageId": 9,
      "cred": 15,
      "flags": 1,
      "label": "Voltaire",
      "description": "Successfully perform every type of dynamic objective. Not unlockable by Co-riders.",
      "howto": "Successfully perform every type of dynamic objective. Not unlockable by Co-riders."
    },
    {
      "id": 65,
      "imageId": 10,
      "cred": 15,
      "flags": 1,
      "label": "Big Business",
      "description": "Hire a full complement of staff in Career Mode. Not unlockable by Co-riders.",
      "howto": "Hire a full complement of staff in Career Mode. Not unlockable by Co-riders."
    },
    {
      "id": 66,
      "imageId": 11,
      "cred": 15,
      "flags": 1,
      "label": "Methodical",
      "description": "Get every type of time bonus within the same lap on Challenge Mode.",
      "howto": "Get every type of time bonus within the same lap on Challenge Mode."
    },
    {
      "id": 67,
      "imageId": 12,
      "cred": 15,
      "flags": 1,
      "label": "Show Off",
      "description": "Do a wheelie lasting at least 500 feet on a motorbike. Not unlockable by Co-riders.",
      "howto": "Do a wheelie lasting at least 500 feet on a motorbike. Not unlockable by Co-riders."
    },
    {
      "id": 68,
      "imageId": 13,
      "cred": 15,
      "flags": 1,
      "label": "Time Hoarder",
      "description": "Finish a race with more time than you started with without using any continues in Challenge Mode.",
      "howto": "Finish a race with more time than you started with without using any continues in Challenge Mode."
    },
    {
      "id": 69,
      "imageId": 14,
      "cred": 15,
      "flags": 1,
      "label": "Dedicated",
      "description": "Use your own Career Mode motorbike and rider in a multiplayer race.",
      "howto": "Use your own Career Mode motorbike and rider in a multiplayer race."
    },
    {
      "id": 70,
      "imageId": 15,
      "cred": 15,
      "flags": 1,
      "label": "125cc World Champion",
      "description": "Win a 125cc class season. Not unlockable by Co-riders.",
      "howto": "Win a 125cc class season. Not unlockable by Co-riders."
    },
    {
      "id": 71,
      "imageId": 16,
      "cred": 15,
      "flags": 1,
      "label": "A Class",
      "description": "Obtain an 'A' rating in all sessions of a race weekend in Career Mode. Not unlockable by Co-riders.",
      "howto": "Obtain an 'A' rating in all sessions of a race weekend in Career Mode. Not unlockable by Co-riders."
    },
    {
      "id": 72,
      "imageId": 17,
      "cred": 5,
      "flags": 1,
      "label": "Victory",
      "description": "Your first win. Not unlockable by Co-riders.",
      "howto": "Your first win. Not unlockable by Co-riders."
    },
    {
      "id": 73,
      "imageId": 18,
      "cred": 15,
      "flags": 1,
      "label": "DING",
      "description": "Obtain a reputation level of 1 in Career Mode. Not unlockable by Co-riders.",
      "howto": "Obtain a reputation level of 1 in Career Mode. Not unlockable by Co-riders."
    },
    {
      "id": 74,
      "imageId": 19,
      "cred": 15,
      "flags": 1,
      "label": "New Kid on the Block",
      "description": "Obtain a reputation level of 5 in Career Mode. Not unlockable by Co-riders.",
      "howto": "Obtain a reputation level of 5 in Career Mode. Not unlockable by Co-riders."
    },
    {
      "id": 75,
      "imageId": 20,
      "cred": 15,
      "flags": 1,
      "label": "Self Sufficient",
      "description": "Obtain a reputation level of 10 in Career Mode. Not unlockable by Co-riders.",
      "howto": "Obtain a reputation level of 10 in Career Mode. Not unlockable by Co-riders."
    },
    {
      "id": 76,
      "imageId": 21,
      "cred": 15,
      "flags": 1,
      "label": "Admired",
      "description": "Obtain a reputation level of 15 in Career Mode. Not unlockable by Co-riders.",
      "howto": "Obtain a reputation level of 15 in Career Mode. Not unlockable by Co-riders."
    },
    {
      "id": 77,
      "imageId": 22,
      "cred": 15,
      "flags": 1,
      "label": "Professional",
      "description": "Obtain a reputation level of 20 in Career Mode. Not unlockable by Co-riders.",
      "howto": "Obtain a reputation level of 20 in Career Mode. Not unlockable by Co-riders."
    },
    {
      "id": 78,
      "imageId": 23,
      "cred": 30,
      "flags": 1,
      "label": "Star",
      "description": "Obtain a reputation level of 25 in Career Mode. Not unlockable by Co-riders.",
      "howto": "Obtain a reputation level of 25 in Career Mode. Not unlockable by Co-riders."
    },
    {
      "id": 79,
      "imageId": 24,
      "cred": 90,
      "flags": 1,
      "label": "Superstar",
      "description": "Obtain a reputation level of 30 in Career Mode. Not unlockable by Co-riders.",
      "howto": "Obtain a reputation level of 30 in Career Mode. Not unlockable by Co-riders."
    },
    {
      "id": 80,
      "imageId": 25,
      "cred": 15,
      "flags": 1,
      "label": "Consistency",
      "description": "Earn first place 10 times in any mode. Not unlockable in Splitscreen Mode or by Co-riders.",
      "howto": "Earn first place 10 times in any mode. Not unlockable in Splitscreen Mode or by Co-riders."
    },
    {
      "id": 81,
      "imageId": 26,
      "cred": 15,
      "flags": 1,
      "label": "Addicted",
      "description": "Earn first place 20 times in any mode. Not unlockable in Splitscreen Mode or by Co-riders.",
      "howto": "Earn first place 20 times in any mode. Not unlockable in Splitscreen Mode or by Co-riders."
    },
    {
      "id": 82,
      "imageId": 27,
      "cred": 30,
      "flags": 1,
      "label": "Untouchable",
      "description": "Earn first place 30 times in any mode. Not unlockable in Splitscreen Mode or by Co-riders.",
      "howto": "Earn first place 30 times in any mode. Not unlockable in Splitscreen Mode or by Co-riders."
    },
    {
      "id": 83,
      "imageId": 28,
      "cred": 15,
      "flags": 1,
      "label": "Stabilisers Are Off",
      "description": "Ride over 100 miles. Not unlockable by Co-riders.",
      "howto": "Ride over 100 miles. Not unlockable by Co-riders."
    },
    {
      "id": 84,
      "imageId": 43,
      "cred": 15,
      "flags": 1,
      "label": "Oil Change",
      "description": "Ride over 200 miles. Not unlockable by Co-riders.",
      "howto": "Ride over 200 miles. Not unlockable by Co-riders."
    },
    {
      "id": 85,
      "imageId": 29,
      "cred": 15,
      "flags": 1,
      "label": "Bedded In",
      "description": "Ride over 400 miles. Not unlockable by Co-riders.",
      "howto": "Ride over 400 miles. Not unlockable by Co-riders."
    },
    {
      "id": 86,
      "imageId": 30,
      "cred": 30,
      "flags": 1,
      "label": "1st Service",
      "description": "Ride over 1000 miles. Not unlockable by Co-riders.",
      "howto": "Ride over 1000 miles. Not unlockable by Co-riders."
    },
    {
      "id": 87,
      "imageId": 31,
      "cred": 90,
      "flags": 1,
      "label": "Hardcore",
      "description": "Complete a full Challenge Mode season without using a continue.",
      "howto": "Complete a full Challenge Mode season without using a continue."
    },
    {
      "id": 88,
      "imageId": 32,
      "cred": 90,
      "flags": 1,
      "label": "World Champion",
      "description": "Win a MotoGP class season. Not unlockable by Co-riders.",
      "howto": "Win a MotoGP class season. Not unlockable by Co-riders."
    },
    {
      "id": 89,
      "imageId": 33,
      "cred": 30,
      "flags": 1,
      "label": "125cc Elite",
      "description": "Win a 125cc class season on Insane difficulty. Not unlockable by Co-riders.",
      "howto": "Win a 125cc class season on Insane difficulty. Not unlockable by Co-riders."
    },
    {
      "id": 90,
      "imageId": 34,
      "cred": 30,
      "flags": 1,
      "label": "Moto2 Elite",
      "description": "Win a Moto2 class season on Insane difficulty. Not unlockable by Co-riders.",
      "howto": "Win a Moto2 class season on Insane difficulty. Not unlockable by Co-riders."
    },
    {
      "id": 91,
      "imageId": 35,
      "cred": 30,
      "flags": 1,
      "label": "The G.O.A.T.",
      "description": "Win a MotoGP class season on Insane difficulty. Not unlockable by Co-riders.",
      "howto": "Win a MotoGP class season on Insane difficulty. Not unlockable by Co-riders."
    },
    {
      "id": 92,
      "imageId": 36,
      "cred": 30,
      "flags": 1,
      "label": "Been Practicing",
      "description": "Win any race on Insane difficulty. Not unlockable in Splitscreen Mode or by Co-riders.",
      "howto": "Win any race on Insane difficulty. Not unlockable in Splitscreen Mode or by Co-riders."
    },
    {
      "id": 93,
      "imageId": 37,
      "cred": 15,
      "flags": 1,
      "label": "Piggy Bank Full",
      "description": "Amount 50,000 in savings in Career Mode. Not unlockable by Co-riders.",
      "howto": "Amount 50,000 in savings in Career Mode. Not unlockable by Co-riders."
    },
    {
      "id": 94,
      "imageId": 38,
      "cred": 30,
      "flags": 1,
      "label": "Hoarder",
      "description": "Amount 100,000 in savings in Career Mode. Not unlockable by Co-riders.",
      "howto": "Amount 100,000 in savings in Career Mode. Not unlockable by Co-riders."
    },
    {
      "id": 95,
      "imageId": 39,
      "cred": 15,
      "flags": 1,
      "label": "Fixed Overheads",
      "description": "Spend over 100,000 on staff wages in one pay day. Not unlockable by Co-riders.",
      "howto": "Spend over 100,000 on staff wages in one pay day. Not unlockable by Co-riders."
    },
    {
      "id": 96,
      "imageId": 40,
      "cred": 30,
      "flags": 1,
      "label": "Staff Liability",
      "description": "Spend over 200,000 on staff wages in one pay day. Not unlockable by Co-riders.",
      "howto": "Spend over 200,000 on staff wages in one pay day. Not unlockable by Co-riders."
    },
    {
      "id": 97,
      "imageId": 41,
      "cred": 25,
      "flags": 1,
      "label": "Savvy",
      "description": "Spend over 100,000 on upgrades. Not unlockable by Co-riders.",
      "howto": "Spend over 100,000 on upgrades. Not unlockable by Co-riders."
    },
    {
      "id": 98,
      "imageId": 42,
      "cred": 15,
      "flags": 1,
      "label": "Leader of the Pack",
      "description": "Qualify for pole position. Not unlockable by Co-riders.",
      "howto": "Qualify for pole position. Not unlockable by Co-riders."
    }
  ]
}