{
  "achievementsPossible": 12,
  "credPossible": 200,
  "achievements": [
    {
      "id": 13,
      "imageId": 34,
      "cred": 50,
      "flags": 1,
      "label": "Obsessed",
      "description": "Complete 100% of the Game",
      "howto": "Complete 100% of the Game"
    },
    {
      "id": 14,
      "imageId": 35,
      "cred": 30,
      "flags": 6,
      "label": "Big Brother",
      "description": "Story Mode Completed",
      "howto": "Story Mode Completed"
    },
    {
      "id": 15,
      "imageId": 26,
      "cred": 10,
      "flags": 6,
      "label": "Fancy Fanboy",
      "description": "Complete world 1 and 2",
      "howto": "Complete world 1 and 2"
    },
    {
      "id": 16,
      "imageId": 28,
      "cred": 15,
      "flags": 4,
      "label": "Squiggle Hunter",
      "description": "10,000 Squiggles collected",
      "howto": "10,000 Squiggles collected"
    },
    {
      "id": 17,
      "imageId": 36,
      "cred": 5,
      "flags": 4,
      "label": "The Juggler",
      "description": "Juggle a shell 10 times before it touches the ground",
      "howto": "Juggle a shell 10 times before it touches the ground"
    },
    {
      "id": 18,
      "imageId": 24,
      "cred": 10,
      "flags": 5,
      "label": "The Champion",
      "description": "Win a tournament on your home arcade machine",
      "howto": "Win a tournament on your home arcade machine"
    },
    {
      "id": 19,
      "imageId": 25,
      "cred": 20,
      "flags": 4,
      "label": "Better than the developers",
      "description": "Get a gold medal in all the Challenges",
      "howto": "Get a gold medal in all the Challenges"
    },
    {
      "id": 20,
      "imageId": 32,
      "cred": 10,
      "flags": 4,
      "label": "Paparazzi",
      "description": "Collect all 60 stars",
      "howto": "Collect all 60 stars"
    },
    {
      "id": 21,
      "imageId": 20,
      "cred": 10,
      "flags": 6,
      "label": "The Newbie",
      "description": "Get 100% in one Level",
      "howto": "Get 100% in one Level"
    },
    {
      "id": 22,
      "imageId": 33,
      "cred": 10,
      "flags": 4,
      "label": "Storyteller",
      "description": "Collect all 9 Message Bottles",
      "howto": "Collect all 9 Message Bottles"
    },
    {
      "id": 23,
      "imageId": 27,
      "cred": 20,
      "flags": 4,
      "label": "Fancy Fashion",
      "description": "Collect all the customizable items",
      "howto": "Collect all the customizable items"
    },
    {
      "id": 24,
      "imageId": 31,
      "cred": 10,
      "flags": 4,
      "label": "The Olympian",
      "description": "Get one gold medal",
      "howto": "Get one gold medal"
    }
  ]
}