{
  "achievementsPossible": 20,
  "credPossible": 1000,
  "achievements": [
    {
      "id": 10,
      "imageId": 8,
      "cred": 15,
      "flags": 3,
      "label": "Crab Boat Captain",
      "description": "Unlocked Season Mode",
      "howto": "Unlock Season Mode"
    },
    {
      "id": 11,
      "imageId": 4,
      "cred": 15,
      "flags": 6,
      "label": "Bering Sea Veteran",
      "description": "Completed  One King Season",
      "howto": "Complete a King Season"
    },
    {
      "id": 12,
      "imageId": 5,
      "cred": 45,
      "flags": 6,
      "label": "Experienced Crabber",
      "description": "Completed 3 King Seasons in a single career",
      "howto": "Complete 3 King Seasons in a single career"
    },
    {
      "id": 13,
      "imageId": 6,
      "cred": 75,
      "flags": 6,
      "label": "Man of the Sea",
      "description": "Completed 5 King Seasons in a single career",
      "howto": "Complete 5 King Seasons in a single career"
    },
    {
      "id": 14,
      "imageId": 1,
      "cred": 15,
      "flags": 4,
      "label": "Strung Along",
      "description": "Dropped 50 pots in a Season",
      "howto": "Drop 50 pots in a Season"
    },
    {
      "id": 15,
      "imageId": 2,
      "cred": 15,
      "flags": 4,
      "label": "Money in a Cage",
      "description": "Brought up a full pot of Crab",
      "howto": "Bring up a full pot of Crab"
    },
    {
      "id": 16,
      "imageId": 11,
      "cred": 75,
      "flags": 4,
      "label": "Big Money",
      "description": "Sold a Total of $1,000,000 in Crab",
      "howto": "Sell a Total of $1,000,000 in Crab"
    },
    {
      "id": 17,
      "imageId": 12,
      "cred": 75,
      "flags": 2,
      "label": "All Decked Out",
      "description": "Fully Upgraded a Boat",
      "howto": "Fully Upgrade a Boat"
    },
    {
      "id": 18,
      "imageId": 9,
      "cred": 75,
      "flags": 4,
      "label": "Mr. Popular",
      "description": "Has used each Fisherman",
      "howto": "Earned by using each Fisherman"
    },
    {
      "id": 19,
      "imageId": 13,
      "cred": 45,
      "flags": 4,
      "label": "Victor Delta",
      "description": "Completed a Season with all Crew Members having very High Morale",
      "howto": "Complete a Season with all Crew members having very High Morale"
    },
    {
      "id": 20,
      "imageId": 7,
      "cred": 75,
      "flags": 4,
      "label": "Harsh Reminder",
      "description": "Spotted the Shipwreck",
      "howto": "Spot a Shipwreck"
    },
    {
      "id": 21,
      "imageId": 3,
      "cred": 15,
      "flags": 4,
      "label": "Cetacean Location",
      "description": "Spotted a Whale",
      "howto": "Spot a Whale"
    },
    {
      "id": 22,
      "imageId": 14,
      "cred": 75,
      "flags": 4,
      "label": "Piece of the Pie",
      "description": "Completed a Multiplayer Game with the Maximum number of Boats",
      "howto": "Complete a Multiplayer Game with the Maximum Number of Boats"
    },
    {
      "id": 23,
      "imageId": 15,
      "cred": 55,
      "flags": 4,
      "label": "Speed Junkie",
      "description": "Won a Gold Medal in all Harbor Dash Missions",
      "howto": "Win a Gold Medal in all Harbor Dash Missions"
    },
    {
      "id": 24,
      "imageId": 16,
      "cred": 75,
      "flags": 4,
      "label": "Two if by Sea",
      "description": "Beat the High Seas Rush Mission in under 2 Minutes",
      "howto": "Beat the High Seas Rush Mission in under 2 Minutes"
    },
    {
      "id": 25,
      "imageId": 10,
      "cred": 45,
      "flags": 4,
      "label": "Helping Hand",
      "description": "Rescued another Ship at Sea",
      "howto": "Rescue another Ship at Sea"
    },
    {
      "id": 26,
      "imageId": 17,
      "cred": 75,
      "flags": 4,
      "label": "Perfect Positioning",
      "description": "Finished a Crowded Harbor Mission without any Collisions",
      "howto": "Finish a Crowded Harbor Mission without any Collisions"
    },
    {
      "id": 27,
      "imageId": 18,
      "cred": 45,
      "flags": 4,
      "label": "Semper Paratus",
      "description": "Beat all Coast Guard Missions",
      "howto": "Beat all Coast Guard Missions"
    },
    {
      "id": 28,
      "imageId": 20,
      "cred": 75,
      "flags": 1,
      "label": "Jack of all Trades",
      "description": "Beat all Missions",
      "howto": "Beat all Missions"
    },
    {
      "id": 29,
      "imageId": 19,
      "cred": 15,
      "flags": 4,
      "label": "Northwestern Scholar",
      "description": "Viewed all Videos in the Virtual Tour",
      "howto": "View all Videos in the Virtual Tour"
    }
  ]
}