{
  "achievementsPossible": 28,
  "credPossible": 1000,
  "achievements": [
    {
      "id": 16,
      "imageId": 2,
      "cred": 20,
      "flags": 1,
      "label": "Campaign 01",
      "description": "Completed Campaign Mission 01",
      "howto": "Complete Campaign Mission 01"
    },
    {
      "id": 17,
      "imageId": 3,
      "cred": 20,
      "flags": 1,
      "label": "Campaign 02-04",
      "description": "Completed Campaign Missions 02-04",
      "howto": "Complete Campaign Missions 02-04"
    },
    {
      "id": 18,
      "imageId": 4,
      "cred": 20,
      "flags": 1,
      "label": "Campaign 05-07",
      "description": "Completed Campaign Missions 05-07",
      "howto": "Complete Campaign Missions 05-07"
    },
    {
      "id": 19,
      "imageId": 5,
      "cred": 20,
      "flags": 1,
      "label": "Campaign 08-10",
      "description": "Completed Campaign Missions 08-10",
      "howto": "Complete Campaign Missions 08-10"
    },
    {
      "id": 20,
      "imageId": 6,
      "cred": 20,
      "flags": 1,
      "label": "Campaign 11-13",
      "description": "Completed Campaign Missions 11-13",
      "howto": "Complete Campaign Missions 11-13"
    },
    {
      "id": 21,
      "imageId": 9,
      "cred": 20,
      "flags": 1,
      "label": "Campaign 14-16",
      "description": "Completed Campaign Missions 14-16",
      "howto": "Complete Campaign Missions 14-16"
    },
    {
      "id": 22,
      "imageId": 10,
      "cred": 20,
      "flags": 1,
      "label": "Campaign 17-19",
      "description": "Completed Campaign Missions 17-19",
      "howto": "Complete Campaign Missions 17-19"
    },
    {
      "id": 23,
      "imageId": 11,
      "cred": 20,
      "flags": 1,
      "label": "Campaign 20-22",
      "description": "Completed Campaign Missions 20-22",
      "howto": "Complete Campaign Missions 20-22"
    },
    {
      "id": 24,
      "imageId": 12,
      "cred": 20,
      "flags": 1,
      "label": "Campaign 23-25",
      "description": "Completed Campaign Missions 23-25",
      "howto": "Complete Campaign Missions 23-25"
    },
    {
      "id": 25,
      "imageId": 7,
      "cred": 20,
      "flags": 1,
      "label": "Campaign 26-27",
      "description": "Completed Campaign Missions 26-27",
      "howto": "Complete Campaign Missions 26-27"
    },
    {
      "id": 26,
      "imageId": 8,
      "cred": 20,
      "flags": 1,
      "label": "Armed Recon 01-03",
      "description": "Completed Armed Recon Missions 01-03",
      "howto": "Complete Armed Recon Missions 01-03"
    },
    {
      "id": 27,
      "imageId": 13,
      "cred": 20,
      "flags": 1,
      "label": "Armed Recon 04-06",
      "description": "Completed Armed Recon Missions 04-06",
      "howto": "Complete Armed Recon Missions 04-06"
    },
    {
      "id": 28,
      "imageId": 14,
      "cred": 20,
      "flags": 1,
      "label": "Armed Recon 07-09",
      "description": "Completed Armed Recon Missions 07-09",
      "howto": "Complete Armed Recon Missions 07-09"
    },
    {
      "id": 29,
      "imageId": 15,
      "cred": 20,
      "flags": 1,
      "label": "Armed Recon 10-12",
      "description": "Completed Armed Recon Missions 10-12",
      "howto": "Complete Armed Recon Missions 10-12"
    },
    {
      "id": 30,
      "imageId": 16,
      "cred": 20,
      "flags": 1,
      "label": "Armed Recon 13-15",
      "description": "Completed Armed Recon Missions 13-15",
      "howto": "Complete Armed Recon Missions 13-15"
    },
    {
      "id": 31,
      "imageId": 17,
      "cred": 25,
      "flags": 1,
      "label": "Eagle's Nest 01-05",
      "description": "Completed Eagle's Nest Missions 01-05",
      "howto": "Complete Eagle's Nest Missions 01-05"
    },
    {
      "id": 32,
      "imageId": 18,
      "cred": 25,
      "flags": 1,
      "label": "Eagle's Nest 06-10",
      "description": "Completed Eagle's Nest Missions 06-10",
      "howto": "Complete Eagle's Nest Missions 06-10"
    },
    {
      "id": 33,
      "imageId": 19,
      "cred": 25,
      "flags": 1,
      "label": "Eagle's Nest 11-15",
      "description": "Completed Eagle's Nest Missions 11-15",
      "howto": "Complete Eagle's Nest Missions 11-15"
    },
    {
      "id": 34,
      "imageId": 20,
      "cred": 25,
      "flags": 1,
      "label": "Eagle's Nest 16-20",
      "description": "Completed Eagle's Nest Missions 16-20",
      "howto": "Complete Eagle's Nest Missions 16-20"
    },
    {
      "id": 35,
      "imageId": 21,
      "cred": 35,
      "flags": 1,
      "label": "Purple Heart",
      "description": "Completed Campaign Mission 01 within 14 minutes",
      "howto": "The conditions for obtaining this achievement are unknown"
    },
    {
      "id": 36,
      "imageId": 22,
      "cred": 20,
      "flags": 1,
      "label": "War Medal",
      "description": "Played on Xbox LIVE",
      "howto": "The conditions for obtaining this achievement are unknown"
    },
    {
      "id": 37,
      "imageId": 23,
      "cred": 45,
      "flags": 1,
      "label": "Africa Star",
      "description": "Completed a mission after obtaining the Muramasa Blade, Dragon Slayer, and Excalibur",
      "howto": "The conditions for obtaining this achievement are unknown"
    },
    {
      "id": 38,
      "imageId": 24,
      "cred": 65,
      "flags": 1,
      "label": "Soldier's Medal",
      "description": "Gathered all 12 pages of the Valhalla Report",
      "howto": "The conditions for obtaining this achievement are unknown"
    },
    {
      "id": 39,
      "imageId": 25,
      "cred": 70,
      "flags": 1,
      "label": "Silver Star",
      "description": "Completed all 27 Campaign Missions",
      "howto": "The conditions for obtaining this achievement are unknown"
    },
    {
      "id": 40,
      "imageId": 26,
      "cred": 80,
      "flags": 1,
      "label": "Distinguished Service Cross",
      "description": "Completed all 15 Armed Recon Missions",
      "howto": "The conditions for obtaining this achievement are unknown"
    },
    {
      "id": 41,
      "imageId": 27,
      "cred": 90,
      "flags": 1,
      "label": "Military Cross",
      "description": "Completed all 20 Eagle's Nest Missions",
      "howto": "The conditions for obtaining this achievement are unknown"
    },
    {
      "id": 42,
      "imageId": 28,
      "cred": 95,
      "flags": 1,
      "label": "Medal of Honor",
      "description": "Completed Campaign Mission 27 after completing all of the Armed Recon and Eagle's Nest Missions",
      "howto": "The conditions for obtaining this achievement are unknown"
    },
    {
      "id": 43,
      "imageId": 29,
      "cred": 100,
      "flags": 1,
      "label": "Victoria Cross ",
      "description": "Completed Campaign Missions 01-27 within 35 hours",
      "howto": "The conditions for obtaining this achievement are unknown"
    }
  ]
}