{
  "achievementsPossible": 55,
  "credPossible": 1150,
  "achievements": [
    {
      "id": 1,
      "imageId": 5101,
      "cred": 15,
      "flags": 4,
      "label": "Dawn of an Era",
      "description": "Get drafted as a lottery pick in the NBA draft in MyCAREER mode.",
      "howto": "Get drafted as a lottery pick in the NBA draft in MyCAREER mode."
    },
    {
      "id": 2,
      "imageId": 5102,
      "cred": 15,
      "flags": 4,
      "label": "Serving Notice",
      "description": "Get 250,000 fans in MyCAREER mode.",
      "howto": "Get 250,000 fans in MyCAREER mode."
    },
    {
      "id": 3,
      "imageId": 5103,
      "cred": 25,
      "flags": 4,
      "label": "I'm Here to Stay",
      "description": "Get 1,000,000 fans in MyCAREER mode.",
      "howto": "Get 1,000,000 fans in MyCAREER mode."
    },
    {
      "id": 4,
      "imageId": 5104,
      "cred": 40,
      "flags": 4,
      "label": "Man of the People",
      "description": "Get 2,000,000 fans in MyCAREER mode.",
      "howto": "Get 2,000,000 fans in MyCAREER mode."
    },
    {
      "id": 5,
      "imageId": 5105,
      "cred": 15,
      "flags": 4,
      "label": "Everyone is Special",
      "description": "Purchase and equip 1 Special Ability in MyCAREER mode.",
      "howto": "Purchase and equip 1 Special Ability in MyCAREER mode."
    },
    {
      "id": 6,
      "imageId": 5106,
      "cred": 30,
      "flags": 4,
      "label": "Some more Special than Others",
      "description": "Purchase and equip 5 Special Abilities simultaneously in MyCAREER mode.",
      "howto": "Purchase and equip 5 Special Abilities simultaneously in MyCAREER mode."
    },
    {
      "id": 7,
      "imageId": 5107,
      "cred": 15,
      "flags": 4,
      "label": "Now Playing",
      "description": "Purchase a pre-game ritual in MyCAREER mode.",
      "howto": "Purchase a pre-game ritual in MyCAREER mode."
    },
    {
      "id": 8,
      "imageId": 5108,
      "cred": 30,
      "flags": 4,
      "label": "Both Feet on the Ground",
      "description": "Sign an endorsement contract with either Nike® or Jordan in MyCAREER mode.",
      "howto": "Sign an endorsement contract with either Nike® or Jordan in MyCAREER mode."
    },
    {
      "id": 9,
      "imageId": 5109,
      "cred": 15,
      "flags": 4,
      "label": "Come Fly with Me",
      "description": "Purchase Michael Jordan's dunk package (Historic Jordan) in MyCAREER mode.",
      "howto": "Purchase Michael Jordan's dunk package (Historic Jordan) in MyCAREER mode."
    },
    {
      "id": 10,
      "imageId": 5110,
      "cred": 15,
      "flags": 4,
      "label": "NBA Cares",
      "description": "Make a donation to the NBA Cares global community outreach initiative in MyCAREER mode.",
      "howto": "Make a donation to the NBA Cares global community outreach initiative in MyCAREER mode."
    },
    {
      "id": 11,
      "imageId": 5111,
      "cred": 20,
      "flags": 4,
      "label": "MyPLAYER of the Game",
      "description": "Be named Player of the Game (in an NBA game) in MyCAREER mode.",
      "howto": "Be named Player of the Game (in an NBA game) in MyCAREER mode."
    },
    {
      "id": 12,
      "imageId": 5112,
      "cred": 20,
      "flags": 4,
      "label": "My Every Day Player",
      "description": "Become a starter in the NBA in MyCAREER Mode.",
      "howto": "Become a starter in the NBA in MyCAREER Mode."
    },
    {
      "id": 13,
      "imageId": 5113,
      "cred": 25,
      "flags": 4,
      "label": "My All-Star",
      "description": "Be named an NBA All-Star in MyCAREER mode.",
      "howto": "Be named an NBA All-Star in MyCAREER mode."
    },
    {
      "id": 14,
      "imageId": 5114,
      "cred": 30,
      "flags": 4,
      "label": "Immortality",
      "description": "Make the Hall of Fame in MyCAREER mode.",
      "howto": "Make the Hall of Fame in MyCAREER mode."
    },
    {
      "id": 15,
      "imageId": 5115,
      "cred": 30,
      "flags": 4,
      "label": "Runneth Over",
      "description": "Obtain a balance of 20,000 VC.",
      "howto": "Obtain a balance of 20,000 VC."
    },
    {
      "id": 16,
      "imageId": 5116,
      "cred": 20,
      "flags": 4,
      "label": "Buzzer Beater",
      "description": "Make a game winning shot with no time left on the clock in a non-simulated game.",
      "howto": "Make a game winning shot with no time left on the clock in a non-simulated game."
    },
    {
      "id": 17,
      "imageId": 5117,
      "cred": 20,
      "flags": 4,
      "label": "Trip-Dub",
      "description": "Record a triple double with any player in a non-simulated game.",
      "howto": "Record a triple double with any player in a non-simulated game."
    },
    {
      "id": 18,
      "imageId": 5118,
      "cred": 20,
      "flags": 4,
      "label": "Dub-Dub",
      "description": "Record two double doubles with any teammates in the same non-simulated game.",
      "howto": "Record two double doubles with any teammates in the same non-simulated game."
    },
    {
      "id": 19,
      "imageId": 5119,
      "cred": 20,
      "flags": 4,
      "label": "Five by Five",
      "description": "Record 5 or more in 5 different stats with any player in a non-simulated game.",
      "howto": "Record 5 or more in 5 different stats with any player in a non-simulated game."
    },
    {
      "id": 20,
      "imageId": 5120,
      "cred": 20,
      "flags": 4,
      "label": "It's Raining",
      "description": "Make 15 or more 3-pointers with any team in a non-simulated game.",
      "howto": "Make 15 or more 3-pointers with any team in a non-simulated game."
    },
    {
      "id": 21,
      "imageId": 5121,
      "cred": 20,
      "flags": 4,
      "label": "Block Party",
      "description": "Record 10 or more blocks with any team in a non-simulated game.",
      "howto": "Record 10 or more blocks with any team in a non-simulated game."
    },
    {
      "id": 22,
      "imageId": 5122,
      "cred": 20,
      "flags": 4,
      "label": "Men of Steal",
      "description": "Record 10 or more steals with any team in a non-simulated game.",
      "howto": "Record 10 or more steals with any team in a non-simulated game."
    },
    {
      "id": 23,
      "imageId": 5123,
      "cred": 20,
      "flags": 4,
      "label": "Swat and Swipe",
      "description": "Record at least 5 blocks and 5 steals with any team in a non-simulated game.",
      "howto": "Record at least 5 blocks and 5 steals with any team in a non-simulated game."
    },
    {
      "id": 24,
      "imageId": 5124,
      "cred": 20,
      "flags": 4,
      "label": "Smothering",
      "description": "Hold the opposing team's FG% below 40% with any team in a non-simulated game.",
      "howto": "Hold the opposing team's FG% below 40% with any team in a non-simulated game."
    },
    {
      "id": 25,
      "imageId": 5125,
      "cred": 20,
      "flags": 4,
      "label": "Giveth and Taketh Away",
      "description": "Record 10 or more rebounds and assists with any player in a non-simulated game.",
      "howto": "Record 10 or more rebounds and assists with any player in a non-simulated game."
    },
    {
      "id": 26,
      "imageId": 5126,
      "cred": 20,
      "flags": 4,
      "label": "Hold the Fat Lady",
      "description": "Start the 4th period losing by 10 or more points and win with any team in a non-simulated game.",
      "howto": "Start the 4th period losing by 10 or more points and win with any team in a non-simulated game."
    },
    {
      "id": 27,
      "imageId": 5127,
      "cred": 20,
      "flags": 4,
      "label": "Wire to Wire",
      "description": "Do not allow your opponent to lead the game at any point with any team in a non-simulated game.",
      "howto": "Do not allow your opponent to lead the game at any point with any team in a non-simulated game."
    },
    {
      "id": 28,
      "imageId": 5128,
      "cred": 20,
      "flags": 4,
      "label": "The Closer",
      "description": "Hold the opposing team to zero points in the final two minutes of a non-simulated game.",
      "howto": "Hold the opposing team to zero points in the final two minutes of a non-simulated game."
    },
    {
      "id": 29,
      "imageId": 5129,
      "cred": 15,
      "flags": 4,
      "label": "The Here and Now",
      "description": "Begin a \"Today\" Association.",
      "howto": "Begin a \"Today\" Association."
    },
    {
      "id": 30,
      "imageId": 5130,
      "cred": 10,
      "flags": 4,
      "label": "Puppet Master",
      "description": "Adjust your \"Total Sim Control\" strategy in The Association or Season mode.",
      "howto": "Adjust your \"Total Sim Control\" strategy in The Association or Season mode."
    },
    {
      "id": 31,
      "imageId": 5131,
      "cred": 10,
      "flags": 4,
      "label": "Not Your Father's Association",
      "description": "Join an Online Association.",
      "howto": "Join an Online Association."
    },
    {
      "id": 32,
      "imageId": 5132,
      "cred": 20,
      "flags": 4,
      "label": "Another Day, Another Win",
      "description": "Win 5 NBA Today matchups.",
      "howto": "Win 5 NBA Today matchups."
    },
    {
      "id": 33,
      "imageId": 5133,
      "cred": 30,
      "flags": 4,
      "label": "Don't Hate the Player",
      "description": "Win the championship in an Online Association.",
      "howto": "Win the championship in an Online Association."
    },
    {
      "id": 34,
      "imageId": 5134,
      "cred": 25,
      "flags": 4,
      "label": "Streaking",
      "description": "Win 5 non-simulated games in a row in The Association mode.",
      "howto": "Win 5 non-simulated games in a row in The Association mode."
    },
    {
      "id": 35,
      "imageId": 5135,
      "cred": 30,
      "flags": 4,
      "label": "Ticker Tape",
      "description": "Win an NBA Championship in The Association mode (playing every playoff game).",
      "howto": "Win an NBA Championship in The Association mode (playing every playoff game)."
    },
    {
      "id": 36,
      "imageId": 5136,
      "cred": 30,
      "flags": 4,
      "label": "Shooting Star",
      "description": "Win the MVP award in NBA: Creating a Legend mode.",
      "howto": "Win the MVP award in NBA: Creating a Legend mode."
    },
    {
      "id": 37,
      "imageId": 5137,
      "cred": 10,
      "flags": 4,
      "label": "Hey Mr. DJ",
      "description": "Create a 2K Beats Playlist.",
      "howto": "Create a 2K Beats Playlist."
    },
    {
      "id": 38,
      "imageId": 5138,
      "cred": 15,
      "flags": 4,
      "label": "Maestro",
      "description": "Create a shoe in the 2K Shoe Creator.",
      "howto": "Create a shoe in the 2K Shoe Creator."
    },
    {
      "id": 39,
      "imageId": 5139,
      "cred": 20,
      "flags": 4,
      "label": "Raining 3's",
      "description": "Make at least 9 three-pointers in one game with Brandon Jennings to set a new career-high.",
      "howto": "Make at least 9 three-pointers in one game with Brandon Jennings to set a new career-high."
    },
    {
      "id": 40,
      "imageId": 5140,
      "cred": 20,
      "flags": 4,
      "label": "KD Unlimited",
      "description": "Score at least 52 points in one game with Kevin Durant to set a new career-high.",
      "howto": "Score at least 52 points in one game with Kevin Durant to set a new career-high."
    },
    {
      "id": 41,
      "imageId": 5141,
      "cred": 20,
      "flags": 4,
      "label": "From the Ground Up",
      "description": "Purchase 15 Boosters in MyTEAM mode.",
      "howto": "Purchase 15 Boosters in MyTEAM mode."
    },
    {
      "id": 42,
      "imageId": 5142,
      "cred": 15,
      "flags": 4,
      "label": "To Good Use",
      "description": "Play a MyTEAM game online.",
      "howto": "Play a MyTEAM game online."
    },
    {
      "id": 43,
      "imageId": 5143,
      "cred": 15,
      "flags": 4,
      "label": "On the Road Again",
      "description": "Play a MyPLAYER Blacktop game online.",
      "howto": "Play a MyPLAYER Blacktop game online."
    },
    {
      "id": 44,
      "imageId": 5144,
      "cred": 15,
      "flags": 4,
      "label": "Remaking History",
      "description": "Play with an historic team online.",
      "howto": "Play with an historic team online."
    },
    {
      "id": 45,
      "imageId": 5145,
      "cred": 15,
      "flags": 4,
      "label": "This One Counts",
      "description": "Win one online Versus match.",
      "howto": "Win one online Versus match."
    },
    {
      "id": 46,
      "imageId": 5146,
      "cred": 15,
      "flags": 4,
      "label": "Back to Back to Back",
      "description": "Win 3 Versus matches in a row.",
      "howto": "Win 3 Versus matches in a row."
    },
    {
      "id": 47,
      "imageId": 5147,
      "cred": 20,
      "flags": 4,
      "label": "You're Officially Hot",
      "description": "Win 5 Versus matches in a row.",
      "howto": "Win 5 Versus matches in a row."
    },
    {
      "id": 48,
      "imageId": 5148,
      "cred": 15,
      "flags": 4,
      "label": "Lincoln",
      "description": "Win 5 Versus matches total.",
      "howto": "Win 5 Versus matches total."
    },
    {
      "id": 49,
      "imageId": 5149,
      "cred": 20,
      "flags": 4,
      "label": "Hamilton",
      "description": "Win 10 Versus matches total.",
      "howto": "Win 10 Versus matches total."
    },
    {
      "id": 50,
      "imageId": 5150,
      "cred": 15,
      "flags": 4,
      "label": "The Sum of Its Parts",
      "description": "Play a Team-Up Game.",
      "howto": "Play a Team-Up Game."
    },
    {
      "id": 51,
      "imageId": 5151,
      "cred": 20,
      "flags": 4,
      "label": "The Future is Now",
      "description": "Win the Rising Stars Challenge.",
      "howto": "Win the Rising Stars Challenge."
    },
    {
      "id": 52,
      "imageId": 5152,
      "cred": 20,
      "flags": 4,
      "label": "All The Sprite® Moves",
      "description": "Win the Sprite® Slam Dunk Contest with at least one AI opponent.",
      "howto": "Win the Sprite® Slam Dunk Contest with at least one AI opponent."
    },
    {
      "id": 53,
      "imageId": 5153,
      "cred": 20,
      "flags": 4,
      "label": "Home, Home on Long Range",
      "description": "Win the Three-Point Contest with at least one AI opponent.",
      "howto": "Win the Three-Point Contest with at least one AI opponent."
    },
    {
      "id": 54,
      "imageId": 5154,
      "cred": 30,
      "flags": 4,
      "label": "Starry, Starry Night",
      "description": "Win the All-Star Game.",
      "howto": "Win the All-Star Game."
    },
    {
      "id": 55,
      "imageId": 5155,
      "cred": 60,
      "flags": 4,
      "label": "I Came, I Saw...",
      "description": "Win all 4 All-Star events.",
      "howto": "Win all 4 All-Star events."
    }
  ]
}