{
  "achievementsPossible": 38,
  "credPossible": 1000,
  "achievements": [
    {
      "id": 19,
      "imageId": 2,
      "cred": 5,
      "flags": 1,
      "label": "5 Goals",
      "description": "Achieve a total of 5 User Goals.",
      "howto": "Achieve a total of 5 User Goals."
    },
    {
      "id": 20,
      "imageId": 3,
      "cred": 10,
      "flags": 1,
      "label": "25 Goals",
      "description": "Achieve a total of 25 User Goals.",
      "howto": "Achieve a total of 25 User Goals."
    },
    {
      "id": 21,
      "imageId": 4,
      "cred": 20,
      "flags": 1,
      "label": "75 Goals",
      "description": "Achieve a total of 75 User Goals.",
      "howto": "Achieve a total of 75 User Goals."
    },
    {
      "id": 22,
      "imageId": 5,
      "cred": 40,
      "flags": 1,
      "label": "150 Goals",
      "description": "Achieve a total of 150 User Goals.",
      "howto": "Achieve a total of 150 User Goals."
    },
    {
      "id": 23,
      "imageId": 6,
      "cred": 100,
      "flags": 1,
      "label": "1000 Goals",
      "description": "Achieve a total of 1000 User Goals.",
      "howto": "Achieve a total of 1000 User Goals."
    },
    {
      "id": 24,
      "imageId": 7,
      "cred": 5,
      "flags": 1,
      "label": "10 Assists",
      "description": "Achieve a total of 10 User Assists.",
      "howto": "Achieve a total of 10 User Assists."
    },
    {
      "id": 25,
      "imageId": 8,
      "cred": 10,
      "flags": 1,
      "label": "40 Assists",
      "description": "Achieve a total of 40 User Assists.",
      "howto": "Achieve a total of 40 User Assists."
    },
    {
      "id": 26,
      "imageId": 9,
      "cred": 20,
      "flags": 1,
      "label": "100 Assists",
      "description": "Achieve a total of 100 User Assists.",
      "howto": "Achieve a total of 100 User Assists."
    },
    {
      "id": 27,
      "imageId": 10,
      "cred": 40,
      "flags": 1,
      "label": "200 Assists",
      "description": "Achieve a total of 200 User Assists.",
      "howto": "Achieve a total of 200 User Assists."
    },
    {
      "id": 28,
      "imageId": 11,
      "cred": 100,
      "flags": 1,
      "label": "1500 Assists",
      "description": "Achieve a total of 1500 User Assists.",
      "howto": "Achieve a total of 1500 User Assists."
    },
    {
      "id": 29,
      "imageId": 12,
      "cred": 5,
      "flags": 1,
      "label": "10 PIMs",
      "description": "Achieve a total of 10 User PIMs (Penalties in Minutes).",
      "howto": "Achieve a total of 10 User PIMs (Penalties in Minutes)."
    },
    {
      "id": 30,
      "imageId": 13,
      "cred": 10,
      "flags": 1,
      "label": "50 PIMs",
      "description": "Achieve a total of 50 User PIMs (Penalties in Minutes).",
      "howto": "Achieve a total of 50 User PIMs (Penalties in Minutes)."
    },
    {
      "id": 31,
      "imageId": 14,
      "cred": 20,
      "flags": 1,
      "label": "100 PIMs",
      "description": "Achieve a total of 100 User PIMs (Penalties in Minutes).",
      "howto": "Achieve a total of 100 User PIMs (Penalties in Minutes)."
    },
    {
      "id": 32,
      "imageId": 15,
      "cred": 40,
      "flags": 1,
      "label": "150 PIMs",
      "description": "Achieve a total of 150 User PIMs (Penalties in Minutes).",
      "howto": "Achieve a total of 150 User PIMs (Penalties in Minutes)."
    },
    {
      "id": 33,
      "imageId": 16,
      "cred": 100,
      "flags": 1,
      "label": "500 PIMs",
      "description": "Achieve a total of 500 User PIMs (Penalties in Minutes).",
      "howto": "Achieve a total of 500 User PIMs (Penalties in Minutes)."
    },
    {
      "id": 34,
      "imageId": 17,
      "cred": 5,
      "flags": 1,
      "label": "1 Win",
      "description": "Achieve a total of 1 User Wins.",
      "howto": "Achieve a total of 1 User Wins."
    },
    {
      "id": 35,
      "imageId": 18,
      "cred": 10,
      "flags": 1,
      "label": "15 Wins",
      "description": "Achieve a total of 15 User Wins.",
      "howto": "Achieve a total of 15 User Wins."
    },
    {
      "id": 36,
      "imageId": 19,
      "cred": 20,
      "flags": 1,
      "label": "50 Wins",
      "description": "Achieve a total of 50 User Wins.",
      "howto": "Achieve a total of 50 User Wins."
    },
    {
      "id": 37,
      "imageId": 20,
      "cred": 40,
      "flags": 1,
      "label": "100 Wins",
      "description": "Achieve a total of 100 User Wins.",
      "howto": "Achieve a total of 100 User Wins."
    },
    {
      "id": 38,
      "imageId": 21,
      "cred": 100,
      "flags": 1,
      "label": "150 Wins",
      "description": "Achieve a total of 150 User Wins.",
      "howto": "Achieve a total of 150 User Wins."
    },
    {
      "id": 39,
      "imageId": 22,
      "cred": 20,
      "flags": 1,
      "label": "Powerplay Specialist",
      "description": "Score three Powerplay goals in one game.",
      "howto": "Score three Powerplay goals in one game."
    },
    {
      "id": 43,
      "imageId": 26,
      "cred": 10,
      "flags": 1,
      "label": "Boom Goes the Dynamite",
      "description": "Score a goal from behind the blue line. ",
      "howto": "Score a goal from behind the blue line. "
    },
    {
      "id": 44,
      "imageId": 27,
      "cred": 10,
      "flags": 1,
      "label": "Kill It",
      "description": "Kill a full 2 minute 5 on 3 powerplay.",
      "howto": "Kill a full 2 minute 5 on 3 powerplay."
    },
    {
      "id": 45,
      "imageId": 28,
      "cred": 10,
      "flags": 1,
      "label": "Skillful Skater",
      "description": "Score a goal after performing a 1-on-1 deke special move. ",
      "howto": "Score a goal after performing a 1-on-1 deke special move. "
    },
    {
      "id": 46,
      "imageId": 29,
      "cred": 10,
      "flags": 1,
      "label": "Masterful Scorer",
      "description": "Score a goal using a goalie deke special move. ",
      "howto": "Score a goal using a goalie deke special move. "
    },
    {
      "id": 47,
      "imageId": 30,
      "cred": 5,
      "flags": 1,
      "label": "Wraparound",
      "description": "Score on a wraparound goal.",
      "howto": "Score on a wraparound goal."
    },
    {
      "id": 48,
      "imageId": 31,
      "cred": 40,
      "flags": 1,
      "label": "Ride the Zamboni",
      "description": "Win the Zamboni mini-game.",
      "howto": "Win the Zamboni mini-game."
    },
    {
      "id": 51,
      "imageId": 34,
      "cred": 10,
      "flags": 1,
      "label": "Marty Turco",
      "description": "Get a shutout with Marty Turco in net while facing a minimum of 20 shots.",
      "howto": "Get a shutout with Marty Turco in net while facing a minimum of 20 shots."
    },
    {
      "id": 52,
      "imageId": 35,
      "cred": 10,
      "flags": 1,
      "label": "Jason Spezza",
      "description": "Get at least 6 points with Jason Spezza in a single game.",
      "howto": "Get at least 6 points with Jason Spezza in a single game."
    },
    {
      "id": 57,
      "imageId": 38,
      "cred": 10,
      "flags": 1,
      "label": "Joe Thornton",
      "description": "Get at least 2 goals, 3 assists and 4 PIMs with Joe Thornton in a single game.",
      "howto": "Get at least 2 goals, 3 assists and 4 PIMs with Joe Thornton in a single game."
    },
    {
      "id": 58,
      "imageId": 1,
      "cred": 10,
      "flags": 1,
      "label": "Rick Nash",
      "description": "Get at least 3 points and a shootout goal in a win with Rick Nash.",
      "howto": "Get at least 3 points and a shootout goal in a win with Rick Nash."
    },
    {
      "id": 59,
      "imageId": 40,
      "cred": 45,
      "flags": 1,
      "label": "Undisputed Champion",
      "description": "Win the Presidents' Trophy and Stanley Cup in a single season. ",
      "howto": "Win the Presidents' Trophy and Stanley Cup in a single season. "
    },
    {
      "id": 62,
      "imageId": 43,
      "cred": 15,
      "flags": 1,
      "label": "Reel Him In",
      "description": "Resign a Superstar (95+ overall) to your team.",
      "howto": "Resign a Superstar (95+ overall) to your team."
    },
    {
      "id": 63,
      "imageId": 44,
      "cred": 15,
      "flags": 1,
      "label": "Lumberjack",
      "description": "Get a hat trick with a player that's fully-bearded in the Stanley Cup playoffs. ",
      "howto": "Get a hat trick with a player that's fully-bearded in the Stanley Cup playoffs. "
    },
    {
      "id": 64,
      "imageId": 45,
      "cred": 20,
      "flags": 1,
      "label": "Team 2K",
      "description": "Beat a Team 2K member or someone that has unlocked this achievement in an online game.",
      "howto": "Beat a Team 2K member or someone that has unlocked this achievement in an online game."
    },
    {
      "id": 65,
      "imageId": 46,
      "cred": 20,
      "flags": 1,
      "label": "Good Teammate",
      "description": "Average an A teammate grade.\r\n",
      "howto": "Average an A teammate grade.\r\n"
    },
    {
      "id": 66,
      "imageId": 39,
      "cred": 20,
      "flags": 1,
      "label": "Alter Ego",
      "description": "Customize your Online Avatar.",
      "howto": "Customize your Online Avatar."
    },
    {
      "id": 67,
      "imageId": 48,
      "cred": 20,
      "flags": 1,
      "label": "Critic",
      "description": "Download and rate a reel from ReelViewer.",
      "howto": "Download and rate a reel from ReelViewer."
    }
  ]
}