{
  "achievementsPossible": 48,
  "credPossible": 1000,
  "achievements": [
    {
      "id": 1,
      "imageId": 2,
      "cred": 15,
      "flags": 1,
      "label": "Lucky Charm",
      "description": "Hittin' that Golden Horseshoe was purdy hard, partner! Nicely done.",
      "howto": "Shoot a Golden Horseshoe in the Mounted Shooting Event."
    },
    {
      "id": 2,
      "imageId": 3,
      "cred": 0,
      "flags": 1,
      "label": "Bunch of Hooey",
      "description": "A horse named \"Booger\"? Now that's just pure fun!",
      "howto": "Choose a horse named \"Booger\" as your mount in All-Around Top Hand Mode."
    },
    {
      "id": 3,
      "imageId": 1,
      "cred": 20,
      "flags": 1,
      "label": "Cowboy Up",
      "description": "Congrats! You've unocked the County Fair. Good job.",
      "howto": "Unlock the County Fair by earning Gold Buckles."
    },
    {
      "id": 4,
      "imageId": 4,
      "cred": 20,
      "flags": 3,
      "label": "1st Pace",
      "description": "State Fair? Other than bacon, nothing is finer than earning an entry to a rodeo at the State Fair.",
      "howto": "Unlock the State Fair Arena by earning Gold Buckles."
    },
    {
      "id": 5,
      "imageId": 5,
      "cred": 20,
      "flags": 3,
      "label": "Top Notch",
      "description": "Lone Star. A single, stunning star, shimmering superbly. And now you can rodeo here.",
      "howto": "Unlock the Lone Star Arena by earning Gold Buckles."
    },
    {
      "id": 6,
      "imageId": 50,
      "cred": 20,
      "flags": 3,
      "label": "Ain't too bad",
      "description": "Never forget to always remember to Remember The Alamo! ",
      "howto": "Unlock Alamo City Rodeo by earning Gold Buckles."
    },
    {
      "id": 8,
      "imageId": 51,
      "cred": 20,
      "flags": 3,
      "label": "Reach for the Sky",
      "description": "If you go too far west, you'll end up wet. So just go Far West enough, and not any farther.",
      "howto": "Unlock Far West Arena by earning Gold Buckles."
    },
    {
      "id": 9,
      "imageId": 62,
      "cred": 20,
      "flags": 3,
      "label": "Now yer gettin' it",
      "description": "A longshot is a situation that defies the odds. Just like your rodeo skills! Keep it up.",
      "howto": "Unlock Longshot Arena by earning Gold Buckles."
    },
    {
      "id": 10,
      "imageId": 53,
      "cred": 20,
      "flags": 3,
      "label": "Top Hand",
      "description": "Wow, you've done it! The ulitmate rodeo arena has been unlocked. You deserve it, and you're welcome!",
      "howto": "Unlock Ariat Arena by earning Gold Buckles."
    },
    {
      "id": 11,
      "imageId": 52,
      "cred": 10,
      "flags": 1,
      "label": "Barrel Roll!",
      "description": "A barrel roll is a difficult act of skill and timing, and you just did one my friend!",
      "howto": "Get a Gold Buckle in any Barrel Racing Event."
    },
    {
      "id": 12,
      "imageId": 55,
      "cred": 50,
      "flags": 1,
      "label": "Barrel of Monkeys",
      "description": "Nothing is more fun than a Barrel of Monkeys, except a whole lotta Barrel Racing!",
      "howto": "Get a Gold Buckle in all Barrel Racing Events."
    },
    {
      "id": 13,
      "imageId": 56,
      "cred": 10,
      "flags": 1,
      "label": "A Fistful of Barrels",
      "description": "It would be hard to hold 100 barrels in a single fist, but I bet you would if you could. ",
      "howto": "Round 100 barrels in Barrel Racing or Mounted Shooting events."
    },
    {
      "id": 14,
      "imageId": 57,
      "cred": 25,
      "flags": 1,
      "label": "A Few Barrels More",
      "description": "By a few, we meant 150 more than a fistful. But with your overachieving, we knew you'd be here soon.",
      "howto": "Round 250 barrels in Barrel Racing or Mounted Shooting events."
    },
    {
      "id": 15,
      "imageId": 58,
      "cred": 0,
      "flags": 7,
      "label": "Bull in a China Shop",
      "description": "Admit it, you were tempted to knock the barrel over when you first saw it, right? Me too.",
      "howto": "Knock Over a Barrel in Barrel Racing or Mounted Shooting events."
    },
    {
      "id": 16,
      "imageId": 59,
      "cred": 10,
      "flags": 1,
      "label": "Get a rope",
      "description": "How many wraps did you do? Most ropers only do two. This is not safe wrapping in my opinion.",
      "howto": "Get a Gold Buckle in any Tie Down Roping Event."
    },
    {
      "id": 17,
      "imageId": 60,
      "cred": 50,
      "flags": 1,
      "label": "Roped In",
      "description": "You got all gold in Tie Down Roping? Only the very best ropers can say that!",
      "howto": "Get a Gold Buckle in all Tie Down Roping Events."
    },
    {
      "id": 18,
      "imageId": 61,
      "cred": 25,
      "flags": 1,
      "label": "Piggin' it up",
      "description": "A Piggin String is used to hog tie a calf, not a pig. Weird.",
      "howto": "Successfully tie down 100 calves in Tie Down Roping."
    },
    {
      "id": 19,
      "imageId": 62,
      "cred": 0,
      "flags": 7,
      "label": "The One that got away",
      "description": "They do that sometimes. Only seems fair.",
      "howto": "Allow a calf to escape from the arena in any Tie Down Roping Event."
    },
    {
      "id": 20,
      "imageId": 63,
      "cred": 10,
      "flags": 1,
      "label": "High Noon",
      "description": "Shoot straight and move fast. Sounds easy, but it ain't.",
      "howto": "Get a Gold Buckle in any Mounted Shooting Event."
    },
    {
      "id": 21,
      "imageId": 64,
      "cred": 50,
      "flags": 1,
      "label": "Shoot 'Em Up",
      "description": "\"Bang bang bang bang bang bang... click. Darn.\" -- an anonymous tombstone in Texas",
      "howto": "Get a Gold Buckle in all Mounted Shooting Events."
    },
    {
      "id": 22,
      "imageId": 65,
      "cred": 10,
      "flags": 1,
      "label": "Luftballons",
      "description": "You didn't let the red balloons go by.",
      "howto": "Shoot 99 Red balloons in the Mounted Shooting Event."
    },
    {
      "id": 23,
      "imageId": 66,
      "cred": 25,
      "flags": 1,
      "label": "What do I feel? Recoil.",
      "description": "No bullets are used in the real event, instead the blank ammo burns the balloons, popping them.",
      "howto": "Shoot 500 balloons of any color in the Mounted Shooting Event."
    },
    {
      "id": 24,
      "imageId": 67,
      "cred": 0,
      "flags": 7,
      "label": "Time for Glasses",
      "description": "20/10? More like 20/200! Either that, or you just crave achievements!",
      "howto": "Miss every balloon in any one shooting station in Mounted Shooting."
    },
    {
      "id": 25,
      "imageId": 68,
      "cred": 10,
      "flags": 1,
      "label": "Team Up",
      "description": "There is no I in TEAM, but there is in WIN. You chose your partner well.",
      "howto": "Get a Gold Buckle in any Team Roping Event."
    },
    {
      "id": 26,
      "imageId": 69,
      "cred": 50,
      "flags": 1,
      "label": "Cowboy and Woody",
      "description": "A lengendary roping team from Montgomery, TX. You aren't this good, but close.",
      "howto": "Get a Gold Buckle in all Team Roping Events."
    },
    {
      "id": 27,
      "imageId": 70,
      "cred": 25,
      "flags": 1,
      "label": "Sheer Steer",
      "description": "You have roped over 48 metric tons of meat, here is your reward.",
      "howto": "Rope 150 steers in Team Roping."
    },
    {
      "id": 28,
      "imageId": 71,
      "cred": 0,
      "flags": 7,
      "label": "I thought YOU had him!",
      "description": "In any team, good communication is essential. By the way, you don't have it.",
      "howto": "Allow a steer to escape from the arena in any Team Roping Event."
    },
    {
      "id": 29,
      "imageId": 72,
      "cred": 10,
      "flags": 1,
      "label": "Sometimes you get the bull",
      "description": "And sometime he gets you. I mean a really deep understanding of your wants and needs. ",
      "howto": "Get a Gold Buckle in any Bull Riding Event."
    },
    {
      "id": 30,
      "imageId": 73,
      "cred": 50,
      "flags": 1,
      "label": "No Bull",
      "description": "With an average skin thickness of over 1/4\", a bull is only tickled by being spurred.",
      "howto": "Get a Gold Buckle in all Bull Riding Events."
    },
    {
      "id": 31,
      "imageId": 74,
      "cred": 25,
      "flags": 1,
      "label": "Rough Stock Rider",
      "description": "Well, that was a workout!",
      "howto": "Ride 150 bulls in the Bull Riding Event."
    },
    {
      "id": 32,
      "imageId": 75,
      "cred": 0,
      "flags": 7,
      "label": "Humility is a virtue",
      "description": "Pride cometh with the fall. Afterall, you survived, didn't you?",
      "howto": "Get thrown by a bull in any Bull Riding Event."
    },
    {
      "id": 33,
      "imageId": 76,
      "cred": 25,
      "flags": 1,
      "label": "How now brown cow?",
      "description": "They keep gettin' in the way, dagnabbit!",
      "howto": "Rope 100 calves in the Speed Roping Mini-game."
    },
    {
      "id": 34,
      "imageId": 77,
      "cred": 50,
      "flags": 1,
      "label": "Riding Herd",
      "description": "This says you are a quantity over quality kind of player. Still, nice work!",
      "howto": "Rope 500 calves in the Speed Roping Mini-game."
    },
    {
      "id": 35,
      "imageId": 78,
      "cred": 10,
      "flags": 1,
      "label": "Gold Miner",
      "description": "While hard to rope, an El Dorado calf pays a handsome dividend, your portfolio thanks you. ",
      "howto": "Rope 10 El Dorado calves in the Speed Roping Mini-game."
    },
    {
      "id": 36,
      "imageId": 79,
      "cred": 0,
      "flags": 7,
      "label": "Roped by a dope",
      "description": "Them calves ain't gonna catch themselves!",
      "howto": "Throw a missed rope in the Speed Roping Mini-game."
    },
    {
      "id": 37,
      "imageId": 80,
      "cred": 25,
      "flags": 1,
      "label": "Pistol Packin'",
      "description": "I'm thinkin' you like plinkin' by the way all those targets were sinkin'. ",
      "howto": "Shoot 100 targets in one game of the Shooting Gallery Mini-game."
    },
    {
      "id": 38,
      "imageId": 81,
      "cred": 50,
      "flags": 1,
      "label": "Rootin' Tootin' Shootin'",
      "description": "Now thats how you shoot!",
      "howto": "Shoot every possible red target, at least once, in one game of the Shooting Gallery Mini-game."
    },
    {
      "id": 39,
      "imageId": 82,
      "cred": 0,
      "flags": 7,
      "label": "Cheap Shot",
      "description": "Even if you don't have any skills, ya gotta a lot of try in ya.",
      "howto": "Miss 10 or more targets in one game of the Shooting Gallery Mini-game."
    },
    {
      "id": 40,
      "imageId": 83,
      "cred": 25,
      "flags": 1,
      "label": "Back in the Saddle again",
      "description": "Are we there yet? You certainly are. Huge kudos to you!",
      "howto": "Spend 100 or more in minutes (cumulative) playing the Riding Fences Mini-game."
    },
    {
      "id": 41,
      "imageId": 84,
      "cred": 25,
      "flags": 1,
      "label": "Till the Sun Goes Down",
      "description": "I bet the stars will be pretty tonight. Make a wish on one. I hope it comes true!",
      "howto": "Play all events in the Ranch Arena between 5am & 9pm."
    },
    {
      "id": 42,
      "imageId": 85,
      "cred": 10,
      "flags": 1,
      "label": "Till the Sun Comes Up",
      "description": "Go. To. Bed. Now.",
      "howto": "Play all events in the County Fair between 9pm & 5am."
    },
    {
      "id": 43,
      "imageId": 86,
      "cred": 10,
      "flags": 5,
      "label": "Double the fun",
      "description": "Playing by yourself is no fun at all. The more, the merrier, right?",
      "howto": "Complete any event with 2 players."
    },
    {
      "id": 44,
      "imageId": 87,
      "cred": 20,
      "flags": 5,
      "label": "Three is a lovely number",
      "description": "A group dynamic consisting of three people can be stabilized with good humor and tact. ",
      "howto": "Complete any event with 3 players."
    },
    {
      "id": 45,
      "imageId": 88,
      "cred": 25,
      "flags": 5,
      "label": "The Magnificent Four",
      "description": "Now THIS is a party!",
      "howto": "Complete any event with 4 players."
    },
    {
      "id": 46,
      "imageId": 89,
      "cred": 5,
      "flags": 4,
      "label": "Gettin' all Hollywood",
      "description": "Everyone wants to be a cowboy.",
      "howto": "Watch a Movie in the Extras Menu."
    },
    {
      "id": 47,
      "imageId": 90,
      "cred": 10,
      "flags": 4,
      "label": "BRB, feedin' mah horse",
      "description": "If you really did just feed your horse, I gotta admit, that's pretty awesome (and coincidental)! ",
      "howto": "Activate auto pause mode by leaving the sensor field for 5 seconds during gameplay."
    },
    {
      "id": 48,
      "imageId": 91,
      "cred": 100,
      "flags": 1,
      "label": "Top Hand of the Rodeo",
      "description": "Thank you for playing!",
      "howto": "Get a Gold Buckle in every event in every arena."
    },
    {
      "id": 49,
      "imageId": 92,
      "cred": 10,
      "flags": 4,
      "label": "Thanks!",
      "description": "That is a lot of people, huh?",
      "howto": "Watch the entire game credits."
    }
  ]
}