{
  "achievementsPossible": 44,
  "credPossible": 1000,
  "achievements": [
    {
      "id": 6,
      "imageId": 1,
      "cred": 10,
      "flags": 1,
      "label": "Toot-toot!",
      "description": "Successfully complete the Tutorial. (By the way - it's more fun if you cheat)",
      "howto": "Successfully complete the Tutorial. (By the way - it's more fun if you cheat)"
    },
    {
      "id": 7,
      "imageId": 2,
      "cred": 30,
      "flags": 1,
      "label": "Frankenbean there, done that",
      "description": "Complete chapter 1 - Dr Frankenbeans Castle... I love what you’ve done with those cobwebs!",
      "howto": "Complete chapter 1 - Dr Frankenbeans Castle... I love what you’ve done with those cobwebs!"
    },
    {
      "id": 8,
      "imageId": 3,
      "cred": 30,
      "flags": 1,
      "label": "Knighty-knight!",
      "description": "Complete chapter 2 - Camelot. (Please Don't Feed The Camels)",
      "howto": "Complete chapter 2 - Camelot. (Please Don't Feed The Camels)"
    },
    {
      "id": 9,
      "imageId": 4,
      "cred": 30,
      "flags": 1,
      "label": "Dagnabbit!",
      "description": "Complete chapter 3 -Wild West. Give them con-sarned no-good blumding-varmints…",
      "howto": "Complete chapter 3 -Wild West. Give them con-sarned no-good blumding-varmints…"
    },
    {
      "id": 10,
      "imageId": 5,
      "cred": 30,
      "flags": 1,
      "label": "Great Southern Land-mines!",
      "description": "Complete chapter 4 - Taz World. The derring-doest daringest-duo in the double-blunder Down-Under! ",
      "howto": "Complete chapter 4 - Taz World. The derring-doest daringest-duo in the double-blunder Down-Under! "
    },
    {
      "id": 11,
      "imageId": 6,
      "cred": 30,
      "flags": 1,
      "label": "Heavens Below! ",
      "description": "Complete chapter 5 - A Warm Place! Bet you thought you’d finish this one when Heck freezed over?   ",
      "howto": "Complete chapter 5 - A Warm Place! Bet you thought you’d finish this one when Heck freezed over?   "
    },
    {
      "id": 12,
      "imageId": 7,
      "cred": 30,
      "flags": 1,
      "label": "Toot-and-come-in!",
      "description": "Complete chapter 6 - Egypt. Say `sayonara' to the Sahara!",
      "howto": "Complete chapter 6 - Egypt. Say `sayonara' to the Sahara!"
    },
    {
      "id": 13,
      "imageId": 8,
      "cred": 30,
      "flags": 1,
      "label": "My Stars! ",
      "description": "Complete chapter 7 - Mars. Hugo first, there's an abomin-abale snowperson in here! ",
      "howto": "Complete chapter 7 - Mars. Hugo first, there's an abomin-abale snowperson in here! "
    },
    {
      "id": 14,
      "imageId": 9,
      "cred": 30,
      "flags": 1,
      "label": "War is Heck!",
      "description": "Complete chapter 8 - WW1. Holy cats, I've been drafted! ",
      "howto": "Complete chapter 8 - WW1. Holy cats, I've been drafted! "
    },
    {
      "id": 15,
      "imageId": 10,
      "cred": 30,
      "flags": 1,
      "label": "100 Nuts & a Squirrel!",
      "description": "Complete chapter 9 - Wackyland. It's simply marrrrrvellous Dali-ng.",
      "howto": "Complete chapter 9 - Wackyland. It's simply marrrrrvellous Dali-ng."
    },
    {
      "id": 16,
      "imageId": 11,
      "cred": 80,
      "flags": 1,
      "label": "That’s All, Folks!",
      "description": "Completed the game! The whole darn shootin'-match!! You'll probably hate yourself in the morning…",
      "howto": "Completed the game! The whole darn shootin'-match!! You'll probably hate yourself in the morning…"
    },
    {
      "id": 17,
      "imageId": 12,
      "cred": 20,
      "flags": 7,
      "label": "What's Up, Doc?",
      "description": "Finish the First Act without collecting any Health. Now who'd go and do a dirty thing like that?",
      "howto": "Finish the First Act without collecting any Health. Now who'd go and do a dirty thing like that?"
    },
    {
      "id": 18,
      "imageId": 13,
      "cred": 20,
      "flags": 7,
      "label": "Gad, how do I do it?",
      "description": "Beat Whack-Tastic Robot-Bash without dying. You are a mental case.",
      "howto": "Beat Whack-Tastic Robot-Bash without dying. You are a mental case."
    },
    {
      "id": 19,
      "imageId": 13,
      "cred": 20,
      "flags": 7,
      "label": "Devilishly clever",
      "description": "Beat The Muddy Evil Forest without dying. Ya crazy idjit!",
      "howto": "Beat The Muddy Evil Forest without dying. Ya crazy idjit!"
    },
    {
      "id": 20,
      "imageId": 13,
      "cred": 20,
      "flags": 7,
      "label": "Woo-hoo-hoo Nelly!",
      "description": "Beat Volcano Way Out without dying. All right that settles it.",
      "howto": "Beat Volcano Way Out without dying. All right that settles it."
    },
    {
      "id": 21,
      "imageId": 26,
      "cred": 10,
      "flags": 4,
      "label": "Gold! I'm rich!",
      "description": "Collect 250,000 in coins. Hmmm, not bad!",
      "howto": "Collect 250,000 in coins. Hmmm, not bad!"
    },
    {
      "id": 22,
      "imageId": 27,
      "cred": 20,
      "flags": 4,
      "label": "Gold! Gold!!",
      "description": "Collect 500,000 in coins. I need what little I've got",
      "howto": "Collect 500,000 in coins. I need what little I've got"
    },
    {
      "id": 23,
      "imageId": 28,
      "cred": 30,
      "flags": 4,
      "label": "Gold! Gold!! GOLLLLD!!!",
      "description": "Collect 1,000,000 in coins. Keep the change, Doc!",
      "howto": "Collect 1,000,000 in coins. Keep the change, Doc!"
    },
    {
      "id": 24,
      "imageId": 15,
      "cred": 10,
      "flags": 4,
      "label": "Next contestant please…",
      "description": "Smash 100 Enemies. Hey - this promises to be fun!",
      "howto": "Smash 100 Enemies. Hey - this promises to be fun!"
    },
    {
      "id": 25,
      "imageId": 16,
      "cred": 20,
      "flags": 4,
      "label": "Smoke-um!",
      "description": "Smash 200 Enemies. And I thought this was gonna be a dull day!",
      "howto": "Smash 200 Enemies. And I thought this was gonna be a dull day!"
    },
    {
      "id": 26,
      "imageId": 17,
      "cred": 30,
      "flags": 4,
      "label": "Wobot season!",
      "description": "Smash 500 Enemies. So, goodbye to you - and farewell to thee!",
      "howto": "Smash 500 Enemies. So, goodbye to you - and farewell to thee!"
    },
    {
      "id": 27,
      "imageId": 29,
      "cred": 20,
      "flags": 7,
      "label": "...Where's the \"kaboom\"?",
      "description": "Fully max out each character's Illudium. Aw, don't be so danged literal, Mac! ",
      "howto": "Fully max out each character's Illudium. Aw, don't be so danged literal, Mac! "
    },
    {
      "id": 28,
      "imageId": 30,
      "cred": 20,
      "flags": 7,
      "label": "Speedy Gonzalez!",
      "description": "Beat the par time for Scooterway Scramble!  I go take my siesta now.",
      "howto": "Beat the par time for Scooterway Scramble!  I go take my siesta now."
    },
    {
      "id": 29,
      "imageId": 34,
      "cred": 20,
      "flags": 7,
      "label": "`Slowpoke' Rodriguez",
      "description": "Beat the par time for Whack-Tastic Robot-Bash. Whoops, had the silly thing in reverse.",
      "howto": "Beat the par time for Whack-Tastic Robot-Bash. Whoops, had the silly thing in reverse."
    },
    {
      "id": 30,
      "imageId": 35,
      "cred": 20,
      "flags": 7,
      "label": "Arriba! Arriba! Ándale! Ándale!",
      "description": "Beat the par time for In De-Nile. Holy freholas, that thing runs faster than me!",
      "howto": "Beat the par time for In De-Nile. Holy freholas, that thing runs faster than me!"
    },
    {
      "id": 31,
      "imageId": 19,
      "cred": 10,
      "flags": 7,
      "label": "The Combo Kid!",
      "description": "Produce a level 6 combo. You asked for it!",
      "howto": "Produce a level 6 combo. You asked for it!"
    },
    {
      "id": 32,
      "imageId": 31,
      "cred": 20,
      "flags": 7,
      "label": "Combo Carnage!!",
      "description": "Produce a level 9 combo. Oh, you again?",
      "howto": "Produce a level 9 combo. Oh, you again?"
    },
    {
      "id": 33,
      "imageId": 21,
      "cred": 30,
      "flags": 7,
      "label": "Combo Loco!!!",
      "description": "Produce a level 12 combo. Soives ya right!",
      "howto": "Produce a level 12 combo. Soives ya right!"
    },
    {
      "id": 34,
      "imageId": 36,
      "cred": 20,
      "flags": 3,
      "label": "Hello, Mah Baby!",
      "description": "Find the Michigan J. Frog trophy. Do the Michigan rag!",
      "howto": "Find the Michigan J. Frog trophy. Do the Michigan rag!"
    },
    {
      "id": 35,
      "imageId": 37,
      "cred": 20,
      "flags": 3,
      "label": "Eager Young Space Cadet",
      "description": "Find the Porky Pig trophy. Gosh, here we go again!",
      "howto": "Find the Porky Pig trophy. Gosh, here we go again!"
    },
    {
      "id": 36,
      "imageId": 38,
      "cred": 20,
      "flags": 3,
      "label": "Great horny toads!!!",
      "description": "Find the Yosemite Sam trophy. Enter, o seeker of knowledge. That's you, fathead.",
      "howto": "Find the Yosemite Sam trophy. Enter, o seeker of knowledge. That's you, fathead."
    },
    {
      "id": 37,
      "imageId": 39,
      "cred": 20,
      "flags": 3,
      "label": "Super-genius!!!",
      "description": "Find the Wile E. Coyote trophy. Allow me to introduce myself - my name is mud.",
      "howto": "Find the Wile E. Coyote trophy. Allow me to introduce myself - my name is mud."
    },
    {
      "id": 38,
      "imageId": 40,
      "cred": 20,
      "flags": 3,
      "label": "Speedipus Rex",
      "description": "Find the Road Runner trophy. Rock - falling - what'll I do?",
      "howto": "Find the Road Runner trophy. Rock - falling - what'll I do?"
    },
    {
      "id": 39,
      "imageId": 41,
      "cred": 20,
      "flags": 3,
      "label": "Bad old puddy-tat",
      "description": "Find the Tweety Bird trophy. Awww, isn’t he a darling little tweety-bird?",
      "howto": "Find the Tweety Bird trophy. Awww, isn’t he a darling little tweety-bird?"
    },
    {
      "id": 40,
      "imageId": 23,
      "cred": 20,
      "flags": 7,
      "label": "Shoot him, shoot him now!",
      "description": "Used every weapon! ...I cannot fight no more against such genius.",
      "howto": "Used every weapon! ...I cannot fight no more against such genius."
    },
    {
      "id": 41,
      "imageId": 22,
      "cred": 10,
      "flags": 1,
      "label": "This... Means... War.",
      "description": "Win a Battle. Wow, that old babe means to do me some serious hoit.",
      "howto": "Win a Battle. Wow, that old babe means to do me some serious hoit."
    },
    {
      "id": 42,
      "imageId": 43,
      "cred": 20,
      "flags": 1,
      "label": "Stupor-Duper!",
      "description": "Finish an act with both players wearing supersuits. Does my butt look big in this?",
      "howto": "Finish an act with both players wearing supersuits. Does my butt look big in this?"
    },
    {
      "id": 43,
      "imageId": 42,
      "cred": 20,
      "flags": 1,
      "label": "Aren't we gruesome?",
      "description": "Beat The Log Ness Monster in local co-op play. It’s great what you can do with wire and light bulbs?",
      "howto": "Beat The Log Ness Monster in local co-op play. It’s great what you can do with wire and light bulbs?"
    },
    {
      "id": 44,
      "imageId": 44,
      "cred": 20,
      "flags": 1,
      "label": "Viva l'amour! Ve die togezzer.",
      "description": "Beat Excape of Excalibur  in local co-op play. Okay, have it your way!",
      "howto": "Beat Excape of Excalibur  in local co-op play. Okay, have it your way!"
    },
    {
      "id": 45,
      "imageId": 45,
      "cred": 20,
      "flags": 1,
      "label": "Anyone for tennis?",
      "description": "Beat Low Noon  in local co-op play. Brother - what a way to run a railroad!",
      "howto": "Beat Low Noon  in local co-op play. Brother - what a way to run a railroad!"
    },
    {
      "id": 46,
      "imageId": 32,
      "cred": 20,
      "flags": 7,
      "label": "Yo-yo Atom-Smashers!",
      "description": "Produce an atomic combo level 9. So - you’re the one behind all this…",
      "howto": "Produce an atomic combo level 9. So - you’re the one behind all this…"
    },
    {
      "id": 47,
      "imageId": 33,
      "cred": 20,
      "flags": 7,
      "label": "Up-and-Atom!",
      "description": "Produce an atomic combo level 9 online. Adios, you chicken-pluckin little stinker!",
      "howto": "Produce an atomic combo level 9 online. Adios, you chicken-pluckin little stinker!"
    },
    {
      "id": 48,
      "imageId": 24,
      "cred": 10,
      "flags": 1,
      "label": "Just try and top this one!",
      "description": "Beat an Act online. You may fire when ready, grisly!",
      "howto": "Beat an Act online. You may fire when ready, grisly!"
    },
    {
      "id": 49,
      "imageId": 25,
      "cred": 20,
      "flags": 7,
      "label": "You caught Bugs' `bug'!",
      "description": "Play online with someone who has Bugs' bug. Hooo-weee! Gotta git yourself a hobby!",
      "howto": "Play online with someone who has Bugs' bug. Hooo-weee! Gotta git yourself a hobby!"
    }
  ]
}