{
  "achievementsPossible": 12,
  "credPossible": 200,
  "achievements": [
    {
      "id": 1,
      "imageId": 2,
      "cred": 10,
      "flags": 1,
      "label": "The World is Safe For Now",
      "description": "Complete the game once",
      "howto": "Complete the game once"
    },
    {
      "id": 2,
      "imageId": 4,
      "cred": 25,
      "flags": 1,
      "label": "True Hero",
      "description": "Survive for 5:00 in Survival Mode.",
      "howto": "Survive for 5:00 in Survival Mode."
    },
    {
      "id": 3,
      "imageId": 3,
      "cred": 20,
      "flags": 1,
      "label": "The Fast Lane",
      "description": "Complete the game in less than 3 hours",
      "howto": "Complete the game in less than 3 hours"
    },
    {
      "id": 4,
      "imageId": 5,
      "cred": 20,
      "flags": 1,
      "label": "Ala Carte",
      "description": "Complete a level without collecting any health or energy items",
      "howto": "Complete a level without collecting any health or energy items"
    },
    {
      "id": 5,
      "imageId": 6,
      "cred": 20,
      "flags": 1,
      "label": "Key Master",
      "description": "Collect all keycards",
      "howto": "Collect all keycards"
    },
    {
      "id": 6,
      "imageId": 7,
      "cred": 15,
      "flags": 1,
      "label": "Playing with a Full Deck",
      "description": "Unlock all alien forms by beating levels 1-10",
      "howto": "Unlock all alien forms by beating levels 1-10"
    },
    {
      "id": 7,
      "imageId": 8,
      "cred": 10,
      "flags": 1,
      "label": "Unscathed",
      "description": "Defeat any level without getting hit",
      "howto": "Defeat any level without getting hit"
    },
    {
      "id": 8,
      "imageId": 9,
      "cred": 10,
      "flags": 1,
      "label": "A Hero's Workout",
      "description": "Defeat 50 enemies",
      "howto": "Defeat 50 enemies"
    },
    {
      "id": 9,
      "imageId": 10,
      "cred": 15,
      "flags": 1,
      "label": "A Hero's Marathon",
      "description": "Defeat 300 enemies",
      "howto": "Defeat 300 enemies"
    },
    {
      "id": 10,
      "imageId": 11,
      "cred": 20,
      "flags": 1,
      "label": "No Time to Waste",
      "description": "Post a time on all level leaderboards.",
      "howto": "Post a time on all level leaderboards."
    },
    {
      "id": 11,
      "imageId": 12,
      "cred": 15,
      "flags": 1,
      "label": "Versatility",
      "description": "Harm the final boss using each alien before delivering the final blow.",
      "howto": "Harm the final boss using each alien before delivering the final blow."
    },
    {
      "id": 12,
      "imageId": 13,
      "cred": 20,
      "flags": 1,
      "label": "All Powered Up",
      "description": "Collect all energy and health extenders",
      "howto": "Collect all energy and health extenders"
    }
  ]
}