{
  "achievementsPossible": 25,
  "credPossible": 1000,
  "achievements": [
    {
      "id": 100,
      "imageId": 1000,
      "cred": 50,
      "flags": 1,
      "label": "Gold Master",
      "description": "Earned 100 Gold medals across both factions",
      "howto": "Earn 100 Gold medals across both factions"
    },
    {
      "id": 101,
      "imageId": 1001,
      "cred": 25,
      "flags": 1,
      "label": "First National",
      "description": "Banked your first score",
      "howto": "Bank your first score"
    },
    {
      "id": 102,
      "imageId": 1002,
      "cred": 75,
      "flags": 1,
      "label": "10 Heat",
      "description": "Reached Heat 10",
      "howto": "Reach Heat 10"
    },
    {
      "id": 103,
      "imageId": 1003,
      "cred": 40,
      "flags": 1,
      "label": "Multiplier",
      "description": "Hit a X 10 Multiplier",
      "howto": "Hit a X 10 Multiplier"
    },
    {
      "id": 104,
      "imageId": 1004,
      "cred": 35,
      "flags": 1,
      "label": "Bigger Points",
      "description": "Banked 500,000 in one go",
      "howto": "Bank 500,000 in one go"
    },
    {
      "id": 105,
      "imageId": 1005,
      "cred": 35,
      "flags": 1,
      "label": "5 Buster",
      "description": "Busted a Racer at Heat 5 or greater",
      "howto": "Bust a Racer at Heat 5 or greater"
    },
    {
      "id": 106,
      "imageId": 1006,
      "cred": 75,
      "flags": 1,
      "label": "8 Buster",
      "description": "Busted a Racer at Heat 8 or greater",
      "howto": "Bust a Racer at Heat 8 or greater"
    },
    {
      "id": 107,
      "imageId": 1007,
      "cred": 30,
      "flags": 1,
      "label": "Lcnce n Rgstrtn pls",
      "description": "Busted 10 Racers in a Mustang",
      "howto": "Bust 10 Racers in a Mustang"
    },
    {
      "id": 108,
      "imageId": 1008,
      "cred": 35,
      "flags": 1,
      "label": "Bust 50",
      "description": "Busted 50 Racers",
      "howto": "Bust 50 Racers"
    },
    {
      "id": 109,
      "imageId": 1009,
      "cred": 30,
      "flags": 1,
      "label": "Friendly Race",
      "description": "Won a Race against a Friend",
      "howto": "Win a Race against a Friend"
    },
    {
      "id": 110,
      "imageId": 1010,
      "cred": 30,
      "flags": 1,
      "label": "Buddy Bust",
      "description": "Busted a Friend",
      "howto": "Bust a Friend"
    },
    {
      "id": 111,
      "imageId": 1011,
      "cred": 15,
      "flags": 1,
      "label": "Racer Rank 5",
      "description": "Reached Racer Rank 5",
      "howto": "Reach Racer Rank 5"
    },
    {
      "id": 112,
      "imageId": 1012,
      "cred": 20,
      "flags": 1,
      "label": "Racer Rank 10",
      "description": "Reached Racer Rank 10",
      "howto": "Reach Racer Rank 10"
    },
    {
      "id": 113,
      "imageId": 1013,
      "cred": 30,
      "flags": 1,
      "label": "Racer Rank 20",
      "description": "Reached Racer Rank 20",
      "howto": "Reach Racer Rank 20"
    },
    {
      "id": 114,
      "imageId": 1014,
      "cred": 40,
      "flags": 1,
      "label": "Racer Rank 40",
      "description": "Reached Racer Rank 40",
      "howto": "Reach Racer Rank 40"
    },
    {
      "id": 115,
      "imageId": 1015,
      "cred": 75,
      "flags": 1,
      "label": "Racer Rank 60",
      "description": "Reached Racer Rank 60",
      "howto": "Reach Racer Rank 60"
    },
    {
      "id": 116,
      "imageId": 1016,
      "cred": 50,
      "flags": 1,
      "label": "Professional Collector",
      "description": "Purchased 10 Racer vehicles",
      "howto": "Purchase 10 Racer vehicles"
    },
    {
      "id": 117,
      "imageId": 1017,
      "cred": 15,
      "flags": 1,
      "label": "Cop Rank 5",
      "description": "Reached Cop Rank 5",
      "howto": "Reach Cop Rank 5"
    },
    {
      "id": 118,
      "imageId": 1018,
      "cred": 20,
      "flags": 1,
      "label": "Cop Rank 10",
      "description": "Reached Cop Rank 10",
      "howto": "Reach Cop Rank 10"
    },
    {
      "id": 119,
      "imageId": 1019,
      "cred": 30,
      "flags": 1,
      "label": "Cop Rank 20",
      "description": "Reached Cop Rank 20",
      "howto": "Reach Cop Rank 20"
    },
    {
      "id": 120,
      "imageId": 1020,
      "cred": 40,
      "flags": 1,
      "label": "Cop Rank 40",
      "description": "Reached Cop Rank 40",
      "howto": "Reach Cop Rank 40"
    },
    {
      "id": 121,
      "imageId": 1021,
      "cred": 75,
      "flags": 1,
      "label": "Cop Rank 60",
      "description": "Reached Cop Rank 60",
      "howto": "Reach Cop Rank 60"
    },
    {
      "id": 122,
      "imageId": 1022,
      "cred": 50,
      "flags": 1,
      "label": "Upgrade Master",
      "description": "Upgraded all Cop Pursuit Tech in one car to maximum level and equipped both slots",
      "howto": "Upgrade all Cop Pursuit Tech in one car to maximum level and equip both slots"
    },
    {
      "id": 123,
      "imageId": 1023,
      "cred": 40,
      "flags": 1,
      "label": "Deep Down, You Know You Want To",
      "description": "Driven 50 cumulative minutes in any Ford then entered garage",
      "howto": "Drive 50 cumulative minutes in any Ford then enter garage"
    },
    {
      "id": 124,
      "imageId": 1024,
      "cred": 40,
      "flags": 1,
      "label": "5, 4, 3, 2, Mach 1!",
      "description": "Earned 50 seconds of air time in any Ford car",
      "howto": "Get 50 seconds of air time in any Ford car"
    }
  ]
}