[
  {
    "titleId": 1229817822,
    "largeId": 131073,
    "smallId": 65537,
    "commonId": 1
  },
  {
    "titleId": 1229817822,
    "largeId": 131074,
    "smallId": 65538,
    "commonId": 2
  },
  {
    "titleId": 1229817822,
    "largeId": 131075,
    "smallId": 65539,
    "commonId": 3
  },
  {
    "titleId": 1229817822,
    "largeId": 131076,
    "smallId": 65540,
    "commonId": 4
  },
  {
    "titleId": 1229817822,
    "largeId": 131077,
    "smallId": 65541,
    "commonId": 5
  }
]