{
  "achievementsPossible": 50,
  "credPossible": 1000,
  "achievements": [
    {
      "id": 54,
      "imageId": 5114,
      "cred": 10,
      "flags": 4,
      "label": "Home, Sweet Home",
      "description": "Score 193 runs with your user profile.",
      "howto": "Score 193 runs with your user profile."
    },
    {
      "id": 55,
      "imageId": 5115,
      "cred": 10,
      "flags": 4,
      "label": "Chicks Dig It",
      "description": "Hit 74 home runs with your user profile.",
      "howto": "Hit 74 home runs with your user profile."
    },
    {
      "id": 56,
      "imageId": 5116,
      "cred": 10,
      "flags": 4,
      "label": "Almost There",
      "description": "Hit 37 triples with your user profile.",
      "howto": "Hit 37 triples with your user profile."
    },
    {
      "id": 57,
      "imageId": 5117,
      "cred": 10,
      "flags": 4,
      "label": "Fanning the Flames",
      "description": "Strike out 514 batters with your user profile.",
      "howto": "Strike out 514 batters with your user profile."
    },
    {
      "id": 58,
      "imageId": 5118,
      "cred": 15,
      "flags": 4,
      "label": "Set the Table",
      "description": "Hit 68 doubles with your user profile.",
      "howto": "Hit 68 doubles with your user profile."
    },
    {
      "id": 59,
      "imageId": 5119,
      "cred": 20,
      "flags": 4,
      "label": "Productivity",
      "description": "Get 263 hits with your user profile.",
      "howto": "Get 263 hits with your user profile."
    },
    {
      "id": 60,
      "imageId": 5120,
      "cred": 20,
      "flags": 4,
      "label": "Domination",
      "description": "Save 63 games with your user profile.",
      "howto": "Save 63 games with your user profile."
    },
    {
      "id": 61,
      "imageId": 5121,
      "cred": 20,
      "flags": 4,
      "label": "Production",
      "description": "Drive in 192 RBI with your user profile.",
      "howto": "Drive in 192 RBI with your user profile."
    },
    {
      "id": 62,
      "imageId": 5122,
      "cred": 20,
      "flags": 4,
      "label": "You Make Your Own Destiny",
      "description": "Steal 139 bases with your user profile.",
      "howto": "Steal 139 bases with your user profile."
    },
    {
      "id": 63,
      "imageId": 5123,
      "cred": 40,
      "flags": 4,
      "label": "As Good as a Hit",
      "description": "Walk 233 times with your user profile.",
      "howto": "Walk 233 times with your user profile."
    },
    {
      "id": 64,
      "imageId": 5124,
      "cred": 5,
      "flags": 4,
      "label": "Down But Not Out",
      "description": "Get a hit with 2 strikes in a non-simulated game.",
      "howto": "Get a hit with 2 strikes in a non-simulated game."
    },
    {
      "id": 65,
      "imageId": 5125,
      "cred": 5,
      "flags": 4,
      "label": "Grab Some Pine",
      "description": "Get a strikeout to end the inning in a non-simulated game.",
      "howto": "Get a strikeout to end the inning in a non-simulated game."
    },
    {
      "id": 66,
      "imageId": 5126,
      "cred": 10,
      "flags": 4,
      "label": "A Pitcher's Best Friend",
      "description": "Turn a double play in a non-simulated game.",
      "howto": "Turn a double play in a non-simulated game."
    },
    {
      "id": 67,
      "imageId": 5127,
      "cred": 10,
      "flags": 4,
      "label": "To the Rescue",
      "description": "Get a save with the tying run on base in a non-simulated game.",
      "howto": "Get a save with the tying run on base in a non-simulated game."
    },
    {
      "id": 68,
      "imageId": 5128,
      "cred": 10,
      "flags": 4,
      "label": "Don't Call it a Comeback",
      "description": "Win after being down by 4 after the 6th inning in a non-simulated game.",
      "howto": "Win after being down by 4 after the 6th inning in a non-simulated game."
    },
    {
      "id": 69,
      "imageId": 5129,
      "cred": 10,
      "flags": 4,
      "label": "The Start of Something Special",
      "description": "Lead off an inning by hitting a triple in a non-simulated game.",
      "howto": "Lead off an inning by hitting a triple in a non-simulated game."
    },
    {
      "id": 70,
      "imageId": 5130,
      "cred": 10,
      "flags": 4,
      "label": "Stooges",
      "description": "Strikeout all three hitters in the inning in a non-simulated game.",
      "howto": "Strikeout all three hitters in the inning in a non-simulated game."
    },
    {
      "id": 71,
      "imageId": 5131,
      "cred": 10,
      "flags": 4,
      "label": "No Hole too Deep",
      "description": "Battle Back: Down 0-2, get walked in a non-simulated game.",
      "howto": "Battle Back: Down 0-2, get walked in a non-simulated game."
    },
    {
      "id": 72,
      "imageId": 5132,
      "cred": 10,
      "flags": 4,
      "label": "Throw First and Aim Later",
      "description": "Miss your throw to first base with 2 outs in a non-simulated game.",
      "howto": "Miss your throw to first base with 2 outs in a non-simulated game."
    },
    {
      "id": 73,
      "imageId": 5133,
      "cred": 15,
      "flags": 4,
      "label": "Take That",
      "description": "Get an RBI after getting brushed back off the plate in a non-simulated game.",
      "howto": "Get an RBI after getting brushed back off the plate in a non-simulated game."
    },
    {
      "id": 74,
      "imageId": 5134,
      "cred": 15,
      "flags": 4,
      "label": "My Main Squeeze",
      "description": "Bunt the man home in a non-simulated game.",
      "howto": "Bunt the man home in a non-simulated game."
    },
    {
      "id": 75,
      "imageId": 5135,
      "cred": 20,
      "flags": 4,
      "label": "Dual Threat",
      "description": "Steal base with pitcher in a non-simulated game.",
      "howto": "Steal base with pitcher in a non-simulated game."
    },
    {
      "id": 76,
      "imageId": 5136,
      "cred": 20,
      "flags": 4,
      "label": "I Came, I Saw...",
      "description": "Hit a Walk-off Home Run in a non-simulated game.",
      "howto": "Hit a Walk-off Home Run in a non-simulated game."
    },
    {
      "id": 77,
      "imageId": 5137,
      "cred": 20,
      "flags": 4,
      "label": "He Taketh Away",
      "description": "Rob a Home Run by climbing the wall in a non-simulated game.",
      "howto": "Rob a Home Run in a non-simulated game."
    },
    {
      "id": 78,
      "imageId": 5138,
      "cred": 20,
      "flags": 4,
      "label": "The Road to Victory",
      "description": "Get 3 consecutive batters on base in a non-simulated game.",
      "howto": "Get 3 consecutive batters on base in a non-simulated game."
    },
    {
      "id": 79,
      "imageId": 5139,
      "cred": 20,
      "flags": 4,
      "label": "Mr. Consistency",
      "description": "Get a hit in all 9 innings in a non-simulated game.",
      "howto": "Get a hit in all 9 innings in a non-simulated game."
    },
    {
      "id": 80,
      "imageId": 5140,
      "cred": 20,
      "flags": 4,
      "label": "A Virtue",
      "description": "Face 10 pitches as the batter in a non-simulated game.",
      "howto": "Face 10 pitches as the batter in a non-simulated game."
    },
    {
      "id": 81,
      "imageId": 5141,
      "cred": 80,
      "flags": 4,
      "label": "One Man Show",
      "description": "Throw a No-Hitter in a 9 inning, non-simulated game.",
      "howto": "Throw a No-Hitter in a 9 inning, non-simulated game."
    },
    {
      "id": 82,
      "imageId": 5142,
      "cred": 10,
      "flags": 6,
      "label": "The Goal",
      "description": "Accomplish a Team Season Goal in My Player Mode.",
      "howto": "Accomplish a Team Season Goal in My Player Mode."
    },
    {
      "id": 83,
      "imageId": 5143,
      "cred": 10,
      "flags": 4,
      "label": "Back to the Cage",
      "description": "Get a Golden Sombrero (strikeout 4 times in 1 game) in My Player Mode.",
      "howto": "Get a Golden Sombrero (strikeout 4 times in 1 game) in My Player Mode."
    },
    {
      "id": 84,
      "imageId": 5144,
      "cred": 15,
      "flags": 4,
      "label": "Payback",
      "description": "Hit a home run off a former team in My Player Mode.",
      "howto": "Hit a home run off a former team in My Player Mode."
    },
    {
      "id": 85,
      "imageId": 5145,
      "cred": 15,
      "flags": 4,
      "label": "Your Day",
      "description": "Win player of the game in an MLB game in My Player Mode.",
      "howto": "Win player of the game in an MLB game in My Player Mode."
    },
    {
      "id": 86,
      "imageId": 5146,
      "cred": 15,
      "flags": 4,
      "label": "This is Why I'm Here",
      "description": "Be successful in a major league clutch moment in My Player Mode.",
      "howto": "Be successful in a major league clutch moment in My Player Mode."
    },
    {
      "id": 87,
      "imageId": 5147,
      "cred": 20,
      "flags": 6,
      "label": "The Call",
      "description": "Get called up to the Majors in My Player Mode.",
      "howto": "Get called up to the Majors in My Player Mode."
    },
    {
      "id": 88,
      "imageId": 5148,
      "cred": 25,
      "flags": 6,
      "label": "A Job Well Done",
      "description": "Win 100+ games in a season in My Player Mode.",
      "howto": "Win 100+ games in a season in My Player Mode."
    },
    {
      "id": 89,
      "imageId": 5149,
      "cred": 25,
      "flags": 6,
      "label": "2-Peat",
      "description": "Win Back to Back World Series® in My Player Mode.",
      "howto": "Win Back to Back World Series® in My Player Mode."
    },
    {
      "id": 90,
      "imageId": 5150,
      "cred": 30,
      "flags": 6,
      "label": "The Top",
      "description": "Become the #1 ranked player in your My Player organization.",
      "howto": "Become the #1 ranked player in your My Player organization."
    },
    {
      "id": 91,
      "imageId": 5151,
      "cred": 40,
      "flags": 6,
      "label": "The Star",
      "description": "Make the All-Star team in My Player Mode.",
      "howto": "Make the All-Star team in My Player Mode."
    },
    {
      "id": 92,
      "imageId": 5152,
      "cred": 75,
      "flags": 6,
      "label": "The Hall",
      "description": "Make the Hall of Fame in My Player Mode.",
      "howto": "Make the Hall of Fame in My Player Mode."
    },
    {
      "id": 93,
      "imageId": 5153,
      "cred": 80,
      "flags": 6,
      "label": "What's Your Ring Size?",
      "description": "Win a World Series® in My Player Mode.",
      "howto": "Win a World Series® in My Player Mode."
    },
    {
      "id": 94,
      "imageId": 5154,
      "cred": 20,
      "flags": 4,
      "label": "You're Special",
      "description": "Win a Season award in Franchise Mode. (play at least 20 games)",
      "howto": "Win a Season award in Franchise Mode. (play at least 20 games)"
    },
    {
      "id": 95,
      "imageId": 5155,
      "cred": 20,
      "flags": 4,
      "label": "Remember Me",
      "description": "Break a record in Franchise Mode. (play at least 20 games)",
      "howto": "Break a record in Franchise Mode. (play at least 20 games)"
    },
    {
      "id": 96,
      "imageId": 5156,
      "cred": 20,
      "flags": 4,
      "label": "The Champs",
      "description": "Win a World Series® in Franchise Mode. (play at least 20 games)",
      "howto": "Win a World Series® in Franchise Mode. (play at least 20 games)"
    },
    {
      "id": 97,
      "imageId": 5157,
      "cred": 20,
      "flags": 4,
      "label": "King of the Hill",
      "description": "Get to the top of the Best of the Best ladder in Home Run Derby® Mode.",
      "howto": "Get to the top of the Best of the Best ladder in Home Run Derby® Mode."
    },
    {
      "id": 98,
      "imageId": 5158,
      "cred": 10,
      "flags": 4,
      "label": "My Fellow Man",
      "description": "Complete and win an online game.",
      "howto": "Complete and win an online game."
    },
    {
      "id": 99,
      "imageId": 5159,
      "cred": 10,
      "flags": 4,
      "label": "Count it",
      "description": "Complete and win a ranked match.",
      "howto": "Complete and win a ranked match."
    },
    {
      "id": 100,
      "imageId": 5160,
      "cred": 10,
      "flags": 4,
      "label": "Upset Alert",
      "description": "Use the Houston Astros in a completed ranked match.",
      "howto": "Use the Houston Astros in a completed ranked match."
    },
    {
      "id": 101,
      "imageId": 5161,
      "cred": 10,
      "flags": 4,
      "label": "The Spice of Life",
      "description": "Play 10 ranked matches using 10 different teams.",
      "howto": "Play 10 ranked matches using 10 different teams."
    },
    {
      "id": 102,
      "imageId": 5162,
      "cred": 15,
      "flags": 4,
      "label": "The Team to Beat",
      "description": "Beat the San Francisco Giants in a completed online match.",
      "howto": "Beat the San Francisco Giants in a completed online match."
    },
    {
      "id": 103,
      "imageId": 5163,
      "cred": 20,
      "flags": 4,
      "label": "The Road to Greatness",
      "description": "Complete and win 3 ranked matches in a row.",
      "howto": "Complete and win 3 ranked matches in a row."
    }
  ]
}