{
  "achievementsPossible": 43,
  "credPossible": 1000,
  "achievements": [
    {
      "id": 18,
      "imageId": 2,
      "cred": 25,
      "flags": 4,
      "label": "Baroness",
      "description": "Defeat Baroness (P1 only)",
      "howto": "Defeat Baroness (P1 only)"
    },
    {
      "id": 19,
      "imageId": 3,
      "cred": 25,
      "flags": 4,
      "label": "Destro",
      "description": "Defeat Destro (P1 only)",
      "howto": "Defeat Destro (P1 only)"
    },
    {
      "id": 20,
      "imageId": 4,
      "cred": 25,
      "flags": 4,
      "label": "Firefly",
      "description": "Defeat Firefly (P1 only)",
      "howto": "Defeat Firefly (P1 only)"
    },
    {
      "id": 21,
      "imageId": 5,
      "cred": 25,
      "flags": 4,
      "label": "Storm Shattered",
      "description": "Defeat Storm Shadow in all three secret arenas (P1 only)",
      "howto": "Defeat Storm Shadow in all three secret arenas (P1 only)"
    },
    {
      "id": 23,
      "imageId": 10,
      "cred": 50,
      "flags": 1,
      "label": "Strike Commander",
      "description": "Defeat every wave in all Satellite Strike mini-games (P1 only)",
      "howto": "Defeat every wave in all Satellite Strike mini-games (P1 only)"
    },
    {
      "id": 24,
      "imageId": 11,
      "cred": 25,
      "flags": 1,
      "label": "Strike Lieutenant",
      "description": "Defeat every wave in one Satellite Strike mini-game (P1 only)",
      "howto": "Defeat every wave in one Satellite Strike mini-game (P1 only)"
    },
    {
      "id": 25,
      "imageId": 41,
      "cred": 75,
      "flags": 3,
      "label": "Battle Master",
      "description": "Collect and spend all 130 possible Battle Points (P1 only)",
      "howto": "Collect and spend all 130 possible Battle Points (P1 only)"
    },
    {
      "id": 26,
      "imageId": 12,
      "cred": 20,
      "flags": 1,
      "label": "Hack 'n Slash",
      "description": "Finish a level using only melee attacks on ground troops (P1 only)",
      "howto": "Finish a level using only melee attacks on ground troops (P1 only)"
    },
    {
      "id": 27,
      "imageId": 6,
      "cred": 10,
      "flags": 1,
      "label": "Sloppy Joe",
      "description": "Achieve the worst rank on a level without going Man Down (P1 only)",
      "howto": "Achieve the worst rank on a level without going Man Down (P1 only)"
    },
    {
      "id": 33,
      "imageId": 8,
      "cred": 20,
      "flags": 1,
      "label": "Man Up",
      "description": "Complete a Jungle or Tundra mission without going Man Down (P1 only)",
      "howto": "Complete a Jungle or Tundra mission without going Man Down (P1 only)"
    },
    {
      "id": 34,
      "imageId": 9,
      "cred": 20,
      "flags": 1,
      "label": "No \"I\" in Team",
      "description": "Complete mission with higher than 50% Dual Targeting kills (P1 only)",
      "howto": "Complete mission with higher than 50% Dual Targeting kills (P1 only)"
    },
    {
      "id": 38,
      "imageId": 14,
      "cred": 10,
      "flags": 1,
      "label": "Half the Battle",
      "description": "Collect 50% of all File Cards (P1 only)",
      "howto": "Collect 50% of all File Cards (P1 only)"
    },
    {
      "id": 39,
      "imageId": 15,
      "cred": 35,
      "flags": 1,
      "label": "File-o-phile",
      "description": "Collect all File Cards (P1 only)",
      "howto": "Collect all File Cards (P1 only)"
    },
    {
      "id": 40,
      "imageId": 16,
      "cred": 25,
      "flags": 1,
      "label": "Classified",
      "description": "Collect all Intel Cards (P1 only)",
      "howto": "Collect all Intel Cards (P1 only)"
    },
    {
      "id": 41,
      "imageId": 17,
      "cred": 25,
      "flags": 1,
      "label": "Lost & Found",
      "description": "Collect all G.I. JOE Contacts (P1 only)",
      "howto": "Collect all G.I. JOE Contacts (P1 only)"
    },
    {
      "id": 42,
      "imageId": 18,
      "cred": 25,
      "flags": 1,
      "label": "Triplets",
      "description": "Pick up all three types of Point Multipliers in one mission (P1 only)",
      "howto": "Pick up all three types of Point Multipliers in one mission (P1 only)"
    },
    {
      "id": 43,
      "imageId": 19,
      "cred": 50,
      "flags": 2,
      "label": "Arctic Completed",
      "description": "Complete all Arctic missions (P1 only)",
      "howto": "Complete all Arctic missions (P1 only)"
    },
    {
      "id": 44,
      "imageId": 20,
      "cred": 50,
      "flags": 2,
      "label": "Desert Completed",
      "description": "Complete all Desert missions (P1 only)",
      "howto": "Complete all Desert missions (P1 only)"
    },
    {
      "id": 45,
      "imageId": 21,
      "cred": 50,
      "flags": 2,
      "label": "Jungle Completed",
      "description": "Complete all Jungle missions (P1 only)",
      "howto": "Complete all Jungle missions (P1 only)"
    },
    {
      "id": 46,
      "imageId": 22,
      "cred": 50,
      "flags": 2,
      "label": "M.A.S.S. Destruction",
      "description": "Destroy the M.A.S.S. Device (P1 only)",
      "howto": "Destroy the M.A.S.S. Device (P1 only)"
    },
    {
      "id": 47,
      "imageId": 23,
      "cred": 10,
      "flags": 3,
      "label": "Yo Joe!",
      "description": "Purchase two G.I. JOE contacts (P1 only)",
      "howto": "Purchase two G.I. JOE contacts (P1 only)"
    },
    {
      "id": 48,
      "imageId": 24,
      "cred": 25,
      "flags": 3,
      "label": "COBRAAAA!!!",
      "description": "Purchase all COBRA characters (P1 only)",
      "howto": "Purchase all COBRA characters (P1 only)"
    },
    {
      "id": 49,
      "imageId": 25,
      "cred": 50,
      "flags": 3,
      "label": "All G.I. JOE Contacts",
      "description": "Purchase all G.I. JOE contacts (P1 only)",
      "howto": "Purchase all G.I. JOE contacts (P1 only)"
    },
    {
      "id": 51,
      "imageId": 27,
      "cred": 10,
      "flags": 7,
      "label": "Combat Rock",
      "description": "Complete a mission using only Combat class characters (P1 only)",
      "howto": "Complete a mission using only Combat class characters (P1 only)"
    },
    {
      "id": 52,
      "imageId": 28,
      "cred": 10,
      "flags": 7,
      "label": "Go Commando",
      "description": "Complete a mission using only Commando class characters (P1 only)",
      "howto": "Complete a mission using only Commando class characters (P1 only)"
    },
    {
      "id": 53,
      "imageId": 29,
      "cred": 10,
      "flags": 7,
      "label": "Bevvy o' Heavy",
      "description": "Complete a mission using only Heavy class characters (P1 only)",
      "howto": "Complete a mission using only Heavy class characters (P1 only)"
    },
    {
      "id": 54,
      "imageId": 30,
      "cred": 10,
      "flags": 7,
      "label": "The Tables Have Turned",
      "description": "Complete any Arctic, Desert, or Jungle mission using any COBRA character (P1 only)",
      "howto": "Complete any Arctic, Desert, or Jungle mission using any COBRA character (P1 only)"
    },
    {
      "id": 56,
      "imageId": 32,
      "cred": 10,
      "flags": 7,
      "label": "Lovers' Quarrel ",
      "description": "Complete any mission using Baroness and Duke (P1 only)",
      "howto": "Complete any mission using Baroness and Duke (P1 only)"
    },
    {
      "id": 57,
      "imageId": 33,
      "cred": 10,
      "flags": 7,
      "label": "Arishikage Attack",
      "description": "Complete any mission using Snake Eyes and Storm Shadow (P1 only)",
      "howto": "Complete any mission using Snake Eyes and Storm Shadow (P1 only)"
    },
    {
      "id": 58,
      "imageId": 34,
      "cred": 10,
      "flags": 7,
      "label": "Girls Night Out",
      "description": "Complete any mission using female characters only (P1 only)",
      "howto": "Complete any mission using female characters only (P1 only)"
    },
    {
      "id": 59,
      "imageId": 35,
      "cred": 10,
      "flags": 7,
      "label": "Gimme The Keys",
      "description": "Drive every G.I. JOE vehicle in the game (P1 only)",
      "howto": "Drive every G.I. JOE vehicle in the game (P1 only)"
    },
    {
      "id": 60,
      "imageId": 36,
      "cred": 10,
      "flags": 7,
      "label": "Code Cracker",
      "description": "Gain access to a Combat Soldier Class Ability door (P1 only)",
      "howto": "Gain access to a Combat Soldier Class Ability door (P1 only)"
    },
    {
      "id": 61,
      "imageId": 37,
      "cred": 10,
      "flags": 7,
      "label": "Nimble Access",
      "description": "Gain access to a Commando Class Ability door (P1 only)",
      "howto": "Gain access to a Commando Class Ability door (P1 only)"
    },
    {
      "id": 62,
      "imageId": 38,
      "cred": 10,
      "flags": 7,
      "label": "Lost Keys",
      "description": "Gain access to a Heavy Class Ability door (P1 only)",
      "howto": "Gain access to a Heavy Class Ability door (P1 only)"
    },
    {
      "id": 63,
      "imageId": 39,
      "cred": 20,
      "flags": 7,
      "label": "Turret Syndrome",
      "description": "Operate the turret in every vehicle in the game (P1 only)",
      "howto": "Operate the turret in every vehicle in the game (P1 only)"
    },
    {
      "id": 64,
      "imageId": 40,
      "cred": 10,
      "flags": 7,
      "label": "Double Barrel Roll",
      "description": "Perform 10 barrel rolls in unison in any level in co-op (P1 only)",
      "howto": "Perform 10 barrel rolls in unison in any level in co-op (P1 only)"
    },
    {
      "id": 65,
      "imageId": 43,
      "cred": 50,
      "flags": 1,
      "label": "Hardcore G.I. JOE",
      "description": "Complete every Mission on Hardcore Difficulty (P1 only)",
      "howto": "Complete every Mission on Hardcore Difficulty (P1 only)"
    },
    {
      "id": 66,
      "imageId": 44,
      "cred": 10,
      "flags": 1,
      "label": "Higher Score",
      "description": "Replay a mission and earn a higher score (P1 only)",
      "howto": "Replay a mission and earn a higher score (P1 only)"
    },
    {
      "id": 67,
      "imageId": 45,
      "cred": 10,
      "flags": 1,
      "label": "Launch Money",
      "description": "Launch 50 enemies into the air and kill them (P1 only)",
      "howto": "Launch 50 enemies into the air and kill them (P1 only)"
    },
    {
      "id": 68,
      "imageId": 42,
      "cred": 20,
      "flags": 1,
      "label": "Side Mission Completist",
      "description": "Complete all Sub-operation Missions (P1 only)",
      "howto": "Complete all Sub-operation Missions (P1 only)"
    },
    {
      "id": 69,
      "imageId": 7,
      "cred": 10,
      "flags": 1,
      "label": "Acceleration Celebration",
      "description": "Activate the Accelerator Suit three times in any mission (P1 only)",
      "howto": "Activate the Accelerator Suit three times in any mission (P1 only)"
    },
    {
      "id": 70,
      "imageId": 13,
      "cred": 25,
      "flags": 1,
      "label": "Accomplished Mission",
      "description": "Gain the highest Mission Ranking (P1 only)",
      "howto": "Gain the highest Mission Ranking (P1 only)"
    },
    {
      "id": 71,
      "imageId": 31,
      "cred": 10,
      "flags": 3,
      "label": "It Takes Two",
      "description": "Complete any mission in 2 player co-op (P1 only)",
      "howto": "Complete any mission in 2 player co-op (P1 only)"
    }
  ]
}