{
  "achievementsPossible": 15,
  "credPossible": 250,
  "achievements": [
    {
      "id": 2,
      "imageId": 6,
      "cred": 20,
      "flags": 4,
      "label": "100HR",
      "description": "Hit 100 Home Runs in an offline game mode",
      "howto": "Hit 100 Home Runs in an offline game mode"
    },
    {
      "id": 3,
      "imageId": 6,
      "cred": 20,
      "flags": 4,
      "label": "100K",
      "description": "Strike out 100 batters in an offline game mode",
      "howto": "Strike out 100 batters in an offline game mode"
    },
    {
      "id": 4,
      "imageId": 6,
      "cred": 20,
      "flags": 4,
      "label": "Cycle",
      "description": "Hit for the cycle in an offline game mode",
      "howto": "Hit for the cycle in an offline game mode"
    },
    {
      "id": 5,
      "imageId": 6,
      "cred": 20,
      "flags": 4,
      "label": "Green light",
      "description": "Steal a base for the first time in an offline game mode",
      "howto": "Steal a base for the first time in an offline game mode"
    },
    {
      "id": 6,
      "imageId": 6,
      "cred": 20,
      "flags": 4,
      "label": "Double play",
      "description": "Achieve a double play for the first time in an offline mode",
      "howto": "Achieve a double play for the first time in an offline mode"
    },
    {
      "id": 7,
      "imageId": 6,
      "cred": 20,
      "flags": 4,
      "label": "No hitter",
      "description": "Don't give up any hits in a 9 inning game in an offline mode",
      "howto": "Don't give up any hits in a 9 inning game in an offline mode"
    },
    {
      "id": 8,
      "imageId": 5,
      "cred": 10,
      "flags": 4,
      "label": "Local king",
      "description": "Win 10 VS game in an offline game mode",
      "howto": "Win 10 VS game in an offline game mode"
    },
    {
      "id": 9,
      "imageId": 5,
      "cred": 10,
      "flags": 4,
      "label": "Go team!",
      "description": "Win 10 co-op games in an offline game mode",
      "howto": "Win 10 co-op games in an offline game mode"
    },
    {
      "id": 10,
      "imageId": 6,
      "cred": 20,
      "flags": 4,
      "label": "Cyberspace",
      "description": "Win Online Match",
      "howto": "Win Online Match"
    },
    {
      "id": 11,
      "imageId": 5,
      "cred": 10,
      "flags": 4,
      "label": "Season mode",
      "description": "Play 5 yeras in Season mode",
      "howto": "Play 5 yeras in Season mode"
    },
    {
      "id": 12,
      "imageId": 6,
      "cred": 20,
      "flags": 4,
      "label": "Champions in Season mode",
      "description": "Win the World Series® in Season mode",
      "howto": "Win the World Series® in Season mode"
    },
    {
      "id": 13,
      "imageId": 5,
      "cred": 10,
      "flags": 4,
      "label": "Invitation",
      "description": "Invite your friend from MLB® BOBBLEHEAD PROS",
      "howto": "Invite your friend from MLB® BOBBLEHEAD PROS"
    },
    {
      "id": 17,
      "imageId": 6,
      "cred": 20,
      "flags": 4,
      "label": "My Bobble mode",
      "description": "Play 5 yeras in My Bobble mode",
      "howto": "Play 5 yeras in My Bobble mode"
    },
    {
      "id": 18,
      "imageId": 6,
      "cred": 20,
      "flags": 4,
      "label": "Champions in My Bobble mode",
      "description": "Win the World Series® in My Bobble mode",
      "howto": "Win the World Series® in My Bobble mode"
    },
    {
      "id": 19,
      "imageId": 5,
      "cred": 10,
      "flags": 4,
      "label": "Home Run Derby®",
      "description": "Win Home Run Derby®",
      "howto": "Win Home Run Derby®"
    }
  ]
}