{
  "achievementsPossible": 27,
  "credPossible": 400,
  "achievements": [
    {
      "id": 1,
      "imageId": 31,
      "cred": 5,
      "flags": 4,
      "label": "Lost and Found",
      "description": "You found the first piece of the lost Amulet.",
      "howto": "Find the first piece of the amulet"
    },
    {
      "id": 2,
      "imageId": 30,
      "cred": 20,
      "flags": 4,
      "label": "Ludicrous Speed",
      "description": "And just in time for tea! (Reached the old lady in under 5 minutes)",
      "howto": "Reach the Old Lady in under 5 minutes"
    },
    {
      "id": 3,
      "imageId": 29,
      "cred": 25,
      "flags": 4,
      "label": "Clever Boy",
      "description": "One Sea of Sand, 2 Earth Pillars, 3 drawings - piece of cake.",
      "howto": "Solve the last puzzle in Sea of Sand by only creating 3 Earth Pillars"
    },
    {
      "id": 4,
      "imageId": 28,
      "cred": 5,
      "flags": 4,
      "label": "What are You Looking At?",
      "description": "You destroyed 5 of Mustacho's Evil Eyes. That'll teach him.",
      "howto": "Find and destroy 5 of Mustacho's Evil Eyes"
    },
    {
      "id": 7,
      "imageId": 25,
      "cred": 10,
      "flags": 4,
      "label": "Hold on Tight",
      "description": "You tamed the Spikester! ...Lucky you.",
      "howto": "Ride the Spikester for at least 10 seconds"
    },
    {
      "id": 8,
      "imageId": 24,
      "cred": 10,
      "flags": 4,
      "label": "For Whom the Bell Tolls",
      "description": "Time Marches On. (Rang a bell)",
      "howto": "Find a bell and ring it, a lot"
    },
    {
      "id": 9,
      "imageId": 23,
      "cred": 10,
      "flags": 4,
      "label": "Hot Potato",
      "description": "What goes around, comes around. Right in your face.",
      "howto": "Kill a Bomber with his own bomb"
    },
    {
      "id": 10,
      "imageId": 22,
      "cred": 20,
      "flags": 4,
      "label": "Can't Touch This",
      "description": "You completed a level without dying.",
      "howto": "Complete a level without dying"
    },
    {
      "id": 12,
      "imageId": 20,
      "cred": 25,
      "flags": 1,
      "label": "Your Brother's Keeper",
      "description": "You defeated Mustacho and saved your brother!",
      "howto": "Save Felix"
    },
    {
      "id": 15,
      "imageId": 19,
      "cred": 10,
      "flags": 4,
      "label": "What's That Smell?",
      "description": "You lit 15 enemies on fire. Oh the things One does for brotherly love.",
      "howto": "Light 15 of your enemies on fire"
    },
    {
      "id": 16,
      "imageId": 18,
      "cred": 10,
      "flags": 4,
      "label": "Master of Branches",
      "description": "You drew 200 branches.",
      "howto": "Draw 200 branches"
    },
    {
      "id": 18,
      "imageId": 17,
      "cred": 10,
      "flags": 4,
      "label": "Master of Vines ",
      "description": "You drew 200 vines.",
      "howto": " Draw 200 Vines"
    },
    {
      "id": 19,
      "imageId": 16,
      "cred": 10,
      "flags": 4,
      "label": "Master of Water",
      "description": "You drew 200 water streams.",
      "howto": "Draw 200 Water streams"
    },
    {
      "id": 20,
      "imageId": 15,
      "cred": 10,
      "flags": 4,
      "label": "Guts and Glory",
      "description": "You made 5 Critters explode and survived it.",
      "howto": "Make 5 critters explode and survive"
    },
    {
      "id": 23,
      "imageId": 12,
      "cred": 10,
      "flags": 4,
      "label": "Deadshot",
      "description": "It's all in the fingers and fiery balls of death.",
      "howto": "Kill two enemies with one shot"
    },
    {
      "id": 25,
      "imageId": 10,
      "cred": 25,
      "flags": 4,
      "label": "Kingdom of the Blind",
      "description": "No Evil is safe from you and your Grabby Hands.",
      "howto": "Destroy all of Mustacho's Evil Eyes"
    },
    {
      "id": 26,
      "imageId": 9,
      "cred": 25,
      "flags": 4,
      "label": "Tree of Life",
      "description": "You found and assembled the entire Amulet for the Old Lady!",
      "howto": "Recover all the pieces of the lost Amulet"
    },
    {
      "id": 32,
      "imageId": 4,
      "cred": 20,
      "flags": 4,
      "label": "Trust me",
      "description": "You stole back your kid brother like a boss!",
      "howto": "Rescue your brother without killing him"
    },
    {
      "id": 33,
      "imageId": 3,
      "cred": 25,
      "flags": 4,
      "label": "No Stranger to Danger",
      "description": "You defeated Mustacho without dying even once!",
      "howto": "Defeat Mustacho without dying"
    },
    {
      "id": 34,
      "imageId": 2,
      "cred": 10,
      "flags": 4,
      "label": "Just getting started",
      "description": "You used the magic marker 25 times.",
      "howto": "Use the magic marker 25 times"
    },
    {
      "id": 35,
      "imageId": 52,
      "cred": 10,
      "flags": 4,
      "label": "Some Assembly Required",
      "description": "You found and assembled 6 pieces of the lost Amulet.",
      "howto": "Recover 6 pieces of the lost Amulet."
    },
    {
      "id": 36,
      "imageId": 53,
      "cred": 15,
      "flags": 4,
      "label": "Amulet Hunter",
      "description": "You found and assembled 12 pieces of the lost Amulet.",
      "howto": "Recover 12 pieces of the lost Amulet."
    },
    {
      "id": 37,
      "imageId": 48,
      "cred": 10,
      "flags": 4,
      "label": "No Peeking!",
      "description": "You destroyed 25 of Mustacho's Evil Eyes.  Consider his surveillance network impaired.",
      "howto": "Destroy 25 of Mustacho's Evil Eyes."
    },
    {
      "id": 38,
      "imageId": 49,
      "cred": 15,
      "flags": 4,
      "label": "Eye Bye Bye",
      "description": "You destroyed 50 of Mustacho's Evil Eyes. His control is diminishing!",
      "howto": "Destroy 50 of Mustacho's Evil Eyes."
    },
    {
      "id": 39,
      "imageId": 50,
      "cred": 25,
      "flags": 4,
      "label": "Immune to Lava",
      "description": "You didn't die in Death By Lava.",
      "howto": "Don't die in Death By Lava."
    },
    {
      "id": 40,
      "imageId": 51,
      "cred": 25,
      "flags": 4,
      "label": "Perfect Sliding",
      "description": "You escaped the Beast without dying! ",
      "howto": "Complete Sliding Escape without dying."
    },
    {
      "id": 41,
      "imageId": 27,
      "cred": 5,
      "flags": 4,
      "label": "Flipping boxes",
      "description": "Up you go.",
      "howto": "The box is the key to the wall."
    }
  ]
}