{
  "achievementsPossible": 12,
  "credPossible": 200,
  "achievements": [
    {
      "id": 1,
      "imageId": 1,
      "cred": 10,
      "flags": 1,
      "label": "Go Forth And Multiplay",
      "description": "Play an Xbox LIVE multiplayer match.",
      "howto": "Go to multiplayer in the menu, and select Xbox LIVE. It doesn't matter how high you get ranked."
    },
    {
      "id": 2,
      "imageId": 2,
      "cred": 10,
      "flags": 1,
      "label": "Nice Beating You",
      "description": "Defeat the first boss in the pirate theme.",
      "howto": "Play single player campaign mode and reach level 10. Defeat Blockbeard to unlock this achievement."
    },
    {
      "id": 3,
      "imageId": 3,
      "cred": 10,
      "flags": 1,
      "label": "One Meeellion Blocks",
      "description": "Destroy 1.000.000 blocks.",
      "howto": "Destroy a total of 1.000.000 blocks. All blocks you destroyed from all levels are counted."
    },
    {
      "id": 4,
      "imageId": 4,
      "cred": 15,
      "flags": 1,
      "label": "I'll Show You Fits Of Rage",
      "description": "Shoot 20 enemies in 60 seconds.",
      "howto": "In any level, online or offline, kill 20 enemies within one minute to unlock this achievement."
    },
    {
      "id": 5,
      "imageId": 5,
      "cred": 15,
      "flags": 1,
      "label": "You're Like Some Kind Of Robot",
      "description": "Get 50 longshots.",
      "howto": "Kill a total of 50 enemies with a longshot. All longshots through the entire game are counted."
    },
    {
      "id": 6,
      "imageId": 6,
      "cred": 15,
      "flags": 1,
      "label": "Been There, Shot That",
      "description": "Use every power-up at least once.",
      "howto": "Use all 20 power-ups in the game, including the red power-downs. The tutorial level doesn't count."
    },
    {
      "id": 7,
      "imageId": 7,
      "cred": 20,
      "flags": 1,
      "label": "Two Thumb Master",
      "description": "Finish the single player campaign.",
      "howto": "Play through all 80 single player levels successfully to unlock this achievement."
    },
    {
      "id": 8,
      "imageId": 8,
      "cred": 20,
      "flags": 1,
      "label": "On A Gamer's Diet",
      "description": "Shoot 50 zombies, 50 robots, 50 pirates and 50 soldiers.",
      "howto": "Shoot 50 zombies, 50 robots, 50 pirates and 50 soldiers. All levels online and offline count."
    },
    {
      "id": 9,
      "imageId": 9,
      "cred": 20,
      "flags": 1,
      "label": "Natural Born Gamer",
      "description": "Shoot 5000 enemies in total.",
      "howto": "Kill 5000 enemies throughout the game to unlock this achievements."
    },
    {
      "id": 10,
      "imageId": 10,
      "cred": 20,
      "flags": 1,
      "label": "The Things I've Seen",
      "description": "Shoot every type of enemy at least once.",
      "howto": "Kill all different types of enemies in Rocket Riot to unlock this achievement."
    },
    {
      "id": 11,
      "imageId": 11,
      "cred": 20,
      "flags": 1,
      "label": "You Can Handle The Riot",
      "description": "Reach level 50 in endurance or co-op mode.",
      "howto": "Play endurance or co-op with friends, and beat level 50 to unlock this achievement."
    },
    {
      "id": 12,
      "imageId": 12,
      "cred": 25,
      "flags": 1,
      "label": "One Shot, Thrice The Score",
      "description": "Kill 3 enemies with one shot.",
      "howto": "Kill 3 enemies with one shot."
    }
  ]
}