{
  "achievementsPossible": 49,
  "credPossible": 1000,
  "achievements": [
    {
      "id": 6,
      "imageId": 3,
      "cred": 10,
      "flags": 1,
      "label": "Refresher Course",
      "description": "Finished the Prologue Mission: Master & Padawan",
      "howto": "Finish the Prologue Mission: Master & Padawan"
    },
    {
      "id": 7,
      "imageId": 4,
      "cred": 15,
      "flags": 1,
      "label": "Girl Power",
      "description": "Finished all Jedi Missions as Ahsoka",
      "howto": "Finish all Jedi Missions as Ahsoka"
    },
    {
      "id": 8,
      "imageId": 5,
      "cred": 10,
      "flags": 1,
      "label": "Double Trouble",
      "description": "Performed a Droid-Jak at the same time as your partner",
      "howto": "Perform a Droid-Jak at the same time as your partner"
    },
    {
      "id": 9,
      "imageId": 6,
      "cred": 10,
      "flags": 1,
      "label": "Act 1 Padawan",
      "description": "Finished all Act 1 Missions on Padawan Difficulty",
      "howto": "Finish all Act 1 Missions on Padawan Difficulty"
    },
    {
      "id": 10,
      "imageId": 7,
      "cred": 15,
      "flags": 1,
      "label": "Act 1 Master",
      "description": "Finished all Act 1 Missions on Master Difficulty",
      "howto": "Finish all Act 1 Missions on Master Difficulty"
    },
    {
      "id": 11,
      "imageId": 8,
      "cred": 30,
      "flags": 1,
      "label": "Nobody messes with...",
      "description": "Finished all Clone Missions as Cad Bane",
      "howto": "Finish all Clone Missions as Cad Bane"
    },
    {
      "id": 12,
      "imageId": 9,
      "cred": 15,
      "flags": 1,
      "label": "Droid Hopper",
      "description": "Destroyed 25 Droids while Jumping from Droid to Droid",
      "howto": "Destroy 25 Droids by Jumping from Droid to Droid"
    },
    {
      "id": 13,
      "imageId": 10,
      "cred": 10,
      "flags": 1,
      "label": "Act 2 Padawan",
      "description": "Finished all Act 2 Missions on Padawan Difficulty",
      "howto": "Finish all Act 2 Missions on Padawan Difficulty"
    },
    {
      "id": 14,
      "imageId": 11,
      "cred": 15,
      "flags": 1,
      "label": "Act 2 Master",
      "description": "Finished all Act 2 Missions on Master Difficulty",
      "howto": "Finish all Act 2 Missions on Master Difficulty"
    },
    {
      "id": 22,
      "imageId": 12,
      "cred": 10,
      "flags": 1,
      "label": "Two's company\r\n",
      "description": "Finished a mission with another Player",
      "howto": "Finish a mission with another Player"
    },
    {
      "id": 23,
      "imageId": 13,
      "cred": 15,
      "flags": 1,
      "label": "Dance of Death\r\n",
      "description": "Destroyed 25 droids while they are dancing",
      "howto": "Destroy 25 droids while they are dancing"
    },
    {
      "id": 24,
      "imageId": 14,
      "cred": 30,
      "flags": 1,
      "label": "Act 3 Padawan\r\n",
      "description": "Finished all Act 3 Missions on Padawan Difficulty",
      "howto": "Finish all Act 3 Missions on Padawan Difficulty"
    },
    {
      "id": 25,
      "imageId": 15,
      "cred": 90,
      "flags": 1,
      "label": "Act 3 Master",
      "description": "Finished all Act 3 Missions on Master Difficulty",
      "howto": "Finish all Act 3 Missions on Master Difficulty"
    },
    {
      "id": 26,
      "imageId": 16,
      "cred": 15,
      "flags": 1,
      "label": "Heroic Alliance",
      "description": "Finished a mission in co-op with a combined score of over 10000 points ",
      "howto": "Finish a mission in co-op with a combined score of over 10000 points "
    },
    {
      "id": 27,
      "imageId": 17,
      "cred": 15,
      "flags": 1,
      "label": "Youngling Award",
      "description": "Got at least a Bronze Medal for every challenge",
      "howto": "Get at least a Bronze Medal for every challenge"
    },
    {
      "id": 28,
      "imageId": 18,
      "cred": 30,
      "flags": 1,
      "label": "Republic Heroes",
      "description": "Finished all Missions with another Player",
      "howto": "Finish all missions with another Player"
    },
    {
      "id": 29,
      "imageId": 19,
      "cred": 30,
      "flags": 1,
      "label": "Master Award",
      "description": "Got a Gold Medal for every challenge",
      "howto": "Get a Gold Medal for every challenge"
    },
    {
      "id": 30,
      "imageId": 20,
      "cred": 10,
      "flags": 1,
      "label": "Jawa Scavenger",
      "description": "Collected 1 Artifact",
      "howto": "Collect an Artifact"
    },
    {
      "id": 31,
      "imageId": 21,
      "cred": 10,
      "flags": 1,
      "label": "Jawa Hunter",
      "description": "Collected 25 Artifacts",
      "howto": "Collect 25 Artifacts"
    },
    {
      "id": 32,
      "imageId": 22,
      "cred": 30,
      "flags": 1,
      "label": "Jawa Lord",
      "description": "Collected 50 Artifacts",
      "howto": "Collect 50 Artifacts"
    },
    {
      "id": 33,
      "imageId": 23,
      "cred": 10,
      "flags": 1,
      "label": "Come back soon",
      "description": "Bought a Hat or Mask",
      "howto": "Buy a Hat or Mask"
    },
    {
      "id": 34,
      "imageId": 24,
      "cred": 15,
      "flags": 1,
      "label": "Combat Master",
      "description": "Bought all Combat upgrades",
      "howto": "Buy all Combat upgrades"
    },
    {
      "id": 35,
      "imageId": 25,
      "cred": 15,
      "flags": 1,
      "label": "Droid Master",
      "description": "Bought all Droid-Jak upgrades",
      "howto": "Buy all Droid-Jak upgrades"
    },
    {
      "id": 36,
      "imageId": 26,
      "cred": 15,
      "flags": 1,
      "label": "Dance Master",
      "description": "Bought all Droid Dancing upgrades",
      "howto": "Buy all Droid Dancing upgrades"
    },
    {
      "id": 37,
      "imageId": 27,
      "cred": 15,
      "flags": 1,
      "label": "Can't Touch Me",
      "description": "Defeated Kul Teska without either player dying",
      "howto": "Defeat Kul Teska on Behpour without either player dying"
    },
    {
      "id": 38,
      "imageId": 28,
      "cred": 30,
      "flags": 1,
      "label": "Dressed for Success",
      "description": "Bought every Hat & Mask",
      "howto": "Buy every Hat & Mask"
    },
    {
      "id": 39,
      "imageId": 29,
      "cred": 15,
      "flags": 1,
      "label": "Jedi Knight",
      "description": "Got a Gold Medal on a Jedi Mission",
      "howto": "Get a Gold Medal on a Jedi Mission"
    },
    {
      "id": 40,
      "imageId": 30,
      "cred": 15,
      "flags": 1,
      "label": "Clone Captain",
      "description": "Got a Gold Medal on a Clone Mission",
      "howto": "Get a Gold Medal on a Clone Mission"
    },
    {
      "id": 41,
      "imageId": 31,
      "cred": 30,
      "flags": 1,
      "label": "Jedi Master",
      "description": "Got a Platinum Medal on a Jedi Mission",
      "howto": "Get a Platinum Medal on a Jedi Mission"
    },
    {
      "id": 42,
      "imageId": 32,
      "cred": 30,
      "flags": 1,
      "label": "Clone Commander",
      "description": "Got a Platinum Medal on a Clone Mission",
      "howto": "Get a Platinum Medal on a Clone Mission"
    },
    {
      "id": 43,
      "imageId": 33,
      "cred": 10,
      "flags": 1,
      "label": "Droid Disruptor",
      "description": "Got over 250 points while controlling a single droid",
      "howto": "Get over 250 points while controlling a single droid"
    },
    {
      "id": 44,
      "imageId": 34,
      "cred": 15,
      "flags": 1,
      "label": "Demolition Derby",
      "description": "Destroyed over 100 droids with Droid-Jaks",
      "howto": "Destroy over 100 droids with Droid-Jaks"
    },
    {
      "id": 45,
      "imageId": 35,
      "cred": 15,
      "flags": 1,
      "label": "Droid Dynamo",
      "description": "Got over 100 points while controlling each type of Droid",
      "howto": "Get over 100 points while controlling each type of Droid"
    },
    {
      "id": 46,
      "imageId": 36,
      "cred": 15,
      "flags": 1,
      "label": "Dynamic Duo",
      "description": "Finished all Jedi missions as Anakin & Ahsoka",
      "howto": "Finish all Jedi missions as Anakin & Ahsoka"
    },
    {
      "id": 47,
      "imageId": 37,
      "cred": 30,
      "flags": 1,
      "label": "High Achiever",
      "description": "Gained over 200,000 points",
      "howto": "Get a total score of over 200,000 points"
    },
    {
      "id": 48,
      "imageId": 38,
      "cred": 30,
      "flags": 1,
      "label": "Time to kill",
      "description": "Combined best time for all missions is under 200 minutes",
      "howto": "Get a combined best time for all missions under 200 minutes"
    },
    {
      "id": 49,
      "imageId": 39,
      "cred": 30,
      "flags": 1,
      "label": "Scrap Lord",
      "description": "Destroyed over 5000 droids",
      "howto": "Destroy 5000 droids"
    },
    {
      "id": 50,
      "imageId": 40,
      "cred": 90,
      "flags": 1,
      "label": "Campaign Veteran",
      "description": "Got a Gold Medal for every mission",
      "howto": "Get a Gold Medal for every mission"
    },
    {
      "id": 51,
      "imageId": 41,
      "cred": 15,
      "flags": 1,
      "label": "Bowling Master",
      "description": "Destroyed 10 Droids with a rolling Destroyer",
      "howto": "Destroy 10 Droids with a rolling Destroyer"
    },
    {
      "id": 52,
      "imageId": 42,
      "cred": 15,
      "flags": 1,
      "label": "My Hero",
      "description": "Destroyed 10 Droids attacking your partner",
      "howto": "Destroy 10 Droids attacking your partner"
    },
    {
      "id": 53,
      "imageId": 43,
      "cred": 15,
      "flags": 1,
      "label": "Force Crusher",
      "description": "Destroyed 50 Droids with a mounted Force Kill",
      "howto": "Destroy 50 Droids with a mounted Force Kill"
    },
    {
      "id": 54,
      "imageId": 44,
      "cred": 15,
      "flags": 1,
      "label": "Watch your step",
      "description": "Pushed 50 enemies off an edge to their doom",
      "howto": "Push 50 enemies off an edge to their doom"
    },
    {
      "id": 55,
      "imageId": 45,
      "cred": 15,
      "flags": 1,
      "label": "Grand Slam",
      "description": "Destroyed 25 Droids by doing a jump attack off another character",
      "howto": "Destroy 25 Droids by doing a jump attack off another character"
    },
    {
      "id": 56,
      "imageId": 46,
      "cred": 15,
      "flags": 1,
      "label": "Up close and personal",
      "description": "Destroyed 50 droids with a clone melee attack",
      "howto": "Destroy 50 droids with a clone melee attack"
    },
    {
      "id": 57,
      "imageId": 47,
      "cred": 15,
      "flags": 1,
      "label": "Tag Team",
      "description": "Destroyed 100 droids your partner has stunned",
      "howto": "Destroy 100 droids your partner has stunned"
    },
    {
      "id": 58,
      "imageId": 48,
      "cred": 15,
      "flags": 1,
      "label": "Handle with care",
      "description": "Destroyed 20 droids with explosive props",
      "howto": "Destroy 20 droids with explosive props"
    },
    {
      "id": 59,
      "imageId": 49,
      "cred": 10,
      "flags": 1,
      "label": "I got one!",
      "description": "Destroyed a Gold Droid",
      "howto": "Destroy a Gold Droid"
    },
    {
      "id": 60,
      "imageId": 50,
      "cred": 15,
      "flags": 1,
      "label": "Gold Leader",
      "description": "Force Killed one of each type of Gold Droid",
      "howto": "Force Kill one of each type of Gold Droid"
    },
    {
      "id": 61,
      "imageId": 51,
      "cred": 15,
      "flags": 1,
      "label": "No Favorites",
      "description": "Destroyed at least one droid with each Droid-Jak",
      "howto": "Destroy at least one droid with each Droid-Jak"
    }
  ]
}