{
  "avatarAssetsPossible": 4,
  "maleAvatarAssetsPossible": 1,
  "femaleAvatarAssetsPossible": 1,
  "avatarAssets": [
    {
      "id": "00000008-0001-4161-c44e-c91958411213",
      "imageId": 82,
      "subcategory": 0,
      "unknown": 0,
      "isMale": true,
      "isFemale": false,
      "isUnisex": false,
      "label": "Avacynian Breastplate",
      "description": "Planeswalked to Innistrad",
      "howto": "Planeswalk to Innistrad"
    },
    {
      "id": "00000008-0001-6162-c894-323158411213",
      "imageId": 80,
      "subcategory": 0,
      "unknown": 2015221016,
      "isMale": false,
      "isFemale": true,
      "isUnisex": false,
      "label": "Avacynian Breastplate",
      "description": "Planeswalked to Innistrad",
      "howto": "Planeswalk to Innistrad"
    },
    {
      "id": "00000544-0002-0103-cb99-9c6558411213",
      "imageId": 84,
      "subcategory": 0,
      "unknown": 2015221016,
      "isMale": false,
      "isFemale": false,
      "isUnisex": true,
      "label": "Garruk Wildspeaker Helmet",
      "description": "Defeated Garruk Wildspeaker in the Revenge campaign",
      "howto": "Defeat Garruk Wildspeaker in the Revenge campaign"
    },
    {
      "id": "00000544-0003-61d3-c0e1-3a9758411213",
      "imageId": 86,
      "subcategory": 0,
      "unknown": 2015221016,
      "isMale": false,
      "isFemale": false,
      "isUnisex": true,
      "label": "Nicol Bolas Horns",
      "description": "Defeated Nicol Bolas in the revenge campaign",
      "howto": "Defeat Nicol Bolas in the revenge campaign"
    }
  ]
}