{
  "avatarAssetsPossible": 3,
  "maleAvatarAssetsPossible": 1,
  "femaleAvatarAssetsPossible": 1,
  "avatarAssets": [
    {
      "id": "00000008-0001-e131-c50c-fab058410a06",
      "imageId": 14,
      "subcategory": 0,
      "unknown": 0,
      "isMale": true,
      "isFemale": false,
      "isUnisex": false,
      "label": "After Burner Logo T-Shirt",
      "description": "A t-shirt for true After Burner Climax fans only.",
      "howto": "Unlock all EX OPTIONS!"
    },
    {
      "id": "00000008-0001-91f2-cb0f-745f58410a06",
      "imageId": 15,
      "subcategory": 0,
      "unknown": 2013287320,
      "isMale": false,
      "isFemale": true,
      "isUnisex": false,
      "label": "After Burner Logo T-Shirt",
      "description": "A t-shirt for true After Burner Climax fans only.",
      "howto": "Unlock all EX OPTIONS!"
    },
    {
      "id": "00000544-0003-9123-c381-35ae58410a06",
      "imageId": 19,
      "subcategory": 0,
      "unknown": 2013287320,
      "isMale": false,
      "isFemale": false,
      "isUnisex": true,
      "label": "After Burner Helmet",
      "description": "Exclusive After Burner Fighter Pilot Helmet.",
      "howto": "Complete your MEDAL COLLECTION!"
    }
  ]
}