{
  "achievementsPossible": 18,
  "credPossible": 1000,
  "achievements": [
    {
      "id": 3,
      "imageId": 1,
      "cred": 50,
      "flags": 1,
      "label": "Book of Swords",
      "description": "Have acquired a book describing how to use swords. ",
      "howto": "After creating your character, be sure to save your play data. "
    },
    {
      "id": 4,
      "imageId": 2,
      "cred": 50,
      "flags": 1,
      "label": "Book of Horses",
      "description": "Have acquired a book describing how to fight on horseback.",
      "howto": "After creating your character, be sure to save your play data. "
    },
    {
      "id": 5,
      "imageId": 16,
      "cred": 50,
      "flags": 1,
      "label": "Book of Bows",
      "description": "Have acquired a book describing how to use bows and crossbows.",
      "howto": "After creating your character, be sure to save your play data. "
    },
    {
      "id": 6,
      "imageId": 3,
      "cred": 50,
      "flags": 1,
      "label": "Book of Knives",
      "description": "Have acquired a book describing how to use light weapons like knives.\r\n",
      "howto": "Occasionally there are Books in the chests dropped during battle. "
    },
    {
      "id": 7,
      "imageId": 4,
      "cred": 50,
      "flags": 1,
      "label": "Book of Rapiers",
      "description": "Have acquired a book describing how to use rapiers. ",
      "howto": "Occasionally there are Books in the chests dropped during battle. "
    },
    {
      "id": 8,
      "imageId": 17,
      "cred": 50,
      "flags": 1,
      "label": "Book of Spears",
      "description": "Have acquired a book describing how to use the spear.",
      "howto": "Occasionally there are Books in the chests dropped during battle. "
    },
    {
      "id": 9,
      "imageId": 5,
      "cred": 50,
      "flags": 1,
      "label": "Book of Long Spears",
      "description": "Have acquired a book describing how to use long spears. ",
      "howto": "Occasionally there are Books in the chests dropped during battle. "
    },
    {
      "id": 10,
      "imageId": 6,
      "cred": 50,
      "flags": 1,
      "label": "Book of Halberds",
      "description": "Have acquired a book describing how to use long shafted weapons.",
      "howto": "Occasionally there are Books in the chests dropped during battle. "
    },
    {
      "id": 18,
      "imageId": 7,
      "cred": 50,
      "flags": 1,
      "label": "Book of Axes",
      "description": "Have acquired a book describing how to use axes.",
      "howto": "Occasionally there are Books in the chests dropped during battle. "
    },
    {
      "id": 19,
      "imageId": 18,
      "cred": 50,
      "flags": 1,
      "label": "Book of Clubs",
      "description": "Have acquired a book describing how to use dull weapons.",
      "howto": "Occasionally there are Books in the chests dropped during battle. "
    },
    {
      "id": 20,
      "imageId": 8,
      "cred": 50,
      "flags": 1,
      "label": "Book of Horsebows",
      "description": "Have acquired a book describing how to use bows from horseback.",
      "howto": "Occasionally there are Books in the chests dropped during battle. "
    },
    {
      "id": 21,
      "imageId": 9,
      "cred": 50,
      "flags": 1,
      "label": "Book of Camels",
      "description": "Have acquired a book describing how to use camels in battle.",
      "howto": "Occasionally there are Books in the chests dropped during battle. "
    },
    {
      "id": 22,
      "imageId": 10,
      "cred": 50,
      "flags": 1,
      "label": "Book of Elephants",
      "description": "Have acquired a book describing how to use huge beasts from the south.",
      "howto": "Occasionally there are Books in the chests dropped during battle. "
    },
    {
      "id": 23,
      "imageId": 11,
      "cred": 50,
      "flags": 1,
      "label": "Book of Chariots",
      "description": "Have acquired a book describing how to use horse drawn war carts. ",
      "howto": "Occasionally there are Books in the chests dropped during battle. "
    },
    {
      "id": 24,
      "imageId": 13,
      "cred": 50,
      "flags": 1,
      "label": "Book of Magic",
      "description": "Have acquired a book describing how to use the power of nature.",
      "howto": "Occasionally there are Books in the chests dropped during battle. "
    },
    {
      "id": 25,
      "imageId": 12,
      "cred": 50,
      "flags": 1,
      "label": "Book of Explosives",
      "description": "Have acquired a book describing how to use firearms.",
      "howto": "???"
    },
    {
      "id": 26,
      "imageId": 14,
      "cred": 50,
      "flags": 1,
      "label": "Book of Engineering",
      "description": "Have acquired a book describing a special style of fighting. ",
      "howto": "???"
    },
    {
      "id": 27,
      "imageId": 15,
      "cred": 150,
      "flags": 1,
      "label": "Cleared Story",
      "description": "Story cleared. ",
      "howto": "After viewing the ending, be sure to save your play data. "
    }
  ]
}