{
  "achievementsPossible": 18,
  "credPossible": 300,
  "achievements": [
    {
      "id": 1,
      "imageId": 2,
      "cred": 10,
      "flags": 4,
      "label": "Bone On!!",
      "description": "You've won your first race!",
      "howto": "Win a race in Mega Quest!"
    },
    {
      "id": 2,
      "imageId": 3,
      "cred": 20,
      "flags": 6,
      "label": "Cheaters Never Prosper",
      "description": "Turns out he was the evil Captain Turncoat! What a twist! ",
      "howto": "Defeat that dastardly Thief at the end of Chapter 1."
    },
    {
      "id": 3,
      "imageId": 4,
      "cred": 20,
      "flags": 6,
      "label": "Flip Out",
      "description": "Ninja flipped out so much at the end of Chapter 2 he didn't even think about it.",
      "howto": "Unleash your power and defeat the boss at the end of Chapter 2."
    },
    {
      "id": 4,
      "imageId": 5,
      "cred": 25,
      "flags": 1,
      "label": "Hail to the King",
      "description": "You completed Mega Quest. More bragging rights for your already Kingly resumé!",
      "howto": "Complete the Mega Quest and bring peace to the Raskulls."
    },
    {
      "id": 5,
      "imageId": 6,
      "cred": 25,
      "flags": 1,
      "label": "King Of Bling",
      "description": "With all the shiny Medallions, you are a true King of Bling.",
      "howto": "Collect every Medallion in the Mega Quest."
    },
    {
      "id": 6,
      "imageId": 7,
      "cred": 10,
      "flags": 4,
      "label": "Tell Friends About This Game",
      "description": "Your friends never expected to lose so badly. You sure showed them!",
      "howto": "Win a four-player local Grand Prix match – and don't forget to brag about it!"
    },
    {
      "id": 7,
      "imageId": 8,
      "cred": 20,
      "flags": 4,
      "label": "Five Times a Raskull",
      "description": "You won 5 Xbox LIVE Grand Prix matches.",
      "howto": "Win 5 Xbox LIVE Grand Prix matches!"
    },
    {
      "id": 8,
      "imageId": 9,
      "cred": 20,
      "flags": 4,
      "label": "Smarty Pants...",
      "description": "You totally won by using that Raskull as a stepladder to awesome.",
      "howto": "Win by jumping off another Raskull to an out of reach finish. (Local or Xbox LIVE multiplayer)"
    },
    {
      "id": 9,
      "imageId": 10,
      "cred": 10,
      "flags": 4,
      "label": "Flame Grilled",
      "description": "You used Flame Charge to pan-fry your opponents.",
      "howto": "Hit three other Raskulls with a single Flame Charge."
    },
    {
      "id": 10,
      "imageId": 11,
      "cred": 10,
      "flags": 4,
      "label": "Uncomfortably Energetic!",
      "description": "You Frenzied for over 10 seconds! Your Frenzy skills pay the bills.",
      "howto": "Keep a single Frenzy going for 10 seconds. (Excludes Mega Quest bosses and \"Stay Frenzied\" races.)"
    },
    {
      "id": 11,
      "imageId": 12,
      "cred": 20,
      "flags": 1,
      "label": "Accomplished Blocksmith",
      "description": "You destroyed 20,000 blocks, an Achievement worthy of a true Raskulls veteran.",
      "howto": "Destroy 20,000 blocks across all modes. (That is, the small blocks that make up the big blocks.)"
    },
    {
      "id": 12,
      "imageId": 13,
      "cred": 10,
      "flags": 4,
      "label": "Zuppercut!",
      "description": "You launched 10 Raskulls. Good grief!",
      "howto": "Launch Raskulls upwards with the Thunder Staff 10 times. (Local or Xbox LIVE multiplayer.)"
    },
    {
      "id": 13,
      "imageId": 15,
      "cred": 20,
      "flags": 4,
      "label": "Block Dodger",
      "description": "You finished the Shiny Stone Cup without being crushed! Skulltastic!",
      "howto": "Finish the Shiny Stone Cup without being crushed."
    },
    {
      "id": 14,
      "imageId": 18,
      "cred": 15,
      "flags": 4,
      "label": "Purrrrfect",
      "description": "Kitten totally won that race with a Stun All to spare!",
      "howto": "As Kitten, win a race with a Stun All in reserve."
    },
    {
      "id": 15,
      "imageId": 19,
      "cred": 15,
      "flags": 4,
      "label": "Viking Punch!",
      "description": "That Flame Charge was no match for Viking!",
      "howto": "As Viking, rebound a Flame Charge with Wand Push."
    },
    {
      "id": 16,
      "imageId": 20,
      "cred": 20,
      "flags": 4,
      "label": "Stay Frosty",
      "description": "You kept your cool and finished the Halfbrick Cup without being burnt by lava.",
      "howto": "Finish the Halfbrick Cup without being burnt by lava."
    },
    {
      "id": 17,
      "imageId": 21,
      "cred": 15,
      "flags": 4,
      "label": "Well-Done",
      "description": "You won Tempest Tunnels by Flame Charging upwards to the Finish. Hot skills!",
      "howto": "Win on Tempest Tunnels by Flame Charging upwards to the Finish."
    },
    {
      "id": 18,
      "imageId": 22,
      "cred": 15,
      "flags": 4,
      "label": "Battleboned!",
      "description": "Those other Raskulls were no match for Battlebones!",
      "howto": "As Battlebones, win a race without using Frenzy."
    }
  ]
}