{
  "achievementsPossible": 62,
  "credPossible": 1250,
  "achievements": [
    {
      "id": 1,
      "imageId": 64,
      "cred": 4,
      "flags": 1,
      "label": "Tune Up",
      "description": "Calibrated your audio/video setup for the optimal Rock Band 3 experience.",
      "howto": "Calibrate your audio/video setup for the optimal Rock Band 3 experience."
    },
    {
      "id": 2,
      "imageId": 16,
      "cred": 5,
      "flags": 1,
      "label": "Self-Made Dude or Lady",
      "description": "Created a Character.",
      "howto": "Create a Character."
    },
    {
      "id": 5,
      "imageId": 17,
      "cred": 5,
      "flags": 1,
      "label": "Best. Name. Ever.",
      "description": "Renamed your band.",
      "howto": "Rename your band."
    },
    {
      "id": 6,
      "imageId": 63,
      "cred": 6,
      "flags": 1,
      "label": "Well Connected",
      "description": "Connected your Rock Band 3 Band with rockband.com.",
      "howto": "Connect your Rock Band 3 Band with rockband.com at http://www.rockband.com."
    },
    {
      "id": 8,
      "imageId": 18,
      "cred": 20,
      "flags": 1,
      "label": "You Ain't Seen Nothing Yet",
      "description": "Maintained overdrive for 60 seconds.",
      "howto": "Maintain overdrive for 60 seconds."
    },
    {
      "id": 9,
      "imageId": 19,
      "cred": 25,
      "flags": 1,
      "label": "Millionaire Club",
      "description": "Got 1,000,000 on one song.",
      "howto": "Get 1,000,000 on one song."
    },
    {
      "id": 10,
      "imageId": 23,
      "cred": 25,
      "flags": 1,
      "label": "Rock Band Master",
      "description": "5 Starred on Medium (or 3 Starred on a higher difficulty) 50 Rock Band 3 songs.",
      "howto": "5 Star on Medium (or 3 Star on a higher difficulty) any 50 Rock Band 3 songs."
    },
    {
      "id": 11,
      "imageId": 22,
      "cred": 30,
      "flags": 1,
      "label": "Rock Band Legend",
      "description": "5 Star every song in Rock Band 3 on Hard",
      "howto": "5 Star every song in Rock Band 3 on Hard."
    },
    {
      "id": 12,
      "imageId": 21,
      "cred": 50,
      "flags": 1,
      "label": "Rock Band Immortal",
      "description": "5 Starred the Rock Band 3 disc on Expert.",
      "howto": "5 Star every song in Rock Band 3 on Expert."
    },
    {
      "id": 13,
      "imageId": 20,
      "cred": 30,
      "flags": 1,
      "label": "Alex's Luggage Combination",
      "description": "Beat a Rock Band 3 score of 12,345,678.",
      "howto": "Beat a Rock Band 3 score of 12,345,678."
    },
    {
      "id": 14,
      "imageId": 24,
      "cred": 20,
      "flags": 1,
      "label": "Hometown Threwdown",
      "description": "Completed the \"Hometown Throwdown\" Road Challenge.",
      "howto": "Complete the \"Hometown Throwdown\" Road Challenge."
    },
    {
      "id": 15,
      "imageId": 25,
      "cred": 20,
      "flags": 1,
      "label": "Real Nor'easter",
      "description": "Completed \"The Wicked Awesome Tour\".",
      "howto": "Complete \"The Wicked Awesome Tour\"."
    },
    {
      "id": 16,
      "imageId": 29,
      "cred": 25,
      "flags": 1,
      "label": "Hell Defrosted",
      "description": "Won all rewards on the \"Hell Freezes Over\" Road Challenge.",
      "howto": "Win all rewards on the \"Hell Freezes Over\" Road Challenge."
    },
    {
      "id": 17,
      "imageId": 26,
      "cred": 20,
      "flags": 1,
      "label": "Wilderness Survival",
      "description": "Complete the \"Through the Wilderness, Eh?\" Road Challenge.",
      "howto": "Complete the \"Through the Wilderness, Eh?\" Road Challenge."
    },
    {
      "id": 18,
      "imageId": 30,
      "cred": 25,
      "flags": 1,
      "label": "Major Mileage",
      "description": "Got 90 or more spades on \"The Long Drive South\" Road Challenge.",
      "howto": "Get 90 or more spades on \"The Long Drive South\" Road Challenge."
    },
    {
      "id": 19,
      "imageId": 27,
      "cred": 20,
      "flags": 1,
      "label": "Party Animal",
      "description": "Completed the \"Total Debauchery\" Road Challenge.",
      "howto": "Completed the \"Total Debauchery\" Road Challenge."
    },
    {
      "id": 20,
      "imageId": 31,
      "cred": 25,
      "flags": 1,
      "label": "The Connoisseur's Connoisseur",
      "description": "Got 90 or more spades on \"The European Connoisseur\" Road Challenge.",
      "howto": "Get 90 or more spades on \"The European Connoisseur\" Road Challenge."
    },
    {
      "id": 21,
      "imageId": 28,
      "cred": 25,
      "flags": 1,
      "label": "Mile High Club",
      "description": "Completed the \"Really Frequent Flyers\" Road Challenge.",
      "howto": "Complete the \"Really Frequent Flyers\" Road Challenge."
    },
    {
      "id": 22,
      "imageId": 32,
      "cred": 30,
      "flags": 1,
      "label": "Ultimate Road Warrior",
      "description": "Won all awards on the \"Really Frequent Flyers\" Road Challenge.",
      "howto": "Win all awards on the \"Really Frequent Flyers\" Road Challenge."
    },
    {
      "id": 23,
      "imageId": 38,
      "cred": 25,
      "flags": 1,
      "label": "HOPO-cidal Maniac",
      "description": "Killed 53,596 Hammer-ons and Pull-offs.",
      "howto": "Kill 53,596 Hammer-ons and Pull-offs."
    },
    {
      "id": 24,
      "imageId": 39,
      "cred": 30,
      "flags": 1,
      "label": "Bleeding Fingers",
      "description": "Get 85% on all Guitar Solos in Rock Band 3 on Hard or Expert.",
      "howto": "Get 85% on all Guitar Solos in Rock Band 3 on Hard or Expert."
    },
    {
      "id": 25,
      "imageId": 40,
      "cred": 25,
      "flags": 1,
      "label": "Guitar Perfectionist",
      "description": "Got 100% accuracy on Expert Guitar. ",
      "howto": "Get 100% accuracy on Expert Guitar. "
    },
    {
      "id": 26,
      "imageId": 41,
      "cred": 20,
      "flags": 1,
      "label": "Guitar Apprentice",
      "description": "5 Starred on Easy Guitar (or 3 Starred on a higher difficulty) 25 Rock Band 3 songs.",
      "howto": "5 Star on Easy Guitar (or 3 Star on a higher difficulty) any 25 Rock Band 3 songs."
    },
    {
      "id": 27,
      "imageId": 33,
      "cred": 10,
      "flags": 1,
      "label": "Bass Streaker",
      "description": "Get a streak of 500 notes on Bass.",
      "howto": "Get a streak of 500 notes on Bass."
    },
    {
      "id": 28,
      "imageId": 34,
      "cred": 10,
      "flags": 1,
      "label": "Most Authentic Strummer",
      "description": "Hit 100% of the notes, only strumming up, on Hard Bass. ",
      "howto": "Hit 100% of the notes, only strumming up, on Hard Bass. "
    },
    {
      "id": 29,
      "imageId": 65,
      "cred": 20,
      "flags": 1,
      "label": "Bass Apprentice",
      "description": "5 Starred on Easy (or 3 Starred on a higher difficulty) 25 Rock Band 3 songs.\r\n",
      "howto": "5 Starred on Easy Bass (or 3 Starred on a higher difficulty) 25 Rock Band 3 songs."
    },
    {
      "id": 30,
      "imageId": 35,
      "cred": 10,
      "flags": 1,
      "label": "Drum Roll, Please!",
      "description": "Nailed a drum roll.",
      "howto": "Nail a drum roll."
    },
    {
      "id": 31,
      "imageId": 36,
      "cred": 15,
      "flags": 1,
      "label": "Fastest Feet",
      "description": "Hit 90% of the Kick notes in a song on Hard Drums.",
      "howto": "Hit 90% of the Kick notes in a song on Hard Drums. "
    },
    {
      "id": 32,
      "imageId": 37,
      "cred": 20,
      "flags": 1,
      "label": "Drums Apprentice",
      "description": "5 Starred on Easy Drums (or 3 Starred on a higher difficulty) 25 Rock Band 3 songs.",
      "howto": "5 Star on Easy Drums (or 3 Star on a higher difficulty) any 25 Rock Band 3 songs. "
    },
    {
      "id": 33,
      "imageId": 42,
      "cred": 15,
      "flags": 1,
      "label": "Keys Streaker",
      "description": "Got a streak of 350 notes on Keys.",
      "howto": "Get a streak of 350 notes on Keys."
    },
    {
      "id": 34,
      "imageId": 43,
      "cred": 20,
      "flags": 1,
      "label": "Keys Apprentice",
      "description": "5 Starred on Easy Keys (or 3 Starred on a higher difficulty) 25 Rock Band 3 songs.",
      "howto": "5 Star on Easy Keys (or 3 Star on a higher difficulty) any 25 Rock Band 3 songs."
    },
    {
      "id": 35,
      "imageId": 44,
      "cred": 20,
      "flags": 1,
      "label": "Pro Bass Apprentice",
      "description": "5 Starred on Easy Pro Bass (or 3 Starred on a higher difficulty) 25 Rock Band 3 songs.",
      "howto": "5 Star on Easy Pro Bass (or 3 Star on a higher difficulty) any 25 Rock Band 3 songs."
    },
    {
      "id": 36,
      "imageId": 45,
      "cred": 15,
      "flags": 1,
      "label": "Drum Trainer Initiate",
      "description": "Completed the introductory Pro Drum Trainer lessons.",
      "howto": "Complete the introductory Pro Drum Trainer lessons."
    },
    {
      "id": 37,
      "imageId": 46,
      "cred": 30,
      "flags": 1,
      "label": "Drum Trainer Graduate",
      "description": "Completed the final Pro Drum Trainer lessons.",
      "howto": "Complete the final Pro Drum Trainer lessons."
    },
    {
      "id": 38,
      "imageId": 47,
      "cred": 15,
      "flags": 1,
      "label": "Play a Real Guitar Already!",
      "description": "Played \"The Hardest Button to Button\" on Pro Guitar.",
      "howto": "Play \"The Hardest Button to Button\" on Pro Guitar."
    },
    {
      "id": 39,
      "imageId": 48,
      "cred": 15,
      "flags": 1,
      "label": "Pro Guitar to the Max",
      "description": "Maxed out your Score Multiplier meter on Pro Guitar.",
      "howto": "Max out your Score Multiplier meter on Pro Guitar. "
    },
    {
      "id": 40,
      "imageId": 49,
      "cred": 15,
      "flags": 1,
      "label": "Power Chords",
      "description": "Completed the \"Power Chords\" lessons in the Pro Guitar trainer.",
      "howto": "Complete the \"Power Chords\" lessons in the Pro Guitar trainer."
    },
    {
      "id": 41,
      "imageId": 50,
      "cred": 25,
      "flags": 1,
      "label": "Complex Chords",
      "description": "Completed the \"More Chord Holding and Arpeggiation\" Pro Guitar lessons.",
      "howto": "Complete the \"More Chord Holding and Arpeggiation\" Pro Guitar lessons."
    },
    {
      "id": 42,
      "imageId": 51,
      "cred": 20,
      "flags": 1,
      "label": "Pro Guitar Apprentice",
      "description": "5 Starred on Easy Pro Guitar (or 3 Starred on a higher difficulty) 25 Rock Band 3 songs.",
      "howto": "5 Star on Easy Pro Guitar (or 3 Star on a higher difficulty) any 25 Rock Band 3 songs."
    },
    {
      "id": 43,
      "imageId": 52,
      "cred": 15,
      "flags": 1,
      "label": "Pro Keyboardist",
      "description": "Hit at least 90% of the notes in 3 songs on Expert Pro Keys.",
      "howto": "Hit at least 90% of the notes in 3 songs on Expert Pro Keys."
    },
    {
      "id": 44,
      "imageId": 53,
      "cred": 25,
      "flags": 1,
      "label": "Pro Keys Graduate",
      "description": "Completed the final Pro Keys trainers.",
      "howto": "Complete the final Pro Keys trainers."
    },
    {
      "id": 45,
      "imageId": 62,
      "cred": 15,
      "flags": 1,
      "label": "Pro Keys to the Max",
      "description": "Max out your Score Multiplier meter on Pro Keys. ",
      "howto": "Max out your Score Multiplier meter on Pro Keys. "
    },
    {
      "id": 46,
      "imageId": 54,
      "cred": 20,
      "flags": 1,
      "label": "Pro Keys Apprentice",
      "description": "5 Starred on Easy Pro Keys (or 3 Starred on a higher difficulty) 25 Rock Band 3 songs.",
      "howto": "5 Star on Easy Pro Keys (or 3 Star on a higher difficulty) any 25 Rock Band 3 songs."
    },
    {
      "id": 47,
      "imageId": 55,
      "cred": 10,
      "flags": 1,
      "label": "Triple Awesome",
      "description": "Got a Triple Awesome while playing with Vocal Harmonies.",
      "howto": "Get a Triple Awesome while playing with Vocal Harmonies."
    },
    {
      "id": 48,
      "imageId": 56,
      "cred": 25,
      "flags": 1,
      "label": "Is This Just Fantasy?",
      "description": "Nailed all triple awesomes in \"Bohemian Rhapsody\". ",
      "howto": "Hit all triple awesomes in \"Bohemian Rhapsody\" on Medium or a higher difficulty."
    },
    {
      "id": 49,
      "imageId": 57,
      "cred": 10,
      "flags": 1,
      "label": "Vocals Showmanship",
      "description": "Deployed overdrive four times in a single song as a vocalist.",
      "howto": "Deploy overdrive four times in a single song as a vocalist.\r\n"
    },
    {
      "id": 50,
      "imageId": 58,
      "cred": 10,
      "flags": 1,
      "label": "Tambourine Master",
      "description": "Hit 100% of the notes in a percussion section.",
      "howto": "Hit 100% of the notes in a percussion section."
    },
    {
      "id": 51,
      "imageId": 59,
      "cred": 15,
      "flags": 1,
      "label": "Vocal Virtuoso",
      "description": "Earn an Awesome rating on at least 90% of the phrases in 6 songs on Hard Vocals.",
      "howto": "Earn an Awesome rating on at least 90% of the phrases in 6 songs on Hard Vocals."
    },
    {
      "id": 52,
      "imageId": 60,
      "cred": 20,
      "flags": 1,
      "label": "Vocal Apprentice",
      "description": "5 Starred on Easy Vocals (or 3 Starred on a higher difficulty) 25 Rock Band 3 songs.",
      "howto": "5 Star on Easy Vocals (or 3 Star on a higher difficulty) any 25 Rock Band 3 songs."
    },
    {
      "id": 53,
      "imageId": 61,
      "cred": 50,
      "flags": 1,
      "label": "The Endless Setlist III",
      "description": "Sucessfully completed \"The Endless Setlist III!\"",
      "howto": "Sucessfully complete \"The Endless Setlist III!\""
    },
    {
      "id": 54,
      "imageId": 15,
      "cred": 20,
      "flags": 1,
      "label": "Downloader",
      "description": "Played a downloaded song.",
      "howto": "Play a downloaded song."
    },
    {
      "id": 55,
      "imageId": 14,
      "cred": 30,
      "flags": 1,
      "label": "Mercurial Vocalist",
      "description": "Earned 5 stars on Vocals on a downloaded Queen song.",
      "howto": "Earn 5 stars on Vocals on a downloaded Queen song."
    },
    {
      "id": 56,
      "imageId": 4,
      "cred": 25,
      "flags": 1,
      "label": "Live Free or Die",
      "description": "Beat all of the free downloadable songs for Rock Band.",
      "howto": "Beat all of the free downloadable songs for Rock Band."
    },
    {
      "id": 57,
      "imageId": 5,
      "cred": 15,
      "flags": 1,
      "label": "Fistful of Awesome",
      "description": "Beat 5 downloaded songs.",
      "howto": "Beat 5 downloaded songs."
    },
    {
      "id": 58,
      "imageId": 11,
      "cred": 15,
      "flags": 1,
      "label": "Accountant's Dozen",
      "description": "Beat 12 downloaded songs.",
      "howto": "Beat 12 downloaded songs."
    },
    {
      "id": 59,
      "imageId": 6,
      "cred": 15,
      "flags": 1,
      "label": "Decent Collection",
      "description": "Beat 20 downloaded songs.",
      "howto": "Beat 20 downloaded songs."
    },
    {
      "id": 60,
      "imageId": 7,
      "cred": 15,
      "flags": 1,
      "label": "I Want It All",
      "description": "Play a downloaded Queen song.",
      "howto": "Play a downloaded Queen song."
    },
    {
      "id": 61,
      "imageId": 8,
      "cred": 15,
      "flags": 1,
      "label": "Shameless Self-Promotion",
      "description": "Downloaded and played three songs from a band that has Harmonix team members in it. ",
      "howto": "Download and play three songs from a band that has Harmonix team members in it. "
    },
    {
      "id": 62,
      "imageId": 9,
      "cred": 15,
      "flags": 1,
      "label": "Just Another Band Out of Boston",
      "description": "5 Star any Boston song.",
      "howto": "5 Star any Boston song."
    },
    {
      "id": 63,
      "imageId": 12,
      "cred": 25,
      "flags": 1,
      "label": "Face Melter",
      "description": "Melted faces by beating three '80s Metal songs.",
      "howto": "Melt faces by beating any three '80s Metal songs."
    },
    {
      "id": 64,
      "imageId": 10,
      "cred": 30,
      "flags": 1,
      "label": "Dave Grohl Band",
      "description": "Beat 5 songs from any band that has had Dave Grohl as a member.",
      "howto": "Beat 5 songs from any band that has had Dave Grohl as a member."
    },
    {
      "id": 65,
      "imageId": 13,
      "cred": 30,
      "flags": 1,
      "label": "The Perfect Drug",
      "description": "Somehow managed a 200 note streak on \"The Perfect Drug\".",
      "howto": "Get a 200 note streak on \"The Perfect Drug\"."
    }
  ]
}