{
  "achievementsPossible": 12,
  "credPossible": 200,
  "achievements": [
    {
      "id": 1,
      "imageId": 13,
      "cred": 50,
      "flags": 4,
      "label": "Warlords Fever",
      "description": "Win 103 matches",
      "howto": "Win 103 matches"
    },
    {
      "id": 2,
      "imageId": 13,
      "cred": 10,
      "flags": 4,
      "label": "Breakout",
      "description": "Destroy 50 wall segments using only fireballs",
      "howto": "Destroy 50 wall segments using only fireballs"
    },
    {
      "id": 3,
      "imageId": 13,
      "cred": 10,
      "flags": 4,
      "label": "Fish In A Barrel",
      "description": "Destroy 50 troops using only fireballs",
      "howto": "Destroy 50 troops using only fireballs"
    },
    {
      "id": 4,
      "imageId": 13,
      "cred": 20,
      "flags": 4,
      "label": "Control Freak",
      "description": "Own all Control Points at the same time in a 4 player game",
      "howto": "Own all Control Points at the same time in a 4 player game"
    },
    {
      "id": 5,
      "imageId": 13,
      "cred": 10,
      "flags": 4,
      "label": "Siege Engine",
      "description": "Destroy 50 wall segments using only troops",
      "howto": "Destroy 50 wall segments using only troops"
    },
    {
      "id": 6,
      "imageId": 13,
      "cred": 10,
      "flags": 4,
      "label": "Master Mason",
      "description": "Repair 50 wall segments back to full health",
      "howto": "Repair 50 wall segments back to full health"
    },
    {
      "id": 7,
      "imageId": 13,
      "cred": 10,
      "flags": 4,
      "label": "Savior of Ataria",
      "description": "Complete the single player campaign",
      "howto": "Complete the single player campaign"
    },
    {
      "id": 8,
      "imageId": 13,
      "cred": 20,
      "flags": 4,
      "label": "Power Is Everything",
      "description": "Obtain 50 powerups",
      "howto": "Obtain 50 powerups"
    },
    {
      "id": 9,
      "imageId": 13,
      "cred": 20,
      "flags": 4,
      "label": "Defender Of The Weak",
      "description": "Banish the Black Knight 50 times",
      "howto": "Banish the Black Knight 50 times"
    },
    {
      "id": 10,
      "imageId": 13,
      "cred": 10,
      "flags": 4,
      "label": "Divine Intervention",
      "description": "Get the White Knight Shield 50 times",
      "howto": "Get the White Knight Shield 50 times"
    },
    {
      "id": 11,
      "imageId": 13,
      "cred": 10,
      "flags": 4,
      "label": "An Eye For An Eye",
      "description": "Destroy 50 troops using only your troops",
      "howto": "Destroy 50 troops using only your troops"
    },
    {
      "id": 12,
      "imageId": 13,
      "cred": 20,
      "flags": 4,
      "label": "Just Barely",
      "description": "Win a game with no wall segments left",
      "howto": "Win a game with no wall segments left"
    }
  ]
}