{
  "achievementsPossible": 45,
  "credPossible": 1000,
  "achievements": [
    {
      "id": 15,
      "imageId": 1,
      "cred": 25,
      "flags": 6,
      "label": "Rough Awakening",
      "description": "Wake up from a terrible nightmare in Chapter 1: Fears Half Forgotten.",
      "howto": "Wake up from a terrible nightmare in Chapter 1: Fears Half Forgotten."
    },
    {
      "id": 16,
      "imageId": 1,
      "cred": 25,
      "flags": 6,
      "label": "Contained!",
      "description": "Close all cargo containers in Chapter 2: Trouble at the Docks.",
      "howto": "Close all cargo containers in Chapter 2: Trouble at the Docks."
    },
    {
      "id": 17,
      "imageId": 1,
      "cred": 25,
      "flags": 6,
      "label": "Workplace Safety",
      "description": "Defeat the threat against the comic book store in Chapter 3: Heck Breaks Loose.",
      "howto": "Defeat the threat against the comic book store in Chapter 3: Heck Breaks Loose."
    },
    {
      "id": 18,
      "imageId": 1,
      "cred": 25,
      "flags": 6,
      "label": "Metalhead",
      "description": "Prevent a mystic artifact from being stolen in Chapter 4: Helmet Blunder.",
      "howto": "Prevent a mystic artifact from being stolen in Chapter 4: Helmet Blunder."
    },
    {
      "id": 19,
      "imageId": 1,
      "cred": 25,
      "flags": 6,
      "label": "Tourist",
      "description": "Visit a picturesque temple and live to tell the tale in Chapter 5: Eye of the Dragon.",
      "howto": "Visit a picturesque temple and live to tell the tale in Chapter 5: Eye of the Dragon."
    },
    {
      "id": 20,
      "imageId": 1,
      "cred": 25,
      "flags": 6,
      "label": "Woodsman",
      "description": "Survive the hostile fauna in Chapter 6: Crossroads.",
      "howto": "Survive the hostile fauna in Chapter 6: Crossroads."
    },
    {
      "id": 21,
      "imageId": 1,
      "cred": 25,
      "flags": 6,
      "label": "A Million Volts",
      "description": "Cause enough havoc to escape danger in Chapter 7: Jungle Boogie.",
      "howto": "Cause enough havoc to escape danger in Chapter 7: Jungle Boogie."
    },
    {
      "id": 22,
      "imageId": 1,
      "cred": 25,
      "flags": 6,
      "label": "Swamp Thing",
      "description": "Survive the swamp horrors in Chapter 8: A Helping Wing.",
      "howto": "Survive the swamp horrors in Chapter 8: A Helping Wing."
    },
    {
      "id": 23,
      "imageId": 1,
      "cred": 25,
      "flags": 6,
      "label": "Nothing To See Here",
      "description": "Clear monstrous squatters from the ruins in Chapter 9: Big, Bad and Ugly.",
      "howto": "Clear monstrous squatters from the ruins in Chapter 9: Big, Bad and Ugly."
    },
    {
      "id": 24,
      "imageId": 1,
      "cred": 25,
      "flags": 6,
      "label": "Next!",
      "description": "Defeat a horde of minions in Chapter 10: The New Boss in Town.",
      "howto": "Defeat a horde of minions in Chapter 10: The New Boss in Town."
    },
    {
      "id": 25,
      "imageId": 1,
      "cred": 25,
      "flags": 6,
      "label": "Live to Fight Another Day",
      "description": "Survive your first encounter with a dangerous foe in Chapter 11: Blazing Guns.",
      "howto": "Survive your first encounter with a dangerous foe in Chapter 11: Blazing Guns."
    },
    {
      "id": 26,
      "imageId": 1,
      "cred": 25,
      "flags": 6,
      "label": "Overshadowed",
      "description": "Return a forgotten memory to its sleeping place in Chapter 12: A Shadow from the Past.",
      "howto": "Return a forgotten memory to its sleeping place in Chapter 12: A Shadow from the Past."
    },
    {
      "id": 27,
      "imageId": 1,
      "cred": 25,
      "flags": 6,
      "label": "Janitor",
      "description": "Clean up a horde of monsters in Chapter 13: The Great Escape.",
      "howto": "Clean up a horde of monsters in Chapter 13: The Great Escape."
    },
    {
      "id": 28,
      "imageId": 1,
      "cred": 25,
      "flags": 1,
      "label": "All in a Day's Work",
      "description": "Save the world in Chapter 14: The Hordes of Doom.",
      "howto": "Save the world in Chapter 14: The Hordes of Doom."
    },
    {
      "id": 29,
      "imageId": 20,
      "cred": 20,
      "flags": 4,
      "label": "Zookeeper",
      "description": "Reach round 7 in Survival: Horde.",
      "howto": "Reach round 7 in Survival: Horde."
    },
    {
      "id": 30,
      "imageId": 20,
      "cred": 20,
      "flags": 4,
      "label": "Lightbringer",
      "description": "Reach round 7 in Survival: Darkness.",
      "howto": "Reach round 7 in Survival: Darkness."
    },
    {
      "id": 31,
      "imageId": 20,
      "cred": 20,
      "flags": 4,
      "label": "Shadowboxer",
      "description": "Reach round 7 in Survival: Shadow Warriors.",
      "howto": "Reach round 7 in Survival: Shadow Warriors."
    },
    {
      "id": 32,
      "imageId": 20,
      "cred": 20,
      "flags": 4,
      "label": "Unmasker",
      "description": "Reach round 7 in Survival: Masked Warriors.",
      "howto": "Reach round 7 in Survival: Masked Warriors."
    },
    {
      "id": 37,
      "imageId": 5,
      "cred": 40,
      "flags": 4,
      "label": "Extreme Survivalist",
      "description": "Reach round 21 in Survival: Horde.",
      "howto": "Reach round 21 in Survival: Horde."
    },
    {
      "id": 38,
      "imageId": 2,
      "cred": 10,
      "flags": 4,
      "label": "Blue Belt",
      "description": "Defeat 100 enemies.",
      "howto": "Defeat 100 enemies."
    },
    {
      "id": 39,
      "imageId": 3,
      "cred": 15,
      "flags": 4,
      "label": "Red Belt",
      "description": "Defeat 200 enemies.",
      "howto": "Defeat 200 enemies."
    },
    {
      "id": 40,
      "imageId": 4,
      "cred": 25,
      "flags": 4,
      "label": "Black Belt",
      "description": "Defeat 400 enemies.",
      "howto": "Defeat 400 enemies."
    },
    {
      "id": 41,
      "imageId": 7,
      "cred": 15,
      "flags": 4,
      "label": "Rumbler",
      "description": "Damage four or more enemies with a single Ground Shaker.",
      "howto": "Damage four or more enemies with a single Ground Shaker."
    },
    {
      "id": 42,
      "imageId": 6,
      "cred": 15,
      "flags": 4,
      "label": "Zapper",
      "description": "Finish off three or more enemies using Lightning in one fight.",
      "howto": "Finish off three or more enemies using Lightning in one fight."
    },
    {
      "id": 43,
      "imageId": 8,
      "cred": 15,
      "flags": 4,
      "label": "Power Punisher",
      "description": "Hit an enemy from behind with Power Punch.",
      "howto": "Hit an enemy from behind with Power Punch."
    },
    {
      "id": 44,
      "imageId": 8,
      "cred": 15,
      "flags": 4,
      "label": "Air Superiority",
      "description": "Hit a flying enemy with Power Punch.",
      "howto": "Hit a flying enemy with Power Punch."
    },
    {
      "id": 45,
      "imageId": 9,
      "cred": 15,
      "flags": 4,
      "label": "Slo-Mo Master",
      "description": "Deal damage six times during a single Time Stop.",
      "howto": "Deal damage six times during a single Time Stop."
    },
    {
      "id": 46,
      "imageId": 15,
      "cred": 15,
      "flags": 4,
      "label": "Nick of Time",
      "description": "Block an attack when you have less than 10% health remaining.",
      "howto": "Block an attack when you have less than 10% health remaining."
    },
    {
      "id": 47,
      "imageId": 16,
      "cred": 30,
      "flags": 4,
      "label": "Perfect Style",
      "description": "Reach 100% style in a single fight by using a varied combination of attacks.",
      "howto": "Reach 100% style in a single fight by using a varied combination of attacks."
    },
    {
      "id": 48,
      "imageId": 17,
      "cred": 30,
      "flags": 4,
      "label": "Fight Marathon",
      "description": "Defeat 100 or more enemies during a single fight.",
      "howto": "Defeat 100 or more enemies during a single fight."
    },
    {
      "id": 49,
      "imageId": 10,
      "cred": 15,
      "flags": 4,
      "label": "Headshot!",
      "description": "Shoot a Giant in the head with the Magic Bow.",
      "howto": "Shoot a Giant in the head with the Magic Bow."
    },
    {
      "id": 50,
      "imageId": 18,
      "cred": 20,
      "flags": 7,
      "label": "Kung-Fu Party!",
      "description": "Complete a multiplayer fight against 3 or more players controlling enemies.",
      "howto": "Complete a multiplayer fight against 3 or more players controlling enemies."
    },
    {
      "id": 51,
      "imageId": 19,
      "cred": 15,
      "flags": 4,
      "label": "Artful Dodger",
      "description": "In a single fight, perform a dodge, duck, flip dodge, backflip dodge and jump dodge.",
      "howto": "In a single fight, perform a dodge, duck, flip dodge, backflip dodge and jump dodge."
    },
    {
      "id": 52,
      "imageId": 10,
      "cred": 15,
      "flags": 4,
      "label": "William Tell",
      "description": "Score five consecutive hits using the Magic Bow.",
      "howto": "Score five consecutive hits using the Magic Bow."
    },
    {
      "id": 53,
      "imageId": 13,
      "cred": 25,
      "flags": 4,
      "label": "Tenacious",
      "description": "In Chapter 4: Helmet Blunder, defeat the Shadow Guard without using Ground Shaker.",
      "howto": "In Chapter 4: Helmet Blunder, defeat the Shadow Guard without using Ground Shaker."
    },
    {
      "id": 54,
      "imageId": 14,
      "cred": 15,
      "flags": 4,
      "label": "Pick on Someone Your Own Size",
      "description": "Finish off a Giant while giant-sized yourself.",
      "howto": "Finish off a Giant while giant-sized yourself."
    },
    {
      "id": 55,
      "imageId": 16,
      "cred": 25,
      "flags": 4,
      "label": "Tactician",
      "description": "Win a single fight without physically touching any enemies yourself.",
      "howto": "Win a single fight without physically touching any enemies yourself."
    },
    {
      "id": 56,
      "imageId": 13,
      "cred": 15,
      "flags": 4,
      "label": "Wham!",
      "description": "Hit an Armored Inkling while Mega Damage is active.",
      "howto": "Hit an Armored Inkling while Mega Damage is active."
    },
    {
      "id": 58,
      "imageId": 6,
      "cred": 15,
      "flags": 4,
      "label": "Multitasker",
      "description": "Hit an enemy while zapping a different enemy with Lightning.",
      "howto": "Hit an enemy while zapping a different enemy with Lightning."
    },
    {
      "id": 59,
      "imageId": 12,
      "cred": 20,
      "flags": 4,
      "label": "Fast as Lightning",
      "description": "Complete a Mayhem Designer fight against a total of 6 or more enemies with a time scale of 150%.",
      "howto": "Complete a Mayhem Designer fight against a total of 6 or more enemies with a time scale of 150%."
    },
    {
      "id": 60,
      "imageId": 7,
      "cred": 20,
      "flags": 4,
      "label": "And Stay Down!",
      "description": "Finish off a Giant by bringing one down to its knees, then using Ground Shaker on its back.",
      "howto": "Finish off a Giant by bringing one down to its knees, then using Ground Shaker on its back."
    },
    {
      "id": 61,
      "imageId": 10,
      "cred": 20,
      "flags": 4,
      "label": "Volley!",
      "description": "Shoot 100 or more arrows with the Magic Bow during one fight.",
      "howto": "Shoot 100 or more arrows with the Magic Bow during one fight."
    },
    {
      "id": 62,
      "imageId": 10,
      "cred": 15,
      "flags": 4,
      "label": "Bullseye!",
      "description": "Use the Magic Bow to hit an enemy that is over 30 meters away.",
      "howto": "Use the Magic Bow to hit an enemy that is over 30 meters away."
    },
    {
      "id": 63,
      "imageId": 11,
      "cred": 65,
      "flags": 1,
      "label": "Double Black Belt of Awesomeness",
      "description": "Acquire all other achievements.",
      "howto": "Acquire all other achievements."
    },
    {
      "id": 64,
      "imageId": 19,
      "cred": 30,
      "flags": 4,
      "label": "Untouchable",
      "description": "For 3 minutes, avoid hitting and getting hit by enemies in Chapter 2: Trouble at the Docks.",
      "howto": "For 3 minutes, avoid hitting and getting hit by enemies in Chapter 2: Trouble at the Docks."
    }
  ]
}