{
  "avatarAssetsPossible": 10,
  "maleAvatarAssetsPossible": 5,
  "femaleAvatarAssetsPossible": 5,
  "avatarAssets": [
    {
      "id": "00000100-0001-f1a1-c8b5-d6b95451088c",
      "imageId": 44,
      "subcategory": 0,
      "unknown": 0,
      "isMale": true,
      "isFemale": false,
      "isUnisex": false,
      "label": "Shutter Shades",
      "description": "In Career mode, complete all Level 2 songs",
      "howto": "In Career mode, complete all Level 2 songs"
    },
    {
      "id": "00000100-0001-c1d2-c161-3d715451088c",
      "imageId": 45,
      "subcategory": 0,
      "unknown": 2015221016,
      "isMale": false,
      "isFemale": true,
      "isUnisex": false,
      "label": "Hot Sunglasses",
      "description": "In Career mode, complete all Level 2 songs",
      "howto": "In Career mode, complete all Level 2 songs"
    },
    {
      "id": "00000238-0002-5111-c8a4-5e205451088c",
      "imageId": 21,
      "subcategory": 0,
      "unknown": 2015221016,
      "isMale": true,
      "isFemale": false,
      "isUnisex": false,
      "label": "King of Dance suit",
      "description": "In Career mode, complete all Level 6 songs",
      "howto": "In Career mode, complete all Level 6 songs"
    },
    {
      "id": "00000038-0002-d1f2-c9e0-e7825451088c",
      "imageId": 41,
      "subcategory": 0,
      "unknown": 2015221016,
      "isMale": false,
      "isFemale": true,
      "isUnisex": false,
      "label": "Queen of Dance suit",
      "description": "In Career mode, complete all Level 6 songs",
      "howto": "In Career mode, complete all Level 6 songs"
    },
    {
      "id": "00000040-0003-c151-ca0a-f94b5451088c",
      "imageId": 42,
      "subcategory": 0,
      "unknown": 2015221016,
      "isMale": true,
      "isFemale": false,
      "isUnisex": false,
      "label": "Wool Cap",
      "description": "In Career mode, complete all Level 3 songs",
      "howto": "In Career mode, complete all Level 3 songs"
    },
    {
      "id": "00000040-0003-6132-c50b-92955451088c",
      "imageId": 43,
      "subcategory": 0,
      "unknown": 2015221016,
      "isMale": false,
      "isFemale": true,
      "isUnisex": false,
      "label": "Pink Stetson",
      "description": "In Career mode, complete all Level 3 songs",
      "howto": "In Career mode, complete all Level 3 songs"
    },
    {
      "id": "00000020-0004-9101-cc5f-1bde5451088c",
      "imageId": 46,
      "subcategory": 0,
      "unknown": 2015221016,
      "isMale": true,
      "isFemale": false,
      "isUnisex": false,
      "label": "Silver Sneakers",
      "description": "In Career mode, complete all Level 4 songs",
      "howto": "In Career mode, complete all Level 4 songs"
    },
    {
      "id": "00000020-0004-f1a2-c8b5-d6b95451088c",
      "imageId": 47,
      "subcategory": 0,
      "unknown": 2015221016,
      "isMale": false,
      "isFemale": true,
      "isUnisex": false,
      "label": "Ankle Boots",
      "description": "In Career mode, complete all Level 4 songs",
      "howto": "In Career mode, complete all Level 4 songs"
    },
    {
      "id": "00000008-0005-0171-c394-1a075451088c",
      "imageId": 48,
      "subcategory": 0,
      "unknown": 2015221016,
      "isMale": true,
      "isFemale": false,
      "isUnisex": false,
      "label": "Dance T-Shirt",
      "description": "In Career mode, complete all Level 5 songs",
      "howto": "In Career mode, complete all Level 5 songs"
    },
    {
      "id": "00000008-0005-e182-c51f-b50b5451088c",
      "imageId": 49,
      "subcategory": 0,
      "unknown": 2015221016,
      "isMale": false,
      "isFemale": true,
      "isUnisex": false,
      "label": "Cool Top",
      "description": "In Career mode, complete all Level 5 songs",
      "howto": "In Career mode, complete all Level 5 songs"
    }
  ]
}