{
  "achievementsPossible": 50,
  "credPossible": 1000,
  "achievements": [
    {
      "id": 52,
      "imageId": 53,
      "cred": 10,
      "flags": 1,
      "label": "You Will Be Ace",
      "description": "Destroy 4 planes in Versus mode",
      "howto": "Destroy 4 planes in Versus mode"
    },
    {
      "id": 53,
      "imageId": 23,
      "cred": 40,
      "flags": 1,
      "label": "Good Start",
      "description": "Receive 5 medals",
      "howto": "Receive 5 medals"
    },
    {
      "id": 54,
      "imageId": 51,
      "cred": 30,
      "flags": 1,
      "label": "Brave Spirit",
      "description": "Win a battle against superior forces in Versus mode.",
      "howto": "Win a battle against superior forces in Versus mode."
    },
    {
      "id": 56,
      "imageId": 52,
      "cred": 30,
      "flags": 1,
      "label": "Leader",
      "description": "Win a battle in Versus mode as the leader.",
      "howto": "Win a battle in Versus mode as the leader."
    },
    {
      "id": 60,
      "imageId": 37,
      "cred": 10,
      "flags": 1,
      "label": "Rookie",
      "description": "Earn the second rank",
      "howto": "Earn the second rank"
    },
    {
      "id": 61,
      "imageId": 62,
      "cred": 40,
      "flags": 1,
      "label": "Combat Pilot",
      "description": "Earn the fifth rank",
      "howto": "Earn the fifth rank"
    },
    {
      "id": 62,
      "imageId": 38,
      "cred": 20,
      "flags": 1,
      "label": "Half-Way",
      "description": "Earn the tenth rank",
      "howto": "Earn the tenth rank"
    },
    {
      "id": 64,
      "imageId": 47,
      "cred": 20,
      "flags": 1,
      "label": "Preparing",
      "description": "Complete the Pre-War chapter.",
      "howto": "Complete the Pre-War chapter."
    },
    {
      "id": 65,
      "imageId": 58,
      "cred": 50,
      "flags": 1,
      "label": "To The Far East",
      "description": "Complete the American Historical campaign.",
      "howto": "Complete the American Historical campaign."
    },
    {
      "id": 66,
      "imageId": 8,
      "cred": 50,
      "flags": 1,
      "label": "From The Far East",
      "description": "Complete the Japanese Historical campaign.",
      "howto": "Complete the Japanese Historical campaign."
    },
    {
      "id": 69,
      "imageId": 36,
      "cred": 20,
      "flags": 1,
      "label": "Pearl Harbor",
      "description": "Complete the Japanese chapter \"Attack on Pearl Harbor\".",
      "howto": "Complete the Japanese chapter \"Attack on Pearl Harbor\"."
    },
    {
      "id": 70,
      "imageId": 49,
      "cred": 20,
      "flags": 1,
      "label": "Wake Island",
      "description": "Complete the American chapter \"Battle of Wake Island\".",
      "howto": "Complete the American chapter \"Battle of Wake Island\"."
    },
    {
      "id": 71,
      "imageId": 32,
      "cred": 20,
      "flags": 1,
      "label": "Midway Atoll",
      "description": "Complete the Japanese chapter \"Battle of Midway\".",
      "howto": "Complete the Japanese chapter \"Battle of Midway\"."
    },
    {
      "id": 72,
      "imageId": 15,
      "cred": 20,
      "flags": 1,
      "label": "The Coral Sea",
      "description": "Complete the American chapter \"Battle of the Coral Sea\".",
      "howto": "Complete the American chapter \"Battle of the Coral Sea\"."
    },
    {
      "id": 73,
      "imageId": 60,
      "cred": 20,
      "flags": 1,
      "label": "Guadalcanal",
      "description": "Complete the Japanese chapter \"Guadalcanal Campaign\".",
      "howto": "Complete the Japanese chapter \"Guadalcanal Campaign\"."
    },
    {
      "id": 74,
      "imageId": 19,
      "cred": 20,
      "flags": 1,
      "label": "Winner",
      "description": "Complete any Dynamic campaign",
      "howto": "Complete any Dynamic campaign"
    },
    {
      "id": 76,
      "imageId": 31,
      "cred": 20,
      "flags": 1,
      "label": "Malta",
      "description": "Complete any mission in the Single Missions chapter \"Siege of Malta\".",
      "howto": "Complete any mission in the Single Missions chapter \"Siege of Malta\"."
    },
    {
      "id": 77,
      "imageId": 29,
      "cred": 20,
      "flags": 1,
      "label": "Kuban",
      "description": "Complete any mission in the Single Missions chapter \"Battle for the Kuban\".",
      "howto": "Complete any mission in the Single Missions chapter \"Battle for the Kuban\"."
    },
    {
      "id": 78,
      "imageId": 40,
      "cred": 20,
      "flags": 1,
      "label": "Ruhr",
      "description": "Complete any mission in the Single Missions chapter \"Battle of Ruhr\".",
      "howto": "Complete any mission in the Single Missions chapter \"Battle of Ruhr\"."
    },
    {
      "id": 79,
      "imageId": 33,
      "cred": 20,
      "flags": 1,
      "label": "New Guinea",
      "description": "Complete any mission in the Single Missions chapter \"New Guinea Campaign\".",
      "howto": "Complete any mission in the Single Missions chapter \"New Guinea Campaign\"."
    },
    {
      "id": 80,
      "imageId": 10,
      "cred": 20,
      "flags": 1,
      "label": "Takeoff",
      "description": "Take off.",
      "howto": "Take off."
    },
    {
      "id": 81,
      "imageId": 30,
      "cred": 20,
      "flags": 1,
      "label": "It Was Easy",
      "description": "Land on an aircraft carrier.",
      "howto": "Land on an aircraft carrier."
    },
    {
      "id": 82,
      "imageId": 26,
      "cred": 20,
      "flags": 1,
      "label": "The Italian",
      "description": "Fly in each Italian plane.",
      "howto": "Fly in each Italian plane."
    },
    {
      "id": 83,
      "imageId": 9,
      "cred": 20,
      "flags": 1,
      "label": "The Australian",
      "description": "Fly in each Australian plane.",
      "howto": "Fly in each Australian plane."
    },
    {
      "id": 84,
      "imageId": 13,
      "cred": 30,
      "flags": 1,
      "label": "Choose Your Favorite",
      "description": "Fly in one of each country's planes.",
      "howto": "Fly in one of each country's planes."
    },
    {
      "id": 85,
      "imageId": 14,
      "cred": 30,
      "flags": 1,
      "label": "Make a Flight",
      "description": "Complete any mission in CO-OP mode",
      "howto": "Complete any mission in CO-OP mode"
    },
    {
      "id": 87,
      "imageId": 16,
      "cred": 30,
      "flags": 1,
      "label": "New Skin",
      "description": "Earn any skin for your plane",
      "howto": "Earn any skin for your plane"
    },
    {
      "id": 88,
      "imageId": 57,
      "cred": 30,
      "flags": 1,
      "label": "New Decal",
      "description": "Earn any decal for your plane",
      "howto": "Earn any decal for your plane"
    },
    {
      "id": 89,
      "imageId": 6,
      "cred": 50,
      "flags": 1,
      "label": "New Record",
      "description": "Destroy 100 planes",
      "howto": "Destroy 100 planes"
    },
    {
      "id": 90,
      "imageId": 7,
      "cred": 50,
      "flags": 1,
      "label": "New Weapon",
      "description": "Destroy 100 ground units",
      "howto": "Destroy 100 ground units"
    },
    {
      "id": 93,
      "imageId": 18,
      "cred": 10,
      "flags": 1,
      "label": "First Wave",
      "description": "Destroy all vehicles on Wheeler Field in the mission \"First Wave\".",
      "howto": "Destroy all vehicles on Wheeler Field in the mission \"First Wave\"."
    },
    {
      "id": 94,
      "imageId": 56,
      "cred": 10,
      "flags": 1,
      "label": "Second Wave",
      "description": "Bomb two different targets by one loadout in the mission \"Second Wave\".",
      "howto": "Bomb two different targets by one loadout in the mission \"Second Wave\"."
    },
    {
      "id": 95,
      "imageId": 46,
      "cred": 10,
      "flags": 1,
      "label": "Return to Oahu",
      "description": "Make \"Touch and Go\" on Ford Island in the mission \"Return to Oahu\".",
      "howto": "Make \"Touch and Go\" on Ford Island in the mission \"Return to Oahu\"."
    },
    {
      "id": 96,
      "imageId": 44,
      "cred": 10,
      "flags": 1,
      "label": "Survivor ",
      "description": "Land your damaged aircraft on the airfield in the mission \"The Two Against Thirty-Nine\". ",
      "howto": "Land your damaged aircraft on the airfield in the mission \"The Two Against Thirty-Nine\". "
    },
    {
      "id": 97,
      "imageId": 41,
      "cred": 10,
      "flags": 1,
      "label": "Second Breath ",
      "description": "Rearm on the airfield between attacks on hostile ships in the mission \"American Counterattack\". ",
      "howto": "Rearm on the airfield between attacks on hostile ships in the mission \"American Counterattack\". "
    },
    {
      "id": 98,
      "imageId": 55,
      "cred": 10,
      "flags": 1,
      "label": "Blitz Attack ",
      "description": "Destroy 6 enemy bombers before they reach the Wake in the mission \"Japanese Raid\". ",
      "howto": "Destroy 6 enemy bombers before they reach the Wake in the mission \"Japanese Raid\". "
    },
    {
      "id": 99,
      "imageId": 12,
      "cred": 10,
      "flags": 1,
      "label": "Bombshell ",
      "description": "Damage destroyer with machine gun fire in the mission \"Invasion of Tulagi\".",
      "howto": "Damage destroyer with machine gun fire in the mission \"Invasion of Tulagi\"."
    },
    {
      "id": 100,
      "imageId": 42,
      "cred": 10,
      "flags": 1,
      "label": "Sentinel ",
      "description": "Don't let enemy fighters destroy any bomber of your group in the mission \"Attack on Lexington\". ",
      "howto": "Don't let enemy fighters destroy any bomber of your group in the mission \"Attack on Lexington\". "
    },
    {
      "id": 101,
      "imageId": 48,
      "cred": 10,
      "flags": 1,
      "label": "Untouchable ",
      "description": "Don't die in the mission \"Shokaku Defense\". ",
      "howto": "Don't die in the mission \"Shokaku Defense\". "
    },
    {
      "id": 102,
      "imageId": 54,
      "cred": 10,
      "flags": 1,
      "label": "Not a Victim ",
      "description": "Destroy two hostile fighters with the rear gunner in the mission \"To Scratch One Flat-top\". ",
      "howto": "Destroy two hostile fighters with the rear gunner in the mission \"To Scratch One Flat-top\". "
    },
    {
      "id": 103,
      "imageId": 20,
      "cred": 10,
      "flags": 1,
      "label": "Eagle-Eyed ",
      "description": "Find the TF-17 carrier fleet in the \"Counterattack\" mission.",
      "howto": "Find the TF-17 carrier fleet in the \"Counterattack\" mission."
    },
    {
      "id": 104,
      "imageId": 24,
      "cred": 10,
      "flags": 1,
      "label": "Hedgehopper ",
      "description": "Destroy 5 light targets on Midway Island on Simulator difficulty in the \"Midway Atoll\" mission.",
      "howto": "Destroy 5 light targets on Midway Island on Simulator difficulty in the \"Midway Atoll\" mission."
    },
    {
      "id": 105,
      "imageId": 17,
      "cred": 10,
      "flags": 1,
      "label": "Defender ",
      "description": "Destroy 3 enemy bombers in each wave on Realistic difficulty in the \"First Carrier Fleet\" mission.",
      "howto": "Destroy 3 enemy bombers in each wave on Realistic difficulty in the \"First Carrier Fleet\" mission."
    },
    {
      "id": 106,
      "imageId": 50,
      "cred": 10,
      "flags": 1,
      "label": "Way of the Sun ",
      "description": "Complete the 1st secondary mission objective in the \"Fate of Hiryu\" mission.",
      "howto": "Complete the 1st secondary mission objective in the \"Fate of Hiryu\" mission."
    },
    {
      "id": 108,
      "imageId": 22,
      "cred": 10,
      "flags": 1,
      "label": "Formation Keeper",
      "description": "Stay near the flight leader all the way to the enemy fleet in the \"American Strike\" mission.",
      "howto": "Stay near the flight leader all the way to the enemy fleet in the \"American Strike\" mission."
    },
    {
      "id": 109,
      "imageId": 35,
      "cred": 10,
      "flags": 1,
      "label": "One of a Few",
      "description": "Land on the Zuikaku at the end of the \"Battle of South Pacific\" mission on Realistic difficulty.",
      "howto": "Land on the Zuikaku at the end of the \"Battle of South Pacific\" mission on Realistic difficulty."
    },
    {
      "id": 110,
      "imageId": 21,
      "cred": 10,
      "flags": 1,
      "label": "Fast and Furious ",
      "description": "Complete the first objective in less than 5 minutes in the \"Tulagi Landing\" mission.",
      "howto": "Complete the first objective in less than 5 minutes in the \"Tulagi Landing\" mission."
    },
    {
      "id": 111,
      "imageId": 45,
      "cred": 10,
      "flags": 1,
      "label": "Total Annihilation ",
      "description": "Destroy at least 20 enemy bombers in the \"Battle of the Santa Cruz\" mission.",
      "howto": "Destroy at least 20 enemy bombers in the \"Battle of the Santa Cruz\" mission."
    },
    {
      "id": 112,
      "imageId": 43,
      "cred": 10,
      "flags": 1,
      "label": "Sharp Shooter ",
      "description": "Destroy 5 enemy planes on Realistic difficulty in the \"Battle of the Eastern Solomons\" mission.",
      "howto": "Destroy 5 enemy planes on Realistic difficulty in the \"Battle of the Eastern Solomons\" mission."
    },
    {
      "id": 113,
      "imageId": 28,
      "cred": 10,
      "flags": 1,
      "label": "Killer",
      "description": "Kill 15 enemy infantry units in the \"Battle for Henderson Field\" mission.",
      "howto": "Kill 15 enemy infantry units in the \"Battle for Henderson Field\" mission."
    }
  ]
}