{
  "achievementsPossible": 50,
  "credPossible": 1000,
  "achievements": [
    {
      "id": 2,
      "imageId": 4,
      "cred": 10,
      "flags": 6,
      "label": "Surprise!",
      "description": "Encountered General Ross’s Spec Ops team for the first time.",
      "howto": "Encounter General Ross’s Spec Ops team for the first time."
    },
    {
      "id": 3,
      "imageId": 5,
      "cred": 10,
      "flags": 6,
      "label": "Where Is My KA-BOOM?",
      "description": "Saved New York from the Enclave Chemical Bomb.",
      "howto": "Save New York from the Enclave Chemical Bomb."
    },
    {
      "id": 4,
      "imageId": 6,
      "cred": 10,
      "flags": 6,
      "label": "A Leader In His Field",
      "description": "Enlisted Samuel Sterns in the search for a cure to Banner’s condition.",
      "howto": "Enlist Samuel Sterns in the search for a cure to Banner’s condition."
    },
    {
      "id": 5,
      "imageId": 7,
      "cred": 15,
      "flags": 6,
      "label": "Two Heads Aren’t Better Than One",
      "description": "Added Bi-Beast to the Hulk’s list of defeated enemies.",
      "howto": "Defeat the Bi-Beast."
    },
    {
      "id": 6,
      "imageId": 8,
      "cred": 10,
      "flags": 6,
      "label": "The Eyes Have It",
      "description": "Destroyed an Enclave Kyklops for the first time.",
      "howto": "Destroy an Enclave Kyklops for the first time."
    },
    {
      "id": 7,
      "imageId": 9,
      "cred": 20,
      "flags": 6,
      "label": "Love Hurts",
      "description": "The things we'll do for love . . .",
      "howto": "Ignite an old flame . . ."
    },
    {
      "id": 8,
      "imageId": 10,
      "cred": 20,
      "flags": 6,
      "label": "Stay Classy . . .",
      "description": "Exposed Major Talbot on television.",
      "howto": "Expose Major Talbot on television."
    },
    {
      "id": 9,
      "imageId": 11,
      "cred": 25,
      "flags": 6,
      "label": ". . . And Thanks For Stopping By",
      "description": "Dishonorably discharged Major Talbot.",
      "howto": "Dishonorably discharge Major Talbot."
    },
    {
      "id": 10,
      "imageId": 12,
      "cred": 10,
      "flags": 6,
      "label": "Pure As New York Snow",
      "description": "The streets of New York are no longer contaminated . . . by the Enclave, at least.",
      "howto": "Clean up the contamination from the streets of New York."
    },
    {
      "id": 11,
      "imageId": 13,
      "cred": 20,
      "flags": 6,
      "label": "What Goes Up . . .",
      "description": "Destroyed the Enclave’s lightning satellite.",
      "howto": "Crash and destroy the Enclave’s Lightning Satellite."
    },
    {
      "id": 12,
      "imageId": 14,
      "cred": 25,
      "flags": 6,
      "label": "The Enemy Of My Enemy",
      "description": "Defeated Enclave’s F-POD . . . with a little help.",
      "howto": "Defeat Enclave’s F-POD...with a little help."
    },
    {
      "id": 13,
      "imageId": 15,
      "cred": 25,
      "flags": 6,
      "label": "Alia Iacta Est",
      "description": "Protected General Ross's team while they attacked the Enclave base.",
      "howto": "Protect General Ross's team while they attack the Enclave base."
    },
    {
      "id": 14,
      "imageId": 16,
      "cred": 15,
      "flags": 6,
      "label": "Better, Stronger, Faster!",
      "description": "Hulk recieved a power boost from Samuel Sterns.",
      "howto": "Get a power boost from Samuel Sterns."
    },
    {
      "id": 15,
      "imageId": 17,
      "cred": 10,
      "flags": 6,
      "label": "Eww . . . Gross!",
      "description": "The cure developed by Samuel Sterns has been tested.",
      "howto": "Test the cure developed by Samuel Sterns."
    },
    {
      "id": 16,
      "imageId": 18,
      "cred": 50,
      "flags": 1,
      "label": "Abominable!",
      "description": "Hulk has defeated the Abomination!",
      "howto": "Defeat the Abomination."
    },
    {
      "id": 17,
      "imageId": 54,
      "cred": 5,
      "flags": 4,
      "label": "Don't Make Me Angry",
      "description": "You wouldn't like me when I'm angry.",
      "howto": "Defeat 50 enemies using Rage powers."
    },
    {
      "id": 18,
      "imageId": 53,
      "cred": 25,
      "flags": 4,
      "label": "World War Hulk",
      "description": "Survived at least 60 seconds at Threat Level 9.",
      "howto": "Survive for longer than 60 seconds at Threat Level 9."
    },
    {
      "id": 19,
      "imageId": 21,
      "cred": 10,
      "flags": 4,
      "label": "Over The Edge",
      "description": "Defeated 5 enemies by knocking them off a high building and letting them fall to their doom.",
      "howto": "Defeat 5 enemies by knocking them off a high building."
    },
    {
      "id": 20,
      "imageId": 22,
      "cred": 5,
      "flags": 4,
      "label": "Home Run",
      "description": "Knocked an enemy a distance of at least 436 feet.",
      "howto": "Knock an enemy a distance of at least 436 feet."
    },
    {
      "id": 21,
      "imageId": 23,
      "cred": 50,
      "flags": 4,
      "label": "Enemy Of The Empire State",
      "description": "Found all the landmark souvenirs in New York City.",
      "howto": "Find every landmark souvenir in New York City."
    },
    {
      "id": 22,
      "imageId": 24,
      "cred": 10,
      "flags": 4,
      "label": "Terrifying Tourist",
      "description": "Found every Subway Station in New York.",
      "howto": "Find every Subway Station in New York."
    },
    {
      "id": 23,
      "imageId": 25,
      "cred": 5,
      "flags": 4,
      "label": "Sightseeing",
      "description": "Climbed to the top of the five tallest buildings in New York City. ",
      "howto": "Climb to the top of the five tallest buildings in New York City."
    },
    {
      "id": 24,
      "imageId": 26,
      "cred": 5,
      "flags": 4,
      "label": "Around The World In 80 Steps",
      "description": "Crossed the tops of the Flagpoles outside the U.N. Building.",
      "howto": "Cross the tops of the flagpoles outside the U.N. Building."
    },
    {
      "id": 25,
      "imageId": 27,
      "cred": 5,
      "flags": 4,
      "label": "Fear Of Falling",
      "description": "Completed \"We’re Not Giving Up – Part 2\" without touching the ground.",
      "howto": "Complete \"We’re Not Giving Up – Part 2\" without touching the ground."
    },
    {
      "id": 26,
      "imageId": 28,
      "cred": 50,
      "flags": 4,
      "label": "Hulk Is Strongest One There Is!",
      "description": "Earned all upgrades.",
      "howto": "Gain access to all the upgrades."
    },
    {
      "id": 27,
      "imageId": 29,
      "cred": 50,
      "flags": 4,
      "label": "Para-Gone!",
      "description": "Wiped out the Enclave's four divisions.",
      "howto": "Wipe out the Enclave's four sectors."
    },
    {
      "id": 28,
      "imageId": 30,
      "cred": 50,
      "flags": 4,
      "label": "All That Glitters . . .",
      "description": "Won a gold medal in every mini-game.",
      "howto": "Win a gold medal in every mini-game."
    },
    {
      "id": 29,
      "imageId": 31,
      "cred": 10,
      "flags": 4,
      "label": "There Is No U In Team!",
      "description": "Tricked a U-Foe into taking down one of his or her teammates.",
      "howto": "Trick a U-Foe into taking down one of his or her teammates."
    },
    {
      "id": 30,
      "imageId": 32,
      "cred": 25,
      "flags": 4,
      "label": "Apprentice Of Disaster",
      "description": "Destroyed a building in each New York City neighborhood.",
      "howto": "Destroy a building in each New York City neighborhood."
    },
    {
      "id": 31,
      "imageId": 33,
      "cred": 10,
      "flags": 4,
      "label": "Now Playing",
      "description": "Scored 6,132,008 points.",
      "howto": "Score 6,132,008 points."
    },
    {
      "id": 32,
      "imageId": 34,
      "cred": 35,
      "flags": 4,
      "label": "Master Of Disaster",
      "description": "Destroyed every building in a New York City neighborhood.",
      "howto": "Destroy every building in a New York City neighborhood."
    },
    {
      "id": 33,
      "imageId": 19,
      "cred": 50,
      "flags": 4,
      "label": "Veni, Vidi, Vici",
      "description": "Hulk here! Hulk see! Hulk kick butt!",
      "howto": "Defeat every type of enemy at least once."
    },
    {
      "id": 34,
      "imageId": 36,
      "cred": 10,
      "flags": 4,
      "label": "Mad Dash",
      "description": "Sprinted a total distance of at least 26.2 miles (138,435ft).",
      "howto": "Sprint a total distance of at least 26.2 miles (138,435ft)."
    },
    {
      "id": 35,
      "imageId": 37,
      "cred": 15,
      "flags": 4,
      "label": "Hulk SMASH!!!",
      "description": "Defeated at least 1 enemy with each class of attack.",
      "howto": "Defeat at least 1 enemy with each class of attack."
    },
    {
      "id": 36,
      "imageId": 38,
      "cred": 20,
      "flags": 4,
      "label": "Pickin' Up The Pieces",
      "description": "Smashed 10,000 things.",
      "howto": "Smash 10,000 things."
    },
    {
      "id": 37,
      "imageId": 39,
      "cred": 10,
      "flags": 4,
      "label": "Let's Do Lunch!",
      "description": "Defeated 10 enemies by throwing inedible foodstuffs.",
      "howto": "Crush 10 enemies by throwing either a taco, an ice cream cone or a doughnut."
    },
    {
      "id": 38,
      "imageId": 40,
      "cred": 10,
      "flags": 4,
      "label": "Smash-ifist",
      "description": "Won a story mission without defeating any enemies.",
      "howto": "Win a story mission without defeating any enemies."
    },
    {
      "id": 39,
      "imageId": 48,
      "cred": 5,
      "flags": 4,
      "label": "Struck Out",
      "description": "Completed \"The Problem is the Hulk - Part 3\" without being hit by a lightning blast.",
      "howto": "Complete \"The Problem is the Hulk - Part 3\" without being hit by a lightning blast."
    },
    {
      "id": 40,
      "imageId": 42,
      "cred": 25,
      "flags": 4,
      "label": "Ceres Finale",
      "description": "Shut down the Enclave's biotech group.",
      "howto": "Shut down the Enclave's biotech group."
    },
    {
      "id": 41,
      "imageId": 43,
      "cred": 25,
      "flags": 4,
      "label": "Fairweather Friends",
      "description": "Shut down the Enclave's weather manipulation division.",
      "howto": "Shut down the Enclave's weather manipulation division."
    },
    {
      "id": 42,
      "imageId": 44,
      "cred": 25,
      "flags": 4,
      "label": "Brawn Beats Brains",
      "description": "Shut down the Enclave's psych-ops branch.",
      "howto": "Shut down the Enclave's psych-ops branch."
    },
    {
      "id": 43,
      "imageId": 45,
      "cred": 25,
      "flags": 4,
      "label": "Most Illogical",
      "description": "Shut down the Enclave's mechanical design corps.",
      "howto": "Shut down the Enclave's mechanical design corps."
    },
    {
      "id": 44,
      "imageId": 46,
      "cred": 40,
      "flags": 4,
      "label": "PPO'd",
      "description": "Found all the Gamma Canisters hidden in New York City.",
      "howto": "Find all the Gamma Canisters hidden in New York City."
    },
    {
      "id": 45,
      "imageId": 47,
      "cred": 40,
      "flags": 4,
      "label": "Anger Management",
      "description": "Found all the Fury Canisters hidden in New York City.",
      "howto": "Find all the Fury Canisters hidden in New York City."
    },
    {
      "id": 46,
      "imageId": 1,
      "cred": 5,
      "flags": 4,
      "label": "Unleash the Fury!",
      "description": "Got the Enclave off your back.",
      "howto": "Get the Enclave off your back."
    },
    {
      "id": 47,
      "imageId": 49,
      "cred": 10,
      "flags": 4,
      "label": "That'll Leave A Mark",
      "description": "Stuck 25 auto-wrecks to buildings.",
      "howto": "Stick 25 auto-wrecks to buildings."
    },
    {
      "id": 48,
      "imageId": 50,
      "cred": 10,
      "flags": 4,
      "label": "You Break It, You Buy It",
      "description": "Smashed everything in one trip to Brazil.",
      "howto": "Smash as much as possible in one trip to Brazil."
    },
    {
      "id": 49,
      "imageId": 51,
      "cred": 15,
      "flags": 4,
      "label": "Patron Of The Arts",
      "description": "Viewed every piece of concept art at least once.",
      "howto": "View every piece of concept art at least once."
    },
    {
      "id": 50,
      "imageId": 52,
      "cred": 25,
      "flags": 4,
      "label": "Thrill-ionaire",
      "description": "Scored 1,000,000 points while the Strike Teams were active.",
      "howto": "Score 1,000,000 points while Strike Teams are active."
    },
    {
      "id": 51,
      "imageId": 20,
      "cred": 10,
      "flags": 4,
      "label": "Shell-Head",
      "description": "At last you are invincible.",
      "howto": "With a friend like this . . ."
    }
  ]
}