{
  "achievementsPossible": 12,
  "credPossible": 200,
  "achievements": [
    {
      "id": 1,
      "imageId": 1,
      "cred": 5,
      "flags": 6,
      "label": "COBOL",
      "description": "Advance to the second level using default settings.",
      "howto": "Advance to the second level using default settings."
    },
    {
      "id": 2,
      "imageId": 2,
      "cred": 5,
      "flags": 6,
      "label": "Go Team!",
      "description": "Achieve a score of 20,000+ while playing an Xbox Live Co-op game.",
      "howto": "Achieve a score of 20,000+ while playing an Xbox Live Co-op game."
    },
    {
      "id": 3,
      "imageId": 3,
      "cred": 10,
      "flags": 6,
      "label": "High Score",
      "description": "Get first place on in-game score board using default settings.",
      "howto": "Get first place on in-game score board using default settings."
    },
    {
      "id": 4,
      "imageId": 4,
      "cred": 10,
      "flags": 6,
      "label": "7 Seconds",
      "description": "Stay alive in the Light Cycle level for 7 seconds.",
      "howto": "Stay alive in the Light Cycle level for 7 seconds."
    },
    {
      "id": 5,
      "imageId": 5,
      "cred": 10,
      "flags": 6,
      "label": "BASIC",
      "description": "Advance to the third level using default settings.",
      "howto": "Advance to the third level using default settings."
    },
    {
      "id": 6,
      "imageId": 6,
      "cred": 10,
      "flags": 6,
      "label": "Vs. Master",
      "description": "Win 3 Classic Versus games over Xbox Live.",
      "howto": "Win 3 Classic Versus games over Xbox Live."
    },
    {
      "id": 7,
      "imageId": 7,
      "cred": 10,
      "flags": 6,
      "label": "Exterminator",
      "description": "Kill all the Grid Bugs in the 1st level IO tower.",
      "howto": "Kill all the Grid Bugs in the 1st level IO tower."
    },
    {
      "id": 8,
      "imageId": 8,
      "cred": 15,
      "flags": 6,
      "label": "Fortran",
      "description": "Advance to level 4 on the default settings.",
      "howto": "Advance to level 4 on the default settings."
    },
    {
      "id": 9,
      "imageId": 9,
      "cred": 20,
      "flags": 6,
      "label": "Block Blaster",
      "description": "Destroy all the MCP blocks in the 2nd level.",
      "howto": "Destroy all the MCP blocks in the 2nd level."
    },
    {
      "id": 10,
      "imageId": 10,
      "cred": 25,
      "flags": 6,
      "label": "Dodgy",
      "description": "Enter the IO tower without shooting any Grid Bugs.",
      "howto": "Enter the IO tower without shooting any Grid Bugs."
    },
    {
      "id": 11,
      "imageId": 11,
      "cred": 35,
      "flags": 6,
      "label": "Six Shooter",
      "description": "Enter the MCP cone with a maximum of six shots.",
      "howto": "Enter the MCP cone with a maximum of six shots."
    },
    {
      "id": 12,
      "imageId": 12,
      "cred": 45,
      "flags": 6,
      "label": "User",
      "description": "Advance to level 12 using the default settings.",
      "howto": "Advance to level 12 using the default settings."
    }
  ]
}