{
  "achievementsPossible": 12,
  "credPossible": 200,
  "achievements": [
    {
      "id": 1,
      "imageId": 1,
      "cred": 10,
      "flags": 6,
      "label": "Area 1 Clear",
      "description": "Cleared Area 1!",
      "howto": "Cleared Area 1!"
    },
    {
      "id": 2,
      "imageId": 2,
      "cred": 10,
      "flags": 6,
      "label": "Area 2 Clear",
      "description": "Cleared Area 2!",
      "howto": "Cleared Area 2!"
    },
    {
      "id": 3,
      "imageId": 3,
      "cred": 10,
      "flags": 6,
      "label": "Area 3 Clear",
      "description": "Cleared Area 3!",
      "howto": "Cleared Area 3!"
    },
    {
      "id": 4,
      "imageId": 4,
      "cred": 10,
      "flags": 6,
      "label": "Area 4 Clear",
      "description": "Cleared Area 4!",
      "howto": "Cleared Area 4!"
    },
    {
      "id": 5,
      "imageId": 5,
      "cred": 10,
      "flags": 6,
      "label": "Area 5 Clear",
      "description": "Cleared Area 5!",
      "howto": "Cleared Area 5!"
    },
    {
      "id": 6,
      "imageId": 6,
      "cred": 10,
      "flags": 6,
      "label": "Area 6 Clear",
      "description": "Cleared Area 6!",
      "howto": "Cleared Area 6!"
    },
    {
      "id": 7,
      "imageId": 7,
      "cred": 10,
      "flags": 6,
      "label": "Area 7 Clear",
      "description": "Cleared Area 7!",
      "howto": "Cleared Area 7!"
    },
    {
      "id": 8,
      "imageId": 8,
      "cred": 10,
      "flags": 6,
      "label": "Area 8 Clear",
      "description": "Cleared Area 8!",
      "howto": "Cleared Area 8!"
    },
    {
      "id": 9,
      "imageId": 9,
      "cred": 10,
      "flags": 6,
      "label": "Area 9 Clear",
      "description": "Cleared Area 9!",
      "howto": "Cleared Area 9!"
    },
    {
      "id": 10,
      "imageId": 10,
      "cred": 10,
      "flags": 6,
      "label": "Grand Champion",
      "description": "Cleared Championship!",
      "howto": "Cleared Championship!"
    },
    {
      "id": 11,
      "imageId": 11,
      "cred": 30,
      "flags": 6,
      "label": "Race Against Time",
      "description": "Completed all Time Attacks!",
      "howto": "Completed all Time Attacks!"
    },
    {
      "id": 12,
      "imageId": 12,
      "cred": 70,
      "flags": 6,
      "label": "True Completionist",
      "description": "Cleared all areas on hard difficulty!",
      "howto": "Cleared all areas on hard difficulty!"
    }
  ]
}