{
  "achievementsPossible": 67,
  "credPossible": 1600,
  "achievements": [
    {
      "id": 1,
      "imageId": 1,
      "cred": 25,
      "flags": 4,
      "label": "Storm bringer",
      "description": "Obtain 20 000 points in the Singapore mission in the Campaign",
      "howto": "Obtain 20 000 points in the Singapore mission in the Campaign"
    },
    {
      "id": 2,
      "imageId": 2,
      "cred": 25,
      "flags": 4,
      "label": "A one-man riot",
      "description": "Obtain 11 000 points in the Shanghai mission in the Campaign",
      "howto": "Obtain 11 000 points in the Shanghai mission in the Campaign"
    },
    {
      "id": 3,
      "imageId": 3,
      "cred": 25,
      "flags": 4,
      "label": "Terror of the deep",
      "description": "Obtain 11 000 points in the South China Sea mission in the Campaign",
      "howto": "Obtain 11 000 points in the South China Sea mission in the Campaign"
    },
    {
      "id": 4,
      "imageId": 4,
      "cred": 25,
      "flags": 4,
      "label": "Gladiator",
      "description": "Obtain 12 000 points in the Kunlun Mountains mission in the Campaign",
      "howto": "Obtain 12 000 points in the Kunlun Mountains mission in the Campaign"
    },
    {
      "id": 5,
      "imageId": 5,
      "cred": 25,
      "flags": 4,
      "label": "Above and beyond the call",
      "description": "Complete all Assignments in the Campaign",
      "howto": "Complete all Assignments in the Campaign"
    },
    {
      "id": 6,
      "imageId": 6,
      "cred": 25,
      "flags": 4,
      "label": "Demolition man",
      "description": "Obtain 15 000 points in the Tashgar mission in the Campaign",
      "howto": "Obtain 15 000 points in the Tashgar mission in the Campaign"
    },
    {
      "id": 7,
      "imageId": 7,
      "cred": 25,
      "flags": 4,
      "label": "Guardian of the fleet",
      "description": "Obtain 6 000 points in the Suez mission in the Campaign",
      "howto": "Obtain 6 000 points in the Suez mission in the Campaign"
    },
    {
      "id": 8,
      "imageId": 8,
      "cred": 65,
      "flags": 4,
      "label": "Full arsenal",
      "description": "Unlock all assignments and collectibles in the Campaign",
      "howto": "Unlock all assignments and collectibles in the Campaign"
    },
    {
      "id": 9,
      "imageId": 9,
      "cred": 20,
      "flags": 4,
      "label": "Fish",
      "description": "Complete the Campaign on Easy",
      "howto": "Complete the Campaign on Easy"
    },
    {
      "id": 10,
      "imageId": 10,
      "cred": 25,
      "flags": 4,
      "label": "Dunn's pride",
      "description": "Obtain 7 000 points in the Baku mission in the Campaign",
      "howto": "Obtain 7 000 points in the Baku mission in the Campaign"
    },
    {
      "id": 11,
      "imageId": 11,
      "cred": 20,
      "flags": 4,
      "label": "Braving the storm",
      "description": "Complete the Singapore mission in the Campaign",
      "howto": "Complete the Singapore mission in the Campaign"
    },
    {
      "id": 12,
      "imageId": 12,
      "cred": 20,
      "flags": 4,
      "label": "Wolves in sheep's clothing",
      "description": "Complete the Shanghai mission in the Campaign",
      "howto": "Complete the Shanghai mission in the Campaign"
    },
    {
      "id": 13,
      "imageId": 13,
      "cred": 20,
      "flags": 4,
      "label": "The fall of a Titan",
      "description": "Complete the South China Sea mission in the Campaign",
      "howto": "Complete the South China Sea mission in the Campaign"
    },
    {
      "id": 14,
      "imageId": 14,
      "cred": 20,
      "flags": 4,
      "label": "Dead by dawn",
      "description": "Complete the Kunlun Mountains mission in the Campaign",
      "howto": "Complete the Kunlun Mountains mission in the Campaign"
    },
    {
      "id": 15,
      "imageId": 15,
      "cred": 20,
      "flags": 4,
      "label": "Guns at dawn",
      "description": "Complete the Suez mission in the Campaign",
      "howto": "Complete the Suez mission in the Campaign"
    },
    {
      "id": 16,
      "imageId": 16,
      "cred": 20,
      "flags": 4,
      "label": "Fishing in Baku",
      "description": "Complete the Baku mission in the Campaign",
      "howto": "Complete the Baku mission in the Campaign"
    },
    {
      "id": 17,
      "imageId": 17,
      "cred": 20,
      "flags": 4,
      "label": "Antediluvian",
      "description": "Complete the Tashgar mission in the Campaign",
      "howto": "Complete the Tashgar mission in the Campaign"
    },
    {
      "id": 18,
      "imageId": 18,
      "cred": 20,
      "flags": 4,
      "label": "It was on the way...",
      "description": "Find 6 collectibles in the Campaign",
      "howto": "Find 6 collectibles in the Campaign"
    },
    {
      "id": 19,
      "imageId": 19,
      "cred": 20,
      "flags": 4,
      "label": "Took a casual look around",
      "description": "Find 9 collectibles in the Campaign",
      "howto": "Find 9 collectibles in the Campaign"
    },
    {
      "id": 20,
      "imageId": 20,
      "cred": 20,
      "flags": 4,
      "label": "Methodical search",
      "description": "Find 15 collectibles in the Campaign",
      "howto": "Find 15 collectibles in the Campaign"
    },
    {
      "id": 21,
      "imageId": 21,
      "cred": 20,
      "flags": 4,
      "label": "Done some searching",
      "description": "Find 12 collectibles in the Campaign",
      "howto": "Find 12 collectibles in the Campaign"
    },
    {
      "id": 22,
      "imageId": 22,
      "cred": 20,
      "flags": 4,
      "label": "No stone left unturned",
      "description": "Find 18 collectibles in the Campaign",
      "howto": "Find 18 collectibles in the Campaign"
    },
    {
      "id": 23,
      "imageId": 23,
      "cred": 20,
      "flags": 4,
      "label": "Every nook and cranny",
      "description": "Find 21 collectibles in the Campaign",
      "howto": "Find 21 collectibles in the Campaign"
    },
    {
      "id": 24,
      "imageId": 24,
      "cred": 20,
      "flags": 4,
      "label": "Stumbled over it",
      "description": "Find 3 collectibles in the Campaign",
      "howto": "Find 3 collectibles in the Campaign"
    },
    {
      "id": 25,
      "imageId": 25,
      "cred": 25,
      "flags": 4,
      "label": "Wolf",
      "description": "Complete the Campaign on Normal",
      "howto": "Complete the Campaign on Normal"
    },
    {
      "id": 26,
      "imageId": 26,
      "cred": 25,
      "flags": 4,
      "label": "Tombstone",
      "description": "Complete the Campaign on Hard",
      "howto": "Complete the Campaign on Hard"
    },
    {
      "id": 27,
      "imageId": 27,
      "cred": 65,
      "flags": 4,
      "label": "Recon",
      "description": "Find 28 collectibles in the Campaign",
      "howto": "Find 28 collectibles in the Campaign"
    },
    {
      "id": 28,
      "imageId": 28,
      "cred": 20,
      "flags": 4,
      "label": "Well placed",
      "description": "Get 10 kills with C4 in the Baku mission in the Campaign",
      "howto": "Get 10 kills with C4 in the Baku mission in the Campaign"
    },
    {
      "id": 29,
      "imageId": 29,
      "cred": 20,
      "flags": 4,
      "label": "Wrecker",
      "description": "Get 10 multi-kills in the Shanghai mission in the Campaign",
      "howto": "Get 10 multi-kills in the Shanghai mission in the Campaign"
    },
    {
      "id": 30,
      "imageId": 30,
      "cred": 20,
      "flags": 4,
      "label": "Blood wake",
      "description": "Get 30 headshots in the South China Sea mission in the Campaign",
      "howto": "Get 30 headshots in the South China Sea mission in the Campaign"
    },
    {
      "id": 31,
      "imageId": 31,
      "cred": 20,
      "flags": 4,
      "label": "War turtle",
      "description": "Get 15 kills with RPG in the Singapore mission in the Campaign",
      "howto": "Get 15 kills with RPG in the Singapore mission in the Campaign"
    },
    {
      "id": 32,
      "imageId": 32,
      "cred": 20,
      "flags": 4,
      "label": "Infiltrator",
      "description": "Get 10 adrenaline kills in the Tashgar mission in the Campaign",
      "howto": "Get 10 adrenaline kills in the Tashgar mission in the Campaign"
    },
    {
      "id": 33,
      "imageId": 33,
      "cred": 20,
      "flags": 4,
      "label": "Shawshank",
      "description": "Get 5 kills with Shank in the Kunlun Mountains mission in the Campaign",
      "howto": "Get 5 kills with Shank in the Kunlun Mountains mission in the Campaign"
    },
    {
      "id": 34,
      "imageId": 34,
      "cred": 20,
      "flags": 4,
      "label": "For tombstone",
      "description": "Let the Valkyrie be destroyed in the Campaign",
      "howto": "Let the Valkyrie be destroyed in the Campaign"
    },
    {
      "id": 35,
      "imageId": 35,
      "cred": 20,
      "flags": 4,
      "label": "For the people",
      "description": "Sacrifice Irish to save the Valkyrie in the Campaign",
      "howto": "Sacrifice Irish to save the Valkyrie in the Campaign"
    },
    {
      "id": 36,
      "imageId": 36,
      "cred": 20,
      "flags": 4,
      "label": "For the cause",
      "description": "Sacrifice Hannah to save the Valkyrie in the Campaign",
      "howto": "Sacrifice Hannah to save the Valkyrie in the Campaign"
    },
    {
      "id": 37,
      "imageId": 37,
      "cred": 20,
      "flags": 4,
      "label": "Patience is a virtue",
      "description": "Experience all 3 endings in the Campaign",
      "howto": "Experience all 3 endings in the Campaign"
    },
    {
      "id": 38,
      "imageId": 38,
      "cred": 10,
      "flags": 3,
      "label": "Turn around...",
      "description": "Perform 5 dog tag kills in Multiplayer",
      "howto": "Perform 5 dog tag kills in Multiplayer"
    },
    {
      "id": 39,
      "imageId": 39,
      "cred": 10,
      "flags": 3,
      "label": "Won them all",
      "description": "Win a round of each game mode",
      "howto": "Win a round of each game mode"
    },
    {
      "id": 40,
      "imageId": 40,
      "cred": 25,
      "flags": 3,
      "label": ".45 old school",
      "description": "Perform 45 kills with the M1911 Handgun in Multiplayer",
      "howto": "Perform 45 kills with the M1911 Handgun in Multiplayer"
    },
    {
      "id": 41,
      "imageId": 41,
      "cred": 25,
      "flags": 3,
      "label": "Bomb squad",
      "description": "Deliver 5 bombs in Obliteration",
      "howto": "Deliver 5 bombs in Obliteration"
    },
    {
      "id": 42,
      "imageId": 42,
      "cred": 50,
      "flags": 3,
      "label": "Call me \"Sir\"",
      "description": "Reach rank 25.",
      "howto": "Reach rank 25."
    },
    {
      "id": 43,
      "imageId": 43,
      "cred": 20,
      "flags": 4,
      "label": "Fledgling",
      "description": "Play a round of Air Superiority",
      "howto": "Play a round of Air Superiority"
    },
    {
      "id": 44,
      "imageId": 44,
      "cred": 20,
      "flags": 4,
      "label": "2 Wheels",
      "description": "Get a kill with the Dirtbike",
      "howto": "Get a kill with the Dirtbike"
    },
    {
      "id": 45,
      "imageId": 45,
      "cred": 30,
      "flags": 4,
      "label": "Mini Kamikaze",
      "description": "Kill an enemy with the SUAV",
      "howto": "Kill an enemy with the SUAV"
    },
    {
      "id": 46,
      "imageId": 46,
      "cred": 20,
      "flags": 4,
      "label": "Death From Above",
      "description": "Get a kill with the bomber",
      "howto": "Get a kill with the bomber"
    },
    {
      "id": 47,
      "imageId": 47,
      "cred": 30,
      "flags": 4,
      "label": "New Superpower",
      "description": "Complete all China Rising Assignments",
      "howto": "Complete all China Rising Assignments"
    },
    {
      "id": 48,
      "imageId": 48,
      "cred": 20,
      "flags": 4,
      "label": "Falling Down",
      "description": "Kill an enemy with a ceiling collapse in Operation Metro",
      "howto": "Kill an enemy with a ceiling collapse in Operation Metro"
    },
    {
      "id": 49,
      "imageId": 49,
      "cred": 20,
      "flags": 4,
      "label": "Dirty Job",
      "description": "Find the hidden tunnel in Caspian Border",
      "howto": "Find the hidden tunnel in Caspian Border"
    },
    {
      "id": 50,
      "imageId": 50,
      "cred": 20,
      "flags": 4,
      "label": "Torched",
      "description": "Ignite a brush fire using the repair tool in Operation Metro or Caspian Border",
      "howto": "Ignite a brush fire using the repair tool in Operation Metro or Caspian Border"
    },
    {
      "id": 51,
      "imageId": 51,
      "cred": 30,
      "flags": 4,
      "label": "Risky Business",
      "description": "Kill an enemy flag carrier while carrying their flag in CTF",
      "howto": "Kill an enemy flag carrier while carrying their flag in CTF"
    },
    {
      "id": 52,
      "imageId": 52,
      "cred": 30,
      "flags": 4,
      "label": "Blind Bomber",
      "description": "In a round get 5 kills with air vehicles in Gulf of Oman",
      "howto": "In a round get 5 kills with air vehicles in Gulf of Oman"
    },
    {
      "id": 53,
      "imageId": 53,
      "cred": 20,
      "flags": 4,
      "label": "The Big Leagues",
      "description": "Play a round of Carrier Assault",
      "howto": "Play a round of Carrier Assault"
    },
    {
      "id": 54,
      "imageId": 54,
      "cred": 20,
      "flags": 4,
      "label": "Killing Me Softly",
      "description": "Get a kill in the ACV",
      "howto": "Get a kill in the ACV"
    },
    {
      "id": 55,
      "imageId": 55,
      "cred": 20,
      "flags": 4,
      "label": "Spotted",
      "description": "Climb the highest point in Naval Strike",
      "howto": "Climb the highest point in Naval Strike"
    },
    {
      "id": 56,
      "imageId": 56,
      "cred": 30,
      "flags": 4,
      "label": "Fly Swatter",
      "description": "Kill an enemy with the AA Mine",
      "howto": "Kill an enemy with the AA Mine"
    },
    {
      "id": 57,
      "imageId": 57,
      "cred": 30,
      "flags": 4,
      "label": "No Parley",
      "description": "Get a kill with the old cannon",
      "howto": "Get a kill with the old cannon"
    },
    {
      "id": 58,
      "imageId": 58,
      "cred": 20,
      "flags": 4,
      "label": "Link Repeater",
      "description": "Win 2 rounds of Chainlink",
      "howto": "Win 2 rounds of Chainlink"
    },
    {
      "id": 59,
      "imageId": 59,
      "cred": 20,
      "flags": 4,
      "label": "Bulletproof. Sort Of...",
      "description": "Spend 5 minutes using the Ballistic Shield",
      "howto": "Spend 5 minutes using the Ballistic Shield"
    },
    {
      "id": 60,
      "imageId": 60,
      "cred": 20,
      "flags": 4,
      "label": "The Metropolitan",
      "description": "Play a round on all Dragon's Teeth maps",
      "howto": "Play a round on all Dragon's Teeth maps"
    },
    {
      "id": 61,
      "imageId": 61,
      "cred": 30,
      "flags": 4,
      "label": "RC Assassin",
      "description": "Get 5 kills in a round with the RAWR",
      "howto": "Get 5 kills in a round with the RAWR"
    },
    {
      "id": 62,
      "imageId": 62,
      "cred": 30,
      "flags": 4,
      "label": "Street Fighter",
      "description": "Complete all Dragon's Teeth Assignments",
      "howto": "Complete all Dragon's Teeth Assignments"
    },
    {
      "id": 63,
      "imageId": 63,
      "cred": 10,
      "flags": 4,
      "label": "Snowbound",
      "description": "Play all Final Stand maps",
      "howto": "Play all Final Stand maps"
    },
    {
      "id": 64,
      "imageId": 64,
      "cred": 20,
      "flags": 4,
      "label": "Your Titan is Ready",
      "description": "Get a kill by activating the Titan Engines",
      "howto": "Get a kill by activating the Titan Engines"
    },
    {
      "id": 65,
      "imageId": 65,
      "cred": 20,
      "flags": 4,
      "label": "Cold Blooded",
      "description": "Get a kill with an icicle",
      "howto": "Get a kill with an icicle"
    },
    {
      "id": 66,
      "imageId": 66,
      "cred": 20,
      "flags": 4,
      "label": "Has science gone too far?",
      "description": "Get a kill using the HT-95 Levkov, XD-1 Accipiter, Rorsch Mk-1, and Schipunov 42",
      "howto": "Get a kill using the HT-95 Levkov, XD-1 Accipiter, Rorsch Mk-1, and Schipunov 42"
    },
    {
      "id": 67,
      "imageId": 67,
      "cred": 50,
      "flags": 4,
      "label": "King in the North",
      "description": "Complete all Final Stand Assignments",
      "howto": "Complete all Final Stand Assignments"
    }
  ]
}