{
  "achievementsPossible": 38,
  "credPossible": 1000,
  "achievements": [
    {
      "id": 50,
      "imageId": 2,
      "cred": 10,
      "flags": 1,
      "label": "Train Catcher",
      "description": "Finished \"Loco Motives\"",
      "howto": "Finished \"Loco Motives\""
    },
    {
      "id": 51,
      "imageId": 3,
      "cred": 10,
      "flags": 1,
      "label": "Off the Hook",
      "description": "Finished \"Hold the Phone\"",
      "howto": "Finished \"Hold the Phone\""
    },
    {
      "id": 52,
      "imageId": 4,
      "cred": 10,
      "flags": 1,
      "label": "Defeat Zurg",
      "description": "Finished \"To Infinity and Beyond\"",
      "howto": "Finished \"To Infinity and Beyond\""
    },
    {
      "id": 53,
      "imageId": 5,
      "cred": 10,
      "flags": 1,
      "label": "Carnival Conqueror",
      "description": "Finished \"Fair Play\"",
      "howto": "Finished \"Fair Play\""
    },
    {
      "id": 54,
      "imageId": 6,
      "cred": 10,
      "flags": 1,
      "label": "Rocket Launcher",
      "description": "Finished \"Witch Way Out\"",
      "howto": "Finished \"Witch Way Out\""
    },
    {
      "id": 55,
      "imageId": 7,
      "cred": 10,
      "flags": 1,
      "label": "Making a break for it",
      "description": "Finished \"Hide-N-Sneak\"",
      "howto": "Finished \"Hide-N-Sneak\""
    },
    {
      "id": 56,
      "imageId": 8,
      "cred": 10,
      "flags": 1,
      "label": "Mashing the Masher",
      "description": "Finished \"Trash Thrash\"",
      "howto": "Finished \"Trash Thrash\""
    },
    {
      "id": 57,
      "imageId": 9,
      "cred": 20,
      "flags": 1,
      "label": "Muffin Massacre",
      "description": "Finished \"Muffin to Fear\"",
      "howto": "Finished \"Muffin to Fear\""
    },
    {
      "id": 58,
      "imageId": 10,
      "cred": 120,
      "flags": 1,
      "label": "The Collector",
      "description": "Gather every collectible in the game",
      "howto": "Gather every collectible in the game"
    },
    {
      "id": 61,
      "imageId": 12,
      "cred": 10,
      "flags": 1,
      "label": "Mapnipulator",
      "description": "Explored all the objects on the map",
      "howto": "Explored all the objects on the map"
    },
    {
      "id": 62,
      "imageId": 13,
      "cred": 25,
      "flags": 1,
      "label": "Sneaky Sneaky",
      "description": "Finished the Prison Break without ever tripping an alarm",
      "howto": "Finished the Prison Break without ever tripping an alarm"
    },
    {
      "id": 63,
      "imageId": 14,
      "cred": 25,
      "flags": 1,
      "label": "Space Ranger Elite",
      "description": "Reach Zurg’s base without losing all your health",
      "howto": "Reach Zurg’s base without losing all your health"
    },
    {
      "id": 65,
      "imageId": 15,
      "cred": 25,
      "flags": 1,
      "label": "True Carny",
      "description": "Achieve gold on all carnival games",
      "howto": "Achieve gold on all carnival games"
    },
    {
      "id": 66,
      "imageId": 16,
      "cred": 25,
      "flags": 1,
      "label": "No Toy Left Behind",
      "description": "Rescue all the orphans on the Train",
      "howto": "Rescue all the orphans on the Train"
    },
    {
      "id": 67,
      "imageId": 17,
      "cred": 25,
      "flags": 1,
      "label": "We can rebuild him",
      "description": "Collect all of Zurg's Parts",
      "howto": "Collect all of Zurg's Parts"
    },
    {
      "id": 68,
      "imageId": 18,
      "cred": 25,
      "flags": 1,
      "label": "Memories",
      "description": "Collect all of Andy's Memorabilia",
      "howto": "Collect all of Andy's Memorabilia"
    },
    {
      "id": 69,
      "imageId": 19,
      "cred": 25,
      "flags": 1,
      "label": "Townspeople Hunter",
      "description": "Find all the hidden townspeople",
      "howto": "Find all the hidden townspeople"
    },
    {
      "id": 70,
      "imageId": 20,
      "cred": 25,
      "flags": 1,
      "label": "No Claw Required",
      "description": "Find all the hidden aliens",
      "howto": "Find all the hidden aliens"
    },
    {
      "id": 71,
      "imageId": 21,
      "cred": 30,
      "flags": 1,
      "label": "Really holding all the cards",
      "description": "Find all the Special Cards",
      "howto": "Find all the Special Cards"
    },
    {
      "id": 72,
      "imageId": 22,
      "cred": 50,
      "flags": 1,
      "label": "Holding all the Cards",
      "description": "Find all the Regular Cards",
      "howto": "Find all the Regular Cards"
    },
    {
      "id": 73,
      "imageId": 23,
      "cred": 10,
      "flags": 1,
      "label": "Welcome to Town",
      "description": "Finish the Woody's Roundup tutorials",
      "howto": "Finish the Woody's Roundup tutorials"
    },
    {
      "id": 74,
      "imageId": 24,
      "cred": 25,
      "flags": 1,
      "label": "No Swimming",
      "description": "Blow up the dam and expand your town",
      "howto": "Blow up the dam and expand your town"
    },
    {
      "id": 75,
      "imageId": 25,
      "cred": 40,
      "flags": 1,
      "label": "Rescue Space Ranger",
      "description": "Save Mayor Hamm from the bandits",
      "howto": "Save Mayor Hamm from the bandits"
    },
    {
      "id": 76,
      "imageId": 26,
      "cred": 75,
      "flags": 1,
      "label": "Give Me My Gold Back",
      "description": "Defeat Mayor Hamm in the Woody's Roundup boss battle",
      "howto": "Defeat Mayor Hamm in the Woody's Roundup boss battle"
    },
    {
      "id": 77,
      "imageId": 27,
      "cred": 100,
      "flags": 1,
      "label": "Gold Super Star",
      "description": "Collect all the Gold Stars",
      "howto": "Collect all the Gold Stars"
    },
    {
      "id": 79,
      "imageId": 29,
      "cred": 5,
      "flags": 1,
      "label": "First Sale",
      "description": "Buy a toy from the Toy Store",
      "howto": "Buy a toy from the Toy Store"
    },
    {
      "id": 80,
      "imageId": 30,
      "cred": 50,
      "flags": 1,
      "label": "Toy Collector",
      "description": "Purchase every item in the Toy Store",
      "howto": "Purchase every item in the Toy Store"
    },
    {
      "id": 81,
      "imageId": 31,
      "cred": 25,
      "flags": 1,
      "label": "Pict-O-Amateur",
      "description": "Complete 1 disc of Pict-O-Matic missions",
      "howto": "Complete 1 disc of Pict-O-Matic missions"
    },
    {
      "id": 82,
      "imageId": 32,
      "cred": 25,
      "flags": 1,
      "label": "Pict-O-Collector",
      "description": "Find all 6 discs of Pict-O-Matic missions",
      "howto": "Find all 6 discs of Pict-O-Matic missions"
    },
    {
      "id": 83,
      "imageId": 33,
      "cred": 50,
      "flags": 1,
      "label": "Pict-O-Master",
      "description": "Complete all Pict-O-Matic missions",
      "howto": "Complete all Pict-O-Matic missions"
    },
    {
      "id": 84,
      "imageId": 34,
      "cred": 10,
      "flags": 1,
      "label": "Spooky Town",
      "description": "Purchase Sid's Haunted House",
      "howto": "Purchase Sid's Haunted House"
    },
    {
      "id": 85,
      "imageId": 35,
      "cred": 10,
      "flags": 1,
      "label": "Cuddly Town",
      "description": "Purchase Lotso's Enchanted Glen",
      "howto": "Purchase Lotso's Enchanted Glen"
    },
    {
      "id": 86,
      "imageId": 36,
      "cred": 10,
      "flags": 1,
      "label": "To Infinity…",
      "description": "Purchase Zurg's Spaceport",
      "howto": "Purchase Zurg's Spaceport"
    },
    {
      "id": 87,
      "imageId": 37,
      "cred": 10,
      "flags": 1,
      "label": "Airborn Ranger",
      "description": "Hit 15 Paratrooper targets",
      "howto": "Hit 15 Paratrooper targets"
    },
    {
      "id": 88,
      "imageId": 38,
      "cred": 5,
      "flags": 1,
      "label": "First Bronze",
      "description": "Earn a bronze medal in a vehicle challenge",
      "howto": "Earn a bronze medal in a vehicle challenge"
    },
    {
      "id": 90,
      "imageId": 39,
      "cred": 10,
      "flags": 1,
      "label": "First Silver",
      "description": "Earn a silver medal in a vehicle challenge",
      "howto": "Earn a silver medal in a vehicle challenge"
    },
    {
      "id": 91,
      "imageId": 40,
      "cred": 25,
      "flags": 1,
      "label": "First Gold",
      "description": "Earn a gold medal in a vehicle challenge",
      "howto": "Earn a gold medal in a vehicle challenge"
    },
    {
      "id": 93,
      "imageId": 41,
      "cred": 15,
      "flags": 1,
      "label": "Photojournalist",
      "description": "Complete all Toy Camera missions",
      "howto": "Complete all Toy Camera missions"
    }
  ]
}