{
  "achievementsPossible": 50,
  "credPossible": 1000,
  "achievements": [
    {
      "id": 9,
      "imageId": 2,
      "cred": 5,
      "flags": 6,
      "label": "1,000 Bombs",
      "description": "You have set 1,000 bombs.",
      "howto": " Mission: Set bombs!"
    },
    {
      "id": 10,
      "imageId": 2,
      "cred": 10,
      "flags": 6,
      "label": "10,000 Bombs",
      "description": " You have set 10,000 bombs.",
      "howto": " Mission: Set more bombs!"
    },
    {
      "id": 11,
      "imageId": 2,
      "cred": 30,
      "flags": 6,
      "label": "100,000 Bombs",
      "description": "You have set 100,000 bombs.",
      "howto": "Mission: Set even more bombs!"
    },
    {
      "id": 12,
      "imageId": 2,
      "cred": 50,
      "flags": 1,
      "label": "1,000,000 Bombs",
      "description": "You have set 1,000,000 bombs.",
      "howto": "Mission: Set the maximum amount of bombs!\r\n"
    },
    {
      "id": 13,
      "imageId": 1,
      "cred": 5,
      "flags": 6,
      "label": "Block Break 1,000",
      "description": "You have destroyed 1,000 Soft Blocks.\r\n",
      "howto": "Mission: Destroy Soft Blocks!"
    },
    {
      "id": 14,
      "imageId": 1,
      "cred": 10,
      "flags": 6,
      "label": "Block Break 10,000",
      "description": "You have destroyed 10,000 Soft Blocks.",
      "howto": "Mission: Destroy more Soft Blocks!"
    },
    {
      "id": 15,
      "imageId": 1,
      "cred": 30,
      "flags": 6,
      "label": "Block Break 100,000",
      "description": "You have destroyed 100,000 Soft Blocks.",
      "howto": "Mission: Destroy even more Soft Blocks!"
    },
    {
      "id": 16,
      "imageId": 1,
      "cred": 50,
      "flags": 1,
      "label": "Block Break 1,000,000",
      "description": "You have destroyed 1,000,000 Soft Blocks.",
      "howto": "Mission: Destroy the maximum amount of Soft Blocks!\r\n"
    },
    {
      "id": 17,
      "imageId": 3,
      "cred": 10,
      "flags": 1,
      "label": "Secret Panel 1",
      "description": "You have obtained Secret Panel \"B.\"",
      "howto": "Special Mission: Get the Secret Panel!"
    },
    {
      "id": 18,
      "imageId": 3,
      "cred": 20,
      "flags": 1,
      "label": "Secret Panel 2",
      "description": "You have obtained the \"Bomberman?\" Secret Panel.",
      "howto": "Special Mission: Get the Secret Panel!"
    },
    {
      "id": 19,
      "imageId": 3,
      "cred": 30,
      "flags": 1,
      "label": "Secret Panel 3",
      "description": "You have obtained the \"Diggerman?\" Secret Panel.",
      "howto": "Special Mission: Get the Secret Panel!"
    },
    {
      "id": 20,
      "imageId": 3,
      "cred": 40,
      "flags": 1,
      "label": "Secret Panel 4",
      "description": "You have obtained the \"16-Shot\" Secret Panel.",
      "howto": "Special Mission: Get the Secret Panel!"
    },
    {
      "id": 21,
      "imageId": 3,
      "cred": 50,
      "flags": 1,
      "label": "Secret Panel 5",
      "description": "You have obtained the \"Uhi-Uhi\" Secret Panel.",
      "howto": "Special Mission: Get the Secret Panel!"
    },
    {
      "id": 22,
      "imageId": 4,
      "cred": 10,
      "flags": 6,
      "label": "kill 100",
      "description": "You have defeated 100 opponents.",
      "howto": "Mission: Eliminate enemies!"
    },
    {
      "id": 23,
      "imageId": 4,
      "cred": 20,
      "flags": 6,
      "label": "kill 500",
      "description": "You have defeated 500 opponents.",
      "howto": "Mission: Eliminate more enemies!"
    },
    {
      "id": 24,
      "imageId": 4,
      "cred": 30,
      "flags": 1,
      "label": "Kill 1,000",
      "description": "You have defeated 1,000 opponents.",
      "howto": "Mission: Eliminate even more enemies!"
    },
    {
      "id": 25,
      "imageId": 5,
      "cred": 5,
      "flags": 1,
      "label": "Self 100",
      "description": "You have died 100 times to bombs you set.",
      "howto": "Chump Award: Die by bombs you have set."
    },
    {
      "id": 26,
      "imageId": 5,
      "cred": 5,
      "flags": 1,
      "label": "Pressure Block 100",
      "description": "You have been crushed to death 100 times by Pressure Blocks.",
      "howto": "Chump Award: Die by Pressure Blocks."
    },
    {
      "id": 27,
      "imageId": 5,
      "cred": 5,
      "flags": 1,
      "label": "Draw 100",
      "description": "You have died 100 times to time-up draws.",
      "howto": "Chump Award: Die by going over the time limit."
    },
    {
      "id": 28,
      "imageId": 6,
      "cred": 10,
      "flags": 6,
      "label": "Battle 100",
      "description": "You have had 100 battles.",
      "howto": "Mission: Start battles!"
    },
    {
      "id": 29,
      "imageId": 6,
      "cred": 20,
      "flags": 6,
      "label": "Battle 1,000",
      "description": "You have had 1,000 battles.",
      "howto": "Mission: Start more battles!"
    },
    {
      "id": 30,
      "imageId": 6,
      "cred": 30,
      "flags": 1,
      "label": "Battle 10,000",
      "description": "You have had 10,000 battles.",
      "howto": "Mission: Start even more battles!"
    },
    {
      "id": 31,
      "imageId": 7,
      "cred": 5,
      "flags": 6,
      "label": "Battle Score 5,000",
      "description": "You have reached a Battle Score of 5,000 points.",
      "howto": "Mission: Get a Battle Score of 5,000 points!"
    },
    {
      "id": 32,
      "imageId": 7,
      "cred": 10,
      "flags": 6,
      "label": "Battle Score 10,000",
      "description": "You have reached a Battle Score of 10,000 points.",
      "howto": "Mission: Get a Battle Score of 10,000 points!"
    },
    {
      "id": 33,
      "imageId": 7,
      "cred": 20,
      "flags": 6,
      "label": "Battle Score 50,000",
      "description": "You have reached a Battle Score of 50,000 points.",
      "howto": "Mission: Get a Battle Score of 50,000 points!"
    },
    {
      "id": 35,
      "imageId": 7,
      "cred": 30,
      "flags": 6,
      "label": "Battle Score 100,000",
      "description": "You have reached a Battle Score of 100,000 points.",
      "howto": "Mission: Get a Battle Score of 100,000 points!"
    },
    {
      "id": 36,
      "imageId": 7,
      "cred": 50,
      "flags": 1,
      "label": "Battle Score 1,000,000",
      "description": "You have reached a Battle Score of 1,000,000 points.",
      "howto": "Mission: Get a Battle Score of 1,000,000 points!"
    },
    {
      "id": 37,
      "imageId": 8,
      "cred": 20,
      "flags": 1,
      "label": "Special 1",
      "description": "You have won without obtaining any Power Up Panels.",
      "howto": "Special Mission: Destroy all enemies without powering up!"
    },
    {
      "id": 38,
      "imageId": 8,
      "cred": 5,
      "flags": 1,
      "label": "Special 2",
      "description": "You have played with both male and female frames.",
      "howto": "Special Mission: Use two types of frames!"
    },
    {
      "id": 39,
      "imageId": 8,
      "cred": 10,
      "flags": 1,
      "label": "Special 3",
      "description": "You have played using all of the characters.\r\n",
      "howto": "Special Mission: Use all of the characters!\r\n"
    },
    {
      "id": 40,
      "imageId": 9,
      "cred": 10,
      "flags": 6,
      "label": "Battle Royal - Kill 10",
      "description": "You have defeated 10 people in Battle Royal.",
      "howto": "Mission: Defeat 10 people in Battle Royal!"
    },
    {
      "id": 41,
      "imageId": 9,
      "cred": 20,
      "flags": 6,
      "label": "Battle Royal - Kill 30",
      "description": "You have defeated 30 people in Battle Royal.",
      "howto": "Mission: Defeat 30 people in Battle Royal!"
    },
    {
      "id": 42,
      "imageId": 9,
      "cred": 30,
      "flags": 6,
      "label": "Battle Royal - Kill 50",
      "description": "You have defeated 50 people in Battle Royal.",
      "howto": "Mission: Defeat 50 people in Battle Royal!"
    },
    {
      "id": 43,
      "imageId": 9,
      "cred": 50,
      "flags": 1,
      "label": "Battle Royal - Kill 100",
      "description": "You have defeated 100 people in Battle Royal.",
      "howto": "Mission: Defeat 100 people in Battle Royal!"
    },
    {
      "id": 44,
      "imageId": 10,
      "cred": 10,
      "flags": 6,
      "label": "Clear Round 10!",
      "description": "You have cleared 10 screens in Single Battle mode.",
      "howto": "Mission: Clear up to Round 10 in Single Battle mode!"
    },
    {
      "id": 45,
      "imageId": 10,
      "cred": 10,
      "flags": 6,
      "label": "Clear Round 20!",
      "description": "You have cleared 20 screens in Single Battle mode.",
      "howto": "Mission: Clear up to Round 20 in Single Battle mode!"
    },
    {
      "id": 46,
      "imageId": 10,
      "cred": 10,
      "flags": 6,
      "label": "Clear Round 30!",
      "description": "You have cleared 30 screens in Single Battle mode.",
      "howto": "Mission: Clear up to Round 30 in Single Battle mode!"
    },
    {
      "id": 47,
      "imageId": 10,
      "cred": 10,
      "flags": 6,
      "label": "Clear Round 40!",
      "description": "You have cleared 40 screens in Single Battle mode.",
      "howto": "Mission: Clear up to Round 40 in Single Battle mode!"
    },
    {
      "id": 51,
      "imageId": 10,
      "cred": 10,
      "flags": 6,
      "label": "Clear Round 50!",
      "description": "You have cleared 50 screens in Single Battle mode.",
      "howto": "Mission: Clear up to Round 50 in Single Battle mode!"
    },
    {
      "id": 52,
      "imageId": 10,
      "cred": 10,
      "flags": 6,
      "label": "Clear Round 60!",
      "description": "You have cleared 60 screens in Single Battle mode.",
      "howto": "Mission: Clear up to Round 60 in Single Battle mode!"
    },
    {
      "id": 53,
      "imageId": 10,
      "cred": 10,
      "flags": 6,
      "label": "Clear Round 70!",
      "description": "You have cleared 70 screens in Single Battle mode.",
      "howto": "Mission: Clear up to Round 70 in Single Battle mode!"
    },
    {
      "id": 54,
      "imageId": 10,
      "cred": 10,
      "flags": 6,
      "label": "Clear Round 80!",
      "description": "You have cleared 80 screens in Single Battle mode.",
      "howto": "Mission: Clear up to Round 80 in Single Battle mode!"
    },
    {
      "id": 55,
      "imageId": 10,
      "cred": 10,
      "flags": 6,
      "label": "Clear Round 90!",
      "description": "You have cleared 90 screens in Single Battle mode.",
      "howto": "Mission: Clear up to Round 90 in Single Battle mode!"
    },
    {
      "id": 56,
      "imageId": 11,
      "cred": 50,
      "flags": 1,
      "label": "You reached the Land of Despair.",
      "description": "Single Battle mode is all clear! Get back to the surface!",
      "howto": "Mission: Clear Single Battle mode!"
    },
    {
      "id": 57,
      "imageId": 12,
      "cred": 10,
      "flags": 6,
      "label": "Survival Time 200",
      "description": "You have cleared Single Battle mode within 200 minutes.",
      "howto": "Mission: Clear Single Battle mode within 200 minutes!"
    },
    {
      "id": 58,
      "imageId": 12,
      "cred": 20,
      "flags": 6,
      "label": "Survival Time 150",
      "description": "You have cleared Single Battle mode within 150 minutes.",
      "howto": "Clear Single Battle mode within 150 minutes!"
    },
    {
      "id": 59,
      "imageId": 12,
      "cred": 50,
      "flags": 1,
      "label": "Survival Time 100",
      "description": "You have cleared Single Battle mode within 100 minutes.",
      "howto": "Mission: Clear Single Battle mode within 100 minutes!"
    },
    {
      "id": 60,
      "imageId": 13,
      "cred": 5,
      "flags": 6,
      "label": "Room Master",
      "description": "You have created a room and fought a battle.\r\n",
      "howto": "Mission: Create a room and fight a battle!\r\n"
    },
    {
      "id": 61,
      "imageId": 13,
      "cred": 10,
      "flags": 6,
      "label": "Room Master 10",
      "description": "You have created rooms and fought 10 battles.\r\n",
      "howto": "Mission: Create more rooms and fight more battles!\r\n"
    },
    {
      "id": 62,
      "imageId": 13,
      "cred": 30,
      "flags": 1,
      "label": "Room Master 100",
      "description": "You have created rooms and fought 100 battles.\r\n",
      "howto": "Mission: Create more rooms and fight even more battles!\r\n"
    }
  ]
}