{
  "achievementsPossible": 12,
  "credPossible": 200,
  "achievements": [
    {
      "id": 1,
      "imageId": 1,
      "cred": 5,
      "flags": 6,
      "label": "Enlistment",
      "description": "Entered the Main Menu",
      "howto": "Enter the Main Menu"
    },
    {
      "id": 2,
      "imageId": 2,
      "cred": 5,
      "flags": 1,
      "label": "Crucible",
      "description": "Cleared the game on Normal in single player mode",
      "howto": "Clear the game on Normal in single player mode"
    },
    {
      "id": 3,
      "imageId": 3,
      "cred": 5,
      "flags": 1,
      "label": "Onslaught",
      "description": "Cleared the game on Hard in single player mode",
      "howto": "Clear the game on Hard in single player mode"
    },
    {
      "id": 4,
      "imageId": 4,
      "cred": 5,
      "flags": 6,
      "label": "Wings of Friendship",
      "description": "Played a CO-OP Mode game",
      "howto": "Play a CO-OP Mode game"
    },
    {
      "id": 5,
      "imageId": 5,
      "cred": 10,
      "flags": 4,
      "label": "Sandwich Man",
      "description": "Killed 10 Sandwich enemies",
      "howto": "Kill 10 Sandwich enemies"
    },
    {
      "id": 6,
      "imageId": 6,
      "cred": 10,
      "flags": 4,
      "label": "Snake Killer",
      "description": "Killed 10 Snake enemies",
      "howto": "Kill 10 Snake enemies"
    },
    {
      "id": 7,
      "imageId": 7,
      "cred": 10,
      "flags": 4,
      "label": "Mosquito Killer",
      "description": "Killed 10 Mosquito enemies",
      "howto": "Kill 10 Mosquito enemies"
    },
    {
      "id": 8,
      "imageId": 8,
      "cred": 20,
      "flags": 4,
      "label": "Valiant Warrior",
      "description": "Killed 100 targets in CO-OP Mode",
      "howto": "Kill 100 targets in CO-OP Mode"
    },
    {
      "id": 9,
      "imageId": 9,
      "cred": 20,
      "flags": 4,
      "label": "Like taking candy from a baby",
      "description": "Occupied all control points in CONTROL POINT MODE",
      "howto": "Occupy all control points in  CONTROL POINT MODE"
    },
    {
      "id": 10,
      "imageId": 10,
      "cred": 30,
      "flags": 4,
      "label": "May Day King",
      "description": "Got shot down 256 times",
      "howto": "Get shot down 256 times"
    },
    {
      "id": 11,
      "imageId": 11,
      "cred": 30,
      "flags": 1,
      "label": "Gold Hammer",
      "description": "Cleared the game on Normal difficulty or harder without losing a life",
      "howto": ""
    },
    {
      "id": 12,
      "imageId": 12,
      "cred": 50,
      "flags": 1,
      "label": "Ruler of the Universe",
      "description": "Earned every rank",
      "howto": ""
    }
  ]
}