{
  "achievementsPossible": 30,
  "credPossible": 1000,
  "achievements": [
    {
      "id": 1,
      "imageId": 28,
      "cred": 100,
      "flags": 1,
      "label": "World Class",
      "description": "Finish 50 races on Xbox Live",
      "howto": "Finish 50 races on Xbox Live"
    },
    {
      "id": 2,
      "imageId": 14,
      "cred": 15,
      "flags": 1,
      "label": "MX vs ATV East",
      "description": "Place 3rd or higher in the MX vs ATV East Career ",
      "howto": "Place 3rd or higher in the MX vs ATV East Career "
    },
    {
      "id": 3,
      "imageId": 16,
      "cred": 15,
      "flags": 1,
      "label": "MX vs ATV West",
      "description": "Place 3rd or higher in the MX vs ATV West Career ",
      "howto": "Place 3rd or higher in the MX vs ATV West Career "
    },
    {
      "id": 4,
      "imageId": 5,
      "cred": 15,
      "flags": 1,
      "label": "Coming on Strong",
      "description": "Lap an Opponent in a Race",
      "howto": "Lap an Opponent in a Race"
    },
    {
      "id": 5,
      "imageId": 1,
      "cred": 15,
      "flags": 1,
      "label": "Ace in the Hole",
      "description": "Win 10 Holeshots",
      "howto": "Win 10 Holeshots"
    },
    {
      "id": 6,
      "imageId": 20,
      "cred": 15,
      "flags": 1,
      "label": "Showboat",
      "description": "Pull off three unique stunts in a Race Event",
      "howto": "Pull off three unique stunts in a Race Event"
    },
    {
      "id": 7,
      "imageId": 26,
      "cred": 15,
      "flags": 1,
      "label": "Tuning In",
      "description": "Equip an upgrade part",
      "howto": "Equip an upgrade part"
    },
    {
      "id": 8,
      "imageId": 50,
      "cred": 15,
      "flags": 1,
      "label": "Gone Shopping",
      "description": "Visit the MotoClub Depot",
      "howto": "Visit the MotoClub Depot"
    },
    {
      "id": 9,
      "imageId": 22,
      "cred": 15,
      "flags": 1,
      "label": "Step Into the Arena",
      "description": "Complete an Xbox Live match",
      "howto": "Complete an Xbox Live match"
    },
    {
      "id": 10,
      "imageId": 51,
      "cred": 15,
      "flags": 1,
      "label": "Inverted",
      "description": "Land a backflip",
      "howto": "Land a backflip"
    },
    {
      "id": 11,
      "imageId": 25,
      "cred": 15,
      "flags": 1,
      "label": "Trickster",
      "description": "Perform any airborne stunt and land successfully ",
      "howto": "Perform any airborne stunt and land successfully "
    },
    {
      "id": 12,
      "imageId": 8,
      "cred": 15,
      "flags": 1,
      "label": "High Miles",
      "description": "Ride for over 100 miles in Free Ride",
      "howto": "Ride for over 100 miles in Free Ride"
    },
    {
      "id": 13,
      "imageId": 7,
      "cred": 100,
      "flags": 1,
      "label": "Greatest of All Time",
      "description": "Place 1st in all tracks in Career",
      "howto": "Place 1st in all tracks in Career"
    },
    {
      "id": 14,
      "imageId": 11,
      "cred": 100,
      "flags": 1,
      "label": "Long Live the King",
      "description": "Place 1st in 25 Xbox Live matches ",
      "howto": "Place 1st in 25 Xbox Live matches "
    },
    {
      "id": 15,
      "imageId": 29,
      "cred": 100,
      "flags": 1,
      "label": "You are Legend",
      "description": "Place 1st in any Race on All-Time difficulty ",
      "howto": "Place 1st in any Race on All-Time difficulty "
    },
    {
      "id": 16,
      "imageId": 21,
      "cred": 50,
      "flags": 1,
      "label": "Showtime",
      "description": "Pull off 100 stunts",
      "howto": "Pull off 100 stunts"
    },
    {
      "id": 17,
      "imageId": 13,
      "cred": 50,
      "flags": 1,
      "label": "450 Championship",
      "description": "Place 3rd or higher in the 450 Championship Career",
      "howto": "Place 3rd or higher in the 450 Championship Career"
    },
    {
      "id": 18,
      "imageId": 3,
      "cred": 50,
      "flags": 1,
      "label": "ATV Championship",
      "description": "Place 3rd or higher in the ATV Championship Career",
      "howto": "Place 3rd or higher in the ATV Championship Career"
    },
    {
      "id": 19,
      "imageId": 15,
      "cred": 50,
      "flags": 1,
      "label": "MX vs ATV Championship",
      "description": "Place 3rd or higher in the MX vs ATV Championship Career ",
      "howto": "Place 3rd or higher in the MX vs ATV Championship Career "
    },
    {
      "id": 20,
      "imageId": 18,
      "cred": 50,
      "flags": 1,
      "label": "On the Right Track",
      "description": "Finish a race without going off track",
      "howto": "Finish a race without going off track"
    },
    {
      "id": 21,
      "imageId": 6,
      "cred": 50,
      "flags": 1,
      "label": "Endurance",
      "description": "Complete 25 Xbox Live matches",
      "howto": "Complete 25 Xbox Live matches"
    },
    {
      "id": 22,
      "imageId": 24,
      "cred": 15,
      "flags": 1,
      "label": "To the Victor...",
      "description": "Place 1st in an Xbox Live match with 11 human opponents",
      "howto": "Place 1st in an Xbox Live match with 11 human opponents"
    },
    {
      "id": 23,
      "imageId": 19,
      "cred": 15,
      "flags": 1,
      "label": "Ouch",
      "description": "Wreck 50 times",
      "howto": "Wreck 50 times"
    },
    {
      "id": 24,
      "imageId": 10,
      "cred": 15,
      "flags": 1,
      "label": "Long Jumper",
      "description": "Land a jump distance of 200 feet or greater",
      "howto": "Land a jump distance of 200 feet or greater"
    },
    {
      "id": 25,
      "imageId": 27,
      "cred": 15,
      "flags": 1,
      "label": "Wheelie King",
      "description": "Pull a wheelie over 150 feet",
      "howto": "Pull a wheelie over 150 feet"
    },
    {
      "id": 26,
      "imageId": 23,
      "cred": 15,
      "flags": 1,
      "label": "Stoppie Master",
      "description": "Pull a stoppie over 25 feet",
      "howto": "Pull a stoppie over 25 feet"
    },
    {
      "id": 27,
      "imageId": 12,
      "cred": 15,
      "flags": 1,
      "label": "250 East",
      "description": "Place 3rd or higher in the 250 East Career ",
      "howto": "Place 3rd or higher in the 250 East Career "
    },
    {
      "id": 28,
      "imageId": 17,
      "cred": 15,
      "flags": 1,
      "label": "250 West",
      "description": "Place 3rd or higher in the 250 West Career ",
      "howto": "Place 3rd or higher in the 250 West Career "
    },
    {
      "id": 29,
      "imageId": 2,
      "cred": 15,
      "flags": 1,
      "label": "ATV East",
      "description": "Place 3rd or higher in the ATV East Career ",
      "howto": "Place 3rd or higher in the ATV East Career "
    },
    {
      "id": 30,
      "imageId": 4,
      "cred": 15,
      "flags": 1,
      "label": "ATV West",
      "description": "Place 3rd or higher in the ATV West Career ",
      "howto": "Place 3rd or higher in the ATV West Career "
    }
  ]
}