{
  "achievementsPossible": 50,
  "credPossible": 1000,
  "achievements": [
    {
      "id": 1,
      "imageId": 1,
      "cred": 10,
      "flags": 1,
      "label": "Salsa Sizzle",
      "description": "Completed all Salsa Tutorials",
      "howto": "Complete all Salsa Tutorials"
    },
    {
      "id": 2,
      "imageId": 2,
      "cred": 10,
      "flags": 1,
      "label": "Merengue Master",
      "description": "Completed all Merengue Tutorials",
      "howto": "Complete all Merengue Tutorials"
    },
    {
      "id": 3,
      "imageId": 3,
      "cred": 10,
      "flags": 1,
      "label": "Reggaeton Rouser",
      "description": "Completed all Reggaeton Tutorials",
      "howto": "Complete all Reggaeton Tutorials"
    },
    {
      "id": 4,
      "imageId": 4,
      "cred": 10,
      "flags": 1,
      "label": "Bellydance Bump",
      "description": "Completed all Belly Dance Tutorials",
      "howto": "Complete all Belly Dance Tutorials"
    },
    {
      "id": 5,
      "imageId": 5,
      "cred": 10,
      "flags": 1,
      "label": "Calypso Cruisin'",
      "description": "Completed all Calypso Tutorials",
      "howto": "Complete all Calypso Tutorials"
    },
    {
      "id": 6,
      "imageId": 6,
      "cred": 10,
      "flags": 1,
      "label": "Cumbia Crackin'",
      "description": "Completed all Cumbia Tutorials",
      "howto": "Complete all Cumbia Tutorials"
    },
    {
      "id": 7,
      "imageId": 7,
      "cred": 30,
      "flags": 1,
      "label": "Zumba Starter",
      "description": "Completed \"Learn the Moves\" Mode",
      "howto": "Complete \"Learn the Moves\" Mode"
    },
    {
      "id": 8,
      "imageId": 8,
      "cred": 10,
      "flags": 1,
      "label": "Are you Ready?",
      "description": "Completed all Beginner Classes on the Punchcard (2 Total)",
      "howto": "Complete all Beginner Classes on the Punchcard (2 Total)"
    },
    {
      "id": 9,
      "imageId": 9,
      "cred": 10,
      "flags": 1,
      "label": "Zumbalicious",
      "description": "Completed all Intermediate Classes on the Punchcard (4 Total)",
      "howto": "Complete all Intermediate Classes on the Punchcard (4 Total)"
    },
    {
      "id": 10,
      "imageId": 10,
      "cred": 20,
      "flags": 1,
      "label": "Feel the Heat!",
      "description": "Completed all Expert Classes on the Punchcard (4 Total)",
      "howto": "Complete all Expert Classes on the Punchcard (4 Total)"
    },
    {
      "id": 11,
      "imageId": 11,
      "cred": 10,
      "flags": 1,
      "label": "Steel Time",
      "description": "Unlocked the Factory Venue",
      "howto": "Unlock the Factory Venue"
    },
    {
      "id": 12,
      "imageId": 12,
      "cred": 10,
      "flags": 1,
      "label": "Sky Dancer",
      "description": "Unlocked the Rooftop Venue",
      "howto": "Unlock the Rooftop Venue"
    },
    {
      "id": 13,
      "imageId": 13,
      "cred": 10,
      "flags": 1,
      "label": "Super Stardom",
      "description": "Unlocked the Stadium Venue",
      "howto": "Unlock the Stadium Venue"
    },
    {
      "id": 14,
      "imageId": 14,
      "cred": 20,
      "flags": 1,
      "label": "Master Jammer",
      "description": "Unlocked Zumbathon® Class",
      "howto": "Unlock Zumbathon® Class"
    },
    {
      "id": 15,
      "imageId": 15,
      "cred": 20,
      "flags": 1,
      "label": "Master Jammer Extreme",
      "description": "Completed Zumbathon® Class on Easy Difficulty",
      "howto": "Complete Zumbathon® Class on Easy Difficulty"
    },
    {
      "id": 16,
      "imageId": 16,
      "cred": 30,
      "flags": 1,
      "label": "Beto Shuffler",
      "description": "Completed Zumbathon® Class on Medium Difficulty",
      "howto": "Complete Zumbathon® Class on Medium Difficulty"
    },
    {
      "id": 17,
      "imageId": 17,
      "cred": 40,
      "flags": 1,
      "label": "Zumbathon® Hero",
      "description": "Completed Zumbathon® Class on Hard Difficulty",
      "howto": "Complete Zumbathon® Class on Hard Difficulty"
    },
    {
      "id": 18,
      "imageId": 18,
      "cred": 30,
      "flags": 1,
      "label": "Warmup Session",
      "description": "Completed all 20 Minute Classes (8 Total: 2 Beg, 3 Int, 3 Exp)",
      "howto": "Complete all 20 Minute Classes (8 Total: 2 Beg, 3 Int, 3 Exp)"
    },
    {
      "id": 19,
      "imageId": 19,
      "cred": 30,
      "flags": 1,
      "label": "Zumba Hero",
      "description": "Completed all 45 Minute Intermediate Classes (6 Total)",
      "howto": "Complete all 45 Minute Intermediate Classes (6 Total)"
    },
    {
      "id": 20,
      "imageId": 20,
      "cred": 30,
      "flags": 1,
      "label": "Alpha Beto Capper",
      "description": "Completed all 45 Minute Expert Classes (5 Total)",
      "howto": "Complete all 45 Minute Expert Classes (5 Total)"
    },
    {
      "id": 21,
      "imageId": 21,
      "cred": 40,
      "flags": 1,
      "label": "Zumba Master",
      "description": "Completed all Zumba Classes (19 Classes Total)",
      "howto": "Complete all Zumba Classes (19 Classes Total)"
    },
    {
      "id": 22,
      "imageId": 22,
      "cred": 30,
      "flags": 1,
      "label": "Mind-blowing Moves",
      "description": "Completed all Single Routines (30 Total)",
      "howto": "Complete all Single Routines (30 Total)"
    },
    {
      "id": 23,
      "imageId": 23,
      "cred": 10,
      "flags": 1,
      "label": "Join the Party!",
      "description": "Achieved 10 Consecutive \"Hearing the Music\" Moves ",
      "howto": "Achieve 10 Consecutive \"Hearing the Music\" Moves "
    },
    {
      "id": 24,
      "imageId": 24,
      "cred": 20,
      "flags": 1,
      "label": "Drastic Dancer",
      "description": "Achieved 20 Consecutive \"Feeling the Music\" Moves ",
      "howto": "Achieve 20 Consecutive \"Feeling the Music\" Moves "
    },
    {
      "id": 25,
      "imageId": 25,
      "cred": 10,
      "flags": 1,
      "label": "Club Hopper",
      "description": "Achieved Full Stage Progression in Nightclub",
      "howto": "Achieve Full Stage Progression in Nightclub"
    },
    {
      "id": 26,
      "imageId": 26,
      "cred": 10,
      "flags": 1,
      "label": "You're a Machine",
      "description": "Achieved Full Stage Progression in Factory",
      "howto": "Achieve Full Stage Progression in Factory"
    },
    {
      "id": 27,
      "imageId": 27,
      "cred": 10,
      "flags": 1,
      "label": "Skyscraper",
      "description": "Achieved Full Stage Progression in Rooftop",
      "howto": "Achieve Full Stage Progression in Rooftop"
    },
    {
      "id": 28,
      "imageId": 28,
      "cred": 10,
      "flags": 1,
      "label": "Headliner",
      "description": "Achieved Full Stage Progression in Stadium",
      "howto": "Achieve Full Stage Progression in Stadium"
    },
    {
      "id": 29,
      "imageId": 29,
      "cred": 30,
      "flags": 1,
      "label": "Afterglow",
      "description": "Achieved a Score of 500 or Higher in an offline, single-player game",
      "howto": "Achieve a Score of 500 or Higher in an offline, single-player game"
    },
    {
      "id": 30,
      "imageId": 30,
      "cred": 20,
      "flags": 1,
      "label": "Challenge Champ",
      "description": "Won a Zumba Attack",
      "howto": "Win a Zumba Attack"
    },
    {
      "id": 31,
      "imageId": 31,
      "cred": 20,
      "flags": 1,
      "label": "Party Pro",
      "description": "Won a 2P vs 2P Workout",
      "howto": "Win a 2P vs 2P Workout"
    },
    {
      "id": 32,
      "imageId": 32,
      "cred": 10,
      "flags": 1,
      "label": "Goals Tender",
      "description": "Customized a Calendar Day",
      "howto": "Customize a Calendar Day"
    },
    {
      "id": 33,
      "imageId": 33,
      "cred": 10,
      "flags": 1,
      "label": "Personal Time",
      "description": "Saved a Customized Recurring Week",
      "howto": "Save a Customized Recurring Week"
    },
    {
      "id": 34,
      "imageId": 34,
      "cred": 30,
      "flags": 1,
      "label": "Zumbafied!",
      "description": "Danced Online with 50 Different People",
      "howto": "Dance Online with 50 Different People"
    },
    {
      "id": 35,
      "imageId": 35,
      "cred": 10,
      "flags": 1,
      "label": "Great Start!",
      "description": "Completed 5  Workouts",
      "howto": "Complete 5  Workouts"
    },
    {
      "id": 36,
      "imageId": 36,
      "cred": 20,
      "flags": 1,
      "label": "Exhilarating!",
      "description": "Completed 10 Workouts",
      "howto": "Complete 10 Workouts"
    },
    {
      "id": 37,
      "imageId": 37,
      "cred": 30,
      "flags": 1,
      "label": "Energizing!",
      "description": "Completed 25 Workouts",
      "howto": "Complete 25 Workouts"
    },
    {
      "id": 38,
      "imageId": 38,
      "cred": 40,
      "flags": 1,
      "label": "Awe-Inspiring!",
      "description": "Completed 50 Workouts",
      "howto": "Complete 50 Workouts"
    },
    {
      "id": 39,
      "imageId": 39,
      "cred": 50,
      "flags": 1,
      "label": "You're Hooked!",
      "description": "Completed 100 Workouts",
      "howto": "Complete 100 Workouts"
    },
    {
      "id": 40,
      "imageId": 40,
      "cred": 20,
      "flags": 1,
      "label": "Zumba Enthusiast",
      "description": "Completed Workouts 5 Days in a Row",
      "howto": "Complete Workouts 5 Days in a Row"
    },
    {
      "id": 52,
      "imageId": 41,
      "cred": 30,
      "flags": 1,
      "label": "Zumba Fanatic",
      "description": "Completed Workouts 10 Days in a Row",
      "howto": "Complete Workouts 10 Days in a Row"
    },
    {
      "id": 53,
      "imageId": 42,
      "cred": 50,
      "flags": 1,
      "label": "Zumbatomic",
      "description": "Completed Workouts 30 Days in a Row",
      "howto": "Complete Workouts 30 Days in a Row"
    },
    {
      "id": 54,
      "imageId": 43,
      "cred": 10,
      "flags": 1,
      "label": "Instructor in Training",
      "description": "Hosted an Online Class and Completed the Workout",
      "howto": "Host an Online Class and Complete the Workout"
    },
    {
      "id": 55,
      "imageId": 44,
      "cred": 10,
      "flags": 1,
      "label": "Zumba Maniac",
      "description": "Joined an Online Class and Completed the Workout",
      "howto": "Join an Online Class and Complete the Workout"
    },
    {
      "id": 56,
      "imageId": 45,
      "cred": 10,
      "flags": 1,
      "label": "Everybody Dance Now",
      "description": "Hosted 10 Online Single Routines",
      "howto": "Host 10 Online Single Routines and Complete the Routines"
    },
    {
      "id": 57,
      "imageId": 46,
      "cred": 10,
      "flags": 1,
      "label": "Getting Hooked Up",
      "description": "Joined 10 Online Single Routines",
      "howto": "Join 10 Online Single Routines and Complete the Routines"
    },
    {
      "id": 58,
      "imageId": 47,
      "cred": 10,
      "flags": 1,
      "label": "Cardio Companions",
      "description": "Hosted 10 Online Classes and Completed the Workouts",
      "howto": "Host 10 Online Classes and Complete the Workouts"
    },
    {
      "id": 59,
      "imageId": 48,
      "cred": 20,
      "flags": 1,
      "label": "Dance Dance Dance",
      "description": "Joined 10 Online Classes and Completed the Workouts",
      "howto": "Join 10 Online Classes and Complete the Workouts"
    },
    {
      "id": 60,
      "imageId": 49,
      "cred": 10,
      "flags": 1,
      "label": "Net Workout",
      "description": "Danced Online with 20 Different People",
      "howto": "Dance Online with 20 Different People"
    },
    {
      "id": 61,
      "imageId": 50,
      "cred": 50,
      "flags": 1,
      "label": "Addicted to Zumba!",
      "description": "Danced Online with 100 Different People",
      "howto": "Dance Online with 100 Different People"
    }
  ]
}