{
  "achievementsPossible": 50,
  "credPossible": 1000,
  "achievements": [
    {
      "id": 1,
      "imageId": 11,
      "cred": 20,
      "flags": 4,
      "label": "Location de vidéos",
      "description": "Complétez 10 parties en mode Classique ou Mitraillette.",
      "howto": "Complétez 10 parties en mode Classique ou Mitraillette."
    },
    {
      "id": 2,
      "imageId": 12,
      "cred": 30,
      "flags": 4,
      "label": "Vendeur de film",
      "description": "Complétez 15 parties en mode Classique ou Mitraillette.",
      "howto": "Complétez 15 parties en mode Classique ou Mitraillette."
    },
    {
      "id": 3,
      "imageId": 13,
      "cred": 10,
      "flags": 4,
      "label": "Court-métrage",
      "description": "Jouer une partie courte.",
      "howto": "Jouer une partie courte."
    },
    {
      "id": 4,
      "imageId": 14,
      "cred": 25,
      "flags": 4,
      "label": "Artiste arrière-plan",
      "description": "Gagnez plus de 200 000 points dans une partie courte.",
      "howto": "Gagnez plus de 200 000 points dans une partie courte."
    },
    {
      "id": 5,
      "imageId": 15,
      "cred": 10,
      "flags": 4,
      "label": "Petit rôle",
      "description": "Gagnez plus de 60 000 points dans une partie courte.",
      "howto": "Gagnez plus de 60 000 points dans une partie courte."
    },
    {
      "id": 6,
      "imageId": 16,
      "cred": 20,
      "flags": 4,
      "label": "Second rôle",
      "description": "Gagnez plus de 100 000 points dans une partie courte.",
      "howto": "Gagnez plus de 100 000 points dans une partie courte."
    },
    {
      "id": 7,
      "imageId": 17,
      "cred": 10,
      "flags": 4,
      "label": "Trait héroïque",
      "description": "Jouer une partie longue.",
      "howto": "Jouer une partie longue."
    },
    {
      "id": 8,
      "imageId": 18,
      "cred": 25,
      "flags": 4,
      "label": "Premier rôle",
      "description": "Gagnez plus de 400 000 points dans une partie longue.",
      "howto": "Gagnez plus de 400 000 points dans une partie longue."
    },
    {
      "id": 9,
      "imageId": 19,
      "cred": 20,
      "flags": 4,
      "label": "Star",
      "description": "Gagnez plus de 100 000 points dans une partie longue.",
      "howto": "Gagnez plus de 100 000 points dans une partie longue."
    },
    {
      "id": 10,
      "imageId": 20,
      "cred": 10,
      "flags": 4,
      "label": "Interprétation génial",
      "description": "Gagnez plus de 200 000 points dans une partie longue.",
      "howto": "Gagnez plus de 200 000 points dans une partie longue."
    },
    {
      "id": 11,
      "imageId": 21,
      "cred": 20,
      "flags": 4,
      "label": "Réalisateur",
      "description": "Donnez 10 bonnes réponses à la suite dans n'importe quel mode de jeu.",
      "howto": "Donnez 10 bonnes réponses à la suite dans n'importe quel mode de jeu."
    },
    {
      "id": 12,
      "imageId": 22,
      "cred": 40,
      "flags": 4,
      "label": "Producteur",
      "description": "Donnez 15 bonnes réponses à la suite dans n'importe quel mode de jeu.",
      "howto": "Donnez 15 bonnes réponses à la suite dans n'importe quel mode de jeu."
    },
    {
      "id": 13,
      "imageId": 23,
      "cred": 20,
      "flags": 4,
      "label": "Soliloquiste",
      "description": "Donnez toutes les bonnes réponses dans un casse-tête Pop Quiz ou Foire aux Idées.",
      "howto": "Donnez toutes les bonnes réponses dans un casse-tête Pop Quiz ou Foire aux Idées."
    },
    {
      "id": 14,
      "imageId": 24,
      "cred": 15,
      "flags": 4,
      "label": "Appel d'audition",
      "description": "Jouez une partie complète avec chacun des personnages.",
      "howto": "Jouez une partie complète avec chacun des personnages."
    },
    {
      "id": 15,
      "imageId": 25,
      "cred": 10,
      "flags": 4,
      "label": "Starlette Timide",
      "description": "Complètez une partie avec 2 étoiles inutilisées.",
      "howto": "Complètez une partie avec 2 étoiles inutilisées."
    },
    {
      "id": 16,
      "imageId": 26,
      "cred": 25,
      "flags": 4,
      "label": "Brève apparition",
      "description": "Donnez une bonne réponse dans chaque type de casse-têtes.",
      "howto": "Donnez une bonne réponse dans chaque type de casse-têtes."
    },
    {
      "id": 17,
      "imageId": 27,
      "cred": 20,
      "flags": 4,
      "label": "Mise en scène",
      "description": "Donnez toutes les bonnes réponses dans un casse-tête À l'affiche ou Pictogrammes.",
      "howto": "Donnez toutes les bonnes réponses dans un casse-tête À l'affiche ou Pictogrammes."
    },
    {
      "id": 18,
      "imageId": 28,
      "cred": 20,
      "flags": 4,
      "label": "Revues les journaux",
      "description": "Donnez toutes les bonnes réponses dans un casse-tête Extraits de film.",
      "howto": "Donnez toutes les bonnes réponses dans un casse-tête Extraits de film."
    },
    {
      "id": 19,
      "imageId": 29,
      "cred": 20,
      "flags": 4,
      "label": "Avance rapide",
      "description": "Donnez toutes les bonnes réponses dans un casse-tête Générique ou Citations. ",
      "howto": "Donnez toutes les bonnes réponses dans un casse-tête Générique ou Citations. "
    },
    {
      "id": 20,
      "imageId": 30,
      "cred": 20,
      "flags": 4,
      "label": "Exposition multiple",
      "description": "Donnez toutes les bonnes réponses dans un Clap de fin.",
      "howto": "Donnez toutes les bonnes réponses dans un Clap de fin."
    },
    {
      "id": 21,
      "imageId": 31,
      "cred": 20,
      "flags": 4,
      "label": "Interprétation Méthodiques",
      "description": "Donnez toutes les bonnes réponses dans un casse-tête Qui suis-je ou Liens de personnalités. ",
      "howto": "Donnez toutes les bonnes réponses dans un casse-tête Qui suis-je ou Liens de personnalités. "
    },
    {
      "id": 22,
      "imageId": 32,
      "cred": 20,
      "flags": 4,
      "label": "Titre provisoire",
      "description": "Donnez toutes les bonnes réponses dans un casse-tête Anagrammes ou Pictogrammes.",
      "howto": "Donnez toutes les bonnes réponses dans un casse-tête Anagrammes ou Pictogrammes."
    },
    {
      "id": 23,
      "imageId": 33,
      "cred": 20,
      "flags": 4,
      "label": "Prof de diction",
      "description": "Donnez toutes les bonnes réponses dans un casse-tête Extraits sonores ou Chansons et slogans.",
      "howto": "Donnez toutes les bonnes réponses dans un casse-tête Extraits sonores ou Chansons et slogans."
    },
    {
      "id": 24,
      "imageId": 34,
      "cred": 20,
      "flags": 4,
      "label": "Flou artistique",
      "description": "Donnez toutes les bonnes réponses dans un casse-tête Unissez-les ou Chronologie.",
      "howto": "Donnez toutes les bonnes réponses dans un casse-tête Unissez-les ou Chronologie."
    },
    {
      "id": 25,
      "imageId": 35,
      "cred": 20,
      "flags": 4,
      "label": "À la recherche du MacGuffin",
      "description": "Donnez toutes les bonnes réponses dans un casse-tête Invisibles ou Accessoires.",
      "howto": "Donnez toutes les bonnes réponses dans un casse-tête Invisibles ou Accessoires."
    },
    {
      "id": 26,
      "imageId": 36,
      "cred": 20,
      "flags": 4,
      "label": "Pro du viseur",
      "description": "Donnez toutes les bonnes réponses dans un casse-tête Réalité déformée ou Casse-têtes visuels.",
      "howto": "Donnez toutes les bonnes réponses dans un casse-tête Réalité déformée ou Casse-têtes visuels."
    },
    {
      "id": 27,
      "imageId": 37,
      "cred": 20,
      "flags": 4,
      "label": "Remplissage de story-boards",
      "description": "Donnez toutes les bonnes réponses dans un casse-tête Croquis, Film de pixels ou Jeu d'enfant.",
      "howto": "Donnez toutes les bonnes réponses dans un casse-tête Croquis, Film de pixels ou Jeu d'enfant."
    },
    {
      "id": 28,
      "imageId": 38,
      "cred": 20,
      "flags": 4,
      "label": "Avant-première",
      "description": "Répondez à 30 questions avec le maximum de points.",
      "howto": "Répondez à 30 questions avec le maximum de points."
    },
    {
      "id": 29,
      "imageId": 39,
      "cred": 20,
      "flags": 4,
      "label": "Que la fête continue !",
      "description": "Répondez à 50 questions dans le Mode party.",
      "howto": "Répondez à 50 questions dans le Mode party."
    },
    {
      "id": 30,
      "imageId": 40,
      "cred": 20,
      "flags": 4,
      "label": "Boute-en-train",
      "description": "Marquez le plus de points dans 5 groupes de casse-têtes consécutifs dans la Mode Party à 4 joueurs.",
      "howto": "Marquez le plus de points dans 5 groupes de casse-têtes consécutifs dans la Mode Party à 4 joueurs."
    },
    {
      "id": 31,
      "imageId": 41,
      "cred": 10,
      "flags": 4,
      "label": "Quiz à 4",
      "description": "Jouez une partie à 4 joueurs.",
      "howto": "Jouez une partie à 4 joueurs."
    },
    {
      "id": 32,
      "imageId": 42,
      "cred": 10,
      "flags": 4,
      "label": "Vol de bonus",
      "description": "Activez et gagnez le Star-system deux fois dans une même partie.",
      "howto": "Activez et gagnez le Star-system deux fois dans une même partie."
    },
    {
      "id": 33,
      "imageId": 43,
      "cred": 30,
      "flags": 4,
      "label": "Score héroïque",
      "description": "Marquez plus de 150 000 points dans une partie courte à 2 joueurs ou plus.",
      "howto": "Marquez plus de 150 000 points dans une partie courte à 2 joueurs ou plus."
    },
    {
      "id": 34,
      "imageId": 44,
      "cred": 30,
      "flags": 4,
      "label": "Aucune marge d'erreur",
      "description": "Gagnez une partie courte avec moins de 1 000 points.",
      "howto": "Gagnez une partie courte avec moins de 1 000 points."
    },
    {
      "id": 35,
      "imageId": 45,
      "cred": 30,
      "flags": 4,
      "label": "Score de légende",
      "description": "Marquez plus de 300 000 points dans une partie longue à 2 joueurs ou plus.",
      "howto": "Marquez plus de 300 000 points dans une partie longue à 2 joueurs ou plus."
    },
    {
      "id": 36,
      "imageId": 46,
      "cred": 30,
      "flags": 4,
      "label": "De justesse",
      "description": "Gagnez une partie longue avec moins de 1 000 points.",
      "howto": "Gagnez une partie longue avec moins de 1 000 points."
    },
    {
      "id": 37,
      "imageId": 47,
      "cred": 50,
      "flags": 4,
      "label": "Performance impeccable",
      "description": "Répondez correctement à toutes les questions dans une partie longue.",
      "howto": "Répondez correctement à toutes les questions dans une partie longue."
    },
    {
      "id": 38,
      "imageId": 48,
      "cred": 20,
      "flags": 4,
      "label": "Chaud-froid",
      "description": "Répondez à un casse-têtes complet correctement et un autre incorrectement dans une partie courte.",
      "howto": "Répondez à un casse-têtes complet correctement et un autre incorrectement dans une partie courte."
    },
    {
      "id": 39,
      "imageId": 49,
      "cred": 10,
      "flags": 4,
      "label": "Rythme endiablé",
      "description": "Marquez plus de 250 000 points dans une partie Mitraillette.",
      "howto": "Marquez plus de 250 000 points dans une partie Mitraillette."
    },
    {
      "id": 40,
      "imageId": 50,
      "cred": 20,
      "flags": 4,
      "label": "Plus rapide que la lumière",
      "description": "Marquez plus de 500 000 points dans une partie Mitraillette.",
      "howto": "Marquez plus de 500 000 points dans une partie Mitraillette."
    },
    {
      "id": 41,
      "imageId": 51,
      "cred": 10,
      "flags": 4,
      "label": "Faux départ",
      "description": "Marquez moins de 50 000 points dans une partie Mitraillette.",
      "howto": "Marquez moins de 50 000 points dans une partie Mitraillette."
    },
    {
      "id": 42,
      "imageId": 52,
      "cred": 20,
      "flags": 4,
      "label": "Venu par-derrière",
      "description": "Soyez le 4e à la fin d'une manche d'une partie longue, puis remportez le jeu.",
      "howto": "Soyez le 4e à la fin d'une manche d'une partie longue, puis remportez le jeu."
    },
    {
      "id": 43,
      "imageId": 53,
      "cred": 10,
      "flags": 4,
      "label": "Pente savonneuse",
      "description": "Perdez l'avantage 5 fois dans une même partie.",
      "howto": "Perdez l'avantage 5 fois dans une même partie."
    },
    {
      "id": 44,
      "imageId": 54,
      "cred": 30,
      "flags": 4,
      "label": "Échelon supérieur",
      "description": "Dans une partie à 2 joueurs ou plus, gagnez plus de points que les autres dans 4 catégories.",
      "howto": "Dans une partie à 2 joueurs ou plus, gagnez plus de points que les autres dans 4 catégories."
    },
    {
      "id": 45,
      "imageId": 55,
      "cred": 15,
      "flags": 4,
      "label": "Meilleur film",
      "description": "Répondez correctement à 40 questions à propos de films récompensés aux Oscars®.",
      "howto": "Répondez correctement à 40 questions à propos de films récompensés aux Oscars®."
    },
    {
      "id": 46,
      "imageId": 56,
      "cred": 15,
      "flags": 4,
      "label": "Meilleur acteur",
      "description": "Répondez correctement à 35 questions dans Pop Quiz à propos de récipiendaires de prix Oscar®.",
      "howto": "Répondez correctement à 35 questions dans Pop Quiz à propos de récipiendaires de prix Oscar®."
    },
    {
      "id": 47,
      "imageId": 57,
      "cred": 20,
      "flags": 4,
      "label": " Tour de l'archive de films",
      "description": "Donnez 100 bonnes réponses en Casse-têtes visuels, Réalité déformée, Accessoires ou Ce qui manque.",
      "howto": "Donnez 100 bonnes réponses en Casse-têtes visuels, Réalité déformée, Accessoires ou Ce qui manque."
    },
    {
      "id": 48,
      "imageId": 58,
      "cred": 20,
      "flags": 4,
      "label": "Galerie d'art",
      "description": "Donnez 100 bonnes réponses en Croquis,Jeu d'enfant, Films de pixels ou À l'affiche.",
      "howto": "Donnez 100 bonnes réponses en Croquis,Jeu d'enfant, Films de pixels ou À l'affiche."
    },
    {
      "id": 49,
      "imageId": 59,
      "cred": 20,
      "flags": 4,
      "label": "Tour de Jeux de logique",
      "description": "Donnez 100 bonnes réponses en Chronologie, Unissez-les, Anagrammes ou Pictogrammes.",
      "howto": "Donnez 100 bonnes réponses en Chronologie, Unissez-les, Anagrammes ou Pictogrammes."
    },
    {
      "id": 50,
      "imageId": 60,
      "cred": 10,
      "flags": 4,
      "label": "Mollasson",
      "description": "Complétez 5 parties en mode Classique ou Mitraillette.",
      "howto": "Complétez 5 parties en mode Classique ou Mitraillette."
    }
  ]
}