{
  "achievementsPossible": 12,
  "credPossible": 200,
  "achievements": [
    {
      "id": 2,
      "imageId": 1,
      "cred": 10,
      "flags": 6,
      "label": "Just Getting Started",
      "description": "Complete any level in Single player",
      "howto": "Complete any level in Single player"
    },
    {
      "id": 3,
      "imageId": 3,
      "cred": 20,
      "flags": 4,
      "label": "Rip and Tear",
      "description": "Complete any level on 'Nightmare' in Single player",
      "howto": "Complete any level on 'Nightmare' in Single player"
    },
    {
      "id": 4,
      "imageId": 5,
      "cred": 25,
      "flags": 1,
      "label": "Superior Firepower",
      "description": "Complete all levels on 'Ultra-Violence' or higher in Single player",
      "howto": "Complete all levels on 'Ultra-Violence' or higher in Single player"
    },
    {
      "id": 7,
      "imageId": 7,
      "cred": 10,
      "flags": 4,
      "label": "An Important Looking Door",
      "description": "Find a secret area of a level in Single player",
      "howto": "Find a secret area of a level in Single player"
    },
    {
      "id": 8,
      "imageId": 2,
      "cred": 25,
      "flags": 1,
      "label": "From Earth To Hell",
      "description": "Complete all levels in 'DOOM II: Hell on Earth' in Single player",
      "howto": "Complete all levels in 'DOOM II: Hell on Earth' in Single player"
    },
    {
      "id": 11,
      "imageId": 4,
      "cred": 25,
      "flags": 1,
      "label": "And Back Again",
      "description": "Complete all levels in 'DOOM II: No Rest for the Living' in Single player",
      "howto": "Complete all levels in 'DOOM II: No Rest for the Living' in Single player"
    },
    {
      "id": 12,
      "imageId": 11,
      "cred": 15,
      "flags": 4,
      "label": "Burning Out of Control",
      "description": "Complete any level with 100% kills, items, and secrets in Single player",
      "howto": "Complete any level with 100% kills, items, and secrets in Single player"
    },
    {
      "id": 14,
      "imageId": 10,
      "cred": 20,
      "flags": 4,
      "label": "Destroyer",
      "description": "Get 100 frags in Deathmatch on Xbox LIVE",
      "howto": "Get 100 frags in Deathmatch on Xbox LIVE"
    },
    {
      "id": 16,
      "imageId": 9,
      "cred": 10,
      "flags": 4,
      "label": "The Great Communicator",
      "description": "Get 20 kills using the Chainsaw in a single level in Single player",
      "howto": "Get 20 kills using the Chainsaw in a single level in Single player"
    },
    {
      "id": 17,
      "imageId": 8,
      "cred": 10,
      "flags": 4,
      "label": "A Man and a Half",
      "description": "Get 20 kills using the Berserk Powerup in a single level in Single player",
      "howto": "Get 20 kills using the Berserk Powerup in a single level in Single player"
    },
    {
      "id": 18,
      "imageId": 12,
      "cred": 20,
      "flags": 4,
      "label": "You Have Huge Guts",
      "description": "Kill a CyberDemon using your fists in Single player",
      "howto": "Kill a CyberDemon using your fists in Single player"
    },
    {
      "id": 19,
      "imageId": 6,
      "cred": 10,
      "flags": 1,
      "label": "A Really Big Gun",
      "description": "Find a BFG in Single player",
      "howto": "Find a BFG in Single player"
    }
  ]
}