{
  "achievementsPossible": 50,
  "credPossible": 1000,
  "achievements": [
    {
      "id": 7,
      "imageId": 15,
      "cred": 5,
      "flags": 3,
      "label": "Street Hawk",
      "description": "Fill the Turbo bar and then use it all in one go without hitting anything.",
      "howto": "Fill the Turbo bar and then use it all in one go without hitting anything."
    },
    {
      "id": 8,
      "imageId": 16,
      "cred": 5,
      "flags": 3,
      "label": "Are we almost there?",
      "description": "Unlock the Rookie Championship.",
      "howto": "Unlock the Rookie Championship."
    },
    {
      "id": 9,
      "imageId": 17,
      "cred": 15,
      "flags": 3,
      "label": "A long way to go",
      "description": "Unlock the Junior Championship.",
      "howto": "Unlock the Junior Championship."
    },
    {
      "id": 10,
      "imageId": 18,
      "cred": 15,
      "flags": 3,
      "label": "Hang in there!",
      "description": "Unlock the Standard Championship.",
      "howto": "Unlock the Standard Championship."
    },
    {
      "id": 11,
      "imageId": 19,
      "cred": 30,
      "flags": 3,
      "label": "Good start",
      "description": "Unlock the Regulars' Championship.",
      "howto": "Unlock the Regulars' Championship."
    },
    {
      "id": 12,
      "imageId": 20,
      "cred": 30,
      "flags": 3,
      "label": "Halfway line",
      "description": "Unlock the Veterans' Championship.",
      "howto": "Unlock the Veterans' Championship."
    },
    {
      "id": 13,
      "imageId": 21,
      "cred": 40,
      "flags": 3,
      "label": "Keep it up!",
      "description": "Unlock the Seniors' Championship.",
      "howto": "Unlock the Seniors' Championship."
    },
    {
      "id": 14,
      "imageId": 22,
      "cred": 40,
      "flags": 3,
      "label": "Victory is within reach",
      "description": "Unlock the Aces' Championship.",
      "howto": "Unlock the Aces' Championship."
    },
    {
      "id": 15,
      "imageId": 23,
      "cred": 50,
      "flags": 3,
      "label": "Nearly there!",
      "description": "Unlock the Champions' Championship.",
      "howto": "Unlock the Champions' Championship."
    },
    {
      "id": 16,
      "imageId": 24,
      "cred": 50,
      "flags": 1,
      "label": "The best club!",
      "description": "Unlock the Victors' Championship.",
      "howto": "Unlock the Victors' Championship."
    },
    {
      "id": 17,
      "imageId": 25,
      "cred": 60,
      "flags": 1,
      "label": "Short and sweet",
      "description": "Unlock the Victors' Championship in at most 70 races.",
      "howto": "Unlock the Victors' Championship in at most 70 races."
    },
    {
      "id": 18,
      "imageId": 26,
      "cred": 40,
      "flags": 1,
      "label": "What? More?",
      "description": "Earn at least 150,000 Kudos in the tournament.",
      "howto": "Earn at least 150,000 Kudos in the tournament."
    },
    {
      "id": 19,
      "imageId": 27,
      "cred": 15,
      "flags": 3,
      "label": "Sponsored",
      "description": "Finish all the game missions at least once.",
      "howto": "Finish all the game missions at least once."
    },
    {
      "id": 20,
      "imageId": 28,
      "cred": 15,
      "flags": 3,
      "label": "Constructors' pet",
      "description": "Finish all the constructors' challenges.",
      "howto": "Finish all the constructors' challenges."
    },
    {
      "id": 21,
      "imageId": 29,
      "cred": 5,
      "flags": 3,
      "label": "Collector",
      "description": "Own 10 different motorcycles.",
      "howto": "Own 10 different motorcycles."
    },
    {
      "id": 22,
      "imageId": 30,
      "cred": 15,
      "flags": 3,
      "label": "The King of shopping",
      "description": "Buy all of the game's motorcycles.",
      "howto": "Buy all of the game's motorcycles."
    },
    {
      "id": 23,
      "imageId": 31,
      "cred": 5,
      "flags": 1,
      "label": "It's a start",
      "description": "Win 5 gold medals.",
      "howto": "Win 5 gold medals."
    },
    {
      "id": 24,
      "imageId": 32,
      "cred": 10,
      "flags": 1,
      "label": "Gold bug",
      "description": "Win 10 gold medals.",
      "howto": "Win 10 gold medals."
    },
    {
      "id": 25,
      "imageId": 33,
      "cred": 10,
      "flags": 1,
      "label": "Gold rush",
      "description": "Win 20 gold medals.",
      "howto": "Win 20 gold medals."
    },
    {
      "id": 26,
      "imageId": 34,
      "cred": 20,
      "flags": 1,
      "label": "Nice collection",
      "description": "Win 50 gold medals.",
      "howto": "Win 50 gold medals."
    },
    {
      "id": 27,
      "imageId": 35,
      "cred": 40,
      "flags": 1,
      "label": "Prodigy",
      "description": "Win 80 gold medals.",
      "howto": "Win 80 gold medals."
    },
    {
      "id": 28,
      "imageId": 36,
      "cred": 60,
      "flags": 1,
      "label": "Perfectionist",
      "description": "Win 119 gold medals.",
      "howto": "Win 119 gold medals."
    },
    {
      "id": 29,
      "imageId": 37,
      "cred": 10,
      "flags": 1,
      "label": "Jackpot",
      "description": "Earn at least 3,000 credits at the end of a race.",
      "howto": "Earn at least 3,000 credits at the end of a race."
    },
    {
      "id": 30,
      "imageId": 38,
      "cred": 20,
      "flags": 1,
      "label": "That much?!",
      "description": "Earn at least 5,000 credits at the end of a race.",
      "howto": "Earn at least 5,000 credits at the end of a race."
    },
    {
      "id": 31,
      "imageId": 39,
      "cred": 10,
      "flags": 1,
      "label": "Golden Boy",
      "description": "Earn at least 300,000 credits.",
      "howto": "Earn at least 300,000 credits."
    },
    {
      "id": 32,
      "imageId": 40,
      "cred": 20,
      "flags": 1,
      "label": "I want more!",
      "description": "Earn at least 600,000 credits.",
      "howto": "Earn at least 600,000 credits."
    },
    {
      "id": 33,
      "imageId": 41,
      "cred": 10,
      "flags": 1,
      "label": "Easy does it",
      "description": "Earn at least 200,000 points at the end of a race.",
      "howto": "Earn at least 200,000 points at the end of a race."
    },
    {
      "id": 34,
      "imageId": 42,
      "cred": 30,
      "flags": 1,
      "label": "Stuntman",
      "description": "Earn at least 400,000 points at the end of a race.",
      "howto": "Earn at least 400,000 points at the end of a race."
    },
    {
      "id": 35,
      "imageId": 43,
      "cred": 5,
      "flags": 4,
      "label": "Fashionista",
      "description": "Customize your clothing once.",
      "howto": "Customize your clothing once."
    },
    {
      "id": 36,
      "imageId": 44,
      "cred": 5,
      "flags": 4,
      "label": "Have you seen my helmet?",
      "description": "Customize your helmets once.",
      "howto": "Customize your helmets once."
    },
    {
      "id": 37,
      "imageId": 45,
      "cred": 20,
      "flags": 4,
      "label": "Could do better",
      "description": "Earn at least 100,000 points with one combo.",
      "howto": "Earn at least 100,000 points with one combo."
    },
    {
      "id": 38,
      "imageId": 46,
      "cred": 50,
      "flags": 4,
      "label": "Not bad...",
      "description": "Earn at least 200,000 points with one combo.",
      "howto": "Earn at least 200,000 points with one combo."
    },
    {
      "id": 39,
      "imageId": 47,
      "cred": 10,
      "flags": 4,
      "label": "I'm back!",
      "description": "Finish a race at least one lap ahead of an opponent.",
      "howto": "Finish a race at least one lap ahead of an opponent."
    },
    {
      "id": 40,
      "imageId": 48,
      "cred": 20,
      "flags": 4,
      "label": "By a nose",
      "description": "Finish a race less than 0.1 s ahead of an opponent.",
      "howto": "Finish a race less than 0.1 s ahead of an opponent."
    },
    {
      "id": 41,
      "imageId": 49,
      "cred": 10,
      "flags": 4,
      "label": "Ace",
      "description": "Finish first in the two rankings of a race.",
      "howto": "Finish first in the two rankings of a race."
    },
    {
      "id": 42,
      "imageId": 50,
      "cred": 5,
      "flags": 4,
      "label": "Can't get worse",
      "description": "Finish a race in last place in the two rankings.",
      "howto": "Finish a race in last place in the two rankings."
    },
    {
      "id": 43,
      "imageId": 51,
      "cred": 10,
      "flags": 1,
      "label": "Comeback",
      "description": "Have at least 10 accidents and still be the fastest in the race.",
      "howto": "Have at least 10 accidents and still be the fastest in the race."
    },
    {
      "id": 44,
      "imageId": 52,
      "cred": 40,
      "flags": 1,
      "label": "Record holder",
      "description": "Complete a time trial on each of the game's circuits.",
      "howto": "Complete a time trial on each of the game's circuits."
    },
    {
      "id": 45,
      "imageId": 53,
      "cred": 10,
      "flags": 1,
      "label": "Balancing act",
      "description": "Do a wheelie for 100 metres.",
      "howto": "Do a wheelie for 100 metres."
    },
    {
      "id": 46,
      "imageId": 54,
      "cred": 20,
      "flags": 1,
      "label": "Combo breaker",
      "description": "Reach the X10 multiplier.",
      "howto": "Reach the X10 multiplier."
    },
    {
      "id": 47,
      "imageId": 55,
      "cred": 10,
      "flags": 1,
      "label": "Is that all?",
      "description": "Finish 25 laps in a row in the same race.",
      "howto": "Finish 25 laps in a row in the same race."
    },
    {
      "id": 48,
      "imageId": 56,
      "cred": 10,
      "flags": 5,
      "label": "Glory beckons",
      "description": "Finish 5 online races.",
      "howto": "Finish 5 online races."
    },
    {
      "id": 49,
      "imageId": 57,
      "cred": 15,
      "flags": 5,
      "label": "National pride",
      "description": "Finish 10 online races.",
      "howto": "Finish 10 online races."
    },
    {
      "id": 50,
      "imageId": 58,
      "cred": 15,
      "flags": 5,
      "label": "Continental star",
      "description": "Finish 25 online races.",
      "howto": "Finish 25 online races."
    },
    {
      "id": 51,
      "imageId": 59,
      "cred": 15,
      "flags": 5,
      "label": "World famous",
      "description": "Finish 50 online races.",
      "howto": "Finish 50 online races."
    },
    {
      "id": 52,
      "imageId": 60,
      "cred": 10,
      "flags": 5,
      "label": "We have a winner!",
      "description": "Finish an online race in first place.",
      "howto": "Finish an online race in first place."
    },
    {
      "id": 53,
      "imageId": 61,
      "cred": 15,
      "flags": 5,
      "label": "We have a champion!",
      "description": "Come first in 5 online races in a row.",
      "howto": "Come first in 5 online races in a row."
    },
    {
      "id": 54,
      "imageId": 62,
      "cred": 10,
      "flags": 4,
      "label": "Enthusiast",
      "description": "Reach at least 180 minutes of race time.",
      "howto": "Reach at least 180 minutes of race time."
    },
    {
      "id": 55,
      "imageId": 63,
      "cred": 10,
      "flags": 4,
      "label": "Marathon",
      "description": "Reach at least 360 minutes of race time.",
      "howto": "Reach at least 360 minutes of race time."
    },
    {
      "id": 56,
      "imageId": 64,
      "cred": 10,
      "flags": 4,
      "label": "Over-connected",
      "description": "Reach at least 60 minutes of online race time.",
      "howto": "Reach at least 60 minutes of online race time."
    }
  ]
}