{
  "achievementsPossible": 31,
  "credPossible": 1000,
  "achievements": [
    {
      "id": 1,
      "imageId": 2,
      "cred": 20,
      "flags": 6,
      "label": "ミッションを５ステージクリアー",
      "description": "ミッションを５ステージクリアした！",
      "howto": "ミッションをクリアーしよう！"
    },
    {
      "id": 2,
      "imageId": 3,
      "cred": 20,
      "flags": 6,
      "label": "ミッションを１０ステージクリアー",
      "description": "ミッションを１０ステージクリアーした！",
      "howto": "ミッションをクリアーしよう！"
    },
    {
      "id": 3,
      "imageId": 4,
      "cred": 30,
      "flags": 6,
      "label": "ミッションを２０ステージクリアー",
      "description": "ミッションを２０ステージクリアーした！",
      "howto": "ミッションをクリアーしよう！"
    },
    {
      "id": 4,
      "imageId": 5,
      "cred": 30,
      "flags": 6,
      "label": "ミッションを３０ステージクリアー",
      "description": "ミッションを３０ステージクリアーした！",
      "howto": "ミッションをクリアーしよう！"
    },
    {
      "id": 5,
      "imageId": 6,
      "cred": 40,
      "flags": 6,
      "label": "ミッションを４０ステージクリアー",
      "description": "ミッションを４０ステージクリアーした！",
      "howto": "ミッションをクリアーしよう！"
    },
    {
      "id": 6,
      "imageId": 7,
      "cred": 50,
      "flags": 6,
      "label": "ミッションを５０ステージクリアー",
      "description": "ミッションを５０ステージクリアーした！",
      "howto": "ミッションをクリアーしよう！"
    },
    {
      "id": 7,
      "imageId": 15,
      "cred": 20,
      "flags": 4,
      "label": "忍殺数２０人",
      "description": "忍殺２０人達成した！",
      "howto": "忍殺で敵を倒そう！"
    },
    {
      "id": 8,
      "imageId": 16,
      "cred": 20,
      "flags": 4,
      "label": "忍殺数５０人",
      "description": "忍殺５０人達成した！",
      "howto": "忍殺で敵を倒そう！"
    },
    {
      "id": 9,
      "imageId": 17,
      "cred": 30,
      "flags": 4,
      "label": "忍殺数１００人",
      "description": "忍殺１００人達成した！",
      "howto": "忍殺で敵を倒そう！"
    },
    {
      "id": 10,
      "imageId": 18,
      "cred": 30,
      "flags": 4,
      "label": "忍殺数３００人",
      "description": "忍殺３００人達成した！",
      "howto": "忍殺で敵を倒そう！"
    },
    {
      "id": 11,
      "imageId": 19,
      "cred": 30,
      "flags": 4,
      "label": "忍殺数５００人",
      "description": "忍殺５００人達成した！",
      "howto": "忍殺で敵を倒そう！"
    },
    {
      "id": 12,
      "imageId": 20,
      "cred": 40,
      "flags": 4,
      "label": "忍殺数７００人",
      "description": "忍殺７００人達成した！",
      "howto": "忍殺で敵を倒そう！"
    },
    {
      "id": 13,
      "imageId": 21,
      "cred": 50,
      "flags": 4,
      "label": "忍殺数１０００人",
      "description": "忍殺１０００人達成した！",
      "howto": "忍殺で敵を倒そう！"
    },
    {
      "id": 14,
      "imageId": 22,
      "cred": 20,
      "flags": 3,
      "label": "隠しミッションを１つクリアー",
      "description": "隠しミッションを１つクリアーした！",
      "howto": ""
    },
    {
      "id": 15,
      "imageId": 23,
      "cred": 20,
      "flags": 3,
      "label": "隠しミッションを２つクリアー",
      "description": "隠しミッションを２つクリアーした！",
      "howto": ""
    },
    {
      "id": 16,
      "imageId": 24,
      "cred": 30,
      "flags": 3,
      "label": "隠しミッションを３つクリアー",
      "description": "隠しミッションを３つクリアーした！",
      "howto": ""
    },
    {
      "id": 17,
      "imageId": 25,
      "cred": 40,
      "flags": 3,
      "label": "隠しミッションを４つクリアー",
      "description": "隠しミッションを４つクリアーした！",
      "howto": ""
    },
    {
      "id": 18,
      "imageId": 26,
      "cred": 50,
      "flags": 3,
      "label": "隠しミッションを５つクリアー",
      "description": "隠しミッションを５つクリアーした！",
      "howto": ""
    },
    {
      "id": 19,
      "imageId": 27,
      "cred": 20,
      "flags": 3,
      "label": "とみ吉を５人殺害",
      "description": "とみ吉を５人殺害した！",
      "howto": ""
    },
    {
      "id": 20,
      "imageId": 28,
      "cred": 20,
      "flags": 3,
      "label": "とみ吉を１０人殺害",
      "description": "とみ吉を１０人殺害した！",
      "howto": ""
    },
    {
      "id": 21,
      "imageId": 29,
      "cred": 30,
      "flags": 3,
      "label": "とみ吉を２０人殺害",
      "description": "とみ吉を２０人殺害した！",
      "howto": ""
    },
    {
      "id": 22,
      "imageId": 30,
      "cred": 30,
      "flags": 3,
      "label": "とみ吉を３０人殺害",
      "description": "とみ吉を３０人殺害した！",
      "howto": ""
    },
    {
      "id": 23,
      "imageId": 31,
      "cred": 40,
      "flags": 3,
      "label": "とみ吉を４０人殺害",
      "description": "とみ吉を４０人殺害した！",
      "howto": ""
    },
    {
      "id": 24,
      "imageId": 32,
      "cred": 50,
      "flags": 3,
      "label": "とみ吉を５０人殺害",
      "description": "とみ吉を５０人殺害した！",
      "howto": ""
    },
    {
      "id": 25,
      "imageId": 9,
      "cred": 20,
      "flags": 4,
      "label": "忍術皆伝数１０",
      "description": "忍術皆伝を１０個獲得した！",
      "howto": "ミッションを忍術皆伝でクリアーしよう！"
    },
    {
      "id": 26,
      "imageId": 10,
      "cred": 20,
      "flags": 4,
      "label": "忍術皆伝数３０",
      "description": "忍術皆伝を３０個獲得した！",
      "howto": "ミッションを忍術皆伝でクリアーしよう！"
    },
    {
      "id": 27,
      "imageId": 11,
      "cred": 30,
      "flags": 4,
      "label": "忍術皆伝数５０",
      "description": "忍術皆伝を５０個獲得した！",
      "howto": "ミッションを忍術皆伝でクリアーしよう！"
    },
    {
      "id": 28,
      "imageId": 12,
      "cred": 30,
      "flags": 4,
      "label": "難易度（易）を全て忍術皆伝",
      "description": "難易度（易）を全て忍術皆伝でクリアーした！",
      "howto": "ミッションを忍術皆伝でクリアーしよう！"
    },
    {
      "id": 29,
      "imageId": 13,
      "cred": 40,
      "flags": 4,
      "label": "難易度（普）を全て忍術皆伝",
      "description": "難易度（普）を全て忍術皆伝でクリアーした！",
      "howto": "ミッションを忍術皆伝でクリアーしよう！"
    },
    {
      "id": 30,
      "imageId": 14,
      "cred": 50,
      "flags": 4,
      "label": "難易度（難）を全て忍術皆伝",
      "description": "難易度（難）を全て忍術皆伝でクリアーした！",
      "howto": "ミッションを忍術皆伝でクリアーしよう！"
    },
    {
      "id": 31,
      "imageId": 8,
      "cred": 50,
      "flags": 1,
      "label": "ストーリーをクリアー",
      "description": "ストーリーをクリアーした！",
      "howto": "ストーリーをクリアーしよう！"
    }
  ]
}