{
  "achievementsPossible": 60,
  "credPossible": 1250,
  "achievements": [
    {
      "id": 1,
      "imageId": 1,
      "cred": 50,
      "flags": 4,
      "label": "Escaped the Imperial Sewers",
      "description": "Escaped the Imperial Sewers, Main Quest Beginning",
      "howto": "Escaped the Imperial Sewers, Main Quest Beginning"
    },
    {
      "id": 2,
      "imageId": 2,
      "cred": 50,
      "flags": 4,
      "label": "Closed an Oblivion Gate",
      "description": "Closed an Oblivion Gate, Main Quest",
      "howto": "Closed an Oblivion Gate, Main Quest"
    },
    {
      "id": 3,
      "imageId": 3,
      "cred": 50,
      "flags": 4,
      "label": "Located the Shrine of Dagon",
      "description": "Located the Shrine of Dagon, Main Quest",
      "howto": "Located the Shrine of Dagon, Main Quest"
    },
    {
      "id": 4,
      "imageId": 4,
      "cred": 50,
      "flags": 4,
      "label": "Delivered Daedric Artifact",
      "description": "Delivered Daedric Artifact, Main Quest",
      "howto": "Delivered Daedric Artifact, Main Quest"
    },
    {
      "id": 5,
      "imageId": 5,
      "cred": 50,
      "flags": 4,
      "label": "Destroyed the Great Gate",
      "description": "Destroyed the Great Gate, Main Quest",
      "howto": "Destroyed the Great Gate, Main Quest"
    },
    {
      "id": 6,
      "imageId": 6,
      "cred": 110,
      "flags": 4,
      "label": "Champion of Cyrodiil",
      "description": "Completed the Main Questline",
      "howto": "Completed the Main Questline"
    },
    {
      "id": 7,
      "imageId": 7,
      "cred": 10,
      "flags": 4,
      "label": "Murderer, Dark Brotherhood",
      "description": "Join the Dark Brotherhood",
      "howto": "Join the Dark Brotherhood"
    },
    {
      "id": 8,
      "imageId": 8,
      "cred": 10,
      "flags": 4,
      "label": "Slayer, Dark Brotherhood",
      "description": "Reached Slayer rank in the Dark Brotherhood",
      "howto": "Reached Slayer rank in the Dark Brotherhood"
    },
    {
      "id": 9,
      "imageId": 9,
      "cred": 10,
      "flags": 4,
      "label": "Eliminator, Dark Brotherhood",
      "description": "Reached Eliminator rank in the Dark Brotherhood",
      "howto": "Reached Eliminator rank in the Dark Brotherhood"
    },
    {
      "id": 10,
      "imageId": 10,
      "cred": 10,
      "flags": 4,
      "label": "Assassin, Dark Brotherhood",
      "description": "Reached Assassin rank in the Dark Brotherhood",
      "howto": "Reached Assassin rank in the Dark Brotherhood"
    },
    {
      "id": 11,
      "imageId": 11,
      "cred": 10,
      "flags": 4,
      "label": "Silencer, Dark Brotherhood",
      "description": "Reached Silencer rank in the Dark Brotherhood",
      "howto": "Reached Silencer rank in the Dark Brotherhood"
    },
    {
      "id": 12,
      "imageId": 12,
      "cred": 10,
      "flags": 4,
      "label": "Speaker, Dark Brotherhood",
      "description": "Reached Speaker rank in the Dark Brotherhood",
      "howto": "Reached Speaker rank in the Dark Brotherhood"
    },
    {
      "id": 13,
      "imageId": 13,
      "cred": 50,
      "flags": 4,
      "label": "Listener, Dark Brotherhood",
      "description": "Completed the Dark Brotherhood Questline",
      "howto": "Completed the Dark Brotherhood Questline"
    },
    {
      "id": 14,
      "imageId": 14,
      "cred": 10,
      "flags": 4,
      "label": "Pit Dog, Arena",
      "description": "Joined the Arena in the Imperial City",
      "howto": "Joined the Arena in the Imperial City"
    },
    {
      "id": 15,
      "imageId": 15,
      "cred": 10,
      "flags": 4,
      "label": "Brawler, Arena",
      "description": "Reached Brawler rank in the Arena",
      "howto": "Reached Brawler rank in the Arena"
    },
    {
      "id": 16,
      "imageId": 16,
      "cred": 10,
      "flags": 4,
      "label": "Bloodletter, Arena",
      "description": "Reached Bloodletter rank in the Arena",
      "howto": "Reached Bloodletter rank in the Arena"
    },
    {
      "id": 17,
      "imageId": 17,
      "cred": 10,
      "flags": 4,
      "label": "Myrmidon, Arena",
      "description": "Reached Myrmidon rank in the Arena",
      "howto": "Reached Myrmidon rank in the Arena"
    },
    {
      "id": 18,
      "imageId": 18,
      "cred": 10,
      "flags": 4,
      "label": "Warrior, Arena",
      "description": "Reached Warrior rank in the Arena",
      "howto": "Reached Warrior rank in the Arena"
    },
    {
      "id": 19,
      "imageId": 19,
      "cred": 10,
      "flags": 4,
      "label": "Gladiator, Arena",
      "description": "Reached Gladiator rank in the Arena",
      "howto": "Reached Gladiator rank in the Arena"
    },
    {
      "id": 20,
      "imageId": 20,
      "cred": 10,
      "flags": 4,
      "label": "Hero, Arena",
      "description": "Reached Hero rank in the Arena",
      "howto": "Reached Hero rank in the Arena"
    },
    {
      "id": 21,
      "imageId": 21,
      "cred": 10,
      "flags": 4,
      "label": "Champion, Arena",
      "description": "Reached Champion rank in the Arena",
      "howto": "Reached Champion rank in the Arena"
    },
    {
      "id": 22,
      "imageId": 22,
      "cred": 50,
      "flags": 4,
      "label": "Grand Champion, Arena",
      "description": "Completed the Arena Questline",
      "howto": "Completed the Arena Questline"
    },
    {
      "id": 23,
      "imageId": 23,
      "cred": 10,
      "flags": 4,
      "label": "Pickpocket, Thieves Guild",
      "description": "Joined the Thieves Guild",
      "howto": "Joined the Thieves Guild"
    },
    {
      "id": 24,
      "imageId": 24,
      "cred": 10,
      "flags": 4,
      "label": "Footpad, Thieves Guild",
      "description": "Reached Footpad rank in the Thieves Guild",
      "howto": "Reached Footpad rank in the Thieves Guild"
    },
    {
      "id": 25,
      "imageId": 25,
      "cred": 10,
      "flags": 4,
      "label": "Bandit, Thieves Guild",
      "description": "Reached Bandit rank in the Thieves Guild",
      "howto": "Reached Bandit rank in the Thieves Guild"
    },
    {
      "id": 26,
      "imageId": 26,
      "cred": 10,
      "flags": 4,
      "label": "Prowler, Thieves Guild",
      "description": "Reached Prowler rank in the Thieves Guild",
      "howto": "Reached Prowler rank in the Thieves Guild"
    },
    {
      "id": 27,
      "imageId": 27,
      "cred": 10,
      "flags": 4,
      "label": "Cat Burglar, Thieves Guild",
      "description": "Reached Cat Burglar rank in the Thieves Guild",
      "howto": "Reached Cat Burglar rank in the Thieves Guild"
    },
    {
      "id": 28,
      "imageId": 28,
      "cred": 10,
      "flags": 4,
      "label": "Shadowfoot, Thieves Guild",
      "description": "Reached Shadowfoot rank in the Thieves Guild",
      "howto": "Reached Shadowfoot rank in the Thieves Guild"
    },
    {
      "id": 29,
      "imageId": 29,
      "cred": 10,
      "flags": 4,
      "label": "Master Thief, Thieves Guild",
      "description": "Reached Master Thief rank in the Thieves Guild",
      "howto": "Reached Master Thief rank in the Thieves Guild"
    },
    {
      "id": 30,
      "imageId": 30,
      "cred": 50,
      "flags": 4,
      "label": "Guildmaster, Thieves Guild",
      "description": "Completed the Thieves Guild Questline",
      "howto": "Completed the Thieves Guild Questline"
    },
    {
      "id": 31,
      "imageId": 31,
      "cred": 10,
      "flags": 4,
      "label": "Associate, Mages Guild",
      "description": "Joined the Mages Guild",
      "howto": "Joined the Mages Guild"
    },
    {
      "id": 32,
      "imageId": 32,
      "cred": 10,
      "flags": 4,
      "label": "Apprentice, Mages Guild",
      "description": "Reached Apprentice rank in the Mages Guild",
      "howto": "Reached Apprentice rank in the Mages Guild"
    },
    {
      "id": 33,
      "imageId": 33,
      "cred": 10,
      "flags": 4,
      "label": "Journeyman, Mages Guild",
      "description": "Reached Journeyman rank in the Mages Guild",
      "howto": "Reached Journeyman rank in the Mages Guild"
    },
    {
      "id": 34,
      "imageId": 34,
      "cred": 10,
      "flags": 4,
      "label": "Evoker, Mages Guild",
      "description": "Reached Evoker rank in the Mages Guild",
      "howto": "Reached Evoker rank in the Mages Guild"
    },
    {
      "id": 35,
      "imageId": 35,
      "cred": 10,
      "flags": 4,
      "label": "Conjurer, Mages Guild",
      "description": "Reached Conjurer rank in the Mages Guild",
      "howto": "Reached Conjurer rank in the Mages Guild"
    },
    {
      "id": 36,
      "imageId": 36,
      "cred": 10,
      "flags": 4,
      "label": "Magician, Mages Guild",
      "description": "Reached Magician rank in the Mages Guild",
      "howto": "Reached Magician rank in the Mages Guild"
    },
    {
      "id": 37,
      "imageId": 37,
      "cred": 10,
      "flags": 4,
      "label": "Warlock, Mages Guild",
      "description": "Reached Warlock rank in the Mages Guild",
      "howto": "Reached Warlock rank in the Mages Guild"
    },
    {
      "id": 38,
      "imageId": 38,
      "cred": 10,
      "flags": 4,
      "label": "Wizard, Mages Guild",
      "description": "Reached Wizard rank in the Mages Guild",
      "howto": "Reached Wizard rank in the Mages Guild"
    },
    {
      "id": 39,
      "imageId": 39,
      "cred": 10,
      "flags": 4,
      "label": "Master-Wizard, Mages Guild",
      "description": "Reached Master-Wizard rank in the Mages Guild",
      "howto": "Reached Master-Wizard rank in the Mages Guild"
    },
    {
      "id": 40,
      "imageId": 40,
      "cred": 50,
      "flags": 4,
      "label": "Arch-Mage, Mages Guild",
      "description": "Completed the Mages Guild Questline",
      "howto": "Completed the Mages Guild Questline"
    },
    {
      "id": 41,
      "imageId": 41,
      "cred": 10,
      "flags": 4,
      "label": "Associate, Fighters Guild",
      "description": "Joined the Fighters Guild",
      "howto": "Joined the Fighters Guild"
    },
    {
      "id": 42,
      "imageId": 42,
      "cred": 10,
      "flags": 4,
      "label": "Apprentice, Fighters Guild",
      "description": "Reached Apprentice rank in the Fighters Guild",
      "howto": "Reached Apprentice rank in the Fighters Guild"
    },
    {
      "id": 43,
      "imageId": 43,
      "cred": 10,
      "flags": 4,
      "label": "Journeyman, Fighters Guild",
      "description": "Reached Journeyman rank in the Fighters Guild",
      "howto": "Reached Journeyman rank in the Fighters Guild"
    },
    {
      "id": 44,
      "imageId": 44,
      "cred": 10,
      "flags": 4,
      "label": "Swordsman, Fighters Guild",
      "description": "Reached Swordsman rank in the Fighters Guild",
      "howto": "Reached Swordsman rank in the Fighters Guild"
    },
    {
      "id": 45,
      "imageId": 45,
      "cred": 10,
      "flags": 4,
      "label": "Protector, Fighters Guild",
      "description": "Reached Protector rank in the Fighters Guild",
      "howto": "Reached Protector rank in the Fighters Guild"
    },
    {
      "id": 46,
      "imageId": 46,
      "cred": 10,
      "flags": 4,
      "label": "Defender, Fighters Guild",
      "description": "Reached Defender rank in the Fighters Guild",
      "howto": "Reached Defender rank in the Fighters Guild"
    },
    {
      "id": 47,
      "imageId": 47,
      "cred": 10,
      "flags": 4,
      "label": "Warder, Fighters Guild",
      "description": "Reached Warder rank in the Fighters Guild",
      "howto": "Reached Warder rank in the Fighters Guild"
    },
    {
      "id": 48,
      "imageId": 48,
      "cred": 10,
      "flags": 4,
      "label": "Guardian, Fighters Guild",
      "description": "Reached Guardian rank in the Fighters Guild",
      "howto": "Reached Guardian rank in the Fighters Guild"
    },
    {
      "id": 49,
      "imageId": 49,
      "cred": 10,
      "flags": 4,
      "label": "Champion, Fighters Guild",
      "description": "Reached Champion rank in the Fighters Guild",
      "howto": "Reached Champion rank in the Fighters Guild"
    },
    {
      "id": 50,
      "imageId": 50,
      "cred": 50,
      "flags": 4,
      "label": "Master, Fighters Guild",
      "description": "Completed the Fighters Guild Questline",
      "howto": "Completed the Fighters Guild Questline"
    },
    {
      "id": 51,
      "imageId": 51,
      "cred": 20,
      "flags": 4,
      "label": "Tourist, Shivering Isles",
      "description": "Entered the Shivering Isles",
      "howto": "Entered the Shivering Isles"
    },
    {
      "id": 52,
      "imageId": 52,
      "cred": 20,
      "flags": 4,
      "label": "Aspirant, Shivering Isles",
      "description": "Reached Aspirant Rank in the Court of Madness",
      "howto": "Reached Aspirant Rank in the Court of Madness"
    },
    {
      "id": 53,
      "imageId": 53,
      "cred": 20,
      "flags": 4,
      "label": "Citizen, Shivering Isles",
      "description": "Reached Citizen Rank in the Court of Madness",
      "howto": "Reached Citizen Rank in the Court of Madness"
    },
    {
      "id": 54,
      "imageId": 54,
      "cred": 20,
      "flags": 4,
      "label": "Madman, Shivering Isles",
      "description": "Reached Madman Rank in the Court of Madness",
      "howto": "Reached Madman Rank in the Court of Madness"
    },
    {
      "id": 55,
      "imageId": 55,
      "cred": 20,
      "flags": 4,
      "label": "Honored Madman, Shivering Isles",
      "description": "Reached Honored Madman Rank in the Court of Madness",
      "howto": "Reached Honored Madman Rank in the Court of Madness"
    },
    {
      "id": 56,
      "imageId": 56,
      "cred": 30,
      "flags": 4,
      "label": "Duke Dementia, Shivering Isles",
      "description": "Reached Duke of Dementia Rank in the Court of Madness",
      "howto": "Reached Duke of Dementia Rank in the Court of Madness"
    },
    {
      "id": 57,
      "imageId": 57,
      "cred": 30,
      "flags": 4,
      "label": "Duke Mania, Shivering Isles",
      "description": "Reached Duke of Mania Rank in the Court of Madness",
      "howto": "Reached Duke of Mania Rank in the Court of Madness"
    },
    {
      "id": 58,
      "imageId": 58,
      "cred": 20,
      "flags": 4,
      "label": "Regent, Shivering Isles",
      "description": "Reached Regent Rank in the Court of Madness",
      "howto": "Reached Regent Rank in the Court of Madness"
    },
    {
      "id": 59,
      "imageId": 59,
      "cred": 20,
      "flags": 4,
      "label": "Defender, Shivering Isles",
      "description": "Reached Defender of the Realm Rank in the Court of Madness",
      "howto": "Reached Defender of the Realm Rank in the Court of Madness"
    },
    {
      "id": 60,
      "imageId": 60,
      "cred": 50,
      "flags": 4,
      "label": "Madgod, Shivering Isles",
      "description": "Stopped the Greymarch",
      "howto": "Stopped the Greymarch"
    }
  ]
}