{
  "achievementsPossible": 29,
  "credPossible": 1000,
  "achievements": [
    {
      "id": 1,
      "imageId": 1,
      "cred": 5,
      "flags": 4,
      "label": "Wiper",
      "description": "Succesfully cheat once.",
      "howto": "Succesfully cheat once."
    },
    {
      "id": 2,
      "imageId": 2,
      "cred": 25,
      "flags": 4,
      "label": "Unbreakable",
      "description": "Win a round without losing a teammate in a 5-on-5 or bigger match-up.",
      "howto": "Win a round without losing a teammate in a 5-on-5 or bigger match-up."
    },
    {
      "id": 3,
      "imageId": 3,
      "cred": 10,
      "flags": 4,
      "label": "Bromance",
      "description": "Win a split-screen round where neither you nor your buddy are eliminated.",
      "howto": "Win a split-screen round where neither you nor your buddy are eliminated."
    },
    {
      "id": 4,
      "imageId": 4,
      "cred": 20,
      "flags": 4,
      "label": "Lonewolf",
      "description": "Win a 7-on-7 or higher non-reinsertion game where you eliminate all opponents.",
      "howto": "Win a 7-on-7 or higher non-reinsertion game where you eliminate all opponents."
    },
    {
      "id": 5,
      "imageId": 5,
      "cred": 20,
      "flags": 4,
      "label": "Sharpshooter",
      "description": "Get three or more eliminations in a round with over 25% accuracy.",
      "howto": "Get three or more eliminations in a round with over 25% accuracy."
    },
    {
      "id": 6,
      "imageId": 20,
      "cred": 10,
      "flags": 1,
      "label": "Paint Monger",
      "description": "Shoot 10,000 paintballs.",
      "howto": "Shoot 10,000 paintballs."
    },
    {
      "id": 7,
      "imageId": 6,
      "cred": 20,
      "flags": 1,
      "label": "Demolitionist",
      "description": "Eliminate three or more opponents with a single grenade.",
      "howto": "Eliminate three or more opponents with a single grenade."
    },
    {
      "id": 8,
      "imageId": 9,
      "cred": 15,
      "flags": 1,
      "label": "Olympian",
      "description": "Dive or slide 100 times.",
      "howto": "Dive or slide 100 times."
    },
    {
      "id": 9,
      "imageId": 7,
      "cred": 15,
      "flags": 1,
      "label": "One Hit Wonder",
      "description": "Win a round with 3+ eliminations using a marker without having to reload in a 5v5 or larger match.",
      "howto": "Win a round with 3+ eliminations using a marker without having to reload in a 5v5 or larger match."
    },
    {
      "id": 10,
      "imageId": 8,
      "cred": 20,
      "flags": 1,
      "label": "Bottom Feeder",
      "description": "Win a round entirely from the prone position.",
      "howto": "Win a round entirely from the prone position."
    },
    {
      "id": 12,
      "imageId": 10,
      "cred": 25,
      "flags": 1,
      "label": "Go Ballistic",
      "description": "Eliminate an opponent that you can't see using the paintballs' trajectory.",
      "howto": "Eliminate an opponent that you can't see using the paintballs' trajectory."
    },
    {
      "id": 13,
      "imageId": 11,
      "cred": 15,
      "flags": 1,
      "label": "Spy",
      "description": "Shoot an opponent in the back from their own side of the field.",
      "howto": "Shoot an opponent in the back from their own side of the field."
    },
    {
      "id": 14,
      "imageId": 12,
      "cred": 50,
      "flags": 1,
      "label": "Pump Assassin",
      "description": "Using a pump-gun, eliminate 3 or more opponents in a round without missing.",
      "howto": "Using a pump-gun, eliminate 3 or more opponents in a round without missing."
    },
    {
      "id": 15,
      "imageId": 13,
      "cred": 10,
      "flags": 1,
      "label": "Cross Training",
      "description": "Win a woodsball and a speedball tournament.",
      "howto": "Win a woodsball and a speedball tournament."
    },
    {
      "id": 16,
      "imageId": 14,
      "cred": 20,
      "flags": 1,
      "label": "Goggler",
      "description": "Eliminate three opponents by shooting them in the goggles in a single round.",
      "howto": "Eliminate three opponents by shooting them in the goggles in a single round."
    },
    {
      "id": 18,
      "imageId": 15,
      "cred": 50,
      "flags": 1,
      "label": "Lucky Clip",
      "description": "Eliminate an entire enemy team using a single pistol clip in a non-reinsertion game.",
      "howto": "Eliminate an entire enemy team using a single pistol clip in a non-reinsertion game. "
    },
    {
      "id": 19,
      "imageId": 16,
      "cred": 5,
      "flags": 1,
      "label": "Team Captain",
      "description": "Win a round where you issue field commands to at least 3 teammates.",
      "howto": "Win a round where you issue field commands to at least 3 teammates."
    },
    {
      "id": 20,
      "imageId": 17,
      "cred": 100,
      "flags": 1,
      "label": "Connoisseur",
      "description": "Purchase all gear.",
      "howto": "Purchase all gear."
    },
    {
      "id": 21,
      "imageId": 18,
      "cred": 75,
      "flags": 1,
      "label": "Mr. Popular",
      "description": "Play games with teammates from 50 real teams.",
      "howto": "Play games with teammates from 50 real teams."
    },
    {
      "id": 22,
      "imageId": 19,
      "cred": 10,
      "flags": 1,
      "label": "Billboard",
      "description": "Win an event while using the jersey, pants and marker from the same manufacturer.",
      "howto": "Win an event while using the jersey, pants and marker from the same manufacturer."
    },
    {
      "id": 24,
      "imageId": 22,
      "cred": 50,
      "flags": 1,
      "label": "Speedball Champion",
      "description": "Completed all Speedball Events",
      "howto": "Complete all Speedball events."
    },
    {
      "id": 25,
      "imageId": 23,
      "cred": 50,
      "flags": 1,
      "label": "Master Woodsman",
      "description": "Completed all Woodsball Events.",
      "howto": "Complete all Woodsball Events."
    },
    {
      "id": 26,
      "imageId": 24,
      "cred": 50,
      "flags": 1,
      "label": "Jack of All Trades",
      "description": "Completed all Recball Events.",
      "howto": "Complete all Recball Events."
    },
    {
      "id": 27,
      "imageId": 25,
      "cred": 100,
      "flags": 1,
      "label": "Paintball Legend",
      "description": "Completed all 3 Event Tracks",
      "howto": "Complete all 3 event tracks"
    },
    {
      "id": 28,
      "imageId": 26,
      "cred": 30,
      "flags": 1,
      "label": "E'Ventual Evaporation",
      "description": "Eliminate three opponents in a single round with a completely fogged mask.\r\n",
      "howto": "Eliminate three opponents in a single round with a completely fogged mask."
    },
    {
      "id": 29,
      "imageId": 27,
      "cred": 125,
      "flags": 1,
      "label": "World's Greatest Paintballer",
      "description": "Completed all events on the hardest difficulty setting.",
      "howto": "Complete all events on Hard."
    },
    {
      "id": 30,
      "imageId": 28,
      "cred": 20,
      "flags": 1,
      "label": "Tactical Overkill",
      "description": "Eliminate an opposing flag carrier with a rocket.",
      "howto": "Eliminate an opposing flag carrier with a rocket."
    },
    {
      "id": 31,
      "imageId": 29,
      "cred": 50,
      "flags": 1,
      "label": "Lawlessness",
      "description": "Successfully cheat five times in a row without failing.",
      "howto": "Successfully cheat five times in a row without failing."
    },
    {
      "id": 32,
      "imageId": 21,
      "cred": 5,
      "flags": 7,
      "label": "Foam Cowboy",
      "description": "Win a round while wearing the “Rodeo King” mask. ",
      "howto": "Win a round while wearing the “Rodeo King” mask. "
    }
  ]
}