[
  {
    "titleId": 1480656850,
    "largeId": 131085,
    "smallId": 65549,
    "commonId": 13
  },
  {
    "titleId": 1480656850,
    "largeId": 131086,
    "smallId": 65550,
    "commonId": 14
  }
]