{
  "achievementsPossible": 28,
  "credPossible": 1000,
  "achievements": [
    {
      "id": 1,
      "imageId": 1,
      "cred": 10,
      "flags": 4,
      "label": "First Glory",
      "description": "Awarded for your first win.",
      "howto": "Awarded for your first win."
    },
    {
      "id": 2,
      "imageId": 2,
      "cred": 25,
      "flags": 4,
      "label": "Winning Streak",
      "description": "Awarded for winning 10 consecutive matches.",
      "howto": "Awarded for winning 10 consecutive matches."
    },
    {
      "id": 3,
      "imageId": 3,
      "cred": 15,
      "flags": 4,
      "label": "Come From Behind",
      "description": "A title awarded when you come from behind and win.",
      "howto": "A title awarded when you come from behind and win."
    },
    {
      "id": 4,
      "imageId": 4,
      "cred": 10,
      "flags": 4,
      "label": "Last-minute Win",
      "description": "A title awarded when you score the winning goal in extra time.",
      "howto": "A title awarded when you score the winning goal in extra time."
    },
    {
      "id": 5,
      "imageId": 5,
      "cred": 20,
      "flags": 4,
      "label": "World Tour",
      "description": "Awarded for playing at all the stadiums.",
      "howto": "Awarded for playing at all the stadiums."
    },
    {
      "id": 6,
      "imageId": 6,
      "cred": 20,
      "flags": 4,
      "label": "Gentleman",
      "description": "Awarded for an average foul rate of less than 1 per match in your 10 most recent matches.",
      "howto": "Awarded for an average foul rate of less than 1 per match in your 10 most recent matches."
    },
    {
      "id": 7,
      "imageId": 7,
      "cred": 25,
      "flags": 4,
      "label": "Possession Play",
      "description": "Awarded for achieving a possession rate of 60% or higher in your 10 most recent matches.",
      "howto": "Awarded for achieving a possession rate of 60% or higher in your 10 most recent matches."
    },
    {
      "id": 8,
      "imageId": 8,
      "cred": 35,
      "flags": 4,
      "label": "Hat-trick Hero",
      "description": "Awarded for scoring 5 hat-tricks.",
      "howto": "Awarded for scoring 5 hat-tricks."
    },
    {
      "id": 9,
      "imageId": 9,
      "cred": 40,
      "flags": 4,
      "label": "Ace Striker",
      "description": "Awarded for playing 20 matches, scoring in recent 5, averaging 2 goals per match.",
      "howto": "Awarded for playing 20 matches, scoring in recent 5, averaging 2 goals per match."
    },
    {
      "id": 10,
      "imageId": 10,
      "cred": 40,
      "flags": 4,
      "label": "FK specialist",
      "description": "A title awarded when you score 5 direct free-kicks.",
      "howto": "A title awarded when you score 5 direct free-kicks."
    },
    {
      "id": 11,
      "imageId": 11,
      "cred": 50,
      "flags": 4,
      "label": "Long Ranger",
      "description": "A title awarded when you score from 35m or more.",
      "howto": "A title awarded when you score from 35m or more."
    },
    {
      "id": 12,
      "imageId": 12,
      "cred": 15,
      "flags": 4,
      "label": "League Title",
      "description": "A title awarded for winning one of the top leagues in [Master League]",
      "howto": "A title awarded for winning one of the top leagues in [Master League]"
    },
    {
      "id": 13,
      "imageId": 13,
      "cred": 20,
      "flags": 4,
      "label": "European Elite 16",
      "description": "A title awarded for making the Knockout Stage of the UEFA Champions League in [Master League] .",
      "howto": "A title awarded for making the Knockout Stage of the UEFA Champions League in [Master League] ."
    },
    {
      "id": 14,
      "imageId": 14,
      "cred": 30,
      "flags": 4,
      "label": "Conquered Europe",
      "description": "A title awarded when you win the Master League UEFA Champions League.",
      "howto": "A title awarded when you win the Master League UEFA Champions League."
    },
    {
      "id": 15,
      "imageId": 15,
      "cred": 80,
      "flags": 4,
      "label": "World Champions",
      "description": "Awarded for winning the Konami Cup in Master League.",
      "howto": "Awarded for winning the Konami Cup in Master League."
    },
    {
      "id": 16,
      "imageId": 16,
      "cred": 90,
      "flags": 4,
      "label": "Perfect Season",
      "description": "Awarded for an undefeated season in Master League winning League, Cup and UEFA Champions League.",
      "howto": "Awarded for an undefeated season in Master League winning League, Cup and UEFA Champions League."
    },
    {
      "id": 17,
      "imageId": 17,
      "cred": 50,
      "flags": 4,
      "label": "No.1 Club ",
      "description": "Awarded for topping the Club Ranking in Master League.",
      "howto": "Awarded for topping the Club Ranking in Master League."
    },
    {
      "id": 18,
      "imageId": 18,
      "cred": 70,
      "flags": 4,
      "label": "European Footballer of the Year",
      "description": "Awarded if a member of your team wins the European Footballer of the Year in Master League.",
      "howto": "Awarded if a member of your team wins the European Footballer of the Year in Master League."
    },
    {
      "id": 19,
      "imageId": 19,
      "cred": 50,
      "flags": 4,
      "label": "10 years of Service",
      "description": "A title to honour 10 years of service in Master League.",
      "howto": "A title to honour 10 years of service in Master League."
    },
    {
      "id": 20,
      "imageId": 20,
      "cred": 10,
      "flags": 4,
      "label": "Pro Debut",
      "description": "A title awarded when you make your Become a Legend pro debut.",
      "howto": "A title awarded when you make your Become a Legend pro debut."
    },
    {
      "id": 21,
      "imageId": 21,
      "cred": 15,
      "flags": 4,
      "label": "International Cup Debut",
      "description": "A title awarded when you play in the Become a Legend International Cup.",
      "howto": "A title awarded when you play in the Become a Legend International Cup."
    },
    {
      "id": 22,
      "imageId": 22,
      "cred": 30,
      "flags": 4,
      "label": "International Cup MVP",
      "description": "A title awarded when you receive the Become a Legend International Cup Player of the Tournament.",
      "howto": "A title awarded when you receive the Become a Legend International Cup Player of the Tournament."
    },
    {
      "id": 23,
      "imageId": 23,
      "cred": 40,
      "flags": 4,
      "label": "Wanderer",
      "description": "A title awarded when you have played for 10 clubs in total in 4 countries in Become a Legend.",
      "howto": "A title awarded when you have played for 10 clubs in total in 4 countries in Become a Legend."
    },
    {
      "id": 24,
      "imageId": 24,
      "cred": 50,
      "flags": 4,
      "label": "The Super Hero",
      "description": "Won both World Footballer of the Year and European Footballer of the Year titles in Become a Legend.",
      "howto": "Won both World Footballer of the Year and European Footballer of the Year titles in Become a Legend."
    },
    {
      "id": 25,
      "imageId": 25,
      "cred": 20,
      "flags": 4,
      "label": "Winning Streak(Online)",
      "description": "Awarded when you have 5 successive Ranked match wins in the Online.",
      "howto": "Awarded when you have 5 successive Ranked match wins in the Online."
    },
    {
      "id": 26,
      "imageId": 26,
      "cred": 30,
      "flags": 4,
      "label": "High Win Ratio(Online)",
      "description": "Awarded when you achieve a win ratio of above 75% in Last 20 results of Online.",
      "howto": "Awarded when you achieve a win ratio of above 75% in Last 20 results of Online."
    },
    {
      "id": 27,
      "imageId": 27,
      "cred": 40,
      "flags": 4,
      "label": "Made the Knockout Stage",
      "description": "A title awarded for making the Knockout Stage of the UEFA Champions League.",
      "howto": "A title awarded for making the Knockout Stage of the UEFA Champions League."
    },
    {
      "id": 28,
      "imageId": 28,
      "cred": 70,
      "flags": 4,
      "label": "European Champions",
      "description": "A title awarded when you win the UEFA Champions League.",
      "howto": "A title awarded when you win the UEFA Champions League."
    }
  ]
}