{
  "achievementsPossible": 12,
  "credPossible": 200,
  "achievements": [
    {
      "id": 1,
      "imageId": 1,
      "cred": 15,
      "flags": 6,
      "label": "Faery warrior",
      "description": "You have defeated the giant crab and his sidekicks in the dragons' cave.",
      "howto": "Eliminate the first boss."
    },
    {
      "id": 2,
      "imageId": 2,
      "cred": 15,
      "flags": 4,
      "label": "Explorer",
      "description": "You have encountered all of Avalon's inhabitants and you have spoken with all of them.",
      "howto": "Speak with all of Avalon's inhabitants."
    },
    {
      "id": 3,
      "imageId": 3,
      "cred": 15,
      "flags": 4,
      "label": "Discoverer",
      "description": "You have encountered all the Faery folk in all the worlds.",
      "howto": "Meet all the inhabitants in the Faery worlds."
    },
    {
      "id": 4,
      "imageId": 4,
      "cred": 15,
      "flags": 4,
      "label": "Collector",
      "description": "You have collected 60 items of equipment distributed around the Faery worlds.",
      "howto": "Collect 60 items of equipment."
    },
    {
      "id": 5,
      "imageId": 5,
      "cred": 20,
      "flags": 6,
      "label": "Head Hunter",
      "description": "You have fulfilled Oberon's first mission. You can now discover the other worlds.",
      "howto": "Bring a close to the Awakening chapter."
    },
    {
      "id": 6,
      "imageId": 6,
      "cred": 20,
      "flags": 6,
      "label": "Incorruptible",
      "description": "You have restored magic to the Tree World and saved its inhabitants from corruption.",
      "howto": "Save the Tree World."
    },
    {
      "id": 7,
      "imageId": 7,
      "cred": 20,
      "flags": 6,
      "label": "Guide of souls",
      "description": "You have set the Flying Dutchman on its way and saved the magic in the world.",
      "howto": "Save the Flying Dutchman."
    },
    {
      "id": 8,
      "imageId": 8,
      "cred": 20,
      "flags": 1,
      "label": "Spirits' friend",
      "description": "You have brought water to the sacred Scarabaeid and found its true path.",
      "howto": "Save the Scarabaeid."
    },
    {
      "id": 9,
      "imageId": 9,
      "cred": 15,
      "flags": 4,
      "label": "Envoi of Oberon",
      "description": "The Isle of Faeries holds no secrets for you now.",
      "howto": "Complete all secondary quests on Avalon."
    },
    {
      "id": 10,
      "imageId": 10,
      "cred": 15,
      "flags": 4,
      "label": "Spirit of the Forests",
      "description": "All inhabitants of the Tree World are now at peace thanks to your intervention.",
      "howto": "Complete all the secondary quests in the Tree World."
    },
    {
      "id": 11,
      "imageId": 11,
      "cred": 15,
      "flags": 4,
      "label": "Pirate",
      "description": "You have put an end to the troubles of the inhabitants of the Flying Dutchman.",
      "howto": "Complete all the secondary quests of the Flying Dutchman."
    },
    {
      "id": 12,
      "imageId": 12,
      "cred": 15,
      "flags": 4,
      "label": "Emir",
      "description": "You have helped all the inhabitants of the City of Mirages.",
      "howto": "Complete all the secondary quests of the Scarabaeid."
    }
  ]
}