{
  "achievementsPossible": 50,
  "credPossible": 1000,
  "achievements": [
    {
      "id": 1,
      "imageId": 10,
      "cred": 5,
      "flags": 6,
      "label": "Start of a New Era",
      "description": "Welcome to the new world of SOULCALIBUR!",
      "howto": "Welcome to the new world of SOULCALIBUR!"
    },
    {
      "id": 2,
      "imageId": 11,
      "cred": 10,
      "flags": 6,
      "label": "Encounter with the Unknown",
      "description": "Fought against Yoda.",
      "howto": "Fight against Yoda."
    },
    {
      "id": 3,
      "imageId": 12,
      "cred": 10,
      "flags": 1,
      "label": "Pursuer of the Secret",
      "description": "Cleared STORY MODE on difficulty: NORMAL.",
      "howto": "Clear STORY MODE on difficulty: NORMAL."
    },
    {
      "id": 4,
      "imageId": 13,
      "cred": 20,
      "flags": 1,
      "label": "Mystery of the Swords",
      "description": "Cleared STORY MODE on difficulty: HARD.",
      "howto": "Clear STORY MODE on difficulty: HARD."
    },
    {
      "id": 5,
      "imageId": 14,
      "cred": 20,
      "flags": 4,
      "label": "May the Force be with You",
      "description": "Cleared STORY MODE with Yoda.",
      "howto": "Clear STORY MODE with Yoda."
    },
    {
      "id": 6,
      "imageId": 1,
      "cred": 10,
      "flags": 1,
      "label": "War Veteran",
      "description": "Cleared ARCADE MODE.",
      "howto": "Clear ARCADE MODE."
    },
    {
      "id": 7,
      "imageId": 15,
      "cred": 20,
      "flags": 1,
      "label": "Hero on the Battlefield",
      "description": "Cleared ARCADE MODE with over 450,000 points.",
      "howto": "Clear ARCADE MODE with over 450,000 points."
    },
    {
      "id": 8,
      "imageId": 16,
      "cred": 20,
      "flags": 6,
      "label": "Legendary Hidden Treasures",
      "description": "Acquired over 30 treasures in TOWER OF LOST SOULS.",
      "howto": "Acquire over 30 treasures in TOWER OF LOST SOULS."
    },
    {
      "id": 9,
      "imageId": 2,
      "cred": 20,
      "flags": 6,
      "label": "Never Ending Advance",
      "description": "Descended 20 floors in TOWER OF LOST SOULS.",
      "howto": "Descend 20 floors in TOWER OF LOST SOULS."
    },
    {
      "id": 10,
      "imageId": 17,
      "cred": 30,
      "flags": 1,
      "label": "Tower's New Guardian",
      "description": "Cleared all upper floors of TOWER OF LOST SOULS.",
      "howto": "Clear all upper floors of TOWER OF LOST SOULS."
    },
    {
      "id": 11,
      "imageId": 18,
      "cred": 10,
      "flags": 4,
      "label": "Scorpion's Sting",
      "description": "Won a battle with Critical Finish.",
      "howto": "Win a battle with Critical Finish."
    },
    {
      "id": 12,
      "imageId": 3,
      "cred": 10,
      "flags": 4,
      "label": "Smasher",
      "description": "Destroyed all of the opponent's equipment.",
      "howto": "Destroy all of the opponent's equipment."
    },
    {
      "id": 13,
      "imageId": 19,
      "cred": 10,
      "flags": 6,
      "label": "Iron Hammer",
      "description": "Landed an attack on a taunting opponent.",
      "howto": "Land an attack on a taunting opponent."
    },
    {
      "id": 14,
      "imageId": 20,
      "cred": 30,
      "flags": 4,
      "label": "Death on the Battlefield",
      "description": "Performed 100 Critical Finishes.",
      "howto": "Perform 100 Critical Finishes."
    },
    {
      "id": 15,
      "imageId": 4,
      "cred": 20,
      "flags": 4,
      "label": "Like a Flowing Stream",
      "description": "Performed 200 Impacts.",
      "howto": "Perform 200 Impacts."
    },
    {
      "id": 16,
      "imageId": 21,
      "cred": 30,
      "flags": 4,
      "label": "Lost in the Moment",
      "description": "Performed 20 Just Impacts.",
      "howto": "Perform 20 Just Impacts."
    },
    {
      "id": 17,
      "imageId": 22,
      "cred": 10,
      "flags": 4,
      "label": "Quick Strike",
      "description": "Performed 5 First Attacks in a row in Arcade.",
      "howto": "Perform 5 First Attacks in a row in Arcade."
    },
    {
      "id": 18,
      "imageId": 23,
      "cred": 20,
      "flags": 4,
      "label": "Swift Strike",
      "description": "Performed 100 First Attacks.",
      "howto": "Perform 100 First Attacks."
    },
    {
      "id": 19,
      "imageId": 24,
      "cred": 20,
      "flags": 4,
      "label": "Mad Destroyer",
      "description": "Performed 100 Soul Crushes.",
      "howto": "Perform 100 Soul Crushes."
    },
    {
      "id": 20,
      "imageId": 25,
      "cred": 20,
      "flags": 4,
      "label": "Violent Storm",
      "description": "Performed 50 Wall Hits.",
      "howto": "Perform 50 Wall Hits."
    },
    {
      "id": 21,
      "imageId": 26,
      "cred": 30,
      "flags": 4,
      "label": "10,000 Strikes of Proof",
      "description": "Landed 10,000 attacks.",
      "howto": "Land 10,000 attacks."
    },
    {
      "id": 22,
      "imageId": 5,
      "cred": 30,
      "flags": 4,
      "label": "Endure 1,000",
      "description": "Guarded 1,000 times against attacks.",
      "howto": "Guard 1,000 times against attacks."
    },
    {
      "id": 23,
      "imageId": 27,
      "cred": 20,
      "flags": 4,
      "label": "Water Moon",
      "description": "Performed 30 grapple breaks.",
      "howto": "Perform 30 grapple breaks."
    },
    {
      "id": 24,
      "imageId": 28,
      "cred": 20,
      "flags": 4,
      "label": "Distance will not Betray",
      "description": "Reached over 10,000 meters in total movement distance in battle.",
      "howto": "Reach over 10,000 meters in total movement distance in battle."
    },
    {
      "id": 25,
      "imageId": 29,
      "cred": 5,
      "flags": 6,
      "label": "First Step as an Artist",
      "description": "Customized a Regular Character.",
      "howto": "Customize a regular character."
    },
    {
      "id": 26,
      "imageId": 30,
      "cred": 5,
      "flags": 6,
      "label": "Chosen by History",
      "description": "Created a Custom Character.",
      "howto": "Create a custom character."
    },
    {
      "id": 27,
      "imageId": 31,
      "cred": 20,
      "flags": 4,
      "label": "Sharpened Teeth",
      "description": "Maximized a style's level.",
      "howto": "Maximize a style's level."
    },
    {
      "id": 28,
      "imageId": 32,
      "cred": 20,
      "flags": 6,
      "label": "Equal Skill and Power",
      "description": "Used all skill points and set up 4 skills.",
      "howto": "Use all skill points and set up 4 skills."
    },
    {
      "id": 29,
      "imageId": 33,
      "cred": 30,
      "flags": 2,
      "label": "Engraved into History",
      "description": "Fought 100 times (Online).",
      "howto": "Fight 100 times (Online)."
    },
    {
      "id": 30,
      "imageId": 34,
      "cred": 30,
      "flags": 6,
      "label": "World Class Fighter",
      "description": "Fought against 20 different fighting styles (Online).",
      "howto": "Fight against 20 different fighting styles (Online)."
    },
    {
      "id": 31,
      "imageId": 6,
      "cred": 30,
      "flags": 6,
      "label": "World Traveler",
      "description": "Fought on all stages (Online).",
      "howto": "Fight on all stages (Online)."
    },
    {
      "id": 32,
      "imageId": 7,
      "cred": 20,
      "flags": 5,
      "label": "Gladiator",
      "description": "Won consecutive Ranked Matches (Online).",
      "howto": "Win consecutive Ranked Matches (Online)."
    },
    {
      "id": 33,
      "imageId": 35,
      "cred": 20,
      "flags": 6,
      "label": "Unknown Swordsman",
      "description": "Won 10 times (Online).",
      "howto": "Win 10 times (Online)."
    },
    {
      "id": 34,
      "imageId": 36,
      "cred": 30,
      "flags": 2,
      "label": "Hero King",
      "description": "Leveled up to level 20 (Online).",
      "howto": "Level up to 20 (Online)."
    },
    {
      "id": 35,
      "imageId": 37,
      "cred": 20,
      "flags": 4,
      "label": "Divine Punishment",
      "description": "K.O. with an Unblockable Attack.",
      "howto": "K.O. with an Unblockable Attack."
    },
    {
      "id": 36,
      "imageId": 38,
      "cred": 20,
      "flags": 4,
      "label": "Reversal Wizard",
      "description": "Won 20 matches with low HP.",
      "howto": "Win 20 times with low HP."
    },
    {
      "id": 37,
      "imageId": 39,
      "cred": 10,
      "flags": 4,
      "label": "Phoenix",
      "description": "Won with all equipment destroyed.",
      "howto": "Win with all equipment destroyed."
    },
    {
      "id": 38,
      "imageId": 40,
      "cred": 10,
      "flags": 4,
      "label": "Wandering Assassin",
      "description": "K.O. opponent with over 20 types of weapons.",
      "howto": "K.O. opponent with over 20 types of weapons."
    },
    {
      "id": 39,
      "imageId": 41,
      "cred": 30,
      "flags": 4,
      "label": "Repel All Blades",
      "description": "Won 30 times with a perfect.",
      "howto": "Win perfect 30 times."
    },
    {
      "id": 40,
      "imageId": 42,
      "cred": 20,
      "flags": 6,
      "label": "Numeric God",
      "description": "The last two numbers of total play time and remaining time in a victorious battle were the same.",
      "howto": "Measure the two passages of time and win."
    },
    {
      "id": 41,
      "imageId": 43,
      "cred": 20,
      "flags": 4,
      "label": "Two Cannot Exist Together",
      "description": "Double K.O.",
      "howto": "Exhaust each other's power."
    },
    {
      "id": 42,
      "imageId": 44,
      "cred": 20,
      "flags": 3,
      "label": "Gathering of the Best",
      "description": "Completed CHAIN OF SOULS.",
      "howto": "Complete CHAIN OF SOULS."
    },
    {
      "id": 43,
      "imageId": 45,
      "cred": 30,
      "flags": 6,
      "label": "Observer of Souls",
      "description": "Collected all illustrations in Art Gallery.",
      "howto": "Collect all illustrations in Art Gallery."
    },
    {
      "id": 44,
      "imageId": 8,
      "cred": 15,
      "flags": 6,
      "label": "Sword Hunter",
      "description": "Collected all weapons for 5 characters.",
      "howto": "Collect all weapons for 5 characters."
    },
    {
      "id": 45,
      "imageId": 9,
      "cred": 20,
      "flags": 6,
      "label": "The Controller",
      "description": "Got Soul Calibur (Final Form).",
      "howto": "Get Soul Calibur (Final Form)."
    },
    {
      "id": 46,
      "imageId": 46,
      "cred": 20,
      "flags": 6,
      "label": "Wild Run to Tragedy",
      "description": "Got Soul Edge (Final Form).",
      "howto": "Get Soul Edge (Final Form)."
    },
    {
      "id": 47,
      "imageId": 47,
      "cred": 20,
      "flags": 6,
      "label": "Looter of the Battlefield",
      "description": "Collected all accessories.",
      "howto": "Collect all accessories."
    },
    {
      "id": 48,
      "imageId": 48,
      "cred": 20,
      "flags": 6,
      "label": "Wandering Weapon Merchant",
      "description": "Collected 350 pieces of equipment.",
      "howto": "Collect 350 pieces of equipment."
    },
    {
      "id": 49,
      "imageId": 49,
      "cred": 20,
      "flags": 6,
      "label": "Tower of Gold",
      "description": "Acquired over 1,000,000 Gold.",
      "howto": "Acquire over 1000000 Gold."
    },
    {
      "id": 50,
      "imageId": 50,
      "cred": 50,
      "flags": 1,
      "label": "Transcend History and the World",
      "description": "Acquired all weapons and equipment.",
      "howto": "Acquire all weapons and equipment."
    }
  ]
}