{
  "achievementsPossible": 10,
  "credPossible": 1000,
  "achievements": [
    {
      "id": 1,
      "imageId": 1,
      "cred": 50,
      "flags": 1,
      "label": "いつもの桃鉄で１位！",
      "description": "「いつもの桃鉄」で１位になりました！",
      "howto": "「いつもの桃鉄」で１位になってゲーム終了！"
    },
    {
      "id": 2,
      "imageId": 2,
      "cred": 50,
      "flags": 1,
      "label": "桃鉄３年決戦！で１位！",
      "description": "「桃鉄３年決戦！」で１位になりました！",
      "howto": "「桃鉄３年決戦！」で１位になってゲーム終了！"
    },
    {
      "id": 3,
      "imageId": 6,
      "cred": 50,
      "flags": 1,
      "label": "貧乏神がいない！で１位！",
      "description": "「貧乏神がいない！」で１位になりました！",
      "howto": "「貧乏神がいない！」で１位になってゲーム終了！"
    },
    {
      "id": 4,
      "imageId": 3,
      "cred": 100,
      "flags": 1,
      "label": "えんま名人に勝利！",
      "description": "えんま名人に勝利しました！",
      "howto": "ＣＯＭキャラを変更せず「えんま」よりも\r\n順位が高い状態でゲーム終了！"
    },
    {
      "id": 5,
      "imageId": 4,
      "cred": 150,
      "flags": 1,
      "label": "さくま鉄人に勝利！",
      "description": "さくま鉄人に勝利しました！",
      "howto": "ＣＯＭキャラを変更せず「さくま」よりも\r\n順位が高い状態でゲーム終了！"
    },
    {
      "id": 6,
      "imageId": 5,
      "cred": 100,
      "flags": 1,
      "label": "１兆円突破！",
      "description": "総資産１兆円を突破してゲームを終了しました！\r\n",
      "howto": "総資産１兆円を突破してゲームを終了！"
    },
    {
      "id": 7,
      "imageId": 7,
      "cred": 50,
      "flags": 1,
      "label": "１００年プレイ！",
      "description": "「いつもの桃鉄」を１００年遊んでくれてありがとう！",
      "howto": "「いつもの桃鉄」の１００年プレイを終了！"
    },
    {
      "id": 8,
      "imageId": 8,
      "cred": 100,
      "flags": 1,
      "label": "トライアルで１００億突破！",
      "description": "「桃鉄１０年トライアル！」で\r\n１００億円以上の総資産でゲームを終了しました！",
      "howto": "「桃鉄１０年トライアル！」で\r\n１００億円以上の総資産でゲーム終了！"
    },
    {
      "id": 9,
      "imageId": 9,
      "cred": 150,
      "flags": 1,
      "label": "トライアルで３００億突破！",
      "description": "「桃鉄１０年トライアル！」で\r\n３００億円以上の総資産でゲームを終了しました！",
      "howto": "「桃鉄１０年トライアル！」で\r\n３００億円以上の総資産でゲーム終了！"
    },
    {
      "id": 10,
      "imageId": 10,
      "cred": 200,
      "flags": 1,
      "label": "トライアルで５００億突破！",
      "description": "「桃鉄１０年トライアル！」で\r\n５００億円以上の総資産でゲームを終了しました！",
      "howto": "「桃鉄１０年トライアル！」で\r\n５００億円以上の総資産でゲーム終了！"
    }
  ]
}