{
  "achievementsPossible": 50,
  "credPossible": 1000,
  "achievements": [
    {
      "id": 1,
      "imageId": 5000,
      "cred": 100,
      "flags": 4,
      "label": "NHL 2K10 Complete",
      "description": "Unlock All Achievements.",
      "howto": "Unlock All Achievements."
    },
    {
      "id": 2,
      "imageId": 5001,
      "cred": 5,
      "flags": 4,
      "label": "20 PIMs",
      "description": "Achieve 20 Penalty Minutes in a game.",
      "howto": "Achieve 20 Penalty Minutes in a game."
    },
    {
      "id": 3,
      "imageId": 5002,
      "cred": 5,
      "flags": 4,
      "label": "3 PPG",
      "description": "Achieve 3 Power Play Goals in a game.",
      "howto": "Achieve 3 Power Play Goals in a game."
    },
    {
      "id": 4,
      "imageId": 5003,
      "cred": 5,
      "flags": 4,
      "label": "50 Shots",
      "description": "Reach 50 Shots on goal in a game.",
      "howto": "Reach 50 Shots on goal in a game."
    },
    {
      "id": 5,
      "imageId": 5004,
      "cred": 5,
      "flags": 4,
      "label": "100 Games Played",
      "description": "Reach 100 Games Played.",
      "howto": "Reach 100 Games Played."
    },
    {
      "id": 6,
      "imageId": 5005,
      "cred": 5,
      "flags": 4,
      "label": "500 Games Played",
      "description": "Reach 500 Games Played.",
      "howto": "Reach 500 Games Played."
    },
    {
      "id": 7,
      "imageId": 5006,
      "cred": 5,
      "flags": 4,
      "label": "2000 Points",
      "description": "Achieve a total of 2000 Points.",
      "howto": "Achieve a total of 2000 Points."
    },
    {
      "id": 8,
      "imageId": 5007,
      "cred": 5,
      "flags": 4,
      "label": "200 PIMs",
      "description": "Achieve a total of 200 Penalty Minutes.",
      "howto": "Achieve a total of 200 Penalty Minutes."
    },
    {
      "id": 9,
      "imageId": 5008,
      "cred": 5,
      "flags": 4,
      "label": "1000 shots",
      "description": "Achieve a total of 1000 Shots.",
      "howto": "Achieve a total of 1000 Shots."
    },
    {
      "id": 10,
      "imageId": 5009,
      "cred": 5,
      "flags": 4,
      "label": "10 PPGs",
      "description": "Achieve a total of 10 Power Play Goals.",
      "howto": "Achieve a total of 10 Power Play Goals."
    },
    {
      "id": 11,
      "imageId": 5010,
      "cred": 5,
      "flags": 4,
      "label": "30 PPGs",
      "description": "Achieve a total of 30 Power Play Goals.",
      "howto": "Achieve a total of 30 Power Play Goals."
    },
    {
      "id": 12,
      "imageId": 5011,
      "cred": 5,
      "flags": 4,
      "label": "3 SHGs",
      "description": "Achieve a total of 3 Short Handed Goals.",
      "howto": "Achieve a total of 3 Short Handed Goals."
    },
    {
      "id": 13,
      "imageId": 5012,
      "cred": 5,
      "flags": 4,
      "label": "10 SHGs",
      "description": "Achieve a total of 10 Short Handed Goals.",
      "howto": "Achieve a total of 10 Short Handed Goals."
    },
    {
      "id": 14,
      "imageId": 5013,
      "cred": 5,
      "flags": 4,
      "label": "200 Hits",
      "description": "Achieve a total of 200 Hits.",
      "howto": "Achieve a total of 200 Hits."
    },
    {
      "id": 15,
      "imageId": 5014,
      "cred": 5,
      "flags": 4,
      "label": "500 Hits",
      "description": "Achieve a total of 500 Hits.",
      "howto": "Achieve a total of 500 Hits."
    },
    {
      "id": 16,
      "imageId": 5015,
      "cred": 5,
      "flags": 4,
      "label": "Ducks Trophy",
      "description": "Create a Player.",
      "howto": "Create a Player."
    },
    {
      "id": 17,
      "imageId": 5016,
      "cred": 5,
      "flags": 4,
      "label": "Thrashers Trophy",
      "description": "Clean 95% of the ice surface with the Zamboni.",
      "howto": "Clean 95% of the ice surface with the Zamboni."
    },
    {
      "id": 18,
      "imageId": 5017,
      "cred": 5,
      "flags": 4,
      "label": "Bruins Trophy",
      "description": "Register 10+ hits in one game with any skater.",
      "howto": "Register 10+ hits in one game with any skater."
    },
    {
      "id": 19,
      "imageId": 5018,
      "cred": 10,
      "flags": 4,
      "label": "Sabres Trophy",
      "description": "Get 3+ assists with one player in a single game.",
      "howto": "Get 3+ assists with one player in a single game."
    },
    {
      "id": 20,
      "imageId": 5019,
      "cred": 10,
      "flags": 4,
      "label": "Flames Trophy",
      "description": "Deke out a defenseman using a 1 on 1 move and then score a goal.",
      "howto": "Deke out a defenseman using a 1 on 1 move and then score a goal."
    },
    {
      "id": 21,
      "imageId": 5020,
      "cred": 10,
      "flags": 4,
      "label": "Hurricanes Trophy",
      "description": "Win 20 Face-Offs in one game.",
      "howto": "Win 20 Face-Offs in one game."
    },
    {
      "id": 22,
      "imageId": 5021,
      "cred": 10,
      "flags": 4,
      "label": "Blackhawks Trophy",
      "description": "Score an overtime goal.",
      "howto": "Score an overtime goal."
    },
    {
      "id": 23,
      "imageId": 5022,
      "cred": 10,
      "flags": 4,
      "label": "Avalanche Trophy",
      "description": "Win at home in front of a sold out arena.",
      "howto": "Win at home in front of a sold out arena."
    },
    {
      "id": 24,
      "imageId": 5023,
      "cred": 15,
      "flags": 4,
      "label": "Blue Jackets Trophy",
      "description": "Make the playoffs in your Franchise or Season Mode.",
      "howto": "Make the playoffs in your Franchise or Season Mode."
    },
    {
      "id": 25,
      "imageId": 5024,
      "cred": 25,
      "flags": 4,
      "label": "Stars Trophy",
      "description": "Win a Pond Hockey game.",
      "howto": "Win a Pond Hockey game."
    },
    {
      "id": 26,
      "imageId": 5025,
      "cred": 75,
      "flags": 4,
      "label": "Red Wings Trophy",
      "description": "Win the Presidents Trophy and Stanley Cup in one season.",
      "howto": "Win the Presidents Trophy and Stanley Cup in one season."
    },
    {
      "id": 27,
      "imageId": 5026,
      "cred": 65,
      "flags": 4,
      "label": "Oilers Trophy",
      "description": "Achieve a total of 446 goals.",
      "howto": "Achieve a total of 446 goals."
    },
    {
      "id": 28,
      "imageId": 5027,
      "cred": 10,
      "flags": 4,
      "label": "Panthers Trophy",
      "description": "Get your 10th leaderboard win in a ranked match.",
      "howto": "Get your 10th leaderboard win in a ranked match."
    },
    {
      "id": 29,
      "imageId": 5028,
      "cred": 75,
      "flags": 4,
      "label": "Kings Trophy",
      "description": "Achieve a total of 894 goals.",
      "howto": "Achieve a total of 894 goals."
    },
    {
      "id": 30,
      "imageId": 5029,
      "cred": 10,
      "flags": 4,
      "label": "Wild Trophy",
      "description": "Score 5 goals in one game with one player.",
      "howto": "Score 5 goals in one game with one player."
    },
    {
      "id": 31,
      "imageId": 5030,
      "cred": 10,
      "flags": 4,
      "label": "Canadiens Trophy",
      "description": "Achieve a total of 101 Assists to celebrate 101 years of the most successful team in NHL history.",
      "howto": "Achieve a total of 101 Assists to celebrate 101 years of the most successful team in NHL history."
    },
    {
      "id": 32,
      "imageId": 5031,
      "cred": 10,
      "flags": 4,
      "label": "Predators Trophy",
      "description": "Score an awesome goal with a goalie deke.",
      "howto": "Score an awesome goal with a goalie deke."
    },
    {
      "id": 33,
      "imageId": 5032,
      "cred": 40,
      "flags": 4,
      "label": "Devils Trophy",
      "description": "Achieve a total of 50 User Wins.",
      "howto": "Achieve a total of 50 User Wins."
    },
    {
      "id": 34,
      "imageId": 5033,
      "cred": 40,
      "flags": 4,
      "label": "Islanders Trophy",
      "description": "Like the '82 Islanders, sweep the Stanley Cup Finals in Franchise or Season Mode.",
      "howto": "Like the '82 Islanders, sweep the Stanley Cup Finals in Franchise or Season Mode."
    },
    {
      "id": 35,
      "imageId": 5034,
      "cred": 10,
      "flags": 4,
      "label": "Rangers Trophy",
      "description": "Create a Team.",
      "howto": "Create a Team."
    },
    {
      "id": 36,
      "imageId": 5035,
      "cred": 25,
      "flags": 4,
      "label": "Senators Trophy",
      "description": "Go a full game without logging any penalty minutes.",
      "howto": "Go a full game without logging any penalty minutes."
    },
    {
      "id": 37,
      "imageId": 5036,
      "cred": 25,
      "flags": 4,
      "label": "Flyers Trophy",
      "description": "Achieve a total of 500 Penalty Minutes.",
      "howto": "Achieve a total of 500 Penalty Minutes."
    },
    {
      "id": 38,
      "imageId": 5037,
      "cred": 25,
      "flags": 4,
      "label": "Coyotes Trophy",
      "description": "Average an A teammate grade.",
      "howto": "Average an A teammate grade."
    },
    {
      "id": 39,
      "imageId": 5038,
      "cred": 50,
      "flags": 4,
      "label": "Penguins Trophy",
      "description": "Play and win 17 games in a row in your Franchise or Season Mode.",
      "howto": "Play and win 17 games in a row in your Franchise or Season Mode."
    },
    {
      "id": 40,
      "imageId": 5039,
      "cred": 40,
      "flags": 4,
      "label": "Sharks Trophy",
      "description": "Achieve a total of 200 User Wins.",
      "howto": "Achieve a total of 200 User Wins."
    },
    {
      "id": 41,
      "imageId": 5040,
      "cred": 40,
      "flags": 4,
      "label": "Blues Trophy",
      "description": "Win the Stanley Cup in Playoff Mode.",
      "howto": "Win the Stanley Cup in Playoff Mode."
    },
    {
      "id": 42,
      "imageId": 5041,
      "cred": 10,
      "flags": 4,
      "label": "Lightning Trophy",
      "description": "Get a hat trick.",
      "howto": "Get a hat trick."
    },
    {
      "id": 43,
      "imageId": 5042,
      "cred": 50,
      "flags": 4,
      "label": "Maple Leafs Trophy",
      "description": "Get 10 points in one game with one player.",
      "howto": "Get 10 points in one game with one player."
    },
    {
      "id": 44,
      "imageId": 5043,
      "cred": 10,
      "flags": 4,
      "label": "Canucks Trophy",
      "description": "Get revenge for the '82 and '94 Canucks.  Beat the Islanders or Rangers in any game mode.",
      "howto": "Get revenge for the '82 and '94 Canucks.  Beat the Islanders or Rangers in any game mode."
    },
    {
      "id": 45,
      "imageId": 5044,
      "cred": 30,
      "flags": 4,
      "label": "Capitals Trophy",
      "description": "Clinch your division in your Franchise or Season Mode.",
      "howto": "Clinch your division in your Franchise or Season Mode."
    },
    {
      "id": 46,
      "imageId": 5045,
      "cred": 10,
      "flags": 4,
      "label": "2K Blogger",
      "description": "Upload your Franchise to 2KSports.com",
      "howto": "Upload your Franchise to 2KSports.com"
    },
    {
      "id": 47,
      "imageId": 5046,
      "cred": 10,
      "flags": 4,
      "label": "Did I Just Do That?",
      "description": "Shoot while stumbling or falling and score a goal.",
      "howto": "Shoot while stumbling or falling and score a goal."
    },
    {
      "id": 48,
      "imageId": 5047,
      "cred": 10,
      "flags": 4,
      "label": "It's Cold Out Here",
      "description": "Win a game at Wrigley Field™.",
      "howto": "Win a game at Wrigley Field™."
    },
    {
      "id": 49,
      "imageId": 5048,
      "cred": 25,
      "flags": 4,
      "label": "Mini Rink",
      "description": "Win a Mini-Rink game.",
      "howto": "Win a Mini-Rink game."
    },
    {
      "id": 50,
      "imageId": 5049,
      "cred": 20,
      "flags": 4,
      "label": "International Trophy",
      "description": "Win the International Tournament in Playoff Mode.",
      "howto": "Win the International Tournament in Playoff Mode."
    }
  ]
}