{
  "achievementsPossible": 49,
  "credPossible": 1000,
  "achievements": [
    {
      "id": 1,
      "imageId": 1,
      "cred": 5,
      "flags": 4,
      "label": "Zenichi",
      "description": "Play a game to get in Red Hot Skull",
      "howto": "Play a game to get in Red Hot Skull"
    },
    {
      "id": 2,
      "imageId": 2,
      "cred": 5,
      "flags": 4,
      "label": "Yun",
      "description": "Play a game to get in FA-98 Stinger",
      "howto": "Play a game to get in FA-98 Stinger"
    },
    {
      "id": 3,
      "imageId": 3,
      "cred": 5,
      "flags": 4,
      "label": "Sadahl",
      "description": "Play a game to get in Turtle 10000",
      "howto": "Play a game to get in Turtle 10000"
    },
    {
      "id": 4,
      "imageId": 4,
      "cred": 5,
      "flags": 4,
      "label": "Loop",
      "description": "Play a game to get in Piece of Cake",
      "howto": "Play a game to get in Piece of Cake"
    },
    {
      "id": 5,
      "imageId": 5,
      "cred": 10,
      "flags": 6,
      "label": "Clear stage 1(Normal)",
      "description": "Cleared stage 1 in normal mode",
      "howto": "Cleared stage 1 in normal mode"
    },
    {
      "id": 6,
      "imageId": 6,
      "cred": 20,
      "flags": 6,
      "label": "Clear stage 2(Normal)",
      "description": "Cleared stage 2 in normal mode",
      "howto": "Cleared stage 2 in normal mode"
    },
    {
      "id": 7,
      "imageId": 7,
      "cred": 30,
      "flags": 6,
      "label": "Clear stage 3(Normal)",
      "description": "Cleared stage 3 in normal mode",
      "howto": "Cleared stage 3 in normal mode"
    },
    {
      "id": 8,
      "imageId": 8,
      "cred": 40,
      "flags": 6,
      "label": "Clear stage 4(Normal)",
      "description": "Cleared stage 4 in normal mode",
      "howto": "Cleared stage 4 in normal mode"
    },
    {
      "id": 9,
      "imageId": 9,
      "cred": 50,
      "flags": 6,
      "label": "Clear stage 5(Normal)",
      "description": "Cleared stage 5 in normal mode",
      "howto": "Cleared stage 5 in normal mode"
    },
    {
      "id": 10,
      "imageId": 10,
      "cred": 10,
      "flags": 6,
      "label": "Clear stage 1(Burst)",
      "description": "Cleared stage 1 in burst mode",
      "howto": "Cleared stage 1 in burst mode"
    },
    {
      "id": 11,
      "imageId": 11,
      "cred": 20,
      "flags": 6,
      "label": "Clear stage 2(Burst)",
      "description": "Cleared stage 2 in burst mode",
      "howto": "Cleared stage 2 in burst mode"
    },
    {
      "id": 12,
      "imageId": 12,
      "cred": 30,
      "flags": 6,
      "label": "Clear stage 3(Burst)",
      "description": "Cleared stage 3 in burst mode",
      "howto": "Cleared stage 3 in burst mode"
    },
    {
      "id": 13,
      "imageId": 13,
      "cred": 40,
      "flags": 6,
      "label": "Clear stage 4(Burst)",
      "description": "Cleared stage 4 in burst mode",
      "howto": "Cleared stage 4 in burst mode"
    },
    {
      "id": 14,
      "imageId": 14,
      "cred": 50,
      "flags": 6,
      "label": "Clear stage 5(Burst)",
      "description": "Cleared stage 5 in burst mode",
      "howto": "Cleared stage 5 in burst mode"
    },
    {
      "id": 15,
      "imageId": 15,
      "cred": 5,
      "flags": 6,
      "label": "Clear caravan",
      "description": "Cleared a game in caravan mode",
      "howto": "Cleared a game in caravan mode"
    },
    {
      "id": 16,
      "imageId": 16,
      "cred": 5,
      "flags": 4,
      "label": "Giving up the game",
      "description": "Retried caravan mode",
      "howto": "Retried caravan mode"
    },
    {
      "id": 17,
      "imageId": 17,
      "cred": 15,
      "flags": 6,
      "label": "Conquer myself",
      "description": "Break my highest score in caravan mode",
      "howto": "Break my highest score in caravan mode"
    },
    {
      "id": 18,
      "imageId": 18,
      "cred": 5,
      "flags": 6,
      "label": "You take good aim too much!",
      "description": "Missed in caravan mode",
      "howto": "Missed in caravan mode"
    },
    {
      "id": 19,
      "imageId": 19,
      "cred": 10,
      "flags": 6,
      "label": "You should live in any case!",
      "description": "Cleared a game without missing in caravan mode",
      "howto": "Cleared a game without missing in caravan mode"
    },
    {
      "id": 20,
      "imageId": 20,
      "cred": 10,
      "flags": 6,
      "label": "Musou Tensei",
      "description": "Unlocked Musou mode",
      "howto": "Unlocked Musou mode"
    },
    {
      "id": 21,
      "imageId": 21,
      "cred": 10,
      "flags": 6,
      "label": "Clear stage 1(Musou)",
      "description": "Clear stage 1 in Musou mode",
      "howto": "Clear stage 1 in Musou mode"
    },
    {
      "id": 22,
      "imageId": 22,
      "cred": 20,
      "flags": 6,
      "label": "Clear stage 2(Musou)",
      "description": "Clear stage 2 in Musou mode",
      "howto": "Clear stage 2 in Musou mode"
    },
    {
      "id": 23,
      "imageId": 23,
      "cred": 30,
      "flags": 6,
      "label": "Clear stage 3(Musou)",
      "description": "Clear stage 3 in Musou mode",
      "howto": "Clear stage 3 in Musou mode"
    },
    {
      "id": 24,
      "imageId": 24,
      "cred": 40,
      "flags": 6,
      "label": "Clear stage 4(Musou)",
      "description": "Clear stage 4 in Musou mode",
      "howto": "Clear stage 4 in Musou mode"
    },
    {
      "id": 25,
      "imageId": 25,
      "cred": 50,
      "flags": 6,
      "label": "Clear stage 5(Musou)",
      "description": "Clear stage 5 in Musou mode",
      "howto": "Clear stage 5 in Musou mode"
    },
    {
      "id": 26,
      "imageId": 26,
      "cred": 30,
      "flags": 1,
      "label": "I could avenge my father!",
      "description": "Watched a ending with Zenichi",
      "howto": "Watched a ending with Zenichi"
    },
    {
      "id": 27,
      "imageId": 27,
      "cred": 30,
      "flags": 1,
      "label": "Aah, I can finaly go home.",
      "description": "Watched a ending with Yun",
      "howto": "Watched a ending with Yun"
    },
    {
      "id": 28,
      "imageId": 28,
      "cred": 30,
      "flags": 1,
      "label": "I wonder he can forgive me",
      "description": "Watched a ending with Sadahl",
      "howto": "Watched a ending with Sadahl"
    },
    {
      "id": 29,
      "imageId": 29,
      "cred": 30,
      "flags": 1,
      "label": "Pay back time",
      "description": "Wawtched the ending with loop",
      "howto": "Wawtched the ending with loop"
    },
    {
      "id": 30,
      "imageId": 30,
      "cred": 5,
      "flags": 7,
      "label": "Approval for combine!",
      "description": "Used a burst",
      "howto": "Used a burst"
    },
    {
      "id": 31,
      "imageId": 31,
      "cred": 5,
      "flags": 7,
      "label": "There's nothing more I can do!",
      "description": "Cancel a burst manually",
      "howto": "Cancel a burst manually"
    },
    {
      "id": 32,
      "imageId": 32,
      "cred": 5,
      "flags": 7,
      "label": "You are not watching ahead!",
      "description": "Collide against an enemy during a burst",
      "howto": "Collide against an enemy during a burst"
    },
    {
      "id": 33,
      "imageId": 33,
      "cred": 10,
      "flags": 7,
      "label": "Knock out!",
      "description": "Beat a boss in a moment during a burst.",
      "howto": "Beat a boss in a moment during a burst."
    },
    {
      "id": 34,
      "imageId": 34,
      "cred": 5,
      "flags": 7,
      "label": "Once more!",
      "description": "Used 2 bursts in a stage",
      "howto": "Used 2 bursts in a stage"
    },
    {
      "id": 35,
      "imageId": 35,
      "cred": 10,
      "flags": 7,
      "label": "Still going to continue!",
      "description": "Kept a burst for 30 seconds",
      "howto": "Kept a burst for 30 seconds"
    },
    {
      "id": 36,
      "imageId": 36,
      "cred": 5,
      "flags": 7,
      "label": "I will never having lost easily",
      "description": "Recovered HP",
      "howto": "Recovered HP"
    },
    {
      "id": 37,
      "imageId": 37,
      "cred": 20,
      "flags": 7,
      "label": "Filling up King",
      "description": "Earned 50 HP items with your HP full in total",
      "howto": "Earned 50 HP items with your HP full in total"
    },
    {
      "id": 38,
      "imageId": 38,
      "cred": 10,
      "flags": 7,
      "label": "Coin rate",
      "description": "Increased your coins' score rate up to 100,000 points",
      "howto": "Increased your coins' score rate up to 100,000 points"
    },
    {
      "id": 39,
      "imageId": 39,
      "cred": 15,
      "flags": 7,
      "label": "Collection bonuses",
      "description": "Earn 50 collection bonuses in total",
      "howto": "Earn 50 collection bonuses in total"
    },
    {
      "id": 40,
      "imageId": 40,
      "cred": 20,
      "flags": 7,
      "label": "Coin King",
      "description": "Earned 25,000 coins in total",
      "howto": "Earned 25,000 coins in total"
    },
    {
      "id": 41,
      "imageId": 41,
      "cred": 30,
      "flags": 7,
      "label": "Stage 1 Bancho",
      "description": "Earned Platinum Medal at stage 1 of Bancho mode",
      "howto": "Earned Platinum Medal at stage 1 of Bancho mode"
    },
    {
      "id": 42,
      "imageId": 42,
      "cred": 30,
      "flags": 7,
      "label": "Stage 2 Bancho",
      "description": "Earned Platinum Medal at stage 2 of Bancho mode",
      "howto": "Earned Platinum Medal at stage 2 of Bancho mode"
    },
    {
      "id": 43,
      "imageId": 43,
      "cred": 30,
      "flags": 7,
      "label": "Stage 3 Bancho",
      "description": "Earned Platinum Medal at stage 3 of Bancho mode",
      "howto": "Earned Platinum Medal at stage 3 of Bancho mode"
    },
    {
      "id": 44,
      "imageId": 44,
      "cred": 30,
      "flags": 7,
      "label": "Stage 4 Bancho",
      "description": "Earned Platinum Medal at stage 4 of Bancho mode",
      "howto": "Earned Platinum Medal at stage 4 of Bancho mode"
    },
    {
      "id": 45,
      "imageId": 45,
      "cred": 30,
      "flags": 7,
      "label": "Stage 5 Bancho",
      "description": "Earned Platinum Medal at stage 5 of Bancho mode",
      "howto": "Earned Platinum Medal at stage 5 of Bancho mode"
    },
    {
      "id": 46,
      "imageId": 46,
      "cred": 25,
      "flags": 7,
      "label": "Soul King",
      "description": "Earned Tamashii gauge 2,000 magnification in total",
      "howto": "Earned Tamashii gauge 2,000 magnification in total"
    },
    {
      "id": 47,
      "imageId": 47,
      "cred": 25,
      "flags": 7,
      "label": " Top scorer",
      "description": "Earn 500 various bonuses in total.",
      "howto": "Earn 500 various bonuses in total."
    },
    {
      "id": 48,
      "imageId": 48,
      "cred": 25,
      "flags": 7,
      "label": "Flying Ace",
      "description": "Shot down 25,000 units in total",
      "howto": "Shot down 25,000 units in total"
    },
    {
      "id": 49,
      "imageId": 49,
      "cred": 25,
      "flags": 7,
      "label": "Medal King",
      "description": "Earned 25 and over medals in total",
      "howto": "Earned 25 and over medals in total"
    }
  ]
}