{
  "avatarAssetsPossible": 3,
  "maleAvatarAssetsPossible": 1,
  "femaleAvatarAssetsPossible": 1,
  "avatarAssets": [
    {
      "id": "00000008-0001-d131-c34d-b90958410a6f",
      "imageId": 15,
      "subcategory": 0,
      "unknown": 0,
      "isMale": true,
      "isFemale": false,
      "isUnisex": false,
      "label": "Unicorn Poop T-Shirt (Male)",
      "description": "Smells like innocence, tastes like adventure.",
      "howto": "Kill the twin dragons guarding The Artifact."
    },
    {
      "id": "00000008-0001-71f2-c790-121158410a6f",
      "imageId": 16,
      "subcategory": 0,
      "unknown": 2015221016,
      "isMale": false,
      "isFemale": true,
      "isUnisex": false,
      "label": "Unicorn Poop T-Shirt (Female)",
      "description": "Smells like innocence, tastes like adventure.",
      "howto": "Kill the twin dragons guarding The Artifact."
    },
    {
      "id": "00001000-0002-f1e3-c5c1-9ab258410a6f",
      "imageId": 17,
      "subcategory": 0,
      "unknown": 2015221016,
      "isMale": false,
      "isFemale": false,
      "isUnisex": true,
      "label": "Dragon Hatchling",
      "description": "The bestest friend a young hero can have.  Too bad about the smell.",
      "howto": "Complete Ms. Heybenstance’s quest to save her Dragon Hatchlings."
    }
  ]
}