{
  "achievementsPossible": 48,
  "credPossible": 1000,
  "achievements": [
    {
      "id": 18,
      "imageId": 1,
      "cred": 30,
      "flags": 4,
      "label": "１０アイドル",
      "description": "１０人の女の子全員をプレイしました。\r\nどの女の子がお気に入りですか？",
      "howto": "１０人の女の子全員をプレイしたら達成です。"
    },
    {
      "id": 19,
      "imageId": 2,
      "cred": 30,
      "flags": 4,
      "label": "１６ソング",
      "description": "１６曲を全部選曲しました。\r\nどの曲がお好みでしたか？",
      "howto": "１６曲全部をひと通り選曲したら達成です。"
    },
    {
      "id": 20,
      "imageId": 48,
      "cred": 30,
      "flags": 4,
      "label": "アイテムコンプリート",
      "description": "アイテムコンプリート、おめでとうございます！",
      "howto": "社長から使用許可が下りた基本的な衣装やアクセサリーが全て揃ったら達成です。"
    },
    {
      "id": 21,
      "imageId": 3,
      "cred": 30,
      "flags": 4,
      "label": "フルコンボ",
      "description": "フルコンボ達成おめでとうございます！あなたの応援はとてもすばらしいです！",
      "howto": "応援がフルコンボできたら達成です。"
    },
    {
      "id": 22,
      "imageId": 4,
      "cred": 20,
      "flags": 4,
      "label": "エキサイテッド０１（太陽のジェラシー）",
      "description": "「太陽のジェラシー」のライブは盛り上がり、大成功をおさめました。",
      "howto": "「太陽のジェラシー」のライブでボルテージが９０％を越えたら達成です。"
    },
    {
      "id": 23,
      "imageId": 5,
      "cred": 20,
      "flags": 4,
      "label": "エキサイテッド０２（Here we go!!）",
      "description": "「Here we go!!」のライブは盛り上がり、大成功をおさめました。",
      "howto": "「Here we go!!」のライブでボルテージが９０％を越えたら達成です。"
    },
    {
      "id": 24,
      "imageId": 6,
      "cred": 20,
      "flags": 4,
      "label": "エキサイテッド０３（おはよう！！朝ご飯）",
      "description": "「おはよう！！朝ご飯」のライブは盛り上がり、大成功をおさめました。",
      "howto": "「おはよう！！朝ご飯」のライブでボルテージが９０％を越えたら達成です。"
    },
    {
      "id": 25,
      "imageId": 7,
      "cred": 20,
      "flags": 4,
      "label": "エキサイテッド０４（9:02pm）",
      "description": "「9:02pm」のライブは盛り上がり、大成功をおさめました。",
      "howto": "「9:02pm」のライブでボルテージが９０％を越えたら達成です。"
    },
    {
      "id": 26,
      "imageId": 8,
      "cred": 20,
      "flags": 4,
      "label": "エキサイテッド０５（THE IDOLM@STER）",
      "description": "「THE IDOLM@STER」のライブは盛り上がり、大成功をおさめました。",
      "howto": "「THE IDOLM@STER」のライブでボルテージが９０％を越えたら達成です。"
    },
    {
      "id": 27,
      "imageId": 9,
      "cred": 20,
      "flags": 4,
      "label": "エキサイテッド０６（まっすぐ）",
      "description": "「まっすぐ」のライブは盛り上がり、大成功をおさめました。",
      "howto": "「まっすぐ」のライブでボルテージが９０％を越えたら達成です。"
    },
    {
      "id": 28,
      "imageId": 10,
      "cred": 20,
      "flags": 4,
      "label": "エキサイテッド０７（relations）",
      "description": "「relations」のライブは盛り上がり、大成功をおさめました。",
      "howto": "「relations」のライブでボルテージが９０％を越えたら達成です。"
    },
    {
      "id": 29,
      "imageId": 11,
      "cred": 20,
      "flags": 4,
      "label": "エキサイテッド０８（思い出をありがとう）",
      "description": "「思い出をありがとう」のライブは盛り上がり、大成功をおさめました。",
      "howto": "「思い出をありがとう」のライブでボルテージが９０％を越えたら達成です。"
    },
    {
      "id": 30,
      "imageId": 12,
      "cred": 20,
      "flags": 4,
      "label": "エキサイテッド０９（ポジティブ！）",
      "description": "「ポジティブ！」のライブは盛り上がり、大成功をおさめました。",
      "howto": "「ポジティブ！」のライブでボルテージが９０％を越えたら達成です。"
    },
    {
      "id": 31,
      "imageId": 13,
      "cred": 20,
      "flags": 4,
      "label": "エキサイテッド１０（魔法をかけて！）",
      "description": "「魔法をかけて！」のライブは盛り上がり、大成功をおさめました。",
      "howto": "「魔法をかけて！」のライブでボルテージが９０％を越えたら達成です。"
    },
    {
      "id": 32,
      "imageId": 14,
      "cred": 20,
      "flags": 4,
      "label": "エキサイテッド１１（First Stage）",
      "description": "「First Stage」のライブは盛り上がり、大成功をおさめました。",
      "howto": "「First Stage」のライブでボルテージが９０％を越えたら達成です。"
    },
    {
      "id": 33,
      "imageId": 15,
      "cred": 20,
      "flags": 4,
      "label": "エキサイテッド１２（蒼い鳥）",
      "description": "「蒼い鳥」のライブは盛り上がり、大成功をおさめました。",
      "howto": "「蒼い鳥」のライブでボルテージが９０％を越えたら達成です。"
    },
    {
      "id": 34,
      "imageId": 16,
      "cred": 20,
      "flags": 4,
      "label": "エキサイテッド１３（エージェント夜を往く）",
      "description": "「エージェント夜を往く」のライブは盛り上がり、大成功をおさめました。",
      "howto": "「エージェント夜を往く」のライブでボルテージが９０％を越えたら達成です。"
    },
    {
      "id": 35,
      "imageId": 17,
      "cred": 20,
      "flags": 4,
      "label": "エキサイテッド１４（My Best Friend）",
      "description": "「My Best Friend」のライブは盛り上がり、大成功をおさめました。",
      "howto": "「My Best Friend」のライブでボルテージが９０％を越えたら達成です。"
    },
    {
      "id": 36,
      "imageId": 18,
      "cred": 20,
      "flags": 4,
      "label": "エキサイテッド１５（GO MY WAY!!）",
      "description": "「GO MY WAY!!」のライブは盛り上がり、大成功をおさめました。",
      "howto": "「GO MY WAY!!」のライブでボルテージが９０％を越えたら達成です。"
    },
    {
      "id": 37,
      "imageId": 19,
      "cred": 20,
      "flags": 4,
      "label": "エキサイテッド１６（私はアイドル）",
      "description": "「私はアイドル」のライブは盛り上がり、大成功をおさめました。",
      "howto": "「私はアイドル」のライブでボルテージが９０％を越えたら達成です。"
    },
    {
      "id": 39,
      "imageId": 20,
      "cred": 20,
      "flags": 4,
      "label": "フェイバリットソング０１（太陽のジェラシー）",
      "description": "「太陽のジェラシー」があなたの好きな楽曲のようですね。",
      "howto": "「太陽のジェラシー」を５回選択したら達成です。"
    },
    {
      "id": 40,
      "imageId": 21,
      "cred": 20,
      "flags": 4,
      "label": "フェイバリットソング０２（Here we go!!）",
      "description": "「Here we go!!」があなたの好きな楽曲のようですね。",
      "howto": "「Here we go!!」を５回選択したら達成です。"
    },
    {
      "id": 41,
      "imageId": 22,
      "cred": 20,
      "flags": 4,
      "label": "フェイバリットソング０３（おはよう！！朝ご飯）",
      "description": "「おはよう！！朝ご飯」があなたの好きな楽曲のようですね。",
      "howto": "「おはよう！！朝ご飯」を５回選択したら達成です。"
    },
    {
      "id": 42,
      "imageId": 23,
      "cred": 20,
      "flags": 4,
      "label": "フェイバリットソング０４（9:02pm）",
      "description": "「9:02pm」があなたの好きな楽曲のようですね。",
      "howto": "「9:02pm」を５回選択したら達成です。"
    },
    {
      "id": 43,
      "imageId": 24,
      "cred": 20,
      "flags": 4,
      "label": "フェイバリットソング０５（THE IDOLM@STER）",
      "description": "「THE IDOLM@STER」があなたの好きな楽曲のようですね。",
      "howto": "「THE IDOLM@STER」を５回選択したら達成です。"
    },
    {
      "id": 44,
      "imageId": 25,
      "cred": 20,
      "flags": 4,
      "label": "フェイバリットソング０６（まっすぐ）",
      "description": "「まっすぐ」があなたの好きな楽曲のようですね。",
      "howto": "「まっすぐ」を５回選択したら達成です。"
    },
    {
      "id": 45,
      "imageId": 26,
      "cred": 20,
      "flags": 4,
      "label": "フェイバリットソング０７（relations）",
      "description": "「relations」があなたの好きな楽曲のようですね。",
      "howto": "「relations」を５回選択したら達成です。"
    },
    {
      "id": 46,
      "imageId": 27,
      "cred": 20,
      "flags": 4,
      "label": "フェイバリットソング０８（思い出をありがとう）",
      "description": "「思い出をありがとう」があなたの好きな楽曲のようですね。",
      "howto": "「思い出をありがとう」を５回選択したら達成です。"
    },
    {
      "id": 47,
      "imageId": 28,
      "cred": 20,
      "flags": 4,
      "label": "フェイバリットソング０９（ポジティブ！）",
      "description": "「ポジティブ！」があなたの好きな楽曲のようですね。",
      "howto": "「ポジティブ！」を５回選択したら達成です。"
    },
    {
      "id": 48,
      "imageId": 29,
      "cred": 20,
      "flags": 4,
      "label": "フェイバリットソング１０（魔法をかけて！）",
      "description": "「魔法をかけて！」があなたの好きな楽曲のようですね。",
      "howto": "「魔法をかけて！」を５回選択したら達成です。"
    },
    {
      "id": 49,
      "imageId": 30,
      "cred": 20,
      "flags": 4,
      "label": "フェイバリットソング１１（First Stage）",
      "description": "「First Stage」があなたの好きな楽曲のようですね。",
      "howto": "「First Stage」を５回選択したら達成です。"
    },
    {
      "id": 50,
      "imageId": 31,
      "cred": 20,
      "flags": 4,
      "label": "フェイバリットソング１２（蒼い鳥）",
      "description": "「蒼い鳥」があなたの好きな楽曲のようですね。",
      "howto": "「蒼い鳥」を５回選択したら達成です。"
    },
    {
      "id": 51,
      "imageId": 32,
      "cred": 20,
      "flags": 4,
      "label": "フェイバリットソング１３（エージェント夜を往く）",
      "description": "「エージェント夜を往く」があなたの好きな楽曲のようですね。",
      "howto": "「エージェント夜を往く」を５回選択したら達成です。"
    },
    {
      "id": 53,
      "imageId": 33,
      "cred": 20,
      "flags": 4,
      "label": "フェイバリットソング１４（My Best Friend）",
      "description": "「My Best Friend」があなたの好きな楽曲のようですね。",
      "howto": "「My Best Friend」を５回選択したら達成です。"
    },
    {
      "id": 54,
      "imageId": 34,
      "cred": 20,
      "flags": 4,
      "label": "フェイバリットソング１５（GO MY WAY!!）",
      "description": "「GO MY WAY!!」があなたの好きな楽曲のようですね。",
      "howto": "「GO MY WAY!!」を５回選択したら達成です。"
    },
    {
      "id": 55,
      "imageId": 35,
      "cred": 20,
      "flags": 4,
      "label": "フェイバリットソング１６（私はアイドル）",
      "description": "「私はアイドル」があなたの好きな楽曲のようですね。",
      "howto": "「私はアイドル」を５回選択したら達成です。"
    },
    {
      "id": 56,
      "imageId": 36,
      "cred": 20,
      "flags": 4,
      "label": "ラブリーアイドル０１（春香）",
      "description": "春香があなたの好きなアイドルのようですね。",
      "howto": "春香を含むユニットを５回選択したら達成です。"
    },
    {
      "id": 57,
      "imageId": 37,
      "cred": 20,
      "flags": 4,
      "label": "ラブリーアイドル０２（千早）",
      "description": "千早があなたの好きなアイドルのようですね。",
      "howto": "千早を含むユニットを５回選択したら達成です。"
    },
    {
      "id": 58,
      "imageId": 38,
      "cred": 20,
      "flags": 4,
      "label": "ラブリーアイドル０３（雪歩）",
      "description": "あなたの好きなアイドルは雪歩のようですね。",
      "howto": "雪歩を含むユニットを５回選択したら達成です。"
    },
    {
      "id": 59,
      "imageId": 39,
      "cred": 20,
      "flags": 4,
      "label": "ラブリーアイドル０４（やよい）",
      "description": "あなたの好きなアイドルはやよいのようですね。",
      "howto": "やよいを含むユニットを５回選択したら達成です。"
    },
    {
      "id": 60,
      "imageId": 40,
      "cred": 20,
      "flags": 4,
      "label": "ラブリーアイドル０５（律子）",
      "description": "あなたの好きなアイドルは律子のようですね。",
      "howto": "律子を含むユニットを５回選択したら達成です。"
    },
    {
      "id": 61,
      "imageId": 41,
      "cred": 20,
      "flags": 4,
      "label": "ラブリーアイドル０６（あずさ）",
      "description": "あなたの好きなアイドルはあずさのようですね。",
      "howto": "あずさを含むユニットを５回選択したら達成です。"
    },
    {
      "id": 62,
      "imageId": 42,
      "cred": 20,
      "flags": 4,
      "label": "ラブリーアイドル０７（伊織）",
      "description": "あなたの好きなアイドルは伊織のようですね。",
      "howto": "伊織を含むユニットを５回選択したら達成です。"
    },
    {
      "id": 63,
      "imageId": 43,
      "cred": 20,
      "flags": 4,
      "label": "ラブリーアイドル０８（真）",
      "description": "あなたの好きなアイドルは真のようですね。",
      "howto": "真を含むユニットを５回選択したら達成です。"
    },
    {
      "id": 64,
      "imageId": 44,
      "cred": 20,
      "flags": 4,
      "label": "ラブリーアイドル０９（亜美）",
      "description": "あなたの好きなアイドルは亜美のようですね。",
      "howto": "亜美を含むユニットを５回選択したら達成です。"
    },
    {
      "id": 65,
      "imageId": 45,
      "cred": 20,
      "flags": 4,
      "label": "ラブリーアイドル１０（真美）",
      "description": "あなたの好きなアイドルは真美のようですね。",
      "howto": "真美を含むユニットを５回選択したら達成です。"
    },
    {
      "id": 66,
      "imageId": 46,
      "cred": 20,
      "flags": 4,
      "label": "ラブリーアイドル１１（美希ロングヘア）",
      "description": "あなたの好きなアイドルは美希（ロングヘア）のようですね。",
      "howto": "美希（ロングヘア）を含むユニットを５回選択したら達成です。"
    },
    {
      "id": 67,
      "imageId": 47,
      "cred": 20,
      "flags": 4,
      "label": "ラブリーアイドル１２（美希ショートヘア）",
      "description": "あなたの好きなアイドルは美希（ショートヘア）のようですね。",
      "howto": "美希（ショートヘア）を含むユニットを５回選択したら達成です。"
    }
  ]
}