{
  "achievementsPossible": 12,
  "credPossible": 200,
  "achievements": [
    {
      "id": 11,
      "imageId": 2,
      "cred": 40,
      "flags": 1,
      "label": "Ace of Hearts",
      "description": "Win 10 consecutive games.  Earn this in Single Player or Xbox LIVE play.",
      "howto": "Win 10 consecutive games.  Earn this in Single Player or Xbox LIVE play."
    },
    {
      "id": 12,
      "imageId": 1,
      "cred": 30,
      "flags": 1,
      "label": "Solar Sniper",
      "description": "Shoot the sun by taking every single trick in a hand.  Earn this in Single Player or Xbox LIVE play.",
      "howto": "Shoot the sun by taking every single trick in a hand.  Earn this in Single Player or Xbox LIVE play."
    },
    {
      "id": 13,
      "imageId": 3,
      "cred": 10,
      "flags": 1,
      "label": "Lunar Sniper",
      "description": "Shoot the moon by taking all point cards in a hand.  Earn this in Single Player or Xbox LIVE play.",
      "howto": "Shoot the moon by taking all point cards in a hand.  Earn this in Single Player or Xbox LIVE play."
    },
    {
      "id": 14,
      "imageId": 4,
      "cred": 10,
      "flags": 1,
      "label": "Heart Attack",
      "description": "Win a game by at least 50 points.  Earn this in Single Player or Xbox LIVE play.",
      "howto": "Win a game by at least 50 points.  Earn this in Single Player or Xbox LIVE play."
    },
    {
      "id": 15,
      "imageId": 5,
      "cred": 10,
      "flags": 1,
      "label": "Habitual Heartbreaker",
      "description": "Break hearts a total of 100 times.  Earn this in Single Player or Xbox LIVE play.",
      "howto": "Break hearts a total of 100 times.  Earn this in Single Player or Xbox LIVE play."
    },
    {
      "id": 16,
      "imageId": 6,
      "cred": 10,
      "flags": 1,
      "label": "The Prankster",
      "description": "Take 500 total tricks.  Earn this in Single Player or Xbox LIVE play.",
      "howto": "Take 500 total tricks.  Earn this in Single Player or Xbox LIVE play."
    },
    {
      "id": 17,
      "imageId": 7,
      "cred": 30,
      "flags": 1,
      "label": "Lunar Satellite",
      "description": "Shoot the moon 3 times in a single game.  Earn this in Single Player or Xbox LIVE play.",
      "howto": "Shoot the moon 3 times in a single game.  Earn this in Single Player or Xbox LIVE play."
    },
    {
      "id": 18,
      "imageId": 8,
      "cred": 10,
      "flags": 1,
      "label": "Jack of Hearts",
      "description": "Win a total of 10 games.  Earn this in Single Player or Xbox LIVE play.",
      "howto": "Win a total of 10 games.  Earn this in Single Player or Xbox LIVE play."
    },
    {
      "id": 19,
      "imageId": 9,
      "cred": 10,
      "flags": 1,
      "label": "King of Hearts",
      "description": "Win 25 games. Earn this playing online or single player.",
      "howto": "Win 25 games. Earn this playing online or single player."
    },
    {
      "id": 20,
      "imageId": 10,
      "cred": 10,
      "flags": 1,
      "label": "Queen of Hearts",
      "description": "Play 10 complete games in Xbox LIVE play.",
      "howto": "Play 10 complete games in Xbox LIVE play."
    },
    {
      "id": 21,
      "imageId": 11,
      "cred": 10,
      "flags": 1,
      "label": "Hearts Sweetheart",
      "description": "Play a total of 100 games.  Earn this in Single Player or Xbox LIVE play.",
      "howto": "Play a total of 100 games.  Earn this in Single Player or Xbox LIVE play."
    },
    {
      "id": 22,
      "imageId": 12,
      "cred": 20,
      "flags": 1,
      "label": "Black Widow Exterminator",
      "description": "Avoid taking the Queen of Spades in 25 total games.  Earn this in Single Player or Xbox LIVE play.",
      "howto": "Avoid taking the Queen of Spades in 25 total games.  Earn this in Single Player or Xbox LIVE play."
    }
  ]
}