{
  "achievementsPossible": 70,
  "credPossible": 1500,
  "achievements": [
    {
      "id": 3,
      "imageId": 1,
      "cred": 15,
      "flags": 1,
      "label": "The Gunstringer Rides Again",
      "description": "Defeated the Inflatable Wavy Tube Man.",
      "howto": "Destroy the advertising plan of a small business."
    },
    {
      "id": 4,
      "imageId": 2,
      "cred": 20,
      "flags": 1,
      "label": "Once Upon a Time in the West",
      "description": "Reached the clifftop and took out the Baron's billboard painter.",
      "howto": "End an artist's career."
    },
    {
      "id": 5,
      "imageId": 3,
      "cred": 20,
      "flags": 1,
      "label": "The Bandit Sheriff",
      "description": "Defeated the Sheriff and derailed a train.",
      "howto": "Close your bank account."
    },
    {
      "id": 6,
      "imageId": 4,
      "cred": 20,
      "flags": 1,
      "label": "The Canyon Runs Red",
      "description": "Fell thousands of feet and survived.",
      "howto": "Fall thousands of feet without dying."
    },
    {
      "id": 7,
      "imageId": 5,
      "cred": 20,
      "flags": 1,
      "label": "No Country for Old Barons",
      "description": "Reached the Oil Baron's derrick.",
      "howto": "Carjack a stagecoach."
    },
    {
      "id": 8,
      "imageId": 6,
      "cred": 30,
      "flags": 1,
      "label": "For A Few Gallons More",
      "description": "Defeated the Oil Baron.",
      "howto": "Take down Big Oil."
    },
    {
      "id": 10,
      "imageId": 7,
      "cred": 20,
      "flags": 1,
      "label": "My Horse, A Gun, Your Lumberjack",
      "description": "Arrived at the Lumberjack Sawmill.",
      "howto": "Find a place to saw some logs."
    },
    {
      "id": 11,
      "imageId": 8,
      "cred": 20,
      "flags": 1,
      "label": "The Brute and the Beast",
      "description": "Befriended the Gatorjack.",
      "howto": "See things that you will never be able to unsee."
    },
    {
      "id": 12,
      "imageId": 9,
      "cred": 20,
      "flags": 1,
      "label": "Death Rides a Steamboat",
      "description": "Drove a paddleboat into New Orleans.",
      "howto": "Commit mass destruction with a paddleboat."
    },
    {
      "id": 13,
      "imageId": 10,
      "cred": 20,
      "flags": 1,
      "label": "Stranger in New Orleans",
      "description": "Arrived at the Madam's headquarters.",
      "howto": "Take Andrew Jackson to the Madam's district."
    },
    {
      "id": 14,
      "imageId": 11,
      "cred": 30,
      "flags": 1,
      "label": "The Big Easy Reckoning",
      "description": "Defeated the Madam.",
      "howto": "Get close and personal with the Madam."
    },
    {
      "id": 15,
      "imageId": 12,
      "cred": 20,
      "flags": 1,
      "label": "Legend of the 8000 Samurai",
      "description": "Fought through to the Great Wall.",
      "howto": "Find the Great Wall of China in an unexpected place."
    },
    {
      "id": 16,
      "imageId": 52,
      "cred": 20,
      "flags": 1,
      "label": "The Great Wall of Vengeance",
      "description": "Rode a rocket from the Great Wall to the hidden dojo.",
      "howto": "Ride a rocket over a battlefield."
    },
    {
      "id": 17,
      "imageId": 53,
      "cred": 20,
      "flags": 1,
      "label": "Great Balls of Fire",
      "description": "Defeated the Kite Dragon.",
      "howto": "Survive an epic battle against a kite."
    },
    {
      "id": 18,
      "imageId": 54,
      "cred": 20,
      "flags": 1,
      "label": "The Hidden Fortress",
      "description": "Dropped into the Dojo.",
      "howto": "Crash into someone's house uninvited."
    },
    {
      "id": 19,
      "imageId": 55,
      "cred": 30,
      "flags": 1,
      "label": "How The East Was Won",
      "description": "Defeated the Beard Master.",
      "howto": "Possess a lush, full beard."
    },
    {
      "id": 20,
      "imageId": 56,
      "cred": 20,
      "flags": 1,
      "label": "Undead or Alive",
      "description": "Invoked the wrath of the Lady of the Dead.",
      "howto": "Remember the time you scorned a woman."
    },
    {
      "id": 21,
      "imageId": 57,
      "cred": 20,
      "flags": 1,
      "label": "Pistol for a Hundred Skeletons",
      "description": "Kill 18,675,30...you know, that's kind of a lot. I think you've killed enough.",
      "howto": "Kill 18,675,309,000 Skeletons."
    },
    {
      "id": 22,
      "imageId": 58,
      "cred": 20,
      "flags": 1,
      "label": "A Long Fall to Hell",
      "description": "Fell into the underworld.",
      "howto": "Find a way to kill an undead puppet."
    },
    {
      "id": 23,
      "imageId": 59,
      "cred": 20,
      "flags": 1,
      "label": "Requiem for a Gunstringer",
      "description": "Walked amongst the dead and confronted the Lady of the Dead.",
      "howto": "Walk amongst the dead."
    },
    {
      "id": 24,
      "imageId": 60,
      "cred": 30,
      "flags": 1,
      "label": "Lonely Are The Dead",
      "description": "Defeated the Lady of the Dead.",
      "howto": "Face Death and live to tell the tale."
    },
    {
      "id": 25,
      "imageId": 61,
      "cred": 50,
      "flags": 1,
      "label": "A Fistful of Revenge",
      "description": "Cut the strings that controlled the Gunstringer. Congratulations on your newfound freedom!",
      "howto": "Ride \"Burrito\" the Dog into the sunset."
    },
    {
      "id": 26,
      "imageId": 62,
      "cred": 5,
      "flags": 4,
      "label": "Seven Shooter",
      "description": "Killed more than six enemies in one round of firing.",
      "howto": "Defy laws of physics by shooting more than six enemies without reloading."
    },
    {
      "id": 27,
      "imageId": 63,
      "cred": 20,
      "flags": 4,
      "label": "Money is the Best Medicine",
      "description": "Awarded cash for every heart in an act.",
      "howto": "Earn cash, not health, for every heart in an act."
    },
    {
      "id": 28,
      "imageId": 64,
      "cred": 10,
      "flags": 4,
      "label": "Russian Chicken",
      "description": "While in a shootout, you shot a bullet that was right in front of your face. Nice!",
      "howto": "In a shootout, play chicken with a bullet before shooting it."
    },
    {
      "id": 29,
      "imageId": 65,
      "cred": 10,
      "flags": 4,
      "label": "Took a Bullet for the Team",
      "description": "Took down a bunch of the developers.",
      "howto": "Take down the developers."
    },
    {
      "id": 30,
      "imageId": 66,
      "cred": 20,
      "flags": 4,
      "label": "Two Hearts to Live",
      "description": "Completed all acts in a play without ever dropping to one heart.",
      "howto": "Complete all acts in a play without ever dropping to one heart."
    },
    {
      "id": 31,
      "imageId": 67,
      "cred": 10,
      "flags": 4,
      "label": "Living Large in the Saddle",
      "description": "Collected every taco and heart in an act.",
      "howto": "Hoard all the tacos and hearts in an act."
    },
    {
      "id": 32,
      "imageId": 68,
      "cred": 20,
      "flags": 4,
      "label": "Hot Lead Pusher",
      "description": "Maintained a kill streak above 25x.",
      "howto": "Get a crazy high kill streak."
    },
    {
      "id": 33,
      "imageId": 69,
      "cred": 10,
      "flags": 4,
      "label": "Turbo Deflation",
      "description": "Deflated the Inflatable Wavy Tube Man in under 30 seconds.",
      "howto": "Deflate the first boss in under 30 seconds."
    },
    {
      "id": 34,
      "imageId": 70,
      "cred": 15,
      "flags": 4,
      "label": "No Insurance",
      "description": "Didn't hit a single object while piloting the paddleboat.",
      "howto": "Don't scratch the paint while piloting a paddleboat."
    },
    {
      "id": 35,
      "imageId": 71,
      "cred": 25,
      "flags": 4,
      "label": "The Red Baron",
      "description": "Strafed and killed 100 enemies while strapped to a rocket in \"The Great Wall of Vengeance\".",
      "howto": "Kill 100 enemies while strapped to a rocket in \"The Great Wall of Vengeance\"."
    },
    {
      "id": 36,
      "imageId": 72,
      "cred": 20,
      "flags": 4,
      "label": "Undead and Untouchable",
      "description": "Reached the end of \"Requiem for a Gunstringer\" without losing a single heart.",
      "howto": "Reach the end of \"Requiem for a Gunstringer\" without losing a single heart."
    },
    {
      "id": 37,
      "imageId": 73,
      "cred": 5,
      "flags": 1,
      "label": "Back Seat Commentator",
      "description": "Complete an act with commentary enabled.",
      "howto": "Listen to a different kind of narrator while you play."
    },
    {
      "id": 38,
      "imageId": 74,
      "cred": 15,
      "flags": 1,
      "label": "With a Little Help from a Friend",
      "description": "Completed an act with a friend.",
      "howto": "Complete an act with a friend."
    },
    {
      "id": 39,
      "imageId": 75,
      "cred": 5,
      "flags": 4,
      "label": "What's Next?",
      "description": "Visited the Download Content screen to see what new content is available.",
      "howto": "Visit the Download Content screen to see what new content is available."
    },
    {
      "id": 40,
      "imageId": 76,
      "cred": 5,
      "flags": 4,
      "label": "Tin Marksman",
      "description": "Shot all the cans in the Prologue.",
      "howto": "Shoot all the cans in the Prologue."
    },
    {
      "id": 41,
      "imageId": 77,
      "cred": 20,
      "flags": 4,
      "label": "The Backwards Bandit",
      "description": "Completed a level with \"Lefty Mode\" enabled.",
      "howto": "Complete a level with \"Lefty Mode\" enabled."
    },
    {
      "id": 42,
      "imageId": 78,
      "cred": 20,
      "flags": 1,
      "label": "The Lone Star",
      "description": "Finished an act with Hardcore Mode on.",
      "howto": "Finish an act while playing on Hardcore Mode."
    },
    {
      "id": 43,
      "imageId": 79,
      "cred": 20,
      "flags": 4,
      "label": "Gold Medallist",
      "description": "Reached a Gold Medal score on a single act.",
      "howto": "Reach a Gold Medal score on a single act."
    },
    {
      "id": 44,
      "imageId": 80,
      "cred": 25,
      "flags": 1,
      "label": "Why Would You Even Do This?",
      "description": "Completed an act with every modifier enabled.",
      "howto": "Complete an act with every single modifier enabled."
    },
    {
      "id": 45,
      "imageId": 81,
      "cred": 20,
      "flags": 4,
      "label": "The Last Undead Boy Scout",
      "description": "Collected a gold medal, hardcore award, and 2P award in a single act.",
      "howto": "Collect a gold medal, hardcore award, and 2P award in a single act."
    },
    {
      "id": 46,
      "imageId": 82,
      "cred": 25,
      "flags": 1,
      "label": "Perfect Performance",
      "description": "Won gold medals in all acts of a single play.",
      "howto": "Win gold medals in all acts of a single play."
    },
    {
      "id": 47,
      "imageId": 83,
      "cred": 10,
      "flags": 4,
      "label": "Sellout",
      "description": "Purchased the \"Sellout\" achievement from the bonus store.",
      "howto": "Buy an achievement from the bonus store."
    },
    {
      "id": 48,
      "imageId": 84,
      "cred": 15,
      "flags": 4,
      "label": "Lucky Prize Winner",
      "description": "Found the achievement hidden in a piece of concept art. We hope it makes up for your poor choices.",
      "howto": "Find an achievement hidden in a piece of concept art."
    },
    {
      "id": 49,
      "imageId": 85,
      "cred": 20,
      "flags": 4,
      "label": "Hundred Thousand Dollar Baby",
      "description": "Spent over $100,000 in the bonus store.",
      "howto": "Spend a whole chunk of money in the bonus store."
    },
    {
      "id": 50,
      "imageId": 86,
      "cred": 30,
      "flags": 1,
      "label": "Perfectionist",
      "description": "You gold medalled the entire game! Congratulations!",
      "howto": "Win a gold medal in every act of every play."
    },
    {
      "id": 51,
      "imageId": 87,
      "cred": 25,
      "flags": 1,
      "label": "Big Spender",
      "description": "Purchased everything in the bonus store.",
      "howto": "Purchase everything in the bonus store."
    },
    {
      "id": 52,
      "imageId": 88,
      "cred": 50,
      "flags": 1,
      "label": "Strings of Steel",
      "description": "Wow. You beat every play on hardcore without dying. You are a golden god.",
      "howto": "Beat every play in one session. On Hardcore Mode. Also, never die."
    },
    {
      "id": 53,
      "imageId": 89,
      "cred": 20,
      "flags": 4,
      "label": "Awesomeness Detected",
      "description": "Your awesomeness was detected. Congratulations on being awesome!",
      "howto": "Do something really awesome."
    },
    {
      "id": 54,
      "imageId": 116,
      "cred": 10,
      "flags": 1,
      "label": "Real Big Spendin'",
      "description": "Made a real good purchase.",
      "howto": "Buy \"Real Big Shootin'\" and get a free achievement!"
    },
    {
      "id": 55,
      "imageId": 105,
      "cred": 25,
      "flags": 1,
      "label": "Real Big Shootin'",
      "description": "FINALLY shot a dog after a long series of shootouts.",
      "howto": "Live out a childhood fantasy."
    },
    {
      "id": 56,
      "imageId": 106,
      "cred": 25,
      "flags": 1,
      "label": "Real Best Friendin'",
      "description": "Beat a friend in 2 Player mode.",
      "howto": "Beat a friend in 2 Player mode."
    },
    {
      "id": 57,
      "imageId": 107,
      "cred": 20,
      "flags": 4,
      "label": "Real Wild Westin'",
      "description": "Killed 10 Jetpack Outlaws in one shot.",
      "howto": "Kill 10 Jetpack Outlaws with one shot."
    },
    {
      "id": 58,
      "imageId": 108,
      "cred": 20,
      "flags": 4,
      "label": "Real Duck Huntin'",
      "description": "Sliced 10 ducks with one shot.",
      "howto": "Slice 10 ducks with one shot."
    },
    {
      "id": 59,
      "imageId": 111,
      "cred": 25,
      "flags": 4,
      "label": "Real Big Scorin'",
      "description": "Earned a Real Big Score.",
      "howto": "Earn a Real Big Score."
    },
    {
      "id": 60,
      "imageId": 112,
      "cred": 25,
      "flags": 4,
      "label": "Real Rad Multiplicatin'",
      "description": "Did some Real Big Shootin' and got a Real Big Multiplier.",
      "howto": "Do some Real Big Shootin' and get a Real Big Multiplier."
    },
    {
      "id": 61,
      "imageId": 113,
      "cred": 25,
      "flags": 1,
      "label": "Real Big Specialin'",
      "description": "Beat every type of special condition.",
      "howto": "Beat every type of special condition."
    },
    {
      "id": 62,
      "imageId": 114,
      "cred": 25,
      "flags": 1,
      "label": "Real Big Completin'",
      "description": "Completed every unique round in Real Big Shootin'.",
      "howto": "Complete every unique round in Real Big Shootin'."
    },
    {
      "id": 63,
      "imageId": 115,
      "cred": 50,
      "flags": 1,
      "label": "Real Mad Dodgin'",
      "description": "Did some Real Big Shootin' without getting hit.",
      "howto": "Do some Real Big Shootin' without getting hit."
    },
    {
      "id": 64,
      "imageId": 117,
      "cred": 15,
      "flags": 1,
      "label": "Money Made",
      "description": "Congratulations on your wise purchase!",
      "howto": "Purchase \"El Diablo's Merican Adventure\" for a free achievement!"
    },
    {
      "id": 65,
      "imageId": 118,
      "cred": 25,
      "flags": 1,
      "label": "Rockin' in the Parlour",
      "description": "Found the Madam's Saloon.",
      "howto": "Find the location of El Diablo's future bride."
    },
    {
      "id": 66,
      "imageId": 119,
      "cred": 30,
      "flags": 1,
      "label": "Hells Bells",
      "description": "Managed to find El Diablo a bride.",
      "howto": "Get El Diablo hitched."
    },
    {
      "id": 67,
      "imageId": 120,
      "cred": 30,
      "flags": 1,
      "label": "Ain't No Fun",
      "description": "Didn't harm any innocents while on your adventure.",
      "howto": "Don't harm any innocents while on your adventure."
    },
    {
      "id": 68,
      "imageId": 121,
      "cred": 30,
      "flags": 1,
      "label": "Heatseeker",
      "description": "Didn't let a single enemy run away.",
      "howto": "Don't let a single enemy escape your wrath!"
    },
    {
      "id": 69,
      "imageId": 122,
      "cred": 25,
      "flags": 1,
      "label": "Evil Walks",
      "description": "Shot every innocent at least once. You monster.",
      "howto": "Shoot every type of innocent at least once."
    },
    {
      "id": 70,
      "imageId": 123,
      "cred": 15,
      "flags": 1,
      "label": "Smash N Grab",
      "description": "Destroyed 100 pieces of furniture.",
      "howto": "Destroy 100 pieces of furniture."
    },
    {
      "id": 71,
      "imageId": 125,
      "cred": 20,
      "flags": 1,
      "label": "Kicked in the Teeth",
      "description": "Juggled a cow a dozen times.",
      "howto": "Juggle a cow a dozen times."
    },
    {
      "id": 72,
      "imageId": 127,
      "cred": 30,
      "flags": 1,
      "label": "Thunderstruck",
      "description": "Juggled a cow 30 times.",
      "howto": "Juggle a cow 30 times."
    },
    {
      "id": 73,
      "imageId": 126,
      "cred": 30,
      "flags": 1,
      "label": "Nick of Time",
      "description": "Kept a cow afloat for 30 seconds.",
      "howto": "Don't let a juggled cow hit the ground for 30 seconds."
    }
  ]
}