{
  "achievementsPossible": 50,
  "credPossible": 1000,
  "achievements": [
    {
      "id": 1,
      "imageId": 19,
      "cred": 10,
      "flags": 1,
      "label": "Prison Impossible",
      "description": "Complete Interval 01",
      "howto": "Complete Interval 01"
    },
    {
      "id": 2,
      "imageId": 20,
      "cred": 10,
      "flags": 1,
      "label": "Get To The Chopper",
      "description": "Complete Interval 02",
      "howto": "Complete Interval 02"
    },
    {
      "id": 3,
      "imageId": 21,
      "cred": 15,
      "flags": 1,
      "label": "Pain, In Bulk",
      "description": "Complete Interval 03",
      "howto": "Complete Interval 03"
    },
    {
      "id": 5,
      "imageId": 24,
      "cred": 15,
      "flags": 1,
      "label": "Town Hall Beating",
      "description": "Complete Interval 04",
      "howto": "Complete Interval 04"
    },
    {
      "id": 6,
      "imageId": 25,
      "cred": 20,
      "flags": 1,
      "label": "Through the Haystack",
      "description": "Complete Interval 05",
      "howto": "Complete Interval 05"
    },
    {
      "id": 7,
      "imageId": 26,
      "cred": 20,
      "flags": 1,
      "label": "Trouble Cross",
      "description": "Complete Interval 06",
      "howto": "Complete Interval 06"
    },
    {
      "id": 8,
      "imageId": 27,
      "cred": 25,
      "flags": 1,
      "label": "Terminal Victory",
      "description": "Complete Interval 07",
      "howto": "Complete Interval 07"
    },
    {
      "id": 9,
      "imageId": 28,
      "cred": 25,
      "flags": 1,
      "label": "Homecoming King",
      "description": "Complete Interval 08",
      "howto": "Complete Interval 08"
    },
    {
      "id": 10,
      "imageId": 29,
      "cred": 50,
      "flags": 1,
      "label": "Mission… accomplished?",
      "description": "Finish the Campaign on any difficulty (all Intervals complete)",
      "howto": "Finish the Campaign on any difficulty (all Intervals complete)"
    },
    {
      "id": 11,
      "imageId": 30,
      "cred": 100,
      "flags": 1,
      "label": "Man Mode",
      "description": "Finish the Campaign on INSANE difficulty",
      "howto": "Finish the Campaign on INSANE difficulty"
    },
    {
      "id": 13,
      "imageId": 32,
      "cred": 10,
      "flags": 2,
      "label": "Almost Halfway",
      "description": "Attain Rank 10",
      "howto": "Attain Rank 10"
    },
    {
      "id": 14,
      "imageId": 33,
      "cred": 25,
      "flags": 2,
      "label": "You've got the Touch!",
      "description": "Attain Rank 21",
      "howto": "Attain Rank 21"
    },
    {
      "id": 15,
      "imageId": 34,
      "cred": 20,
      "flags": 4,
      "label": "Doll Collector",
      "description": "Find the Alma Doll on every Mission",
      "howto": "Find the Alma Doll on every Mission"
    },
    {
      "id": 16,
      "imageId": 35,
      "cred": 20,
      "flags": 4,
      "label": "Spiritually Attuned",
      "description": "Make 100 Psychic Links (Share or Steal)",
      "howto": "Make 100 Psychic Links (Share or Steal)"
    },
    {
      "id": 17,
      "imageId": 38,
      "cred": 15,
      "flags": 4,
      "label": "Insider Trading",
      "description": "Possess every type of possessable enemy",
      "howto": "Possess every type of possessable enemy"
    },
    {
      "id": 18,
      "imageId": 36,
      "cred": 30,
      "flags": 4,
      "label": "Score Monger",
      "description": "Complete 30 challenges in one Interval",
      "howto": "Complete 30 challenges in one Interval"
    },
    {
      "id": 19,
      "imageId": 39,
      "cred": 50,
      "flags": 1,
      "label": "Completionist",
      "description": "Complete every challenge at least once",
      "howto": "Complete every challenge at least once"
    },
    {
      "id": 20,
      "imageId": 40,
      "cred": 25,
      "flags": 1,
      "label": "Supreme Challenger",
      "description": "Complete 500 total challenges between all categories",
      "howto": "Complete 500 total challenges between all categories"
    },
    {
      "id": 21,
      "imageId": 41,
      "cred": 15,
      "flags": 4,
      "label": "Up The River",
      "description": "Attain a total of 95,000 score on Interval 01",
      "howto": "Attain a total of 95,000 score on Interval 01"
    },
    {
      "id": 22,
      "imageId": 42,
      "cred": 15,
      "flags": 4,
      "label": "Magna Slum Laude",
      "description": "Attain a total of 85,000 score on Interval 02",
      "howto": "Attain a total of 85,000 score on Interval 02"
    },
    {
      "id": 23,
      "imageId": 43,
      "cred": 15,
      "flags": 4,
      "label": "Cannibal Run",
      "description": "Attain a total of 95,000 score on Interval 03",
      "howto": "Attain a total of 95,000 score on Interval 03"
    },
    {
      "id": 24,
      "imageId": 44,
      "cred": 15,
      "flags": 4,
      "label": "House Arrest",
      "description": "Attain a total of 105,000 score on Interval 04",
      "howto": "Attain a total of 105,000 score on Interval 04"
    },
    {
      "id": 25,
      "imageId": 45,
      "cred": 15,
      "flags": 4,
      "label": "Point Taken",
      "description": "Attain a total of 110,000 score on Interval 05",
      "howto": "Attain a total of 110,000 score on Interval 05"
    },
    {
      "id": 26,
      "imageId": 46,
      "cred": 15,
      "flags": 4,
      "label": "Crossing Over",
      "description": "Attain a total of 70,000 score on Interval 06",
      "howto": "Attain a total of 70,000 score on Interval 06"
    },
    {
      "id": 27,
      "imageId": 47,
      "cred": 15,
      "flags": 4,
      "label": "Point Authority",
      "description": "Attain a total of 110,000 score on Interval 07",
      "howto": "Attain a total of 110,000 score on Interval 07"
    },
    {
      "id": 28,
      "imageId": 48,
      "cred": 10,
      "flags": 4,
      "label": "Earl of Pain",
      "description": "Kill 1000 enemies by any method in any game mode",
      "howto": "Kill 1000 enemies by any method in any game mode"
    },
    {
      "id": 29,
      "imageId": 49,
      "cred": 25,
      "flags": 1,
      "label": "God Among Men",
      "description": "Kill 250 total enemies during Slow Mo",
      "howto": "Kill 250 total enemies during Slow Mo"
    },
    {
      "id": 30,
      "imageId": 50,
      "cred": 15,
      "flags": 1,
      "label": "Art Collector",
      "description": "Pin 100 total enemies with The Penetrator or Leaper knives",
      "howto": "Pin 100 total enemies with The Penetrator or Leaper knives"
    },
    {
      "id": 31,
      "imageId": 51,
      "cred": 20,
      "flags": 1,
      "label": "No can defense!",
      "description": "Kill 100 enemies with Jump Kick or Slide Kick",
      "howto": "Kill 100 enemies with Jump Kick or Slide Kick"
    },
    {
      "id": 33,
      "imageId": 53,
      "cred": 20,
      "flags": 1,
      "label": "State-of-the-art. Bang, bang!",
      "description": "Kill 10 enemies in a row with Sniper Rifle headshots",
      "howto": "Kill 10 enemies in a row with Sniper Rifle headshots"
    },
    {
      "id": 34,
      "imageId": 54,
      "cred": 10,
      "flags": 1,
      "label": "Footy Foul",
      "description": "Kill 2 enemies with 1 Slide Kick during Slow Mo",
      "howto": "Kill 2 enemies with 1 Slide Kick during Slow Mo"
    },
    {
      "id": 35,
      "imageId": 55,
      "cred": 10,
      "flags": 1,
      "label": "Head Crab Removal",
      "description": "20 kills with a crowbar",
      "howto": "20 kills with a crowbar"
    },
    {
      "id": 36,
      "imageId": 56,
      "cred": 15,
      "flags": 1,
      "label": "Little Brother's Helper",
      "description": "As Point Man, kill 100 enemies suspended by Fettel",
      "howto": "As Point Man, kill 100 enemies suspended by Fettel"
    },
    {
      "id": 37,
      "imageId": 57,
      "cred": 15,
      "flags": 1,
      "label": "Big Brother's Helper",
      "description": "As Fettel, suspend 100 enemies that Point Man kills",
      "howto": "As Fettel, suspend 100 enemies that Point Man kills"
    },
    {
      "id": 38,
      "imageId": 58,
      "cred": 10,
      "flags": 1,
      "label": "I'm not a Doctor, I'm a Medic!",
      "description": "Perform 50 revives in any game mode",
      "howto": "Perform 50 revives in any game mode"
    },
    {
      "id": 39,
      "imageId": 59,
      "cred": 15,
      "flags": 1,
      "label": "We'll Try Again Tomorrow!",
      "description": "Survive 3 waves in Contractions in a row without anyone bringing back a crate",
      "howto": "Survive 3 waves in Contractions in a row without anyone bringing back a crate"
    },
    {
      "id": 40,
      "imageId": 60,
      "cred": 15,
      "flags": 1,
      "label": "I F.E.A.R. Nothing!",
      "description": "Finish a wave of Contractions on INSANE without anyone going into Last Stand",
      "howto": "Finish a wave of Contractions on INSANE without anyone going into Last Stand"
    },
    {
      "id": 41,
      "imageId": 61,
      "cred": 10,
      "flags": 1,
      "label": "Dead Blind",
      "description": "Spend an entire round of Contractions in deep fog without going into Last Stand",
      "howto": "Spend an entire round of Contractions in deep fog without going into Last Stand"
    },
    {
      "id": 42,
      "imageId": 62,
      "cred": 20,
      "flags": 1,
      "label": "Hanging 20",
      "description": "Complete wave 20 in Contractions",
      "howto": "Complete wave 20 in Contractions"
    },
    {
      "id": 43,
      "imageId": 63,
      "cred": 20,
      "flags": 1,
      "label": "Handle with Care",
      "description": "Return 30 crates in one game of Contractions",
      "howto": "Return 30 crates in one game of Contractions"
    },
    {
      "id": 44,
      "imageId": 64,
      "cred": 10,
      "flags": 1,
      "label": "Indecisive",
      "description": "Possess 20 different enemies in one round of Soul King",
      "howto": "Possess 20 different enemies in one round of Soul King"
    },
    {
      "id": 45,
      "imageId": 65,
      "cred": 15,
      "flags": 1,
      "label": "Unstoppable!",
      "description": "Win all 5 rounds of a 5-round Soul King match",
      "howto": "Win all 5 rounds of a 5-round Soul King match"
    },
    {
      "id": 46,
      "imageId": 66,
      "cred": 15,
      "flags": 1,
      "label": "Soul Gatherer",
      "description": "Attain a total of 6,000 Souls in one round of Soul King",
      "howto": "Attain a total of 6,000 Souls in one round of Soul King"
    },
    {
      "id": 47,
      "imageId": 67,
      "cred": 20,
      "flags": 1,
      "label": "Soul Hoarder",
      "description": "Attain a total of 25,000 Souls across all rounds of a Soul King match",
      "howto": "Attain a total of 25,000 Souls across all rounds of a Soul King match"
    },
    {
      "id": 48,
      "imageId": 68,
      "cred": 20,
      "flags": 1,
      "label": "Monarch",
      "description": "Win 20 rounds of Soul King",
      "howto": "Win 20 rounds of Soul King"
    },
    {
      "id": 49,
      "imageId": 69,
      "cred": 5,
      "flags": 1,
      "label": "A Precursor",
      "description": "In the Poker Room of Prison, kill all 3 enemies with headshots before slo-mo ends",
      "howto": "In the Poker Room of Prison, kill all 3 enemies with headshots before slo-mo ends"
    },
    {
      "id": 50,
      "imageId": 70,
      "cred": 50,
      "flags": 1,
      "label": "That's a lot of Zeros",
      "description": "Attain a total of 250,000 points through challenges",
      "howto": "Attain a total of 250,000 points through challenges"
    },
    {
      "id": 51,
      "imageId": 71,
      "cred": 15,
      "flags": 1,
      "label": "Yo, Adrian!",
      "description": "Find something worth punching!",
      "howto": "Find something worth punching!"
    },
    {
      "id": 52,
      "imageId": 72,
      "cred": 20,
      "flags": 1,
      "label": "Extremist",
      "description": "Complete any campaign level on INSANE without reloading checkpoints or going into Last Stand",
      "howto": "Complete any campaign level on INSANE without reloading checkpoints or going into Last Stand"
    },
    {
      "id": 53,
      "imageId": 74,
      "cred": 10,
      "flags": 4,
      "label": "Dream Score",
      "description": "Attain a total of 50,000 score on Interval 08",
      "howto": "Attain a total of 50,000 score on Interval 08"
    }
  ]
}