{
  "achievementsPossible": 12,
  "credPossible": 1000,
  "achievements": [
    {
      "id": 1,
      "imageId": 1,
      "cred": 50,
      "flags": 6,
      "label": "Prologue cleared!",
      "description": "Prologue completed.",
      "howto": ""
    },
    {
      "id": 2,
      "imageId": 2,
      "cred": 50,
      "flags": 6,
      "label": "Episode 1 cleared!",
      "description": "Completed episode 1.",
      "howto": ""
    },
    {
      "id": 3,
      "imageId": 3,
      "cred": 50,
      "flags": 6,
      "label": "Episode 2 (part 1) cleared!",
      "description": "Completed episode 2 (part 1).",
      "howto": ""
    },
    {
      "id": 4,
      "imageId": 4,
      "cred": 50,
      "flags": 6,
      "label": "Episode 2 (part 2) cleared!",
      "description": "Completed episode 2 (part 2).",
      "howto": ""
    },
    {
      "id": 5,
      "imageId": 5,
      "cred": 50,
      "flags": 6,
      "label": "Episode 3 cleared!",
      "description": "Completed episode 3.",
      "howto": ""
    },
    {
      "id": 6,
      "imageId": 6,
      "cred": 50,
      "flags": 6,
      "label": "Episode 4 cleared!",
      "description": "Completed episode 4.",
      "howto": ""
    },
    {
      "id": 7,
      "imageId": 7,
      "cred": 50,
      "flags": 6,
      "label": "Episode 5 cleared!",
      "description": "Completed episode 5.",
      "howto": ""
    },
    {
      "id": 8,
      "imageId": 8,
      "cred": 50,
      "flags": 6,
      "label": "Episode 6 cleared!",
      "description": "Completed episode 6.",
      "howto": ""
    },
    {
      "id": 9,
      "imageId": 9,
      "cred": 100,
      "flags": 1,
      "label": "Game completed on Easy!",
      "description": "Completed all episodes on easy difficulty.",
      "howto": ""
    },
    {
      "id": 10,
      "imageId": 10,
      "cred": 150,
      "flags": 1,
      "label": "Game completed on Normal!",
      "description": "Completed all episodes on normal difficulty.",
      "howto": ""
    },
    {
      "id": 11,
      "imageId": 11,
      "cred": 200,
      "flags": 1,
      "label": "Game completed on Hard!",
      "description": "Completed all episodes on hard difficutly.",
      "howto": ""
    },
    {
      "id": 12,
      "imageId": 12,
      "cred": 150,
      "flags": 4,
      "label": "Collected all trading cards!",
      "description": "Recovered all the trading cards.",
      "howto": ""
    }
  ]
}