{
  "achievementsPossible": 19,
  "credPossible": 400,
  "achievements": [
    {
      "id": 1,
      "imageId": 22,
      "cred": 10,
      "flags": 1,
      "label": "Corwid Pupil",
      "description": "Complete all of Metamoq's trials in the Tutorial.",
      "howto": "Complete all of Metamoq's trials in the Tutorial."
    },
    {
      "id": 2,
      "imageId": 23,
      "cred": 10,
      "flags": 1,
      "label": "Should Have Dodged",
      "description": "K.O. an enemy by throwing a ranged or melee weapon at him.",
      "howto": "K.O. an enemy by throwing a ranged or melee weapon at him."
    },
    {
      "id": 3,
      "imageId": 24,
      "cred": 10,
      "flags": 1,
      "label": "Jailbreak",
      "description": "Rescue FatherMother from prison.",
      "howto": "Rescue FatherMother from prison."
    },
    {
      "id": 4,
      "imageId": 25,
      "cred": 10,
      "flags": 1,
      "label": "Go West, Young Man",
      "description": "Go to the island and defeat Samoro-Teh, the West Golem.",
      "howto": "Go to the island and defeat Samoro-Teh, the West Golem."
    },
    {
      "id": 5,
      "imageId": 26,
      "cred": 10,
      "flags": 1,
      "label": "No King in the North",
      "description": "Go beyond Endworld and defeat Kax-Teh, the North Golem.",
      "howto": "Go beyond Endworld and defeat Kax-Teh, the North Golem."
    },
    {
      "id": 6,
      "imageId": 27,
      "cred": 10,
      "flags": 1,
      "label": "Whisper to a Scream",
      "description": "Defeat Nak Nak, the leader of the Mantra Whisperers.",
      "howto": "Defeat Nak Nak, the leader of the Mantra Whisperers."
    },
    {
      "id": 7,
      "imageId": 28,
      "cred": 20,
      "flags": 1,
      "label": "Patron of the Arts",
      "description": "Supply Thiloc with the moths he needs to complete his painting.",
      "howto": "Supply Thiloc with the moths he needs to complete his painting."
    },
    {
      "id": 8,
      "imageId": 29,
      "cred": 20,
      "flags": 1,
      "label": "Bounty Hunter",
      "description": "Defeat enough marauders to get the GoatMan's charm.",
      "howto": "Defeat enough marauders to get the GoatMan's charm."
    },
    {
      "id": 9,
      "imageId": 30,
      "cred": 20,
      "flags": 1,
      "label": "Orphans' Gathering",
      "description": "Find all of your missing brothers and sisters and help them if they are in trouble.",
      "howto": "Find all of your missing brothers and sisters and help them if they are in trouble."
    },
    {
      "id": 10,
      "imageId": 31,
      "cred": 25,
      "flags": 1,
      "label": "Damsel in Distress",
      "description": "Throttle Adrence and save Deadra from the Tiamte.",
      "howto": "Throttle Adrence and save Deadra from the Tiamte."
    },
    {
      "id": 11,
      "imageId": 32,
      "cred": 10,
      "flags": 1,
      "label": "Clash of the Titan",
      "description": "Defeat the Titan.",
      "howto": "Defeat the Titan."
    },
    {
      "id": 12,
      "imageId": 33,
      "cred": 20,
      "flags": 1,
      "label": "Monster Combo",
      "description": "Unleash a 6-hit combo during the campaign.",
      "howto": "Unleash a 6-hit combo during the campaign."
    },
    {
      "id": 13,
      "imageId": 34,
      "cred": 15,
      "flags": 1,
      "label": "End of the Line",
      "description": "Find Oxameter's head in the desert.",
      "howto": "Find Oxameter's head in the desert."
    },
    {
      "id": 14,
      "imageId": 35,
      "cred": 20,
      "flags": 1,
      "label": "I am Error",
      "description": "Get Word to become your ally.",
      "howto": "Get Word to become your ally."
    },
    {
      "id": 15,
      "imageId": 36,
      "cred": 20,
      "flags": 1,
      "label": "Raider",
      "description": "Unlock the secret passage to the hidden tunnels.",
      "howto": "Unlock the secret passage to the hidden tunnels."
    },
    {
      "id": 16,
      "imageId": 37,
      "cred": 25,
      "flags": 1,
      "label": "Lepidopterist",
      "description": "Collect 40 moths in Zenozoik.",
      "howto": "Collect 40 moths in Zenozoik."
    },
    {
      "id": 17,
      "imageId": 38,
      "cred": 25,
      "flags": 1,
      "label": "Opportunist",
      "description": "Attack an enemy while your partner is grabbing him/her.",
      "howto": "Attack an enemy while your partner is grabbing him/her."
    },
    {
      "id": 18,
      "imageId": 39,
      "cred": 30,
      "flags": 1,
      "label": "A True Renaissance Zeno",
      "description": "Max out all your stats.",
      "howto": "Max out all your stats."
    },
    {
      "id": 19,
      "imageId": 40,
      "cred": 90,
      "flags": 1,
      "label": "#Fistworldproblems",
      "description": "Reach the conclusion of Zeno Clash 2's story.",
      "howto": "Reach the conclusion of Zeno Clash 2's story."
    }
  ]
}