{
  "achievementsPossible": 80,
  "credPossible": 1300,
  "achievements": [
    {
      "id": 1,
      "imageId": 33,
      "cred": 10,
      "flags": 1,
      "label": "Dead Presidents",
      "description": "Completed 'When Good Heists...', but got caught...",
      "howto": "Complete 'When Good Heists...'."
    },
    {
      "id": 2,
      "imageId": 75,
      "cred": 15,
      "flags": 1,
      "label": "The Welcome Wagon",
      "description": "Completed 'I'm Free - Free Falling', landed safely in Steelport with a 9.0 from the Belgians.",
      "howto": "Complete 'I'm Free - Free Falling'."
    },
    {
      "id": 3,
      "imageId": 69,
      "cred": 20,
      "flags": 1,
      "label": "We're Takin' Over",
      "description": "Completed all of Pierce's City Takeover Introduction missions.",
      "howto": "Complete 'We've Only Just Begun'."
    },
    {
      "id": 4,
      "imageId": 73,
      "cred": 20,
      "flags": 1,
      "label": "Tower Defense",
      "description": "Completed Act 1, killed Phillipe Loren, and kept the Tower.",
      "howto": "Complete Act 1 in one way."
    },
    {
      "id": 5,
      "imageId": 50,
      "cred": 20,
      "flags": 1,
      "label": "Kuh, Boom.",
      "description": "Completed Act 1, killed Phillipe Loren, and destroyed the Tower.",
      "howto": "Complete Act 1 in another way."
    },
    {
      "id": 6,
      "imageId": 42,
      "cred": 25,
      "flags": 1,
      "label": "Gotta Break Em In",
      "description": "Completed 'The Ho Boat' and decided the Hos fate, do you feel proud of yourself?",
      "howto": "Complete 'The Ho Boat'."
    },
    {
      "id": 7,
      "imageId": 57,
      "cred": 25,
      "flags": 1,
      "label": "I Heart Nyte Blayde",
      "description": "Completed 'STAG Party' and decided Josh Birk's fate, we hope you chose wisely.",
      "howto": "Complete 'STAG Party'."
    },
    {
      "id": 8,
      "imageId": 49,
      "cred": 25,
      "flags": 1,
      "label": "kill-deckers.exe",
      "description": "Completed 'http://deckers.die', 01100010011011110110111101100010.",
      "howto": "Complete 'http://deckers.die'."
    },
    {
      "id": 9,
      "imageId": 72,
      "cred": 40,
      "flags": 1,
      "label": "Titanic Effort",
      "description": "Completed Act 2 and destroyed the Thermopylae, but fight is not over yet.",
      "howto": "Complete Act 2."
    },
    {
      "id": 10,
      "imageId": 58,
      "cred": 25,
      "flags": 1,
      "label": "Once Bitten... Braaaaaaains",
      "description": "Completed 'Zombie Attack.' Did anyone say Braaaaaaaains?",
      "howto": "Complete 'Zombie Attack'."
    },
    {
      "id": 11,
      "imageId": 56,
      "cred": 25,
      "flags": 1,
      "label": "Murderbrawl 31",
      "description": "Completed 'Murderbrawl XXXI', the Mask of Killbane, what did you do?",
      "howto": "Complete 'Murderbrawl XXXI'."
    },
    {
      "id": 12,
      "imageId": 55,
      "cred": 30,
      "flags": 1,
      "label": "Too Close to the Son",
      "description": "Completed Act 3 in one way, Cyrus Temple is a dead man.",
      "howto": "Complete Act 3 in one way."
    },
    {
      "id": 13,
      "imageId": 47,
      "cred": 30,
      "flags": 1,
      "label": "Gangstas... In Space!",
      "description": "Completed Act 3 in another way, General Killbane is dead.",
      "howto": "Complete Act 3 in another way."
    },
    {
      "id": 14,
      "imageId": 44,
      "cred": 25,
      "flags": 1,
      "label": "Hanging With Mr. Pierce",
      "description": "Took control of the entire Downtown district for the Saints.",
      "howto": "Complete all City Takeover gameplay in the Downtown district."
    },
    {
      "id": 15,
      "imageId": 54,
      "cred": 25,
      "flags": 1,
      "label": "Mourning Stars",
      "description": "Took control of the entire New Colvin district for the Saints.",
      "howto": "Complete all City Takeover gameplay in the New Colvin district."
    },
    {
      "id": 16,
      "imageId": 43,
      "cred": 25,
      "flags": 1,
      "label": "Hack the Planet",
      "description": "Took control of the entire Stanfield district area for the Saints.",
      "howto": "Complete all City Takeover gameplay in the Stanfield district."
    },
    {
      "id": 17,
      "imageId": 79,
      "cred": 25,
      "flags": 1,
      "label": "You're the Best...",
      "description": "Took control of the entire Carver Island district for the Saints.",
      "howto": "Complete all City Takeover gameplay in the Carver Island district."
    },
    {
      "id": 18,
      "imageId": 29,
      "cred": 80,
      "flags": 1,
      "label": "Bright Lights, Big City",
      "description": "Completed all City Takeover, Steelport is yours!",
      "howto": "Complete all City Takeover gameplay in the entire city of Steelport."
    },
    {
      "id": 19,
      "imageId": 59,
      "cred": 20,
      "flags": 1,
      "label": "Ouch.",
      "description": "Completed all instances of Insurance Fraud.",
      "howto": "Complete all instances of Insurance Fraud."
    },
    {
      "id": 20,
      "imageId": 74,
      "cred": 20,
      "flags": 1,
      "label": "Tune In, Drop Off",
      "description": "Completed all instances of Trafficking.",
      "howto": "Complete all instances of Trafficking."
    },
    {
      "id": 21,
      "imageId": 26,
      "cred": 20,
      "flags": 1,
      "label": "And Boom Goes the Dynamite",
      "description": "Completed all instances of Heli Assault.",
      "howto": "Complete all instances of Heli Assault."
    },
    {
      "id": 22,
      "imageId": 36,
      "cred": 20,
      "flags": 1,
      "label": "Fence Killa 2011",
      "description": "Completed all instances of Mayhem.",
      "howto": "Complete all instances of Mayhem."
    },
    {
      "id": 23,
      "imageId": 77,
      "cred": 20,
      "flags": 1,
      "label": "Your Backseat Smells Funny",
      "description": "Completed all instances of Escort.",
      "howto": "Complete all instances of Escort."
    },
    {
      "id": 24,
      "imageId": 34,
      "cred": 20,
      "flags": 1,
      "label": "Double Dose of Pimping",
      "description": "Completed all instances of Snatch.",
      "howto": "Complete all instances of Snatch."
    },
    {
      "id": 25,
      "imageId": 64,
      "cred": 20,
      "flags": 1,
      "label": "Porkchop Sandwiches",
      "description": "Completed all instances of Trail Blazing.",
      "howto": "Complete all instances of Trail Blazing."
    },
    {
      "id": 26,
      "imageId": 41,
      "cred": 20,
      "flags": 1,
      "label": "Go Into the Light",
      "description": "Completed all instances of Guardian Angel.",
      "howto": "Complete all instances of Guardian Angel."
    },
    {
      "id": 27,
      "imageId": 70,
      "cred": 20,
      "flags": 1,
      "label": "Tank You Very Much",
      "description": "Completed all instances of Tank Mayhem.",
      "howto": "Complete all instances of Tank Mayhem."
    },
    {
      "id": 28,
      "imageId": 66,
      "cred": 20,
      "flags": 1,
      "label": "Have A Reality Climax",
      "description": "Completed all instances of Professor Genki's Super Ethical Reality Climax.",
      "howto": "Complete all instances of Professor Genki's Super Ethical Reality Climax."
    },
    {
      "id": 29,
      "imageId": 35,
      "cred": 10,
      "flags": 1,
      "label": "Everything is Permitted",
      "description": "Killed all of the Assassination targets, saved millions of lives... Maybe.",
      "howto": "Kill all of the hitman Assassination targets."
    },
    {
      "id": 30,
      "imageId": 46,
      "cred": 10,
      "flags": 1,
      "label": "Hi-Jack It",
      "description": "Delivered all Vehicle Theft targets to chop shops, you thief.",
      "howto": "Steal and deliver all Vehicle Theft targets."
    },
    {
      "id": 31,
      "imageId": 40,
      "cred": 10,
      "flags": 1,
      "label": "Getting the Goods",
      "description": "25% of Collectibles found. Drugs, Sex, Cash, and Celebrity... What else is there?",
      "howto": "Find 25% of all Collectibles."
    },
    {
      "id": 32,
      "imageId": 51,
      "cred": 20,
      "flags": 1,
      "label": "Life of the Party",
      "description": "100% of Collectibles found. Drugs, Sex, Cash, and Celebrity... What else is there?",
      "howto": "Find 100% of all Collectibles."
    },
    {
      "id": 33,
      "imageId": 67,
      "cred": 10,
      "flags": 1,
      "label": "Shake and Bake",
      "description": "Completed your first Challenge, it was a Challenge, right?",
      "howto": "Complete your first Challenge."
    },
    {
      "id": 34,
      "imageId": 78,
      "cred": 30,
      "flags": 1,
      "label": "You're My Hero!",
      "description": "Completed all Challenges, nice job!",
      "howto": "Complete ALL Challenges."
    },
    {
      "id": 35,
      "imageId": 60,
      "cred": 10,
      "flags": 4,
      "label": "Ow My Balls!",
      "description": "Did your first nutshot and testicle assault, sack tapping is bad news kids!",
      "howto": "Do your first nutshot AND testicle assault."
    },
    {
      "id": 36,
      "imageId": 39,
      "cred": 10,
      "flags": 4,
      "label": "Gender Equality",
      "description": "Played for 2 hours as a male and female, we're an equal opportunity offender.",
      "howto": "Play for at least 2 hours as a male character AND 2 hours as a female character."
    },
    {
      "id": 37,
      "imageId": 28,
      "cred": 10,
      "flags": 4,
      "label": "Bo-Duke-En",
      "description": "50 quick vehicle hijacks, the Dukes would be proud.",
      "howto": "Hijack 50 vehicles - Dukes style."
    },
    {
      "id": 38,
      "imageId": 53,
      "cred": 10,
      "flags": 4,
      "label": "Love/Hate Relationship",
      "description": "Taunted/Complimented 50 gang members, are you a fighter or a lover?",
      "howto": "Taunt AND/OR Compliment 50 gang members."
    },
    {
      "id": 39,
      "imageId": 38,
      "cred": 20,
      "flags": 1,
      "label": "Gellin' Like Magellan",
      "description": "Explored every hood in Steelport, you've been around the world.",
      "howto": "Explore every hood in Steelport."
    },
    {
      "id": 40,
      "imageId": 76,
      "cred": 10,
      "flags": 4,
      "label": "Who Loves Ya Baby",
      "description": "Killed 50 brutes, they just wanted hugs you jerk!",
      "howto": "Kill 50 brutes."
    },
    {
      "id": 41,
      "imageId": 27,
      "cred": 15,
      "flags": 4,
      "label": "A Better Person",
      "description": "Bought your first Upgrade, now you have the action Kung Fu grip!",
      "howto": "Buy your first Upgrade from the Upgrade Store."
    },
    {
      "id": 42,
      "imageId": 45,
      "cred": 15,
      "flags": 4,
      "label": "Haters Gonna Hate",
      "description": "Killed 1000 Gang Members.",
      "howto": "Kill 1000 Gang Members."
    },
    {
      "id": 43,
      "imageId": 31,
      "cred": 10,
      "flags": 4,
      "label": "Cowboy Up",
      "description": "Fully upgraded one Weapon in each slot, by the Power of Saints Row!",
      "howto": "Fully upgrade one Weapon in each slot."
    },
    {
      "id": 44,
      "imageId": 63,
      "cred": 10,
      "flags": 4,
      "label": "Pimped Out Pad",
      "description": "Upgraded one Stronghold to its full glory, respect the new digs.",
      "howto": "Upgrade one Stronghold to its full glory."
    },
    {
      "id": 45,
      "imageId": 37,
      "cred": 10,
      "flags": 1,
      "label": "Flash the Pan",
      "description": "Destroyed all Gang Operations.",
      "howto": "Destroy all Gang Operations in Steelport."
    },
    {
      "id": 46,
      "imageId": 71,
      "cred": 40,
      "flags": 4,
      "label": "Third and 30",
      "description": "Played SR3 for 30+ hours, why stop now!?",
      "howto": "Spend over 30 hours in Steelport."
    },
    {
      "id": 47,
      "imageId": 48,
      "cred": 10,
      "flags": 7,
      "label": "Jumped In",
      "description": "Created and shared a character online, you're a part of the Saints Row community now!",
      "howto": "Create and share a character online."
    },
    {
      "id": 48,
      "imageId": 62,
      "cred": 20,
      "flags": 1,
      "label": "Opulence, You Has It",
      "description": "Completed 'Party Time' and got the Saints their first crib in Steelport.",
      "howto": "Complete 'Party Time'."
    },
    {
      "id": 49,
      "imageId": 68,
      "cred": 10,
      "flags": 4,
      "label": "Stay Classy Steelport",
      "description": "Killed 25 Gang Members each with 'the Penetrator' and FIAJ, the best guilty pleasures available.",
      "howto": "Kill 25 Gang Members each with 'the Penetrator' AND the Fart in a Jar."
    },
    {
      "id": 50,
      "imageId": 52,
      "cred": 10,
      "flags": 4,
      "label": "The American Dream",
      "description": "Pimped out 10 vehicles.",
      "howto": "Customize 10 vehicles."
    },
    {
      "id": 51,
      "imageId": 105,
      "cred": 10,
      "flags": 1,
      "label": "Cooked To Perfection",
      "description": "Roasted 50 peds with the Genki Mobile’s flamethrower.  Toasty!",
      "howto": "Roast 50 peds with the car’s flamethrower (in a single instance of Super Ethical PR Opportunity)."
    },
    {
      "id": 52,
      "imageId": 108,
      "cred": 5,
      "flags": 1,
      "label": "Get Off My Back",
      "description": "Destroyed 5 chase vehicles and kept Professor Genki from becoming annoyed.",
      "howto": "Destroy 5 chase vehicles (in a single instance of Super Ethical PR Opportunity)."
    },
    {
      "id": 53,
      "imageId": 110,
      "cred": 5,
      "flags": 1,
      "label": "Stick the Landing",
      "description": "Landed at the feet of Big Joe Magarac.",
      "howto": "Land on Magarac Island (in Sad Panda Skyblazing)."
    },
    {
      "id": 54,
      "imageId": 103,
      "cred": 10,
      "flags": 1,
      "label": "Cat on a Hot Tin Roof",
      "description": "Killed all the mascots in Sad Panda Skyblazing.",
      "howto": "Kill all of the rooftop mascots (in a single instance of Sad Panda Skyblazing)."
    },
    {
      "id": 55,
      "imageId": 112,
      "cred": 10,
      "flags": 1,
      "label": "Flame On",
      "description": "Flew through all the rings in Sad Panda Skyblazing.",
      "howto": "Fly through all of the rings (in a single instance of Sad Panda Skyblazing)."
    },
    {
      "id": 56,
      "imageId": 106,
      "cred": 10,
      "flags": 1,
      "label": "Feeding Time",
      "description": "Feed 5 mascots to the fishes in Apocalypse Genki.",
      "howto": "Throw 5 mascots into the water (in a single instance of Apocalypse Genki)."
    },
    {
      "id": 57,
      "imageId": 109,
      "cred": 10,
      "flags": 1,
      "label": "Murder in the Jungle",
      "description": "Finished both instances of Apocalypse Genki.  Making you post-apocalyptic.",
      "howto": "Finish both instances of Apocalypse Genki."
    },
    {
      "id": 58,
      "imageId": 111,
      "cred": 10,
      "flags": 1,
      "label": "Storm the Yarn",
      "description": "Destroyed a mouse with a giant ball of yarn.",
      "howto": "Destroy a mouse ATV during Sexy Kitten Yarngasm."
    },
    {
      "id": 59,
      "imageId": 104,
      "cred": 10,
      "flags": 1,
      "label": "C-C-C-Combo Breaker",
      "description": "Created a $150,000 combo worth of destruction in Sexy Kitten Yarngasm.",
      "howto": "Cause $150,000 worth of damage in a single Sexy Kitten Yarngasm combo."
    },
    {
      "id": 60,
      "imageId": 107,
      "cred": 20,
      "flags": 1,
      "label": "Genki Bowl Champ",
      "description": "You are the Genki Bowl Champ!",
      "howto": "Complete all activity instances in Genki Bowl VII."
    },
    {
      "id": 61,
      "imageId": 125,
      "cred": 5,
      "flags": 1,
      "label": "I Do My Own Stunts",
      "description": "You parachuted in on the second take and stuck the landing.",
      "howto": "Land on the Parachute Target during the rescue scene."
    },
    {
      "id": 62,
      "imageId": 126,
      "cred": 10,
      "flags": 1,
      "label": "First Contact",
      "description": "You shot down every single spacecraft in the chase scene.  Those things aren't cheap, ya know.",
      "howto": "Destroy all enemy spacecraft during the chase scene."
    },
    {
      "id": 63,
      "imageId": 127,
      "cred": 10,
      "flags": 1,
      "label": "Union Buster",
      "description": "You killed 15 cameramen in an action sequence because you're a method actor.",
      "howto": "Kill 15 cameramen."
    },
    {
      "id": 64,
      "imageId": 128,
      "cred": 10,
      "flags": 1,
      "label": "Xenaphobe",
      "description": "You killed Space Brutina in an epic hangar battle.",
      "howto": "Kill Space Brutina."
    },
    {
      "id": 65,
      "imageId": 129,
      "cred": 5,
      "flags": 1,
      "label": "Lights! Camera! Action!",
      "description": "You found every hidden clapboard backstage.",
      "howto": "Collect all 6 hidden clapboards."
    },
    {
      "id": 66,
      "imageId": 130,
      "cred": 10,
      "flags": 1,
      "label": "Pew! Pew! Pew!",
      "description": "You killed 35 Space Amazons with your Laser Pistol.",
      "howto": "Kill 35 Space Amazons with the Laser Pistol."
    },
    {
      "id": 67,
      "imageId": 131,
      "cred": 10,
      "flags": 1,
      "label": "Warrior Princess",
      "description": "You killed 7 Space Amazons with melee attacks.",
      "howto": "Kill 7 Space Amazons with melee attacks."
    },
    {
      "id": 68,
      "imageId": 132,
      "cred": 10,
      "flags": 1,
      "label": "Revenge of the Navigator",
      "description": "You destroyed 10 enemy spacecraft using the Aegean while the cameras were rolling. ",
      "howto": "Destroy 10 enemy spacecraft with the Aegean while filming."
    },
    {
      "id": 69,
      "imageId": 133,
      "cred": 10,
      "flags": 1,
      "label": "Do a Barrel Roll!",
      "description": "You successfully performed all 3 vehicle stunts with the Aegean.",
      "howto": "Perform all vehicle stunts with the Aegean."
    },
    {
      "id": 70,
      "imageId": 134,
      "cred": 20,
      "flags": 1,
      "label": "C-List Celebrity",
      "description": "You successfully completed all 3 \"Gangstas in Space\" missions.  That's a wrap!",
      "howto": "Complete all missions for Gangstas in Space."
    },
    {
      "id": 71,
      "imageId": 135,
      "cred": 10,
      "flags": 1,
      "label": "B.A.M.F.",
      "description": "Defeated 15 enemies at Technically Legal using only melee attacks.",
      "howto": "Defeat 15 enemies at Technically Legal using only melee attacks."
    },
    {
      "id": 72,
      "imageId": 136,
      "cred": 10,
      "flags": 1,
      "label": "Public Enemy #1",
      "description": "Road blocks are not a problem for you.  You've made Jimmy happy.",
      "howto": "Destroy 45 Police and Swat Vehicles while protecting Jimmy's car."
    },
    {
      "id": 73,
      "imageId": 137,
      "cred": 10,
      "flags": 1,
      "label": "Weird Science",
      "description": "Completed mission 'Weird Science'.",
      "howto": "Complete mission 'Weird Science'."
    },
    {
      "id": 74,
      "imageId": 138,
      "cred": 10,
      "flags": 1,
      "label": "Eye of the Bee-Holder",
      "description": "Treated 25 fans to a lovely potential case of anaphylactic shock.",
      "howto": "Spray 25 rabid fans with the Swarmitron."
    },
    {
      "id": 75,
      "imageId": 139,
      "cred": 5,
      "flags": 1,
      "label": "Sting Operation",
      "description": "Destroyed 5 Steelport Guard vehicles.  Fool me once...",
      "howto": "Destroy 5 Steelport Guard vehicles during mission 'Tour de Farce'."
    },
    {
      "id": 76,
      "imageId": 140,
      "cred": 10,
      "flags": 1,
      "label": "Tour de Farce",
      "description": "Completed mission 'Tour de Farce'.",
      "howto": "Complete mission 'Tour de Farce'."
    },
    {
      "id": 77,
      "imageId": 141,
      "cred": 10,
      "flags": 1,
      "label": "Supaa-Excellent!",
      "description": "Shot down a helicopter with a Saints Flow fireball.",
      "howto": "Shoot down a helicopter with a Saints Flow fireball."
    },
    {
      "id": 78,
      "imageId": 142,
      "cred": 5,
      "flags": 1,
      "label": "Send in the Clones",
      "description": "Killed a Brute with your bare hands (and some Saints Flow).",
      "howto": "Kill a Brute using only melee damage while under the influence of Saints Flow."
    },
    {
      "id": 79,
      "imageId": 143,
      "cred": 10,
      "flags": 1,
      "label": "The Johnnyguard",
      "description": "Prevented any harm from coming to Johnny Tag on top of Magarac Bridge. ",
      "howto": "Prevent Johnny Tag from taking damage on the Magarac Bridge."
    },
    {
      "id": 80,
      "imageId": 144,
      "cred": 20,
      "flags": 1,
      "label": "My Pet, Monster",
      "description": "You successfully completed all 3 \"The Trouble With Clones...\" missions. Stripper pole!",
      "howto": "Complete all missions for \"The Trouble With Clones...\""
    }
  ]
}