{
  "achievementsPossible": 12,
  "credPossible": 200,
  "achievements": [
    {
      "id": 13,
      "imageId": 22,
      "cred": 20,
      "flags": 1,
      "label": "\"To Hear the Tumult of Children\"",
      "description": "Complete the game",
      "howto": "Complete the game"
    },
    {
      "id": 15,
      "imageId": 23,
      "cred": 40,
      "flags": 1,
      "label": "Old School",
      "description": "Complete the game without dying once",
      "howto": "Complete the game without dying once"
    },
    {
      "id": 16,
      "imageId": 24,
      "cred": 50,
      "flags": 1,
      "label": "I Am Arthur Clark",
      "description": "Complete the game in one sitting without dying",
      "howto": "Complete the game in one sitting without dying"
    },
    {
      "id": 17,
      "imageId": 25,
      "cred": 10,
      "flags": 1,
      "label": "Speed Demon",
      "description": "Beat the Rooftops north of Bayswater Road in under 3 minutes",
      "howto": "Beat the Rooftops north of Bayswater Road in under 3 minutes"
    },
    {
      "id": 18,
      "imageId": 26,
      "cred": 10,
      "flags": 1,
      "label": "3.711 m/s² != 9.780 m/s²",
      "description": "Destroy a Drone using a pushable object",
      "howto": "Destroy a Drone using a pushable object"
    },
    {
      "id": 19,
      "imageId": 27,
      "cred": 10,
      "flags": 1,
      "label": "Sole Survivor",
      "description": "Escape Bathurst Mews using first NPC targeted by Tripod ",
      "howto": "Escape Bathurst Mews using first NPC targeted by Tripod "
    },
    {
      "id": 20,
      "imageId": 28,
      "cred": 10,
      "flags": 1,
      "label": "A Ninja In Tweed",
      "description": "Cross Hyde Park North without dying once and being spotted by a single Drone ",
      "howto": "Cross Hyde Park North without dying once and being spotted by a single Drone "
    },
    {
      "id": 21,
      "imageId": 30,
      "cred": 10,
      "flags": 1,
      "label": "Selfless",
      "description": "Give Jenny the gasmask",
      "howto": "Give Jenny the gasmask"
    },
    {
      "id": 23,
      "imageId": 29,
      "cred": 10,
      "flags": 1,
      "label": "Follow me!",
      "description": "Free all prisoners from holding pens in Martian Cylinder",
      "howto": "Free all prisoners from holding pens in Martian Cylinder"
    },
    {
      "id": 24,
      "imageId": 31,
      "cred": 10,
      "flags": 1,
      "label": "Martian Exterminator",
      "description": "Complete Hyde Park level",
      "howto": "Complete Hyde Park level"
    },
    {
      "id": 25,
      "imageId": 33,
      "cred": 10,
      "flags": 1,
      "label": "Light in the Darkness",
      "description": "Complete London EC4 Underground",
      "howto": "Complete London EC4 Underground"
    },
    {
      "id": 26,
      "imageId": 32,
      "cred": 10,
      "flags": 1,
      "label": "Home again, home again",
      "description": "Complete Stamford Street, South Bank level",
      "howto": "Complete Stamford Street, South Bank level"
    }
  ]
}