{
  "achievementsPossible": 48,
  "credPossible": 1000,
  "achievements": [
    {
      "id": 1,
      "imageId": 1,
      "cred": 10,
      "flags": 6,
      "label": "Allow me to introduce myself",
      "description": "Create your own custom rider",
      "howto": "Create your own custom rider"
    },
    {
      "id": 2,
      "imageId": 2,
      "cred": 10,
      "flags": 6,
      "label": "Hats off",
      "description": "Change your rider's helmet in the Rider Customization section",
      "howto": "Change your rider's helmet in the Rider Customization section"
    },
    {
      "id": 3,
      "imageId": 3,
      "cred": 10,
      "flags": 4,
      "label": "Sign on the dotted line",
      "description": "Sign your first contract in Career mode",
      "howto": "Sign your first contract in Career mode"
    },
    {
      "id": 4,
      "imageId": 4,
      "cred": 10,
      "flags": 4,
      "label": "Am I popular?",
      "description": "Access your Social Feeds page in Career mode",
      "howto": "Access your Social Feeds page in Career mode"
    },
    {
      "id": 5,
      "imageId": 5,
      "cred": 20,
      "flags": 1,
      "label": "Valued teammate",
      "description": "Achieve a Team Objective in Career mode",
      "howto": "Achieve a Team Objective in Career mode"
    },
    {
      "id": 6,
      "imageId": 6,
      "cred": 20,
      "flags": 1,
      "label": "Look, I'm in MXGP Mag!!",
      "description": "Get your picture on the cover of \"MXGP Mag\"",
      "howto": "Get your picture on the cover of \"MXGP Mag\""
    },
    {
      "id": 7,
      "imageId": 7,
      "cred": 30,
      "flags": 2,
      "label": "Let's get serious",
      "description": "Sign your first contract in the MX1 class in Career mode",
      "howto": "Sign your first contract in the MX1 class in Career mode"
    },
    {
      "id": 8,
      "imageId": 8,
      "cred": 90,
      "flags": 4,
      "label": "A year to remember",
      "description": "Win a Championship in any class in Career mode",
      "howto": "Win a Championship in any class in Career mode"
    },
    {
      "id": 9,
      "imageId": 9,
      "cred": 10,
      "flags": 2,
      "label": "Promising rider",
      "description": "Get 20000 fans in Career mode",
      "howto": "Get 20000 fans in Career mode"
    },
    {
      "id": 10,
      "imageId": 10,
      "cred": 20,
      "flags": 4,
      "label": "Professional rider",
      "description": "Get 40000 fans in Career mode",
      "howto": "Get 40000 fans in Career mode"
    },
    {
      "id": 11,
      "imageId": 11,
      "cred": 30,
      "flags": 2,
      "label": "Motocross star",
      "description": "Get 1000000 fans in Career mode",
      "howto": "Get 1000000 fans in Career mode"
    },
    {
      "id": 12,
      "imageId": 12,
      "cred": 20,
      "flags": 2,
      "label": "Warming up",
      "description": "Earn enough Experience Points to reach MX Level 5",
      "howto": "Get enough Experience Points to reach MX Level 5"
    },
    {
      "id": 13,
      "imageId": 13,
      "cred": 20,
      "flags": 7,
      "label": "Totally ready",
      "description": "Get enough Experience Points to reach MX Level 10",
      "howto": "Get enough Experience Points to reach MX Level 10"
    },
    {
      "id": 14,
      "imageId": 14,
      "cred": 30,
      "flags": 7,
      "label": "Unstoppable",
      "description": "Get enough Experience Points to reach MX Level 20",
      "howto": "Get enough Experience Points to reach MX Level 20"
    },
    {
      "id": 15,
      "imageId": 15,
      "cred": 10,
      "flags": 7,
      "label": "New buddies",
      "description": "Raise your MX Level high enough to unlock a team",
      "howto": "Raise your MX Level high enough to unlock a team"
    },
    {
      "id": 16,
      "imageId": 16,
      "cred": 10,
      "flags": 1,
      "label": "New look",
      "description": "Raise your MX Level high enough to unlock a helmet",
      "howto": "Raise your MX Level high enough to unlock a helmet"
    },
    {
      "id": 17,
      "imageId": 17,
      "cred": 10,
      "flags": 3,
      "label": "Capture the moment",
      "description": "Raise your MX Level high enough to unlock a picture",
      "howto": "Raise your MX Level high enough to unlock a picture"
    },
    {
      "id": 19,
      "imageId": 19,
      "cred": 10,
      "flags": 3,
      "label": "Prince of the desert",
      "description": "Win a race at Losail in any offline mode",
      "howto": "Win a race at Losail in any offline mode"
    },
    {
      "id": 20,
      "imageId": 20,
      "cred": 10,
      "flags": 4,
      "label": "Asian superstar",
      "description": "Win a race at Si Racha in any offline mode",
      "howto": "Win a race at Si Racha in any offline mode"
    },
    {
      "id": 21,
      "imageId": 21,
      "cred": 10,
      "flags": 4,
      "label": "Sand king",
      "description": "Win a race at Valkenswaard in any offline mode",
      "howto": "Win a race at Valkenswaard in any offline mode"
    },
    {
      "id": 22,
      "imageId": 22,
      "cred": 10,
      "flags": 4,
      "label": "Atlantic rider",
      "description": "Win a race at Agueda in any offline mode",
      "howto": "Win a race at Agueda in any offline mode"
    },
    {
      "id": 23,
      "imageId": 23,
      "cred": 10,
      "flags": 4,
      "label": "King of the jungle",
      "description": "Win a race at Beto Carrero in any offline mode",
      "howto": "Win a race at Beto Carrero in any offline mode"
    },
    {
      "id": 24,
      "imageId": 24,
      "cred": 10,
      "flags": 4,
      "label": "The emperor",
      "description": "Win a race at Ernée in any offline mode",
      "howto": "Win a race at Ernée in any offline mode"
    },
    {
      "id": 25,
      "imageId": 25,
      "cred": 10,
      "flags": 4,
      "label": "Old-school specialist",
      "description": "Win a race at Maggiora in any offline mode",
      "howto": "Win a race at Maggiora in any offline mode"
    },
    {
      "id": 26,
      "imageId": 26,
      "cred": 10,
      "flags": 4,
      "label": "Rocking between the rocks",
      "description": "Win a race at Uddevalla in any offline mode",
      "howto": "Win a race at Uddevalla in any offline mode"
    },
    {
      "id": 27,
      "imageId": 27,
      "cred": 10,
      "flags": 4,
      "label": "Victory in the forest",
      "description": "Win a race at Kegums in any offline mode",
      "howto": "Win a race at Kegums in any offline mode"
    },
    {
      "id": 28,
      "imageId": 28,
      "cred": 10,
      "flags": 4,
      "label": "Northern champion",
      "description": "Win a race at Hyvinkää in any offline mode",
      "howto": "Win a race at Hyvinkää in any offline mode"
    },
    {
      "id": 29,
      "imageId": 29,
      "cred": 10,
      "flags": 4,
      "label": "Lord of the \"ring\"",
      "description": "Win a race at Lausitzring in any offline mode",
      "howto": "Win a race at Lausitzring in any offline mode"
    },
    {
      "id": 30,
      "imageId": 30,
      "cred": 10,
      "flags": 4,
      "label": "The general of the Ardennes",
      "description": "Win a race at Bastogne in any offline mode",
      "howto": "Win a race at Bastogne in any offline mode"
    },
    {
      "id": 31,
      "imageId": 31,
      "cred": 10,
      "flags": 4,
      "label": "God save the motocross King",
      "description": "Win a race at Matterley Basin in any offline mode",
      "howto": "Win a race at Matterley Basin in any offline mode"
    },
    {
      "id": 32,
      "imageId": 32,
      "cred": 10,
      "flags": 4,
      "label": "Duke of Saxony",
      "description": "Win a race at Teutschenthal in any offline mode",
      "howto": "Win a race at Teutschenthal in any offline mode"
    },
    {
      "id": 33,
      "imageId": 33,
      "cred": 10,
      "flags": 4,
      "label": "Motorhead",
      "description": "Enter the Bike Set-up menu in the Pit",
      "howto": "Enter the Bike Settings menu in the Pit"
    },
    {
      "id": 34,
      "imageId": 34,
      "cred": 30,
      "flags": 4,
      "label": "Giving it all",
      "description": "Select the Pro Physics setting in the Riding Assists section and complete a valid race",
      "howto": "Select the Pro Physics setting in the Riding Assists section and complete a valid race"
    },
    {
      "id": 35,
      "imageId": 35,
      "cred": 10,
      "flags": 4,
      "label": "Let's see that again!",
      "description": "Enter Replay mode for the first time",
      "howto": "Enter Replay mode for the first time"
    },
    {
      "id": 36,
      "imageId": 36,
      "cred": 20,
      "flags": 4,
      "label": "On the best gate",
      "description": "Get pole position in an offline Qualifying session",
      "howto": "Get pole position in an offline Qualifying Practice session"
    },
    {
      "id": 37,
      "imageId": 37,
      "cred": 50,
      "flags": 2,
      "label": "Nice trip!",
      "description": "Ride for a total of 300 km (187 miles) in any offline mode",
      "howto": "Ride for a total of 300 km (187 miles) in any offline mode"
    },
    {
      "id": 38,
      "imageId": 38,
      "cred": 30,
      "flags": 4,
      "label": "I believe I can fly!",
      "description": "Spend a total of 2 minutes airborne from jumps in any offline mode",
      "howto": "Spend a total of 2 minutes airborne from jumps in any offline mode"
    },
    {
      "id": 39,
      "imageId": 39,
      "cred": 50,
      "flags": 4,
      "label": "The perfect weekend",
      "description": "Get pole position and win both races in the same offline Grand Prix",
      "howto": "Get pole position and win both Races in a single offline Grand Prix"
    },
    {
      "id": 40,
      "imageId": 40,
      "cred": 30,
      "flags": 4,
      "label": "Great come back",
      "description": "Win a race starting from the last position",
      "howto": "Win a race starting from the last position"
    },
    {
      "id": 41,
      "imageId": 41,
      "cred": 20,
      "flags": 2,
      "label": "Getting used to it",
      "description": "Compete in valid online races for a total of 60 minutes",
      "howto": "Compete in valid online races for a total of 60 minutes"
    },
    {
      "id": 42,
      "imageId": 42,
      "cred": 30,
      "flags": 6,
      "label": "Call me veteran",
      "description": "Compete in valid online races for a total of 3 hours",
      "howto": "Compete in valid online races for a total of 3 hours"
    },
    {
      "id": 43,
      "imageId": 43,
      "cred": 10,
      "flags": 6,
      "label": "Time to make new friends",
      "description": "Complete an Online Grand Prix",
      "howto": "Complete an Online Grand Prix"
    },
    {
      "id": 44,
      "imageId": 44,
      "cred": 10,
      "flags": 2,
      "label": "Race after race",
      "description": "Complete an Online Championship",
      "howto": "Complete an Online Championship"
    },
    {
      "id": 45,
      "imageId": 45,
      "cred": 20,
      "flags": 7,
      "label": "One step ahead",
      "description": "In Online Season mode, get promoted to the MX1 class",
      "howto": "In Online Season mode, get promoted to the MX1 class"
    },
    {
      "id": 46,
      "imageId": 46,
      "cred": 30,
      "flags": 4,
      "label": "Best of the best!",
      "description": "In Online Season mode, get promoted to the MX1 Elite class",
      "howto": "In Online Season mode, get promoted to the MX1 Elite class"
    },
    {
      "id": 47,
      "imageId": 47,
      "cred": 10,
      "flags": 4,
      "label": "First at the first corner",
      "description": "Get the Holeshot in any offline mode",
      "howto": "Get the Holeshot in any offline mode"
    },
    {
      "id": 48,
      "imageId": 48,
      "cred": 50,
      "flags": 2,
      "label": "Holeshot master",
      "description": "Get 10 Holeshots in any offline mode",
      "howto": "Get 10 Holeshots in any offline mode"
    },
    {
      "id": 50,
      "imageId": 50,
      "cred": 90,
      "flags": 1,
      "label": "Around the world",
      "description": "Complete one valid race on each track in the game in any offline mode",
      "howto": "Complete one valid race on each track in the game in any offline mode"
    }
  ]
}