{
  "achievementsPossible": 41,
  "credPossible": 1000,
  "achievements": [
    {
      "id": 1,
      "imageId": 3,
      "cred": 40,
      "flags": 4,
      "label": "初めての生徒",
      "description": "最初の生徒が仲間に加わりました。\r\n長い戦いの始まりです。",
      "howto": "<String Placeholder>"
    },
    {
      "id": 2,
      "imageId": 2,
      "cred": 70,
      "flags": 4,
      "label": "天駆ける城の復活",
      "description": "ロンドエールを手に入れました。\r\n今、円卓の騎士の伝説が蘇ります。",
      "howto": "<String Placeholder>"
    },
    {
      "id": 3,
      "imageId": 4,
      "cred": 40,
      "flags": 4,
      "label": "不死鳥のかけら",
      "description": "初めてリーアリスを解放しました。\r\nフェニックスが再び羽ばたく日は訪れるのでしょうか。",
      "howto": "<String Placeholder>"
    },
    {
      "id": 4,
      "imageId": 5,
      "cred": 50,
      "flags": 4,
      "label": "集う円卓の生徒達",
      "description": "生徒の数が９人になりました。\r\n後は彼らとの絆を深めるだけです。",
      "howto": "<String Placeholder>"
    },
    {
      "id": 5,
      "imageId": 6,
      "cred": 70,
      "flags": 6,
      "label": "伝説のシュバリエユース",
      "description": "クラゼリオスとクランナリンを入手し、マァリンに報告しました。\r\nしかしまだ、伝説の武器は輝きを取り戻していません。",
      "howto": "<String Placeholder>"
    },
    {
      "id": 6,
      "imageId": 7,
      "cred": 50,
      "flags": 6,
      "label": "純白の乙女たち",
      "description": "エルサとルーミがシュバリエの力に目覚めました。\r\n決戦の時は近い……。",
      "howto": "<String Placeholder>"
    },
    {
      "id": 7,
      "imageId": 1,
      "cred": 150,
      "flags": 1,
      "label": "取り戻した平和",
      "description": "魔王オル＝オーマを倒し、エンディングを迎えました。\r\nピロスとエラステも浮かばれる事でしょう。",
      "howto": "<String Placeholder>"
    },
    {
      "id": 8,
      "imageId": 8,
      "cred": 20,
      "flags": 4,
      "label": "最後の生徒",
      "description": "マァリンが生徒になりました。\r\n力を失った状態ですので、ビシバシ鍛えてあげましょう。",
      "howto": "<String Placeholder>"
    },
    {
      "id": 9,
      "imageId": 9,
      "cred": 50,
      "flags": 1,
      "label": "冥府の王の覚醒",
      "description": "クエスト「冥府の城」を達成しました。\r\nしかし冥府の王は不滅のようです。蘇ったらまた倒してやりましょう。",
      "howto": "<String Placeholder>"
    },
    {
      "id": 10,
      "imageId": 10,
      "cred": 50,
      "flags": 1,
      "label": "竜を倒せし者",
      "description": "クエスト「神の座」を達成しました。\r\nしかしあなたはまだオブリスの本当の力を知らない……。",
      "howto": "<String Placeholder>"
    },
    {
      "id": 11,
      "imageId": 11,
      "cred": 50,
      "flags": 1,
      "label": "神竜を倒せし者",
      "description": "神の座で真の力を発揮したオブリスを倒しました。\r\nマスターモードの頂点を極めたあなたこそ、真の円卓の騎士です。",
      "howto": "<String Placeholder>"
    },
    {
      "id": 12,
      "imageId": 12,
      "cred": 10,
      "flags": 7,
      "label": "隠された武器庫",
      "description": "エセルガルドの武器庫の財宝を発見しました。\r\n亡き兵士達の無念を晴らすため、有効活用しましょう。",
      "howto": "エセルガルドの武器庫にある財宝を手に入れましょう。\r\n隠された武器庫ですから、入口の扉も当然……。"
    },
    {
      "id": 13,
      "imageId": 13,
      "cred": 10,
      "flags": 7,
      "label": "アマイノダイスキ",
      "description": "ムカブにチョコレートを与えました。\r\nクロイカタマリ、クエルナラ……オデ、イノチオシクナイ！",
      "howto": "ムカブに好物のエサを与えましょう。\r\nどうやら甘いものが好物のようです。"
    },
    {
      "id": 14,
      "imageId": 14,
      "cred": 10,
      "flags": 6,
      "label": "さまよえる太古の精霊",
      "description": "エルダーウィスプを倒し、ロンドエールへ戻りました。\r\n稀に貴重な宝石を落とす事があるそうです。",
      "howto": "エルダーウィスプを倒し、ロンドエールへ戻りましょう。\r\n特定のトラップポイントに特別な物を仕掛けると現れる事があります。"
    },
    {
      "id": 15,
      "imageId": 15,
      "cred": 20,
      "flags": 1,
      "label": "ゴブリンハンター",
      "description": "フューミ渓谷のトラップポイントを全て制圧しました。\r\n谷の奥には、時々ムカブが現れるそうです。",
      "howto": "フューミ渓谷のトラップポイントを全て制圧しましょう。\r\n渓谷は奈落の向こうにも続いています。"
    },
    {
      "id": 16,
      "imageId": 16,
      "cred": 20,
      "flags": 1,
      "label": "深緑を駆ける狩人",
      "description": "モルロックのトラップポイントを全て制圧しました。\r\n長老ズ・ヌータもご満悦のようです。",
      "howto": "モルロックのトラップポイントを全て制圧しましょう。\r\n植物モンスターは焼き払うのが一番です。"
    },
    {
      "id": 17,
      "imageId": 17,
      "cred": 20,
      "flags": 1,
      "label": "祭殿の守護者",
      "description": "イーンシリンのトラップポイントを全て制圧しました。\r\n転移装置は有効に利用していますか？",
      "howto": "イーンシリンのトラップポイントを全て制圧しましょう。\r\nリザード達の強力な一撃には要注意！"
    },
    {
      "id": 18,
      "imageId": 18,
      "cred": 20,
      "flags": 1,
      "label": "死者にやすらぎを",
      "description": "エセルガルドのトラップポイントを全て制圧しました。\r\n上へ下への大移動、お疲れ様でした。",
      "howto": "エセルガルドのトラップポイントを全て制圧しましょう。\r\n広い城砦を隅々まで探索してみましょう。"
    },
    {
      "id": 19,
      "imageId": 19,
      "cred": 20,
      "flags": 1,
      "label": "廃坑の制圧者",
      "description": "バルハールのトラップポイントを全て制圧しました。\r\n島歴層のゴーレムは稀に、貴重な宝石を落とすようです。",
      "howto": "バルハールのトラップポイントを全て制圧しましょう。\r\nスライムには魔法がよく効きます。お試しあれ。"
    },
    {
      "id": 20,
      "imageId": 20,
      "cred": 20,
      "flags": 1,
      "label": "道が無ければ切り開け",
      "description": "死者の道のトラップポイントを全て制圧しました。\r\nアーレンティアラは優秀な防具です。大事にしましょう。",
      "howto": "死者の道のトラップポイントを全て制圧しましょう。\r\n美女にはくれぐれも気をつけて……。"
    },
    {
      "id": 21,
      "imageId": 21,
      "cred": 10,
      "flags": 2,
      "label": "許すまじ魔物ども",
      "description": "討伐クエストのランク９にしてロンドエールへ戻りました。\r\n闇の魔物どもにかける慈悲はなし！",
      "howto": "討伐クエストをランク９にしてロンドエールへ戻りましょう。\r\n狩って狩って狩りまくれ！"
    },
    {
      "id": 22,
      "imageId": 22,
      "cred": 5,
      "flags": 1,
      "label": "魔を滅ぼせし英雄",
      "description": "討伐クエストのランク９９にしてロンドエールへ戻りました。\r\nあなたのモンスター総討伐数、ぜひ知りたいです。",
      "howto": "<String Placeholder>"
    },
    {
      "id": 23,
      "imageId": 23,
      "cred": 10,
      "flags": 2,
      "label": "炉の達人",
      "description": "強化クエストのランク９にしてロンドエールへ戻りました。\r\n高性能な武具ほど、強化の加護を大きく受けるようです。",
      "howto": "強化クエストのランク９にしてロンドエールへ戻りましょう。\r\n努力はきっと、強さとなって報われるはずです。"
    },
    {
      "id": 24,
      "imageId": 24,
      "cred": 5,
      "flags": 1,
      "label": "武具を極めし英雄",
      "description": "強化クエストのランク９９にしてロンドエールへ戻りました。\r\nどれだけの武具が炉へと消えていったのか……。",
      "howto": "<String Placeholder>"
    },
    {
      "id": 25,
      "imageId": 25,
      "cred": 10,
      "flags": 6,
      "label": "神殺しの斧",
      "description": "バールスレイヤーを手に入れました。\r\nバールナイト３０個分のずっしりとした重みを感じます。",
      "howto": "バールスレイヤーを手に入れましょう。\r\nドワーフの匠の技は果たして蘇るのか？"
    },
    {
      "id": 26,
      "imageId": 26,
      "cred": 10,
      "flags": 6,
      "label": "千年の刻を越えた究極の味",
      "description": "神歴納豆を手に入れてロンドエールへ戻りました。\r\n納豆への愛、ここに極まれり。",
      "howto": "神歴納豆を手に入れてロンドエールへ戻りましょう。\r\n納豆を極めるためには、通らねばならない道です。"
    },
    {
      "id": 27,
      "imageId": 27,
      "cred": 10,
      "flags": 6,
      "label": "妖刀村正",
      "description": "村正を手に入れて、ロンドエールへ持ち帰りました。\r\n伝説の妖刀の切れ味、存分にお試しあれ。",
      "howto": "村正を手に入れてロンドエールへ戻りましょう。\r\n伝説の刀はきっと存在します。"
    },
    {
      "id": 28,
      "imageId": 28,
      "cred": 10,
      "flags": 6,
      "label": "村正を超えたもの",
      "description": "大村正を手に入れて、ロンドエールへ持ち帰りました。\r\nあなたの強運には感服するばかりです。",
      "howto": "<String Placeholder>"
    },
    {
      "id": 29,
      "imageId": 29,
      "cred": 20,
      "flags": 2,
      "label": "深まる絆",
      "description": "いずれかの生徒のソウルランクを５に上げました。\r\nサブクラスのご利用は計画的に。",
      "howto": "いずれかの生徒のソウルランクを５に上げましょう。\r\n先生としての腕の見せ所です。"
    },
    {
      "id": 30,
      "imageId": 30,
      "cred": 10,
      "flags": 1,
      "label": "先生みたいな騎士になってみせる！",
      "description": "サウルのソウルランクを１０に上げました。\r\n悩み多き少年も、自分に自信が持てたようです。",
      "howto": "サウルのソウルランクを１０に上げましょう。\r\n少年は立派な騎士を目指しているようです。"
    },
    {
      "id": 31,
      "imageId": 31,
      "cred": 10,
      "flags": 1,
      "label": "ありがとうございます、先生……",
      "description": "エルサのソウルランクを１０に上げました。\r\n２人は仲良し親子です。",
      "howto": "エルサのソウルランクを１０に上げましょう。\r\n運命に翻弄される少女の行く末は？"
    },
    {
      "id": 32,
      "imageId": 32,
      "cred": 10,
      "flags": 1,
      "label": "今夜はとことん呑むぞー！",
      "description": "ロロンのソウルランクを１０に上げました。\r\nお酒の量はほどほどに。",
      "howto": "ロロンのソウルランクを１０に上げましょう。\r\n元気いっぱいの彼女にも、悩みはあるのです。"
    },
    {
      "id": 33,
      "imageId": 33,
      "cred": 10,
      "flags": 1,
      "label": "私たちの絆は永遠だ",
      "description": "ルーミのソウルランクを１０に上げました。\r\n彼女の愛を受け入れるためにも、胃袋は鍛えておきましょう。",
      "howto": "ルーミのソウルランクを１０に上げましょう。\r\n鎧で覆われた彼女の心に触れる事ができるでしょうか？"
    },
    {
      "id": 34,
      "imageId": 34,
      "cred": 10,
      "flags": 1,
      "label": "先生こそ、ドワーフの真の友だ！",
      "description": "バーゴのソウルランクを１０に上げました。\r\nこういう汗臭い関係も悪くはないものです。",
      "howto": "バーゴのソウルランクを１０に上げましょう。\r\n彼もまた悲しい宿命を背負っています。"
    },
    {
      "id": 35,
      "imageId": 35,
      "cred": 10,
      "flags": 1,
      "label": "オイラたちは最高の家族だぜ",
      "description": "ポポログのソウルランクを１０に上げました。\r\n彼は本当の宝物を手に入れる事ができたようです。",
      "howto": "ポポログのソウルランクを１０に上げましょう。\r\n何かを探して旅をしていたようですが……。"
    },
    {
      "id": 36,
      "imageId": 36,
      "cred": 10,
      "flags": 1,
      "label": "ふふ、先生は興味深い方だ",
      "description": "ミンツのソウルランクを１０に上げました。\r\n怪しい実験につき合わされないよう、ご注意を。",
      "howto": "ミンツのソウルランクを１０に上げましょう。\r\n美しい笑顔の下に秘めた、彼の決意とは？"
    },
    {
      "id": 37,
      "imageId": 37,
      "cred": 10,
      "flags": 1,
      "label": "センセーの事、チョー大好き♪",
      "description": "チュップのソウルランクを１０に上げました。\r\nチョー情熱的な彼女は、これからもあなたにチョー夢中です。",
      "howto": "チュップのソウルランクを１０に上げましょう。\r\n妖精界の少女は、人間に対して興味津々です。"
    },
    {
      "id": 38,
      "imageId": 38,
      "cred": 10,
      "flags": 1,
      "label": "逃がしはせぬぞ、先生殿……",
      "description": "マイのソウルランクをが１０になりました。\r\n忠義に生きる女サムライの敬愛はあなたのものです。",
      "howto": "<String Placeholder>"
    },
    {
      "id": 39,
      "imageId": 39,
      "cred": 10,
      "flags": 1,
      "label": "あなたの温もり、忘れません",
      "description": "マァリンのソウルランクが１０になりました。\r\n遠慮なく抱き枕にしてあげてください。",
      "howto": "<String Placeholder>"
    },
    {
      "id": 40,
      "imageId": 40,
      "cred": 10,
      "flags": 7,
      "label": "好きで堪らないんだろう？",
      "description": "生徒に大好物の食事を食べさせました。\r\n食事で生徒の心を鷲づかみにするあなたの姿は、\r\n「食卓の騎士」と呼ぶに相応しい。",
      "howto": "<String Placeholder>"
    },
    {
      "id": 41,
      "imageId": 41,
      "cred": 10,
      "flags": 7,
      "label": "四の五の言わずに食べろ！",
      "description": "生徒に大嫌いな食事を食べさせました。\r\n生徒をイジメるのはほどほどに……。",
      "howto": "<String Placeholder>"
    }
  ]
}