{
  "achievementsPossible": 12,
  "credPossible": 200,
  "achievements": [
    {
      "id": 6,
      "imageId": 2,
      "cred": 25,
      "flags": 1,
      "label": "ARCADE KOMPETITOR",
      "description": "Finish Mortal Kombat",
      "howto": "Finish Mortal Kombat"
    },
    {
      "id": 7,
      "imageId": 3,
      "cred": 25,
      "flags": 1,
      "label": "ARCADE KOMBATANT",
      "description": "Finish Mortal Kombat II",
      "howto": "Finish Mortal Kombat II"
    },
    {
      "id": 8,
      "imageId": 4,
      "cred": 30,
      "flags": 1,
      "label": "ARCADE KONQUEROR",
      "description": "Finish Ultimate Mortal Kombat 3 on any difficulty",
      "howto": "Finish Ultimate Mortal Kombat 3 on any difficulty"
    },
    {
      "id": 9,
      "imageId": 5,
      "cred": 30,
      "flags": 1,
      "label": "THE CHOSEN ONE",
      "description": "Finish all three games",
      "howto": "Finish all three games"
    },
    {
      "id": 10,
      "imageId": 13,
      "cred": 10,
      "flags": 4,
      "label": "FINISH HIM!",
      "description": "Perform your first Fatality",
      "howto": "Perform your first Fatality"
    },
    {
      "id": 11,
      "imageId": 7,
      "cred": 10,
      "flags": 4,
      "label": "GOO GOO GA GA",
      "description": "Perform your first Babality",
      "howto": "Perform your first Babality"
    },
    {
      "id": 12,
      "imageId": 8,
      "cred": 10,
      "flags": 4,
      "label": "BEWARE OF THE BEAST",
      "description": "Perform your first Animality",
      "howto": "Perform your first Animality"
    },
    {
      "id": 13,
      "imageId": 9,
      "cred": 10,
      "flags": 4,
      "label": "CAN'T WE ALL JUST GET ALONG?",
      "description": "Perform your first Friendship",
      "howto": "Perform your first Friendship"
    },
    {
      "id": 14,
      "imageId": 10,
      "cred": 15,
      "flags": 4,
      "label": "PERFECT STRANGERS",
      "description": "Win a flawless victory in a ranked kombat ",
      "howto": "Win a flawless victory in a ranked kombat "
    },
    {
      "id": 15,
      "imageId": 10,
      "cred": 10,
      "flags": 4,
      "label": "KONNECTED KILL",
      "description": "Win your 1st online 1v1",
      "howto": "Win your 1st online 1v1"
    },
    {
      "id": 17,
      "imageId": 12,
      "cred": 15,
      "flags": 4,
      "label": "ELDER GOD",
      "description": "Win 200 matches",
      "howto": "Win 200 matches"
    },
    {
      "id": 18,
      "imageId": 6,
      "cred": 10,
      "flags": 4,
      "label": "FLAWLESS X2",
      "description": "Win your first double flawless victory against CPU",
      "howto": "Win your first double flawless victory against CPU"
    }
  ]
}