{
  "achievementsPossible": 50,
  "credPossible": 1000,
  "achievements": [
    {
      "id": 6,
      "imageId": 14,
      "cred": 10,
      "flags": 1,
      "label": "人に仇なす妖怪はゆるさねぇ",
      "description": "【トレーニング/チュートリアル以外】奴良組妖怪（子分）による攻撃が、５００回命中した。（コンボの１つ１つを命中１回と数える）",
      "howto": "【トレーニング/チュートリアル以外】奴良組妖怪（子分）による攻撃が、５００回命中した。（コンボの１つ１つを命中１回と数える）"
    },
    {
      "id": 7,
      "imageId": 15,
      "cred": 10,
      "flags": 1,
      "label": "宿願成就の前祝",
      "description": "【トレーニング/チュートリアル以外】京妖怪（子分）による攻撃が、５００回命中した。（コンボの１つ１つを命中１回と数える）",
      "howto": "【トレーニング/チュートリアル以外】京妖怪（子分）による攻撃が、５００回命中した。（コンボの１つ１つを命中１回と数える）"
    },
    {
      "id": 8,
      "imageId": 16,
      "cred": 10,
      "flags": 1,
      "label": "四国八十八鬼夜行に加えてやろう",
      "description": "【トレーニング/チュートリアル以外】四国妖怪（子分）による攻撃が、５００回命中した。（コンボの１つ１つを命中１回と数える）",
      "howto": "【トレーニング/チュートリアル以外】四国妖怪（子分）による攻撃が、５００回命中した。（コンボの１つ１つを命中１回と数える）"
    },
    {
      "id": 9,
      "imageId": 17,
      "cred": 10,
      "flags": 1,
      "label": "遠野の力、思い知ったか！",
      "description": "【トレーニング/チュートリアル以外】遠野妖怪（子分）による攻撃が、５００回命中した。（コンボの１つ１つを命中１回と数える）",
      "howto": "【トレーニング/チュートリアル以外】遠野妖怪（子分）による攻撃が、５００回命中した。（コンボの１つ１つを命中１回と数える）"
    },
    {
      "id": 10,
      "imageId": 18,
      "cred": 10,
      "flags": 1,
      "label": "京都は我々が護る！",
      "description": "【トレーニング/チュートリアル以外】陰陽師（子分）による攻撃が、５００回命中した。（コンボの１つ１つを命中１回と数える）",
      "howto": "【トレーニング/チュートリアル以外】陰陽師（子分）による攻撃が、５００回命中した。（コンボの１つ１つを命中１回と数える）"
    },
    {
      "id": 11,
      "imageId": 19,
      "cred": 10,
      "flags": 1,
      "label": "俺たちもいるぜ！！",
      "description": "【トレーニング/チュートリアル以外】妖怪の勢力「その他」（子分）による攻撃が、５００回命中した。（コンボの１つ１つを命中１回と数える）",
      "howto": "【トレーニング/チュートリアル以外】妖怪の勢力「その他」（子分）による攻撃が、５００回命中した。（コンボの１つ１つを命中１回と数える）"
    },
    {
      "id": 12,
      "imageId": 20,
      "cred": 20,
      "flags": 1,
      "label": "ぬらりひょんの血",
      "description": "【トレーニング/チュートリアル以外】リクオで、鏡花水月を発動し、１００回成功した。",
      "howto": "【トレーニング/チュートリアル以外】リクオで、鏡花水月を発動し、１００回成功した。"
    },
    {
      "id": 13,
      "imageId": 21,
      "cred": 20,
      "flags": 1,
      "label": "若！！　ついに雪女は活躍しました！！",
      "description": "【トレーニング/チュートリアル以外】氷麗で、呪いの吹雪・風声鶴麗による攻撃が、５００回命中した。（コンボの１つ１つを命中１回と数える）",
      "howto": "【トレーニング/チュートリアル以外】氷麗で、呪いの吹雪・風声鶴麗による攻撃が、５００回命中した。（コンボの１つ１つを命中１回と数える）"
    },
    {
      "id": 14,
      "imageId": 22,
      "cred": 20,
      "flags": 1,
      "label": "あやとりより得意だよ",
      "description": "【トレーニング/チュートリアル以外】首無で、殺取・くさり蜘蛛による攻撃が、１００回命中した。",
      "howto": "【トレーニング/チュートリアル以外】首無で、殺取・くさり蜘蛛による攻撃が、１００回命中した。"
    },
    {
      "id": 15,
      "imageId": 23,
      "cred": 20,
      "flags": 1,
      "label": "妖怪忍法レラ・マキリ",
      "description": "【トレーニング/チュートリアル以外】イタクで、レラ・マキリによる攻撃が、２００回命中した。（コンボの１つ１つを命中１回と数える）",
      "howto": "【トレーニング/チュートリアル以外】イタクで、レラ・マキリによる攻撃が、２００回命中した。（コンボの１つ１つを命中１回と数える）"
    },
    {
      "id": 16,
      "imageId": 24,
      "cred": 20,
      "flags": 1,
      "label": "貴様の肝では足しにもならぬが",
      "description": "【トレーニング/チュートリアル以外】羽衣狐で、相手の体力を大量に吸収した。",
      "howto": "【トレーニング/チュートリアル以外】羽衣狐で、相手の体力を大量に吸収した。"
    },
    {
      "id": 17,
      "imageId": 25,
      "cred": 20,
      "flags": 1,
      "label": "吉野舞う桜の如し",
      "description": "【トレーニング/チュートリアル以外】鬼童丸で、櫻花による攻撃が、１００回命中した。（コンボの１つ１つを命中１回と数える）",
      "howto": "【トレーニング/チュートリアル以外】鬼童丸で、櫻花による攻撃が、１００回命中した。（コンボの１つ１つを命中１回と数える）"
    },
    {
      "id": 18,
      "imageId": 27,
      "cred": 20,
      "flags": 1,
      "label": "効くだろう･･･　俺の雷鳴の矢は･･･",
      "description": "【トレーニング/チュートリアル以外】茨木童子で、鬼太鼓による攻撃が、５００回命中した。（コンボの１つ１つを命中１回と数える）",
      "howto": "【トレーニング/チュートリアル以外】茨木童子で、鬼太鼓による攻撃が、５００回命中した。（コンボの１つ１つを命中１回と数える）"
    },
    {
      "id": 19,
      "imageId": 26,
      "cred": 20,
      "flags": 1,
      "label": "骸の世界へ、ようこそ♪",
      "description": "【トレーニング/チュートリアル以外】狂骨で、ドクロの絨毯による攻撃が、１００回命中した。",
      "howto": "【トレーニング/チュートリアル以外】狂骨で、ドクロの絨毯による攻撃が、１００回命中した。"
    },
    {
      "id": 20,
      "imageId": 28,
      "cred": 20,
      "flags": 1,
      "label": "発気揚揚･･･",
      "description": "【トレーニング/チュートリアル以外】土蜘蛛で、濁流を最大まで溜めた回数が、１００回を超えた。",
      "howto": "【トレーニング/チュートリアル以外】土蜘蛛で、濁流を最大まで溜めた回数が、１００回を超えた。"
    },
    {
      "id": 21,
      "imageId": 29,
      "cred": 20,
      "flags": 1,
      "label": "これが２１世紀の陰陽術",
      "description": "【トレーニング/チュートリアル以外】ゆらで、ゆらMAXによる攻撃が、１００回命中した。（コンボの１つ１つを命中１回と数える）",
      "howto": "【トレーニング/チュートリアル以外】ゆらで、ゆらMAXによる攻撃が、１００回命中した。（コンボの１つ１つを命中１回と数える）"
    },
    {
      "id": 22,
      "imageId": 30,
      "cred": 20,
      "flags": 1,
      "label": "そいつはオレのヌケガラだ。猛毒のな･･･",
      "description": "【トレーニング/チュートリアル以外】竜二で、狂言を発動し、１００回成功した。",
      "howto": "【トレーニング/チュートリアル以外】竜二で、狂言を発動し、１００回成功した。"
    },
    {
      "id": 23,
      "imageId": 31,
      "cred": 20,
      "flags": 1,
      "label": "私は禁術に身を捧げる",
      "description": "【トレーニング/チュートリアル以外】秋房で、憑鬼槍を纏った時間が、１０分を超えた。",
      "howto": "【トレーニング/チュートリアル以外】秋房で、憑鬼槍を纏った時間が、１０分を超えた。"
    },
    {
      "id": 24,
      "imageId": 32,
      "cred": 20,
      "flags": 1,
      "label": "ぬらりくらり",
      "description": "【トレーニング/チュートリアル以外】若き日のぬらりひょんで、鏡花水月を発動し、１００回成功した。",
      "howto": "【トレーニング/チュートリアル以外】若き日のぬらりひょんで、鏡花水月を発動し、１００回成功した。"
    },
    {
      "id": 25,
      "imageId": 33,
      "cred": 20,
      "flags": 1,
      "label": "おやすみ",
      "description": "【トレーニング/チュートリアル以外】雪麗で、呪いの吹雪・雪山殺しが、１００回成功した。",
      "howto": "【トレーニング/チュートリアル以外】雪麗で、呪いの吹雪・雪山殺しが、１００回成功した。"
    },
    {
      "id": 26,
      "imageId": 34,
      "cred": 20,
      "flags": 1,
      "label": "魑魅魍魎の主となれ",
      "description": "【ストーリーモード】リクオ編クリア。",
      "howto": "【ストーリーモード】リクオ編クリア。"
    },
    {
      "id": 27,
      "imageId": 35,
      "cred": 20,
      "flags": 1,
      "label": "闇の時代",
      "description": "【ストーリーモード】羽衣狐編クリア。",
      "howto": "【ストーリーモード】羽衣狐編クリア。"
    },
    {
      "id": 28,
      "imageId": 36,
      "cred": 20,
      "flags": 1,
      "label": "TKG!　TKG!　TKG!",
      "description": "【ストーリーモード】ゆら編クリア。",
      "howto": "【ストーリーモード】ゆら編クリア。"
    },
    {
      "id": 29,
      "imageId": 37,
      "cred": 40,
      "flags": 1,
      "label": "百鬼繚乱大戦を語り継ぐ者",
      "description": "【ストーリーモード】全シナリオをクリアした。",
      "howto": "【ストーリーモード】全シナリオをクリアした。"
    },
    {
      "id": 30,
      "imageId": 38,
      "cred": 30,
      "flags": 1,
      "label": "どうじゃ、風情があるじゃろ",
      "description": "【ストーリーモード】隠しシナリオ、若き日のぬらりひょん編クリア。",
      "howto": "【ストーリーモード】隠しシナリオ、若き日のぬらりひょん編クリア。"
    },
    {
      "id": 31,
      "imageId": 39,
      "cred": 10,
      "flags": 1,
      "label": "修練場へようこそ",
      "description": "【とことんモード】課題クリア数１個目。",
      "howto": "【とことんモード】課題クリア数１個目。"
    },
    {
      "id": 32,
      "imageId": 40,
      "cred": 10,
      "flags": 1,
      "label": "畏の本質を探す者",
      "description": "【とことんモード】難易度小、全クリア。",
      "howto": "【とことんモード】難易度小、全クリア。"
    },
    {
      "id": 33,
      "imageId": 41,
      "cred": 10,
      "flags": 1,
      "label": "自身の畏に目覚めた者",
      "description": "【とことんモード】難易度中、全クリア。",
      "howto": "【とことんモード】難易度中、全クリア。"
    },
    {
      "id": 34,
      "imageId": 42,
      "cred": 20,
      "flags": 1,
      "label": "畏を使いこなす者",
      "description": "【とことんモード】難易度大、全クリア。",
      "howto": "【とことんモード】難易度大、全クリア。"
    },
    {
      "id": 35,
      "imageId": 43,
      "cred": 30,
      "flags": 1,
      "label": "畏を断ち切れる者",
      "description": "【とことんモード】難易度絶、全クリア。",
      "howto": "【とことんモード】難易度絶、全クリア。"
    },
    {
      "id": 36,
      "imageId": 44,
      "cred": 50,
      "flags": 1,
      "label": "百鬼の畏を纏える者",
      "description": "【とことんモード】高難易度モード含め全クリア。",
      "howto": "【とことんモード】高難易度モード含め全クリア。"
    },
    {
      "id": 37,
      "imageId": 45,
      "cred": 20,
      "flags": 1,
      "label": "底知れぬ妖の世界へ",
      "description": "【トレーニングモード】プレイ時間が、１２０分を超えた。",
      "howto": "【トレーニングモード】プレイ時間が、１２０分を超えた。"
    },
    {
      "id": 38,
      "imageId": 46,
      "cred": 10,
      "flags": 1,
      "label": "妖怪コレクター",
      "description": "【ギャラリー】絵を２０枚見た。",
      "howto": "【ギャラリー】絵を２０枚見た。"
    },
    {
      "id": 39,
      "imageId": 47,
      "cred": 10,
      "flags": 1,
      "label": "妖怪の調べ",
      "description": "【ギャラリー】音楽を５曲聴いた。",
      "howto": "【ギャラリー】音楽を５曲聴いた。"
    },
    {
      "id": 40,
      "imageId": 48,
      "cred": 10,
      "flags": 1,
      "label": "清継君垂涎のコレクション",
      "description": "【ギャラリー】絵が全部揃った状態で、ギャラリーに入った。初回の１回のみ。",
      "howto": "【ギャラリー】絵が全部揃った状態で、ギャラリーに入った。初回の１回のみ。"
    },
    {
      "id": 41,
      "imageId": 49,
      "cred": 10,
      "flags": 1,
      "label": "百鬼大戦の始まり",
      "description": "【ネットワーク】対戦に１勝した。",
      "howto": "【ネットワーク】対戦に１勝した。"
    },
    {
      "id": 42,
      "imageId": 50,
      "cred": 20,
      "flags": 1,
      "label": "若き妖の歩み",
      "description": "【ネットワーク】対戦に５勝した。",
      "howto": "【ネットワーク】対戦に５勝した。"
    },
    {
      "id": 43,
      "imageId": 51,
      "cred": 30,
      "flags": 1,
      "label": "戦いの渦中へ",
      "description": "【ネットワーク】対戦に２０勝した。",
      "howto": "【ネットワーク】対戦に２０勝した。"
    },
    {
      "id": 44,
      "imageId": 52,
      "cred": 50,
      "flags": 1,
      "label": "百鬼の屍の先に",
      "description": "【ネットワーク】対戦に１００勝した。",
      "howto": "【ネットワーク】対戦に１００勝した。"
    },
    {
      "id": 45,
      "imageId": 53,
      "cred": 10,
      "flags": 1,
      "label": "敵を知る事",
      "description": "【ネットワーク】対戦後、相手から組編成を入手した。１組目。",
      "howto": "【ネットワーク】対戦後、相手から組編成を入手した。１組目。"
    },
    {
      "id": 46,
      "imageId": 54,
      "cred": 20,
      "flags": 1,
      "label": "妖の海へ",
      "description": "【ネットワーク】対戦後、相手から組編成を入手した。１０組目。",
      "howto": "【ネットワーク】対戦後、相手から組編成を入手した。１０組目。"
    },
    {
      "id": 47,
      "imageId": 55,
      "cred": 10,
      "flags": 1,
      "label": "お前が義兄弟だ！",
      "description": "【ストーリーモード/とことんモード/ネットワーク】子分を獲得した。１匹目。",
      "howto": "【ストーリーモード/とことんモード/ネットワーク】子分を獲得した。１匹目。"
    },
    {
      "id": 48,
      "imageId": 56,
      "cred": 20,
      "flags": 1,
      "label": "主への道",
      "description": "【ストーリーモード/とことんモード/ネットワーク】子分を獲得した。２０匹目。",
      "howto": "【ストーリーモード/とことんモード/ネットワーク】子分を獲得した。２０匹目。"
    },
    {
      "id": 49,
      "imageId": 57,
      "cred": 30,
      "flags": 1,
      "label": "組を名乗りし者",
      "description": "【ストーリーモード/とことんモード/ネットワーク】子分を獲得した。５０匹目。",
      "howto": "【ストーリーモード/とことんモード/ネットワーク】子分を獲得した。５０匹目。"
    },
    {
      "id": 50,
      "imageId": 58,
      "cred": 40,
      "flags": 1,
      "label": "百鬼夜行",
      "description": "【ストーリーモード/とことんモード/ネットワーク】子分を獲得した。１００匹目。",
      "howto": "【ストーリーモード/とことんモード/ネットワーク】子分を獲得した。１００匹目。"
    },
    {
      "id": 51,
      "imageId": 59,
      "cred": 50,
      "flags": 1,
      "label": "妖の主",
      "description": "【ストーリーモード/とことんモード/ネットワーク】子分を獲得した。全部揃った。",
      "howto": "【ストーリーモード/とことんモード/ネットワーク】子分を獲得した。全部揃った。"
    },
    {
      "id": 52,
      "imageId": 60,
      "cred": 10,
      "flags": 1,
      "label": "妖たちとの出会い",
      "description": "【組編成】組をつくった。１組目。",
      "howto": "【組編成】組をつくった。１組目。"
    },
    {
      "id": 53,
      "imageId": 61,
      "cred": 10,
      "flags": 1,
      "label": "ここから先は妖の領分",
      "description": "【組編成】組をつくった。５組目。",
      "howto": "【組編成】組をつくった。５組目。"
    },
    {
      "id": 54,
      "imageId": 62,
      "cred": 10,
      "flags": 1,
      "label": "妖に魅せられた者",
      "description": "【組編成】組をつくった。１０組目。",
      "howto": "【組編成】組をつくった。１０組目。"
    },
    {
      "id": 55,
      "imageId": 63,
      "cred": 30,
      "flags": 1,
      "label": "妖に心を囚われた者",
      "description": "【組編成】組をつくった。３０組目。",
      "howto": "【組編成】組をつくった。３０組目。"
    }
  ]
}