[
  {
    "titleId": 1480656956,
    "largeId": 131086,
    "smallId": 65550,
    "commonId": 14
  },
  {
    "titleId": 1480656956,
    "largeId": 131087,
    "smallId": 65551,
    "commonId": 15
  }
]