{
  "avatarAssetsPossible": 17,
  "maleAvatarAssetsPossible": 7,
  "femaleAvatarAssetsPossible": 7,
  "avatarAssets": [
    {
      "id": "00001000-0002-01b3-c4ae-1d564d5308ce",
      "imageId": 1,
      "subcategory": 0,
      "unknown": 0,
      "isMale": false,
      "isFemale": false,
      "isUnisex": true,
      "label": "Halo Waypoint Monitor",
      "description": "This AI companion will help you find your way around Halo Waypoint.",
      "howto": "Download Halo Waypoint and enlist today to receive your very own Waypoint Monitor!"
    },
    {
      "id": "00000544-0003-3161-c6ae-bbe84d5308ce",
      "imageId": 3,
      "subcategory": 0,
      "unknown": 2015221016,
      "isMale": true,
      "isFemale": false,
      "isUnisex": false,
      "label": "Recon Helmet",
      "description": "Unlocked Halo 3: ODST’s Vidmaster Endure Achievement",
      "howto": "Unlock Halo 3: ODST’s Vidmaster Endure Achievement"
    },
    {
      "id": "00000544-0003-4162-cc53-f7ce4d5308ce",
      "imageId": 4,
      "subcategory": 0,
      "unknown": 2015221016,
      "isMale": false,
      "isFemale": true,
      "isUnisex": false,
      "label": "ODST Dare Helmet",
      "description": "Unlocked Halo 3: ODST’s Vidmaster Endure Achievement",
      "howto": "Unlock Halo 3: ODST’s Vidmaster Endure Achievement"
    },
    {
      "id": "00000544-0004-e161-c23a-da8a4d5308ce",
      "imageId": 5,
      "subcategory": 0,
      "unknown": 2015221016,
      "isMale": true,
      "isFemale": false,
      "isUnisex": false,
      "label": "ODST Helmet",
      "description": "Unlocked Halo 3: ODST’s Campaign Complete Achievement",
      "howto": "Unlock Halo 3: ODST’s Campaign Complete Achievement"
    },
    {
      "id": "00000544-0004-a162-c56b-14134d5308ce",
      "imageId": 6,
      "subcategory": 0,
      "unknown": 2015221016,
      "isMale": false,
      "isFemale": true,
      "isUnisex": false,
      "label": "ODST Helmet",
      "description": "Unlocked Halo 3: ODST’s Campaign Complete Achievement",
      "howto": "Unlock Halo 3: ODST’s Campaign Complete Achievement"
    },
    {
      "id": "00000208-0005-2121-cce4-50c24d5308ce",
      "imageId": 7,
      "subcategory": 0,
      "unknown": 2015221016,
      "isMale": true,
      "isFemale": false,
      "isUnisex": false,
      "label": "ODST Hoodie",
      "description": "Unlocked Halo 3: ODST’s Dark Times Achievement",
      "howto": "Unlock Halo 3: ODST’s Dark Times Achievement"
    },
    {
      "id": "00000208-0005-11e2-c8bf-11824d5308ce",
      "imageId": 8,
      "subcategory": 0,
      "unknown": 2015221016,
      "isMale": false,
      "isFemale": true,
      "isUnisex": false,
      "label": "ODST Hoodie",
      "description": "Unlocked Halo 3: ODST’s Dark Times Achievement",
      "howto": "Unlock Halo 3: ODST’s Dark Times Achievement"
    },
    {
      "id": "00000ffc-0006-b121-cc9f-faf44d5308ce",
      "imageId": 9,
      "subcategory": 0,
      "unknown": 2015221016,
      "isMale": true,
      "isFemale": false,
      "isUnisex": false,
      "label": "ODST Armor",
      "description": "Unlocked Halo 3: ODST’s Good Samaritan Achievement",
      "howto": "Unlock Halo 3: ODST’s Good Samaritan Achievement"
    },
    {
      "id": "00000ffc-0006-31e2-c935-95e74d5308ce",
      "imageId": 10,
      "subcategory": 0,
      "unknown": 2015221016,
      "isMale": false,
      "isFemale": true,
      "isUnisex": false,
      "label": "ODST Armor",
      "description": "Unlocked Halo 3: ODST’s Good Samaritan Achievement",
      "howto": "Unlock Halo 3: ODST’s Good Samaritan Achievement"
    },
    {
      "id": "00000008-0007-41b1-c182-9c8f4d5308ce",
      "imageId": 11,
      "subcategory": 0,
      "unknown": 2015221016,
      "isMale": true,
      "isFemale": false,
      "isUnisex": false,
      "label": "ODST Shirt",
      "description": "Unlocked Halo 3: ODST’s Tourist Achievement",
      "howto": "Unlock Halo 3: ODST’s Tourist Achievement"
    },
    {
      "id": "00000008-0007-7102-c2fc-d81c4d5308ce",
      "imageId": 12,
      "subcategory": 0,
      "unknown": 2015221016,
      "isMale": false,
      "isFemale": true,
      "isUnisex": false,
      "label": "ODST Shirt",
      "description": "Unlocked Halo 3: ODST’s Tourist Achievement",
      "howto": "Unlock Halo 3: ODST’s Tourist Achievement"
    },
    {
      "id": "00000544-000d-1161-c529-8d3d4d5308ce",
      "imageId": 13,
      "subcategory": 0,
      "unknown": 2015221016,
      "isMale": true,
      "isFemale": false,
      "isUnisex": false,
      "label": "Halo Spartan EVA Helmet",
      "description": "This variant of the powerful MJOLNIR helmet is designed for zero-gravity, zero-atmosphere combat.",
      "howto": "Achieve Waypoint Career Milestone 50 to unlock the exclusive Extra-Vehicular Activity (EVA) helmet."
    },
    {
      "id": "00000544-000d-0172-ca48-ba784d5308ce",
      "imageId": 14,
      "subcategory": 0,
      "unknown": 2015221016,
      "isMale": false,
      "isFemale": true,
      "isUnisex": false,
      "label": "Halo Spartan EVA Helmet",
      "description": "This variant of the powerful MJOLNIR helmet is designed for zero-gravity, zero-atmosphere combat.",
      "howto": "Achieve Waypoint Career Milestone 50 to unlock the exclusive Extra-Vehicular Activity (EVA) helmet."
    },
    {
      "id": "00000208-000e-e181-c4a1-35b54d5308ce",
      "imageId": 15,
      "subcategory": 0,
      "unknown": 2015221016,
      "isMale": true,
      "isFemale": false,
      "isUnisex": false,
      "label": "Halo Reach Beta Shirt",
      "description": "Show off your Halo cred with this shirt proclaiming your participation in the Halo: Reach Beta.",
      "howto": "Earned by participating in the Halo: Reach Multiplayer Beta"
    },
    {
      "id": "00000208-000e-a1a2-c939-fb674d5308ce",
      "imageId": 16,
      "subcategory": 0,
      "unknown": 2015221016,
      "isMale": false,
      "isFemale": true,
      "isUnisex": false,
      "label": "Halo Reach Beta Shirt",
      "description": "Show off your Halo cred with this shirt proclaiming your participation in the Halo: Reach Beta.",
      "howto": "Earned by participating in the Halo: Reach Multiplayer Beta"
    },
    {
      "id": "00000544-000f-1173-cbb1-7e804d5308ce",
      "imageId": 55,
      "subcategory": 0,
      "unknown": 2015221016,
      "isMale": false,
      "isFemale": false,
      "isUnisex": true,
      "label": "Halo 4 - RAIDER Helmet",
      "description": "RAIDER Armor Helmet for Spartan-IV.",
      "howto": "Unlock all technical specs for the RAIDER Spartan-IV armor."
    },
    {
      "id": "00000544-0010-2173-c156-ba664d5308ce",
      "imageId": 56,
      "subcategory": 0,
      "unknown": 2015221016,
      "isMale": false,
      "isFemale": false,
      "isUnisex": true,
      "label": "Halo 4 - RAIDER DSTT Helmet",
      "description": "RAIDER DSTT (Distort) Armor Helmet for Spartan-IV.",
      "howto": "Unlock all technical specs for the RAIDER DSTT Spartan-IV armor variant."
    }
  ]
}